Application parameters:
  batch  =>  nothing
  instance  =>  "/IN/201_2500_DI_14.txt-Q2"
  ub  =>  1.0e6
  cfg  =>  "/CFG/BPP.cfg"
data = Colored Bin Packing dataset.
number of items = 202
number of colors = 2
capacity = 2000
Items : 
	 item 1, weight= 8, color= 1
	 item 2, weight= 8, color= 1
	 item 3, weight= 16, color= 0
	 item 4, weight= 20, color= 0
	 item 5, weight= 32, color= 0
	 item 6, weight= 32, color= 1
	 item 7, weight= 34, color= 0
	 item 8, weight= 36, color= 0
	 item 9, weight= 36, color= 0
	 item 10, weight= 36, color= 1
	 item 11, weight= 38, color= 0
	 item 12, weight= 40, color= 0
	 item 13, weight= 40, color= 0
	 item 14, weight= 40, color= 0
	 item 15, weight= 40, color= 1
	 item 16, weight= 40, color= 1
	 item 17, weight= 42, color= 0
	 item 18, weight= 44, color= 1
	 item 19, weight= 44, color= 1
	 item 20, weight= 46, color= 0
	 item 21, weight= 46, color= 0
	 item 22, weight= 48, color= 0
	 item 23, weight= 48, color= 1
	 item 24, weight= 52, color= 0
	 item 25, weight= 52, color= 0
	 item 26, weight= 52, color= 0
	 item 27, weight= 52, color= 0
	 item 28, weight= 52, color= 1
	 item 29, weight= 56, color= 0
	 item 30, weight= 56, color= 0
	 item 31, weight= 58, color= 0
	 item 32, weight= 58, color= 1
	 item 33, weight= 60, color= 0
	 item 34, weight= 64, color= 0
	 item 35, weight= 64, color= 0
	 item 36, weight= 64, color= 1
	 item 37, weight= 64, color= 1
	 item 38, weight= 68, color= 0
	 item 39, weight= 68, color= 0
	 item 40, weight= 72, color= 0
	 item 41, weight= 72, color= 1
	 item 42, weight= 76, color= 0
	 item 43, weight= 76, color= 1
	 item 44, weight= 76, color= 1
	 item 45, weight= 80, color= 0
	 item 46, weight= 84, color= 0
	 item 47, weight= 88, color= 0
	 item 48, weight= 88, color= 1
	 item 49, weight= 96, color= 0
	 item 50, weight= 96, color= 1
	 item 51, weight= 98, color= 0
	 item 52, weight= 98, color= 1
	 item 53, weight= 98, color= 1
	 item 54, weight= 100, color= 0
	 item 55, weight= 112, color= 0
	 item 56, weight= 112, color= 1
	 item 57, weight= 114, color= 0
	 item 58, weight= 114, color= 1
	 item 59, weight= 116, color= 1
	 item 60, weight= 128, color= 1
	 item 61, weight= 128, color= 1
	 item 62, weight= 132, color= 0
	 item 63, weight= 132, color= 1
	 item 64, weight= 152, color= 0
	 item 65, weight= 154, color= 0
	 item 66, weight= 154, color= 0
	 item 67, weight= 154, color= 1
	 item 68, weight= 164, color= 0
	 item 69, weight= 166, color= 0
	 item 70, weight= 174, color= 1
	 item 71, weight= 181, color= 0
	 item 72, weight= 182, color= 0
	 item 73, weight= 186, color= 1
	 item 74, weight= 187, color= 1
	 item 75, weight= 197, color= 1
	 item 76, weight= 202, color= 1
	 item 77, weight= 210, color= 0
	 item 78, weight= 211, color= 0
	 item 79, weight= 213, color= 0
	 item 80, weight= 218, color= 1
	 item 81, weight= 220, color= 0
	 item 82, weight= 220, color= 0
	 item 83, weight= 225, color= 0
	 item 84, weight= 230, color= 0
	 item 85, weight= 231, color= 1
	 item 86, weight= 236, color= 0
	 item 87, weight= 237, color= 1
	 item 88, weight= 241, color= 0
	 item 89, weight= 245, color= 1
	 item 90, weight= 246, color= 1
	 item 91, weight= 262, color= 0
	 item 92, weight= 263, color= 1
	 item 93, weight= 265, color= 1
	 item 94, weight= 282, color= 0
	 item 95, weight= 289, color= 0
	 item 96, weight= 291, color= 1
	 item 97, weight= 295, color= 1
	 item 98, weight= 302, color= 1
	 item 99, weight= 308, color= 0
	 item 100, weight= 311, color= 1
	 item 101, weight= 325, color= 0
	 item 102, weight= 330, color= 1
	 item 103, weight= 343, color= 1
	 item 104, weight= 344, color= 0
	 item 105, weight= 361, color= 0
	 item 106, weight= 362, color= 1
	 item 107, weight= 383, color= 1
	 item 108, weight= 398, color= 0
	 item 109, weight= 405, color= 1
	 item 110, weight= 416, color= 0
	 item 111, weight= 431, color= 1
	 item 112, weight= 442, color= 1
	 item 113, weight= 457, color= 1
	 item 114, weight= 460, color= 1
	 item 115, weight= 487, color= 1
	 item 116, weight= 493, color= 0
	 item 117, weight= 497, color= 0
	 item 118, weight= 498, color= 1
	 item 119, weight= 501, color= 0
	 item 120, weight= 501, color= 1
	 item 121, weight= 562, color= 1
	 item 122, weight= 571, color= 0
	 item 123, weight= 573, color= 1
	 item 124, weight= 577, color= 1
	 item 125, weight= 581, color= 0
	 item 126, weight= 642, color= 1
	 item 127, weight= 663, color= 1
	 item 128, weight= 669, color= 1
	 item 129, weight= 676, color= 1
	 item 130, weight= 738, color= 0
	 item 131, weight= 767, color= 0
	 item 132, weight= 773, color= 1
	 item 133, weight= 777, color= 1
	 item 134, weight= 781, color= 0
	 item 135, weight= 808, color= 0
	 item 136, weight= 833, color= 1
	 item 137, weight= 834, color= 1
	 item 138, weight= 907, color= 1
	 item 139, weight= 1001, color= 0
	 item 140, weight= 1002, color= 1
	 item 141, weight= 1005, color= 0
	 item 142, weight= 1065, color= 1
	 item 143, weight= 1069, color= 1
	 item 144, weight= 1073, color= 1
	 item 145, weight= 1081, color= 1
	 item 146, weight= 1134, color= 0
	 item 147, weight= 1199, color= 0
	 item 148, weight= 1205, color= 0
	 item 149, weight= 1230, color= 0
	 item 150, weight= 1256, color= 1
	 item 151, weight= 1303, color= 0
	 item 152, weight= 1309, color= 1
	 item 153, weight= 1313, color= 0
	 item 154, weight= 1317, color= 0
	 item 155, weight= 1326, color= 1
	 item 156, weight= 1384, color= 0
	 item 157, weight= 1399, color= 1
	 item 158, weight= 1401, color= 0
	 item 159, weight= 1405, color= 1
	 item 160, weight= 1406, color= 0
	 item 161, weight= 1409, color= 1
	 item 162, weight= 1417, color= 0
	 item 163, weight= 1470, color= 1
	 item 164, weight= 1479, color= 1
	 item 165, weight= 1485, color= 0
	 item 166, weight= 1515, color= 0
	 item 167, weight= 1526, color= 1
	 item 168, weight= 1541, color= 1
	 item 169, weight= 1567, color= 1
	 item 170, weight= 1570, color= 0
	 item 171, weight= 1589, color= 0
	 item 172, weight= 1592, color= 0
	 item 173, weight= 1606, color= 0
	 item 174, weight= 1611, color= 1
	 item 175, weight= 1629, color= 1
	 item 176, weight= 1642, color= 0
	 item 177, weight= 1647, color= 0
	 item 178, weight= 1651, color= 0
	 item 179, weight= 1655, color= 1
	 item 180, weight= 1666, color= 0
	 item 181, weight= 1683, color= 0
	 item 182, weight= 1685, color= 1
	 item 183, weight= 1686, color= 1
	 item 184, weight= 1706, color= 0
	 item 185, weight= 1707, color= 0
	 item 186, weight= 1713, color= 0
	 item 187, weight= 1717, color= 1
	 item 188, weight= 1724, color= 1
	 item 189, weight= 1725, color= 0
	 item 190, weight= 1726, color= 0
	 item 191, weight= 1741, color= 1
	 item 192, weight= 1742, color= 0
	 item 193, weight= 1745, color= 1
	 item 194, weight= 1749, color= 0
	 item 195, weight= 1750, color= 0
	 item 196, weight= 1758, color= 1
	 item 197, weight= 1765, color= 1
	 item 198, weight= 1777, color= 0
	 item 199, weight= 1778, color= 1
	 item 200, weight= 1783, color= 1
	 item 201, weight= 1786, color= 0
	 item 202, weight= 1794, color= 1

VRPSolver warning: Interval set for resource 1 on source node (when source != sink) is ignored (by definition is [0.0,0.0])
VRPSolver warning: Interval set for resource 2 on source node (when source != sink) is ignored (by definition is [0.0,0.0])
VRPSolver warning: Interval set for resource 3 on source node (when source != sink) is ignored (by definition is [0.0,0.0])
[41m solve [00m
~~~~~~~~~~~~~~~~~~~~~~~~~~~~~~~~~~~~~~~~~~~~~~~~~~~~~~~~~~~~~~~~~~~~~~~~~~~~~~
VRPSolver v0.4.1, 24/03/2021. Web: vrpsolver.math.u-bordeaux.fr
Corresponds to the solver by Pessoa, Sadykov, Uchoa and Vanderbeck (2020)
Paper: dx.doi.org/10.1007/s10107-020-01523-z
USE THIS CODE ONLY FOR ACADEMIC PURPOSES AT YOUR OWN RISK
~~~~~~~~~~~~~~~~~~~~~~~~~~~~~~~~~~~~~~~~~~~~~~~~~~~~~~~~~~~~~~~~~~~~~~~~~~~~~~
BaPCod v053, 24/03/2021, © Inria Bordeaux, France
~~~~~~~~~~~~~~~~~~~~~~~~~~~~~~~~~~~~~~~~~~~~~~~~~~~~~~~~~~~~~~~~~~~~~~~~~~~~~~
VRPSolver parameters:
GlobalTimeLimit = 60
MaxNbOfBBtreeNodeTreated = 100000
treeSearchStrategy = 1
RCSPstopCutGenTimeThresholdInPricing = 10
RCSPhardTimeThresholdInPricing = 20
RCSPnumberOfBucketsPerVertex = 2000
RCSPdynamicBucketSteps = 0
RCSPuseBidirectionalSearch = 1
RCSPapplyReducedCostFixing = 1
RCSPredCostFixingFalseGap = 0
RCSPmaxNumOfColsPerIteration = 100
RCSPmaxNumOfColsPerExactIteration = 100
RCSPheurLabelingStrategy = 4
StabilizationMinPhaseOfStage = 1
RCSPmaxNumOfLabelsInEnumeration = 100000
RCSPmaxNumOfEnumeratedSolutions = 1000000
RCSPmaxNumOfEnumSolutionsForMIP = 100000
RCSPinitNGneighbourhoodSize = 0
RCSPmaxNGneighbourhoodSize = 0
RCSPrankOneCutsMaxNumPerRound = 100
RCSPrankOneCutsMaxNumRows = -1
RCSPrankOneCutsMemoryType = 2
CutTailingOffThreshold = 0.02
CutTailingOffCounterThreshold = 3
SafeDualBoundScaleFactor = -1
StrongBranchingPhaseOneCandidatesNumber = 100
StrongBranchingPhaseOneTreeSizeEstimRatio = 0.3
StrongBranchingPhaseTwoCandidatesNumber = 1
StrongBranchingPhaseTwoTreeSizeEstimRatio = 0.1
MaxTimeForRestrictedMasterIpHeur = -1
DivingHeurUseDepthLimit = 0
MaxLDSbreadth = 3
MaxLDSdepth = 2
New model incumbent solution 1e+06, TIME = 0h0m0s3t = 3
Model is built TIME = 0h0m2s11t = 211
************************************************************************************************
**** BaB tree root node
**** Local DB = -1e+12, global bounds : [ -1e+12 , 1e+06 ], TIME = 0h0m2s11t = 211
**** 1 open nodes, 0 columns (0 active), 0 dyn. constrs. (0 active), 406 art. vars. (406 active)
************************************************************************************************
<DWph=2> <it= 10> <et=4.64> <Mt= 0.02> <Spt= 2.50> <nCl=1000> <DB=-2627954607.9363> <Mlp=149719563.5413> <PB=1000000> 
<DWph=2> <it= 20> <et=6.97> <Mt= 0.12> <Spt= 2.20> <nCl=1000> <DB=-1366963181.6764> <Mlp=119696094.3702> <PB=1000000> 
<DWph=2> <it= 30> <et=9.59> <Mt= 0.28> <Spt= 2.34> <nCl=1000> <DB=-679127109.8751> <Mlp=92568542.0287> <PB=1000000> 
<DWph=2> <it= 40> <et=12.19> <Mt= 0.38> <Spt= 2.22> <nCl=1000> <DB=-313849175.3097> <Mlp=75600017.3610> <PB=1000000> 
<DWph=2> <it= 50> <et=15.24> <Mt= 0.47> <Spt= 2.58> <nCl=1000> <DB=-217028099.9717> <Mlp=56746881.6499> <PB=1000000> 
<DWph=2> <it= 60> <et=18.62> <Mt= 0.49> <Spt= 2.88> <nCl=1000> <DB=-193512751.8714> <Mlp=31230203.8350> <PB=1000000> 
<DWph=2> <it= 70> <et=23.42> <Mt= 0.35> <Spt= 4.46> <nCl=864> <DB=    8.1330> <Mlp=   66.8497> <PB=1000000> 
<DWph=2> <it= 80> <et=25.57> <Mt= 0.26> <Spt= 1.87> <nCl=990> <DB=   44.5931> <Mlp=   65.6139> <PB=1000000> 
<DWph=2> <it= 90> <et=27.73> <Mt= 0.41> <Spt= 1.75> <nCl=918> <DB=   64.4101> <Mlp=   65.0245> <PB=1000000> 
<DWph=2> <it=100> <et=29.54> <Mt= 0.22> <Spt= 1.59> <nCl=775> <DB=   64.9133> <Mlp=   65.0013> <PB=1000000> 
<DWph=2> <it=110> <et=31.26> <Mt= 0.15> <Spt= 1.56> <nCl=126> <DB=   64.9993> <Mlp=   65.0004> <PB=1000000> 
<DWph=2> <it=116> <et=32.71> <Mt= 0.05> <Spt= 1.26> <nCl= 24> <DB=   64.9993> <Mlp=   65.0004> <PB=1000000> 
<DWph=1> <it=119> <et=34.37> <Mt= 0.03> <Spt= 1.63> <nCl= 57> <DB=   65.0000> <Mlp=   65.0000> <PB=1000000> 
<DWph=0> <it=120> <et=35.55> <Mt= 0.00> <Spt= 1.17> <nCl=  0> <DB=   65.0000> <Mlp=   65.0000> <PB=1000000> 
Reduced cost fixing for graph G_1... took 17.55 sec., 358606 buck. arcs remain (100% from prev., 37% from max.)
Run enumeration... took 0.41 sec. and not succeeded.
ColGenEvalAlg final dual bound: 65 (rounded: 65)
----------- Diving heuristic started -----------
<DWph=2> <it=  1> <et=53.58> <Mt= 0.01> <Spt= 0.00> <nCl=  0> <DB=   65.0000> <Mlp=   65.0000> <PB=1000000> 
<DWph=1> <it=  2> <et=53.58> <Mt= 0.00> <Spt= 0.00> <nCl=  0> <DB=   65.0000> <Mlp=   65.0000> <PB=1000000> 
---- Diving heuristic node with dive number = 0, fix depth = 0 and tabu list size = 0
Fixed projected solution = [x_1_0_1_OspV=1, x_1_66_1_OspV=1, x_1_132_1_OspV=1, x_1_144_1_OspV=1]
<DWph=2> <it=  1> <et=53.69> <Mt= 0.00> <Spt= 0.00> <nCl=  0> <DB=   65.0000> <Mlp=   65.0000> <PB=1000000> 
<DWph=1> <it=  2> <et=53.69> <Mt= 0.00> <Spt= 0.00> <nCl=  0> <DB=   65.0000> <Mlp=   65.0000> <PB=1000000> 
---- Diving heuristic node with dive number = 0, fix depth = 0 and tabu list size = 0
Fixed projected solution = [x_1_0_1_OspV=1, x_1_63_1_OspV=1, x_1_127_1_OspV=1, x_1_148_1_OspV=1]
<DWph=2> <it=  1> <et=53.78> <Mt= 0.01> <Spt= 0.00> <nCl=  0> <DB=   65.0000> <Mlp=   65.0000> <PB=1000000> 
<DWph=1> <it=  2> <et=53.78> <Mt= 0.00> <Spt= 0.00> <nCl=  0> <DB=   65.0000> <Mlp=   65.0000> <PB=1000000> 
---- Diving heuristic node with dive number = 0, fix depth = 0 and tabu list size = 0
Fixed projected solution = [x_1_0_1_OspV=1, x_1_35_1_OspV=1, x_1_113_1_OspV=1, x_1_164_1_OspV=1]
<DWph=2> <it=  1> <et=53.86> <Mt= 0.00> <Spt= 0.00> <nCl=  0> <DB=   65.0000> <Mlp=   65.0000> <PB=1000000> 
<DWph=1> <it=  2> <et=53.87> <Mt= 0.00> <Spt= 0.00> <nCl=  0> <DB=   65.0000> <Mlp=   65.0000> <PB=1000000> 
---- Diving heuristic node with dive number = 0, fix depth = 0 and tabu list size = 0
Fixed projected solution = [x_1_0_1_OspV=1, x_1_45_1_OspV=1, x_1_109_1_OspV=1, x_1_166_1_OspV=1]
<DWph=2> <it=  1> <et=53.95> <Mt= 0.01> <Spt= 0.00> <nCl=  0> <DB=   65.0000> <Mlp=   65.0000> <PB=1000000> 
<DWph=1> <it=  2> <et=53.95> <Mt= 0.00> <Spt= 0.00> <nCl=  0> <DB=   65.0000> <Mlp=   65.0000> <PB=1000000> 
---- Diving heuristic node with dive number = 0, fix depth = 0 and tabu list size = 0
Fixed projected solution = [x_1_0_1_OspV=1, x_1_46_1_OspV=1, x_1_111_1_OspV=1, x_1_165_1_OspV=1]
<DWph=2> <it=  1> <et=54.04> <Mt= 0.00> <Spt= 0.00> <nCl=  0> <DB=   65.0000> <Mlp=   65.0000> <PB=1000000> 
<DWph=1> <it=  2> <et=54.04> <Mt= 0.00> <Spt= 0.00> <nCl=  0> <DB=   65.0000> <Mlp=   65.0000> <PB=1000000> 
---- Diving heuristic node with dive number = 0, fix depth = 0 and tabu list size = 0
Fixed projected solution = [x_1_0_1_OspV=1, x_1_42_1_OspV=1, x_1_107_1_OspV=1, x_1_168_1_OspV=1]
<DWph=2> <it=  1> <et=54.13> <Mt= 0.01> <Spt= 0.00> <nCl=  0> <DB=   65.0000> <Mlp=   65.0000> <PB=1000000> 
<DWph=1> <it=  2> <et=54.13> <Mt= 0.00> <Spt= 0.00> <nCl=  0> <DB=   65.0000> <Mlp=   65.0000> <PB=1000000> 
---- Diving heuristic node with dive number = 0, fix depth = 1 and tabu list size = 0
Fixed projected solution = [x_1_0_1_OspV=1, x_1_33_1_OspV=1, x_1_100_1_OspV=1, x_1_175_1_OspV=1]
<DWph=2> <it=  1> <et=54.20> <Mt= 0.01> <Spt= 0.00> <nCl=  0> <DB=   65.0000> <Mlp=   65.0000> <PB=1000000> 
<DWph=1> <it=  2> <et=54.20> <Mt= 0.00> <Spt= 0.00> <nCl=  0> <DB=   65.0000> <Mlp=   65.0000> <PB=1000000> 
---- Diving heuristic node with dive number = 0, fix depth = 2 and tabu list size = 0
Fixed projected solution = [x_1_0_1_OspV=1, x_1_38_1_OspV=1, x_1_103_1_OspV=1, x_1_171_1_OspV=1]
<DWph=2> <it=  1> <et=54.29> <Mt= 0.00> <Spt= 0.00> <nCl=  0> <DB=   65.0000> <Mlp=   65.0000> <PB=1000000> 
<DWph=1> <it=  2> <et=54.29> <Mt= 0.00> <Spt= 0.00> <nCl=  0> <DB=   65.0000> <Mlp=   65.0000> <PB=1000000> 
---- Diving heuristic node with dive number = 0, fix depth = 3 and tabu list size = 0
Fixed projected solution = [x_1_0_1_OspV=1, x_1_37_1_OspV=1, x_1_104_1_OspV=1, x_1_172_1_OspV=1]
<DWph=2> <it=  1> <et=54.32> <Mt= 0.02> <Spt= 0.00> <nCl=  0> <DB=   65.0000> <Mlp=   65.0000> <PB=1000000> 
<DWph=1> <it=  2> <et=54.32> <Mt= 0.00> <Spt= 0.00> <nCl=  0> <DB=   65.0000> <Mlp=   65.0000> <PB=1000000> 
---- Diving heuristic node with dive number = 0, fix depth = 4 and tabu list size = 0
Fixed projected solution = [x_1_0_1_OspV=1, x_1_57_1_OspV=1, x_1_124_1_OspV=1, x_1_152_1_OspV=1]
<DWph=2> <it=  1> <et=54.34> <Mt= 0.00> <Spt= 0.00> <nCl=  0> <DB=   65.0000> <Mlp=   65.0000> <PB=1000000> 
<DWph=1> <it=  2> <et=54.34> <Mt= 0.01> <Spt= 0.00> <nCl=  0> <DB=   65.0000> <Mlp=   65.0000> <PB=1000000> 
---- Diving heuristic node with dive number = 0, fix depth = 5 and tabu list size = 0
Fixed projected solution = [x_1_0_1_OspV=1, x_1_55_1_OspV=1, x_1_121_1_OspV=1, x_1_155_1_OspV=1]
<DWph=2> <it=  1> <et=54.36> <Mt= 0.00> <Spt= 0.00> <nCl=  0> <DB=   65.0000> <Mlp=   65.0000> <PB=1000000> 
<DWph=1> <it=  2> <et=54.36> <Mt= 0.00> <Spt= 0.00> <nCl=  0> <DB=   65.0000> <Mlp=   65.0000> <PB=1000000> 
---- Diving heuristic node with dive number = 0, fix depth = 6 and tabu list size = 0
Fixed projected solution = [x_1_0_1_OspV=1, x_1_23_1_OspV=1, x_1_90_1_OspV=1, x_1_184_1_OspV=1]
<DWph=2> <it=  1> <et=54.39> <Mt= 0.03> <Spt= 0.00> <nCl=  0> <DB=   65.0000> <Mlp=   65.0000> <PB=1000000> 
<DWph=1> <it=  2> <et=54.39> <Mt= 0.00> <Spt= 0.00> <nCl=  0> <DB=   65.0000> <Mlp=   65.0000> <PB=1000000> 
---- Diving heuristic node with dive number = 0, fix depth = 7 and tabu list size = 0
Fixed projected solution = [x_1_0_1_OspV=1, x_1_51_1_OspV=1, x_1_116_1_OspV=1, x_1_161_1_OspV=1]
<DWph=2> <it=  1> <et=54.43> <Mt= 0.02> <Spt= 0.00> <nCl=  0> <DB=   65.0000> <Mlp=   65.0000> <PB=1000000> 
<DWph=1> <it=  2> <et=54.43> <Mt= 0.00> <Spt= 0.00> <nCl=  0> <DB=   65.0000> <Mlp=   65.0000> <PB=1000000> 
---- Diving heuristic node with dive number = 0, fix depth = 8 and tabu list size = 0
Fixed projected solution = [x_1_0_1_OspV=1, x_1_40_1_OspV=1, x_1_105_1_OspV=1, x_1_169_1_OspV=1]
<DWph=2> <it=  1> <et=54.47> <Mt= 0.03> <Spt= 0.00> <nCl=  0> <DB=   65.0000> <Mlp=   65.0000> <PB=1000000> 
<DWph=1> <it=  2> <et=54.47> <Mt= 0.00> <Spt= 0.00> <nCl=  0> <DB=   65.0000> <Mlp=   65.0000> <PB=1000000> 
---- Diving heuristic node with dive number = 0, fix depth = 9 and tabu list size = 0
Fixed projected solution = [x_1_0_1_OspV=1, x_1_8_1_OspV=1, x_1_73_1_OspV=1, x_1_199_1_OspV=1]
<DWph=2> <it=  1> <et=54.53> <Mt= 0.04> <Spt= 0.00> <nCl=  0> <DB=   65.0000> <Mlp=   65.0000> <PB=1000000> 
<DWph=1> <it=  2> <et=54.53> <Mt= 0.01> <Spt= 0.00> <nCl=  0> <DB=   65.0000> <Mlp=   65.0000> <PB=1000000> 
---- Diving heuristic node with dive number = 0, fix depth = 10 and tabu list size = 0
Fixed projected solution = [x_1_0_1_OspV=1, x_1_9_1_OspV=1, x_1_74_1_OspV=1, x_1_198_1_OspV=1]
<DWph=2> <it=  1> <et=54.56> <Mt= 0.02> <Spt= 0.00> <nCl=  0> <DB=   65.0000> <Mlp=   65.0000> <PB=1000000> 
<DWph=1> <it=  2> <et=54.56> <Mt= 0.00> <Spt= 0.00> <nCl=  0> <DB=   65.0000> <Mlp=   65.0000> <PB=1000000> 
---- Diving heuristic node with dive number = 0, fix depth = 11 and tabu list size = 0
Fixed projected solution = [x_1_0_1_OspV=1, x_1_10_1_OspV=1, x_1_71_1_OspV=1, x_1_200_1_OspV=1]
<DWph=2> <it=  1> <et=54.60> <Mt= 0.03> <Spt= 0.00> <nCl=  0> <DB=   65.0000> <Mlp=   65.0000> <PB=1000000> 
<DWph=1> <it=  2> <et=54.60> <Mt= 0.00> <Spt= 0.00> <nCl=  0> <DB=   65.0000> <Mlp=   65.0000> <PB=1000000> 
---- Diving heuristic node with dive number = 0, fix depth = 12 and tabu list size = 0
Fixed projected solution = [x_1_0_1_OspV=1, x_1_27_1_OspV=1, x_1_91_1_OspV=1, x_1_183_1_OspV=1]
<DWph=2> <it=  1> <et=54.67> <Mt= 0.05> <Spt= 0.00> <nCl=  0> <DB=   65.0000> <Mlp=   65.0000> <PB=1000000> 
<DWph=1> <it=  2> <et=54.67> <Mt= 0.00> <Spt= 0.00> <nCl=  0> <DB=   65.0000> <Mlp=   65.0000> <PB=1000000> 
---- Diving heuristic node with dive number = 0, fix depth = 13 and tabu list size = 0
Fixed projected solution = [x_1_0_1_OspV=1, x_1_29_1_OspV=1, x_1_95_1_OspV=1, x_1_179_1_OspV=1]
<DWph=2> <it=  1> <et=54.72> <Mt= 0.04> <Spt= 0.00> <nCl=  0> <DB=   65.0000> <Mlp=   65.0000> <PB=1000000> 
<DWph=1> <it=  2> <et=54.72> <Mt= 0.01> <Spt= 0.00> <nCl=  0> <DB=   65.0000> <Mlp=   65.0000> <PB=1000000> 
---- Diving heuristic node with dive number = 0, fix depth = 14 and tabu list size = 0
Fixed projected solution = [x_1_0_1_OspV=1, x_1_49_1_OspV=1, x_1_115_1_OspV=1, x_1_162_1_OspV=1]
<DWph=2> <it=  1> <et=54.77> <Mt= 0.03> <Spt= 0.00> <nCl=  0> <DB=   65.0000> <Mlp=   65.0000> <PB=1000000> 
<DWph=1> <it=  2> <et=54.77> <Mt= 0.00> <Spt= 0.00> <nCl=  0> <DB=   65.0000> <Mlp=   65.0000> <PB=1000000> 
---- Diving heuristic node with dive number = 0, fix depth = 15 and tabu list size = 0
Fixed projected solution = [x_1_0_1_OspV=1, x_1_60_1_OspV=1, x_1_130_1_OspV=1, x_1_146_1_OspV=1]
<DWph=2> <it=  1> <et=54.84> <Mt= 0.06> <Spt= 0.00> <nCl=  0> <DB=   65.0000> <Mlp=   65.0000> <PB=1000000> 
<DWph=1> <it=  2> <et=54.84> <Mt= 0.00> <Spt= 0.00> <nCl=  0> <DB=   65.0000> <Mlp=   65.0000> <PB=1000000> 
---- Diving heuristic node with dive number = 0, fix depth = 15 and tabu list size = 0
Fixed projected solution = [x_1_0_1_OspV=1, x_1_61_1_OspV=1, x_1_126_1_OspV=1, x_1_149_1_OspV=1]
<DWph=2> <it=  1> <et=54.85> <Mt= 0.00> <Spt= 0.00> <nCl=  0> <DB=   65.0000> <Mlp=   65.0000> <PB=1000000> 
<DWph=1> <it=  2> <et=54.86> <Mt= 0.01> <Spt= 0.00> <nCl=  0> <DB=   65.0000> <Mlp=   65.0000> <PB=1000000> 
---- Diving heuristic node with dive number = 0, fix depth = 16 and tabu list size = 0
Fixed projected solution = [x_1_0_1_OspV=1, x_1_67_1_OspV=1, x_1_134_1_OspV=1, x_1_142_1_OspV=1]
<DWph=2> <it=  4> <et=55.52> <Mt= 0.04> <Spt= 0.60> <nCl= 72> <DB=   64.9894> <Mlp=   65.0000> <PB=1000000> 
<DWph=1> <it=  5> <et=55.52> <Mt= 0.01> <Spt= 0.00> <nCl=  0> <DB=   65.0000> <Mlp=   65.0000> <PB=1000000> 
---- Diving heuristic node with dive number = 0, fix depth = 17 and tabu list size = 0
Fixed projected solution = [x_1_0_1_OspV=1, x_1_68_1_OspV=1, x_1_137_1_OspV=1, x_1_140_1_OspV=1]
<DWph=2> <it=  1> <et=55.58> <Mt= 0.04> <Spt= 0.00> <nCl=  0> <DB=   65.0000> <Mlp=   65.0000> <PB=1000000> 
<DWph=1> <it=  2> <et=55.58> <Mt= 0.00> <Spt= 0.00> <nCl=  0> <DB=   65.0000> <Mlp=   65.0000> <PB=1000000> 
---- Diving heuristic node with dive number = 0, fix depth = 17 and tabu list size = 0
Fixed projected solution = [x_1_0_1_OspV=1, x_1_64_1_OspV=1, x_1_131_1_OspV=1, x_1_145_1_OspV=1]
<DWph=2> <it=  1> <et=55.60> <Mt= 0.00> <Spt= 0.00> <nCl=  0> <DB=   65.0000> <Mlp=   65.0000> <PB=1000000> 
<DWph=1> <it=  2> <et=55.60> <Mt= 0.00> <Spt= 0.00> <nCl=  0> <DB=   65.0000> <Mlp=   65.0000> <PB=1000000> 
---- Diving heuristic node with dive number = 0, fix depth = 18 and tabu list size = 0
Fixed projected solution = [x_1_0_1_OspV=1, x_1_62_1_OspV=1, x_1_128_1_OspV=1, x_1_147_1_OspV=1]
<DWph=2> <it=  3> <et=56.07> <Mt= 0.09> <Spt= 0.37> <nCl= 68> <DB=   64.9873> <Mlp=   65.0000> <PB=1000000> 
<DWph=1> <it=  4> <et=56.07> <Mt= 0.01> <Spt= 0.00> <nCl=  0> <DB=   65.0000> <Mlp=   65.0000> <PB=1000000> 
---- Diving heuristic node with dive number = 0, fix depth = 19 and tabu list size = 0
Fixed projected solution = [x_1_0_1_OspV=1, x_1_47_1_OspV=1, x_1_112_1_OspV=1, x_1_163_1_OspV=1]
<DWph=2> <it=  3> <et=56.56> <Mt= 0.10> <Spt= 0.37> <nCl= 76> <DB=   64.9944> <Mlp=   65.0000> <PB=1000000> 
<DWph=1> <it=  4> <et=56.57> <Mt= 0.01> <Spt= 0.00> <nCl=  0> <DB=   65.0000> <Mlp=   65.0000> <PB=1000000> 
---- Diving heuristic node with dive number = 0, fix depth = 20 and tabu list size = 0
Fixed projected solution = [x_1_0_1_OspV=1, x_1_53_1_OspV=1, x_1_117_1_OspV=1, x_1_159_1_OspV=1]
<DWph=2> <it=  1> <et=56.64> <Mt= 0.06> <Spt= 0.00> <nCl=  0> <DB=   65.0000> <Mlp=   65.0000> <PB=1000000> 
<DWph=1> <it=  2> <et=56.64> <Mt= 0.00> <Spt= 0.00> <nCl=  0> <DB=   65.0000> <Mlp=   65.0000> <PB=1000000> 
---- Diving heuristic node with dive number = 0, fix depth = 20 and tabu list size = 0
Fixed projected solution = [x_1_0_1_OspV=1, x_1_52_1_OspV=1, x_1_119_1_OspV=1, x_1_158_1_OspV=1]
<DWph=2> <it=  1> <et=56.66> <Mt= 0.00> <Spt= 0.00> <nCl=  0> <DB=   65.0000> <Mlp=   65.0000> <PB=1000000> 
<DWph=1> <it=  2> <et=56.66> <Mt= 0.00> <Spt= 0.00> <nCl=  0> <DB=   65.0000> <Mlp=   65.0000> <PB=1000000> 
---- Diving heuristic node with dive number = 0, fix depth = 21 and tabu list size = 0
Fixed projected solution = [x_1_0_1_OspV=1, x_1_7_1_OspV=1, x_1_83_1_OspV=1, x_1_191_1_OspV=1]
<DWph=2> <it=  3> <et=57.17> <Mt= 0.13> <Spt= 0.36> <nCl= 85> <DB=   64.9954> <Mlp=   65.0000> <PB=1000000> 
<DWph=1> <it=  4> <et=57.17> <Mt= 0.00> <Spt= 0.00> <nCl=  0> <DB=   65.0000> <Mlp=   65.0000> <PB=1000000> 
---- Diving heuristic node with dive number = 0, fix depth = 22 and tabu list size = 0
Fixed projected solution = [x_1_0_1_OspV=1, x_1_59_1_OspV=1, x_1_125_1_OspV=1, x_1_151_1_OspV=1]
<DWph=2> <it=  9> <et=59.72> <Mt= 0.11> <Spt= 2.42> <nCl= 33> <DB=   65.0000> <Mlp=   65.0000> <PB=1000000> 
<DWph=1> <it= 10> <et=60.17> <Mt= 0.00> <Spt= 0.45> <nCl= 32> <DB=   64.9741> <Mlp=   65.0000> <PB=1000000> 
Global time limit is reached during column generation
SEARCH IS INTERRUPTED as the time limit is reached. 
---- Diving heuristic node with dive number = 1, fix depth = 2 and tabu list size = 1
Fixed projected solution = [x_1_0_1_OspV=1, x_1_37_1_OspV=1, x_1_104_1_OspV=1, x_1_172_1_OspV=1]
---- Diving heuristic node with dive number = 2, fix depth = 2 and tabu list size = 2
Fixed projected solution = [x_1_0_1_OspV=1, x_1_57_1_OspV=1, x_1_124_1_OspV=1, x_1_152_1_OspV=1]
---- Diving heuristic node with dive number = 3, fix depth = 2 and tabu list size = 3
Fixed projected solution = [x_1_0_1_OspV=1, x_1_55_1_OspV=1, x_1_121_1_OspV=1, x_1_155_1_OspV=1]
---- Diving heuristic node with dive number = 4, fix depth = 1 and tabu list size = 1
Fixed projected solution = [x_1_0_1_OspV=1, x_1_37_1_OspV=1, x_1_104_1_OspV=1, x_1_172_1_OspV=1]
---- Diving heuristic node with dive number = 5, fix depth = 1 and tabu list size = 2
Fixed projected solution = [x_1_0_1_OspV=1, x_1_57_1_OspV=1, x_1_124_1_OspV=1, x_1_152_1_OspV=1]
---- Diving heuristic node with dive number = 6, fix depth = 1 and tabu list size = 3
Fixed projected solution = [x_1_0_1_OspV=1, x_1_55_1_OspV=1, x_1_121_1_OspV=1, x_1_155_1_OspV=1]
**** Strong branching phase 1 is started *****
**** Strong branching phase 3 is started *****
************************************************************************************************
Search is finished, global bounds : [ 65 , 1e+06 ], TIME = 0h1m2s8t = 6208
************************************************************************************************
statistics_cols: instance & :Optimal & cutoff & :bcRecRootDb & :bcTimeRootEval & :bcCountNodeProc & :bcRecBestDb & :bcRecBestInc & :bcTimeMain \\
statistics: 201_2500_DI_14 & 0 & 1.0e6 & 65.00 & 53.58 & 1 & 65.00 & -- & 62.08 \\
########################################################
Solution not found
########################################################
