Application parameters:
  batch  =>  nothing
  instance  =>  "/IN/201_2500_DI_40.txt-Q2"
  ub  =>  1.0e6
  cfg  =>  "/CFG/BPP.cfg"
data = Colored Bin Packing dataset.
number of items = 202
number of colors = 2
capacity = 1916
Items : 
	 item 1, weight= 4, color= 0
	 item 2, weight= 4, color= 1
	 item 3, weight= 16, color= 0
	 item 4, weight= 20, color= 0
	 item 5, weight= 20, color= 1
	 item 6, weight= 32, color= 1
	 item 7, weight= 34, color= 0
	 item 8, weight= 34, color= 0
	 item 9, weight= 34, color= 1
	 item 10, weight= 36, color= 1
	 item 11, weight= 36, color= 1
	 item 12, weight= 38, color= 0
	 item 13, weight= 40, color= 0
	 item 14, weight= 40, color= 0
	 item 15, weight= 40, color= 0
	 item 16, weight= 40, color= 1
	 item 17, weight= 40, color= 1
	 item 18, weight= 42, color= 0
	 item 19, weight= 44, color= 0
	 item 20, weight= 44, color= 1
	 item 21, weight= 44, color= 1
	 item 22, weight= 44, color= 1
	 item 23, weight= 46, color= 0
	 item 24, weight= 46, color= 1
	 item 25, weight= 48, color= 1
	 item 26, weight= 48, color= 1
	 item 27, weight= 50, color= 0
	 item 28, weight= 52, color= 0
	 item 29, weight= 52, color= 1
	 item 30, weight= 52, color= 1
	 item 31, weight= 56, color= 0
	 item 32, weight= 56, color= 1
	 item 33, weight= 58, color= 0
	 item 34, weight= 58, color= 0
	 item 35, weight= 60, color= 0
	 item 36, weight= 60, color= 1
	 item 37, weight= 64, color= 1
	 item 38, weight= 64, color= 1
	 item 39, weight= 66, color= 1
	 item 40, weight= 66, color= 1
	 item 41, weight= 68, color= 0
	 item 42, weight= 70, color= 1
	 item 43, weight= 72, color= 1
	 item 44, weight= 74, color= 0
	 item 45, weight= 76, color= 1
	 item 46, weight= 76, color= 1
	 item 47, weight= 84, color= 0
	 item 48, weight= 84, color= 0
	 item 49, weight= 90, color= 1
	 item 50, weight= 92, color= 0
	 item 51, weight= 96, color= 0
	 item 52, weight= 102, color= 0
	 item 53, weight= 104, color= 1
	 item 54, weight= 110, color= 1
	 item 55, weight= 110, color= 1
	 item 56, weight= 112, color= 0
	 item 57, weight= 116, color= 0
	 item 58, weight= 128, color= 0
	 item 59, weight= 128, color= 1
	 item 60, weight= 130, color= 0
	 item 61, weight= 130, color= 1
	 item 62, weight= 134, color= 0
	 item 63, weight= 136, color= 1
	 item 64, weight= 140, color= 1
	 item 65, weight= 156, color= 0
	 item 66, weight= 156, color= 1
	 item 67, weight= 158, color= 0
	 item 68, weight= 158, color= 1
	 item 69, weight= 158, color= 1
	 item 70, weight= 171, color= 0
	 item 71, weight= 171, color= 1
	 item 72, weight= 173, color= 1
	 item 73, weight= 190, color= 0
	 item 74, weight= 191, color= 1
	 item 75, weight= 194, color= 1
	 item 76, weight= 197, color= 1
	 item 77, weight= 202, color= 0
	 item 78, weight= 204, color= 1
	 item 79, weight= 209, color= 1
	 item 80, weight= 212, color= 1
	 item 81, weight= 216, color= 1
	 item 82, weight= 219, color= 0
	 item 83, weight= 221, color= 0
	 item 84, weight= 221, color= 1
	 item 85, weight= 228, color= 1
	 item 86, weight= 233, color= 0
	 item 87, weight= 234, color= 0
	 item 88, weight= 237, color= 1
	 item 89, weight= 246, color= 0
	 item 90, weight= 251, color= 1
	 item 91, weight= 253, color= 1
	 item 92, weight= 262, color= 0
	 item 93, weight= 271, color= 1
	 item 94, weight= 282, color= 0
	 item 95, weight= 293, color= 1
	 item 96, weight= 298, color= 1
	 item 97, weight= 300, color= 0
	 item 98, weight= 309, color= 1
	 item 99, weight= 318, color= 0
	 item 100, weight= 321, color= 1
	 item 101, weight= 326, color= 0
	 item 102, weight= 335, color= 0
	 item 103, weight= 339, color= 0
	 item 104, weight= 355, color= 0
	 item 105, weight= 362, color= 1
	 item 106, weight= 375, color= 0
	 item 107, weight= 383, color= 0
	 item 108, weight= 394, color= 1
	 item 109, weight= 396, color= 1
	 item 110, weight= 427, color= 1
	 item 111, weight= 433, color= 0
	 item 112, weight= 442, color= 1
	 item 113, weight= 444, color= 0
	 item 114, weight= 461, color= 0
	 item 115, weight= 474, color= 1
	 item 116, weight= 489, color= 1
	 item 117, weight= 519, color= 1
	 item 118, weight= 530, color= 0
	 item 119, weight= 555, color= 0
	 item 120, weight= 559, color= 0
	 item 121, weight= 571, color= 0
	 item 122, weight= 582, color= 1
	 item 123, weight= 582, color= 1
	 item 124, weight= 615, color= 1
	 item 125, weight= 642, color= 0
	 item 126, weight= 644, color= 1
	 item 127, weight= 651, color= 1
	 item 128, weight= 653, color= 0
	 item 129, weight= 657, color= 1
	 item 130, weight= 673, color= 1
	 item 131, weight= 685, color= 0
	 item 132, weight= 714, color= 0
	 item 133, weight= 772, color= 1
	 item 134, weight= 789, color= 0
	 item 135, weight= 791, color= 1
	 item 136, weight= 795, color= 1
	 item 137, weight= 798, color= 0
	 item 138, weight= 799, color= 1
	 item 139, weight= 959, color= 0
	 item 140, weight= 962, color= 1
	 item 141, weight= 963, color= 0
	 item 142, weight= 967, color= 1
	 item 143, weight= 971, color= 1
	 item 144, weight= 1062, color= 0
	 item 145, weight= 1095, color= 0
	 item 146, weight= 1109, color= 0
	 item 147, weight= 1129, color= 0
	 item 148, weight= 1133, color= 0
	 item 149, weight= 1137, color= 0
	 item 150, weight= 1146, color= 1
	 item 151, weight= 1204, color= 0
	 item 152, weight= 1218, color= 1
	 item 153, weight= 1233, color= 1
	 item 154, weight= 1247, color= 1
	 item 155, weight= 1251, color= 0
	 item 156, weight= 1267, color= 0
	 item 157, weight= 1278, color= 0
	 item 158, weight= 1282, color= 1
	 item 159, weight= 1295, color= 0
	 item 160, weight= 1320, color= 1
	 item 161, weight= 1331, color= 0
	 item 162, weight= 1350, color= 1
	 item 163, weight= 1365, color= 0
	 item 164, weight= 1390, color= 0
	 item 165, weight= 1405, color= 0
	 item 166, weight= 1439, color= 0
	 item 167, weight= 1446, color= 0
	 item 168, weight= 1457, color= 0
	 item 169, weight= 1467, color= 1
	 item 170, weight= 1486, color= 1
	 item 171, weight= 1491, color= 0
	 item 172, weight= 1511, color= 0
	 item 173, weight= 1515, color= 0
	 item 174, weight= 1526, color= 0
	 item 175, weight= 1531, color= 0
	 item 176, weight= 1538, color= 1
	 item 177, weight= 1549, color= 0
	 item 178, weight= 1562, color= 0
	 item 179, weight= 1565, color= 1
	 item 180, weight= 1582, color= 0
	 item 181, weight= 1593, color= 0
	 item 182, weight= 1602, color= 0
	 item 183, weight= 1613, color= 0
	 item 184, weight= 1617, color= 0
	 item 185, weight= 1622, color= 0
	 item 186, weight= 1633, color= 0
	 item 187, weight= 1637, color= 1
	 item 188, weight= 1638, color= 1
	 item 189, weight= 1648, color= 1
	 item 190, weight= 1651, color= 0
	 item 191, weight= 1653, color= 0
	 item 192, weight= 1667, color= 1
	 item 193, weight= 1672, color= 0
	 item 194, weight= 1674, color= 0
	 item 195, weight= 1677, color= 1
	 item 196, weight= 1681, color= 0
	 item 197, weight= 1686, color= 1
	 item 198, weight= 1689, color= 0
	 item 199, weight= 1706, color= 1
	 item 200, weight= 1709, color= 0
	 item 201, weight= 1711, color= 0
	 item 202, weight= 1713, color= 0

VRPSolver warning: Interval set for resource 1 on source node (when source != sink) is ignored (by definition is [0.0,0.0])
VRPSolver warning: Interval set for resource 2 on source node (when source != sink) is ignored (by definition is [0.0,0.0])
VRPSolver warning: Interval set for resource 3 on source node (when source != sink) is ignored (by definition is [0.0,0.0])
[41m solve [00m
~~~~~~~~~~~~~~~~~~~~~~~~~~~~~~~~~~~~~~~~~~~~~~~~~~~~~~~~~~~~~~~~~~~~~~~~~~~~~~
VRPSolver v0.4.1, 24/03/2021. Web: vrpsolver.math.u-bordeaux.fr
Corresponds to the solver by Pessoa, Sadykov, Uchoa and Vanderbeck (2020)
Paper: dx.doi.org/10.1007/s10107-020-01523-z
USE THIS CODE ONLY FOR ACADEMIC PURPOSES AT YOUR OWN RISK
~~~~~~~~~~~~~~~~~~~~~~~~~~~~~~~~~~~~~~~~~~~~~~~~~~~~~~~~~~~~~~~~~~~~~~~~~~~~~~
BaPCod v053, 24/03/2021, © Inria Bordeaux, France
~~~~~~~~~~~~~~~~~~~~~~~~~~~~~~~~~~~~~~~~~~~~~~~~~~~~~~~~~~~~~~~~~~~~~~~~~~~~~~
VRPSolver parameters:
GlobalTimeLimit = 60
MaxNbOfBBtreeNodeTreated = 100000
treeSearchStrategy = 1
RCSPstopCutGenTimeThresholdInPricing = 10
RCSPhardTimeThresholdInPricing = 20
RCSPnumberOfBucketsPerVertex = 2000
RCSPdynamicBucketSteps = 0
RCSPuseBidirectionalSearch = 1
RCSPapplyReducedCostFixing = 1
RCSPredCostFixingFalseGap = 0
RCSPmaxNumOfColsPerIteration = 100
RCSPmaxNumOfColsPerExactIteration = 100
RCSPheurLabelingStrategy = 4
StabilizationMinPhaseOfStage = 1
RCSPmaxNumOfLabelsInEnumeration = 100000
RCSPmaxNumOfEnumeratedSolutions = 1000000
RCSPmaxNumOfEnumSolutionsForMIP = 100000
RCSPinitNGneighbourhoodSize = 0
RCSPmaxNGneighbourhoodSize = 0
RCSPrankOneCutsMaxNumPerRound = 100
RCSPrankOneCutsMaxNumRows = -1
RCSPrankOneCutsMemoryType = 2
CutTailingOffThreshold = 0.02
CutTailingOffCounterThreshold = 3
SafeDualBoundScaleFactor = -1
StrongBranchingPhaseOneCandidatesNumber = 100
StrongBranchingPhaseOneTreeSizeEstimRatio = 0.3
StrongBranchingPhaseTwoCandidatesNumber = 1
StrongBranchingPhaseTwoTreeSizeEstimRatio = 0.1
MaxTimeForRestrictedMasterIpHeur = -1
DivingHeurUseDepthLimit = 0
MaxLDSbreadth = 3
MaxLDSdepth = 2
New model incumbent solution 1e+06, TIME = 0h0m0s3t = 3
Model is built TIME = 0h0m2s4t = 204
************************************************************************************************
**** BaB tree root node
**** Local DB = -1e+12, global bounds : [ -1e+12 , 1e+06 ], TIME = 0h0m2s5t = 205
**** 1 open nodes, 0 columns (0 active), 0 dyn. constrs. (0 active), 406 art. vars. (406 active)
************************************************************************************************
<DWph=2> <it= 10> <et=4.17> <Mt= 0.03> <Spt= 2.09> <nCl=1000> <DB=-2499280765.6886> <Mlp=159244865.9704> <PB=1000000> 
<DWph=2> <it= 20> <et=6.45> <Mt= 0.17> <Spt= 2.11> <nCl=1000> <DB=-1190184838.6604> <Mlp=116921082.1886> <PB=1000000> 
<DWph=2> <it= 30> <et=8.92> <Mt= 0.34> <Spt= 2.12> <nCl=1000> <DB=-529959424.1797> <Mlp=86686688.3813> <PB=1000000> 
<DWph=2> <it= 40> <et=11.64> <Mt= 0.52> <Spt= 2.20> <nCl=1000> <DB=-276603950.1078> <Mlp=61798993.0037> <PB=1000000> 
<DWph=2> <it= 50> <et=14.54> <Mt= 0.32> <Spt= 2.57> <nCl=1000> <DB=-236294947.0251> <Mlp=47452998.2266> <PB=1000000> 
<DWph=2> <it= 60> <et=17.79> <Mt= 0.37> <Spt= 2.88> <nCl=1000> <DB=-194404836.9384> <Mlp=19956619.2025> <PB=1000000> 
<DWph=2> <it= 70> <et=21.76> <Mt= 0.26> <Spt= 3.70> <nCl=930> <DB=   28.0461> <Mlp=   66.6324> <PB=1000000> 
<DWph=2> <it= 80> <et=23.90> <Mt= 0.32> <Spt= 1.83> <nCl=976> <DB=   61.6975> <Mlp=   65.1162> <PB=1000000> 
<DWph=2> <it= 90> <et=25.75> <Mt= 0.26> <Spt= 1.57> <nCl=888> <DB=   64.8199> <Mlp=   65.0041> <PB=1000000> 
<DWph=2> <it= 97> <et=27.24> <Mt= 0.11> <Spt= 1.39> <nCl=235> <DB=   65.0000> <Mlp=   65.0000> <PB=1000000> 
<DWph=1> <it= 98> <et=28.06> <Mt= 0.00> <Spt= 0.81> <nCl=  0> <DB=   65.0000> <Mlp=   65.0000> <PB=1000000> 
<DWph=0> <it= 99> <et=29.15> <Mt= 0.01> <Spt= 1.09> <nCl=  0> <DB=   65.0000> <Mlp=   65.0000> <PB=1000000> 
Reduced cost fixing for graph G_1... took 14.01 sec., 340579 buck. arcs remain (100% from prev., 36.7% from max.)
Run enumeration... took 0.4 sec. and not succeeded.
ColGenEvalAlg final dual bound: 65 (rounded: 65)
----------- Diving heuristic started -----------
<DWph=2> <it=  1> <et=43.65> <Mt= 0.00> <Spt= 0.00> <nCl=  0> <DB=   65.0000> <Mlp=   65.0000> <PB=1000000> 
<DWph=1> <it=  2> <et=43.65> <Mt= 0.00> <Spt= 0.00> <nCl=  0> <DB=   65.0000> <Mlp=   65.0000> <PB=1000000> 
---- Diving heuristic node with dive number = 0, fix depth = 0 and tabu list size = 0
Fixed projected solution = [x_1_0_1_OspV=1, x_1_9_1_OspV=1, x_1_124_1_OspV=1, x_1_156_1_OspV=1]
<DWph=2> <it=  1> <et=43.76> <Mt= 0.01> <Spt= 0.00> <nCl=  0> <DB=   65.0000> <Mlp=   65.0000> <PB=1000000> 
<DWph=1> <it=  2> <et=43.76> <Mt= 0.00> <Spt= 0.00> <nCl=  0> <DB=   65.0000> <Mlp=   65.0000> <PB=1000000> 
---- Diving heuristic node with dive number = 0, fix depth = 0 and tabu list size = 0
Fixed projected solution = [x_1_0_1_OspV=1, x_1_24_1_OspV=1, x_1_88_1_OspV=1, x_1_186_1_OspV=1]
<DWph=2> <it=  1> <et=43.85> <Mt= 0.00> <Spt= 0.00> <nCl=  0> <DB=   65.0000> <Mlp=   65.0000> <PB=1000000> 
<DWph=1> <it=  2> <et=43.86> <Mt= 0.01> <Spt= 0.00> <nCl=  0> <DB=   65.0000> <Mlp=   65.0000> <PB=1000000> 
---- Diving heuristic node with dive number = 0, fix depth = 0 and tabu list size = 0
Fixed projected solution = [x_1_0_1_OspV=1, x_1_26_1_OspV=1, x_1_90_1_OspV=1, x_1_184_1_OspV=1]
<DWph=2> <it=  1> <et=43.95> <Mt= 0.00> <Spt= 0.00> <nCl=  0> <DB=   65.0000> <Mlp=   65.0000> <PB=1000000> 
<DWph=1> <it=  2> <et=43.95> <Mt= 0.00> <Spt= 0.00> <nCl=  0> <DB=   65.0000> <Mlp=   65.0000> <PB=1000000> 
---- Diving heuristic node with dive number = 0, fix depth = 0 and tabu list size = 0
Fixed projected solution = [x_1_0_1_OspV=1, x_1_27_1_OspV=1, x_1_91_1_OspV=1, x_1_183_1_OspV=1]
<DWph=2> <it=  1> <et=44.04> <Mt= 0.01> <Spt= 0.00> <nCl=  0> <DB=   65.0000> <Mlp=   65.0000> <PB=1000000> 
<DWph=1> <it=  2> <et=44.04> <Mt= 0.00> <Spt= 0.00> <nCl=  0> <DB=   65.0000> <Mlp=   65.0000> <PB=1000000> 
---- Diving heuristic node with dive number = 0, fix depth = 0 and tabu list size = 0
Fixed projected solution = [x_1_0_1_OspV=1, x_1_6_1_OspV=1, x_1_70_1_OspV=1, x_1_202_1_OspV=1]
<DWph=2> <it=  1> <et=44.13> <Mt= 0.01> <Spt= 0.00> <nCl=  0> <DB=   65.0000> <Mlp=   65.0000> <PB=1000000> 
<DWph=1> <it=  2> <et=44.13> <Mt= 0.00> <Spt= 0.00> <nCl=  0> <DB=   65.0000> <Mlp=   65.0000> <PB=1000000> 
---- Diving heuristic node with dive number = 0, fix depth = 0 and tabu list size = 0
Fixed projected solution = [x_1_0_1_OspV=1, x_1_68_1_OspV=1, x_1_136_1_OspV=1, x_1_141_1_OspV=1]
<DWph=2> <it=  1> <et=44.22> <Mt= 0.00> <Spt= 0.00> <nCl=  0> <DB=   65.0000> <Mlp=   65.0000> <PB=1000000> 
<DWph=1> <it=  2> <et=44.23> <Mt= 0.00> <Spt= 0.00> <nCl=  0> <DB=   65.0000> <Mlp=   65.0000> <PB=1000000> 
---- Diving heuristic node with dive number = 0, fix depth = 0 and tabu list size = 0
Fixed projected solution = [x_1_0_1_OspV=1, x_1_63_1_OspV=1, x_1_131_1_OspV=1, x_1_145_1_OspV=1]
<DWph=2> <it=  1> <et=44.32> <Mt= 0.01> <Spt= 0.00> <nCl=  0> <DB=   65.0000> <Mlp=   65.0000> <PB=1000000> 
<DWph=1> <it=  2> <et=44.32> <Mt= 0.00> <Spt= 0.00> <nCl=  0> <DB=   65.0000> <Mlp=   65.0000> <PB=1000000> 
---- Diving heuristic node with dive number = 0, fix depth = 0 and tabu list size = 0
Fixed projected solution = [x_1_0_1_OspV=1, x_1_42_1_OspV=1, x_1_104_1_OspV=1, x_1_171_1_OspV=1]
<DWph=2> <it=  1> <et=44.41> <Mt= 0.01> <Spt= 0.00> <nCl=  0> <DB=   65.0000> <Mlp=   65.0000> <PB=1000000> 
<DWph=1> <it=  2> <et=44.41> <Mt= 0.00> <Spt= 0.00> <nCl=  0> <DB=   65.0000> <Mlp=   65.0000> <PB=1000000> 
---- Diving heuristic node with dive number = 0, fix depth = 0 and tabu list size = 0
Fixed projected solution = [x_1_0_1_OspV=1, x_1_65_1_OspV=1, x_1_134_1_OspV=1, x_1_143_1_OspV=1]
<DWph=2> <it=  1> <et=44.50> <Mt= 0.00> <Spt= 0.00> <nCl=  0> <DB=   65.0000> <Mlp=   65.0000> <PB=1000000> 
<DWph=1> <it=  2> <et=44.50> <Mt= 0.00> <Spt= 0.00> <nCl=  0> <DB=   65.0000> <Mlp=   65.0000> <PB=1000000> 
---- Diving heuristic node with dive number = 0, fix depth = 0 and tabu list size = 0
Fixed projected solution = [x_1_0_1_OspV=1, x_1_21_1_OspV=1, x_1_111_1_OspV=1, x_1_166_1_OspV=1]
<DWph=2> <it=  1> <et=44.59> <Mt= 0.01> <Spt= 0.00> <nCl=  0> <DB=   65.0000> <Mlp=   65.0000> <PB=1000000> 
<DWph=1> <it=  2> <et=44.59> <Mt= 0.00> <Spt= 0.00> <nCl=  0> <DB=   65.0000> <Mlp=   65.0000> <PB=1000000> 
---- Diving heuristic node with dive number = 0, fix depth = 0 and tabu list size = 0
Fixed projected solution = [x_1_0_1_OspV=1, x_1_49_1_OspV=1, x_1_114_1_OspV=1, x_1_163_1_OspV=1]
<DWph=2> <it=  1> <et=44.68> <Mt= 0.01> <Spt= 0.00> <nCl=  0> <DB=   65.0000> <Mlp=   65.0000> <PB=1000000> 
<DWph=1> <it=  2> <et=44.69> <Mt= 0.00> <Spt= 0.00> <nCl=  0> <DB=   65.0000> <Mlp=   65.0000> <PB=1000000> 
---- Diving heuristic node with dive number = 0, fix depth = 0 and tabu list size = 0
Fixed projected solution = [x_1_0_1_OspV=1, x_1_44_1_OspV=1, x_1_106_1_OspV=1, x_1_169_1_OspV=1]
<DWph=2> <it=  1> <et=44.78> <Mt= 0.00> <Spt= 0.00> <nCl=  0> <DB=   65.0000> <Mlp=   65.0000> <PB=1000000> 
<DWph=1> <it=  2> <et=44.78> <Mt= 0.00> <Spt= 0.00> <nCl=  0> <DB=   65.0000> <Mlp=   65.0000> <PB=1000000> 
---- Diving heuristic node with dive number = 0, fix depth = 1 and tabu list size = 0
Fixed projected solution = [x_1_0_1_OspV=1, x_1_52_1_OspV=1, x_1_117_1_OspV=1, x_1_159_1_OspV=1]
<DWph=2> <it=  1> <et=44.87> <Mt= 0.03> <Spt= 0.00> <nCl=  0> <DB=   65.0000> <Mlp=   65.0000> <PB=1000000> 
<DWph=1> <it=  2> <et=44.87> <Mt= 0.00> <Spt= 0.00> <nCl=  0> <DB=   65.0000> <Mlp=   65.0000> <PB=1000000> 
---- Diving heuristic node with dive number = 0, fix depth = 1 and tabu list size = 0
Fixed projected solution = [x_1_0_1_OspV=1, x_1_39_1_OspV=1, x_1_103_1_OspV=1, x_1_172_1_OspV=1]
<DWph=2> <it=  1> <et=44.97> <Mt= 0.00> <Spt= 0.00> <nCl=  0> <DB=   65.0000> <Mlp=   65.0000> <PB=1000000> 
<DWph=1> <it=  2> <et=44.97> <Mt= 0.00> <Spt= 0.00> <nCl=  0> <DB=   65.0000> <Mlp=   65.0000> <PB=1000000> 
---- Diving heuristic node with dive number = 0, fix depth = 1 and tabu list size = 0
Fixed projected solution = [x_1_0_1_OspV=1, x_1_51_1_OspV=1, x_1_116_1_OspV=1, x_1_161_1_OspV=1]
<DWph=2> <it=  1> <et=45.06> <Mt= 0.01> <Spt= 0.00> <nCl=  0> <DB=   65.0000> <Mlp=   65.0000> <PB=1000000> 
<DWph=1> <it=  2> <et=45.06> <Mt= 0.00> <Spt= 0.00> <nCl=  0> <DB=   65.0000> <Mlp=   65.0000> <PB=1000000> 
---- Diving heuristic node with dive number = 0, fix depth = 2 and tabu list size = 0
Fixed projected solution = [x_1_0_1_OspV=1, x_1_45_1_OspV=1, x_1_107_1_OspV=1, x_1_168_1_OspV=1]
<DWph=2> <it=  1> <et=45.15> <Mt= 0.02> <Spt= 0.00> <nCl=  0> <DB=   65.0000> <Mlp=   65.0000> <PB=1000000> 
<DWph=1> <it=  2> <et=45.15> <Mt= 0.00> <Spt= 0.00> <nCl=  0> <DB=   65.0000> <Mlp=   65.0000> <PB=1000000> 
---- Diving heuristic node with dive number = 0, fix depth = 3 and tabu list size = 0
Fixed projected solution = [x_1_0_1_OspV=1, x_1_36_1_OspV=1, x_1_99_1_OspV=1, x_1_176_1_OspV=1]
<DWph=2> <it=  1> <et=45.17> <Mt= 0.00> <Spt= 0.00> <nCl=  0> <DB=   65.0000> <Mlp=   65.0000> <PB=1000000> 
<DWph=1> <it=  2> <et=45.17> <Mt= 0.01> <Spt= 0.00> <nCl=  0> <DB=   65.0000> <Mlp=   65.0000> <PB=1000000> 
---- Diving heuristic node with dive number = 0, fix depth = 4 and tabu list size = 0
Fixed projected solution = [x_1_0_1_OspV=1, x_1_40_1_OspV=1, x_1_102_1_OspV=1, x_1_173_1_OspV=1]
<DWph=2> <it=  1> <et=45.21> <Mt= 0.02> <Spt= 0.00> <nCl=  0> <DB=   65.0000> <Mlp=   65.0000> <PB=1000000> 
<DWph=1> <it=  2> <et=45.21> <Mt= 0.00> <Spt= 0.00> <nCl=  0> <DB=   65.0000> <Mlp=   65.0000> <PB=1000000> 
---- Diving heuristic node with dive number = 0, fix depth = 5 and tabu list size = 0
Fixed projected solution = [x_1_0_1_OspV=1, x_1_29_1_OspV=1, x_1_93_1_OspV=1, x_1_181_1_OspV=1]
<DWph=2> <it=  1> <et=45.25> <Mt= 0.01> <Spt= 0.00> <nCl=  0> <DB=   65.0000> <Mlp=   65.0000> <PB=1000000> 
<DWph=1> <it=  2> <et=45.25> <Mt= 0.00> <Spt= 0.00> <nCl=  0> <DB=   65.0000> <Mlp=   65.0000> <PB=1000000> 
---- Diving heuristic node with dive number = 0, fix depth = 6 and tabu list size = 0
Fixed projected solution = [x_1_0_1_OspV=1, x_1_25_1_OspV=1, x_1_89_1_OspV=1, x_1_185_1_OspV=1]
<DWph=2> <it=  1> <et=45.30> <Mt= 0.04> <Spt= 0.00> <nCl=  0> <DB=   65.0000> <Mlp=   65.0000> <PB=1000000> 
<DWph=1> <it=  2> <et=45.30> <Mt= 0.00> <Spt= 0.00> <nCl=  0> <DB=   65.0000> <Mlp=   65.0000> <PB=1000000> 
---- Diving heuristic node with dive number = 0, fix depth = 7 and tabu list size = 0
Fixed projected solution = [x_1_0_1_OspV=1, x_1_3_1_OspV=1, x_1_128_1_OspV=1, x_1_154_1_OspV=1]
<DWph=2> <it=  1> <et=45.36> <Mt= 0.04> <Spt= 0.00> <nCl=  0> <DB=   65.0000> <Mlp=   65.0000> <PB=1000000> 
<DWph=1> <it=  2> <et=45.36> <Mt= 0.00> <Spt= 0.00> <nCl=  0> <DB=   65.0000> <Mlp=   65.0000> <PB=1000000> 
---- Diving heuristic node with dive number = 0, fix depth = 7 and tabu list size = 0
Fixed projected solution = [x_1_0_1_OspV=1, x_1_5_1_OspV=1, x_1_82_1_OspV=1, x_1_195_1_OspV=1]
<DWph=2> <it=  1> <et=45.38> <Mt= 0.00> <Spt= 0.00> <nCl=  0> <DB=   65.0000> <Mlp=   65.0000> <PB=1000000> 
<DWph=1> <it=  2> <et=45.38> <Mt= 0.00> <Spt= 0.00> <nCl=  0> <DB=   65.0000> <Mlp=   65.0000> <PB=1000000> 
---- Diving heuristic node with dive number = 0, fix depth = 7 and tabu list size = 0
Fixed projected solution = [x_1_0_1_OspV=1, x_1_22_1_OspV=1, x_1_83_1_OspV=1, x_1_190_1_OspV=1]
<DWph=2> <it=  1> <et=45.40> <Mt= 0.01> <Spt= 0.00> <nCl=  0> <DB=   65.0000> <Mlp=   65.0000> <PB=1000000> 
<DWph=1> <it=  2> <et=45.40> <Mt= 0.00> <Spt= 0.00> <nCl=  0> <DB=   65.0000> <Mlp=   65.0000> <PB=1000000> 
---- Diving heuristic node with dive number = 0, fix depth = 7 and tabu list size = 0
Fixed projected solution = [x_1_0_1_OspV=1, x_1_23_1_OspV=1, x_1_86_1_OspV=1, x_1_187_1_OspV=1]
<DWph=2> <it=  1> <et=45.42> <Mt= 0.00> <Spt= 0.00> <nCl=  0> <DB=   65.0000> <Mlp=   65.0000> <PB=1000000> 
<DWph=1> <it=  2> <et=45.42> <Mt= 0.00> <Spt= 0.00> <nCl=  0> <DB=   65.0000> <Mlp=   65.0000> <PB=1000000> 
---- Diving heuristic node with dive number = 0, fix depth = 7 and tabu list size = 0
Fixed projected solution = [x_1_0_1_OspV=1, x_1_37_1_OspV=1, x_1_100_1_OspV=1, x_1_175_1_OspV=1]
<DWph=2> <it=  1> <et=45.44> <Mt= 0.01> <Spt= 0.00> <nCl=  0> <DB=   65.0000> <Mlp=   65.0000> <PB=1000000> 
<DWph=1> <it=  2> <et=45.44> <Mt= 0.00> <Spt= 0.00> <nCl=  0> <DB=   65.0000> <Mlp=   65.0000> <PB=1000000> 
---- Diving heuristic node with dive number = 0, fix depth = 7 and tabu list size = 0
Fixed projected solution = [x_1_0_1_OspV=1, x_1_34_1_OspV=1, x_1_95_1_OspV=1, x_1_179_1_OspV=1]
<DWph=2> <it=  1> <et=45.46> <Mt= 0.00> <Spt= 0.00> <nCl=  0> <DB=   65.0000> <Mlp=   65.0000> <PB=1000000> 
<DWph=1> <it=  2> <et=45.46> <Mt= 0.00> <Spt= 0.00> <nCl=  0> <DB=   65.0000> <Mlp=   65.0000> <PB=1000000> 
---- Diving heuristic node with dive number = 0, fix depth = 7 and tabu list size = 0
Fixed projected solution = [x_1_0_1_OspV=1, x_1_18_1_OspV=1, x_1_84_1_OspV=1, x_1_191_1_OspV=1]
<DWph=2> <it=  1> <et=45.48> <Mt= 0.00> <Spt= 0.00> <nCl=  0> <DB=   65.0000> <Mlp=   65.0000> <PB=1000000> 
<DWph=1> <it=  2> <et=45.48> <Mt= 0.01> <Spt= 0.00> <nCl=  0> <DB=   65.0000> <Mlp=   65.0000> <PB=1000000> 
---- Diving heuristic node with dive number = 0, fix depth = 7 and tabu list size = 0
Fixed projected solution = [x_1_0_1_OspV=1, x_1_50_1_OspV=1, x_1_115_1_OspV=1, x_1_162_1_OspV=1]
<DWph=2> <it=  1> <et=45.50> <Mt= 0.00> <Spt= 0.00> <nCl=  0> <DB=   65.0000> <Mlp=   65.0000> <PB=1000000> 
<DWph=1> <it=  2> <et=45.50> <Mt= 0.00> <Spt= 0.00> <nCl=  0> <DB=   65.0000> <Mlp=   65.0000> <PB=1000000> 
---- Diving heuristic node with dive number = 0, fix depth = 7 and tabu list size = 0
Fixed projected solution = [x_1_0_1_OspV=1, x_1_67_1_OspV=1, x_1_135_1_OspV=1, x_1_142_1_OspV=1]
<DWph=2> <it=  1> <et=45.52> <Mt= 0.00> <Spt= 0.00> <nCl=  0> <DB=   65.0000> <Mlp=   65.0000> <PB=1000000> 
<DWph=1> <it=  2> <et=45.52> <Mt= 0.00> <Spt= 0.00> <nCl=  0> <DB=   65.0000> <Mlp=   65.0000> <PB=1000000> 
---- Diving heuristic node with dive number = 0, fix depth = 7 and tabu list size = 0
Fixed projected solution = [x_1_0_1_OspV=1, x_1_33_1_OspV=1, x_1_98_1_OspV=1, x_1_177_1_OspV=1]
<DWph=2> <it=  1> <et=45.54> <Mt= 0.01> <Spt= 0.00> <nCl=  0> <DB=   65.0000> <Mlp=   65.0000> <PB=1000000> 
<DWph=1> <it=  2> <et=45.54> <Mt= 0.00> <Spt= 0.00> <nCl=  0> <DB=   65.0000> <Mlp=   65.0000> <PB=1000000> 
---- Diving heuristic node with dive number = 0, fix depth = 8 and tabu list size = 0
Fixed projected solution = [x_1_0_1_OspV=1, x_1_17_1_OspV=1, x_1_73_1_OspV=1, x_1_197_1_OspV=1]
<DWph=2> <it=  1> <et=45.59> <Mt= 0.03> <Spt= 0.00> <nCl=  0> <DB=   65.0000> <Mlp=   65.0000> <PB=1000000> 
<DWph=1> <it=  2> <et=45.59> <Mt= 0.00> <Spt= 0.00> <nCl=  0> <DB=   65.0000> <Mlp=   65.0000> <PB=1000000> 
---- Diving heuristic node with dive number = 0, fix depth = 8 and tabu list size = 0
Fixed projected solution = [x_1_0_1_OspV=1, x_1_14_1_OspV=1, x_1_79_1_OspV=1, x_1_192_1_OspV=1]
<DWph=2> <it=  1> <et=45.61> <Mt= 0.00> <Spt= 0.00> <nCl=  0> <DB=   65.0000> <Mlp=   65.0000> <PB=1000000> 
<DWph=1> <it=  2> <et=45.61> <Mt= 0.00> <Spt= 0.00> <nCl=  0> <DB=   65.0000> <Mlp=   65.0000> <PB=1000000> 
---- Diving heuristic node with dive number = 0, fix depth = 9 and tabu list size = 0
Fixed projected solution = [x_1_0_1_OspV=1, x_1_41_1_OspV=1, x_1_126_1_OspV=1, x_1_151_1_OspV=1]
<DWph=2> <it=  1> <et=45.66> <Mt= 0.03> <Spt= 0.00> <nCl=  0> <DB=   65.0000> <Mlp=   65.0000> <PB=1000000> 
<DWph=1> <it=  2> <et=45.66> <Mt= 0.01> <Spt= 0.00> <nCl=  0> <DB=   65.0000> <Mlp=   65.0000> <PB=1000000> 
---- Diving heuristic node with dive number = 0, fix depth = 10 and tabu list size = 0
Fixed projected solution = [x_1_0_1_OspV=1, x_1_38_1_OspV=1, x_1_101_1_OspV=1, x_1_174_1_OspV=1]
<DWph=2> <it=  1> <et=45.72> <Mt= 0.04> <Spt= 0.00> <nCl=  0> <DB=   65.0000> <Mlp=   65.0000> <PB=1000000> 
<DWph=1> <it=  2> <et=45.72> <Mt= 0.00> <Spt= 0.00> <nCl=  0> <DB=   65.0000> <Mlp=   65.0000> <PB=1000000> 
---- Diving heuristic node with dive number = 0, fix depth = 11 and tabu list size = 0
Fixed projected solution = [x_1_0_1_OspV=1, x_1_60_1_OspV=1, x_1_129_1_OspV=1, x_1_147_1_OspV=1]
<DWph=2> <it=  1> <et=45.78> <Mt= 0.04> <Spt= 0.00> <nCl=  0> <DB=   65.0000> <Mlp=   65.0000> <PB=1000000> 
<DWph=1> <it=  2> <et=45.78> <Mt= 0.00> <Spt= 0.00> <nCl=  0> <DB=   65.0000> <Mlp=   65.0000> <PB=1000000> 
---- Diving heuristic node with dive number = 0, fix depth = 12 and tabu list size = 0
Fixed projected solution = [x_1_0_1_OspV=1, x_1_59_1_OspV=1, x_1_127_1_OspV=1, x_1_149_1_OspV=1]
<DWph=2> <it=  9> <et=47.48> <Mt= 0.18> <Spt= 1.46> <nCl=770> <DB=   64.9636> <Mlp=   65.0000> <PB=1000000> 
---- Diving heuristic node with dive number = 0, fix depth = 13 and tabu list size = 0
Fixed projected solution = [x_1_0_1_OspV=1, x_1_66_1_OspV=1, x_1_137_1_OspV=1, x_1_140_1_OspV=1]
<DWph=2> <it=  2> <et=47.77> <Mt= 0.08> <Spt= 0.18> <nCl=100> <DB=   64.9816> <Mlp=   65.0000> <PB=1000000> 
<DWph=1> <it=  3> <et=47.77> <Mt= 0.00> <Spt= 0.00> <nCl=  0> <DB=   65.0000> <Mlp=   65.0000> <PB=1000000> 
---- Diving heuristic node with dive number = 0, fix depth = 13 and tabu list size = 0
Fixed projected solution = [x_1_0_1_OspV=1, x_1_54_1_OspV=1, x_1_119_1_OspV=1, x_1_155_1_OspV=1]
<DWph=2> <it=  1> <et=47.79> <Mt= 0.01> <Spt= 0.00> <nCl=  0> <DB=   65.0000> <Mlp=   65.0000> <PB=1000000> 
<DWph=1> <it=  2> <et=47.79> <Mt= 0.00> <Spt= 0.00> <nCl=  0> <DB=   65.0000> <Mlp=   65.0000> <PB=1000000> 
---- Diving heuristic node with dive number = 0, fix depth = 14 and tabu list size = 0
Fixed projected solution = [x_1_0_1_OspV=1, x_1_13_1_OspV=1, x_1_85_1_OspV=1, x_1_189_1_OspV=1]
<DWph=2> <it=  1> <et=47.87> <Mt= 0.05> <Spt= 0.00> <nCl=  0> <DB=   65.0000> <Mlp=   65.0000> <PB=1000000> 
<DWph=1> <it=  2> <et=47.87> <Mt= 0.00> <Spt= 0.00> <nCl=  0> <DB=   65.0000> <Mlp=   65.0000> <PB=1000000> 
---- Diving heuristic node with dive number = 0, fix depth = 15 and tabu list size = 0
Fixed projected solution = [x_1_0_1_OspV=1, x_1_48_1_OspV=1, x_1_112_1_OspV=1, x_1_164_1_OspV=1]
<DWph=2> <it=  3> <et=48.36> <Mt= 0.09> <Spt= 0.39> <nCl=177> <DB=   64.9690> <Mlp=   65.0000> <PB=1000000> 
<DWph=1> <it=  4> <et=48.36> <Mt= 0.00> <Spt= 0.00> <nCl=  0> <DB=   65.0000> <Mlp=   65.0000> <PB=1000000> 
---- Diving heuristic node with dive number = 0, fix depth = 15 and tabu list size = 0
Fixed projected solution = [x_1_0_1_OspV=1, x_1_47_1_OspV=1, x_1_110_1_OspV=1, x_1_165_1_OspV=1]
<DWph=2> <it=  1> <et=48.38> <Mt= 0.00> <Spt= 0.00> <nCl=  0> <DB=   65.0000> <Mlp=   65.0000> <PB=1000000> 
<DWph=1> <it=  2> <et=48.39> <Mt= 0.00> <Spt= 0.00> <nCl=  0> <DB=   65.0000> <Mlp=   65.0000> <PB=1000000> 
---- Diving heuristic node with dive number = 0, fix depth = 16 and tabu list size = 0
Fixed projected solution = [x_1_0_1_OspV=1, x_1_15_1_OspV=1, x_1_78_1_OspV=1, x_1_193_1_OspV=1]
<DWph=2> <it= 10> <et=50.41> <Mt= 0.24> <Spt= 1.77> <nCl=895> <DB=   64.9948> <Mlp=   65.0000> <PB=1000000> 
<DWph=2> <it= 15> <et=51.17> <Mt= 0.05> <Spt= 0.71> <nCl=128> <DB=   64.9979> <Mlp=   65.0000> <PB=1000000> 
<DWph=1> <it= 16> <et=51.18> <Mt= 0.01> <Spt= 0.00> <nCl=  0> <DB=   65.0000> <Mlp=   65.0000> <PB=1000000> 
---- Diving heuristic node with dive number = 0, fix depth = 17 and tabu list size = 0
Fixed projected solution = [x_1_0_1_OspV=1, x_1_30_1_OspV=1, x_1_92_1_OspV=1, x_1_182_1_OspV=1]
<DWph=2> <it= 10> <et=53.14> <Mt= 0.15> <Spt= 1.78> <nCl=131> <DB=   64.9998> <Mlp=   65.0000> <PB=1000000> 
<DWph=2> <it= 20> <et=56.55> <Mt= 0.07> <Spt= 3.34> <nCl= 44> <DB=   64.9745> <Mlp=   65.0000> <PB=1000000> 
<DWph=2> <it= 26> <et=57.65> <Mt= 0.03> <Spt= 1.06> <nCl= 20> <DB=   64.9520> <Mlp=   65.0000> <PB=1000000> 
<DWph=1> <it= 27> <et=57.65> <Mt= 0.01> <Spt= 0.00> <nCl=  0> <DB=   65.0000> <Mlp=   65.0000> <PB=1000000> 
---- Diving heuristic node with dive number = 0, fix depth = 18 and tabu list size = 0
Fixed projected solution = [x_1_0_1_OspV=1, x_1_8_1_OspV=1, x_1_109_1_OspV=1, x_1_170_1_OspV=1]
<DWph=2> <it= 10> <et=60.00> <Mt= 0.40> <Spt= 1.92> <nCl=628> <DB=   64.9839> <Mlp=   65.0001> <PB=1000000> 
<DWph=2> <it= 20> <et=61.95> <Mt= 0.10> <Spt= 1.76> <nCl= 79> <DB=   64.9869> <Mlp=   65.0000> <PB=1000000> 
Global time limit is reached during column generation
SEARCH IS INTERRUPTED as the time limit is reached. 
---- Diving heuristic node with dive number = 1, fix depth = 2 and tabu list size = 1
Fixed projected solution = [x_1_0_1_OspV=1, x_1_36_1_OspV=1, x_1_99_1_OspV=1, x_1_176_1_OspV=1]
---- Diving heuristic node with dive number = 2, fix depth = 2 and tabu list size = 2
Fixed projected solution = [x_1_0_1_OspV=1, x_1_40_1_OspV=1, x_1_102_1_OspV=1, x_1_173_1_OspV=1]
---- Diving heuristic node with dive number = 3, fix depth = 2 and tabu list size = 3
Fixed projected solution = [x_1_0_1_OspV=1, x_1_18_1_OspV=1, x_1_84_1_OspV=1, x_1_191_1_OspV=1]
---- Diving heuristic node with dive number = 4, fix depth = 1 and tabu list size = 1
Fixed projected solution = [x_1_0_1_OspV=1, x_1_39_1_OspV=1, x_1_103_1_OspV=1, x_1_172_1_OspV=1]
---- Diving heuristic node with dive number = 5, fix depth = 1 and tabu list size = 2
Fixed projected solution = [x_1_0_1_OspV=1, x_1_51_1_OspV=1, x_1_116_1_OspV=1, x_1_161_1_OspV=1]
---- Diving heuristic node with dive number = 6, fix depth = 1 and tabu list size = 3
Fixed projected solution = [x_1_0_1_OspV=1, x_1_40_1_OspV=1, x_1_102_1_OspV=1, x_1_173_1_OspV=1]
**** Strong branching phase 1 is started *****
**** Strong branching phase 3 is started *****
************************************************************************************************
Search is finished, global bounds : [ 65 , 1e+06 ], TIME = 0h1m3s97t = 6397
************************************************************************************************
statistics_cols: instance & :Optimal & cutoff & :bcRecRootDb & :bcTimeRootEval & :bcCountNodeProc & :bcRecBestDb & :bcRecBestInc & :bcTimeMain \\
statistics: 201_2500_DI_40 & 0 & 1.0e6 & 65.00 & 43.65 & 1 & 65.00 & -- & 63.97 \\
########################################################
Solution not found
########################################################
