Application parameters:
  batch  =>  nothing
  instance  =>  "/IN/201_2500_DI_48.txt-Q2"
  ub  =>  1.0e6
  cfg  =>  "/CFG/BPP.cfg"
data = Colored Bin Packing dataset.
number of items = 202
number of colors = 2
capacity = 1972
Items : 
	 item 1, weight= 4, color= 0
	 item 2, weight= 4, color= 1
	 item 3, weight= 8, color= 0
	 item 4, weight= 8, color= 0
	 item 5, weight= 16, color= 0
	 item 6, weight= 32, color= 0
	 item 7, weight= 32, color= 1
	 item 8, weight= 32, color= 1
	 item 9, weight= 34, color= 0
	 item 10, weight= 36, color= 0
	 item 11, weight= 36, color= 1
	 item 12, weight= 40, color= 0
	 item 13, weight= 40, color= 1
	 item 14, weight= 40, color= 1
	 item 15, weight= 40, color= 1
	 item 16, weight= 42, color= 0
	 item 17, weight= 42, color= 1
	 item 18, weight= 42, color= 1
	 item 19, weight= 44, color= 0
	 item 20, weight= 44, color= 0
	 item 21, weight= 44, color= 1
	 item 22, weight= 46, color= 0
	 item 23, weight= 46, color= 1
	 item 24, weight= 48, color= 0
	 item 25, weight= 48, color= 1
	 item 26, weight= 48, color= 1
	 item 27, weight= 52, color= 0
	 item 28, weight= 52, color= 0
	 item 29, weight= 52, color= 1
	 item 30, weight= 56, color= 1
	 item 31, weight= 56, color= 1
	 item 32, weight= 56, color= 1
	 item 33, weight= 64, color= 0
	 item 34, weight= 64, color= 1
	 item 35, weight= 64, color= 1
	 item 36, weight= 64, color= 1
	 item 37, weight= 68, color= 0
	 item 38, weight= 68, color= 1
	 item 39, weight= 68, color= 1
	 item 40, weight= 70, color= 1
	 item 41, weight= 72, color= 0
	 item 42, weight= 76, color= 0
	 item 43, weight= 76, color= 1
	 item 44, weight= 80, color= 1
	 item 45, weight= 80, color= 1
	 item 46, weight= 84, color= 0
	 item 47, weight= 86, color= 1
	 item 48, weight= 90, color= 1
	 item 49, weight= 90, color= 1
	 item 50, weight= 90, color= 1
	 item 51, weight= 92, color= 0
	 item 52, weight= 96, color= 1
	 item 53, weight= 100, color= 1
	 item 54, weight= 108, color= 1
	 item 55, weight= 110, color= 1
	 item 56, weight= 110, color= 1
	 item 57, weight= 116, color= 0
	 item 58, weight= 116, color= 1
	 item 59, weight= 132, color= 0
	 item 60, weight= 134, color= 0
	 item 61, weight= 134, color= 1
	 item 62, weight= 140, color= 0
	 item 63, weight= 140, color= 0
	 item 64, weight= 160, color= 0
	 item 65, weight= 160, color= 1
	 item 66, weight= 162, color= 0
	 item 67, weight= 162, color= 0
	 item 68, weight= 162, color= 1
	 item 69, weight= 164, color= 0
	 item 70, weight= 171, color= 0
	 item 71, weight= 174, color= 0
	 item 72, weight= 175, color= 0
	 item 73, weight= 181, color= 0
	 item 74, weight= 184, color= 1
	 item 75, weight= 189, color= 1
	 item 76, weight= 202, color= 1
	 item 77, weight= 207, color= 0
	 item 78, weight= 211, color= 0
	 item 79, weight= 213, color= 1
	 item 80, weight= 214, color= 1
	 item 81, weight= 220, color= 1
	 item 82, weight= 220, color= 1
	 item 83, weight= 221, color= 0
	 item 84, weight= 227, color= 1
	 item 85, weight= 233, color= 0
	 item 86, weight= 241, color= 1
	 item 87, weight= 248, color= 1
	 item 88, weight= 249, color= 1
	 item 89, weight= 250, color= 1
	 item 90, weight= 262, color= 0
	 item 91, weight= 267, color= 1
	 item 92, weight= 283, color= 0
	 item 93, weight= 285, color= 0
	 item 94, weight= 286, color= 1
	 item 95, weight= 295, color= 0
	 item 96, weight= 304, color= 0
	 item 97, weight= 305, color= 0
	 item 98, weight= 321, color= 0
	 item 99, weight= 322, color= 0
	 item 100, weight= 327, color= 1
	 item 101, weight= 349, color= 0
	 item 102, weight= 350, color= 0
	 item 103, weight= 355, color= 0
	 item 104, weight= 379, color= 1
	 item 105, weight= 382, color= 1
	 item 106, weight= 389, color= 0
	 item 107, weight= 408, color= 1
	 item 108, weight= 422, color= 1
	 item 109, weight= 429, color= 0
	 item 110, weight= 435, color= 0
	 item 111, weight= 451, color= 0
	 item 112, weight= 455, color= 0
	 item 113, weight= 456, color= 0
	 item 114, weight= 459, color= 0
	 item 115, weight= 466, color= 0
	 item 116, weight= 485, color= 0
	 item 117, weight= 491, color= 1
	 item 118, weight= 522, color= 1
	 item 119, weight= 551, color= 1
	 item 120, weight= 553, color= 0
	 item 121, weight= 557, color= 0
	 item 122, weight= 586, color= 0
	 item 123, weight= 589, color= 1
	 item 124, weight= 664, color= 0
	 item 125, weight= 666, color= 0
	 item 126, weight= 669, color= 0
	 item 127, weight= 671, color= 0
	 item 128, weight= 675, color= 1
	 item 129, weight= 707, color= 1
	 item 130, weight= 710, color= 0
	 item 131, weight= 796, color= 1
	 item 132, weight= 811, color= 1
	 item 133, weight= 813, color= 0
	 item 134, weight= 814, color= 0
	 item 135, weight= 817, color= 1
	 item 136, weight= 821, color= 0
	 item 137, weight= 821, color= 1
	 item 138, weight= 938, color= 1
	 item 139, weight= 987, color= 0
	 item 140, weight= 989, color= 0
	 item 141, weight= 990, color= 0
	 item 142, weight= 993, color= 0
	 item 143, weight= 997, color= 1
	 item 144, weight= 998, color= 1
	 item 145, weight= 1001, color= 0
	 item 146, weight= 1122, color= 1
	 item 147, weight= 1125, color= 1
	 item 148, weight= 1163, color= 1
	 item 149, weight= 1167, color= 1
	 item 150, weight= 1171, color= 1
	 item 151, weight= 1226, color= 0
	 item 152, weight= 1240, color= 0
	 item 153, weight= 1267, color= 0
	 item 154, weight= 1270, color= 1
	 item 155, weight= 1305, color= 1
	 item 156, weight= 1309, color= 1
	 item 157, weight= 1313, color= 0
	 item 158, weight= 1350, color= 0
	 item 159, weight= 1364, color= 0
	 item 160, weight= 1385, color= 0
	 item 161, weight= 1414, color= 1
	 item 162, weight= 1423, color= 0
	 item 163, weight= 1427, color= 0
	 item 164, weight= 1431, color= 0
	 item 165, weight= 1435, color= 0
	 item 166, weight= 1451, color= 0
	 item 167, weight= 1459, color= 1
	 item 168, weight= 1470, color= 0
	 item 169, weight= 1507, color= 0
	 item 170, weight= 1514, color= 0
	 item 171, weight= 1525, color= 1
	 item 172, weight= 1547, color= 1
	 item 173, weight= 1554, color= 1
	 item 174, weight= 1555, color= 1
	 item 175, weight= 1581, color= 1
	 item 176, weight= 1586, color= 0
	 item 177, weight= 1587, color= 0
	 item 178, weight= 1625, color= 0
	 item 179, weight= 1630, color= 1
	 item 180, weight= 1631, color= 0
	 item 181, weight= 1633, color= 0
	 item 182, weight= 1653, color= 1
	 item 183, weight= 1658, color= 0
	 item 184, weight= 1669, color= 1
	 item 185, weight= 1674, color= 0
	 item 186, weight= 1675, color= 0
	 item 187, weight= 1676, color= 0
	 item 188, weight= 1685, color= 1
	 item 189, weight= 1693, color= 0
	 item 190, weight= 1701, color= 0
	 item 191, weight= 1709, color= 1
	 item 192, weight= 1717, color= 0
	 item 193, weight= 1718, color= 1
	 item 194, weight= 1725, color= 0
	 item 195, weight= 1730, color= 1
	 item 196, weight= 1747, color= 0
	 item 197, weight= 1753, color= 1
	 item 198, weight= 1755, color= 0
	 item 199, weight= 1756, color= 0
	 item 200, weight= 1763, color= 0
	 item 201, weight= 1766, color= 0
	 item 202, weight= 1769, color= 0

VRPSolver warning: Interval set for resource 1 on source node (when source != sink) is ignored (by definition is [0.0,0.0])
VRPSolver warning: Interval set for resource 2 on source node (when source != sink) is ignored (by definition is [0.0,0.0])
VRPSolver warning: Interval set for resource 3 on source node (when source != sink) is ignored (by definition is [0.0,0.0])
[41m solve [00m
~~~~~~~~~~~~~~~~~~~~~~~~~~~~~~~~~~~~~~~~~~~~~~~~~~~~~~~~~~~~~~~~~~~~~~~~~~~~~~
VRPSolver v0.4.1, 24/03/2021. Web: vrpsolver.math.u-bordeaux.fr
Corresponds to the solver by Pessoa, Sadykov, Uchoa and Vanderbeck (2020)
Paper: dx.doi.org/10.1007/s10107-020-01523-z
USE THIS CODE ONLY FOR ACADEMIC PURPOSES AT YOUR OWN RISK
~~~~~~~~~~~~~~~~~~~~~~~~~~~~~~~~~~~~~~~~~~~~~~~~~~~~~~~~~~~~~~~~~~~~~~~~~~~~~~
BaPCod v053, 24/03/2021, © Inria Bordeaux, France
~~~~~~~~~~~~~~~~~~~~~~~~~~~~~~~~~~~~~~~~~~~~~~~~~~~~~~~~~~~~~~~~~~~~~~~~~~~~~~
VRPSolver parameters:
GlobalTimeLimit = 60
MaxNbOfBBtreeNodeTreated = 100000
treeSearchStrategy = 1
RCSPstopCutGenTimeThresholdInPricing = 10
RCSPhardTimeThresholdInPricing = 20
RCSPnumberOfBucketsPerVertex = 2000
RCSPdynamicBucketSteps = 0
RCSPuseBidirectionalSearch = 1
RCSPapplyReducedCostFixing = 1
RCSPredCostFixingFalseGap = 0
RCSPmaxNumOfColsPerIteration = 100
RCSPmaxNumOfColsPerExactIteration = 100
RCSPheurLabelingStrategy = 4
StabilizationMinPhaseOfStage = 1
RCSPmaxNumOfLabelsInEnumeration = 100000
RCSPmaxNumOfEnumeratedSolutions = 1000000
RCSPmaxNumOfEnumSolutionsForMIP = 100000
RCSPinitNGneighbourhoodSize = 0
RCSPmaxNGneighbourhoodSize = 0
RCSPrankOneCutsMaxNumPerRound = 100
RCSPrankOneCutsMaxNumRows = -1
RCSPrankOneCutsMemoryType = 2
CutTailingOffThreshold = 0.02
CutTailingOffCounterThreshold = 3
SafeDualBoundScaleFactor = -1
StrongBranchingPhaseOneCandidatesNumber = 100
StrongBranchingPhaseOneTreeSizeEstimRatio = 0.3
StrongBranchingPhaseTwoCandidatesNumber = 1
StrongBranchingPhaseTwoTreeSizeEstimRatio = 0.1
MaxTimeForRestrictedMasterIpHeur = -1
DivingHeurUseDepthLimit = 0
MaxLDSbreadth = 3
MaxLDSdepth = 2
New model incumbent solution 1e+06, TIME = 0h0m0s3t = 3
Model is built TIME = 0h0m2s8t = 208
************************************************************************************************
**** BaB tree root node
**** Local DB = -1e+12, global bounds : [ -1e+12 , 1e+06 ], TIME = 0h0m2s8t = 208
**** 1 open nodes, 0 columns (0 active), 0 dyn. constrs. (0 active), 406 art. vars. (406 active)
************************************************************************************************
<DWph=2> <it= 10> <et=4.39> <Mt= 0.02> <Spt= 2.27> <nCl=1000> <DB=-2667875586.5351> <Mlp=156207581.8554> <PB=1000000> 
<DWph=2> <it= 20> <et=6.52> <Mt= 0.14> <Spt= 1.99> <nCl=1000> <DB=-1324184759.7469> <Mlp=122133029.9658> <PB=1000000> 
<DWph=2> <it= 30> <et=8.99> <Mt= 0.33> <Spt= 2.14> <nCl=1000> <DB=-582674633.4822> <Mlp=88452778.3204> <PB=1000000> 
<DWph=2> <it= 40> <et=11.68> <Mt= 0.40> <Spt= 2.29> <nCl=1000> <DB=-284106357.8220> <Mlp=64652815.9793> <PB=1000000> 
<DWph=2> <it= 50> <et=14.57> <Mt= 0.42> <Spt= 2.46> <nCl=1000> <DB=-250197343.3710> <Mlp=50281183.0200> <PB=1000000> 
<DWph=2> <it= 60> <et=17.61> <Mt= 0.37> <Spt= 2.68> <nCl=1000> <DB=-209595545.4441> <Mlp=34585731.8951> <PB=1000000> 
<DWph=2> <it= 70> <et=22.63> <Mt= 0.41> <Spt= 4.60> <nCl=927> <DB= -168.6076> <Mlp=   67.0330> <PB=1000000> 
<DWph=2> <it= 80> <et=24.74> <Mt= 0.22> <Spt= 1.88> <nCl=947> <DB=   42.8360> <Mlp=   65.9043> <PB=1000000> 
<DWph=2> <it= 90> <et=26.74> <Mt= 0.35> <Spt= 1.66> <nCl=953> <DB=   64.1247> <Mlp=   65.0327> <PB=1000000> 
<DWph=2> <it=100> <et=28.54> <Mt= 0.23> <Spt= 1.55> <nCl=751> <DB=   64.8952> <Mlp=   65.0020> <PB=1000000> 
<DWph=2> <it=110> <et=30.24> <Mt= 0.16> <Spt= 1.54> <nCl=141> <DB=   64.9760> <Mlp=   65.0001> <PB=1000000> 
<DWph=2> <it=115> <et=31.53> <Mt= 0.05> <Spt= 1.10> <nCl= 22> <DB=   65.0000> <Mlp=   65.0000> <PB=1000000> 
<DWph=1> <it=117> <et=32.72> <Mt= 0.01> <Spt= 1.18> <nCl=  1> <DB=   65.0000> <Mlp=   65.0000> <PB=1000000> 
<DWph=0> <it=118> <et=34.06> <Mt= 0.00> <Spt= 1.35> <nCl=  0> <DB=   65.0000> <Mlp=   65.0000> <PB=1000000> 
Reduced cost fixing for graph G_1... took 16.08 sec., 350025 buck. arcs remain (100% from prev., 36.7% from max.)
Run enumeration... took 0.41 sec. and not succeeded.
ColGenEvalAlg final dual bound: 65 (rounded: 65)
----------- Diving heuristic started -----------
<DWph=2> <it=  1> <et=50.63> <Mt= 0.01> <Spt= 0.00> <nCl=  0> <DB=   65.0000> <Mlp=   65.0000> <PB=1000000> 
<DWph=1> <it=  2> <et=50.63> <Mt= 0.00> <Spt= 0.00> <nCl=  0> <DB=   65.0000> <Mlp=   65.0000> <PB=1000000> 
---- Diving heuristic node with dive number = 0, fix depth = 0 and tabu list size = 0
Fixed projected solution = [x_1_0_1_OspV=1, x_1_59_1_OspV=1, x_1_126_1_OspV=1, x_1_150_1_OspV=1]
<DWph=2> <it=  1> <et=50.73> <Mt= 0.00> <Spt= 0.00> <nCl=  0> <DB=   65.0000> <Mlp=   65.0000> <PB=1000000> 
<DWph=1> <it=  2> <et=50.73> <Mt= 0.00> <Spt= 0.00> <nCl=  0> <DB=   65.0000> <Mlp=   65.0000> <PB=1000000> 
---- Diving heuristic node with dive number = 0, fix depth = 0 and tabu list size = 0
Fixed projected solution = [x_1_0_1_OspV=1, x_1_60_1_OspV=1, x_1_128_1_OspV=1, x_1_148_1_OspV=1]
<DWph=2> <it=  1> <et=50.82> <Mt= 0.01> <Spt= 0.00> <nCl=  0> <DB=   65.0000> <Mlp=   65.0000> <PB=1000000> 
<DWph=1> <it=  2> <et=50.82> <Mt= 0.00> <Spt= 0.00> <nCl=  0> <DB=   65.0000> <Mlp=   65.0000> <PB=1000000> 
---- Diving heuristic node with dive number = 0, fix depth = 0 and tabu list size = 0
Fixed projected solution = [x_1_0_1_OspV=1, x_1_22_1_OspV=1, x_1_86_1_OspV=1, x_1_188_1_OspV=1]
<DWph=2> <it=  1> <et=50.90> <Mt= 0.00> <Spt= 0.00> <nCl=  0> <DB=   65.0000> <Mlp=   65.0000> <PB=1000000> 
<DWph=1> <it=  2> <et=50.91> <Mt= 0.00> <Spt= 0.00> <nCl=  0> <DB=   65.0000> <Mlp=   65.0000> <PB=1000000> 
---- Diving heuristic node with dive number = 0, fix depth = 0 and tabu list size = 0
Fixed projected solution = [x_1_0_1_OspV=1, x_1_34_1_OspV=1, x_1_98_1_OspV=1, x_1_177_1_OspV=1]
<DWph=2> <it=  1> <et=50.99> <Mt= 0.01> <Spt= 0.00> <nCl=  0> <DB=   65.0000> <Mlp=   65.0000> <PB=1000000> 
<DWph=1> <it=  2> <et=50.99> <Mt= 0.00> <Spt= 0.00> <nCl=  0> <DB=   65.0000> <Mlp=   65.0000> <PB=1000000> 
---- Diving heuristic node with dive number = 0, fix depth = 0 and tabu list size = 0
Fixed projected solution = [x_1_0_1_OspV=1, x_1_14_1_OspV=1, x_1_77_1_OspV=1, x_1_194_1_OspV=1]
<DWph=2> <it=  1> <et=51.08> <Mt= 0.00> <Spt= 0.00> <nCl=  0> <DB=   65.0000> <Mlp=   65.0000> <PB=1000000> 
<DWph=1> <it=  2> <et=51.08> <Mt= 0.00> <Spt= 0.00> <nCl=  0> <DB=   65.0000> <Mlp=   65.0000> <PB=1000000> 
---- Diving heuristic node with dive number = 0, fix depth = 0 and tabu list size = 0
Fixed projected solution = [x_1_0_1_OspV=1, x_1_21_1_OspV=1, x_1_73_1_OspV=1, x_1_196_1_OspV=1]
<DWph=2> <it=  1> <et=51.16> <Mt= 0.01> <Spt= 0.00> <nCl=  0> <DB=   65.0000> <Mlp=   65.0000> <PB=1000000> 
<DWph=1> <it=  2> <et=51.17> <Mt= 0.00> <Spt= 0.00> <nCl=  0> <DB=   65.0000> <Mlp=   65.0000> <PB=1000000> 
---- Diving heuristic node with dive number = 0, fix depth = 0 and tabu list size = 0
Fixed projected solution = [x_1_0_1_OspV=1, x_1_2_1_OspV=1, x_1_5_1_OspV=1, x_1_75_1_OspV=1, x_1_200_1_OspV=1]
<DWph=2> <it=  1> <et=51.25> <Mt= 0.00> <Spt= 0.00> <nCl=  0> <DB=   65.0000> <Mlp=   65.0000> <PB=1000000> 
<DWph=1> <it=  2> <et=51.25> <Mt= 0.00> <Spt= 0.00> <nCl=  0> <DB=   65.0000> <Mlp=   65.0000> <PB=1000000> 
---- Diving heuristic node with dive number = 0, fix depth = 0 and tabu list size = 0
Fixed projected solution = [x_1_0_1_OspV=1, x_1_64_1_OspV=1, x_1_132_1_OspV=1, x_1_145_1_OspV=1]
<DWph=2> <it=  1> <et=51.34> <Mt= 0.01> <Spt= 0.00> <nCl=  0> <DB=   65.0000> <Mlp=   65.0000> <PB=1000000> 
<DWph=1> <it=  2> <et=51.34> <Mt= 0.00> <Spt= 0.00> <nCl=  0> <DB=   65.0000> <Mlp=   65.0000> <PB=1000000> 
---- Diving heuristic node with dive number = 0, fix depth = 0 and tabu list size = 0
Fixed projected solution = [x_1_0_1_OspV=1, x_1_33_1_OspV=1, x_1_100_1_OspV=1, x_1_175_1_OspV=1]
<DWph=2> <it=  1> <et=51.42> <Mt= 0.00> <Spt= 0.00> <nCl=  0> <DB=   65.0000> <Mlp=   65.0000> <PB=1000000> 
<DWph=1> <it=  2> <et=51.43> <Mt= 0.00> <Spt= 0.00> <nCl=  0> <DB=   65.0000> <Mlp=   65.0000> <PB=1000000> 
---- Diving heuristic node with dive number = 0, fix depth = 0 and tabu list size = 0
Fixed projected solution = [x_1_0_1_OspV=1, x_1_52_1_OspV=1, x_1_117_1_OspV=1, x_1_160_1_OspV=1]
<DWph=2> <it=  1> <et=51.51> <Mt= 0.01> <Spt= 0.00> <nCl=  0> <DB=   65.0000> <Mlp=   65.0000> <PB=1000000> 
<DWph=1> <it=  2> <et=51.51> <Mt= 0.00> <Spt= 0.00> <nCl=  0> <DB=   65.0000> <Mlp=   65.0000> <PB=1000000> 
---- Diving heuristic node with dive number = 0, fix depth = 0 and tabu list size = 0
Fixed projected solution = [x_1_0_1_OspV=1, x_1_55_1_OspV=1, x_1_121_1_OspV=1, x_1_155_1_OspV=1]
<DWph=2> <it=  1> <et=51.60> <Mt= 0.00> <Spt= 0.00> <nCl=  0> <DB=   65.0000> <Mlp=   65.0000> <PB=1000000> 
<DWph=1> <it=  2> <et=51.60> <Mt= 0.00> <Spt= 0.00> <nCl=  0> <DB=   65.0000> <Mlp=   65.0000> <PB=1000000> 
---- Diving heuristic node with dive number = 0, fix depth = 0 and tabu list size = 0
Fixed projected solution = [x_1_0_1_OspV=1, x_1_57_1_OspV=1, x_1_123_1_OspV=1, x_1_153_1_OspV=1]
<DWph=2> <it=  1> <et=51.69> <Mt= 0.01> <Spt= 0.00> <nCl=  0> <DB=   65.0000> <Mlp=   65.0000> <PB=1000000> 
<DWph=1> <it=  2> <et=51.69> <Mt= 0.00> <Spt= 0.00> <nCl=  0> <DB=   65.0000> <Mlp=   65.0000> <PB=1000000> 
---- Diving heuristic node with dive number = 0, fix depth = 1 and tabu list size = 0
Fixed projected solution = [x_1_0_1_OspV=1, x_1_4_1_OspV=1, x_1_78_1_OspV=1, x_1_197_1_OspV=1]
<DWph=2> <it=  1> <et=51.78> <Mt= 0.03> <Spt= 0.00> <nCl=  0> <DB=   65.0000> <Mlp=   65.0000> <PB=1000000> 
<DWph=1> <it=  2> <et=51.79> <Mt= 0.00> <Spt= 0.00> <nCl=  0> <DB=   65.0000> <Mlp=   65.0000> <PB=1000000> 
---- Diving heuristic node with dive number = 0, fix depth = 1 and tabu list size = 0
Fixed projected solution = [x_1_0_1_OspV=1, x_1_56_1_OspV=1, x_1_120_1_OspV=1, x_1_156_1_OspV=1]
<DWph=2> <it=  1> <et=51.88> <Mt= 0.00> <Spt= 0.00> <nCl=  0> <DB=   65.0000> <Mlp=   65.0000> <PB=1000000> 
<DWph=1> <it=  2> <et=51.88> <Mt= 0.01> <Spt= 0.00> <nCl=  0> <DB=   65.0000> <Mlp=   65.0000> <PB=1000000> 
---- Diving heuristic node with dive number = 0, fix depth = 1 and tabu list size = 0
Fixed projected solution = [x_1_0_1_OspV=1, x_1_3_1_OspV=1, x_1_95_1_OspV=1, x_1_184_1_OspV=1]
<DWph=2> <it=  1> <et=51.96> <Mt= 0.00> <Spt= 0.00> <nCl=  0> <DB=   65.0000> <Mlp=   65.0000> <PB=1000000> 
<DWph=1> <it=  2> <et=51.96> <Mt= 0.00> <Spt= 0.00> <nCl=  0> <DB=   65.0000> <Mlp=   65.0000> <PB=1000000> 
---- Diving heuristic node with dive number = 0, fix depth = 2 and tabu list size = 0
Fixed projected solution = [x_1_0_1_OspV=1, x_1_62_1_OspV=1, x_1_129_1_OspV=1, x_1_147_1_OspV=1]
<DWph=2> <it=  1> <et=52.04> <Mt= 0.01> <Spt= 0.00> <nCl=  0> <DB=   65.0000> <Mlp=   65.0000> <PB=1000000> 
<DWph=1> <it=  2> <et=52.04> <Mt= 0.00> <Spt= 0.00> <nCl=  0> <DB=   65.0000> <Mlp=   65.0000> <PB=1000000> 
---- Diving heuristic node with dive number = 0, fix depth = 3 and tabu list size = 0
Fixed projected solution = [x_1_0_1_OspV=1, x_1_61_1_OspV=1, x_1_127_1_OspV=1, x_1_149_1_OspV=1]
<DWph=2> <it=  1> <et=52.08> <Mt= 0.03> <Spt= 0.00> <nCl=  0> <DB=   65.0000> <Mlp=   65.0000> <PB=1000000> 
<DWph=1> <it=  2> <et=52.08> <Mt= 0.00> <Spt= 0.00> <nCl=  0> <DB=   65.0000> <Mlp=   65.0000> <PB=1000000> 
---- Diving heuristic node with dive number = 0, fix depth = 4 and tabu list size = 0
Fixed projected solution = [x_1_0_1_OspV=1, x_1_54_1_OspV=1, x_1_119_1_OspV=1, x_1_157_1_OspV=1]
<DWph=2> <it=  1> <et=52.13> <Mt= 0.04> <Spt= 0.00> <nCl=  0> <DB=   65.0000> <Mlp=   65.0000> <PB=1000000> 
<DWph=1> <it=  2> <et=52.13> <Mt= 0.00> <Spt= 0.00> <nCl=  0> <DB=   65.0000> <Mlp=   65.0000> <PB=1000000> 
---- Diving heuristic node with dive number = 0, fix depth = 5 and tabu list size = 0
Fixed projected solution = [x_1_0_1_OspV=1, x_1_46_1_OspV=1, x_1_109_1_OspV=1, x_1_167_1_OspV=1]
<DWph=2> <it=  1> <et=52.18> <Mt= 0.03> <Spt= 0.00> <nCl=  0> <DB=   65.0000> <Mlp=   65.0000> <PB=1000000> 
<DWph=1> <it=  2> <et=52.18> <Mt= 0.01> <Spt= 0.00> <nCl=  0> <DB=   65.0000> <Mlp=   65.0000> <PB=1000000> 
---- Diving heuristic node with dive number = 0, fix depth = 6 and tabu list size = 0
Fixed projected solution = [x_1_0_1_OspV=1, x_1_67_1_OspV=1, x_1_133_1_OspV=1, x_1_143_1_OspV=1]
<DWph=2> <it=  1> <et=52.22> <Mt= 0.02> <Spt= 0.00> <nCl=  0> <DB=   65.0000> <Mlp=   65.0000> <PB=1000000> 
<DWph=1> <it=  2> <et=52.22> <Mt= 0.00> <Spt= 0.00> <nCl=  0> <DB=   65.0000> <Mlp=   65.0000> <PB=1000000> 
---- Diving heuristic node with dive number = 0, fix depth = 7 and tabu list size = 0
Fixed projected solution = [x_1_0_1_OspV=1, x_1_69_1_OspV=1, x_1_137_1_OspV=1, x_1_139_1_OspV=1]
<DWph=2> <it=  1> <et=52.29> <Mt= 0.05> <Spt= 0.00> <nCl=  0> <DB=   65.0000> <Mlp=   65.0000> <PB=1000000> 
<DWph=1> <it=  2> <et=52.29> <Mt= 0.01> <Spt= 0.00> <nCl=  0> <DB=   65.0000> <Mlp=   65.0000> <PB=1000000> 
---- Diving heuristic node with dive number = 0, fix depth = 7 and tabu list size = 0
Fixed projected solution = [x_1_0_1_OspV=1, x_1_68_1_OspV=1, x_1_136_1_OspV=1, x_1_140_1_OspV=1]
<DWph=2> <it=  1> <et=52.30> <Mt= 0.00> <Spt= 0.00> <nCl=  0> <DB=   65.0000> <Mlp=   65.0000> <PB=1000000> 
<DWph=1> <it=  2> <et=52.30> <Mt= 0.00> <Spt= 0.00> <nCl=  0> <DB=   65.0000> <Mlp=   65.0000> <PB=1000000> 
---- Diving heuristic node with dive number = 0, fix depth = 7 and tabu list size = 0
Fixed projected solution = [x_1_0_1_OspV=1, x_1_66_1_OspV=1, x_1_135_1_OspV=1, x_1_142_1_OspV=1]
<DWph=2> <it=  1> <et=52.31> <Mt= 0.00> <Spt= 0.00> <nCl=  0> <DB=   65.0000> <Mlp=   65.0000> <PB=1000000> 
<DWph=1> <it=  2> <et=52.32> <Mt= 0.00> <Spt= 0.00> <nCl=  0> <DB=   65.0000> <Mlp=   65.0000> <PB=1000000> 
---- Diving heuristic node with dive number = 0, fix depth = 8 and tabu list size = 0
Fixed projected solution = [x_1_0_1_OspV=1, x_1_8_1_OspV=1, x_1_70_1_OspV=1, x_1_202_1_OspV=1]
<DWph=2> <it=  1> <et=52.37> <Mt= 0.05> <Spt= 0.00> <nCl=  0> <DB=   65.0000> <Mlp=   65.0000> <PB=1000000> 
<DWph=1> <it=  2> <et=52.37> <Mt= 0.00> <Spt= 0.00> <nCl=  0> <DB=   65.0000> <Mlp=   65.0000> <PB=1000000> 
---- Diving heuristic node with dive number = 0, fix depth = 8 and tabu list size = 0
Fixed projected solution = [x_1_0_1_OspV=1, x_1_7_1_OspV=1, x_1_71_1_OspV=1, x_1_201_1_OspV=1]
<DWph=2> <it=  1> <et=52.39> <Mt= 0.00> <Spt= 0.00> <nCl=  0> <DB=   65.0000> <Mlp=   65.0000> <PB=1000000> 
<DWph=1> <it=  2> <et=52.39> <Mt= 0.00> <Spt= 0.00> <nCl=  0> <DB=   65.0000> <Mlp=   65.0000> <PB=1000000> 
---- Diving heuristic node with dive number = 0, fix depth = 9 and tabu list size = 0
Fixed projected solution = [x_1_0_1_OspV=1, x_1_29_1_OspV=1, x_1_116_1_OspV=1, x_1_165_1_OspV=1]
<DWph=2> <it=  1> <et=52.44> <Mt= 0.04> <Spt= 0.00> <nCl=  0> <DB=   65.0000> <Mlp=   65.0000> <PB=1000000> 
<DWph=1> <it=  2> <et=52.44> <Mt= 0.00> <Spt= 0.00> <nCl=  0> <DB=   65.0000> <Mlp=   65.0000> <PB=1000000> 
---- Diving heuristic node with dive number = 0, fix depth = 10 and tabu list size = 0
Fixed projected solution = [x_1_0_1_OspV=1, x_1_65_1_OspV=1, x_1_134_1_OspV=1, x_1_144_1_OspV=1]
<DWph=2> <it=  2> <et=52.76> <Mt= 0.07> <Spt= 0.23> <nCl= 70> <DB=   64.9386> <Mlp=   65.0000> <PB=1000000> 
<DWph=1> <it=  3> <et=52.76> <Mt= 0.00> <Spt= 0.00> <nCl=  0> <DB=   65.0000> <Mlp=   65.0000> <PB=1000000> 
---- Diving heuristic node with dive number = 0, fix depth = 11 and tabu list size = 0
Fixed projected solution = [x_1_0_1_OspV=1, x_1_18_1_OspV=1, x_1_97_1_OspV=1, x_1_178_1_OspV=1]
<DWph=2> <it=  4> <et=53.36> <Mt= 0.05> <Spt= 0.54> <nCl=300> <DB=   64.9731> <Mlp=   65.0000> <PB=1000000> 
<DWph=1> <it=  5> <et=53.36> <Mt= 0.00> <Spt= 0.00> <nCl=  0> <DB=   65.0000> <Mlp=   65.0000> <PB=1000000> 
---- Diving heuristic node with dive number = 0, fix depth = 12 and tabu list size = 0
Fixed projected solution = [x_1_0_1_OspV=1, x_1_19_1_OspV=1, x_1_138_1_OspV=1, x_1_141_1_OspV=1]
<DWph=2> <it=  1> <et=53.43> <Mt= 0.06> <Spt= 0.00> <nCl=  0> <DB=   65.0000> <Mlp=   65.0000> <PB=1000000> 
<DWph=1> <it=  2> <et=53.43> <Mt= 0.00> <Spt= 0.00> <nCl=  0> <DB=   65.0000> <Mlp=   65.0000> <PB=1000000> 
---- Diving heuristic node with dive number = 0, fix depth = 13 and tabu list size = 0
Fixed projected solution = [x_1_0_1_OspV=1, x_1_31_1_OspV=1, x_1_93_1_OspV=1, x_1_180_1_OspV=1]
<DWph=2> <it=  1> <et=53.50> <Mt= 0.04> <Spt= 0.00> <nCl=  0> <DB=   65.0000> <Mlp=   65.0000> <PB=1000000> 
<DWph=1> <it=  2> <et=53.50> <Mt= 0.00> <Spt= 0.00> <nCl=  0> <DB=   65.0000> <Mlp=   65.0000> <PB=1000000> 
---- Diving heuristic node with dive number = 0, fix depth = 14 and tabu list size = 0
Fixed projected solution = [x_1_0_1_OspV=1, x_1_20_1_OspV=1, x_1_84_1_OspV=1, x_1_190_1_OspV=1]
<DWph=2> <it=  2> <et=53.78> <Mt= 0.10> <Spt= 0.18> <nCl=100> <DB=   64.9130> <Mlp=   65.0000> <PB=1000000> 
<DWph=1> <it=  3> <et=53.78> <Mt= 0.00> <Spt= 0.00> <nCl=  0> <DB=   65.0000> <Mlp=   65.0000> <PB=1000000> 
---- Diving heuristic node with dive number = 0, fix depth = 14 and tabu list size = 0
Fixed projected solution = [x_1_0_1_OspV=1, x_1_23_1_OspV=1, x_1_85_1_OspV=1, x_1_189_1_OspV=1]
<DWph=2> <it=  1> <et=53.80> <Mt= 0.00> <Spt= 0.00> <nCl=  0> <DB=   65.0000> <Mlp=   65.0000> <PB=1000000> 
<DWph=1> <it=  2> <et=53.81> <Mt= 0.00> <Spt= 0.00> <nCl=  0> <DB=   65.0000> <Mlp=   65.0000> <PB=1000000> 
---- Diving heuristic node with dive number = 0, fix depth = 15 and tabu list size = 0
Fixed projected solution = [x_1_0_1_OspV=1, x_1_16_1_OspV=1, x_1_83_1_OspV=1, x_1_191_1_OspV=1]
<DWph=2> <it=  3> <et=54.25> <Mt= 0.07> <Spt= 0.36> <nCl=200> <DB=   64.9291> <Mlp=   65.0000> <PB=1000000> 
<DWph=1> <it=  4> <et=54.25> <Mt= 0.00> <Spt= 0.00> <nCl=  0> <DB=   65.0000> <Mlp=   65.0000> <PB=1000000> 
---- Diving heuristic node with dive number = 0, fix depth = 16 and tabu list size = 0
Fixed projected solution = [x_1_0_1_OspV=1, x_1_1_1_OspV=1, x_1_79_1_OspV=1, x_1_198_1_OspV=1]
<DWph=2> <it=  5> <et=55.10> <Mt= 0.11> <Spt= 0.73> <nCl=331> <DB=   64.9629> <Mlp=   65.0000> <PB=1000000> 
<DWph=1> <it=  6> <et=55.11> <Mt= 0.00> <Spt= 0.00> <nCl=  0> <DB=   65.0000> <Mlp=   65.0000> <PB=1000000> 
---- Diving heuristic node with dive number = 0, fix depth = 16 and tabu list size = 0
Fixed projected solution = [x_1_0_1_OspV=1, x_1_13_1_OspV=1, x_1_15_1_OspV=1, x_1_72_1_OspV=1, x_1_192_1_OspV=1]
<DWph=2> <it=  1> <et=55.13> <Mt= 0.01> <Spt= 0.00> <nCl=  0> <DB=   65.0000> <Mlp=   65.0000> <PB=1000000> 
<DWph=1> <it=  2> <et=55.13> <Mt= 0.00> <Spt= 0.00> <nCl=  0> <DB=   65.0000> <Mlp=   65.0000> <PB=1000000> 
---- Diving heuristic node with dive number = 0, fix depth = 17 and tabu list size = 0
Fixed projected solution = [x_1_0_1_OspV=1, x_1_42_1_OspV=1, x_1_105_1_OspV=1, x_1_170_1_OspV=1]
<DWph=2> <it=  4> <et=55.75> <Mt= 0.06> <Spt= 0.54> <nCl=193> <DB=   64.9780> <Mlp=   65.0000> <PB=1000000> 
<DWph=1> <it=  5> <et=55.75> <Mt= 0.00> <Spt= 0.00> <nCl=  0> <DB=   65.0000> <Mlp=   65.0000> <PB=1000000> 
---- Diving heuristic node with dive number = 0, fix depth = 18 and tabu list size = 0
Fixed projected solution = [x_1_0_1_OspV=1, x_1_58_1_OspV=1, x_1_122_1_OspV=1, x_1_154_1_OspV=1]
<DWph=2> <it=  5> <et=56.63> <Mt= 0.14> <Spt= 0.72> <nCl=253> <DB=   64.9946> <Mlp=   65.0000> <PB=1000000> 
<DWph=1> <it=  6> <et=56.63> <Mt= 0.00> <Spt= 0.00> <nCl=  0> <DB=   65.0000> <Mlp=   65.0000> <PB=1000000> 
---- Diving heuristic node with dive number = 0, fix depth = 19 and tabu list size = 0
Fixed projected solution = [x_1_0_1_OspV=1, x_1_6_1_OspV=1, x_1_74_1_OspV=1, x_1_199_1_OspV=1]
<DWph=2> <it=  6> <et=57.71> <Mt= 0.11> <Spt= 0.95> <nCl= 72> <DB=   64.9978> <Mlp=   65.0000> <PB=1000000> 
<DWph=1> <it=  7> <et=57.71> <Mt= 0.00> <Spt= 0.00> <nCl=  0> <DB=   65.0000> <Mlp=   65.0000> <PB=1000000> 
---- Diving heuristic node with dive number = 0, fix depth = 19 and tabu list size = 0
Fixed projected solution = [x_1_0_1_OspV=1, x_1_37_1_OspV=1, x_1_104_1_OspV=1, x_1_171_1_OspV=1]
<DWph=2> <it=  1> <et=57.73> <Mt= 0.00> <Spt= 0.00> <nCl=  0> <DB=   65.0000> <Mlp=   65.0000> <PB=1000000> 
<DWph=1> <it=  2> <et=57.73> <Mt= 0.00> <Spt= 0.00> <nCl=  0> <DB=   65.0000> <Mlp=   65.0000> <PB=1000000> 
---- Diving heuristic node with dive number = 0, fix depth = 19 and tabu list size = 0
Fixed projected solution = [x_1_0_1_OspV=1, x_1_50_1_OspV=1, x_1_114_1_OspV=1, x_1_162_1_OspV=1]
<DWph=2> <it=  1> <et=57.75> <Mt= 0.00> <Spt= 0.00> <nCl=  0> <DB=   65.0000> <Mlp=   65.0000> <PB=1000000> 
<DWph=1> <it=  2> <et=57.76> <Mt= 0.01> <Spt= 0.00> <nCl=  0> <DB=   65.0000> <Mlp=   65.0000> <PB=1000000> 
---- Diving heuristic node with dive number = 0, fix depth = 19 and tabu list size = 0
Fixed projected solution = [x_1_0_1_OspV=1, x_1_47_1_OspV=1, x_1_110_1_OspV=1, x_1_166_1_OspV=1]
<DWph=2> <it=  1> <et=57.77> <Mt= 0.00> <Spt= 0.00> <nCl=  0> <DB=   65.0000> <Mlp=   65.0000> <PB=1000000> 
<DWph=1> <it=  2> <et=57.78> <Mt= 0.00> <Spt= 0.00> <nCl=  0> <DB=   65.0000> <Mlp=   65.0000> <PB=1000000> 
---- Diving heuristic node with dive number = 0, fix depth = 19 and tabu list size = 0
Fixed projected solution = [x_1_0_1_OspV=1, x_1_49_1_OspV=1, x_1_111_1_OspV=1, x_1_164_1_OspV=1]
<DWph=2> <it=  1> <et=57.79> <Mt= 0.00> <Spt= 0.00> <nCl=  0> <DB=   65.0000> <Mlp=   65.0000> <PB=1000000> 
<DWph=1> <it=  2> <et=57.79> <Mt= 0.00> <Spt= 0.00> <nCl=  0> <DB=   65.0000> <Mlp=   65.0000> <PB=1000000> 
---- Diving heuristic node with dive number = 0, fix depth = 19 and tabu list size = 0
Fixed projected solution = [x_1_0_1_OspV=1, x_1_48_1_OspV=1, x_1_112_1_OspV=1, x_1_163_1_OspV=1]
<DWph=2> <it=  1> <et=57.81> <Mt= 0.01> <Spt= 0.00> <nCl=  0> <DB=   65.0000> <Mlp=   65.0000> <PB=1000000> 
<DWph=1> <it=  2> <et=57.81> <Mt= 0.00> <Spt= 0.00> <nCl=  0> <DB=   65.0000> <Mlp=   65.0000> <PB=1000000> 
---- Diving heuristic node with dive number = 0, fix depth = 19 and tabu list size = 0
Fixed projected solution = [x_1_0_1_OspV=1, x_1_12_1_OspV=1, x_1_76_1_OspV=1, x_1_195_1_OspV=1]
<DWph=2> <it=  1> <et=57.83> <Mt= 0.00> <Spt= 0.00> <nCl=  0> <DB=   65.0000> <Mlp=   65.0000> <PB=1000000> 
<DWph=1> <it=  2> <et=57.83> <Mt= 0.00> <Spt= 0.00> <nCl=  0> <DB=   65.0000> <Mlp=   65.0000> <PB=1000000> 
---- Diving heuristic node with dive number = 0, fix depth = 19 and tabu list size = 0
Fixed projected solution = [x_1_0_1_OspV=1, x_1_24_1_OspV=1, x_1_88_1_OspV=1, x_1_186_1_OspV=1]
<DWph=2> <it=  1> <et=57.85> <Mt= 0.00> <Spt= 0.00> <nCl=  0> <DB=   65.0000> <Mlp=   65.0000> <PB=1000000> 
<DWph=1> <it=  2> <et=57.85> <Mt= 0.01> <Spt= 0.00> <nCl=  0> <DB=   65.0000> <Mlp=   65.0000> <PB=1000000> 
---- Diving heuristic node with dive number = 0, fix depth = 19 and tabu list size = 0
Fixed projected solution = [x_1_0_1_OspV=1, x_1_25_1_OspV=1, x_1_87_1_OspV=1, x_1_187_1_OspV=1]
<DWph=2> <it=  1> <et=57.87> <Mt= 0.00> <Spt= 0.00> <nCl=  0> <DB=   65.0000> <Mlp=   65.0000> <PB=1000000> 
<DWph=1> <it=  2> <et=57.87> <Mt= 0.00> <Spt= 0.00> <nCl=  0> <DB=   65.0000> <Mlp=   65.0000> <PB=1000000> 
---- Diving heuristic node with dive number = 0, fix depth = 19 and tabu list size = 0
Fixed projected solution = [x_1_0_1_OspV=1, x_1_63_1_OspV=1, x_1_130_1_OspV=1, x_1_146_1_OspV=1]
<DWph=2> <it=  1> <et=57.89> <Mt= 0.00> <Spt= 0.00> <nCl=  0> <DB=   65.0000> <Mlp=   65.0000> <PB=1000000> 
<DWph=1> <it=  2> <et=57.89> <Mt= 0.00> <Spt= 0.00> <nCl=  0> <DB=   65.0000> <Mlp=   65.0000> <PB=1000000> 
---- Diving heuristic node with dive number = 0, fix depth = 19 and tabu list size = 0
Fixed projected solution = [x_1_0_1_OspV=1, x_1_44_1_OspV=1, x_1_90_1_OspV=1, x_1_179_1_OspV=1]
<DWph=2> <it=  1> <et=57.90> <Mt= 0.01> <Spt= 0.00> <nCl=  0> <DB=   65.0000> <Mlp=   65.0000> <PB=1000000> 
<DWph=1> <it=  2> <et=57.91> <Mt= 0.00> <Spt= 0.00> <nCl=  0> <DB=   65.0000> <Mlp=   65.0000> <PB=1000000> 
---- Diving heuristic node with dive number = 0, fix depth = 19 and tabu list size = 0
Fixed projected solution = [x_1_0_1_OspV=1, x_1_26_1_OspV=1, x_1_89_1_OspV=1, x_1_185_1_OspV=1]
<DWph=2> <it=  1> <et=57.92> <Mt= 0.00> <Spt= 0.00> <nCl=  0> <DB=   65.0000> <Mlp=   65.0000> <PB=1000000> 
<DWph=1> <it=  2> <et=57.92> <Mt= 0.00> <Spt= 0.00> <nCl=  0> <DB=   65.0000> <Mlp=   65.0000> <PB=1000000> 
---- Diving heuristic node with dive number = 0, fix depth = 19 and tabu list size = 0
Fixed projected solution = [x_1_0_1_OspV=1, x_1_40_1_OspV=1, x_1_103_1_OspV=1, x_1_172_1_OspV=1]
<DWph=2> <it=  1> <et=57.94> <Mt= 0.00> <Spt= 0.00> <nCl=  0> <DB=   65.0000> <Mlp=   65.0000> <PB=1000000> 
<DWph=1> <it=  2> <et=57.94> <Mt= 0.00> <Spt= 0.00> <nCl=  0> <DB=   65.0000> <Mlp=   65.0000> <PB=1000000> 
---- Diving heuristic node with dive number = 0, fix depth = 19 and tabu list size = 0
Fixed projected solution = [x_1_0_1_OspV=1, x_1_43_1_OspV=1, x_1_106_1_OspV=1, x_1_169_1_OspV=1]
<DWph=2> <it=  1> <et=57.96> <Mt= 0.01> <Spt= 0.00> <nCl=  0> <DB=   65.0000> <Mlp=   65.0000> <PB=1000000> 
<DWph=1> <it=  2> <et=57.96> <Mt= 0.00> <Spt= 0.00> <nCl=  0> <DB=   65.0000> <Mlp=   65.0000> <PB=1000000> 
---- Diving heuristic node with dive number = 0, fix depth = 19 and tabu list size = 0
Fixed projected solution = [x_1_0_1_OspV=1, x_1_38_1_OspV=1, x_1_101_1_OspV=1, x_1_174_1_OspV=1]
<DWph=2> <it=  1> <et=57.98> <Mt= 0.00> <Spt= 0.00> <nCl=  0> <DB=   65.0000> <Mlp=   65.0000> <PB=1000000> 
<DWph=1> <it=  2> <et=57.98> <Mt= 0.00> <Spt= 0.00> <nCl=  0> <DB=   65.0000> <Mlp=   65.0000> <PB=1000000> 
---- Diving heuristic node with dive number = 0, fix depth = 20 and tabu list size = 0
Fixed projected solution = [x_1_0_1_OspV=1, x_1_39_1_OspV=1, x_1_124_1_OspV=1, x_1_152_1_OspV=1]
<DWph=2> <it= 10> <et=61.21> <Mt= 0.53> <Spt= 2.69> <nCl=1000> <DB=   64.8127> <Mlp=   65.0080> <PB=1000000> 
Global time limit is reached during column generation
SEARCH IS INTERRUPTED as the time limit is reached. 
---- Diving heuristic node with dive number = 1, fix depth = 2 and tabu list size = 1
Fixed projected solution = [x_1_0_1_OspV=1, x_1_19_1_OspV=1, x_1_138_1_OspV=1, x_1_141_1_OspV=1]
---- Diving heuristic node with dive number = 2, fix depth = 2 and tabu list size = 2
Fixed projected solution = [x_1_0_1_OspV=1, x_1_65_1_OspV=1, x_1_134_1_OspV=1, x_1_144_1_OspV=1]
---- Diving heuristic node with dive number = 3, fix depth = 2 and tabu list size = 3
Fixed projected solution = [x_1_0_1_OspV=1, x_1_61_1_OspV=1, x_1_127_1_OspV=1, x_1_149_1_OspV=1]
---- Diving heuristic node with dive number = 4, fix depth = 1 and tabu list size = 1
Fixed projected solution = [x_1_0_1_OspV=1, x_1_3_1_OspV=1, x_1_95_1_OspV=1, x_1_184_1_OspV=1]
---- Diving heuristic node with dive number = 5, fix depth = 1 and tabu list size = 2
Fixed projected solution = [x_1_0_1_OspV=1, x_1_56_1_OspV=1, x_1_120_1_OspV=1, x_1_156_1_OspV=1]
---- Diving heuristic node with dive number = 6, fix depth = 1 and tabu list size = 3
Fixed projected solution = [x_1_0_1_OspV=1, x_1_62_1_OspV=1, x_1_129_1_OspV=1, x_1_147_1_OspV=1]
**** Strong branching phase 1 is started *****
**** Strong branching phase 3 is started *****
************************************************************************************************
Search is finished, global bounds : [ 65 , 1e+06 ], TIME = 0h1m3s20t = 6320
************************************************************************************************
statistics_cols: instance & :Optimal & cutoff & :bcRecRootDb & :bcTimeRootEval & :bcCountNodeProc & :bcRecBestDb & :bcRecBestInc & :bcTimeMain \\
statistics: 201_2500_DI_48 & 0 & 1.0e6 & 65.00 & 50.62 & 1 & 65.00 & -- & 63.20 \\
########################################################
Solution not found
########################################################
