Application parameters:
  batch  =>  nothing
  instance  =>  "/IN/402_10000_DI_15.txt-Q2"
  ub  =>  1.0e6
  cfg  =>  "/CFG/BPP.cfg"
data = Colored Bin Packing dataset.
number of items = 403
number of colors = 2
capacity = 9984
Items : 
	 item 1, weight= 16, color= 0
	 item 2, weight= 32, color= 1
	 item 3, weight= 44, color= 0
	 item 4, weight= 64, color= 0
	 item 5, weight= 76, color= 1
	 item 6, weight= 96, color= 0
	 item 7, weight= 112, color= 0
	 item 8, weight= 116, color= 1
	 item 9, weight= 128, color= 0
	 item 10, weight= 128, color= 0
	 item 11, weight= 128, color= 1
	 item 12, weight= 152, color= 0
	 item 13, weight= 160, color= 1
	 item 14, weight= 168, color= 0
	 item 15, weight= 168, color= 1
	 item 16, weight= 176, color= 0
	 item 17, weight= 176, color= 0
	 item 18, weight= 176, color= 1
	 item 19, weight= 176, color= 1
	 item 20, weight= 176, color= 1
	 item 21, weight= 184, color= 0
	 item 22, weight= 184, color= 1
	 item 23, weight= 192, color= 0
	 item 24, weight= 192, color= 0
	 item 25, weight= 192, color= 1
	 item 26, weight= 200, color= 1
	 item 27, weight= 204, color= 0
	 item 28, weight= 208, color= 0
	 item 29, weight= 208, color= 1
	 item 30, weight= 216, color= 1
	 item 31, weight= 216, color= 1
	 item 32, weight= 220, color= 0
	 item 33, weight= 220, color= 1
	 item 34, weight= 222, color= 0
	 item 35, weight= 222, color= 1
	 item 36, weight= 224, color= 0
	 item 37, weight= 224, color= 0
	 item 38, weight= 232, color= 0
	 item 39, weight= 240, color= 0
	 item 40, weight= 244, color= 1
	 item 41, weight= 246, color= 0
	 item 42, weight= 248, color= 1
	 item 43, weight= 248, color= 1
	 item 44, weight= 256, color= 0
	 item 45, weight= 256, color= 0
	 item 46, weight= 260, color= 0
	 item 47, weight= 260, color= 1
	 item 48, weight= 266, color= 0
	 item 49, weight= 272, color= 0
	 item 50, weight= 272, color= 0
	 item 51, weight= 274, color= 0
	 item 52, weight= 280, color= 0
	 item 53, weight= 282, color= 0
	 item 54, weight= 288, color= 0
	 item 55, weight= 288, color= 0
	 item 56, weight= 288, color= 1
	 item 57, weight= 292, color= 0
	 item 58, weight= 304, color= 0
	 item 59, weight= 304, color= 1
	 item 60, weight= 312, color= 0
	 item 61, weight= 316, color= 0
	 item 62, weight= 316, color= 1
	 item 63, weight= 320, color= 1
	 item 64, weight= 324, color= 1
	 item 65, weight= 328, color= 0
	 item 66, weight= 330, color= 1
	 item 67, weight= 332, color= 0
	 item 68, weight= 334, color= 0
	 item 69, weight= 336, color= 1
	 item 70, weight= 340, color= 0
	 item 71, weight= 344, color= 1
	 item 72, weight= 352, color= 1
	 item 73, weight= 360, color= 1
	 item 74, weight= 368, color= 0
	 item 75, weight= 368, color= 1
	 item 76, weight= 372, color= 0
	 item 77, weight= 376, color= 1
	 item 78, weight= 380, color= 1
	 item 79, weight= 384, color= 1
	 item 80, weight= 412, color= 1
	 item 81, weight= 416, color= 0
	 item 82, weight= 416, color= 1
	 item 83, weight= 424, color= 0
	 item 84, weight= 424, color= 1
	 item 85, weight= 426, color= 1
	 item 86, weight= 430, color= 0
	 item 87, weight= 434, color= 0
	 item 88, weight= 448, color= 0
	 item 89, weight= 456, color= 1
	 item 90, weight= 464, color= 0
	 item 91, weight= 472, color= 0
	 item 92, weight= 472, color= 0
	 item 93, weight= 476, color= 1
	 item 94, weight= 486, color= 0
	 item 95, weight= 488, color= 0
	 item 96, weight= 496, color= 0
	 item 97, weight= 512, color= 1
	 item 98, weight= 532, color= 1
	 item 99, weight= 536, color= 0
	 item 100, weight= 536, color= 0
	 item 101, weight= 540, color= 0
	 item 102, weight= 540, color= 1
	 item 103, weight= 544, color= 0
	 item 104, weight= 556, color= 1
	 item 105, weight= 568, color= 1
	 item 106, weight= 592, color= 1
	 item 107, weight= 600, color= 1
	 item 108, weight= 616, color= 1
	 item 109, weight= 616, color= 1
	 item 110, weight= 620, color= 1
	 item 111, weight= 620, color= 1
	 item 112, weight= 624, color= 0
	 item 113, weight= 624, color= 1
	 item 114, weight= 624, color= 1
	 item 115, weight= 628, color= 1
	 item 116, weight= 630, color= 1
	 item 117, weight= 640, color= 0
	 item 118, weight= 672, color= 1
	 item 119, weight= 688, color= 0
	 item 120, weight= 696, color= 1
	 item 121, weight= 712, color= 0
	 item 122, weight= 716, color= 0
	 item 123, weight= 716, color= 0
	 item 124, weight= 720, color= 0
	 item 125, weight= 752, color= 0
	 item 126, weight= 772, color= 0
	 item 127, weight= 784, color= 1
	 item 128, weight= 784, color= 1
	 item 129, weight= 816, color= 1
	 item 130, weight= 824, color= 0
	 item 131, weight= 824, color= 1
	 item 132, weight= 828, color= 0
	 item 133, weight= 828, color= 0
	 item 134, weight= 828, color= 1
	 item 135, weight= 830, color= 0
	 item 136, weight= 830, color= 0
	 item 137, weight= 830, color= 1
	 item 138, weight= 848, color= 1
	 item 139, weight= 854, color= 0
	 item 140, weight= 888, color= 1
	 item 141, weight= 890, color= 1
	 item 142, weight= 908, color= 1
	 item 143, weight= 920, color= 1
	 item 144, weight= 932, color= 0
	 item 145, weight= 964, color= 0
	 item 146, weight= 980, color= 1
	 item 147, weight= 982, color= 0
	 item 148, weight= 1000, color= 1
	 item 149, weight= 1038, color= 1
	 item 150, weight= 1068, color= 1
	 item 151, weight= 1092, color= 0
	 item 152, weight= 1106, color= 0
	 item 153, weight= 1107, color= 0
	 item 154, weight= 1112, color= 0
	 item 155, weight= 1117, color= 1
	 item 156, weight= 1121, color= 1
	 item 157, weight= 1124, color= 0
	 item 158, weight= 1144, color= 1
	 item 159, weight= 1156, color= 1
	 item 160, weight= 1190, color= 1
	 item 161, weight= 1208, color= 1
	 item 162, weight= 1224, color= 1
	 item 163, weight= 1225, color= 1
	 item 164, weight= 1239, color= 0
	 item 165, weight= 1248, color= 1
	 item 166, weight= 1260, color= 0
	 item 167, weight= 1302, color= 1
	 item 168, weight= 1306, color= 1
	 item 169, weight= 1314, color= 0
	 item 170, weight= 1352, color= 0
	 item 171, weight= 1364, color= 1
	 item 172, weight= 1371, color= 1
	 item 173, weight= 1381, color= 1
	 item 174, weight= 1392, color= 1
	 item 175, weight= 1412, color= 0
	 item 176, weight= 1417, color= 1
	 item 177, weight= 1420, color= 1
	 item 178, weight= 1426, color= 1
	 item 179, weight= 1458, color= 0
	 item 180, weight= 1465, color= 0
	 item 181, weight= 1484, color= 1
	 item 182, weight= 1488, color= 0
	 item 183, weight= 1496, color= 0
	 item 184, weight= 1576, color= 0
	 item 185, weight= 1578, color= 1
	 item 186, weight= 1582, color= 0
	 item 187, weight= 1590, color= 1
	 item 188, weight= 1619, color= 1
	 item 189, weight= 1621, color= 1
	 item 190, weight= 1628, color= 0
	 item 191, weight= 1659, color= 0
	 item 192, weight= 1668, color= 0
	 item 193, weight= 1670, color= 1
	 item 194, weight= 1671, color= 1
	 item 195, weight= 1711, color= 1
	 item 196, weight= 1726, color= 0
	 item 197, weight= 1768, color= 0
	 item 198, weight= 1812, color= 1
	 item 199, weight= 1841, color= 0
	 item 200, weight= 1845, color= 0
	 item 201, weight= 1848, color= 1
	 item 202, weight= 1871, color= 1
	 item 203, weight= 1902, color= 0
	 item 204, weight= 1904, color= 1
	 item 205, weight= 1914, color= 1
	 item 206, weight= 1922, color= 0
	 item 207, weight= 1978, color= 1
	 item 208, weight= 2028, color= 0
	 item 209, weight= 2063, color= 1
	 item 210, weight= 2072, color= 1
	 item 211, weight= 2084, color= 0
	 item 212, weight= 2104, color= 0
	 item 213, weight= 2126, color= 0
	 item 214, weight= 2138, color= 0
	 item 215, weight= 2141, color= 1
	 item 216, weight= 2153, color= 1
	 item 217, weight= 2181, color= 1
	 item 218, weight= 2284, color= 0
	 item 219, weight= 2332, color= 0
	 item 220, weight= 2365, color= 1
	 item 221, weight= 2382, color= 0
	 item 222, weight= 2394, color= 0
	 item 223, weight= 2408, color= 0
	 item 224, weight= 2435, color= 0
	 item 225, weight= 2460, color= 1
	 item 226, weight= 2488, color= 1
	 item 227, weight= 2600, color= 0
	 item 228, weight= 2667, color= 0
	 item 229, weight= 2690, color= 0
	 item 230, weight= 2702, color= 1
	 item 231, weight= 2716, color= 1
	 item 232, weight= 2718, color= 0
	 item 233, weight= 2785, color= 0
	 item 234, weight= 2812, color= 1
	 item 235, weight= 2860, color= 0
	 item 236, weight= 2868, color= 0
	 item 237, weight= 2968, color= 1
	 item 238, weight= 3036, color= 1
	 item 239, weight= 3061, color= 0
	 item 240, weight= 3063, color= 1
	 item 241, weight= 3090, color= 0
	 item 242, weight= 3102, color= 0
	 item 243, weight= 3118, color= 0
	 item 244, weight= 3126, color= 0
	 item 245, weight= 3147, color= 0
	 item 246, weight= 3161, color= 0
	 item 247, weight= 3176, color= 1
	 item 248, weight= 3244, color= 1
	 item 249, weight= 3416, color= 0
	 item 250, weight= 3492, color= 1
	 item 251, weight= 3528, color= 1
	 item 252, weight= 3565, color= 0
	 item 253, weight= 3570, color= 0
	 item 254, weight= 3582, color= 1
	 item 255, weight= 3598, color= 1
	 item 256, weight= 3611, color= 1
	 item 257, weight= 3696, color= 0
	 item 258, weight= 3796, color= 1
	 item 259, weight= 3944, color= 1
	 item 260, weight= 4134, color= 1
	 item 261, weight= 4146, color= 1
	 item 262, weight= 4151, color= 1
	 item 263, weight= 4153, color= 1
	 item 264, weight= 4156, color= 0
	 item 265, weight= 4157, color= 0
	 item 266, weight= 4161, color= 0
	 item 267, weight= 4162, color= 0
	 item 268, weight= 4168, color= 0
	 item 269, weight= 4210, color= 0
	 item 270, weight= 4384, color= 1
	 item 271, weight= 4716, color= 1
	 item 272, weight= 4892, color= 0
	 item 273, weight= 4944, color= 0
	 item 274, weight= 4993, color= 0
	 item 275, weight= 4994, color= 0
	 item 276, weight= 4996, color= 1
	 item 277, weight= 4997, color= 1
	 item 278, weight= 5000, color= 0
	 item 279, weight= 5001, color= 0
	 item 280, weight= 5002, color= 1
	 item 281, weight= 5004, color= 1
	 item 282, weight= 5005, color= 0
	 item 283, weight= 5010, color= 1
	 item 284, weight= 5020, color= 0
	 item 285, weight= 5026, color= 0
	 item 286, weight= 5256, color= 0
	 item 287, weight= 5436, color= 1
	 item 288, weight= 5653, color= 1
	 item 289, weight= 5670, color= 0
	 item 290, weight= 5686, color= 0
	 item 291, weight= 5702, color= 1
	 item 292, weight= 5768, color= 1
	 item 293, weight= 5796, color= 0
	 item 294, weight= 5803, color= 1
	 item 295, weight= 5896, color= 0
	 item 296, weight= 6100, color= 0
	 item 297, weight= 6184, color= 1
	 item 298, weight= 6193, color= 1
	 item 299, weight= 6209, color= 0
	 item 300, weight= 6234, color= 0
	 item 301, weight= 6246, color= 0
	 item 302, weight= 6262, color= 1
	 item 303, weight= 6278, color= 1
	 item 304, weight= 6348, color= 0
	 item 305, weight= 6424, color= 0
	 item 306, weight= 6556, color= 1
	 item 307, weight= 6643, color= 0
	 item 308, weight= 6657, color= 1
	 item 309, weight= 6726, color= 0
	 item 310, weight= 6732, color= 0
	 item 311, weight= 6742, color= 1
	 item 312, weight= 6753, color= 1
	 item 313, weight= 6758, color= 1
	 item 314, weight= 6785, color= 1
	 item 315, weight= 6872, color= 0
	 item 316, weight= 6940, color= 0
	 item 317, weight= 6972, color= 0
	 item 318, weight= 7000, color= 0
	 item 319, weight= 7036, color= 1
	 item 320, weight= 7063, color= 1
	 item 321, weight= 7112, color= 1
	 item 322, weight= 7114, color= 0
	 item 323, weight= 7130, color= 1
	 item 324, weight= 7147, color= 1
	 item 325, weight= 7244, color= 0
	 item 326, weight= 7369, color= 0
	 item 327, weight= 7401, color= 0
	 item 328, weight= 7417, color= 0
	 item 329, weight= 7420, color= 1
	 item 330, weight= 7422, color= 1
	 item 331, weight= 7434, color= 1
	 item 332, weight= 7464, color= 0
	 item 333, weight= 7484, color= 1
	 item 334, weight= 7509, color= 0
	 item 335, weight= 7608, color= 0
	 item 336, weight= 7620, color= 0
	 item 337, weight= 7678, color= 1
	 item 338, weight= 7690, color= 0
	 item 339, weight= 7706, color= 0
	 item 340, weight= 7741, color= 1
	 item 341, weight= 7768, color= 0
	 item 342, weight= 7775, color= 0
	 item 343, weight= 7812, color= 0
	 item 344, weight= 7864, color= 1
	 item 345, weight= 7914, color= 1
	 item 346, weight= 7933, color= 1
	 item 347, weight= 7979, color= 1
	 item 348, weight= 7982, color= 1
	 item 349, weight= 7988, color= 1
	 item 350, weight= 7990, color= 0
	 item 351, weight= 7995, color= 0
	 item 352, weight= 8000, color= 0
	 item 353, weight= 8023, color= 0
	 item 354, weight= 8036, color= 1
	 item 355, weight= 8039, color= 0
	 item 356, weight= 8078, color= 0
	 item 357, weight= 8086, color= 0
	 item 358, weight= 8094, color= 0
	 item 359, weight= 8104, color= 1
	 item 360, weight= 8200, color= 1
	 item 361, weight= 8212, color= 1
	 item 362, weight= 8227, color= 1
	 item 363, weight= 8238, color= 0
	 item 364, weight= 8284, color= 1
	 item 365, weight= 8285, color= 0
	 item 366, weight= 8289, color= 0
	 item 367, weight= 8329, color= 1
	 item 368, weight= 8341, color= 1
	 item 369, weight= 8348, color= 1
	 item 370, weight= 8376, color= 1
	 item 371, weight= 8410, color= 0
	 item 372, weight= 8418, color= 1
	 item 373, weight= 8426, color= 1
	 item 374, weight= 8476, color= 1
	 item 375, weight= 8499, color= 1
	 item 376, weight= 8514, color= 0
	 item 377, weight= 8515, color= 0
	 item 378, weight= 8520, color= 1
	 item 379, weight= 8540, color= 0
	 item 380, weight= 8552, color= 0
	 item 381, weight= 8604, color= 1
	 item 382, weight= 8641, color= 1
	 item 383, weight= 8642, color= 1
	 item 384, weight= 8644, color= 0
	 item 385, weight= 8645, color= 0
	 item 386, weight= 8657, color= 0
	 item 387, weight= 8658, color= 1
	 item 388, weight= 8664, color= 1
	 item 389, weight= 8676, color= 0
	 item 390, weight= 8708, color= 0
	 item 391, weight= 8728, color= 0
	 item 392, weight= 8742, color= 0
	 item 393, weight= 8792, color= 1
	 item 394, weight= 8810, color= 0
	 item 395, weight= 8812, color= 1
	 item 396, weight= 8836, color= 1
	 item 397, weight= 8868, color= 0
	 item 398, weight= 8888, color= 1
	 item 399, weight= 8900, color= 1
	 item 400, weight= 8918, color= 0
	 item 401, weight= 8962, color= 0
	 item 402, weight= 8968, color= 0
	 item 403, weight= 8976, color= 1

VRPSolver warning: Interval set for resource 1 on source node (when source != sink) is ignored (by definition is [0.0,0.0])
VRPSolver warning: Interval set for resource 2 on source node (when source != sink) is ignored (by definition is [0.0,0.0])
VRPSolver warning: Interval set for resource 3 on source node (when source != sink) is ignored (by definition is [0.0,0.0])
[41m solve [00m
~~~~~~~~~~~~~~~~~~~~~~~~~~~~~~~~~~~~~~~~~~~~~~~~~~~~~~~~~~~~~~~~~~~~~~~~~~~~~~
VRPSolver v0.4.1, 24/03/2021. Web: vrpsolver.math.u-bordeaux.fr
Corresponds to the solver by Pessoa, Sadykov, Uchoa and Vanderbeck (2020)
Paper: dx.doi.org/10.1007/s10107-020-01523-z
USE THIS CODE ONLY FOR ACADEMIC PURPOSES AT YOUR OWN RISK
~~~~~~~~~~~~~~~~~~~~~~~~~~~~~~~~~~~~~~~~~~~~~~~~~~~~~~~~~~~~~~~~~~~~~~~~~~~~~~
BaPCod v053, 24/03/2021, © Inria Bordeaux, France
~~~~~~~~~~~~~~~~~~~~~~~~~~~~~~~~~~~~~~~~~~~~~~~~~~~~~~~~~~~~~~~~~~~~~~~~~~~~~~
VRPSolver parameters:
GlobalTimeLimit = 60
MaxNbOfBBtreeNodeTreated = 100000
treeSearchStrategy = 1
RCSPstopCutGenTimeThresholdInPricing = 10
RCSPhardTimeThresholdInPricing = 20
RCSPnumberOfBucketsPerVertex = 2000
RCSPdynamicBucketSteps = 0
RCSPuseBidirectionalSearch = 1
RCSPapplyReducedCostFixing = 1
RCSPredCostFixingFalseGap = 0
RCSPmaxNumOfColsPerIteration = 100
RCSPmaxNumOfColsPerExactIteration = 100
RCSPheurLabelingStrategy = 4
StabilizationMinPhaseOfStage = 1
RCSPmaxNumOfLabelsInEnumeration = 100000
RCSPmaxNumOfEnumeratedSolutions = 1000000
RCSPmaxNumOfEnumSolutionsForMIP = 100000
RCSPinitNGneighbourhoodSize = 0
RCSPmaxNGneighbourhoodSize = 0
RCSPrankOneCutsMaxNumPerRound = 100
RCSPrankOneCutsMaxNumRows = -1
RCSPrankOneCutsMemoryType = 2
CutTailingOffThreshold = 0.02
CutTailingOffCounterThreshold = 3
SafeDualBoundScaleFactor = -1
StrongBranchingPhaseOneCandidatesNumber = 100
StrongBranchingPhaseOneTreeSizeEstimRatio = 0.3
StrongBranchingPhaseTwoCandidatesNumber = 1
StrongBranchingPhaseTwoTreeSizeEstimRatio = 0.1
MaxTimeForRestrictedMasterIpHeur = -1
DivingHeurUseDepthLimit = 0
MaxLDSbreadth = 3
MaxLDSdepth = 2
New model incumbent solution 1e+06, TIME = 0h0m0s3t = 3
Model is built TIME = 0h0m3s6t = 306
************************************************************************************************
**** BaB tree root node
**** Local DB = -1e+12, global bounds : [ -1e+12 , 1e+06 ], TIME = 0h0m3s6t = 306
**** 1 open nodes, 0 columns (0 active), 0 dyn. constrs. (0 active), 808 art. vars. (808 active)
************************************************************************************************
<DWph=2> <it= 10> <et=8.16> <Mt= 0.06> <Spt= 5.02> <nCl=1000> <DB=-8472741685.4823> <Mlp=356462150.1485> <PB=1000000> 
<DWph=2> <it= 20> <et=12.87> <Mt= 0.35> <Spt= 4.37> <nCl=1000> <DB=-4472056137.8611> <Mlp=308176948.9365> <PB=1000000> 
<DWph=2> <it= 30> <et=18.06> <Mt= 0.76> <Spt= 4.42> <nCl=1000> <DB=-3155339841.7075> <Mlp=272083862.3325> <PB=1000000> 
<DWph=2> <it= 40> <et=24.21> <Mt= 1.27> <Spt= 4.88> <nCl=1000> <DB=-2109417239.9962> <Mlp=231946515.6314> <PB=1000000> 
<DWph=2> <it= 50> <et=31.41> <Mt= 1.83> <Spt= 5.36> <nCl=1000> <DB=-1427423463.4401> <Mlp=198895025.6126> <PB=1000000> 
<DWph=2> <it= 60> <et=38.85> <Mt= 1.76> <Spt= 5.68> <nCl=1000> <DB=-961170840.3242> <Mlp=172876797.0493> <PB=1000000> 
<DWph=2> <it= 70> <et=47.15> <Mt= 2.37> <Spt= 5.93> <nCl=960> <DB=-533338098.3059> <Mlp=139496302.9177> <PB=1000000> 
<DWph=2> <it= 80> <et=55.08> <Mt= 1.61> <Spt= 6.32> <nCl=1000> <DB=-449839378.0239> <Mlp=129239076.4078> <PB=1000000> 
<DWph=2> <it= 90> <et=64.17> <Mt= 2.01> <Spt= 7.07> <nCl=1000> <DB=-405826431.8414> <Mlp=109792850.2766> <PB=1000000> 
Global time limit is reached during column generation
ColGenEvalAlg final dual bound: -1e+12 (rounded: -1e+12)
SEARCH IS INTERRUPTED as the time limit is reached. 
************************************************************************************************
Search is finished, global bounds : [ -1e+12 , 1e+06 ], TIME = 0h1m4s36t = 6436
************************************************************************************************
statistics_cols: instance & :Optimal & cutoff & :bcRecRootDb & :bcTimeRootEval & :bcCountNodeProc & :bcRecBestDb & :bcRecBestInc & :bcTimeMain \\
statistics: 402_10000_DI_15 & 0 & 1.0e6 & -999999999901.00 & 64.32 & 1 & 0.00 & -- & 64.36 \\
########################################################
Solution not found
########################################################
