Application parameters:
  batch  =>  nothing
  instance  =>  "/IN/600_20000_DI_13.txt-Q2"
  ub  =>  1.0e6
  cfg  =>  "/CFG/BPP.cfg"
data = Colored Bin Packing dataset.
number of items = 601
number of colors = 2
capacity = 16128
Items : 
	 item 1, weight= 32, color= 0
	 item 2, weight= 32, color= 1
	 item 3, weight= 52, color= 0
	 item 4, weight= 72, color= 0
	 item 5, weight= 128, color= 0
	 item 6, weight= 128, color= 0
	 item 7, weight= 128, color= 0
	 item 8, weight= 148, color= 1
	 item 9, weight= 148, color= 1
	 item 10, weight= 150, color= 0
	 item 11, weight= 156, color= 1
	 item 12, weight= 206, color= 0
	 item 13, weight= 208, color= 1
	 item 14, weight= 244, color= 0
	 item 15, weight= 256, color= 1
	 item 16, weight= 272, color= 0
	 item 17, weight= 272, color= 1
	 item 18, weight= 272, color= 1
	 item 19, weight= 272, color= 1
	 item 20, weight= 280, color= 0
	 item 21, weight= 280, color= 1
	 item 22, weight= 284, color= 0
	 item 23, weight= 288, color= 0
	 item 24, weight= 288, color= 0
	 item 25, weight= 288, color= 0
	 item 26, weight= 288, color= 0
	 item 27, weight= 288, color= 0
	 item 28, weight= 292, color= 1
	 item 29, weight= 296, color= 0
	 item 30, weight= 304, color= 0
	 item 31, weight= 304, color= 0
	 item 32, weight= 304, color= 1
	 item 33, weight= 304, color= 1
	 item 34, weight= 308, color= 1
	 item 35, weight= 320, color= 1
	 item 36, weight= 320, color= 1
	 item 37, weight= 320, color= 1
	 item 38, weight= 320, color= 1
	 item 39, weight= 320, color= 1
	 item 40, weight= 326, color= 1
	 item 41, weight= 328, color= 0
	 item 42, weight= 336, color= 0
	 item 43, weight= 336, color= 0
	 item 44, weight= 338, color= 0
	 item 45, weight= 344, color= 1
	 item 46, weight= 346, color= 0
	 item 47, weight= 352, color= 0
	 item 48, weight= 352, color= 0
	 item 49, weight= 352, color= 0
	 item 50, weight= 352, color= 1
	 item 51, weight= 352, color= 1
	 item 52, weight= 352, color= 1
	 item 53, weight= 352, color= 1
	 item 54, weight= 356, color= 1
	 item 55, weight= 360, color= 1
	 item 56, weight= 368, color= 0
	 item 57, weight= 368, color= 1
	 item 58, weight= 368, color= 1
	 item 59, weight= 368, color= 1
	 item 60, weight= 374, color= 0
	 item 61, weight= 376, color= 1
	 item 62, weight= 384, color= 0
	 item 63, weight= 384, color= 1
	 item 64, weight= 384, color= 1
	 item 65, weight= 388, color= 1
	 item 66, weight= 392, color= 0
	 item 67, weight= 400, color= 1
	 item 68, weight= 400, color= 1
	 item 69, weight= 404, color= 1
	 item 70, weight= 408, color= 0
	 item 71, weight= 410, color= 0
	 item 72, weight= 410, color= 1
	 item 73, weight= 416, color= 0
	 item 74, weight= 416, color= 1
	 item 75, weight= 420, color= 0
	 item 76, weight= 422, color= 0
	 item 77, weight= 424, color= 0
	 item 78, weight= 428, color= 0
	 item 79, weight= 440, color= 1
	 item 80, weight= 444, color= 0
	 item 81, weight= 446, color= 0
	 item 82, weight= 448, color= 0
	 item 83, weight= 448, color= 1
	 item 84, weight= 448, color= 1
	 item 85, weight= 464, color= 0
	 item 86, weight= 464, color= 0
	 item 87, weight= 464, color= 1
	 item 88, weight= 468, color= 1
	 item 89, weight= 472, color= 0
	 item 90, weight= 472, color= 1
	 item 91, weight= 478, color= 0
	 item 92, weight= 480, color= 0
	 item 93, weight= 480, color= 0
	 item 94, weight= 484, color= 0
	 item 95, weight= 492, color= 0
	 item 96, weight= 512, color= 0
	 item 97, weight= 512, color= 0
	 item 98, weight= 512, color= 1
	 item 99, weight= 512, color= 1
	 item 100, weight= 512, color= 1
	 item 101, weight= 520, color= 0
	 item 102, weight= 520, color= 0
	 item 103, weight= 520, color= 1
	 item 104, weight= 520, color= 1
	 item 105, weight= 524, color= 0
	 item 106, weight= 524, color= 1
	 item 107, weight= 528, color= 0
	 item 108, weight= 544, color= 0
	 item 109, weight= 552, color= 0
	 item 110, weight= 556, color= 0
	 item 111, weight= 556, color= 0
	 item 112, weight= 562, color= 1
	 item 113, weight= 576, color= 0
	 item 114, weight= 576, color= 0
	 item 115, weight= 576, color= 1
	 item 116, weight= 576, color= 1
	 item 117, weight= 592, color= 0
	 item 118, weight= 608, color= 0
	 item 119, weight= 608, color= 0
	 item 120, weight= 608, color= 0
	 item 121, weight= 608, color= 1
	 item 122, weight= 608, color= 1
	 item 123, weight= 612, color= 0
	 item 124, weight= 612, color= 0
	 item 125, weight= 624, color= 0
	 item 126, weight= 640, color= 1
	 item 127, weight= 640, color= 1
	 item 128, weight= 656, color= 1
	 item 129, weight= 664, color= 1
	 item 130, weight= 666, color= 1
	 item 131, weight= 672, color= 0
	 item 132, weight= 672, color= 1
	 item 133, weight= 672, color= 1
	 item 134, weight= 674, color= 1
	 item 135, weight= 680, color= 0
	 item 136, weight= 688, color= 1
	 item 137, weight= 704, color= 0
	 item 138, weight= 704, color= 0
	 item 139, weight= 720, color= 0
	 item 140, weight= 728, color= 0
	 item 141, weight= 728, color= 1
	 item 142, weight= 744, color= 0
	 item 143, weight= 744, color= 1
	 item 144, weight= 748, color= 0
	 item 145, weight= 754, color= 1
	 item 146, weight= 764, color= 0
	 item 147, weight= 800, color= 0
	 item 148, weight= 800, color= 1
	 item 149, weight= 816, color= 0
	 item 150, weight= 816, color= 0
	 item 151, weight= 816, color= 0
	 item 152, weight= 824, color= 1
	 item 153, weight= 832, color= 0
	 item 154, weight= 832, color= 1
	 item 155, weight= 836, color= 1
	 item 156, weight= 840, color= 0
	 item 157, weight= 842, color= 0
	 item 158, weight= 844, color= 1
	 item 159, weight= 848, color= 0
	 item 160, weight= 860, color= 1
	 item 161, weight= 880, color= 1
	 item 162, weight= 896, color= 1
	 item 163, weight= 928, color= 1
	 item 164, weight= 944, color= 1
	 item 165, weight= 948, color= 0
	 item 166, weight= 952, color= 0
	 item 167, weight= 952, color= 0
	 item 168, weight= 992, color= 0
	 item 169, weight= 1024, color= 1
	 item 170, weight= 1028, color= 1
	 item 171, weight= 1056, color= 1
	 item 172, weight= 1072, color= 1
	 item 173, weight= 1076, color= 0
	 item 174, weight= 1080, color= 1
	 item 175, weight= 1084, color= 0
	 item 176, weight= 1088, color= 1
	 item 177, weight= 1096, color= 0
	 item 178, weight= 1096, color= 1
	 item 179, weight= 1136, color= 0
	 item 180, weight= 1136, color= 1
	 item 181, weight= 1148, color= 0
	 item 182, weight= 1152, color= 0
	 item 183, weight= 1156, color= 1
	 item 184, weight= 1156, color= 1
	 item 185, weight= 1156, color= 1
	 item 186, weight= 1168, color= 0
	 item 187, weight= 1172, color= 0
	 item 188, weight= 1228, color= 1
	 item 189, weight= 1264, color= 0
	 item 190, weight= 1272, color= 0
	 item 191, weight= 1272, color= 1
	 item 192, weight= 1312, color= 0
	 item 193, weight= 1312, color= 1
	 item 194, weight= 1328, color= 0
	 item 195, weight= 1328, color= 1
	 item 196, weight= 1328, color= 1
	 item 197, weight= 1336, color= 0
	 item 198, weight= 1336, color= 1
	 item 199, weight= 1340, color= 1
	 item 200, weight= 1340, color= 1
	 item 201, weight= 1340, color= 1
	 item 202, weight= 1342, color= 0
	 item 203, weight= 1372, color= 1
	 item 204, weight= 1374, color= 1
	 item 205, weight= 1418, color= 1
	 item 206, weight= 1428, color= 0
	 item 207, weight= 1430, color= 1
	 item 208, weight= 1432, color= 0
	 item 209, weight= 1480, color= 0
	 item 210, weight= 1482, color= 1
	 item 211, weight= 1482, color= 1
	 item 212, weight= 1484, color= 0
	 item 213, weight= 1512, color= 1
	 item 214, weight= 1524, color= 0
	 item 215, weight= 1528, color= 0
	 item 216, weight= 1532, color= 0
	 item 217, weight= 1542, color= 0
	 item 218, weight= 1584, color= 0
	 item 219, weight= 1592, color= 1
	 item 220, weight= 1602, color= 0
	 item 221, weight= 1612, color= 0
	 item 222, weight= 1616, color= 0
	 item 223, weight= 1637, color= 0
	 item 224, weight= 1648, color= 0
	 item 225, weight= 1684, color= 1
	 item 226, weight= 1688, color= 1
	 item 227, weight= 1690, color= 0
	 item 228, weight= 1695, color= 1
	 item 229, weight= 1731, color= 1
	 item 230, weight= 1738, color= 0
	 item 231, weight= 1760, color= 0
	 item 232, weight= 1765, color= 0
	 item 233, weight= 1767, color= 1
	 item 234, weight= 1782, color= 1
	 item 235, weight= 1788, color= 0
	 item 236, weight= 1792, color= 0
	 item 237, weight= 1792, color= 1
	 item 238, weight= 1800, color= 0
	 item 239, weight= 1838, color= 0
	 item 240, weight= 1842, color= 0
	 item 241, weight= 1844, color= 1
	 item 242, weight= 1848, color= 0
	 item 243, weight= 1851, color= 0
	 item 244, weight= 1863, color= 1
	 item 245, weight= 1881, color= 0
	 item 246, weight= 1892, color= 0
	 item 247, weight= 1912, color= 0
	 item 248, weight= 1920, color= 1
	 item 249, weight= 1936, color= 0
	 item 250, weight= 1942, color= 1
	 item 251, weight= 1945, color= 1
	 item 252, weight= 1978, color= 1
	 item 253, weight= 2020, color= 1
	 item 254, weight= 2021, color= 0
	 item 255, weight= 2032, color= 1
	 item 256, weight= 2051, color= 1
	 item 257, weight= 2056, color= 0
	 item 258, weight= 2058, color= 1
	 item 259, weight= 2059, color= 0
	 item 260, weight= 2102, color= 0
	 item 261, weight= 2106, color= 0
	 item 262, weight= 2111, color= 1
	 item 263, weight= 2124, color= 1
	 item 264, weight= 2128, color= 1
	 item 265, weight= 2154, color= 1
	 item 266, weight= 2218, color= 0
	 item 267, weight= 2221, color= 1
	 item 268, weight= 2231, color= 1
	 item 269, weight= 2248, color= 0
	 item 270, weight= 2256, color= 0
	 item 271, weight= 2296, color= 1
	 item 272, weight= 2327, color= 0
	 item 273, weight= 2344, color= 1
	 item 274, weight= 2358, color= 0
	 item 275, weight= 2364, color= 0
	 item 276, weight= 2365, color= 1
	 item 277, weight= 2372, color= 0
	 item 278, weight= 2380, color= 0
	 item 279, weight= 2391, color= 1
	 item 280, weight= 2408, color= 0
	 item 281, weight= 2427, color= 1
	 item 282, weight= 2440, color= 1
	 item 283, weight= 2448, color= 1
	 item 284, weight= 2462, color= 1
	 item 285, weight= 2496, color= 0
	 item 286, weight= 2540, color= 1
	 item 287, weight= 2569, color= 0
	 item 288, weight= 2596, color= 0
	 item 289, weight= 2604, color= 0
	 item 290, weight= 2611, color= 1
	 item 291, weight= 2620, color= 1
	 item 292, weight= 2642, color= 0
	 item 293, weight= 2648, color= 0
	 item 294, weight= 2670, color= 1
	 item 295, weight= 2671, color= 1
	 item 296, weight= 2672, color= 0
	 item 297, weight= 2696, color= 1
	 item 298, weight= 2725, color= 0
	 item 299, weight= 2781, color= 1
	 item 300, weight= 2802, color= 1
	 item 301, weight= 2819, color= 0
	 item 302, weight= 2860, color= 1
	 item 303, weight= 2891, color= 1
	 item 304, weight= 2896, color= 0
	 item 305, weight= 2900, color= 0
	 item 306, weight= 2908, color= 0
	 item 307, weight= 2952, color= 1
	 item 308, weight= 3000, color= 0
	 item 309, weight= 3062, color= 1
	 item 310, weight= 3069, color= 0
	 item 311, weight= 3074, color= 1
	 item 312, weight= 3128, color= 0
	 item 313, weight= 3152, color= 1
	 item 314, weight= 3155, color= 1
	 item 315, weight= 3236, color= 0
	 item 316, weight= 3244, color= 1
	 item 317, weight= 3328, color= 0
	 item 318, weight= 3334, color= 1
	 item 319, weight= 3368, color= 1
	 item 320, weight= 3369, color= 1
	 item 321, weight= 3370, color= 0
	 item 322, weight= 3374, color= 0
	 item 323, weight= 3379, color= 0
	 item 324, weight= 3411, color= 1
	 item 325, weight= 3504, color= 1
	 item 326, weight= 3512, color= 1
	 item 327, weight= 3560, color= 1
	 item 328, weight= 3600, color= 1
	 item 329, weight= 3636, color= 1
	 item 330, weight= 3644, color= 1
	 item 331, weight= 3660, color= 1
	 item 332, weight= 3730, color= 0
	 item 333, weight= 3734, color= 0
	 item 334, weight= 3741, color= 1
	 item 335, weight= 3744, color= 0
	 item 336, weight= 3779, color= 0
	 item 337, weight= 3855, color= 0
	 item 338, weight= 3928, color= 1
	 item 339, weight= 4016, color= 1
	 item 340, weight= 4040, color= 1
	 item 341, weight= 4088, color= 1
	 item 342, weight= 4092, color= 1
	 item 343, weight= 4148, color= 0
	 item 344, weight= 4162, color= 1
	 item 345, weight= 4182, color= 0
	 item 346, weight= 4211, color= 0
	 item 347, weight= 4221, color= 0
	 item 348, weight= 4238, color= 0
	 item 349, weight= 4246, color= 1
	 item 350, weight= 4248, color= 1
	 item 351, weight= 4302, color= 1
	 item 352, weight= 4389, color= 0
	 item 353, weight= 4436, color= 0
	 item 354, weight= 4528, color= 0
	 item 355, weight= 4680, color= 0
	 item 356, weight= 4732, color= 0
	 item 357, weight= 4751, color= 1
	 item 358, weight= 4770, color= 1
	 item 359, weight= 4782, color= 1
	 item 360, weight= 4808, color= 0
	 item 361, weight= 4824, color= 0
	 item 362, weight= 4937, color= 0
	 item 363, weight= 5076, color= 1
	 item 364, weight= 5136, color= 1
	 item 365, weight= 5145, color= 1
	 item 366, weight= 5172, color= 1
	 item 367, weight= 5368, color= 1
	 item 368, weight= 5384, color= 0
	 item 369, weight= 5387, color= 1
	 item 370, weight= 5410, color= 0
	 item 371, weight= 5422, color= 1
	 item 372, weight= 5440, color= 1
	 item 373, weight= 5460, color= 1
	 item 374, weight= 5500, color= 1
	 item 375, weight= 5516, color= 1
	 item 376, weight= 5736, color= 0
	 item 377, weight= 5742, color= 1
	 item 378, weight= 5768, color= 0
	 item 379, weight= 5782, color= 0
	 item 380, weight= 5790, color= 1
	 item 381, weight= 5798, color= 0
	 item 382, weight= 5846, color= 1
	 item 383, weight= 5861, color= 0
	 item 384, weight= 5872, color= 0
	 item 385, weight= 6151, color= 1
	 item 386, weight= 6194, color= 0
	 item 387, weight= 6200, color= 1
	 item 388, weight= 6364, color= 0
	 item 389, weight= 6372, color= 1
	 item 390, weight= 6388, color= 0
	 item 391, weight= 6496, color= 1
	 item 392, weight= 6648, color= 1
	 item 393, weight= 6664, color= 0
	 item 394, weight= 6696, color= 1
	 item 395, weight= 6702, color= 1
	 item 396, weight= 6706, color= 0
	 item 397, weight= 6714, color= 0
	 item 398, weight= 6721, color= 1
	 item 399, weight= 6722, color= 0
	 item 400, weight= 6724, color= 1
	 item 401, weight= 6728, color= 1
	 item 402, weight= 6736, color= 0
	 item 403, weight= 7067, color= 1
	 item 404, weight= 7420, color= 1
	 item 405, weight= 8065, color= 1
	 item 406, weight= 8066, color= 0
	 item 407, weight= 8068, color= 1
	 item 408, weight= 8069, color= 1
	 item 409, weight= 8072, color= 0
	 item 410, weight= 8074, color= 1
	 item 411, weight= 8080, color= 1
	 item 412, weight= 8082, color= 0
	 item 413, weight= 8084, color= 0
	 item 414, weight= 8090, color= 0
	 item 415, weight= 8104, color= 0
	 item 416, weight= 8136, color= 1
	 item 417, weight= 8168, color= 1
	 item 418, weight= 8468, color= 1
	 item 419, weight= 8484, color= 0
	 item 420, weight= 8500, color= 1
	 item 421, weight= 8749, color= 0
	 item 422, weight= 9095, color= 1
	 item 423, weight= 9104, color= 1
	 item 424, weight= 9114, color= 1
	 item 425, weight= 9174, color= 0
	 item 426, weight= 9182, color= 0
	 item 427, weight= 9190, color= 0
	 item 428, weight= 9224, color= 1
	 item 429, weight= 9238, color= 1
	 item 430, weight= 9246, color= 0
	 item 431, weight= 9256, color= 1
	 item 432, weight= 9320, color= 0
	 item 433, weight= 9516, color= 0
	 item 434, weight= 9532, color= 1
	 item 435, weight= 9580, color= 0
	 item 436, weight= 9622, color= 1
	 item 437, weight= 9638, color= 0
	 item 438, weight= 9665, color= 1
	 item 439, weight= 9672, color= 1
	 item 440, weight= 9704, color= 0
	 item 441, weight= 9955, color= 0
	 item 442, weight= 9968, color= 1
	 item 443, weight= 10144, color= 1
	 item 444, weight= 10388, color= 0
	 item 445, weight= 10394, color= 1
	 item 446, weight= 10404, color= 0
	 item 447, weight= 10406, color= 0
	 item 448, weight= 10429, color= 0
	 item 449, weight= 10452, color= 0
	 item 450, weight= 10488, color= 1
	 item 451, weight= 10520, color= 1
	 item 452, weight= 10671, color= 0
	 item 453, weight= 10704, color= 0
	 item 454, weight= 10812, color= 0
	 item 455, weight= 10879, color= 1
	 item 456, weight= 11034, color= 1
	 item 457, weight= 11046, color= 0
	 item 458, weight= 11048, color= 0
	 item 459, weight= 11062, color= 0
	 item 460, weight= 11065, color= 1
	 item 461, weight= 11077, color= 1
	 item 462, weight= 11110, color= 0
	 item 463, weight= 11134, color= 0
	 item 464, weight= 11136, color= 1
	 item 465, weight= 11156, color= 0
	 item 466, weight= 11192, color= 1
	 item 467, weight= 11220, color= 1
	 item 468, weight= 11224, color= 0
	 item 469, weight= 11288, color= 1
	 item 470, weight= 11312, color= 0
	 item 471, weight= 11595, color= 1
	 item 472, weight= 11607, color= 1
	 item 473, weight= 11639, color= 1
	 item 474, weight= 11650, color= 1
	 item 475, weight= 11654, color= 0
	 item 476, weight= 11740, color= 0
	 item 477, weight= 11756, color= 0
	 item 478, weight= 11772, color= 1
	 item 479, weight= 11824, color= 1
	 item 480, weight= 11864, color= 0
	 item 481, weight= 11944, color= 0
	 item 482, weight= 12037, color= 0
	 item 483, weight= 12075, color= 0
	 item 484, weight= 12082, color= 1
	 item 485, weight= 12086, color= 1
	 item 486, weight= 12087, color= 0
	 item 487, weight= 12104, color= 0
	 item 488, weight= 12168, color= 1
	 item 489, weight= 12240, color= 0
	 item 490, weight= 12244, color= 0
	 item 491, weight= 12252, color= 0
	 item 492, weight= 12368, color= 0
	 item 493, weight= 12392, color= 1
	 item 494, weight= 12442, color= 1
	 item 495, weight= 12447, color= 1
	 item 496, weight= 12449, color= 1
	 item 497, weight= 12458, color= 1
	 item 498, weight= 12536, color= 1
	 item 499, weight= 12600, color= 1
	 item 500, weight= 12644, color= 0
	 item 501, weight= 12652, color= 0
	 item 502, weight= 12661, color= 1
	 item 503, weight= 12688, color= 1
	 item 504, weight= 12742, color= 1
	 item 505, weight= 12747, color= 0
	 item 506, weight= 12770, color= 1
	 item 507, weight= 12791, color= 0
	 item 508, weight= 12904, color= 1
	 item 509, weight= 12944, color= 0
	 item 510, weight= 12962, color= 0
	 item 511, weight= 12968, color= 1
	 item 512, weight= 12980, color= 1
	 item 513, weight= 12988, color= 1
	 item 514, weight= 12997, color= 0
	 item 515, weight= 13004, color= 1
	 item 516, weight= 13020, color= 1
	 item 517, weight= 13035, color= 0
	 item 518, weight= 13047, color= 0
	 item 519, weight= 13122, color= 1
	 item 520, weight= 13174, color= 1
	 item 521, weight= 13200, color= 0
	 item 522, weight= 13208, color= 1
	 item 523, weight= 13217, color= 0
	 item 524, weight= 13247, color= 1
	 item 525, weight= 13256, color= 0
	 item 526, weight= 13259, color= 0
	 item 527, weight= 13284, color= 1
	 item 528, weight= 13291, color= 0
	 item 529, weight= 13300, color= 1
	 item 530, weight= 13302, color= 0
	 item 531, weight= 13320, color= 0
	 item 532, weight= 13384, color= 0
	 item 533, weight= 13424, color= 0
	 item 534, weight= 13451, color= 0
	 item 535, weight= 13463, color= 1
	 item 536, weight= 13470, color= 0
	 item 537, weight= 13516, color= 1
	 item 538, weight= 13540, color= 0
	 item 539, weight= 13546, color= 0
	 item 540, weight= 13580, color= 0
	 item 541, weight= 13584, color= 1
	 item 542, weight= 13595, color= 1
	 item 543, weight= 13597, color= 0
	 item 544, weight= 13608, color= 1
	 item 545, weight= 13610, color= 0
	 item 546, weight= 13659, color= 1
	 item 547, weight= 13662, color= 1
	 item 548, weight= 13667, color= 0
	 item 549, weight= 13672, color= 0
	 item 550, weight= 13703, color= 0
	 item 551, weight= 13708, color= 1
	 item 552, weight= 13712, color= 1
	 item 553, weight= 13758, color= 0
	 item 554, weight= 13795, color= 0
	 item 555, weight= 13802, color= 0
	 item 556, weight= 13840, color= 1
	 item 557, weight= 13848, color= 1
	 item 558, weight= 13860, color= 1
	 item 559, weight= 13873, color= 1
	 item 560, weight= 13874, color= 1
	 item 561, weight= 13888, color= 0
	 item 562, weight= 13909, color= 0
	 item 563, weight= 13912, color= 0
	 item 564, weight= 13918, color= 1
	 item 565, weight= 13924, color= 0
	 item 566, weight= 13976, color= 0
	 item 567, weight= 13988, color= 1
	 item 568, weight= 13990, color= 1
	 item 569, weight= 14009, color= 1
	 item 570, weight= 14011, color= 1
	 item 571, weight= 14046, color= 0
	 item 572, weight= 14048, color= 0
	 item 573, weight= 14051, color= 0
	 item 574, weight= 14095, color= 0
	 item 575, weight= 14104, color= 0
	 item 576, weight= 14115, color= 1
	 item 577, weight= 14116, color= 0
	 item 578, weight= 14142, color= 0
	 item 579, weight= 14160, color= 0
	 item 580, weight= 14165, color= 0
	 item 581, weight= 14194, color= 1
	 item 582, weight= 14196, color= 0
	 item 583, weight= 14206, color= 0
	 item 584, weight= 14224, color= 0
	 item 585, weight= 14232, color= 1
	 item 586, weight= 14256, color= 0
	 item 587, weight= 14278, color= 1
	 item 588, weight= 14292, color= 0
	 item 589, weight= 14296, color= 0
	 item 590, weight= 14300, color= 1
	 item 591, weight= 14350, color= 1
	 item 592, weight= 14354, color= 0
	 item 593, weight= 14356, color= 0
	 item 594, weight= 14360, color= 1
	 item 595, weight= 14414, color= 1
	 item 596, weight= 14420, color= 0
	 item 597, weight= 14424, color= 1
	 item 598, weight= 14430, color= 1
	 item 599, weight= 14482, color= 0
	 item 600, weight= 14484, color= 0
	 item 601, weight= 14488, color= 1

VRPSolver warning: Interval set for resource 1 on source node (when source != sink) is ignored (by definition is [0.0,0.0])
VRPSolver warning: Interval set for resource 2 on source node (when source != sink) is ignored (by definition is [0.0,0.0])
VRPSolver warning: Interval set for resource 3 on source node (when source != sink) is ignored (by definition is [0.0,0.0])
[41m solve [00m
~~~~~~~~~~~~~~~~~~~~~~~~~~~~~~~~~~~~~~~~~~~~~~~~~~~~~~~~~~~~~~~~~~~~~~~~~~~~~~
VRPSolver v0.4.1, 24/03/2021. Web: vrpsolver.math.u-bordeaux.fr
Corresponds to the solver by Pessoa, Sadykov, Uchoa and Vanderbeck (2020)
Paper: dx.doi.org/10.1007/s10107-020-01523-z
USE THIS CODE ONLY FOR ACADEMIC PURPOSES AT YOUR OWN RISK
~~~~~~~~~~~~~~~~~~~~~~~~~~~~~~~~~~~~~~~~~~~~~~~~~~~~~~~~~~~~~~~~~~~~~~~~~~~~~~
BaPCod v053, 24/03/2021, © Inria Bordeaux, France
~~~~~~~~~~~~~~~~~~~~~~~~~~~~~~~~~~~~~~~~~~~~~~~~~~~~~~~~~~~~~~~~~~~~~~~~~~~~~~
VRPSolver parameters:
GlobalTimeLimit = 60
MaxNbOfBBtreeNodeTreated = 100000
treeSearchStrategy = 1
RCSPstopCutGenTimeThresholdInPricing = 10
RCSPhardTimeThresholdInPricing = 20
RCSPnumberOfBucketsPerVertex = 2000
RCSPdynamicBucketSteps = 0
RCSPuseBidirectionalSearch = 1
RCSPapplyReducedCostFixing = 1
RCSPredCostFixingFalseGap = 0
RCSPmaxNumOfColsPerIteration = 100
RCSPmaxNumOfColsPerExactIteration = 100
RCSPheurLabelingStrategy = 4
StabilizationMinPhaseOfStage = 1
RCSPmaxNumOfLabelsInEnumeration = 100000
RCSPmaxNumOfEnumeratedSolutions = 1000000
RCSPmaxNumOfEnumSolutionsForMIP = 100000
RCSPinitNGneighbourhoodSize = 0
RCSPmaxNGneighbourhoodSize = 0
RCSPrankOneCutsMaxNumPerRound = 100
RCSPrankOneCutsMaxNumRows = -1
RCSPrankOneCutsMemoryType = 2
CutTailingOffThreshold = 0.02
CutTailingOffCounterThreshold = 3
SafeDualBoundScaleFactor = -1
StrongBranchingPhaseOneCandidatesNumber = 100
StrongBranchingPhaseOneTreeSizeEstimRatio = 0.3
StrongBranchingPhaseTwoCandidatesNumber = 1
StrongBranchingPhaseTwoTreeSizeEstimRatio = 0.1
MaxTimeForRestrictedMasterIpHeur = -1
DivingHeurUseDepthLimit = 0
MaxLDSbreadth = 3
MaxLDSdepth = 2
New model incumbent solution 1e+06, TIME = 0h0m0s3t = 3
Model is built TIME = 0h0m3s69t = 369
************************************************************************************************
**** BaB tree root node
**** Local DB = -1e+12, global bounds : [ -1e+12 , 1e+06 ], TIME = 0h0m3s69t = 369
**** 1 open nodes, 0 columns (0 active), 0 dyn. constrs. (0 active), 1204 art. vars. (1204 active)
************************************************************************************************
<DWph=2> <it= 10> <et=9.97> <Mt= 0.09> <Spt= 6.18> <nCl=1000> <DB=-17218748622.5096> <Mlp=562828119.1591> <PB=1000000> 
<DWph=2> <it= 20> <et=16.58> <Mt= 0.51> <Spt= 6.09> <nCl=1000> <DB=-9639192166.6839> <Mlp=502224189.0868> <PB=1000000> 
<DWph=2> <it= 30> <et=23.47> <Mt= 1.06> <Spt= 5.81> <nCl=1000> <DB=-7194418096.2753> <Mlp=465068128.0875> <PB=1000000> 
<DWph=2> <it= 40> <et=31.94> <Mt= 2.12> <Spt= 6.36> <nCl=1000> <DB=-5341927083.8503> <Mlp=419483755.3082> <PB=1000000> 
<DWph=2> <it= 50> <et=42.09> <Mt= 3.71> <Spt= 6.43> <nCl=1000> <DB=-4349089351.8207> <Mlp=377193539.0380> <PB=1000000> 
<DWph=2> <it= 60> <et=52.74> <Mt= 4.14> <Spt= 6.50> <nCl=1000> <DB=-3054589490.8216> <Mlp=340517340.7436> <PB=1000000> 
