Application parameters:
  batch  =>  nothing
  instance  =>  "/IN/N102W1000001R1080Q2-001"
  ub  =>  1.0e6
  cfg  =>  "/CFG/BPP.cfg"
data = Colored Bin Packing dataset.
number of items = 102
number of colors = 2
capacity = 1000001
Items : 
	 item 1, weight= 108417, color= 1
	 item 2, weight= 109653, color= 0
	 item 3, weight= 122196, color= 1
	 item 4, weight= 123115, color= 0
	 item 5, weight= 130294, color= 1
	 item 6, weight= 131074, color= 1
	 item 7, weight= 139694, color= 1
	 item 8, weight= 141521, color= 0
	 item 9, weight= 152687, color= 1
	 item 10, weight= 153873, color= 0
	 item 11, weight= 160476, color= 0
	 item 12, weight= 165108, color= 1
	 item 13, weight= 173976, color= 1
	 item 14, weight= 181117, color= 1
	 item 15, weight= 201953, color= 1
	 item 16, weight= 203367, color= 1
	 item 17, weight= 204568, color= 1
	 item 18, weight= 211082, color= 1
	 item 19, weight= 221094, color= 0
	 item 20, weight= 241121, color= 1
	 item 21, weight= 247789, color= 0
	 item 22, weight= 248303, color= 0
	 item 23, weight= 248579, color= 0
	 item 24, weight= 251075, color= 1
	 item 25, weight= 253584, color= 0
	 item 26, weight= 257559, color= 1
	 item 27, weight= 270068, color= 0
	 item 28, weight= 273359, color= 0
	 item 29, weight= 275766, color= 0
	 item 30, weight= 283728, color= 1
	 item 31, weight= 294045, color= 1
	 item 32, weight= 294332, color= 1
	 item 33, weight= 304612, color= 1
	 item 34, weight= 313989, color= 1
	 item 35, weight= 314872, color= 0
	 item 36, weight= 322561, color= 0
	 item 37, weight= 331081, color= 0
	 item 38, weight= 332035, color= 1
	 item 39, weight= 333370, color= 0
	 item 40, weight= 339698, color= 0
	 item 41, weight= 349126, color= 1
	 item 42, weight= 362468, color= 0
	 item 43, weight= 369800, color= 0
	 item 44, weight= 382783, color= 0
	 item 45, weight= 385051, color= 1
	 item 46, weight= 399263, color= 1
	 item 47, weight= 404560, color= 0
	 item 48, weight= 407198, color= 0
	 item 49, weight= 418800, color= 1
	 item 50, weight= 422393, color= 0
	 item 51, weight= 424265, color= 0
	 item 52, weight= 425164, color= 1
	 item 53, weight= 426976, color= 1
	 item 54, weight= 433771, color= 0
	 item 55, weight= 440481, color= 0
	 item 56, weight= 445570, color= 1
	 item 57, weight= 448330, color= 0
	 item 58, weight= 460018, color= 0
	 item 59, weight= 480352, color= 0
	 item 60, weight= 488857, color= 1
	 item 61, weight= 506925, color= 1
	 item 62, weight= 508848, color= 0
	 item 63, weight= 513795, color= 0
	 item 64, weight= 515846, color= 0
	 item 65, weight= 576875, color= 0
	 item 66, weight= 578054, color= 0
	 item 67, weight= 584334, color= 0
	 item 68, weight= 587494, color= 1
	 item 69, weight= 588052, color= 1
	 item 70, weight= 608460, color= 1
	 item 71, weight= 633121, color= 1
	 item 72, weight= 633416, color= 1
	 item 73, weight= 635335, color= 0
	 item 74, weight= 646869, color= 1
	 item 75, weight= 654054, color= 1
	 item 76, weight= 654848, color= 0
	 item 77, weight= 655450, color= 0
	 item 78, weight= 655772, color= 1
	 item 79, weight= 656393, color= 0
	 item 80, weight= 659874, color= 0
	 item 81, weight= 668617, color= 1
	 item 82, weight= 669420, color= 1
	 item 83, weight= 670122, color= 0
	 item 84, weight= 678135, color= 0
	 item 85, weight= 696490, color= 1
	 item 86, weight= 719187, color= 1
	 item 87, weight= 719610, color= 0
	 item 88, weight= 731809, color= 1
	 item 89, weight= 736635, color= 1
	 item 90, weight= 741205, color= 1
	 item 91, weight= 745119, color= 1
	 item 92, weight= 746539, color= 0
	 item 93, weight= 750604, color= 0
	 item 94, weight= 760359, color= 1
	 item 95, weight= 761516, color= 0
	 item 96, weight= 764712, color= 0
	 item 97, weight= 768346, color= 1
	 item 98, weight= 773661, color= 0
	 item 99, weight= 778226, color= 1
	 item 100, weight= 782021, color= 0
	 item 101, weight= 786747, color= 0
	 item 102, weight= 792913, color= 1

VRPSolver warning: Interval set for resource 1 on source node (when source != sink) is ignored (by definition is [0.0,0.0])
VRPSolver warning: Interval set for resource 2 on source node (when source != sink) is ignored (by definition is [0.0,0.0])
VRPSolver warning: Interval set for resource 3 on source node (when source != sink) is ignored (by definition is [0.0,0.0])
[41m solve [00m
~~~~~~~~~~~~~~~~~~~~~~~~~~~~~~~~~~~~~~~~~~~~~~~~~~~~~~~~~~~~~~~~~~~~~~~~~~~~~~
VRPSolver v0.4.1, 24/03/2021. Web: vrpsolver.math.u-bordeaux.fr
Corresponds to the solver by Pessoa, Sadykov, Uchoa and Vanderbeck (2020)
Paper: dx.doi.org/10.1007/s10107-020-01523-z
USE THIS CODE ONLY FOR ACADEMIC PURPOSES AT YOUR OWN RISK
~~~~~~~~~~~~~~~~~~~~~~~~~~~~~~~~~~~~~~~~~~~~~~~~~~~~~~~~~~~~~~~~~~~~~~~~~~~~~~
BaPCod v053, 24/03/2021, © Inria Bordeaux, France
~~~~~~~~~~~~~~~~~~~~~~~~~~~~~~~~~~~~~~~~~~~~~~~~~~~~~~~~~~~~~~~~~~~~~~~~~~~~~~
VRPSolver parameters:
GlobalTimeLimit = 60
MaxNbOfBBtreeNodeTreated = 100000
treeSearchStrategy = 1
RCSPstopCutGenTimeThresholdInPricing = 10
RCSPhardTimeThresholdInPricing = 20
RCSPnumberOfBucketsPerVertex = 2000
RCSPdynamicBucketSteps = 0
RCSPuseBidirectionalSearch = 1
RCSPapplyReducedCostFixing = 1
RCSPredCostFixingFalseGap = 0
RCSPmaxNumOfColsPerIteration = 100
RCSPmaxNumOfColsPerExactIteration = 100
RCSPheurLabelingStrategy = 4
StabilizationMinPhaseOfStage = 1
RCSPmaxNumOfLabelsInEnumeration = 100000
RCSPmaxNumOfEnumeratedSolutions = 1000000
RCSPmaxNumOfEnumSolutionsForMIP = 100000
RCSPinitNGneighbourhoodSize = 0
RCSPmaxNGneighbourhoodSize = 0
RCSPrankOneCutsMaxNumPerRound = 100
RCSPrankOneCutsMaxNumRows = -1
RCSPrankOneCutsMemoryType = 2
CutTailingOffThreshold = 0.02
CutTailingOffCounterThreshold = 3
SafeDualBoundScaleFactor = -1
StrongBranchingPhaseOneCandidatesNumber = 100
StrongBranchingPhaseOneTreeSizeEstimRatio = 0.3
StrongBranchingPhaseTwoCandidatesNumber = 1
StrongBranchingPhaseTwoTreeSizeEstimRatio = 0.1
MaxTimeForRestrictedMasterIpHeur = -1
DivingHeurUseDepthLimit = 0
MaxLDSbreadth = 3
MaxLDSdepth = 2
New model incumbent solution 1e+06, TIME = 0h0m0s3t = 3
Model is built TIME = 0h0m1s64t = 164
************************************************************************************************
**** BaB tree root node
**** Local DB = -1e+12, global bounds : [ -1e+12 , 1e+06 ], TIME = 0h0m1s64t = 164
**** 1 open nodes, 0 columns (0 active), 0 dyn. constrs. (0 active), 206 art. vars. (206 active)
************************************************************************************************
<DWph=2> <it= 10> <et=2.24> <Mt= 0.01> <Spt= 0.58> <nCl=997> <DB=-123598155.1120> <Mlp=34800025.3787> <PB=1000000> 
<DWph=2> <it= 20> <et=2.98> <Mt= 0.02> <Spt= 0.72> <nCl=668> <DB=   43.6936> <Mlp=   46.5686> <PB=1000000> 
<DWph=2> <it= 22> <et=3.19> <Mt= 0.00> <Spt= 0.20> <nCl= 40> <DB=   46.5652> <Mlp=   46.5652> <PB=1000000> 
<DWph=1> <it= 23> <et=3.29> <Mt= 0.00> <Spt= 0.11> <nCl=  0> <DB=   46.5652> <Mlp=   46.5652> <PB=1000000> 
<DWph=0> <it= 24> <et=3.34> <Mt= 0.00> <Spt= 0.05> <nCl=  0> <DB=   46.5652> <Mlp=   46.5652> <PB=1000000> 
Reduced cost fixing for graph G_1... took 0.54 sec., 73756 buck. arcs remain (100% from prev., 19.4% from max.)
Run enumeration... took 1.88 sec. and succeeded! Pricing will be done by inspection.
<DWph=2> <it= 25> <et=5.95> <Mt= 0.02> <Spt= 0.02> <nCl=  0> <DB=   46.5652> <Mlp=   46.5652> <PB=1000000> 
<DWph=1> <it= 26> <et=5.96> <Mt= 0.01> <Spt= 0.00> <nCl=  0> <DB=   46.5652> <Mlp=   46.5652> <PB=1000000> 
<DWph=0> <it= 27> <et=5.96> <Mt= 0.00> <Spt= 0.00> <nCl=  0> <DB=   46.5652> <Mlp=   46.5652> <PB=1000000> 
ColGenEvalAlg final dual bound: 46.5652 (rounded: 47)
----------- Diving heuristic started -----------
<DWph=2> <it=  1> <et=6.07> <Mt= 0.00> <Spt= 0.00> <nCl=  0> <DB=   46.5652> <Mlp=   46.5652> <PB=1000000> 
<DWph=1> <it=  2> <et=6.07> <Mt= 0.00> <Spt= 0.00> <nCl=  0> <DB=   46.5652> <Mlp=   46.5652> <PB=1000000> 
<DWph=0> <it=  3> <et=6.07> <Mt= 0.00> <Spt= 0.00> <nCl=  0> <DB=   46.5652> <Mlp=   46.5652> <PB=1000000> 
ColGenEvalAlg final dual bound: 46.5652 (rounded: 47)
---- Diving heuristic node with dive number = 0, fix depth = 0 and tabu list size = 0
Fixed projected solution = [x_1_0_1_OspV=1, x_1_60_1_OspV=1, x_1_62_1_OspV=1]
<DWph=2> <it=  1> <et=6.29> <Mt= 0.00> <Spt= 0.00> <nCl=  0> <DB=   46.5652> <Mlp=   46.5652> <PB=1000000> 
<DWph=1> <it=  2> <et=6.29> <Mt= 0.00> <Spt= 0.00> <nCl=  0> <DB=   46.5652> <Mlp=   46.5652> <PB=1000000> 
<DWph=0> <it=  3> <et=6.29> <Mt= 0.00> <Spt= 0.00> <nCl=  0> <DB=   46.5652> <Mlp=   46.5652> <PB=1000000> 
ColGenEvalAlg final dual bound: 46.5652 (rounded: 47)
---- Diving heuristic node with dive number = 0, fix depth = 0 and tabu list size = 0
Fixed projected solution = [x_1_0_1_OspV=1, x_1_47_1_OspV=1, x_1_68_1_OspV=1]
<DWph=2> <it=  1> <et=6.43> <Mt= 0.00> <Spt= 0.00> <nCl=  0> <DB=   46.5652> <Mlp=   46.5652> <PB=1000000> 
<DWph=1> <it=  2> <et=6.43> <Mt= 0.00> <Spt= 0.00> <nCl=  0> <DB=   46.5652> <Mlp=   46.5652> <PB=1000000> 
<DWph=0> <it=  3> <et=6.43> <Mt= 0.00> <Spt= 0.00> <nCl=  0> <DB=   46.5652> <Mlp=   46.5652> <PB=1000000> 
ColGenEvalAlg final dual bound: 46.5652 (rounded: 47)
---- Diving heuristic node with dive number = 0, fix depth = 0 and tabu list size = 0
Fixed projected solution = [x_1_0_1_OspV=1, x_1_44_1_OspV=1, x_1_70_1_OspV=1]
<DWph=2> <it=  1> <et=6.57> <Mt= 0.00> <Spt= 0.00> <nCl=  0> <DB=   46.5652> <Mlp=   46.5652> <PB=1000000> 
<DWph=1> <it=  2> <et=6.57> <Mt= 0.00> <Spt= 0.00> <nCl=  0> <DB=   46.5652> <Mlp=   46.5652> <PB=1000000> 
<DWph=0> <it=  3> <et=6.57> <Mt= 0.00> <Spt= 0.00> <nCl=  0> <DB=   46.5652> <Mlp=   46.5652> <PB=1000000> 
ColGenEvalAlg final dual bound: 46.5652 (rounded: 47)
---- Diving heuristic node with dive number = 0, fix depth = 0 and tabu list size = 0
Fixed projected solution = [x_1_0_1_OspV=1, x_1_48_1_OspV=1, x_1_69_1_OspV=1]
<DWph=2> <it=  1> <et=6.71> <Mt= 0.00> <Spt= 0.00> <nCl=  0> <DB=   46.5652> <Mlp=   46.5652> <PB=1000000> 
<DWph=1> <it=  2> <et=6.71> <Mt= 0.00> <Spt= 0.00> <nCl=  0> <DB=   46.5652> <Mlp=   46.5652> <PB=1000000> 
<DWph=0> <it=  3> <et=6.71> <Mt= 0.00> <Spt= 0.00> <nCl=  0> <DB=   46.5652> <Mlp=   46.5652> <PB=1000000> 
ColGenEvalAlg final dual bound: 46.5652 (rounded: 47)
---- Diving heuristic node with dive number = 0, fix depth = 0 and tabu list size = 0
Fixed projected solution = [x_1_0_1_OspV=1, x_1_42_1_OspV=1, x_1_71_1_OspV=1]
<DWph=2> <it=  1> <et=6.85> <Mt= 0.00> <Spt= 0.00> <nCl=  0> <DB=   46.5652> <Mlp=   46.5652> <PB=1000000> 
<DWph=1> <it=  2> <et=6.85> <Mt= 0.01> <Spt= 0.00> <nCl=  0> <DB=   46.5652> <Mlp=   46.5652> <PB=1000000> 
<DWph=0> <it=  3> <et=6.85> <Mt= 0.00> <Spt= 0.00> <nCl=  0> <DB=   46.5652> <Mlp=   46.5652> <PB=1000000> 
ColGenEvalAlg final dual bound: 46.5652 (rounded: 47)
---- Diving heuristic node with dive number = 0, fix depth = 0 and tabu list size = 0
Fixed projected solution = [x_1_0_1_OspV=1, x_1_41_1_OspV=1, x_1_73_1_OspV=1]
<DWph=2> <it=  1> <et=7.01> <Mt= 0.00> <Spt= 0.00> <nCl=  0> <DB=   46.5652> <Mlp=   46.5652> <PB=1000000> 
<DWph=1> <it=  2> <et=7.01> <Mt= 0.00> <Spt= 0.00> <nCl=  0> <DB=   46.5652> <Mlp=   46.5652> <PB=1000000> 
<DWph=0> <it=  3> <et=7.01> <Mt= 0.00> <Spt= 0.00> <nCl=  0> <DB=   46.5652> <Mlp=   46.5652> <PB=1000000> 
ColGenEvalAlg final dual bound: 46.5652 (rounded: 47)
---- Diving heuristic node with dive number = 0, fix depth = 0 and tabu list size = 0
Fixed projected solution = [x_1_0_1_OspV=1, x_1_22_1_OspV=1, x_1_88_1_OspV=1]
<DWph=2> <it=  1> <et=7.16> <Mt= 0.00> <Spt= 0.00> <nCl=  0> <DB=   46.5652> <Mlp=   46.5652> <PB=1000000> 
<DWph=1> <it=  2> <et=7.16> <Mt= 0.00> <Spt= 0.00> <nCl=  0> <DB=   46.5652> <Mlp=   46.5652> <PB=1000000> 
<DWph=0> <it=  3> <et=7.16> <Mt= 0.00> <Spt= 0.00> <nCl=  0> <DB=   46.5652> <Mlp=   46.5652> <PB=1000000> 
ColGenEvalAlg final dual bound: 46.5652 (rounded: 47)
---- Diving heuristic node with dive number = 0, fix depth = 0 and tabu list size = 0
Fixed projected solution = [x_1_0_1_OspV=1, x_1_56_1_OspV=1, x_1_64_1_OspV=1]
<DWph=2> <it=  1> <et=7.29> <Mt= 0.00> <Spt= 0.00> <nCl=  0> <DB=   46.5652> <Mlp=   46.5652> <PB=1000000> 
<DWph=1> <it=  2> <et=7.29> <Mt= 0.00> <Spt= 0.00> <nCl=  0> <DB=   46.5652> <Mlp=   46.5652> <PB=1000000> 
<DWph=0> <it=  3> <et=7.29> <Mt= 0.00> <Spt= 0.00> <nCl=  0> <DB=   46.5652> <Mlp=   46.5652> <PB=1000000> 
ColGenEvalAlg final dual bound: 46.5652 (rounded: 47)
---- Diving heuristic node with dive number = 0, fix depth = 0 and tabu list size = 0
Fixed projected solution = [x_1_0_1_OspV=1, x_1_25_1_OspV=1, x_1_89_1_OspV=1]
<DWph=2> <it=  1> <et=7.42> <Mt= 0.00> <Spt= 0.00> <nCl=  0> <DB=   46.5652> <Mlp=   46.5652> <PB=1000000> 
<DWph=1> <it=  2> <et=7.42> <Mt= 0.00> <Spt= 0.00> <nCl=  0> <DB=   46.5652> <Mlp=   46.5652> <PB=1000000> 
<DWph=0> <it=  3> <et=7.42> <Mt= 0.00> <Spt= 0.00> <nCl=  0> <DB=   46.5652> <Mlp=   46.5652> <PB=1000000> 
ColGenEvalAlg final dual bound: 46.5652 (rounded: 47)
---- Diving heuristic node with dive number = 0, fix depth = 0 and tabu list size = 0
Fixed projected solution = [x_1_0_1_OspV=1, x_1_23_1_OspV=1, x_1_90_1_OspV=1]
<DWph=2> <it=  1> <et=7.55> <Mt= 0.00> <Spt= 0.00> <nCl=  0> <DB=   46.5652> <Mlp=   46.5652> <PB=1000000> 
<DWph=1> <it=  2> <et=7.55> <Mt= 0.00> <Spt= 0.00> <nCl=  0> <DB=   46.5652> <Mlp=   46.5652> <PB=1000000> 
<DWph=0> <it=  3> <et=7.55> <Mt= 0.00> <Spt= 0.00> <nCl=  0> <DB=   46.5652> <Mlp=   46.5652> <PB=1000000> 
ColGenEvalAlg final dual bound: 46.5652 (rounded: 47)
---- Diving heuristic node with dive number = 0, fix depth = 0 and tabu list size = 0
Fixed projected solution = [x_1_0_1_OspV=1, x_1_21_1_OspV=1, x_1_91_1_OspV=1]
<DWph=2> <it=  1> <et=7.69> <Mt= 0.01> <Spt= 0.00> <nCl=  0> <DB=   46.5652> <Mlp=   46.5652> <PB=1000000> 
<DWph=1> <it=  2> <et=7.69> <Mt= 0.00> <Spt= 0.00> <nCl=  0> <DB=   46.5652> <Mlp=   46.5652> <PB=1000000> 
<DWph=0> <it=  3> <et=7.69> <Mt= 0.00> <Spt= 0.00> <nCl=  0> <DB=   46.5652> <Mlp=   46.5652> <PB=1000000> 
ColGenEvalAlg final dual bound: 46.5652 (rounded: 47)
---- Diving heuristic node with dive number = 0, fix depth = 0 and tabu list size = 0
Fixed projected solution = [x_1_0_1_OspV=1, x_1_39_1_OspV=1, x_1_74_1_OspV=1]
<DWph=2> <it=  1> <et=7.81> <Mt= 0.00> <Spt= 0.00> <nCl=  0> <DB=   46.5652> <Mlp=   46.5652> <PB=1000000> 
<DWph=1> <it=  2> <et=7.81> <Mt= 0.00> <Spt= 0.00> <nCl=  0> <DB=   46.5652> <Mlp=   46.5652> <PB=1000000> 
<DWph=0> <it=  3> <et=7.81> <Mt= 0.00> <Spt= 0.00> <nCl=  0> <DB=   46.5652> <Mlp=   46.5652> <PB=1000000> 
ColGenEvalAlg final dual bound: 46.5652 (rounded: 47)
---- Diving heuristic node with dive number = 0, fix depth = 0 and tabu list size = 0
Fixed projected solution = [x_1_0_1_OspV=1, x_1_35_1_OspV=1, x_1_75_1_OspV=1]
<DWph=2> <it=  1> <et=7.95> <Mt= 0.00> <Spt= 0.00> <nCl=  0> <DB=   46.5652> <Mlp=   46.5652> <PB=1000000> 
<DWph=1> <it=  2> <et=7.95> <Mt= 0.00> <Spt= 0.00> <nCl=  0> <DB=   46.5652> <Mlp=   46.5652> <PB=1000000> 
<DWph=0> <it=  3> <et=7.95> <Mt= 0.00> <Spt= 0.00> <nCl=  0> <DB=   46.5652> <Mlp=   46.5652> <PB=1000000> 
ColGenEvalAlg final dual bound: 46.5652 (rounded: 47)
---- Diving heuristic node with dive number = 0, fix depth = 0 and tabu list size = 0
Fixed projected solution = [x_1_0_1_OspV=1, x_1_34_1_OspV=1, x_1_80_1_OspV=1]
<DWph=2> <it=  1> <et=8.09> <Mt= 0.00> <Spt= 0.00> <nCl=  0> <DB=   46.5652> <Mlp=   46.5652> <PB=1000000> 
<DWph=1> <it=  2> <et=8.09> <Mt= 0.00> <Spt= 0.00> <nCl=  0> <DB=   46.5652> <Mlp=   46.5652> <PB=1000000> 
<DWph=0> <it=  3> <et=8.09> <Mt= 0.00> <Spt= 0.00> <nCl=  0> <DB=   46.5652> <Mlp=   46.5652> <PB=1000000> 
ColGenEvalAlg final dual bound: 46.5652 (rounded: 47)
---- Diving heuristic node with dive number = 0, fix depth = 0 and tabu list size = 0
Fixed projected solution = [x_1_0_1_OspV=1, x_1_28_1_OspV=1, x_1_85_1_OspV=1]
<DWph=2> <it=  1> <et=8.22> <Mt= 0.00> <Spt= 0.00> <nCl=  0> <DB=   46.5652> <Mlp=   46.5652> <PB=1000000> 
<DWph=1> <it=  2> <et=8.22> <Mt= 0.00> <Spt= 0.00> <nCl=  0> <DB=   46.5652> <Mlp=   46.5652> <PB=1000000> 
<DWph=0> <it=  3> <et=8.22> <Mt= 0.00> <Spt= 0.00> <nCl=  0> <DB=   46.5652> <Mlp=   46.5652> <PB=1000000> 
ColGenEvalAlg final dual bound: 46.5652 (rounded: 47)
---- Diving heuristic node with dive number = 0, fix depth = 0 and tabu list size = 0
Fixed projected solution = [x_1_0_1_OspV=1, x_1_14_1_OspV=1, x_1_101_1_OspV=1]
<DWph=2> <it=  1> <et=8.34> <Mt= 0.00> <Spt= 0.00> <nCl=  0> <DB=   46.5652> <Mlp=   46.5652> <PB=1000000> 
<DWph=1> <it=  2> <et=8.34> <Mt= 0.00> <Spt= 0.00> <nCl=  0> <DB=   46.5652> <Mlp=   46.5652> <PB=1000000> 
<DWph=0> <it=  3> <et=8.34> <Mt= 0.00> <Spt= 0.00> <nCl=  0> <DB=   46.5652> <Mlp=   46.5652> <PB=1000000> 
ColGenEvalAlg final dual bound: 46.5652 (rounded: 47)
---- Diving heuristic node with dive number = 0, fix depth = 0 and tabu list size = 0
Fixed projected solution = [x_1_0_1_OspV=1, x_1_26_1_OspV=1, x_1_87_1_OspV=1]
<DWph=2> <it=  1> <et=8.47> <Mt= 0.01> <Spt= 0.00> <nCl=  0> <DB=   46.5652> <Mlp=   46.5652> <PB=1000000> 
<DWph=1> <it=  2> <et=8.47> <Mt= 0.00> <Spt= 0.00> <nCl=  0> <DB=   46.5652> <Mlp=   46.5652> <PB=1000000> 
<DWph=0> <it=  3> <et=8.47> <Mt= 0.00> <Spt= 0.00> <nCl=  0> <DB=   46.5652> <Mlp=   46.5652> <PB=1000000> 
ColGenEvalAlg final dual bound: 46.5652 (rounded: 47)
---- Diving heuristic node with dive number = 0, fix depth = 0 and tabu list size = 0
Fixed projected solution = [x_1_0_1_OspV=1, x_1_20_1_OspV=1, x_1_93_1_OspV=1]
<DWph=2> <it=  1> <et=8.61> <Mt= 0.00> <Spt= 0.00> <nCl=  0> <DB=   46.5652> <Mlp=   46.5652> <PB=1000000> 
<DWph=1> <it=  2> <et=8.61> <Mt= 0.00> <Spt= 0.00> <nCl=  0> <DB=   46.5652> <Mlp=   46.5652> <PB=1000000> 
<DWph=0> <it=  3> <et=8.61> <Mt= 0.00> <Spt= 0.00> <nCl=  0> <DB=   46.5652> <Mlp=   46.5652> <PB=1000000> 
ColGenEvalAlg final dual bound: 46.5652 (rounded: 47)
---- Diving heuristic node with dive number = 0, fix depth = 0 and tabu list size = 0
Fixed projected solution = [x_1_0_1_OspV=1, x_1_18_1_OspV=1, x_1_95_1_OspV=1]
<DWph=2> <it=  1> <et=8.75> <Mt= 0.00> <Spt= 0.00> <nCl=  0> <DB=   46.5652> <Mlp=   46.5652> <PB=1000000> 
<DWph=1> <it=  2> <et=8.75> <Mt= 0.00> <Spt= 0.00> <nCl=  0> <DB=   46.5652> <Mlp=   46.5652> <PB=1000000> 
<DWph=0> <it=  3> <et=8.75> <Mt= 0.00> <Spt= 0.00> <nCl=  0> <DB=   46.5652> <Mlp=   46.5652> <PB=1000000> 
ColGenEvalAlg final dual bound: 46.5652 (rounded: 47)
---- Diving heuristic node with dive number = 0, fix depth = 0 and tabu list size = 0
Fixed projected solution = [x_1_0_1_OspV=1, x_1_17_1_OspV=1, x_1_96_1_OspV=1]
<DWph=2> <it=  1> <et=8.87> <Mt= 0.00> <Spt= 0.00> <nCl=  0> <DB=   46.5652> <Mlp=   46.5652> <PB=1000000> 
<DWph=1> <it=  2> <et=8.87> <Mt= 0.00> <Spt= 0.00> <nCl=  0> <DB=   46.5652> <Mlp=   46.5652> <PB=1000000> 
<DWph=0> <it=  3> <et=8.87> <Mt= 0.00> <Spt= 0.00> <nCl=  0> <DB=   46.5652> <Mlp=   46.5652> <PB=1000000> 
ColGenEvalAlg final dual bound: 46.5652 (rounded: 47)
---- Diving heuristic node with dive number = 0, fix depth = 0 and tabu list size = 0
Fixed projected solution = [x_1_0_1_OspV=1, x_1_24_1_OspV=1, x_1_92_1_OspV=1]
<DWph=2> <it=  1> <et=9.01> <Mt= 0.00> <Spt= 0.00> <nCl=  0> <DB=   46.5652> <Mlp=   46.5652> <PB=1000000> 
<DWph=1> <it=  2> <et=9.01> <Mt= 0.00> <Spt= 0.00> <nCl=  0> <DB=   46.5652> <Mlp=   46.5652> <PB=1000000> 
<DWph=0> <it=  3> <et=9.01> <Mt= 0.00> <Spt= 0.00> <nCl=  0> <DB=   46.5652> <Mlp=   46.5652> <PB=1000000> 
ColGenEvalAlg final dual bound: 46.5652 (rounded: 47)
---- Diving heuristic node with dive number = 0, fix depth = 0 and tabu list size = 0
Fixed projected solution = [x_1_0_1_OspV=1, x_1_29_1_OspV=1, x_1_86_1_OspV=1]
<DWph=2> <it=  1> <et=9.14> <Mt= 0.00> <Spt= 0.00> <nCl=  0> <DB=   46.5652> <Mlp=   46.5652> <PB=1000000> 
<DWph=1> <it=  2> <et=9.14> <Mt= 0.00> <Spt= 0.00> <nCl=  0> <DB=   46.5652> <Mlp=   46.5652> <PB=1000000> 
<DWph=0> <it=  3> <et=9.14> <Mt= 0.00> <Spt= 0.00> <nCl=  0> <DB=   46.5652> <Mlp=   46.5652> <PB=1000000> 
ColGenEvalAlg final dual bound: 46.5652 (rounded: 47)
---- Diving heuristic node with dive number = 0, fix depth = 0 and tabu list size = 0
Fixed projected solution = [x_1_0_1_OspV=1, x_1_11_1_OspV=1, x_1_102_1_OspV=1]
<DWph=2> <it=  1> <et=9.26> <Mt= 0.01> <Spt= 0.00> <nCl=  0> <DB=   46.5652> <Mlp=   46.5652> <PB=1000000> 
<DWph=1> <it=  2> <et=9.26> <Mt= 0.00> <Spt= 0.00> <nCl=  0> <DB=   46.5652> <Mlp=   46.5652> <PB=1000000> 
<DWph=0> <it=  3> <et=9.26> <Mt= 0.00> <Spt= 0.00> <nCl=  0> <DB=   46.5652> <Mlp=   46.5652> <PB=1000000> 
ColGenEvalAlg final dual bound: 46.5652 (rounded: 47)
---- Diving heuristic node with dive number = 0, fix depth = 0 and tabu list size = 0
Fixed projected solution = [x_1_0_1_OspV=1, x_1_15_1_OspV=1, x_1_100_1_OspV=1]
<DWph=2> <it=  1> <et=9.39> <Mt= 0.00> <Spt= 0.00> <nCl=  0> <DB=   46.5652> <Mlp=   46.5652> <PB=1000000> 
<DWph=1> <it=  2> <et=9.39> <Mt= 0.00> <Spt= 0.00> <nCl=  0> <DB=   46.5652> <Mlp=   46.5652> <PB=1000000> 
<DWph=0> <it=  3> <et=9.39> <Mt= 0.00> <Spt= 0.00> <nCl=  0> <DB=   46.5652> <Mlp=   46.5652> <PB=1000000> 
ColGenEvalAlg final dual bound: 46.5652 (rounded: 47)
---- Diving heuristic node with dive number = 0, fix depth = 0 and tabu list size = 0
Fixed projected solution = [x_1_0_1_OspV=1, x_1_40_1_OspV=1, x_1_78_1_OspV=1]
<DWph=2> <it=  1> <et=9.53> <Mt= 0.00> <Spt= 0.00> <nCl=  0> <DB=   46.5652> <Mlp=   46.5652> <PB=1000000> 
<DWph=1> <it=  2> <et=9.53> <Mt= 0.00> <Spt= 0.00> <nCl=  0> <DB=   46.5652> <Mlp=   46.5652> <PB=1000000> 
<DWph=0> <it=  3> <et=9.53> <Mt= 0.00> <Spt= 0.00> <nCl=  0> <DB=   46.5652> <Mlp=   46.5652> <PB=1000000> 
ColGenEvalAlg final dual bound: 46.5652 (rounded: 47)
---- Diving heuristic node with dive number = 0, fix depth = 0 and tabu list size = 0
Fixed projected solution = [x_1_0_1_OspV=1, x_1_37_1_OspV=1, x_1_81_1_OspV=1]
<DWph=2> <it=  1> <et=9.67> <Mt= 0.00> <Spt= 0.00> <nCl=  0> <DB=   46.5652> <Mlp=   46.5652> <PB=1000000> 
<DWph=1> <it=  2> <et=9.67> <Mt= 0.00> <Spt= 0.00> <nCl=  0> <DB=   46.5652> <Mlp=   46.5652> <PB=1000000> 
<DWph=0> <it=  3> <et=9.67> <Mt= 0.00> <Spt= 0.00> <nCl=  0> <DB=   46.5652> <Mlp=   46.5652> <PB=1000000> 
ColGenEvalAlg final dual bound: 46.5652 (rounded: 47)
---- Diving heuristic node with dive number = 0, fix depth = 0 and tabu list size = 0
Fixed projected solution = [x_1_0_1_OspV=1, x_1_36_1_OspV=1, x_1_72_1_OspV=1]
<DWph=2> <it=  1> <et=9.81> <Mt= 0.00> <Spt= 0.00> <nCl=  0> <DB=   46.5652> <Mlp=   46.5652> <PB=1000000> 
<DWph=1> <it=  2> <et=9.81> <Mt= 0.00> <Spt= 0.00> <nCl=  0> <DB=   46.5652> <Mlp=   46.5652> <PB=1000000> 
<DWph=0> <it=  3> <et=9.81> <Mt= 0.00> <Spt= 0.00> <nCl=  0> <DB=   46.5652> <Mlp=   46.5652> <PB=1000000> 
ColGenEvalAlg final dual bound: 46.5652 (rounded: 47)
---- Diving heuristic node with dive number = 0, fix depth = 0 and tabu list size = 0
Fixed projected solution = [x_1_0_1_OspV=1, x_1_31_1_OspV=1, x_1_79_1_OspV=1]
<DWph=2> <it=  1> <et=9.95> <Mt= 0.00> <Spt= 0.00> <nCl=  0> <DB=   46.5652> <Mlp=   46.5652> <PB=1000000> 
<DWph=1> <it=  2> <et=9.95> <Mt= 0.00> <Spt= 0.00> <nCl=  0> <DB=   46.5652> <Mlp=   46.5652> <PB=1000000> 
<DWph=0> <it=  3> <et=9.95> <Mt= 0.00> <Spt= 0.00> <nCl=  0> <DB=   46.5652> <Mlp=   46.5652> <PB=1000000> 
ColGenEvalAlg final dual bound: 46.5652 (rounded: 47)
---- Diving heuristic node with dive number = 0, fix depth = 0 and tabu list size = 0
Fixed projected solution = [x_1_0_1_OspV=1, x_1_16_1_OspV=1, x_1_98_1_OspV=1]
<DWph=2> <it=  1> <et=10.09> <Mt= 0.00> <Spt= 0.00> <nCl=  0> <DB=   46.5652> <Mlp=   46.5652> <PB=1000000> 
<DWph=1> <it=  2> <et=10.09> <Mt= 0.01> <Spt= 0.00> <nCl=  0> <DB=   46.5652> <Mlp=   46.5652> <PB=1000000> 
<DWph=0> <it=  3> <et=10.09> <Mt= 0.00> <Spt= 0.00> <nCl=  0> <DB=   46.5652> <Mlp=   46.5652> <PB=1000000> 
ColGenEvalAlg final dual bound: 46.5652 (rounded: 47)
---- Diving heuristic node with dive number = 0, fix depth = 1 and tabu list size = 0
Fixed projected solution = [x_1_0_1_OspV=1, x_1_59_1_OspV=1, x_1_61_1_OspV=1]
<DWph=2> <it=  1> <et=10.19> <Mt= 0.00> <Spt= 0.00> <nCl=  0> <DB=   46.5714> <Mlp=   46.5714> <PB=1000000> 
<DWph=1> <it=  2> <et=10.19> <Mt= 0.00> <Spt= 0.00> <nCl=  0> <DB=   46.5714> <Mlp=   46.5714> <PB=1000000> 
<DWph=0> <it=  5> <et=10.36> <Mt= 0.00> <Spt= 0.17> <nCl= 43> <DB=   46.5714> <Mlp=   46.5714> <PB=1000000> 
ColGenEvalAlg final dual bound: 46.5714 (rounded: 47)
---- Diving heuristic node with dive number = 0, fix depth = 2 and tabu list size = 0
Fixed projected solution = [x_1_0_1_OspV=1, x_1_3_1_OspV=1, x_1_53_1_OspV=1, x_1_57_1_OspV=1]
<DWph=2> <it=  1> <et=10.53> <Mt= 0.00> <Spt= 0.00> <nCl=  0> <DB=   46.5714> <Mlp=   46.5714> <PB=1000000> 
<DWph=1> <it=  2> <et=10.54> <Mt= 0.00> <Spt= 0.00> <nCl=  0> <DB=   46.5714> <Mlp=   46.5714> <PB=1000000> 
<DWph=0> <it=  3> <et=10.54> <Mt= 0.00> <Spt= 0.00> <nCl=  0> <DB=   46.5714> <Mlp=   46.5714> <PB=1000000> 
ColGenEvalAlg final dual bound: 46.5714 (rounded: 47)
---- Diving heuristic node with dive number = 0, fix depth = 2 and tabu list size = 0
Fixed projected solution = [x_1_0_1_OspV=1, x_1_19_1_OspV=1, x_1_97_1_OspV=1]
<DWph=2> <it=  1> <et=10.54> <Mt= 0.00> <Spt= 0.00> <nCl=  0> <DB=   46.5714> <Mlp=   46.5714> <PB=1000000> 
<DWph=1> <it=  2> <et=10.54> <Mt= 0.00> <Spt= 0.00> <nCl=  0> <DB=   46.5714> <Mlp=   46.5714> <PB=1000000> 
<DWph=0> <it=  3> <et=10.54> <Mt= 0.01> <Spt= 0.00> <nCl=  0> <DB=   46.5714> <Mlp=   46.5714> <PB=1000000> 
ColGenEvalAlg final dual bound: 46.5714 (rounded: 47)
---- Diving heuristic node with dive number = 0, fix depth = 2 and tabu list size = 0
Fixed projected solution = [x_1_0_1_OspV=1, x_1_2_1_OspV=1, x_1_4_1_OspV=1, x_1_94_1_OspV=1]
<DWph=2> <it=  1> <et=10.54> <Mt= 0.00> <Spt= 0.00> <nCl=  0> <DB=   46.5714> <Mlp=   46.5714> <PB=1000000> 
<DWph=1> <it=  2> <et=10.54> <Mt= 0.00> <Spt= 0.00> <nCl=  0> <DB=   46.5714> <Mlp=   46.5714> <PB=1000000> 
<DWph=0> <it=  3> <et=10.54> <Mt= 0.00> <Spt= 0.00> <nCl=  0> <DB=   46.5714> <Mlp=   46.5714> <PB=1000000> 
ColGenEvalAlg final dual bound: 46.5714 (rounded: 47)
---- Diving heuristic node with dive number = 0, fix depth = 2 and tabu list size = 0
Fixed projected solution = [x_1_0_1_OspV=1, x_1_8_1_OspV=1, x_1_99_1_OspV=1]
<DWph=2> <it=  1> <et=10.54> <Mt= 0.00> <Spt= 0.00> <nCl=  0> <DB=   46.5714> <Mlp=   46.5714> <PB=1000000> 
<DWph=1> <it=  2> <et=10.55> <Mt= 0.00> <Spt= 0.00> <nCl=  0> <DB=   46.5714> <Mlp=   46.5714> <PB=1000000> 
<DWph=0> <it=  3> <et=10.55> <Mt= 0.00> <Spt= 0.00> <nCl=  0> <DB=   46.5714> <Mlp=   46.5714> <PB=1000000> 
ColGenEvalAlg final dual bound: 46.5714 (rounded: 47)
---- Diving heuristic node with dive number = 0, fix depth = 2 and tabu list size = 0
Fixed projected solution = [x_1_0_1_OspV=1, x_1_1_1_OspV=1, x_1_43_1_OspV=1, x_1_63_1_OspV=1]
<DWph=2> <it=  1> <et=10.55> <Mt= 0.00> <Spt= 0.00> <nCl=  0> <DB=   46.5714> <Mlp=   46.5714> <PB=1000000> 
<DWph=1> <it=  2> <et=10.55> <Mt= 0.00> <Spt= 0.00> <nCl=  0> <DB=   46.5714> <Mlp=   46.5714> <PB=1000000> 
<DWph=0> <it=  3> <et=10.55> <Mt= 0.00> <Spt= 0.00> <nCl=  0> <DB=   46.5714> <Mlp=   46.5714> <PB=1000000> 
ColGenEvalAlg final dual bound: 46.5714 (rounded: 47)
---- Diving heuristic node with dive number = 0, fix depth = 3 and tabu list size = 0
Fixed projected solution = [x_1_0_1_OspV=1, x_1_38_1_OspV=1, x_1_76_1_OspV=1]
<DWph=2> <it=  1> <et=10.55> <Mt= 0.00> <Spt= 0.00> <nCl=  0> <DB=   46.5714> <Mlp=   46.5714> <PB=1000000> 
<DWph=1> <it=  2> <et=10.56> <Mt= 0.00> <Spt= 0.00> <nCl=  0> <DB=   46.5714> <Mlp=   46.5714> <PB=1000000> 
<DWph=0> <it=  3> <et=10.56> <Mt= 0.00> <Spt= 0.00> <nCl=  0> <DB=   46.5714> <Mlp=   46.5714> <PB=1000000> 
ColGenEvalAlg final dual bound: 46.5714 (rounded: 47)
---- Diving heuristic node with dive number = 0, fix depth = 4 and tabu list size = 0
Fixed projected solution = [x_1_0_1_OspV=1, x_1_32_1_OspV=1, x_1_84_1_OspV=1]
<DWph=2> <it=  1> <et=10.56> <Mt= 0.00> <Spt= 0.00> <nCl=  0> <DB=   46.5714> <Mlp=   46.5714> <PB=1000000> 
<DWph=1> <it=  2> <et=10.56> <Mt= 0.00> <Spt= 0.00> <nCl=  0> <DB=   46.5714> <Mlp=   46.5714> <PB=1000000> 
<DWph=0> <it=  3> <et=10.56> <Mt= 0.00> <Spt= 0.00> <nCl=  0> <DB=   46.5714> <Mlp=   46.5714> <PB=1000000> 
ColGenEvalAlg final dual bound: 46.5714 (rounded: 47)
---- Diving heuristic node with dive number = 0, fix depth = 5 and tabu list size = 0
Fixed projected solution = [x_1_0_1_OspV=1, x_1_5_1_OspV=1, x_1_30_1_OspV=1, x_1_67_1_OspV=1]
<DWph=2> <it=  1> <et=10.56> <Mt= 0.01> <Spt= 0.00> <nCl=  0> <DB=   46.5714> <Mlp=   46.5714> <PB=1000000> 
<DWph=1> <it=  2> <et=10.56> <Mt= 0.00> <Spt= 0.00> <nCl=  0> <DB=   46.5714> <Mlp=   46.5714> <PB=1000000> 
<DWph=0> <it=  3> <et=10.56> <Mt= 0.00> <Spt= 0.00> <nCl=  0> <DB=   46.5714> <Mlp=   46.5714> <PB=1000000> 
ColGenEvalAlg final dual bound: 46.5714 (rounded: 47)
---- Diving heuristic node with dive number = 0, fix depth = 6 and tabu list size = 0
Fixed projected solution = [x_1_0_1_OspV=1, x_1_10_1_OspV=1, x_1_45_1_OspV=1, x_1_58_1_OspV=1]
<DWph=2> <it=  1> <et=10.57> <Mt= 0.00> <Spt= 0.00> <nCl=  0> <DB=   46.6000> <Mlp=   46.6000> <PB=1000000> 
<DWph=1> <it=  2> <et=10.57> <Mt= 0.00> <Spt= 0.00> <nCl=  0> <DB=   46.6000> <Mlp=   46.6000> <PB=1000000> 
<DWph=0> <it=  5> <et=10.70> <Mt= 0.00> <Spt= 0.13> <nCl=199> <DB=   46.6000> <Mlp=   46.6000> <PB=1000000> 
ColGenEvalAlg final dual bound: 46.6 (rounded: 47)
---- Diving heuristic node with dive number = 0, fix depth = 6 and tabu list size = 0
Fixed projected solution = [x_1_0_1_OspV=1, x_1_49_1_OspV=1, x_1_65_1_OspV=1]
<DWph=2> <it=  1> <et=10.71> <Mt= 0.00> <Spt= 0.00> <nCl=  0> <DB=   46.6000> <Mlp=   46.6000> <PB=1000000> 
<DWph=1> <it=  2> <et=10.71> <Mt= 0.01> <Spt= 0.00> <nCl=  0> <DB=   46.6000> <Mlp=   46.6000> <PB=1000000> 
<DWph=0> <it=  3> <et=10.71> <Mt= 0.00> <Spt= 0.00> <nCl=  0> <DB=   46.6000> <Mlp=   46.6000> <PB=1000000> 
ColGenEvalAlg final dual bound: 46.6 (rounded: 47)
---- Diving heuristic node with dive number = 0, fix depth = 6 and tabu list size = 0
Fixed projected solution = [x_1_0_1_OspV=1, x_1_27_1_OspV=1, x_1_82_1_OspV=1]
<DWph=2> <it=  1> <et=10.71> <Mt= 0.00> <Spt= 0.00> <nCl=  0> <DB=   46.6000> <Mlp=   46.6000> <PB=1000000> 
<DWph=1> <it=  2> <et=10.71> <Mt= 0.00> <Spt= 0.00> <nCl=  0> <DB=   46.6000> <Mlp=   46.6000> <PB=1000000> 
<DWph=0> <it=  3> <et=10.71> <Mt= 0.00> <Spt= 0.00> <nCl=  0> <DB=   46.6000> <Mlp=   46.6000> <PB=1000000> 
ColGenEvalAlg final dual bound: 46.6 (rounded: 47)
---- Diving heuristic node with dive number = 0, fix depth = 7 and tabu list size = 0
Fixed projected solution = [x_1_0_1_OspV=1, x_1_46_1_OspV=1, x_1_66_1_OspV=1]
<DWph=2> <it=  1> <et=10.72> <Mt= 0.00> <Spt= 0.00> <nCl=  0> <DB=   46.6000> <Mlp=   46.6000> <PB=1000000> 
<DWph=1> <it=  2> <et=10.72> <Mt= 0.00> <Spt= 0.00> <nCl=  0> <DB=   46.6000> <Mlp=   46.6000> <PB=1000000> 
<DWph=0> <it=  3> <et=10.72> <Mt= 0.00> <Spt= 0.00> <nCl=  0> <DB=   46.6000> <Mlp=   46.6000> <PB=1000000> 
ColGenEvalAlg final dual bound: 46.6 (rounded: 47)
---- Diving heuristic node with dive number = 0, fix depth = 8 and tabu list size = 0
Fixed projected solution = [x_1_0_1_OspV=1, x_1_6_1_OspV=1, x_1_50_1_OspV=1, x_1_55_1_OspV=1]
<DWph=2> <it=  3> <et=10.73> <Mt= 0.01> <Spt= 0.00> <nCl=  0> <DB=1600046.8333> <Mlp=1600046.8333> <PB=1000000> 
<DWph=1> <it=  4> <et=10.73> <Mt= 0.00> <Spt= 0.00> <nCl=  0> <DB=1600046.8333> <Mlp=1600046.8333> <PB=1000000> 
<DWph=0> <it=  7> <et=10.86> <Mt= 0.00> <Spt= 0.13> <nCl=200> <DB=   46.6667> <Mlp=   46.6667> <PB=1000000> 
ColGenEvalAlg final dual bound: 46.6667 (rounded: 47)
---- Diving heuristic node with dive number = 0, fix depth = 9 and tabu list size = 0
Fixed projected solution = [x_1_0_1_OspV=1, x_1_7_1_OspV=1, x_1_51_1_OspV=1, x_1_52_1_OspV=1]
<DWph=2> <it=  1> <et=10.87> <Mt= 0.01> <Spt= 0.00> <nCl=  0> <DB=3200046.3333> <Mlp=3200046.3333> <PB=1000000> 
<DWph=1> <it=  2> <et=10.87> <Mt= 0.00> <Spt= 0.00> <nCl=  0> <DB=3200046.3333> <Mlp=3200046.3333> <PB=1000000> 
<DWph=0> <it=  4> <et=10.92> <Mt= 0.00> <Spt= 0.05> <nCl=100> <DB=   46.6667> <Mlp=   47.0000> <PB=47> 
ColGenEvalAlg final dual bound: 46.6667 (rounded: 47)
New model incumbent solution 47, TIME = 0h0m11s1t = 1101
************************************************************************************************
Search is finished, global bounds : [ 47 , 47 ], TIME = 0h0m11s1t = 1101
************************************************************************************************
[32mBaPCod : solution defined.[00m
statistics_cols: instance & :Optimal & cutoff & :bcRecRootDb & :bcTimeRootEval & :bcCountNodeProc & :bcRecBestDb & :bcRecBestInc & :bcTimeMain \\
statistics: N102W1000001R1080Q2-001 & 1 & 1.0e6 & 47.00 & 6.07 & 1 & 47.00 & 47 & 11.02 \\
########################################################
bin_id=1: 122196(1) 426976(1) 448330(0) 
bin_id=2: 488857(1) 508848(0) 
bin_id=3: 480352(0) 506925(1) 
bin_id=4: 153873(0) 385051(1) 460018(0) 
bin_id=5: 404560(0) 587494(1) 
bin_id=6: 382783(0) 608460(1) 
bin_id=7: 407198(0) 588052(1) 
bin_id=8: 399263(1) 578054(0) 
bin_id=9: 139694(1) 424265(0) 425164(1) 
bin_id=10: 362468(0) 633121(1) 
bin_id=11: 349126(1) 635335(0) 
bin_id=12: 248303(0) 731809(1) 
bin_id=13: 445570(1) 515846(0) 
bin_id=14: 418800(1) 576875(0) 
bin_id=15: 253584(0) 736635(1) 
bin_id=16: 248579(0) 741205(1) 
bin_id=17: 332035(1) 654848(0) 
bin_id=18: 247789(0) 745119(1) 
bin_id=19: 333370(0) 646869(1) 
bin_id=20: 314872(0) 654054(1) 
bin_id=21: 313989(1) 659874(0) 
bin_id=22: 273359(0) 696490(1) 
bin_id=23: 270068(0) 669420(1) 
bin_id=24: 221094(0) 768346(1) 
bin_id=25: 181117(1) 786747(0) 
bin_id=26: 294332(1) 678135(0) 
bin_id=27: 257559(1) 719610(0) 
bin_id=28: 241121(1) 750604(0) 
bin_id=29: 130294(1) 283728(1) 584334(0) 
bin_id=30: 211082(1) 761516(0) 
bin_id=31: 204568(1) 764712(0) 
bin_id=32: 251075(1) 746539(0) 
bin_id=33: 275766(0) 719187(1) 
bin_id=34: 160476(0) 792913(1) 
bin_id=35: 201953(1) 782021(0) 
bin_id=36: 339698(0) 655772(1) 
bin_id=37: 331081(0) 668617(1) 
bin_id=38: 322561(0) 633416(1) 
bin_id=39: 109653(0) 123115(0) 760359(1) 
bin_id=40: 141521(0) 778226(1) 
bin_id=41: 294045(1) 656393(0) 
bin_id=42: 131074(1) 422393(0) 440481(0) 
bin_id=43: 203367(1) 773661(0) 
bin_id=44: 108417(1) 369800(0) 513795(0) 
bin_id=45: 165108(1) 173976(1) 655450(0) 
bin_id=46: 152687(1) 304612(1) 433771(0) 
bin_id=47: 670122(0) 
Objective value: 47.0
########################################################
