Application parameters:
  batch  =>  nothing
  instance  =>  "/IN/N2001W1000001R1080Q2-001"
  ub  =>  1.0e6
  cfg  =>  "/CFG/BPP.cfg"
data = Colored Bin Packing dataset.
number of items = 2001
number of colors = 2
capacity = 1000001
Items : 
	 item 1, weight= 100201, color= 0
	 item 2, weight= 100385, color= 0
	 item 3, weight= 100972, color= 0
	 item 4, weight= 100988, color= 0
	 item 5, weight= 101364, color= 1
	 item 6, weight= 101940, color= 1
	 item 7, weight= 102434, color= 1
	 item 8, weight= 102665, color= 0
	 item 9, weight= 103431, color= 0
	 item 10, weight= 103688, color= 1
	 item 11, weight= 104095, color= 0
	 item 12, weight= 104164, color= 1
	 item 13, weight= 104445, color= 1
	 item 14, weight= 104450, color= 1
	 item 15, weight= 105768, color= 0
	 item 16, weight= 106542, color= 1
	 item 17, weight= 106622, color= 1
	 item 18, weight= 106694, color= 0
	 item 19, weight= 107796, color= 1
	 item 20, weight= 108493, color= 1
	 item 21, weight= 109103, color= 0
	 item 22, weight= 109195, color= 0
	 item 23, weight= 109340, color= 1
	 item 24, weight= 109428, color= 1
	 item 25, weight= 109943, color= 1
	 item 26, weight= 110178, color= 0
	 item 27, weight= 110448, color= 1
	 item 28, weight= 110770, color= 0
	 item 29, weight= 111170, color= 0
	 item 30, weight= 111177, color= 0
	 item 31, weight= 111377, color= 1
	 item 32, weight= 111685, color= 1
	 item 33, weight= 112191, color= 1
	 item 34, weight= 112479, color= 1
	 item 35, weight= 113350, color= 1
	 item 36, weight= 114060, color= 1
	 item 37, weight= 114450, color= 1
	 item 38, weight= 114601, color= 1
	 item 39, weight= 114678, color= 0
	 item 40, weight= 115071, color= 1
	 item 41, weight= 115152, color= 1
	 item 42, weight= 115462, color= 1
	 item 43, weight= 115498, color= 1
	 item 44, weight= 115952, color= 0
	 item 45, weight= 116584, color= 0
	 item 46, weight= 117367, color= 1
	 item 47, weight= 117645, color= 1
	 item 48, weight= 117679, color= 1
	 item 49, weight= 118078, color= 0
	 item 50, weight= 118482, color= 1
	 item 51, weight= 118815, color= 0
	 item 52, weight= 118866, color= 0
	 item 53, weight= 118995, color= 1
	 item 54, weight= 119284, color= 1
	 item 55, weight= 119659, color= 0
	 item 56, weight= 119995, color= 1
	 item 57, weight= 120371, color= 1
	 item 58, weight= 120596, color= 1
	 item 59, weight= 120871, color= 0
	 item 60, weight= 121075, color= 0
	 item 61, weight= 121391, color= 1
	 item 62, weight= 121598, color= 1
	 item 63, weight= 122337, color= 1
	 item 64, weight= 122767, color= 0
	 item 65, weight= 123193, color= 0
	 item 66, weight= 123672, color= 1
	 item 67, weight= 123806, color= 0
	 item 68, weight= 123979, color= 0
	 item 69, weight= 124393, color= 1
	 item 70, weight= 124797, color= 0
	 item 71, weight= 125708, color= 1
	 item 72, weight= 126002, color= 1
	 item 73, weight= 126155, color= 1
	 item 74, weight= 126405, color= 1
	 item 75, weight= 126510, color= 0
	 item 76, weight= 127073, color= 0
	 item 77, weight= 127328, color= 0
	 item 78, weight= 127497, color= 1
	 item 79, weight= 127611, color= 0
	 item 80, weight= 127938, color= 1
	 item 81, weight= 128062, color= 1
	 item 82, weight= 128115, color= 1
	 item 83, weight= 128215, color= 1
	 item 84, weight= 128816, color= 1
	 item 85, weight= 128902, color= 1
	 item 86, weight= 129323, color= 1
	 item 87, weight= 129493, color= 1
	 item 88, weight= 131174, color= 1
	 item 89, weight= 131251, color= 1
	 item 90, weight= 131833, color= 1
	 item 91, weight= 132136, color= 0
	 item 92, weight= 132258, color= 0
	 item 93, weight= 132309, color= 0
	 item 94, weight= 133342, color= 0
	 item 95, weight= 133494, color= 1
	 item 96, weight= 133745, color= 1
	 item 97, weight= 133780, color= 0
	 item 98, weight= 133933, color= 0
	 item 99, weight= 135569, color= 1
	 item 100, weight= 135839, color= 1
	 item 101, weight= 136601, color= 0
	 item 102, weight= 137342, color= 1
	 item 103, weight= 137370, color= 1
	 item 104, weight= 137790, color= 1
	 item 105, weight= 138285, color= 1
	 item 106, weight= 138501, color= 0
	 item 107, weight= 139083, color= 1
	 item 108, weight= 139252, color= 0
	 item 109, weight= 139994, color= 0
	 item 110, weight= 141057, color= 1
	 item 111, weight= 141458, color= 1
	 item 112, weight= 142046, color= 0
	 item 113, weight= 142442, color= 1
	 item 114, weight= 142678, color= 1
	 item 115, weight= 142919, color= 1
	 item 116, weight= 142952, color= 1
	 item 117, weight= 143080, color= 0
	 item 118, weight= 143129, color= 1
	 item 119, weight= 143819, color= 1
	 item 120, weight= 144142, color= 1
	 item 121, weight= 144352, color= 0
	 item 122, weight= 144583, color= 0
	 item 123, weight= 145035, color= 0
	 item 124, weight= 145960, color= 0
	 item 125, weight= 146132, color= 1
	 item 126, weight= 146421, color= 1
	 item 127, weight= 146720, color= 1
	 item 128, weight= 147001, color= 1
	 item 129, weight= 148997, color= 0
	 item 130, weight= 149346, color= 0
	 item 131, weight= 149476, color= 0
	 item 132, weight= 149531, color= 0
	 item 133, weight= 149778, color= 0
	 item 134, weight= 150624, color= 0
	 item 135, weight= 150890, color= 1
	 item 136, weight= 151198, color= 0
	 item 137, weight= 151303, color= 1
	 item 138, weight= 151507, color= 1
	 item 139, weight= 151526, color= 0
	 item 140, weight= 151581, color= 0
	 item 141, weight= 151785, color= 0
	 item 142, weight= 151874, color= 1
	 item 143, weight= 152674, color= 1
	 item 144, weight= 152692, color= 0
	 item 145, weight= 152740, color= 0
	 item 146, weight= 152810, color= 1
	 item 147, weight= 153313, color= 1
	 item 148, weight= 153452, color= 1
	 item 149, weight= 153611, color= 1
	 item 150, weight= 153740, color= 1
	 item 151, weight= 153920, color= 1
	 item 152, weight= 154389, color= 0
	 item 153, weight= 154624, color= 0
	 item 154, weight= 154812, color= 0
	 item 155, weight= 154920, color= 1
	 item 156, weight= 154985, color= 1
	 item 157, weight= 154990, color= 1
	 item 158, weight= 155212, color= 0
	 item 159, weight= 156042, color= 0
	 item 160, weight= 156496, color= 1
	 item 161, weight= 157032, color= 1
	 item 162, weight= 157039, color= 1
	 item 163, weight= 157351, color= 0
	 item 164, weight= 158567, color= 1
	 item 165, weight= 159924, color= 1
	 item 166, weight= 160223, color= 0
	 item 167, weight= 160357, color= 1
	 item 168, weight= 160639, color= 0
	 item 169, weight= 160650, color= 0
	 item 170, weight= 161682, color= 0
	 item 171, weight= 162116, color= 0
	 item 172, weight= 162305, color= 0
	 item 173, weight= 162640, color= 0
	 item 174, weight= 163142, color= 1
	 item 175, weight= 163304, color= 1
	 item 176, weight= 163917, color= 0
	 item 177, weight= 164701, color= 1
	 item 178, weight= 164974, color= 1
	 item 179, weight= 165003, color= 0
	 item 180, weight= 165078, color= 0
	 item 181, weight= 165424, color= 0
	 item 182, weight= 165737, color= 0
	 item 183, weight= 165771, color= 0
	 item 184, weight= 165977, color= 0
	 item 185, weight= 166184, color= 1
	 item 186, weight= 166613, color= 1
	 item 187, weight= 166706, color= 0
	 item 188, weight= 167890, color= 0
	 item 189, weight= 168390, color= 1
	 item 190, weight= 168837, color= 1
	 item 191, weight= 168970, color= 0
	 item 192, weight= 168971, color= 1
	 item 193, weight= 170821, color= 1
	 item 194, weight= 171551, color= 0
	 item 195, weight= 172238, color= 1
	 item 196, weight= 172429, color= 1
	 item 197, weight= 172792, color= 0
	 item 198, weight= 172919, color= 0
	 item 199, weight= 173642, color= 0
	 item 200, weight= 174113, color= 1
	 item 201, weight= 174175, color= 1
	 item 202, weight= 174655, color= 1
	 item 203, weight= 175714, color= 1
	 item 204, weight= 175912, color= 0
	 item 205, weight= 177030, color= 0
	 item 206, weight= 177299, color= 0
	 item 207, weight= 178180, color= 1
	 item 208, weight= 179159, color= 1
	 item 209, weight= 179574, color= 1
	 item 210, weight= 179990, color= 1
	 item 211, weight= 180005, color= 0
	 item 212, weight= 180590, color= 1
	 item 213, weight= 180884, color= 1
	 item 214, weight= 180948, color= 1
	 item 215, weight= 180998, color= 0
	 item 216, weight= 181400, color= 1
	 item 217, weight= 181520, color= 0
	 item 218, weight= 181576, color= 1
	 item 219, weight= 181899, color= 0
	 item 220, weight= 182238, color= 1
	 item 221, weight= 182239, color= 1
	 item 222, weight= 182881, color= 1
	 item 223, weight= 182989, color= 0
	 item 224, weight= 183672, color= 0
	 item 225, weight= 184542, color= 1
	 item 226, weight= 184830, color= 0
	 item 227, weight= 184967, color= 1
	 item 228, weight= 184984, color= 0
	 item 229, weight= 185208, color= 0
	 item 230, weight= 185220, color= 0
	 item 231, weight= 185355, color= 1
	 item 232, weight= 185622, color= 1
	 item 233, weight= 186166, color= 1
	 item 234, weight= 186341, color= 1
	 item 235, weight= 186746, color= 0
	 item 236, weight= 187319, color= 1
	 item 237, weight= 187404, color= 1
	 item 238, weight= 187670, color= 0
	 item 239, weight= 187904, color= 1
	 item 240, weight= 188312, color= 1
	 item 241, weight= 188836, color= 0
	 item 242, weight= 188872, color= 0
	 item 243, weight= 188931, color= 0
	 item 244, weight= 189178, color= 1
	 item 245, weight= 190446, color= 1
	 item 246, weight= 191279, color= 1
	 item 247, weight= 191298, color= 0
	 item 248, weight= 191671, color= 1
	 item 249, weight= 191943, color= 0
	 item 250, weight= 192076, color= 0
	 item 251, weight= 192463, color= 1
	 item 252, weight= 192496, color= 1
	 item 253, weight= 192612, color= 1
	 item 254, weight= 193627, color= 0
	 item 255, weight= 194147, color= 1
	 item 256, weight= 194645, color= 0
	 item 257, weight= 194696, color= 0
	 item 258, weight= 194756, color= 0
	 item 259, weight= 195168, color= 1
	 item 260, weight= 195192, color= 1
	 item 261, weight= 195341, color= 0
	 item 262, weight= 195801, color= 0
	 item 263, weight= 195833, color= 0
	 item 264, weight= 196461, color= 0
	 item 265, weight= 196723, color= 1
	 item 266, weight= 196859, color= 0
	 item 267, weight= 197070, color= 0
	 item 268, weight= 197070, color= 1
	 item 269, weight= 197952, color= 0
	 item 270, weight= 198895, color= 0
	 item 271, weight= 199005, color= 1
	 item 272, weight= 199131, color= 0
	 item 273, weight= 199223, color= 0
	 item 274, weight= 199625, color= 1
	 item 275, weight= 199791, color= 0
	 item 276, weight= 200087, color= 0
	 item 277, weight= 200203, color= 1
	 item 278, weight= 200204, color= 0
	 item 279, weight= 200832, color= 1
	 item 280, weight= 201249, color= 0
	 item 281, weight= 201386, color= 0
	 item 282, weight= 201401, color= 0
	 item 283, weight= 201689, color= 0
	 item 284, weight= 202030, color= 0
	 item 285, weight= 202213, color= 0
	 item 286, weight= 204233, color= 0
	 item 287, weight= 204300, color= 1
	 item 288, weight= 204456, color= 0
	 item 289, weight= 204761, color= 1
	 item 290, weight= 204842, color= 0
	 item 291, weight= 204924, color= 0
	 item 292, weight= 204950, color= 1
	 item 293, weight= 205038, color= 0
	 item 294, weight= 205038, color= 1
	 item 295, weight= 205474, color= 1
	 item 296, weight= 205902, color= 0
	 item 297, weight= 206432, color= 1
	 item 298, weight= 207241, color= 0
	 item 299, weight= 207332, color= 1
	 item 300, weight= 207555, color= 0
	 item 301, weight= 207893, color= 0
	 item 302, weight= 208393, color= 0
	 item 303, weight= 209015, color= 1
	 item 304, weight= 209685, color= 1
	 item 305, weight= 209869, color= 1
	 item 306, weight= 210125, color= 0
	 item 307, weight= 210411, color= 1
	 item 308, weight= 211090, color= 1
	 item 309, weight= 211194, color= 1
	 item 310, weight= 211362, color= 0
	 item 311, weight= 212430, color= 1
	 item 312, weight= 212885, color= 0
	 item 313, weight= 213017, color= 1
	 item 314, weight= 213182, color= 1
	 item 315, weight= 213758, color= 1
	 item 316, weight= 214402, color= 1
	 item 317, weight= 214503, color= 1
	 item 318, weight= 214903, color= 0
	 item 319, weight= 215352, color= 1
	 item 320, weight= 215452, color= 0
	 item 321, weight= 215500, color= 1
	 item 322, weight= 215726, color= 1
	 item 323, weight= 215749, color= 0
	 item 324, weight= 216345, color= 1
	 item 325, weight= 216898, color= 0
	 item 326, weight= 216970, color= 0
	 item 327, weight= 217660, color= 1
	 item 328, weight= 217691, color= 1
	 item 329, weight= 217906, color= 1
	 item 330, weight= 218159, color= 1
	 item 331, weight= 218938, color= 1
	 item 332, weight= 219114, color= 0
	 item 333, weight= 219126, color= 1
	 item 334, weight= 219215, color= 0
	 item 335, weight= 219268, color= 1
	 item 336, weight= 219498, color= 0
	 item 337, weight= 219739, color= 0
	 item 338, weight= 219831, color= 0
	 item 339, weight= 220265, color= 1
	 item 340, weight= 220805, color= 0
	 item 341, weight= 220870, color= 1
	 item 342, weight= 221224, color= 0
	 item 343, weight= 222359, color= 0
	 item 344, weight= 222644, color= 1
	 item 345, weight= 222775, color= 0
	 item 346, weight= 222802, color= 0
	 item 347, weight= 222867, color= 1
	 item 348, weight= 223175, color= 1
	 item 349, weight= 223377, color= 0
	 item 350, weight= 224489, color= 1
	 item 351, weight= 224531, color= 1
	 item 352, weight= 224647, color= 0
	 item 353, weight= 225105, color= 1
	 item 354, weight= 225159, color= 0
	 item 355, weight= 225715, color= 1
	 item 356, weight= 226569, color= 0
	 item 357, weight= 226980, color= 1
	 item 358, weight= 227366, color= 0
	 item 359, weight= 227966, color= 1
	 item 360, weight= 228577, color= 1
	 item 361, weight= 228693, color= 0
	 item 362, weight= 229550, color= 0
	 item 363, weight= 229884, color= 0
	 item 364, weight= 229945, color= 1
	 item 365, weight= 230014, color= 1
	 item 366, weight= 230842, color= 0
	 item 367, weight= 230894, color= 1
	 item 368, weight= 230938, color= 0
	 item 369, weight= 231355, color= 1
	 item 370, weight= 231509, color= 0
	 item 371, weight= 231559, color= 1
	 item 372, weight= 231624, color= 0
	 item 373, weight= 231844, color= 1
	 item 374, weight= 233063, color= 0
	 item 375, weight= 233929, color= 1
	 item 376, weight= 235126, color= 1
	 item 377, weight= 235656, color= 1
	 item 378, weight= 236052, color= 1
	 item 379, weight= 237655, color= 1
	 item 380, weight= 237969, color= 1
	 item 381, weight= 238142, color= 1
	 item 382, weight= 238262, color= 1
	 item 383, weight= 238499, color= 1
	 item 384, weight= 238565, color= 1
	 item 385, weight= 238775, color= 0
	 item 386, weight= 238832, color= 1
	 item 387, weight= 239143, color= 0
	 item 388, weight= 239518, color= 1
	 item 389, weight= 239979, color= 0
	 item 390, weight= 240278, color= 0
	 item 391, weight= 240348, color= 1
	 item 392, weight= 240559, color= 1
	 item 393, weight= 240987, color= 0
	 item 394, weight= 241210, color= 1
	 item 395, weight= 241252, color= 0
	 item 396, weight= 242082, color= 1
	 item 397, weight= 242276, color= 1
	 item 398, weight= 243215, color= 0
	 item 399, weight= 243252, color= 0
	 item 400, weight= 243507, color= 1
	 item 401, weight= 243630, color= 1
	 item 402, weight= 243719, color= 0
	 item 403, weight= 243947, color= 0
	 item 404, weight= 244854, color= 0
	 item 405, weight= 245430, color= 1
	 item 406, weight= 245475, color= 1
	 item 407, weight= 245549, color= 1
	 item 408, weight= 246983, color= 0
	 item 409, weight= 247107, color= 0
	 item 410, weight= 247698, color= 1
	 item 411, weight= 248312, color= 0
	 item 412, weight= 248540, color= 1
	 item 413, weight= 248860, color= 0
	 item 414, weight= 249565, color= 1
	 item 415, weight= 249652, color= 1
	 item 416, weight= 250238, color= 1
	 item 417, weight= 250870, color= 1
	 item 418, weight= 251225, color= 1
	 item 419, weight= 251821, color= 1
	 item 420, weight= 251934, color= 0
	 item 421, weight= 252237, color= 0
	 item 422, weight= 252731, color= 1
	 item 423, weight= 253712, color= 1
	 item 424, weight= 254440, color= 0
	 item 425, weight= 254695, color= 1
	 item 426, weight= 255297, color= 1
	 item 427, weight= 255476, color= 1
	 item 428, weight= 255792, color= 1
	 item 429, weight= 255857, color= 1
	 item 430, weight= 256309, color= 1
	 item 431, weight= 256563, color= 1
	 item 432, weight= 256785, color= 1
	 item 433, weight= 256831, color= 1
	 item 434, weight= 257002, color= 1
	 item 435, weight= 257414, color= 1
	 item 436, weight= 257664, color= 0
	 item 437, weight= 257875, color= 1
	 item 438, weight= 257940, color= 0
	 item 439, weight= 258455, color= 1
	 item 440, weight= 258517, color= 0
	 item 441, weight= 259696, color= 1
	 item 442, weight= 260442, color= 0
	 item 443, weight= 260538, color= 1
	 item 444, weight= 260658, color= 0
	 item 445, weight= 261497, color= 1
	 item 446, weight= 261790, color= 1
	 item 447, weight= 262866, color= 0
	 item 448, weight= 263223, color= 1
	 item 449, weight= 263384, color= 1
	 item 450, weight= 263537, color= 0
	 item 451, weight= 263898, color= 0
	 item 452, weight= 263910, color= 1
	 item 453, weight= 264521, color= 1
	 item 454, weight= 264612, color= 1
	 item 455, weight= 267003, color= 0
	 item 456, weight= 267447, color= 0
	 item 457, weight= 267569, color= 0
	 item 458, weight= 267810, color= 1
	 item 459, weight= 269225, color= 0
	 item 460, weight= 269326, color= 1
	 item 461, weight= 270063, color= 1
	 item 462, weight= 270208, color= 1
	 item 463, weight= 270464, color= 1
	 item 464, weight= 271578, color= 1
	 item 465, weight= 272095, color= 0
	 item 466, weight= 272447, color= 1
	 item 467, weight= 273538, color= 1
	 item 468, weight= 274169, color= 0
	 item 469, weight= 274761, color= 0
	 item 470, weight= 274795, color= 1
	 item 471, weight= 274945, color= 0
	 item 472, weight= 275760, color= 0
	 item 473, weight= 275788, color= 0
	 item 474, weight= 276893, color= 0
	 item 475, weight= 276948, color= 0
	 item 476, weight= 277080, color= 1
	 item 477, weight= 277126, color= 0
	 item 478, weight= 277141, color= 0
	 item 479, weight= 277217, color= 0
	 item 480, weight= 277268, color= 1
	 item 481, weight= 277290, color= 0
	 item 482, weight= 277529, color= 1
	 item 483, weight= 277696, color= 1
	 item 484, weight= 277962, color= 1
	 item 485, weight= 278118, color= 1
	 item 486, weight= 278221, color= 0
	 item 487, weight= 278339, color= 0
	 item 488, weight= 279551, color= 1
	 item 489, weight= 280457, color= 1
	 item 490, weight= 280493, color= 0
	 item 491, weight= 281330, color= 1
	 item 492, weight= 281584, color= 0
	 item 493, weight= 281673, color= 0
	 item 494, weight= 281935, color= 1
	 item 495, weight= 282564, color= 0
	 item 496, weight= 283827, color= 1
	 item 497, weight= 283851, color= 1
	 item 498, weight= 284040, color= 1
	 item 499, weight= 284043, color= 1
	 item 500, weight= 284322, color= 1
	 item 501, weight= 285708, color= 1
	 item 502, weight= 285874, color= 1
	 item 503, weight= 285914, color= 1
	 item 504, weight= 285943, color= 0
	 item 505, weight= 286073, color= 0
	 item 506, weight= 286399, color= 0
	 item 507, weight= 286594, color= 1
	 item 508, weight= 288329, color= 1
	 item 509, weight= 288371, color= 0
	 item 510, weight= 288919, color= 1
	 item 511, weight= 289612, color= 1
	 item 512, weight= 289620, color= 0
	 item 513, weight= 289820, color= 1
	 item 514, weight= 291223, color= 0
	 item 515, weight= 291298, color= 0
	 item 516, weight= 292192, color= 1
	 item 517, weight= 292220, color= 0
	 item 518, weight= 293153, color= 0
	 item 519, weight= 293228, color= 1
	 item 520, weight= 293384, color= 0
	 item 521, weight= 293442, color= 1
	 item 522, weight= 294025, color= 0
	 item 523, weight= 294029, color= 1
	 item 524, weight= 294587, color= 0
	 item 525, weight= 295136, color= 0
	 item 526, weight= 296153, color= 0
	 item 527, weight= 296707, color= 0
	 item 528, weight= 297503, color= 1
	 item 529, weight= 297939, color= 0
	 item 530, weight= 298090, color= 0
	 item 531, weight= 298704, color= 1
	 item 532, weight= 299001, color= 0
	 item 533, weight= 299252, color= 0
	 item 534, weight= 299469, color= 1
	 item 535, weight= 299684, color= 0
	 item 536, weight= 299861, color= 0
	 item 537, weight= 300408, color= 0
	 item 538, weight= 300576, color= 0
	 item 539, weight= 300941, color= 0
	 item 540, weight= 301015, color= 0
	 item 541, weight= 302145, color= 0
	 item 542, weight= 302153, color= 0
	 item 543, weight= 302205, color= 0
	 item 544, weight= 302841, color= 0
	 item 545, weight= 302983, color= 1
	 item 546, weight= 303200, color= 0
	 item 547, weight= 303255, color= 0
	 item 548, weight= 303702, color= 1
	 item 549, weight= 303848, color= 0
	 item 550, weight= 303858, color= 0
	 item 551, weight= 304040, color= 0
	 item 552, weight= 304045, color= 0
	 item 553, weight= 304586, color= 1
	 item 554, weight= 304636, color= 0
	 item 555, weight= 304662, color= 1
	 item 556, weight= 305792, color= 0
	 item 557, weight= 306275, color= 1
	 item 558, weight= 306357, color= 1
	 item 559, weight= 306515, color= 0
	 item 560, weight= 306687, color= 0
	 item 561, weight= 307471, color= 0
	 item 562, weight= 307557, color= 0
	 item 563, weight= 308050, color= 1
	 item 564, weight= 308529, color= 1
	 item 565, weight= 308574, color= 0
	 item 566, weight= 308916, color= 0
	 item 567, weight= 309374, color= 1
	 item 568, weight= 309642, color= 0
	 item 569, weight= 309710, color= 0
	 item 570, weight= 309888, color= 0
	 item 571, weight= 310906, color= 1
	 item 572, weight= 311541, color= 0
	 item 573, weight= 311692, color= 0
	 item 574, weight= 311983, color= 0
	 item 575, weight= 312799, color= 1
	 item 576, weight= 313082, color= 1
	 item 577, weight= 313224, color= 1
	 item 578, weight= 313668, color= 1
	 item 579, weight= 313682, color= 0
	 item 580, weight= 313800, color= 0
	 item 581, weight= 313882, color= 1
	 item 582, weight= 313978, color= 0
	 item 583, weight= 314273, color= 1
	 item 584, weight= 315578, color= 0
	 item 585, weight= 316023, color= 1
	 item 586, weight= 316330, color= 0
	 item 587, weight= 316555, color= 0
	 item 588, weight= 316788, color= 1
	 item 589, weight= 317522, color= 1
	 item 590, weight= 318056, color= 0
	 item 591, weight= 318215, color= 0
	 item 592, weight= 318962, color= 0
	 item 593, weight= 319560, color= 0
	 item 594, weight= 319629, color= 1
	 item 595, weight= 319698, color= 1
	 item 596, weight= 319868, color= 0
	 item 597, weight= 320555, color= 1
	 item 598, weight= 320638, color= 0
	 item 599, weight= 320939, color= 0
	 item 600, weight= 321647, color= 1
	 item 601, weight= 323282, color= 0
	 item 602, weight= 323597, color= 1
	 item 603, weight= 323933, color= 0
	 item 604, weight= 324690, color= 0
	 item 605, weight= 325030, color= 1
	 item 606, weight= 325193, color= 1
	 item 607, weight= 325415, color= 0
	 item 608, weight= 325555, color= 0
	 item 609, weight= 325739, color= 0
	 item 610, weight= 325853, color= 0
	 item 611, weight= 325891, color= 0
	 item 612, weight= 326063, color= 1
	 item 613, weight= 326341, color= 0
	 item 614, weight= 326918, color= 1
	 item 615, weight= 326925, color= 0
	 item 616, weight= 327173, color= 1
	 item 617, weight= 327484, color= 0
	 item 618, weight= 327486, color= 0
	 item 619, weight= 327796, color= 0
	 item 620, weight= 328002, color= 1
	 item 621, weight= 328115, color= 1
	 item 622, weight= 328423, color= 1
	 item 623, weight= 328665, color= 1
	 item 624, weight= 329088, color= 0
	 item 625, weight= 329137, color= 0
	 item 626, weight= 329176, color= 0
	 item 627, weight= 329317, color= 0
	 item 628, weight= 329677, color= 1
	 item 629, weight= 329839, color= 1
	 item 630, weight= 330272, color= 0
	 item 631, weight= 330349, color= 1
	 item 632, weight= 330662, color= 1
	 item 633, weight= 330715, color= 0
	 item 634, weight= 331080, color= 0
	 item 635, weight= 331653, color= 1
	 item 636, weight= 331796, color= 0
	 item 637, weight= 331846, color= 0
	 item 638, weight= 332183, color= 1
	 item 639, weight= 332233, color= 0
	 item 640, weight= 332548, color= 0
	 item 641, weight= 333007, color= 0
	 item 642, weight= 333188, color= 0
	 item 643, weight= 333289, color= 0
	 item 644, weight= 333504, color= 1
	 item 645, weight= 333711, color= 0
	 item 646, weight= 334132, color= 0
	 item 647, weight= 334143, color= 1
	 item 648, weight= 334441, color= 0
	 item 649, weight= 334448, color= 0
	 item 650, weight= 334477, color= 0
	 item 651, weight= 334869, color= 1
	 item 652, weight= 335318, color= 0
	 item 653, weight= 336438, color= 1
	 item 654, weight= 337417, color= 1
	 item 655, weight= 337419, color= 0
	 item 656, weight= 337679, color= 1
	 item 657, weight= 339159, color= 1
	 item 658, weight= 339392, color= 0
	 item 659, weight= 340969, color= 0
	 item 660, weight= 341163, color= 1
	 item 661, weight= 341780, color= 0
	 item 662, weight= 342180, color= 0
	 item 663, weight= 342517, color= 0
	 item 664, weight= 342857, color= 1
	 item 665, weight= 343047, color= 0
	 item 666, weight= 343183, color= 0
	 item 667, weight= 343349, color= 0
	 item 668, weight= 344596, color= 0
	 item 669, weight= 344916, color= 0
	 item 670, weight= 346031, color= 0
	 item 671, weight= 346240, color= 0
	 item 672, weight= 346511, color= 0
	 item 673, weight= 346683, color= 1
	 item 674, weight= 346918, color= 1
	 item 675, weight= 346989, color= 1
	 item 676, weight= 346998, color= 0
	 item 677, weight= 347286, color= 0
	 item 678, weight= 348300, color= 0
	 item 679, weight= 349233, color= 0
	 item 680, weight= 349632, color= 0
	 item 681, weight= 349712, color= 0
	 item 682, weight= 350218, color= 1
	 item 683, weight= 350873, color= 0
	 item 684, weight= 351648, color= 0
	 item 685, weight= 351756, color= 1
	 item 686, weight= 351776, color= 0
	 item 687, weight= 351991, color= 1
	 item 688, weight= 352029, color= 0
	 item 689, weight= 352315, color= 0
	 item 690, weight= 352797, color= 1
	 item 691, weight= 352877, color= 0
	 item 692, weight= 352897, color= 0
	 item 693, weight= 353058, color= 1
	 item 694, weight= 353400, color= 1
	 item 695, weight= 353607, color= 1
	 item 696, weight= 353773, color= 1
	 item 697, weight= 353915, color= 1
	 item 698, weight= 354063, color= 0
	 item 699, weight= 354110, color= 1
	 item 700, weight= 354137, color= 0
	 item 701, weight= 354143, color= 0
	 item 702, weight= 354287, color= 0
	 item 703, weight= 355216, color= 0
	 item 704, weight= 355399, color= 0
	 item 705, weight= 355403, color= 0
	 item 706, weight= 355445, color= 0
	 item 707, weight= 355733, color= 1
	 item 708, weight= 355737, color= 1
	 item 709, weight= 356160, color= 0
	 item 710, weight= 356807, color= 1
	 item 711, weight= 357059, color= 0
	 item 712, weight= 357886, color= 0
	 item 713, weight= 358283, color= 0
	 item 714, weight= 358652, color= 1
	 item 715, weight= 359405, color= 0
	 item 716, weight= 359508, color= 1
	 item 717, weight= 360479, color= 1
	 item 718, weight= 360501, color= 1
	 item 719, weight= 360625, color= 1
	 item 720, weight= 360799, color= 1
	 item 721, weight= 360932, color= 0
	 item 722, weight= 361029, color= 1
	 item 723, weight= 361118, color= 0
	 item 724, weight= 361226, color= 1
	 item 725, weight= 361439, color= 0
	 item 726, weight= 361441, color= 0
	 item 727, weight= 361893, color= 1
	 item 728, weight= 362102, color= 0
	 item 729, weight= 362830, color= 0
	 item 730, weight= 362872, color= 1
	 item 731, weight= 363098, color= 0
	 item 732, weight= 363339, color= 0
	 item 733, weight= 363387, color= 0
	 item 734, weight= 364013, color= 0
	 item 735, weight= 364334, color= 0
	 item 736, weight= 364561, color= 1
	 item 737, weight= 364735, color= 0
	 item 738, weight= 364868, color= 0
	 item 739, weight= 365435, color= 0
	 item 740, weight= 365477, color= 0
	 item 741, weight= 365532, color= 0
	 item 742, weight= 365643, color= 0
	 item 743, weight= 366577, color= 0
	 item 744, weight= 366694, color= 0
	 item 745, weight= 366874, color= 1
	 item 746, weight= 367987, color= 1
	 item 747, weight= 368195, color= 0
	 item 748, weight= 368332, color= 0
	 item 749, weight= 368544, color= 0
	 item 750, weight= 369412, color= 1
	 item 751, weight= 369602, color= 0
	 item 752, weight= 369692, color= 1
	 item 753, weight= 369756, color= 1
	 item 754, weight= 369784, color= 1
	 item 755, weight= 370466, color= 0
	 item 756, weight= 370605, color= 1
	 item 757, weight= 370733, color= 0
	 item 758, weight= 370839, color= 1
	 item 759, weight= 371182, color= 0
	 item 760, weight= 371616, color= 0
	 item 761, weight= 371790, color= 0
	 item 762, weight= 371821, color= 0
	 item 763, weight= 372688, color= 1
	 item 764, weight= 373189, color= 1
	 item 765, weight= 373311, color= 0
	 item 766, weight= 373741, color= 0
	 item 767, weight= 373924, color= 0
	 item 768, weight= 374112, color= 1
	 item 769, weight= 374205, color= 0
	 item 770, weight= 374244, color= 0
	 item 771, weight= 374423, color= 1
	 item 772, weight= 374563, color= 1
	 item 773, weight= 374880, color= 0
	 item 774, weight= 374978, color= 1
	 item 775, weight= 375490, color= 0
	 item 776, weight= 375664, color= 1
	 item 777, weight= 375965, color= 0
	 item 778, weight= 376132, color= 1
	 item 779, weight= 376228, color= 0
	 item 780, weight= 376522, color= 0
	 item 781, weight= 376732, color= 0
	 item 782, weight= 376750, color= 1
	 item 783, weight= 376754, color= 1
	 item 784, weight= 377163, color= 1
	 item 785, weight= 377184, color= 1
	 item 786, weight= 377484, color= 1
	 item 787, weight= 377886, color= 0
	 item 788, weight= 378101, color= 0
	 item 789, weight= 378344, color= 1
	 item 790, weight= 378665, color= 1
	 item 791, weight= 378898, color= 1
	 item 792, weight= 378900, color= 1
	 item 793, weight= 379304, color= 1
	 item 794, weight= 379476, color= 1
	 item 795, weight= 379648, color= 1
	 item 796, weight= 379839, color= 1
	 item 797, weight= 379959, color= 1
	 item 798, weight= 379970, color= 1
	 item 799, weight= 380062, color= 0
	 item 800, weight= 380205, color= 0
	 item 801, weight= 380512, color= 0
	 item 802, weight= 380533, color= 0
	 item 803, weight= 380534, color= 1
	 item 804, weight= 380620, color= 0
	 item 805, weight= 380706, color= 0
	 item 806, weight= 380712, color= 1
	 item 807, weight= 380841, color= 0
	 item 808, weight= 380979, color= 0
	 item 809, weight= 381045, color= 1
	 item 810, weight= 381074, color= 0
	 item 811, weight= 381340, color= 1
	 item 812, weight= 381427, color= 1
	 item 813, weight= 381504, color= 0
	 item 814, weight= 381523, color= 1
	 item 815, weight= 381656, color= 0
	 item 816, weight= 381949, color= 1
	 item 817, weight= 381993, color= 0
	 item 818, weight= 382756, color= 1
	 item 819, weight= 383491, color= 0
	 item 820, weight= 383838, color= 1
	 item 821, weight= 384534, color= 0
	 item 822, weight= 384713, color= 1
	 item 823, weight= 384944, color= 1
	 item 824, weight= 385540, color= 1
	 item 825, weight= 385856, color= 0
	 item 826, weight= 386059, color= 1
	 item 827, weight= 386205, color= 1
	 item 828, weight= 386626, color= 0
	 item 829, weight= 386841, color= 0
	 item 830, weight= 387003, color= 1
	 item 831, weight= 387373, color= 0
	 item 832, weight= 387660, color= 1
	 item 833, weight= 388178, color= 1
	 item 834, weight= 388392, color= 1
	 item 835, weight= 388551, color= 1
	 item 836, weight= 389005, color= 1
	 item 837, weight= 389218, color= 0
	 item 838, weight= 390557, color= 1
	 item 839, weight= 393583, color= 0
	 item 840, weight= 393713, color= 1
	 item 841, weight= 394441, color= 1
	 item 842, weight= 394700, color= 0
	 item 843, weight= 394908, color= 0
	 item 844, weight= 395413, color= 1
	 item 845, weight= 395488, color= 0
	 item 846, weight= 396035, color= 1
	 item 847, weight= 396454, color= 0
	 item 848, weight= 396991, color= 0
	 item 849, weight= 397179, color= 1
	 item 850, weight= 397227, color= 0
	 item 851, weight= 397259, color= 1
	 item 852, weight= 397396, color= 0
	 item 853, weight= 397544, color= 0
	 item 854, weight= 397602, color= 0
	 item 855, weight= 397807, color= 1
	 item 856, weight= 399538, color= 1
	 item 857, weight= 399808, color= 0
	 item 858, weight= 400125, color= 0
	 item 859, weight= 400418, color= 0
	 item 860, weight= 401097, color= 1
	 item 861, weight= 401118, color= 0
	 item 862, weight= 401508, color= 0
	 item 863, weight= 401877, color= 1
	 item 864, weight= 401952, color= 1
	 item 865, weight= 402328, color= 1
	 item 866, weight= 403040, color= 0
	 item 867, weight= 403580, color= 1
	 item 868, weight= 403858, color= 0
	 item 869, weight= 405668, color= 1
	 item 870, weight= 405874, color= 1
	 item 871, weight= 406195, color= 1
	 item 872, weight= 407581, color= 0
	 item 873, weight= 408033, color= 0
	 item 874, weight= 409076, color= 0
	 item 875, weight= 409838, color= 0
	 item 876, weight= 410231, color= 1
	 item 877, weight= 410919, color= 1
	 item 878, weight= 411097, color= 1
	 item 879, weight= 412105, color= 1
	 item 880, weight= 412407, color= 1
	 item 881, weight= 412577, color= 0
	 item 882, weight= 413531, color= 0
	 item 883, weight= 413552, color= 0
	 item 884, weight= 413865, color= 1
	 item 885, weight= 414196, color= 1
	 item 886, weight= 414278, color= 1
	 item 887, weight= 414568, color= 0
	 item 888, weight= 414931, color= 1
	 item 889, weight= 415235, color= 1
	 item 890, weight= 415552, color= 0
	 item 891, weight= 415670, color= 0
	 item 892, weight= 415802, color= 0
	 item 893, weight= 416127, color= 1
	 item 894, weight= 416617, color= 1
	 item 895, weight= 417312, color= 1
	 item 896, weight= 417507, color= 0
	 item 897, weight= 418066, color= 1
	 item 898, weight= 418111, color= 0
	 item 899, weight= 418113, color= 1
	 item 900, weight= 418195, color= 0
	 item 901, weight= 418492, color= 0
	 item 902, weight= 418542, color= 0
	 item 903, weight= 418608, color= 0
	 item 904, weight= 418633, color= 1
	 item 905, weight= 419538, color= 1
	 item 906, weight= 419668, color= 1
	 item 907, weight= 419678, color= 0
	 item 908, weight= 419959, color= 0
	 item 909, weight= 420052, color= 0
	 item 910, weight= 420493, color= 1
	 item 911, weight= 420496, color= 1
	 item 912, weight= 420763, color= 1
	 item 913, weight= 420799, color= 1
	 item 914, weight= 421106, color= 1
	 item 915, weight= 421317, color= 1
	 item 916, weight= 421739, color= 0
	 item 917, weight= 422592, color= 1
	 item 918, weight= 423467, color= 0
	 item 919, weight= 423500, color= 1
	 item 920, weight= 424115, color= 1
	 item 921, weight= 424168, color= 0
	 item 922, weight= 424279, color= 1
	 item 923, weight= 424694, color= 1
	 item 924, weight= 425548, color= 0
	 item 925, weight= 426210, color= 0
	 item 926, weight= 426630, color= 1
	 item 927, weight= 427499, color= 0
	 item 928, weight= 427570, color= 1
	 item 929, weight= 427683, color= 0
	 item 930, weight= 427686, color= 1
	 item 931, weight= 428716, color= 1
	 item 932, weight= 428958, color= 1
	 item 933, weight= 429054, color= 0
	 item 934, weight= 429431, color= 0
	 item 935, weight= 429441, color= 0
	 item 936, weight= 429937, color= 0
	 item 937, weight= 430436, color= 0
	 item 938, weight= 430508, color= 1
	 item 939, weight= 430537, color= 0
	 item 940, weight= 430654, color= 0
	 item 941, weight= 431507, color= 0
	 item 942, weight= 431702, color= 1
	 item 943, weight= 432267, color= 1
	 item 944, weight= 432565, color= 1
	 item 945, weight= 433011, color= 0
	 item 946, weight= 433037, color= 1
	 item 947, weight= 433144, color= 1
	 item 948, weight= 433254, color= 1
	 item 949, weight= 433401, color= 0
	 item 950, weight= 433909, color= 0
	 item 951, weight= 434390, color= 0
	 item 952, weight= 434723, color= 0
	 item 953, weight= 435006, color= 1
	 item 954, weight= 435057, color= 1
	 item 955, weight= 435107, color= 0
	 item 956, weight= 435272, color= 0
	 item 957, weight= 435339, color= 0
	 item 958, weight= 435744, color= 0
	 item 959, weight= 435836, color= 0
	 item 960, weight= 435862, color= 1
	 item 961, weight= 436740, color= 1
	 item 962, weight= 437043, color= 0
	 item 963, weight= 437076, color= 0
	 item 964, weight= 437301, color= 0
	 item 965, weight= 437880, color= 0
	 item 966, weight= 437996, color= 1
	 item 967, weight= 438032, color= 1
	 item 968, weight= 438115, color= 1
	 item 969, weight= 439194, color= 0
	 item 970, weight= 439266, color= 0
	 item 971, weight= 439335, color= 1
	 item 972, weight= 439581, color= 1
	 item 973, weight= 439660, color= 1
	 item 974, weight= 440000, color= 1
	 item 975, weight= 440055, color= 1
	 item 976, weight= 440728, color= 0
	 item 977, weight= 441212, color= 1
	 item 978, weight= 441473, color= 1
	 item 979, weight= 441683, color= 1
	 item 980, weight= 441996, color= 0
	 item 981, weight= 442166, color= 0
	 item 982, weight= 442309, color= 1
	 item 983, weight= 442716, color= 1
	 item 984, weight= 442779, color= 0
	 item 985, weight= 442896, color= 0
	 item 986, weight= 443770, color= 0
	 item 987, weight= 444549, color= 0
	 item 988, weight= 444908, color= 0
	 item 989, weight= 444987, color= 1
	 item 990, weight= 445003, color= 0
	 item 991, weight= 445106, color= 0
	 item 992, weight= 445151, color= 0
	 item 993, weight= 446028, color= 1
	 item 994, weight= 446372, color= 1
	 item 995, weight= 446518, color= 1
	 item 996, weight= 446549, color= 0
	 item 997, weight= 446989, color= 1
	 item 998, weight= 447177, color= 1
	 item 999, weight= 447661, color= 0
	 item 1000, weight= 447982, color= 0
	 item 1001, weight= 448280, color= 0
	 item 1002, weight= 448346, color= 1
	 item 1003, weight= 449231, color= 0
	 item 1004, weight= 449555, color= 0
	 item 1005, weight= 449588, color= 1
	 item 1006, weight= 450378, color= 0
	 item 1007, weight= 450404, color= 0
	 item 1008, weight= 450446, color= 1
	 item 1009, weight= 450770, color= 0
	 item 1010, weight= 450774, color= 0
	 item 1011, weight= 451017, color= 0
	 item 1012, weight= 451194, color= 0
	 item 1013, weight= 451259, color= 1
	 item 1014, weight= 451574, color= 0
	 item 1015, weight= 452088, color= 0
	 item 1016, weight= 452432, color= 1
	 item 1017, weight= 452917, color= 0
	 item 1018, weight= 453554, color= 1
	 item 1019, weight= 454359, color= 0
	 item 1020, weight= 454608, color= 1
	 item 1021, weight= 454685, color= 0
	 item 1022, weight= 454784, color= 1
	 item 1023, weight= 454792, color= 1
	 item 1024, weight= 455165, color= 0
	 item 1025, weight= 455319, color= 0
	 item 1026, weight= 455475, color= 0
	 item 1027, weight= 455660, color= 1
	 item 1028, weight= 456013, color= 1
	 item 1029, weight= 456359, color= 1
	 item 1030, weight= 457041, color= 0
	 item 1031, weight= 457337, color= 1
	 item 1032, weight= 457376, color= 0
	 item 1033, weight= 457733, color= 1
	 item 1034, weight= 458038, color= 1
	 item 1035, weight= 458770, color= 1
	 item 1036, weight= 458796, color= 0
	 item 1037, weight= 459296, color= 1
	 item 1038, weight= 459399, color= 0
	 item 1039, weight= 459674, color= 0
	 item 1040, weight= 460623, color= 0
	 item 1041, weight= 460904, color= 1
	 item 1042, weight= 461582, color= 0
	 item 1043, weight= 461624, color= 1
	 item 1044, weight= 461664, color= 1
	 item 1045, weight= 461855, color= 0
	 item 1046, weight= 462090, color= 0
	 item 1047, weight= 462140, color= 1
	 item 1048, weight= 462665, color= 1
	 item 1049, weight= 463118, color= 1
	 item 1050, weight= 464046, color= 0
	 item 1051, weight= 464085, color= 1
	 item 1052, weight= 464244, color= 0
	 item 1053, weight= 464284, color= 1
	 item 1054, weight= 465068, color= 1
	 item 1055, weight= 465180, color= 1
	 item 1056, weight= 465533, color= 1
	 item 1057, weight= 466016, color= 1
	 item 1058, weight= 466137, color= 1
	 item 1059, weight= 466915, color= 0
	 item 1060, weight= 467356, color= 1
	 item 1061, weight= 467537, color= 1
	 item 1062, weight= 467702, color= 1
	 item 1063, weight= 468145, color= 0
	 item 1064, weight= 469312, color= 1
	 item 1065, weight= 469336, color= 0
	 item 1066, weight= 469841, color= 0
	 item 1067, weight= 470049, color= 0
	 item 1068, weight= 470104, color= 0
	 item 1069, weight= 470139, color= 0
	 item 1070, weight= 470353, color= 1
	 item 1071, weight= 470529, color= 0
	 item 1072, weight= 471312, color= 0
	 item 1073, weight= 472820, color= 0
	 item 1074, weight= 472978, color= 0
	 item 1075, weight= 473129, color= 0
	 item 1076, weight= 473884, color= 0
	 item 1077, weight= 474006, color= 1
	 item 1078, weight= 474487, color= 0
	 item 1079, weight= 474870, color= 0
	 item 1080, weight= 475035, color= 1
	 item 1081, weight= 475073, color= 0
	 item 1082, weight= 475313, color= 0
	 item 1083, weight= 475786, color= 0
	 item 1084, weight= 476738, color= 1
	 item 1085, weight= 477525, color= 1
	 item 1086, weight= 477559, color= 1
	 item 1087, weight= 477678, color= 0
	 item 1088, weight= 477769, color= 1
	 item 1089, weight= 478016, color= 0
	 item 1090, weight= 478226, color= 1
	 item 1091, weight= 478575, color= 1
	 item 1092, weight= 478845, color= 0
	 item 1093, weight= 478947, color= 1
	 item 1094, weight= 479270, color= 1
	 item 1095, weight= 479449, color= 1
	 item 1096, weight= 479476, color= 0
	 item 1097, weight= 479508, color= 1
	 item 1098, weight= 480035, color= 0
	 item 1099, weight= 480140, color= 0
	 item 1100, weight= 480218, color= 0
	 item 1101, weight= 480235, color= 1
	 item 1102, weight= 480561, color= 1
	 item 1103, weight= 481031, color= 1
	 item 1104, weight= 481154, color= 1
	 item 1105, weight= 481202, color= 1
	 item 1106, weight= 481887, color= 0
	 item 1107, weight= 482295, color= 1
	 item 1108, weight= 482686, color= 0
	 item 1109, weight= 484657, color= 0
	 item 1110, weight= 484762, color= 0
	 item 1111, weight= 484775, color= 0
	 item 1112, weight= 485196, color= 0
	 item 1113, weight= 485367, color= 0
	 item 1114, weight= 485654, color= 1
	 item 1115, weight= 485671, color= 0
	 item 1116, weight= 485728, color= 1
	 item 1117, weight= 485913, color= 1
	 item 1118, weight= 486434, color= 1
	 item 1119, weight= 486795, color= 0
	 item 1120, weight= 487158, color= 1
	 item 1121, weight= 487527, color= 0
	 item 1122, weight= 487818, color= 1
	 item 1123, weight= 487993, color= 0
	 item 1124, weight= 488065, color= 0
	 item 1125, weight= 488865, color= 0
	 item 1126, weight= 489338, color= 0
	 item 1127, weight= 489474, color= 1
	 item 1128, weight= 489905, color= 0
	 item 1129, weight= 490618, color= 1
	 item 1130, weight= 491542, color= 0
	 item 1131, weight= 491598, color= 0
	 item 1132, weight= 491702, color= 0
	 item 1133, weight= 491747, color= 0
	 item 1134, weight= 491800, color= 0
	 item 1135, weight= 492465, color= 1
	 item 1136, weight= 492974, color= 1
	 item 1137, weight= 493227, color= 0
	 item 1138, weight= 493550, color= 1
	 item 1139, weight= 493655, color= 1
	 item 1140, weight= 493812, color= 0
	 item 1141, weight= 494342, color= 0
	 item 1142, weight= 494619, color= 1
	 item 1143, weight= 494781, color= 1
	 item 1144, weight= 495047, color= 1
	 item 1145, weight= 496065, color= 1
	 item 1146, weight= 496128, color= 1
	 item 1147, weight= 496196, color= 0
	 item 1148, weight= 496539, color= 1
	 item 1149, weight= 496700, color= 1
	 item 1150, weight= 497577, color= 1
	 item 1151, weight= 497983, color= 0
	 item 1152, weight= 498127, color= 1
	 item 1153, weight= 498354, color= 1
	 item 1154, weight= 499623, color= 0
	 item 1155, weight= 499631, color= 0
	 item 1156, weight= 499638, color= 1
	 item 1157, weight= 499872, color= 0
	 item 1158, weight= 499918, color= 1
	 item 1159, weight= 500700, color= 1
	 item 1160, weight= 501689, color= 0
	 item 1161, weight= 502511, color= 1
	 item 1162, weight= 503384, color= 0
	 item 1163, weight= 503962, color= 0
	 item 1164, weight= 504894, color= 0
	 item 1165, weight= 505418, color= 0
	 item 1166, weight= 505607, color= 1
	 item 1167, weight= 505752, color= 1
	 item 1168, weight= 505931, color= 0
	 item 1169, weight= 505957, color= 1
	 item 1170, weight= 506178, color= 0
	 item 1171, weight= 506677, color= 0
	 item 1172, weight= 506723, color= 1
	 item 1173, weight= 506959, color= 0
	 item 1174, weight= 506979, color= 0
	 item 1175, weight= 507019, color= 1
	 item 1176, weight= 507718, color= 1
	 item 1177, weight= 508772, color= 1
	 item 1178, weight= 508915, color= 0
	 item 1179, weight= 508938, color= 0
	 item 1180, weight= 511985, color= 1
	 item 1181, weight= 512618, color= 0
	 item 1182, weight= 512892, color= 0
	 item 1183, weight= 513237, color= 0
	 item 1184, weight= 513342, color= 1
	 item 1185, weight= 513976, color= 1
	 item 1186, weight= 514164, color= 1
	 item 1187, weight= 514621, color= 0
	 item 1188, weight= 514796, color= 1
	 item 1189, weight= 515128, color= 1
	 item 1190, weight= 515184, color= 0
	 item 1191, weight= 515375, color= 1
	 item 1192, weight= 515490, color= 0
	 item 1193, weight= 516092, color= 1
	 item 1194, weight= 516774, color= 0
	 item 1195, weight= 516783, color= 1
	 item 1196, weight= 517084, color= 1
	 item 1197, weight= 517350, color= 0
	 item 1198, weight= 517937, color= 1
	 item 1199, weight= 519022, color= 1
	 item 1200, weight= 519050, color= 1
	 item 1201, weight= 519222, color= 1
	 item 1202, weight= 519616, color= 0
	 item 1203, weight= 519650, color= 0
	 item 1204, weight= 519850, color= 0
	 item 1205, weight= 519969, color= 0
	 item 1206, weight= 520176, color= 0
	 item 1207, weight= 520388, color= 0
	 item 1208, weight= 520626, color= 0
	 item 1209, weight= 520954, color= 1
	 item 1210, weight= 521114, color= 1
	 item 1211, weight= 522754, color= 0
	 item 1212, weight= 522857, color= 0
	 item 1213, weight= 523006, color= 1
	 item 1214, weight= 523071, color= 1
	 item 1215, weight= 523360, color= 0
	 item 1216, weight= 524601, color= 0
	 item 1217, weight= 524710, color= 0
	 item 1218, weight= 524972, color= 0
	 item 1219, weight= 525423, color= 1
	 item 1220, weight= 526399, color= 1
	 item 1221, weight= 526803, color= 1
	 item 1222, weight= 527196, color= 0
	 item 1223, weight= 528213, color= 0
	 item 1224, weight= 528427, color= 0
	 item 1225, weight= 528431, color= 0
	 item 1226, weight= 529627, color= 0
	 item 1227, weight= 529675, color= 0
	 item 1228, weight= 530388, color= 1
	 item 1229, weight= 530505, color= 0
	 item 1230, weight= 530782, color= 1
	 item 1231, weight= 530805, color= 1
	 item 1232, weight= 531301, color= 0
	 item 1233, weight= 531417, color= 1
	 item 1234, weight= 531495, color= 1
	 item 1235, weight= 531567, color= 1
	 item 1236, weight= 531641, color= 1
	 item 1237, weight= 532210, color= 0
	 item 1238, weight= 532367, color= 0
	 item 1239, weight= 532563, color= 1
	 item 1240, weight= 532693, color= 0
	 item 1241, weight= 533548, color= 0
	 item 1242, weight= 533785, color= 1
	 item 1243, weight= 534030, color= 1
	 item 1244, weight= 534372, color= 1
	 item 1245, weight= 535504, color= 1
	 item 1246, weight= 536292, color= 1
	 item 1247, weight= 536474, color= 1
	 item 1248, weight= 536536, color= 1
	 item 1249, weight= 536929, color= 0
	 item 1250, weight= 536957, color= 1
	 item 1251, weight= 537454, color= 0
	 item 1252, weight= 538227, color= 0
	 item 1253, weight= 538874, color= 0
	 item 1254, weight= 540264, color= 0
	 item 1255, weight= 540888, color= 0
	 item 1256, weight= 541316, color= 0
	 item 1257, weight= 541452, color= 1
	 item 1258, weight= 541690, color= 1
	 item 1259, weight= 541865, color= 0
	 item 1260, weight= 542647, color= 0
	 item 1261, weight= 542759, color= 1
	 item 1262, weight= 542796, color= 0
	 item 1263, weight= 542877, color= 1
	 item 1264, weight= 543177, color= 1
	 item 1265, weight= 543242, color= 1
	 item 1266, weight= 543477, color= 1
	 item 1267, weight= 543782, color= 1
	 item 1268, weight= 543849, color= 1
	 item 1269, weight= 544271, color= 1
	 item 1270, weight= 544955, color= 0
	 item 1271, weight= 545387, color= 1
	 item 1272, weight= 545757, color= 1
	 item 1273, weight= 546699, color= 1
	 item 1274, weight= 546791, color= 0
	 item 1275, weight= 546831, color= 0
	 item 1276, weight= 547098, color= 1
	 item 1277, weight= 547201, color= 0
	 item 1278, weight= 547329, color= 1
	 item 1279, weight= 547660, color= 1
	 item 1280, weight= 547759, color= 0
	 item 1281, weight= 547881, color= 0
	 item 1282, weight= 547882, color= 1
	 item 1283, weight= 547909, color= 1
	 item 1284, weight= 548309, color= 1
	 item 1285, weight= 548538, color= 0
	 item 1286, weight= 548959, color= 0
	 item 1287, weight= 549066, color= 1
	 item 1288, weight= 549135, color= 0
	 item 1289, weight= 549373, color= 1
	 item 1290, weight= 551215, color= 0
	 item 1291, weight= 551408, color= 0
	 item 1292, weight= 551640, color= 1
	 item 1293, weight= 552312, color= 0
	 item 1294, weight= 552422, color= 0
	 item 1295, weight= 552662, color= 0
	 item 1296, weight= 552759, color= 1
	 item 1297, weight= 552942, color= 0
	 item 1298, weight= 553103, color= 0
	 item 1299, weight= 553503, color= 0
	 item 1300, weight= 553613, color= 1
	 item 1301, weight= 553635, color= 0
	 item 1302, weight= 553920, color= 1
	 item 1303, weight= 554537, color= 0
	 item 1304, weight= 554568, color= 0
	 item 1305, weight= 554602, color= 0
	 item 1306, weight= 555072, color= 1
	 item 1307, weight= 555081, color= 0
	 item 1308, weight= 555088, color= 0
	 item 1309, weight= 555499, color= 0
	 item 1310, weight= 555985, color= 1
	 item 1311, weight= 556332, color= 0
	 item 1312, weight= 557182, color= 1
	 item 1313, weight= 557357, color= 0
	 item 1314, weight= 557363, color= 1
	 item 1315, weight= 557438, color= 1
	 item 1316, weight= 557583, color= 1
	 item 1317, weight= 557996, color= 0
	 item 1318, weight= 558252, color= 1
	 item 1319, weight= 558711, color= 1
	 item 1320, weight= 558928, color= 0
	 item 1321, weight= 558973, color= 1
	 item 1322, weight= 559873, color= 1
	 item 1323, weight= 559912, color= 1
	 item 1324, weight= 560056, color= 0
	 item 1325, weight= 560387, color= 0
	 item 1326, weight= 560430, color= 1
	 item 1327, weight= 560437, color= 0
	 item 1328, weight= 560626, color= 1
	 item 1329, weight= 560656, color= 0
	 item 1330, weight= 560813, color= 1
	 item 1331, weight= 562224, color= 1
	 item 1332, weight= 562269, color= 1
	 item 1333, weight= 562470, color= 0
	 item 1334, weight= 562867, color= 0
	 item 1335, weight= 563161, color= 1
	 item 1336, weight= 563338, color= 1
	 item 1337, weight= 563555, color= 0
	 item 1338, weight= 564059, color= 0
	 item 1339, weight= 564203, color= 0
	 item 1340, weight= 564239, color= 0
	 item 1341, weight= 564405, color= 1
	 item 1342, weight= 564598, color= 1
	 item 1343, weight= 565018, color= 0
	 item 1344, weight= 565110, color= 1
	 item 1345, weight= 565331, color= 1
	 item 1346, weight= 565346, color= 1
	 item 1347, weight= 566482, color= 0
	 item 1348, weight= 566559, color= 1
	 item 1349, weight= 566988, color= 0
	 item 1350, weight= 567920, color= 1
	 item 1351, weight= 568955, color= 0
	 item 1352, weight= 568972, color= 1
	 item 1353, weight= 569982, color= 0
	 item 1354, weight= 570858, color= 1
	 item 1355, weight= 570978, color= 1
	 item 1356, weight= 571063, color= 1
	 item 1357, weight= 571175, color= 0
	 item 1358, weight= 571825, color= 0
	 item 1359, weight= 571834, color= 1
	 item 1360, weight= 572653, color= 0
	 item 1361, weight= 572689, color= 0
	 item 1362, weight= 572921, color= 0
	 item 1363, weight= 573268, color= 1
	 item 1364, weight= 573346, color= 1
	 item 1365, weight= 573448, color= 0
	 item 1366, weight= 573480, color= 0
	 item 1367, weight= 574541, color= 1
	 item 1368, weight= 574567, color= 0
	 item 1369, weight= 574658, color= 1
	 item 1370, weight= 574726, color= 0
	 item 1371, weight= 575079, color= 1
	 item 1372, weight= 576263, color= 1
	 item 1373, weight= 576693, color= 1
	 item 1374, weight= 577172, color= 1
	 item 1375, weight= 577412, color= 1
	 item 1376, weight= 578169, color= 0
	 item 1377, weight= 578326, color= 0
	 item 1378, weight= 578351, color= 0
	 item 1379, weight= 578917, color= 0
	 item 1380, weight= 579304, color= 1
	 item 1381, weight= 579440, color= 1
	 item 1382, weight= 579942, color= 1
	 item 1383, weight= 580033, color= 0
	 item 1384, weight= 580103, color= 1
	 item 1385, weight= 580241, color= 1
	 item 1386, weight= 580897, color= 1
	 item 1387, weight= 580985, color= 1
	 item 1388, weight= 581087, color= 1
	 item 1389, weight= 581559, color= 0
	 item 1390, weight= 581818, color= 0
	 item 1391, weight= 582206, color= 1
	 item 1392, weight= 582709, color= 1
	 item 1393, weight= 583086, color= 1
	 item 1394, weight= 583215, color= 1
	 item 1395, weight= 583755, color= 0
	 item 1396, weight= 584152, color= 0
	 item 1397, weight= 584191, color= 0
	 item 1398, weight= 584463, color= 1
	 item 1399, weight= 584691, color= 1
	 item 1400, weight= 585025, color= 1
	 item 1401, weight= 586125, color= 0
	 item 1402, weight= 586421, color= 1
	 item 1403, weight= 586450, color= 1
	 item 1404, weight= 586721, color= 1
	 item 1405, weight= 586955, color= 1
	 item 1406, weight= 586987, color= 0
	 item 1407, weight= 587539, color= 1
	 item 1408, weight= 587732, color= 0
	 item 1409, weight= 588251, color= 1
	 item 1410, weight= 588269, color= 1
	 item 1411, weight= 588874, color= 1
	 item 1412, weight= 589110, color= 1
	 item 1413, weight= 589661, color= 1
	 item 1414, weight= 591144, color= 0
	 item 1415, weight= 591301, color= 1
	 item 1416, weight= 592361, color= 1
	 item 1417, weight= 592399, color= 1
	 item 1418, weight= 592635, color= 0
	 item 1419, weight= 592655, color= 0
	 item 1420, weight= 592741, color= 1
	 item 1421, weight= 593035, color= 0
	 item 1422, weight= 593343, color= 1
	 item 1423, weight= 593488, color= 0
	 item 1424, weight= 593585, color= 0
	 item 1425, weight= 593652, color= 1
	 item 1426, weight= 593775, color= 1
	 item 1427, weight= 593914, color= 0
	 item 1428, weight= 594380, color= 1
	 item 1429, weight= 594984, color= 0
	 item 1430, weight= 595005, color= 0
	 item 1431, weight= 595266, color= 1
	 item 1432, weight= 595323, color= 0
	 item 1433, weight= 595529, color= 1
	 item 1434, weight= 596195, color= 0
	 item 1435, weight= 596716, color= 1
	 item 1436, weight= 597926, color= 1
	 item 1437, weight= 598019, color= 1
	 item 1438, weight= 598579, color= 0
	 item 1439, weight= 598691, color= 0
	 item 1440, weight= 598789, color= 1
	 item 1441, weight= 598941, color= 1
	 item 1442, weight= 599225, color= 0
	 item 1443, weight= 599955, color= 0
	 item 1444, weight= 600322, color= 1
	 item 1445, weight= 600360, color= 0
	 item 1446, weight= 600642, color= 1
	 item 1447, weight= 600645, color= 0
	 item 1448, weight= 600703, color= 0
	 item 1449, weight= 601090, color= 0
	 item 1450, weight= 601240, color= 1
	 item 1451, weight= 601996, color= 1
	 item 1452, weight= 602215, color= 1
	 item 1453, weight= 602401, color= 0
	 item 1454, weight= 603013, color= 0
	 item 1455, weight= 603831, color= 1
	 item 1456, weight= 603963, color= 1
	 item 1457, weight= 604071, color= 1
	 item 1458, weight= 604446, color= 0
	 item 1459, weight= 604628, color= 0
	 item 1460, weight= 604977, color= 1
	 item 1461, weight= 605462, color= 0
	 item 1462, weight= 606316, color= 0
	 item 1463, weight= 606566, color= 1
	 item 1464, weight= 606930, color= 1
	 item 1465, weight= 607517, color= 1
	 item 1466, weight= 607571, color= 1
	 item 1467, weight= 608586, color= 1
	 item 1468, weight= 608989, color= 0
	 item 1469, weight= 609294, color= 0
	 item 1470, weight= 609385, color= 1
	 item 1471, weight= 609603, color= 1
	 item 1472, weight= 609757, color= 1
	 item 1473, weight= 610186, color= 1
	 item 1474, weight= 610866, color= 1
	 item 1475, weight= 611432, color= 0
	 item 1476, weight= 611476, color= 1
	 item 1477, weight= 612590, color= 1
	 item 1478, weight= 612680, color= 0
	 item 1479, weight= 612877, color= 0
	 item 1480, weight= 612906, color= 0
	 item 1481, weight= 613246, color= 0
	 item 1482, weight= 614046, color= 0
	 item 1483, weight= 614462, color= 1
	 item 1484, weight= 615070, color= 0
	 item 1485, weight= 615137, color= 1
	 item 1486, weight= 615258, color= 0
	 item 1487, weight= 615586, color= 1
	 item 1488, weight= 616111, color= 0
	 item 1489, weight= 616496, color= 0
	 item 1490, weight= 616948, color= 1
	 item 1491, weight= 617284, color= 0
	 item 1492, weight= 618477, color= 0
	 item 1493, weight= 618782, color= 0
	 item 1494, weight= 619079, color= 1
	 item 1495, weight= 619550, color= 1
	 item 1496, weight= 619612, color= 1
	 item 1497, weight= 620819, color= 0
	 item 1498, weight= 620874, color= 0
	 item 1499, weight= 620876, color= 0
	 item 1500, weight= 621084, color= 1
	 item 1501, weight= 621439, color= 1
	 item 1502, weight= 621646, color= 1
	 item 1503, weight= 622210, color= 0
	 item 1504, weight= 622239, color= 1
	 item 1505, weight= 622325, color= 0
	 item 1506, weight= 622443, color= 0
	 item 1507, weight= 622585, color= 1
	 item 1508, weight= 623303, color= 0
	 item 1509, weight= 623729, color= 0
	 item 1510, weight= 624382, color= 0
	 item 1511, weight= 624577, color= 0
	 item 1512, weight= 624763, color= 0
	 item 1513, weight= 625037, color= 1
	 item 1514, weight= 626114, color= 0
	 item 1515, weight= 626441, color= 0
	 item 1516, weight= 626804, color= 0
	 item 1517, weight= 627367, color= 1
	 item 1518, weight= 627730, color= 0
	 item 1519, weight= 627981, color= 1
	 item 1520, weight= 628543, color= 0
	 item 1521, weight= 628905, color= 1
	 item 1522, weight= 628997, color= 0
	 item 1523, weight= 629219, color= 0
	 item 1524, weight= 629308, color= 0
	 item 1525, weight= 629703, color= 1
	 item 1526, weight= 629912, color= 0
	 item 1527, weight= 630679, color= 0
	 item 1528, weight= 631193, color= 0
	 item 1529, weight= 631844, color= 0
	 item 1530, weight= 632536, color= 0
	 item 1531, weight= 632548, color= 0
	 item 1532, weight= 633047, color= 0
	 item 1533, weight= 633297, color= 0
	 item 1534, weight= 634019, color= 1
	 item 1535, weight= 634509, color= 0
	 item 1536, weight= 634524, color= 1
	 item 1537, weight= 636033, color= 0
	 item 1538, weight= 636175, color= 0
	 item 1539, weight= 636508, color= 0
	 item 1540, weight= 636724, color= 1
	 item 1541, weight= 636922, color= 1
	 item 1542, weight= 636985, color= 1
	 item 1543, weight= 637711, color= 1
	 item 1544, weight= 637824, color= 1
	 item 1545, weight= 638180, color= 0
	 item 1546, weight= 639253, color= 0
	 item 1547, weight= 639554, color= 0
	 item 1548, weight= 639671, color= 0
	 item 1549, weight= 639719, color= 1
	 item 1550, weight= 639904, color= 0
	 item 1551, weight= 639981, color= 0
	 item 1552, weight= 640452, color= 1
	 item 1553, weight= 641172, color= 1
	 item 1554, weight= 641353, color= 0
	 item 1555, weight= 642072, color= 1
	 item 1556, weight= 642297, color= 0
	 item 1557, weight= 642876, color= 1
	 item 1558, weight= 643011, color= 1
	 item 1559, weight= 643427, color= 0
	 item 1560, weight= 643489, color= 0
	 item 1561, weight= 643930, color= 0
	 item 1562, weight= 644448, color= 0
	 item 1563, weight= 644780, color= 0
	 item 1564, weight= 644821, color= 1
	 item 1565, weight= 645389, color= 0
	 item 1566, weight= 645440, color= 0
	 item 1567, weight= 645553, color= 1
	 item 1568, weight= 645737, color= 1
	 item 1569, weight= 646266, color= 0
	 item 1570, weight= 646443, color= 0
	 item 1571, weight= 647824, color= 0
	 item 1572, weight= 648055, color= 1
	 item 1573, weight= 648183, color= 0
	 item 1574, weight= 649403, color= 0
	 item 1575, weight= 650045, color= 1
	 item 1576, weight= 650366, color= 0
	 item 1577, weight= 650388, color= 0
	 item 1578, weight= 650925, color= 0
	 item 1579, weight= 651179, color= 0
	 item 1580, weight= 651189, color= 0
	 item 1581, weight= 651264, color= 1
	 item 1582, weight= 651593, color= 0
	 item 1583, weight= 651595, color= 0
	 item 1584, weight= 651872, color= 1
	 item 1585, weight= 652380, color= 1
	 item 1586, weight= 652812, color= 1
	 item 1587, weight= 652869, color= 1
	 item 1588, weight= 653408, color= 0
	 item 1589, weight= 653697, color= 0
	 item 1590, weight= 654774, color= 1
	 item 1591, weight= 654792, color= 0
	 item 1592, weight= 655627, color= 0
	 item 1593, weight= 656002, color= 0
	 item 1594, weight= 656481, color= 1
	 item 1595, weight= 656660, color= 0
	 item 1596, weight= 657710, color= 0
	 item 1597, weight= 657774, color= 1
	 item 1598, weight= 657982, color= 0
	 item 1599, weight= 658126, color= 1
	 item 1600, weight= 658337, color= 0
	 item 1601, weight= 658575, color= 1
	 item 1602, weight= 658667, color= 0
	 item 1603, weight= 658955, color= 1
	 item 1604, weight= 659256, color= 0
	 item 1605, weight= 659325, color= 1
	 item 1606, weight= 659570, color= 1
	 item 1607, weight= 660172, color= 0
	 item 1608, weight= 660287, color= 1
	 item 1609, weight= 660874, color= 0
	 item 1610, weight= 661580, color= 0
	 item 1611, weight= 661994, color= 0
	 item 1612, weight= 662870, color= 0
	 item 1613, weight= 662978, color= 0
	 item 1614, weight= 663245, color= 0
	 item 1615, weight= 663508, color= 0
	 item 1616, weight= 664006, color= 0
	 item 1617, weight= 664630, color= 0
	 item 1618, weight= 665513, color= 0
	 item 1619, weight= 665596, color= 1
	 item 1620, weight= 665898, color= 1
	 item 1621, weight= 665904, color= 0
	 item 1622, weight= 666031, color= 1
	 item 1623, weight= 666949, color= 1
	 item 1624, weight= 666985, color= 0
	 item 1625, weight= 667231, color= 0
	 item 1626, weight= 667560, color= 1
	 item 1627, weight= 667684, color= 1
	 item 1628, weight= 668418, color= 1
	 item 1629, weight= 668705, color= 1
	 item 1630, weight= 668811, color= 0
	 item 1631, weight= 669591, color= 1
	 item 1632, weight= 669908, color= 1
	 item 1633, weight= 669916, color= 0
	 item 1634, weight= 670278, color= 0
	 item 1635, weight= 670347, color= 1
	 item 1636, weight= 670566, color= 0
	 item 1637, weight= 671459, color= 1
	 item 1638, weight= 671816, color= 1
	 item 1639, weight= 671925, color= 1
	 item 1640, weight= 671979, color= 0
	 item 1641, weight= 672330, color= 0
	 item 1642, weight= 672729, color= 0
	 item 1643, weight= 673380, color= 0
	 item 1644, weight= 673776, color= 0
	 item 1645, weight= 673898, color= 0
	 item 1646, weight= 674003, color= 1
	 item 1647, weight= 674014, color= 0
	 item 1648, weight= 674692, color= 0
	 item 1649, weight= 675058, color= 1
	 item 1650, weight= 675460, color= 0
	 item 1651, weight= 675599, color= 0
	 item 1652, weight= 675968, color= 0
	 item 1653, weight= 676569, color= 0
	 item 1654, weight= 676634, color= 1
	 item 1655, weight= 676762, color= 1
	 item 1656, weight= 676840, color= 0
	 item 1657, weight= 676906, color= 1
	 item 1658, weight= 677205, color= 1
	 item 1659, weight= 677616, color= 0
	 item 1660, weight= 677710, color= 1
	 item 1661, weight= 678158, color= 0
	 item 1662, weight= 678720, color= 1
	 item 1663, weight= 678810, color= 0
	 item 1664, weight= 679346, color= 1
	 item 1665, weight= 679853, color= 0
	 item 1666, weight= 680541, color= 1
	 item 1667, weight= 680716, color= 1
	 item 1668, weight= 680882, color= 1
	 item 1669, weight= 680968, color= 1
	 item 1670, weight= 681602, color= 0
	 item 1671, weight= 682438, color= 1
	 item 1672, weight= 682868, color= 1
	 item 1673, weight= 683251, color= 0
	 item 1674, weight= 683854, color= 0
	 item 1675, weight= 684020, color= 1
	 item 1676, weight= 684093, color= 0
	 item 1677, weight= 684149, color= 1
	 item 1678, weight= 684245, color= 0
	 item 1679, weight= 684260, color= 0
	 item 1680, weight= 684362, color= 1
	 item 1681, weight= 684539, color= 1
	 item 1682, weight= 684550, color= 1
	 item 1683, weight= 684710, color= 0
	 item 1684, weight= 685448, color= 0
	 item 1685, weight= 686325, color= 1
	 item 1686, weight= 686798, color= 0
	 item 1687, weight= 686940, color= 1
	 item 1688, weight= 687127, color= 1
	 item 1689, weight= 687277, color= 1
	 item 1690, weight= 687619, color= 1
	 item 1691, weight= 687892, color= 0
	 item 1692, weight= 687894, color= 1
	 item 1693, weight= 688160, color= 0
	 item 1694, weight= 688808, color= 1
	 item 1695, weight= 689071, color= 1
	 item 1696, weight= 689197, color= 0
	 item 1697, weight= 689233, color= 1
	 item 1698, weight= 689444, color= 0
	 item 1699, weight= 689660, color= 0
	 item 1700, weight= 689698, color= 1
	 item 1701, weight= 689884, color= 1
	 item 1702, weight= 689987, color= 0
	 item 1703, weight= 690198, color= 0
	 item 1704, weight= 690520, color= 1
	 item 1705, weight= 690574, color= 0
	 item 1706, weight= 691930, color= 0
	 item 1707, weight= 692255, color= 0
	 item 1708, weight= 692549, color= 0
	 item 1709, weight= 692619, color= 0
	 item 1710, weight= 694691, color= 1
	 item 1711, weight= 695876, color= 1
	 item 1712, weight= 695953, color= 1
	 item 1713, weight= 695999, color= 0
	 item 1714, weight= 696090, color= 1
	 item 1715, weight= 696101, color= 1
	 item 1716, weight= 696111, color= 1
	 item 1717, weight= 696627, color= 1
	 item 1718, weight= 697319, color= 1
	 item 1719, weight= 697443, color= 0
	 item 1720, weight= 698413, color= 0
	 item 1721, weight= 699212, color= 1
	 item 1722, weight= 699578, color= 0
	 item 1723, weight= 700141, color= 1
	 item 1724, weight= 700702, color= 1
	 item 1725, weight= 701185, color= 1
	 item 1726, weight= 701738, color= 0
	 item 1727, weight= 702106, color= 0
	 item 1728, weight= 702243, color= 0
	 item 1729, weight= 702446, color= 1
	 item 1730, weight= 702566, color= 1
	 item 1731, weight= 702628, color= 1
	 item 1732, weight= 703521, color= 1
	 item 1733, weight= 703692, color= 1
	 item 1734, weight= 703941, color= 0
	 item 1735, weight= 704296, color= 1
	 item 1736, weight= 704455, color= 1
	 item 1737, weight= 704515, color= 0
	 item 1738, weight= 704846, color= 0
	 item 1739, weight= 705446, color= 1
	 item 1740, weight= 705513, color= 1
	 item 1741, weight= 705816, color= 1
	 item 1742, weight= 705841, color= 0
	 item 1743, weight= 706055, color= 1
	 item 1744, weight= 706094, color= 1
	 item 1745, weight= 706291, color= 1
	 item 1746, weight= 707081, color= 1
	 item 1747, weight= 707333, color= 1
	 item 1748, weight= 707489, color= 1
	 item 1749, weight= 707818, color= 0
	 item 1750, weight= 708290, color= 0
	 item 1751, weight= 708429, color= 0
	 item 1752, weight= 708507, color= 1
	 item 1753, weight= 708560, color= 1
	 item 1754, weight= 708825, color= 0
	 item 1755, weight= 709791, color= 0
	 item 1756, weight= 710782, color= 0
	 item 1757, weight= 711193, color= 0
	 item 1758, weight= 711287, color= 0
	 item 1759, weight= 711394, color= 1
	 item 1760, weight= 711479, color= 1
	 item 1761, weight= 711518, color= 1
	 item 1762, weight= 711618, color= 1
	 item 1763, weight= 711951, color= 0
	 item 1764, weight= 712546, color= 0
	 item 1765, weight= 713454, color= 0
	 item 1766, weight= 713977, color= 1
	 item 1767, weight= 714056, color= 1
	 item 1768, weight= 715015, color= 0
	 item 1769, weight= 715522, color= 0
	 item 1770, weight= 716159, color= 1
	 item 1771, weight= 716722, color= 1
	 item 1772, weight= 716798, color= 0
	 item 1773, weight= 717997, color= 1
	 item 1774, weight= 718060, color= 1
	 item 1775, weight= 718164, color= 0
	 item 1776, weight= 718451, color= 0
	 item 1777, weight= 719368, color= 1
	 item 1778, weight= 719414, color= 0
	 item 1779, weight= 719916, color= 0
	 item 1780, weight= 720544, color= 1
	 item 1781, weight= 720643, color= 1
	 item 1782, weight= 720841, color= 1
	 item 1783, weight= 720903, color= 1
	 item 1784, weight= 721184, color= 1
	 item 1785, weight= 721683, color= 1
	 item 1786, weight= 721871, color= 1
	 item 1787, weight= 721880, color= 1
	 item 1788, weight= 721951, color= 1
	 item 1789, weight= 722663, color= 0
	 item 1790, weight= 723079, color= 1
	 item 1791, weight= 723103, color= 1
	 item 1792, weight= 723592, color= 1
	 item 1793, weight= 724004, color= 0
	 item 1794, weight= 724124, color= 0
	 item 1795, weight= 724905, color= 1
	 item 1796, weight= 725327, color= 1
	 item 1797, weight= 725334, color= 0
	 item 1798, weight= 725400, color= 1
	 item 1799, weight= 725473, color= 1
	 item 1800, weight= 725502, color= 0
	 item 1801, weight= 726125, color= 0
	 item 1802, weight= 726217, color= 0
	 item 1803, weight= 726283, color= 0
	 item 1804, weight= 726800, color= 1
	 item 1805, weight= 726818, color= 1
	 item 1806, weight= 726902, color= 1
	 item 1807, weight= 726932, color= 0
	 item 1808, weight= 727162, color= 1
	 item 1809, weight= 728221, color= 0
	 item 1810, weight= 728390, color= 1
	 item 1811, weight= 728775, color= 0
	 item 1812, weight= 728865, color= 0
	 item 1813, weight= 729489, color= 1
	 item 1814, weight= 730823, color= 1
	 item 1815, weight= 731731, color= 1
	 item 1816, weight= 732210, color= 0
	 item 1817, weight= 732241, color= 0
	 item 1818, weight= 732676, color= 1
	 item 1819, weight= 732716, color= 1
	 item 1820, weight= 732970, color= 0
	 item 1821, weight= 733029, color= 1
	 item 1822, weight= 733156, color= 0
	 item 1823, weight= 733181, color= 0
	 item 1824, weight= 733536, color= 1
	 item 1825, weight= 733999, color= 0
	 item 1826, weight= 734219, color= 1
	 item 1827, weight= 734546, color= 0
	 item 1828, weight= 734807, color= 1
	 item 1829, weight= 735046, color= 1
	 item 1830, weight= 735267, color= 1
	 item 1831, weight= 735652, color= 0
	 item 1832, weight= 736145, color= 0
	 item 1833, weight= 736264, color= 1
	 item 1834, weight= 736266, color= 0
	 item 1835, weight= 736383, color= 0
	 item 1836, weight= 736403, color= 0
	 item 1837, weight= 736867, color= 1
	 item 1838, weight= 737034, color= 0
	 item 1839, weight= 737452, color= 0
	 item 1840, weight= 738253, color= 1
	 item 1841, weight= 738313, color= 0
	 item 1842, weight= 738874, color= 0
	 item 1843, weight= 738955, color= 0
	 item 1844, weight= 739165, color= 0
	 item 1845, weight= 739350, color= 1
	 item 1846, weight= 740349, color= 0
	 item 1847, weight= 741330, color= 1
	 item 1848, weight= 741626, color= 0
	 item 1849, weight= 741913, color= 1
	 item 1850, weight= 742445, color= 1
	 item 1851, weight= 742708, color= 1
	 item 1852, weight= 743163, color= 0
	 item 1853, weight= 743568, color= 1
	 item 1854, weight= 744075, color= 0
	 item 1855, weight= 744255, color= 1
	 item 1856, weight= 744685, color= 0
	 item 1857, weight= 744751, color= 0
	 item 1858, weight= 745287, color= 0
	 item 1859, weight= 745649, color= 0
	 item 1860, weight= 745822, color= 1
	 item 1861, weight= 746065, color= 0
	 item 1862, weight= 746471, color= 0
	 item 1863, weight= 746745, color= 1
	 item 1864, weight= 746933, color= 1
	 item 1865, weight= 747250, color= 1
	 item 1866, weight= 747281, color= 1
	 item 1867, weight= 747747, color= 1
	 item 1868, weight= 748498, color= 0
	 item 1869, weight= 750412, color= 0
	 item 1870, weight= 751359, color= 0
	 item 1871, weight= 751449, color= 0
	 item 1872, weight= 751664, color= 1
	 item 1873, weight= 751734, color= 0
	 item 1874, weight= 751889, color= 1
	 item 1875, weight= 752055, color= 0
	 item 1876, weight= 752110, color= 1
	 item 1877, weight= 752177, color= 1
	 item 1878, weight= 752407, color= 0
	 item 1879, weight= 753281, color= 0
	 item 1880, weight= 753782, color= 0
	 item 1881, weight= 754016, color= 0
	 item 1882, weight= 754151, color= 0
	 item 1883, weight= 755836, color= 1
	 item 1884, weight= 755923, color= 1
	 item 1885, weight= 756051, color= 0
	 item 1886, weight= 756354, color= 0
	 item 1887, weight= 756567, color= 0
	 item 1888, weight= 756971, color= 1
	 item 1889, weight= 757075, color= 1
	 item 1890, weight= 757441, color= 0
	 item 1891, weight= 757679, color= 1
	 item 1892, weight= 758495, color= 1
	 item 1893, weight= 758632, color= 0
	 item 1894, weight= 759230, color= 0
	 item 1895, weight= 759416, color= 1
	 item 1896, weight= 759428, color= 0
	 item 1897, weight= 759804, color= 0
	 item 1898, weight= 759888, color= 1
	 item 1899, weight= 760454, color= 1
	 item 1900, weight= 761018, color= 1
	 item 1901, weight= 761028, color= 0
	 item 1902, weight= 761295, color= 0
	 item 1903, weight= 761427, color= 0
	 item 1904, weight= 761589, color= 1
	 item 1905, weight= 762069, color= 1
	 item 1906, weight= 763826, color= 1
	 item 1907, weight= 764598, color= 0
	 item 1908, weight= 764883, color= 1
	 item 1909, weight= 765235, color= 1
	 item 1910, weight= 765888, color= 0
	 item 1911, weight= 766330, color= 0
	 item 1912, weight= 766407, color= 1
	 item 1913, weight= 766865, color= 0
	 item 1914, weight= 767110, color= 0
	 item 1915, weight= 768052, color= 0
	 item 1916, weight= 768261, color= 1
	 item 1917, weight= 768797, color= 1
	 item 1918, weight= 768816, color= 1
	 item 1919, weight= 769382, color= 1
	 item 1920, weight= 769390, color= 1
	 item 1921, weight= 769633, color= 1
	 item 1922, weight= 769778, color= 0
	 item 1923, weight= 769926, color= 0
	 item 1924, weight= 770179, color= 0
	 item 1925, weight= 770780, color= 1
	 item 1926, weight= 771826, color= 0
	 item 1927, weight= 771918, color= 0
	 item 1928, weight= 772040, color= 0
	 item 1929, weight= 772109, color= 1
	 item 1930, weight= 772222, color= 0
	 item 1931, weight= 772603, color= 1
	 item 1932, weight= 772785, color= 0
	 item 1933, weight= 772954, color= 0
	 item 1934, weight= 773191, color= 1
	 item 1935, weight= 773757, color= 0
	 item 1936, weight= 773818, color= 1
	 item 1937, weight= 773823, color= 0
	 item 1938, weight= 774303, color= 0
	 item 1939, weight= 774889, color= 0
	 item 1940, weight= 775145, color= 1
	 item 1941, weight= 775645, color= 1
	 item 1942, weight= 776448, color= 0
	 item 1943, weight= 777097, color= 1
	 item 1944, weight= 777316, color= 0
	 item 1945, weight= 777747, color= 0
	 item 1946, weight= 778195, color= 0
	 item 1947, weight= 778210, color= 0
	 item 1948, weight= 778254, color= 1
	 item 1949, weight= 778947, color= 0
	 item 1950, weight= 779031, color= 0
	 item 1951, weight= 781071, color= 1
	 item 1952, weight= 781795, color= 1
	 item 1953, weight= 781975, color= 0
	 item 1954, weight= 782505, color= 1
	 item 1955, weight= 783141, color= 1
	 item 1956, weight= 783756, color= 0
	 item 1957, weight= 784120, color= 0
	 item 1958, weight= 784285, color= 1
	 item 1959, weight= 784437, color= 0
	 item 1960, weight= 784444, color= 0
	 item 1961, weight= 784991, color= 0
	 item 1962, weight= 785338, color= 1
	 item 1963, weight= 785954, color= 1
	 item 1964, weight= 786155, color= 0
	 item 1965, weight= 786166, color= 1
	 item 1966, weight= 786588, color= 1
	 item 1967, weight= 786718, color= 1
	 item 1968, weight= 786795, color= 1
	 item 1969, weight= 786814, color= 1
	 item 1970, weight= 786898, color= 0
	 item 1971, weight= 786962, color= 0
	 item 1972, weight= 787290, color= 0
	 item 1973, weight= 787839, color= 1
	 item 1974, weight= 787858, color= 0
	 item 1975, weight= 788824, color= 1
	 item 1976, weight= 789659, color= 1
	 item 1977, weight= 789708, color= 1
	 item 1978, weight= 790243, color= 0
	 item 1979, weight= 791062, color= 1
	 item 1980, weight= 791609, color= 0
	 item 1981, weight= 791820, color= 1
	 item 1982, weight= 791870, color= 1
	 item 1983, weight= 791978, color= 0
	 item 1984, weight= 793459, color= 1
	 item 1985, weight= 794050, color= 0
	 item 1986, weight= 794342, color= 0
	 item 1987, weight= 794500, color= 0
	 item 1988, weight= 794652, color= 1
	 item 1989, weight= 795086, color= 1
	 item 1990, weight= 796512, color= 1
	 item 1991, weight= 796928, color= 0
	 item 1992, weight= 797034, color= 1
	 item 1993, weight= 797535, color= 1
	 item 1994, weight= 797829, color= 1
	 item 1995, weight= 798222, color= 0
	 item 1996, weight= 798755, color= 0
	 item 1997, weight= 798776, color= 1
	 item 1998, weight= 799233, color= 0
	 item 1999, weight= 799376, color= 1
	 item 2000, weight= 799703, color= 1
	 item 2001, weight= 799919, color= 1

VRPSolver warning: Interval set for resource 1 on source node (when source != sink) is ignored (by definition is [0.0,0.0])
VRPSolver warning: Interval set for resource 2 on source node (when source != sink) is ignored (by definition is [0.0,0.0])
VRPSolver warning: Interval set for resource 3 on source node (when source != sink) is ignored (by definition is [0.0,0.0])
[41m solve [00m
~~~~~~~~~~~~~~~~~~~~~~~~~~~~~~~~~~~~~~~~~~~~~~~~~~~~~~~~~~~~~~~~~~~~~~~~~~~~~~
VRPSolver v0.4.1, 24/03/2021. Web: vrpsolver.math.u-bordeaux.fr
Corresponds to the solver by Pessoa, Sadykov, Uchoa and Vanderbeck (2020)
Paper: dx.doi.org/10.1007/s10107-020-01523-z
USE THIS CODE ONLY FOR ACADEMIC PURPOSES AT YOUR OWN RISK
~~~~~~~~~~~~~~~~~~~~~~~~~~~~~~~~~~~~~~~~~~~~~~~~~~~~~~~~~~~~~~~~~~~~~~~~~~~~~~
BaPCod v053, 24/03/2021, © Inria Bordeaux, France
~~~~~~~~~~~~~~~~~~~~~~~~~~~~~~~~~~~~~~~~~~~~~~~~~~~~~~~~~~~~~~~~~~~~~~~~~~~~~~
VRPSolver parameters:
GlobalTimeLimit = 60
MaxNbOfBBtreeNodeTreated = 100000
treeSearchStrategy = 1
RCSPstopCutGenTimeThresholdInPricing = 10
RCSPhardTimeThresholdInPricing = 20
RCSPnumberOfBucketsPerVertex = 2000
RCSPdynamicBucketSteps = 0
RCSPuseBidirectionalSearch = 1
RCSPapplyReducedCostFixing = 1
RCSPredCostFixingFalseGap = 0
RCSPmaxNumOfColsPerIteration = 100
RCSPmaxNumOfColsPerExactIteration = 100
RCSPheurLabelingStrategy = 4
StabilizationMinPhaseOfStage = 1
RCSPmaxNumOfLabelsInEnumeration = 100000
RCSPmaxNumOfEnumeratedSolutions = 1000000
RCSPmaxNumOfEnumSolutionsForMIP = 100000
RCSPinitNGneighbourhoodSize = 0
RCSPmaxNGneighbourhoodSize = 0
RCSPrankOneCutsMaxNumPerRound = 100
RCSPrankOneCutsMaxNumRows = -1
RCSPrankOneCutsMemoryType = 2
CutTailingOffThreshold = 0.02
CutTailingOffCounterThreshold = 3
SafeDualBoundScaleFactor = -1
StrongBranchingPhaseOneCandidatesNumber = 100
StrongBranchingPhaseOneTreeSizeEstimRatio = 0.3
StrongBranchingPhaseTwoCandidatesNumber = 1
StrongBranchingPhaseTwoTreeSizeEstimRatio = 0.1
MaxTimeForRestrictedMasterIpHeur = -1
DivingHeurUseDepthLimit = 0
MaxLDSbreadth = 3
MaxLDSdepth = 2
New model incumbent solution 1e+06, TIME = 0h0m0s3t = 3
statistics_cols: instance & :Optimal & cutoff & :bcRecRootDb & :bcTimeRootEval & :bcCountNodeProc & :bcRecBestDb & :bcRecBestInc & :bcTimeMain \\
statistics: N2001W1000001R1080Q2-001 & 0 & 1.0e6 & 0.00 & 0.00 & 0 & 0.00 & -- & 0.00 \\
########################################################
Solution not found
########################################################
