Academic license - for non-commercial use only - expires 2025-02-09
Gurobi Optimizer version 9.1.2 build v9.1.2rc0 (linux64)
Thread count: 20 physical cores, 40 logical processors, using up to 1 threads
Optimize a model with 1530 rows, 78055 columns and 231354 nonzeros
Model fingerprint: 0x8d183e8f
Variable types: 0 continuous, 78055 integer (0 binary)
Coefficient statistics:
  Matrix range     [1e+00, 1e+00]
  Objective range  [1e+00, 1e+00]
  Bounds range     [2e+02, 2e+02]
  RHS range        [1e+00, 1e+00]

Warning: Completing partial solution with 77671 unfixed non-continuous variables out of 78055
User MIP start produced solution with objective 166 (0.06s)
Loaded user MIP start with objective 166

Presolve removed 727 rows and 19800 columns
Presolve time: 0.27s
Presolved: 803 rows, 58255 columns, 131925 nonzeros
Found heuristic solution: objective 108.0000000
Variable types: 0 continuous, 58255 integer (58255 binary)

Root relaxation: objective 8.300000e+01, 9250 iterations, 2.86 seconds

    Nodes    |    Current Node    |     Objective Bounds      |     Work
 Expl Unexpl |  Obj  Depth IntInf | Incumbent    BestBd   Gap | It/Node Time

*    0     0               0      83.0000000   83.00000  0.00%     -    4s

Explored 0 nodes (26515 simplex iterations) in 4.93 seconds
Thread count was 1 (of 40 available processors)

Solution count 3: 83 108 166 

Optimal solution found (tolerance 1.00e-04)
Best objective 8.300000000000e+01, best bound 8.300000000000e+01, gap 0.0000%
1	78055	1530	0	83	83	5.129
