Academic license - for non-commercial use only - expires 2025-02-09
Gurobi Optimizer version 9.1.2 build v9.1.2rc0 (linux64)
Thread count: 20 physical cores, 40 logical processors, using up to 1 threads
Optimize a model with 1524 rows, 77304 columns and 229113 nonzeros
Model fingerprint: 0xc2c87d3f
Variable types: 0 continuous, 77304 integer (0 binary)
Coefficient statistics:
  Matrix range     [1e+00, 1e+00]
  Objective range  [1e+00, 1e+00]
  Bounds range     [2e+02, 2e+02]
  RHS range        [1e+00, 1e+00]

Warning: Completing partial solution with 76925 unfixed non-continuous variables out of 77304
User MIP start produced solution with objective 166 (0.06s)
Loaded user MIP start with objective 166

Presolve removed 723 rows and 19781 columns
Presolve time: 0.27s
Presolved: 801 rows, 57523 columns, 129967 nonzeros
Found heuristic solution: objective 100.0000000
Variable types: 0 continuous, 57523 integer (57523 binary)

Root relaxation: objective 8.300000e+01, 9185 iterations, 2.71 seconds

    Nodes    |    Current Node    |     Objective Bounds      |     Work
 Expl Unexpl |  Obj  Depth IntInf | Incumbent    BestBd   Gap | It/Node Time

     0     0   83.00000    0   56  100.00000   83.00000  17.0%     -    5s
H    0     0                      84.0000000   83.00000  1.19%     -    5s
     0     0   83.00000    0   25   84.00000   83.00000  1.19%     -    7s
     0     0   83.00000    0   72   84.00000   83.00000  1.19%     -   11s
     0     0   83.00000    0  167   84.00000   83.00000  1.19%     -   11s
     0     0   83.00000    0  173   84.00000   83.00000  1.19%     -   15s
     0     0   83.00000    0   30   84.00000   83.00000  1.19%     -   17s
     0     0   83.00000    0   35   84.00000   83.00000  1.19%     -   18s
     0     0   83.00000    0   35   84.00000   83.00000  1.19%     -   20s
H    0     0                      83.0000000   83.00000  0.00%     -   21s
     0     0   83.00000    0   35   83.00000   83.00000  0.00%     -   21s

Cutting planes:
  Zero half: 6
  RLT: 3

Explored 1 nodes (112797 simplex iterations) in 21.50 seconds
Thread count was 1 (of 40 available processors)

Solution count 4: 83 84 100 166 

Optimal solution found (tolerance 1.00e-04)
Best objective 8.300000000000e+01, best bound 8.300000000000e+01, gap 0.0000%
1	77304	1524	1	83	83	21.697
