Academic license - for non-commercial use only - expires 2025-02-09
Gurobi Optimizer version 9.1.2 build v9.1.2rc0 (linux64)
Thread count: 20 physical cores, 40 logical processors, using up to 1 threads
Optimize a model with 1888 rows, 182504 columns and 544237 nonzeros
Model fingerprint: 0x6d28c171
Variable types: 0 continuous, 182504 integer (0 binary)
Coefficient statistics:
  Matrix range     [1e+00, 1e+00]
  Objective range  [1e+00, 1e+00]
  Bounds range     [5e+02, 5e+02]
  RHS range        [1e+00, 1e+00]

Warning: Completing partial solution with 181805 unfixed non-continuous variables out of 182504
User MIP start produced solution with objective 331 (0.15s)
Loaded user MIP start with objective 331

Presolve removed 764 rows and 51950 columns
Presolve time: 0.75s
Presolved: 1124 rows, 130554 columns, 304420 nonzeros
Found heuristic solution: objective 204.0000000
Variable types: 0 continuous, 130554 integer (130554 binary)

Root simplex log...

Iteration    Objective       Primal Inf.    Dual Inf.      Time
    9618    1.6700023e+02   3.308216e+03   0.000000e+00      5s
   16572    1.6700042e+02   2.635790e+03   0.000000e+00     10s
   21592    1.6700052e+02   1.929261e+03   0.000000e+00     15s
   26104    1.6700057e+02   2.684316e+02   0.000000e+00     20s
   30464    1.6700061e+02   1.002951e+03   0.000000e+00     25s
   34792    1.6700063e+02   2.297238e+02   0.000000e+00     30s
   36457    1.6700000e+02   0.000000e+00   0.000000e+00     32s

Root relaxation: objective 1.670000e+02, 36457 iterations, 30.94 seconds
Total elapsed time = 39.40s
Total elapsed time = 43.46s

    Nodes    |    Current Node    |     Objective Bounds      |     Work
 Expl Unexpl |  Obj  Depth IntInf | Incumbent    BestBd   Gap | It/Node Time

*    0     0               0     167.0000000  167.00000  0.00%     -   48s

Explored 0 nodes (105783 simplex iterations) in 49.00 seconds
Thread count was 1 (of 40 available processors)

Solution count 3: 167 204 331 

Optimal solution found (tolerance 1.00e-04)
Best objective 1.670000000000e+02, best bound 1.670000000000e+02, gap 0.0000%
1	182504	1888	0	167	167	49.416
