Academic license - for non-commercial use only - expires 2025-02-09
Gurobi Optimizer version 9.1.2 build v9.1.2rc0 (linux64)
Thread count: 20 physical cores, 40 logical processors, using up to 1 threads
Optimize a model with 1147 rows, 13743 columns and 38995 nonzeros
Model fingerprint: 0x94442055
Variable types: 0 continuous, 13743 integer (0 binary)
Coefficient statistics:
  Matrix range     [1e+00, 1e+00]
  Objective range  [1e+00, 1e+00]
  Bounds range     [6e+01, 6e+01]
  RHS range        [1e+00, 1e+00]

Warning: Completing partial solution with 13646 unfixed non-continuous variables out of 13743
User MIP start produced solution with objective 40 (0.01s)
Loaded user MIP start with objective 40

Presolve removed 648 rows and 3928 columns
Presolve time: 0.10s
Presolved: 499 rows, 9815 columns, 20898 nonzeros
Found heuristic solution: objective 26.0000000
Variable types: 0 continuous, 9815 integer (9815 binary)

Root relaxation: objective 2.000000e+01, 1647 iterations, 0.06 seconds

    Nodes    |    Current Node    |     Objective Bounds      |     Work
 Expl Unexpl |  Obj  Depth IntInf | Incumbent    BestBd   Gap | It/Node Time

*    0     0               0      20.0000000   20.00000  0.00%     -    0s

Explored 0 nodes (1647 simplex iterations) in 0.19 seconds
Thread count was 1 (of 40 available processors)

Solution count 3: 20 26 40 

Optimal solution found (tolerance 1.00e-04)
Best objective 2.000000000000e+01, best bound 2.000000000000e+01, gap 0.0000%
1	13743	1147	0	20	20	0.219
