Academic license - for non-commercial use only - expires 2025-02-09
Gurobi Optimizer version 9.1.2 build v9.1.2rc0 (linux64)
Thread count: 20 physical cores, 40 logical processors, using up to 1 threads
Optimize a model with 4013 rows, 258236 columns and 766884 nonzeros
Model fingerprint: 0x6a65a7e4
Variable types: 0 continuous, 258236 integer (0 binary)
Coefficient statistics:
  Matrix range     [1e+00, 1e+00]
  Objective range  [1e+00, 1e+00]
  Bounds range     [2e+02, 2e+02]
  RHS range        [1e+00, 1e+00]

Warning: Completing partial solution with 257960 unfixed non-continuous variables out of 258236
User MIP start produced solution with objective 87 (0.28s)
Loaded user MIP start with objective 87

Presolve removed 32 rows and 4534 columns
Presolve time: 2.47s
Presolved: 3981 rows, 253702 columns, 759298 nonzeros
Variable types: 0 continuous, 253702 integer (253702 binary)

Root simplex log...

Iteration    Objective       Primal Inf.    Dual Inf.      Time
    8149    4.0001389e+01   9.969518e+02   0.000000e+00      5s
   13375    5.9001444e+01   9.442821e+02   0.000000e+00     10s
   18381    6.4001623e+01   3.654688e+02   0.000000e+00     15s
   22405    6.4001706e+01   7.350046e+02   0.000000e+00     20s
   26899    6.4001801e+01   1.577521e+03   0.000000e+00     25s
   30999    6.4001875e+01   1.702139e+03   0.000000e+00     30s
   34857    6.4001950e+01   7.765781e+03   0.000000e+00     35s
   38841    6.4002034e+01   3.385104e+03   0.000000e+00     40s
   42873    6.4002124e+01   2.973548e+03   0.000000e+00     45s
   46251    6.4002190e+01   4.497260e+03   0.000000e+00     50s
   49905    6.4002279e+01   2.585127e+03   0.000000e+00     55s

Root relaxation: time limit, 53379 iterations, 57.15 seconds

    Nodes    |    Current Node    |     Objective Bounds      |     Work
 Expl Unexpl |  Obj  Depth IntInf | Incumbent    BestBd   Gap | It/Node Time

     0     0          -    0        87.00000 -18069.000      -     -   60s

Explored 0 nodes (53379 simplex iterations) in 60.01 seconds
Thread count was 1 (of 40 available processors)

Solution count 1: 87 

Time limit reached
Best objective 8.700000000000e+01, best bound -1.806900000000e+04, gap 20868.9655%
0	258236	4013	0	-18069	87	60.485
