Academic license - for non-commercial use only - expires 2025-02-09
Gurobi Optimizer version 9.1.2 build v9.1.2rc0 (linux64)
Thread count: 20 physical cores, 40 logical processors, using up to 1 threads
Optimize a model with 4691 rows, 302186 columns and 897378 nonzeros
Model fingerprint: 0xf13f8564
Variable types: 0 continuous, 302186 integer (0 binary)
Coefficient statistics:
  Matrix range     [1e+00, 1e+00]
  Objective range  [1e+00, 1e+00]
  Bounds range     [2e+02, 2e+02]
  RHS range        [1e+00, 1e+00]

Warning: Completing partial solution with 301908 unfixed non-continuous variables out of 302186
User MIP start produced solution with objective 84 (0.35s)
Loaded user MIP start with objective 84

Presolve removed 68 rows and 6304 columns
Presolve time: 1.92s
Presolved: 4623 rows, 295882 columns, 883468 nonzeros
Variable types: 0 continuous, 295882 integer (295882 binary)

Root simplex log...

Iteration    Objective       Primal Inf.    Dual Inf.      Time
   12537    5.0001679e+01   8.130000e+02   0.000000e+00      5s
   18899    6.3001835e+01   8.326379e+02   0.000000e+00     10s
   22754    6.3001914e+01   6.968713e+02   0.000000e+00     15s
   26749    6.3001990e+01   1.074797e+03   0.000000e+00     20s
   30934    6.3002077e+01   1.683718e+03   0.000000e+00     25s
   35569    6.3002188e+01   2.770097e+03   0.000000e+00     30s
   40249    6.3002301e+01   3.489549e+03   0.000000e+00     35s
   45424    6.3002459e+01   7.642546e+03   0.000000e+00     40s
   50329    6.3002607e+01   9.724301e+03   0.000000e+00     45s
   55774    6.3002807e+01   1.548697e+04   0.000000e+00     50s
   62029    6.3003056e+01   2.333534e+04   0.000000e+00     55s

Root relaxation: time limit, 68188 iterations, 57.59 seconds

    Nodes    |    Current Node    |     Objective Bounds      |     Work
 Expl Unexpl |  Obj  Depth IntInf | Incumbent    BestBd   Gap | It/Node Time

     0     0          -    0        84.00000 -23185.000      -     -   60s

Explored 0 nodes (68188 simplex iterations) in 60.02 seconds
Thread count was 1 (of 40 available processors)

Solution count 1: 84 

Time limit reached
Best objective 8.400000000000e+01, best bound -2.318500000000e+04, gap 27701.1905%
0	302186	4691	0	-23185	84	60.563
