Academic license - for non-commercial use only - expires 2025-02-09
Gurobi Optimizer version 9.1.2 build v9.1.2rc0 (linux64)
Thread count: 20 physical cores, 40 logical processors, using up to 1 threads
Optimize a model with 4639 rows, 293765 columns and 872219 nonzeros
Model fingerprint: 0x3e12b762
Variable types: 0 continuous, 293765 integer (0 binary)
Coefficient statistics:
  Matrix range     [1e+00, 1e+00]
  Objective range  [1e+00, 1e+00]
  Bounds range     [2e+02, 2e+02]
  RHS range        [1e+00, 1e+00]

Warning: Completing partial solution with 293491 unfixed non-continuous variables out of 293765
User MIP start produced solution with objective 83 (0.34s)
Loaded user MIP start with objective 83

Presolve removed 27 rows and 4832 columns
Presolve time: 1.83s
Presolved: 4612 rows, 288933 columns, 865040 nonzeros
Variable types: 0 continuous, 288933 integer (288933 binary)

Root simplex log...

Iteration    Objective       Primal Inf.    Dual Inf.      Time
   11967    5.0000282e+01   1.196875e+03   0.000000e+00      5s
   17464    6.4000305e+01   6.680435e+02   0.000000e+00     10s
   20079    6.4000370e+01   2.907063e+02   0.000000e+00     15s
   24054    6.4000453e+01   1.831612e+03   0.000000e+00     20s
   27834    6.4000518e+01   5.927511e+02   0.000000e+00     25s
   30724    6.4000560e+01   8.214398e+02   0.000000e+00     30s
   33924    6.4000611e+01   1.554179e+03   0.000000e+00     35s
   36974    6.4000655e+01   1.655324e+03   0.000000e+00     40s
   39979    6.4000702e+01   9.832103e+02   0.000000e+00     45s
   43149    6.4000761e+01   3.468525e+03   0.000000e+00     50s
   46369    6.4000828e+01   4.463454e+03   0.000000e+00     55s

Root relaxation: time limit, 49964 iterations, 57.70 seconds

    Nodes    |    Current Node    |     Objective Bounds      |     Work
 Expl Unexpl |  Obj  Depth IntInf | Incumbent    BestBd   Gap | It/Node Time

     0     0          -    0        83.00000 -16134.000      -     -   60s

Explored 0 nodes (49964 simplex iterations) in 60.02 seconds
Thread count was 1 (of 40 available processors)

Solution count 1: 83 

Time limit reached
Best objective 8.300000000000e+01, best bound -1.613400000000e+04, gap 19538.5542%
0	293765	4639	0	-16134	83	60.551
