Academic license - for non-commercial use only - expires 2025-02-09
Gurobi Optimizer version 9.1.2 build v9.1.2rc0 (linux64)
Thread count: 20 physical cores, 40 logical processors, using up to 1 threads
Optimize a model with 14276 rows, 1838334 columns and 5486853 nonzeros
Model fingerprint: 0x4cc79366
Variable types: 0 continuous, 1838334 integer (0 binary)
Coefficient statistics:
  Matrix range     [1e+00, 1e+00]
  Objective range  [1e+00, 1e+00]
  Bounds range     [4e+02, 4e+02]
  RHS range        [1e+00, 1e+00]

Warning: Completing partial solution with 1837791 unfixed non-continuous variables out of 1838334
User MIP start produced solution with objective 172 (2.50s)
Loaded user MIP start with objective 172
Processed MIP start in 2.56 seconds

Presolve removed 82 rows and 18887 columns (presolve time = 6s) ...
Presolve removed 82 rows and 18888 columns (presolve time = 10s) ...
Presolve removed 82 rows and 18894 columns (presolve time = 16s) ...
Presolve removed 82 rows and 18894 columns
Presolve time: 15.54s
Presolved: 14194 rows, 1819440 columns, 5448216 nonzeros
Variable types: 0 continuous, 1819440 integer (1819440 binary)

Root simplex log...

Iteration    Objective       Primal Inf.    Dual Inf.      Time
       0   -6.1720000e+03   1.274700e+04   0.000000e+00     22s
    8125    1.0240233e-04   1.295000e+03   0.000000e+00     25s
   12796    1.4422359e-04   1.572500e+03   0.000000e+00     30s
   14994    1.6475993e-04   2.062000e+03   0.000000e+00     35s
   17096    1.8890872e-04   2.191250e+03   0.000000e+00     40s
   22376    3.8000166e+01   2.743781e+03   0.000000e+00     45s
   23634    3.8000192e+01   1.092312e+04   0.000000e+00     50s
   24716    3.8000241e+01   2.341099e+03   0.000000e+00     55s

Root relaxation: time limit, 25108 iterations, 38.10 seconds

    Nodes    |    Current Node    |     Objective Bounds      |     Work
 Expl Unexpl |  Obj  Depth IntInf | Incumbent    BestBd   Gap | It/Node Time

     0     0          -    0       172.00000 -66290.000      -     -   57s

Explored 0 nodes (25108 simplex iterations) in 57.12 seconds
Thread count was 1 (of 40 available processors)

Solution count 1: 172 

Time limit reached
Best objective 1.720000000000e+02, best bound -6.629000000000e+04, gap 38640.6977%
0	1838334	14276	0	-66290	172	60.625
