Academic license - for non-commercial use only - expires 2025-02-09
Gurobi Optimizer version 9.1.2 build v9.1.2rc0 (linux64)
Thread count: 20 physical cores, 40 logical processors, using up to 1 threads
Optimize a model with 15620 rows, 1993912 columns and 5950899 nonzeros
Model fingerprint: 0x63a0b8d5
Variable types: 0 continuous, 1993912 integer (0 binary)
Coefficient statistics:
  Matrix range     [1e+00, 1e+00]
  Objective range  [1e+00, 1e+00]
  Bounds range     [4e+02, 4e+02]
  RHS range        [1e+00, 1e+00]

Warning: Completing partial solution with 1993354 unfixed non-continuous variables out of 1993912
User MIP start produced solution with objective 184 (2.76s)
Loaded user MIP start with objective 184
Processed MIP start in 2.83 seconds

Presolve removed 107 rows and 27017 columns (presolve time = 5s) ...
Presolve removed 123 rows and 27034 columns (presolve time = 11s) ...
Presolve removed 123 rows and 27999 columns (presolve time = 25s) ...
Presolve removed 128 rows and 27999 columns (presolve time = 31s) ...
Presolve removed 128 rows and 27999 columns
Presolve time: 30.89s
Presolved: 15492 rows, 1965913 columns, 5887751 nonzeros
Variable types: 0 continuous, 1965913 integer (1965913 binary)

Root simplex log...

Iteration    Objective       Primal Inf.    Dual Inf.      Time
       0   -6.3440000e+03   1.309100e+04   0.000000e+00     38s
    7216    8.9581223e-05   4.705000e+02   0.000000e+00     40s
   12982    1.3346261e-04   1.196500e+03   0.000000e+00     45s
   17486    4.1728943e-04   2.887250e+03   0.000000e+00     50s
   20258    4.9562365e-04   8.277000e+03   0.000000e+00     56s

Root relaxation: time limit, 20446 iterations, 22.36 seconds

    Nodes    |    Current Node    |     Objective Bounds      |     Work
 Expl Unexpl |  Obj  Depth IntInf | Incumbent    BestBd   Gap | It/Node Time

     0     0          -    0       184.00000 -115029.00      -     -   57s

Explored 0 nodes (20446 simplex iterations) in 57.11 seconds
Thread count was 1 (of 40 available processors)

Solution count 1: 184 

Time limit reached
Best objective 1.840000000000e+02, best bound -1.150290000000e+05, gap 62615.7609%
0	1993912	15620	0	-115029	184	60.939
