Academic license - for non-commercial use only - expires 2025-02-09
Gurobi Optimizer version 9.1.2 build v9.1.2rc0 (linux64)
Thread count: 20 physical cores, 40 logical processors, using up to 1 threads
Optimize a model with 29312 rows, 5622561 columns and 16809660 nonzeros
Model fingerprint: 0x1f8c43ae
Variable types: 0 continuous, 5622561 integer (0 binary)
Coefficient statistics:
  Matrix range     [1e+00, 1e+00]
  Objective range  [1e+00, 1e+00]
  Bounds range     [6e+02, 6e+02]
  RHS range        [1e+00, 1e+00]

Warning: Completing partial solution with 5621738 unfixed non-continuous variables out of 5622561
User MIP start produced solution with objective 247 (8.37s)
Loaded user MIP start with objective 247
Processed MIP start in 8.55 seconds

Presolve removed 179 rows and 41831 columns (presolve time = 5s) ...
Presolve removed 226 rows and 55763 columns (presolve time = 13s) ...
Presolve removed 226 rows and 55763 columns (presolve time = 15s) ...
Presolve removed 248 rows and 55785 columns (presolve time = 20s) ...
Presolve removed 248 rows and 55785 columns (presolve time = 25s) ...
Presolve removed 248 rows and 55785 columns (presolve time = 30s) ...
Presolve removed 248 rows and 55785 columns (presolve time = 35s) ...
Presolve removed 248 rows and 55785 columns
Presolve time: 40.47s

Explored 0 nodes (0 simplex iterations) in 49.42 seconds
Thread count was 1 (of 40 available processors)

Solution count 1: 247 

Time limit reached
Best objective 2.470000000000e+02, best bound -, gap -
0	5622561	29312	0	-1e+100	247	61.97
