Academic license - for non-commercial use only - expires 2025-02-09
Gurobi Optimizer version 9.1.2 build v9.1.2rc0 (linux64)
Thread count: 20 physical cores, 40 logical processors, using up to 1 threads
Optimize a model with 2487 rows, 182821 columns and 886151 nonzeros
Model fingerprint: 0xecbd8549
Variable types: 0 continuous, 182821 integer (0 binary)
Coefficient statistics:
  Matrix range     [1e+00, 1e+00]
  Objective range  [1e+00, 1e+00]
  Bounds range     [5e+02, 5e+02]
  RHS range        [1e+00, 1e+00]

Warning: Completing partial solution with 182172 unfixed non-continuous variables out of 182821
User MIP start produced solution with objective 205 (0.26s)
Loaded user MIP start with objective 205

Presolve removed 920 rows and 26172 columns
Presolve time: 2.18s
Presolved: 1567 rows, 156649 columns, 551264 nonzeros
Variable types: 0 continuous, 156649 integer (156303 binary)

Root simplex log...

Iteration    Objective       Primal Inf.    Dual Inf.      Time
    5877    1.6616704e+02   5.548464e+03   0.000000e+00      5s
   19205    1.6616900e+02   7.793426e+04   0.000000e+00     10s
   31889    1.6700081e+02   6.443220e+02   0.000000e+00     15s
   33129    1.6700000e+02   0.000000e+00   0.000000e+00     17s

Root relaxation: objective 1.670000e+02, 33129 iterations, 14.57 seconds
Total elapsed time = 21.04s
Total elapsed time = 34.18s
Total elapsed time = 38.39s
Total elapsed time = 40.85s

    Nodes    |    Current Node    |     Objective Bounds      |     Work
 Expl Unexpl |  Obj  Depth IntInf | Incumbent    BestBd   Gap | It/Node Time

     0     0  167.00000    0  124  205.00000  167.00000  18.5%     -   43s
H    0     0                     168.0000000  167.00000  0.60%     -   43s
     0     0  167.00000    0   43  168.00000  167.00000  0.60%     -   56s

Cutting planes:
  RLT: 1

Explored 1 nodes (275558 simplex iterations) in 60.04 seconds
Thread count was 1 (of 40 available processors)

Solution count 2: 168 205 

Time limit reached
Best objective 1.680000000000e+02, best bound 1.670000000000e+02, gap 0.5952%
0	182821	2487	1	167	168	60.493
