Academic license - for non-commercial use only - expires 2025-02-09
Gurobi Optimizer version 9.1.2 build v9.1.2rc0 (linux64)
Thread count: 20 physical cores, 40 logical processors, using up to 1 threads
Optimize a model with 1615 rows, 12917 columns and 61748 nonzeros
Model fingerprint: 0x365114de
Variable types: 0 continuous, 12917 integer (0 binary)
Coefficient statistics:
  Matrix range     [1e+00, 1e+00]
  Objective range  [1e+00, 1e+00]
  Bounds range     [6e+01, 6e+01]
  RHS range        [1e+00, 1e+00]

Warning: Completing partial solution with 12833 unfixed non-continuous variables out of 12917
User MIP start produced solution with objective 27 (0.02s)
Loaded user MIP start with objective 27

Presolve removed 879 rows and 2595 columns
Presolve time: 0.13s
Presolved: 736 rows, 10322 columns, 32137 nonzeros
Variable types: 0 continuous, 10322 integer (10157 binary)

Root relaxation: objective 2.000000e+01, 2018 iterations, 0.11 seconds

    Nodes    |    Current Node    |     Objective Bounds      |     Work
 Expl Unexpl |  Obj  Depth IntInf | Incumbent    BestBd   Gap | It/Node Time

*    0     0               0      20.0000000   20.00000  0.00%     -    0s

Explored 0 nodes (2018 simplex iterations) in 0.27 seconds
Thread count was 1 (of 40 available processors)

Solution count 2: 20 27 

Optimal solution found (tolerance 1.00e-04)
Best objective 2.000000000000e+01, best bound 2.000000000000e+01, gap 0.0000%
1	12917	1615	0	20	20	0.331
