Academic license - for non-commercial use only - expires 2025-02-09
Gurobi Optimizer version 9.1.2 build v9.1.2rc0 (linux64)
Thread count: 20 physical cores, 40 logical processors, using up to 1 threads
Optimize a model with 1645 rows, 13405 columns and 64229 nonzeros
Model fingerprint: 0xef63126f
Variable types: 0 continuous, 13405 integer (0 binary)
Coefficient statistics:
  Matrix range     [1e+00, 1e+00]
  Objective range  [1e+00, 1e+00]
  Bounds range     [6e+01, 6e+01]
  RHS range        [1e+00, 1e+00]

Warning: Completing partial solution with 13320 unfixed non-continuous variables out of 13405
User MIP start produced solution with objective 26 (0.02s)
Loaded user MIP start with objective 26

Presolve removed 882 rows and 2577 columns
Presolve time: 0.13s
Presolved: 763 rows, 10828 columns, 33715 nonzeros
Variable types: 0 continuous, 10828 integer (10644 binary)

Root relaxation: objective 2.000000e+01, 2211 iterations, 0.11 seconds

    Nodes    |    Current Node    |     Objective Bounds      |     Work
 Expl Unexpl |  Obj  Depth IntInf | Incumbent    BestBd   Gap | It/Node Time

*    0     0               0      20.0000000   20.00000  0.00%     -    0s

Explored 0 nodes (2211 simplex iterations) in 0.26 seconds
Thread count was 1 (of 40 available processors)

Solution count 2: 20 26 

Optimal solution found (tolerance 1.00e-04)
Best objective 2.000000000000e+01, best bound 2.000000000000e+01, gap 0.0000%
1	13405	1645	0	20	20	0.301
