Academic license - for non-commercial use only - expires 2025-02-09
Gurobi Optimizer version 9.1.2 build v9.1.2rc0 (linux64)
Thread count: 20 physical cores, 40 logical processors, using up to 1 threads
Optimize a model with 1631 rows, 13189 columns and 63016 nonzeros
Model fingerprint: 0x028a5408
Variable types: 0 continuous, 13189 integer (0 binary)
Coefficient statistics:
  Matrix range     [1e+00, 1e+00]
  Objective range  [1e+00, 1e+00]
  Bounds range     [6e+01, 6e+01]
  RHS range        [1e+00, 1e+00]

Warning: Completing partial solution with 13105 unfixed non-continuous variables out of 13189
User MIP start produced solution with objective 25 (0.01s)
Loaded user MIP start with objective 25

Presolve removed 898 rows and 2647 columns
Presolve time: 0.10s
Presolved: 733 rows, 10542 columns, 32612 nonzeros
Variable types: 0 continuous, 10542 integer (10381 binary)

Root relaxation: objective 2.000000e+01, 2055 iterations, 0.13 seconds

    Nodes    |    Current Node    |     Objective Bounds      |     Work
 Expl Unexpl |  Obj  Depth IntInf | Incumbent    BestBd   Gap | It/Node Time

*    0     0               0      20.0000000   20.00000  0.00%     -    0s

Explored 0 nodes (2055 simplex iterations) in 0.25 seconds
Thread count was 1 (of 40 available processors)

Solution count 2: 20 25 

Optimal solution found (tolerance 1.00e-04)
Best objective 2.000000000000e+01, best bound 2.000000000000e+01, gap 0.0000%
1	13189	1631	0	20	20	0.283
