Academic license - for non-commercial use only - expires 2025-02-09
Gurobi Optimizer version 9.1.2 build v9.1.2rc0 (linux64)
Thread count: 20 physical cores, 40 logical processors, using up to 1 threads
Optimize a model with 1821 rows, 31801 columns and 152889 nonzeros
Model fingerprint: 0x6c244c20
Variable types: 0 continuous, 31801 integer (0 binary)
Coefficient statistics:
  Matrix range     [1e+00, 1e+00]
  Objective range  [1e+00, 1e+00]
  Bounds range     [1e+02, 1e+02]
  RHS range        [1e+00, 1e+00]

Warning: Completing partial solution with 31636 unfixed non-continuous variables out of 31801
User MIP start produced solution with objective 49 (0.03s)
Loaded user MIP start with objective 49

Presolve removed 896 rows and 5392 columns
Presolve time: 0.27s
Presolved: 925 rows, 26409 columns, 84841 nonzeros
Variable types: 0 continuous, 26409 integer (26142 binary)

Root relaxation: objective 4.000000e+01, 5041 iterations, 0.61 seconds

    Nodes    |    Current Node    |     Objective Bounds      |     Work
 Expl Unexpl |  Obj  Depth IntInf | Incumbent    BestBd   Gap | It/Node Time

*    0     0               0      40.0000000   40.00000  0.00%     -    1s

Explored 0 nodes (18811 simplex iterations) in 1.48 seconds
Thread count was 1 (of 40 available processors)

Solution count 2: 40 49 

Optimal solution found (tolerance 1.00e-04)
Best objective 4.000000000000e+01, best bound 4.000000000000e+01, gap 0.0000%
1	31801	1821	0	40	40	1.566
