Academic license - for non-commercial use only - expires 2025-02-09
Gurobi Optimizer version 9.1.2 build v9.1.2rc0 (linux64)
Thread count: 20 physical cores, 40 logical processors, using up to 1 threads
Optimize a model with 2479 rows, 182819 columns and 884120 nonzeros
Model fingerprint: 0x5593e70a
Variable types: 0 continuous, 182819 integer (0 binary)
Coefficient statistics:
  Matrix range     [1e+00, 1e+00]
  Objective range  [1e+00, 1e+00]
  Bounds range     [5e+02, 5e+02]
  RHS range        [1e+00, 1e+00]

Warning: Completing partial solution with 182174 unfixed non-continuous variables out of 182819
User MIP start produced solution with objective 208 (0.26s)
Loaded user MIP start with objective 208

Presolve removed 930 rows and 28371 columns
Presolve time: 2.17s
Presolved: 1549 rows, 154448 columns, 541154 nonzeros
Found heuristic solution: objective 208.0000000
Variable types: 0 continuous, 154448 integer (154110 binary)

Root simplex log...

Iteration    Objective       Primal Inf.    Dual Inf.      Time
    6735    1.6650011e+02   2.033812e+03   0.000000e+00      5s
   15119    1.6683392e+02   2.387142e+04   0.000000e+00     10s
   22651    1.6683430e+02   5.674914e+03   0.000000e+00     15s
   29928    1.6683470e+02   3.003898e+04   0.000000e+00     20s
   34856    1.6700000e+02   0.000000e+00   0.000000e+00     24s

Root relaxation: objective 1.670000e+02, 34856 iterations, 21.81 seconds
Total elapsed time = 28.25s
Total elapsed time = 38.05s

    Nodes    |    Current Node    |     Objective Bounds      |     Work
 Expl Unexpl |  Obj  Depth IntInf | Incumbent    BestBd   Gap | It/Node Time

*    0     0               0     167.0000000  167.00000  0.00%     -   41s

Explored 0 nodes (174032 simplex iterations) in 42.02 seconds
Thread count was 1 (of 40 available processors)

Solution count 3: 167 208 208 

Optimal solution found (tolerance 1.00e-04)
Best objective 1.670000000000e+02, best bound 1.670000000000e+02, gap 0.0000%
1	182819	2479	0	167	167	42.484
