Academic license - for non-commercial use only - expires 2025-02-09
Gurobi Optimizer version 9.1.2 build v9.1.2rc0 (linux64)
Thread count: 20 physical cores, 40 logical processors, using up to 1 threads
Optimize a model with 1629 rows, 13200 columns and 62926 nonzeros
Model fingerprint: 0x9c8bd883
Variable types: 0 continuous, 13200 integer (0 binary)
Coefficient statistics:
  Matrix range     [1e+00, 1e+00]
  Objective range  [1e+00, 1e+00]
  Bounds range     [6e+01, 6e+01]
  RHS range        [1e+00, 1e+00]

Warning: Completing partial solution with 13112 unfixed non-continuous variables out of 13200
User MIP start produced solution with objective 30 (0.02s)
Loaded user MIP start with objective 30

Presolve removed 907 rows and 3219 columns
Presolve time: 0.12s
Presolved: 722 rows, 9981 columns, 31014 nonzeros
Variable types: 0 continuous, 9981 integer (9823 binary)

Root relaxation: objective 2.000000e+01, 2269 iterations, 0.15 seconds

    Nodes    |    Current Node    |     Objective Bounds      |     Work
 Expl Unexpl |  Obj  Depth IntInf | Incumbent    BestBd   Gap | It/Node Time

*    0     0               0      20.0000000   20.00000  0.00%     -    0s

Explored 0 nodes (2269 simplex iterations) in 0.30 seconds
Thread count was 1 (of 40 available processors)

Solution count 2: 20 30 

Optimal solution found (tolerance 1.00e-04)
Best objective 2.000000000000e+01, best bound 2.000000000000e+01, gap 0.0000%
1	13200	1629	0	20	20	0.337
