Application parameters:
  batch  =>  nothing
  instance  =>  "/IN/201_2500_DI_19.txt-Q20"
  ub  =>  1.0e6
  cfg  =>  "/CFG/BPP.cfg"
data = Colored Bin Packing dataset.
number of items = 202
number of colors = 20
capacity = 2048
Items : 
	 item 1, weight= 4, color= 15
	 item 2, weight= 8, color= 16
	 item 3, weight= 8, color= 19
	 item 4, weight= 12, color= 9
	 item 5, weight= 20, color= 10
	 item 6, weight= 36, color= 6
	 item 7, weight= 36, color= 6
	 item 8, weight= 36, color= 16
	 item 9, weight= 36, color= 18
	 item 10, weight= 40, color= 6
	 item 11, weight= 40, color= 16
	 item 12, weight= 42, color= 3
	 item 13, weight= 42, color= 19
	 item 14, weight= 44, color= 17
	 item 15, weight= 46, color= 1
	 item 16, weight= 46, color= 3
	 item 17, weight= 46, color= 12
	 item 18, weight= 48, color= 1
	 item 19, weight= 48, color= 13
	 item 20, weight= 48, color= 14
	 item 21, weight= 52, color= 0
	 item 22, weight= 52, color= 3
	 item 23, weight= 52, color= 7
	 item 24, weight= 52, color= 16
	 item 25, weight= 56, color= 5
	 item 26, weight= 56, color= 8
	 item 27, weight= 56, color= 17
	 item 28, weight= 56, color= 19
	 item 29, weight= 60, color= 0
	 item 30, weight= 60, color= 18
	 item 31, weight= 62, color= 2
	 item 32, weight= 62, color= 12
	 item 33, weight= 62, color= 13
	 item 34, weight= 64, color= 10
	 item 35, weight= 64, color= 18
	 item 36, weight= 68, color= 10
	 item 37, weight= 70, color= 18
	 item 38, weight= 72, color= 3
	 item 39, weight= 72, color= 6
	 item 40, weight= 76, color= 3
	 item 41, weight= 76, color= 16
	 item 42, weight= 76, color= 17
	 item 43, weight= 76, color= 19
	 item 44, weight= 78, color= 9
	 item 45, weight= 78, color= 14
	 item 46, weight= 80, color= 7
	 item 47, weight= 84, color= 6
	 item 48, weight= 86, color= 11
	 item 49, weight= 96, color= 3
	 item 50, weight= 96, color= 17
	 item 51, weight= 98, color= 15
	 item 52, weight= 100, color= 18
	 item 53, weight= 104, color= 12
	 item 54, weight= 108, color= 2
	 item 55, weight= 110, color= 9
	 item 56, weight= 112, color= 15
	 item 57, weight= 120, color= 8
	 item 58, weight= 120, color= 14
	 item 59, weight= 126, color= 14
	 item 60, weight= 132, color= 12
	 item 61, weight= 140, color= 12
	 item 62, weight= 140, color= 18
	 item 63, weight= 146, color= 6
	 item 64, weight= 146, color= 6
	 item 65, weight= 146, color= 13
	 item 66, weight= 160, color= 5
	 item 67, weight= 168, color= 14
	 item 68, weight= 168, color= 16
	 item 69, weight= 170, color= 12
	 item 70, weight= 190, color= 18
	 item 71, weight= 194, color= 13
	 item 72, weight= 198, color= 9
	 item 73, weight= 202, color= 10
	 item 74, weight= 202, color= 19
	 item 75, weight= 208, color= 17
	 item 76, weight= 211, color= 0
	 item 77, weight= 215, color= 5
	 item 78, weight= 220, color= 2
	 item 79, weight= 231, color= 16
	 item 80, weight= 235, color= 5
	 item 81, weight= 239, color= 13
	 item 82, weight= 246, color= 9
	 item 83, weight= 258, color= 15
	 item 84, weight= 261, color= 14
	 item 85, weight= 271, color= 4
	 item 86, weight= 274, color= 12
	 item 87, weight= 274, color= 15
	 item 88, weight= 282, color= 5
	 item 89, weight= 289, color= 10
	 item 90, weight= 291, color= 2
	 item 91, weight= 302, color= 6
	 item 92, weight= 313, color= 18
	 item 93, weight= 314, color= 12
	 item 94, weight= 316, color= 2
	 item 95, weight= 317, color= 12
	 item 96, weight= 321, color= 8
	 item 97, weight= 321, color= 17
	 item 98, weight= 330, color= 0
	 item 99, weight= 351, color= 15
	 item 100, weight= 353, color= 4
	 item 101, weight= 362, color= 16
	 item 102, weight= 388, color= 8
	 item 103, weight= 389, color= 19
	 item 104, weight= 391, color= 18
	 item 105, weight= 395, color= 6
	 item 106, weight= 398, color= 19
	 item 107, weight= 406, color= 1
	 item 108, weight= 414, color= 10
	 item 109, weight= 424, color= 0
	 item 110, weight= 439, color= 2
	 item 111, weight= 442, color= 8
	 item 112, weight= 472, color= 6
	 item 113, weight= 477, color= 15
	 item 114, weight= 491, color= 0
	 item 115, weight= 493, color= 3
	 item 116, weight= 494, color= 10
	 item 117, weight= 498, color= 0
	 item 118, weight= 522, color= 13
	 item 119, weight= 529, color= 11
	 item 120, weight= 554, color= 11
	 item 121, weight= 559, color= 7
	 item 122, weight= 562, color= 6
	 item 123, weight= 605, color= 6
	 item 124, weight= 607, color= 4
	 item 125, weight= 630, color= 5
	 item 126, weight= 637, color= 4
	 item 127, weight= 682, color= 8
	 item 128, weight= 696, color= 6
	 item 129, weight= 706, color= 3
	 item 130, weight= 709, color= 12
	 item 131, weight= 731, color= 3
	 item 132, weight= 735, color= 6
	 item 133, weight= 739, color= 18
	 item 134, weight= 802, color= 8
	 item 135, weight= 828, color= 18
	 item 136, weight= 851, color= 4
	 item 137, weight= 853, color= 14
	 item 138, weight= 854, color= 5
	 item 139, weight= 1025, color= 9
	 item 140, weight= 1026, color= 16
	 item 141, weight= 1029, color= 4
	 item 142, weight= 1086, color= 4
	 item 143, weight= 1163, color= 14
	 item 144, weight= 1167, color= 10
	 item 145, weight= 1171, color= 0
	 item 146, weight= 1199, color= 4
	 item 147, weight= 1202, color= 12
	 item 148, weight= 1234, color= 19
	 item 149, weight= 1280, color= 4
	 item 150, weight= 1285, color= 6
	 item 151, weight= 1298, color= 6
	 item 152, weight= 1321, color= 1
	 item 153, weight= 1374, color= 19
	 item 154, weight= 1379, color= 3
	 item 155, weight= 1383, color= 14
	 item 156, weight= 1386, color= 0
	 item 157, weight= 1415, color= 9
	 item 158, weight= 1416, color= 2
	 item 159, weight= 1426, color= 18
	 item 160, weight= 1457, color= 11
	 item 161, weight= 1458, color= 6
	 item 162, weight= 1461, color= 10
	 item 163, weight= 1502, color= 19
	 item 164, weight= 1522, color= 9
	 item 165, weight= 1523, color= 8
	 item 166, weight= 1527, color= 11
	 item 167, weight= 1562, color= 14
	 item 168, weight= 1574, color= 2
	 item 169, weight= 1575, color= 12
	 item 170, weight= 1579, color= 7
	 item 171, weight= 1582, color= 15
	 item 172, weight= 1583, color= 9
	 item 173, weight= 1588, color= 5
	 item 174, weight= 1614, color= 1
	 item 175, weight= 1625, color= 12
	 item 176, weight= 1629, color= 14
	 item 177, weight= 1654, color= 3
	 item 178, weight= 1663, color= 15
	 item 179, weight= 1665, color= 17
	 item 180, weight= 1669, color= 0
	 item 181, weight= 1673, color= 7
	 item 182, weight= 1674, color= 6
	 item 183, weight= 1690, color= 5
	 item 184, weight= 1701, color= 16
	 item 185, weight= 1703, color= 11
	 item 186, weight= 1714, color= 3
	 item 187, weight= 1722, color= 10
	 item 188, weight= 1725, color= 1
	 item 189, weight= 1742, color= 6
	 item 190, weight= 1754, color= 11
	 item 191, weight= 1763, color= 12
	 item 192, weight= 1767, color= 19
	 item 193, weight= 1770, color= 8
	 item 194, weight= 1771, color= 14
	 item 195, weight= 1775, color= 15
	 item 196, weight= 1791, color= 6
	 item 197, weight= 1795, color= 11
	 item 198, weight= 1806, color= 11
	 item 199, weight= 1810, color= 0
	 item 200, weight= 1814, color= 6
	 item 201, weight= 1818, color= 0
	 item 202, weight= 1822, color= 15

VRPSolver warning: Interval set for resource 1 on source node (when source != sink) is ignored (by definition is [0.0,0.0])
VRPSolver warning: Interval set for resource 2 on source node (when source != sink) is ignored (by definition is [0.0,0.0])
VRPSolver warning: Interval set for resource 3 on source node (when source != sink) is ignored (by definition is [0.0,0.0])
VRPSolver warning: Interval set for resource 4 on source node (when source != sink) is ignored (by definition is [0.0,0.0])
VRPSolver warning: Interval set for resource 5 on source node (when source != sink) is ignored (by definition is [0.0,0.0])
VRPSolver warning: Interval set for resource 6 on source node (when source != sink) is ignored (by definition is [0.0,0.0])
VRPSolver warning: Interval set for resource 7 on source node (when source != sink) is ignored (by definition is [0.0,0.0])
VRPSolver warning: Interval set for resource 8 on source node (when source != sink) is ignored (by definition is [0.0,0.0])
VRPSolver warning: Interval set for resource 9 on source node (when source != sink) is ignored (by definition is [0.0,0.0])
VRPSolver warning: Interval set for resource 10 on source node (when source != sink) is ignored (by definition is [0.0,0.0])
VRPSolver warning: Interval set for resource 11 on source node (when source != sink) is ignored (by definition is [0.0,0.0])
VRPSolver warning: Interval set for resource 12 on source node (when source != sink) is ignored (by definition is [0.0,0.0])
VRPSolver warning: Interval set for resource 13 on source node (when source != sink) is ignored (by definition is [0.0,0.0])
VRPSolver warning: Interval set for resource 14 on source node (when source != sink) is ignored (by definition is [0.0,0.0])
VRPSolver warning: Interval set for resource 15 on source node (when source != sink) is ignored (by definition is [0.0,0.0])
VRPSolver warning: Interval set for resource 16 on source node (when source != sink) is ignored (by definition is [0.0,0.0])
VRPSolver warning: Interval set for resource 17 on source node (when source != sink) is ignored (by definition is [0.0,0.0])
VRPSolver warning: Interval set for resource 18 on source node (when source != sink) is ignored (by definition is [0.0,0.0])
VRPSolver warning: Interval set for resource 19 on source node (when source != sink) is ignored (by definition is [0.0,0.0])
VRPSolver warning: Interval set for resource 20 on source node (when source != sink) is ignored (by definition is [0.0,0.0])
VRPSolver warning: Interval set for resource 21 on source node (when source != sink) is ignored (by definition is [0.0,0.0])
[41m solve [00m
~~~~~~~~~~~~~~~~~~~~~~~~~~~~~~~~~~~~~~~~~~~~~~~~~~~~~~~~~~~~~~~~~~~~~~~~~~~~~~
VRPSolver v0.4.1, 24/03/2021. Web: vrpsolver.math.u-bordeaux.fr
Corresponds to the solver by Pessoa, Sadykov, Uchoa and Vanderbeck (2020)
Paper: dx.doi.org/10.1007/s10107-020-01523-z
USE THIS CODE ONLY FOR ACADEMIC PURPOSES AT YOUR OWN RISK
~~~~~~~~~~~~~~~~~~~~~~~~~~~~~~~~~~~~~~~~~~~~~~~~~~~~~~~~~~~~~~~~~~~~~~~~~~~~~~
BaPCod v053, 24/03/2021, © Inria Bordeaux, France
~~~~~~~~~~~~~~~~~~~~~~~~~~~~~~~~~~~~~~~~~~~~~~~~~~~~~~~~~~~~~~~~~~~~~~~~~~~~~~
VRPSolver parameters:
GlobalTimeLimit = 60
MaxNbOfBBtreeNodeTreated = 100000
treeSearchStrategy = 1
RCSPstopCutGenTimeThresholdInPricing = 10
RCSPhardTimeThresholdInPricing = 20
RCSPnumberOfBucketsPerVertex = 2000
RCSPdynamicBucketSteps = 0
RCSPuseBidirectionalSearch = 1
RCSPapplyReducedCostFixing = 1
RCSPredCostFixingFalseGap = 0
RCSPmaxNumOfColsPerIteration = 100
RCSPmaxNumOfColsPerExactIteration = 100
RCSPheurLabelingStrategy = 4
StabilizationMinPhaseOfStage = 1
RCSPmaxNumOfLabelsInEnumeration = 100000
RCSPmaxNumOfEnumeratedSolutions = 1000000
RCSPmaxNumOfEnumSolutionsForMIP = 100000
RCSPinitNGneighbourhoodSize = 0
RCSPmaxNGneighbourhoodSize = 0
RCSPrankOneCutsMaxNumPerRound = 100
RCSPrankOneCutsMaxNumRows = -1
RCSPrankOneCutsMemoryType = 2
CutTailingOffThreshold = 0.02
CutTailingOffCounterThreshold = 3
SafeDualBoundScaleFactor = -1
StrongBranchingPhaseOneCandidatesNumber = 100
StrongBranchingPhaseOneTreeSizeEstimRatio = 0.3
StrongBranchingPhaseTwoCandidatesNumber = 1
StrongBranchingPhaseTwoTreeSizeEstimRatio = 0.1
MaxTimeForRestrictedMasterIpHeur = -1
DivingHeurUseDepthLimit = 0
MaxLDSbreadth = 3
MaxLDSdepth = 2
New model incumbent solution 1e+06, TIME = 0h0m0s3t = 3
