Application parameters:
  batch  =>  nothing
  instance  =>  "/IN/201_2500_DI_8.txt-Q5"
  ub  =>  1.0e6
  cfg  =>  "/CFG/BPP.cfg"
data = Colored Bin Packing dataset.
number of items = 202
number of colors = 5
capacity = 2456
Items : 
	 item 1, weight= 8, color= 1
	 item 2, weight= 8, color= 3
	 item 3, weight= 16, color= 1
	 item 4, weight= 24, color= 1
	 item 5, weight= 32, color= 0
	 item 6, weight= 40, color= 1
	 item 7, weight= 40, color= 2
	 item 8, weight= 40, color= 2
	 item 9, weight= 40, color= 3
	 item 10, weight= 40, color= 4
	 item 11, weight= 48, color= 1
	 item 12, weight= 48, color= 1
	 item 13, weight= 48, color= 2
	 item 14, weight= 48, color= 2
	 item 15, weight= 48, color= 4
	 item 16, weight= 48, color= 4
	 item 17, weight= 56, color= 0
	 item 18, weight= 56, color= 3
	 item 19, weight= 64, color= 0
	 item 20, weight= 64, color= 3
	 item 21, weight= 64, color= 3
	 item 22, weight= 64, color= 4
	 item 23, weight= 64, color= 4
	 item 24, weight= 68, color= 2
	 item 25, weight= 72, color= 0
	 item 26, weight= 72, color= 4
	 item 27, weight= 76, color= 0
	 item 28, weight= 76, color= 4
	 item 29, weight= 80, color= 1
	 item 30, weight= 80, color= 1
	 item 31, weight= 80, color= 2
	 item 32, weight= 80, color= 3
	 item 33, weight= 88, color= 1
	 item 34, weight= 88, color= 2
	 item 35, weight= 88, color= 3
	 item 36, weight= 92, color= 1
	 item 37, weight= 92, color= 1
	 item 38, weight= 96, color= 0
	 item 39, weight= 104, color= 3
	 item 40, weight= 104, color= 4
	 item 41, weight= 108, color= 4
	 item 42, weight= 110, color= 3
	 item 43, weight= 112, color= 2
	 item 44, weight= 112, color= 3
	 item 45, weight= 120, color= 0
	 item 46, weight= 120, color= 1
	 item 47, weight= 124, color= 3
	 item 48, weight= 128, color= 1
	 item 49, weight= 128, color= 2
	 item 50, weight= 132, color= 1
	 item 51, weight= 134, color= 0
	 item 52, weight= 144, color= 4
	 item 53, weight= 144, color= 4
	 item 54, weight= 148, color= 1
	 item 55, weight= 148, color= 4
	 item 56, weight= 150, color= 4
	 item 57, weight= 154, color= 0
	 item 58, weight= 160, color= 4
	 item 59, weight= 164, color= 1
	 item 60, weight= 166, color= 3
	 item 61, weight= 168, color= 2
	 item 62, weight= 172, color= 4
	 item 63, weight= 184, color= 2
	 item 64, weight= 184, color= 2
	 item 65, weight= 200, color= 1
	 item 66, weight= 200, color= 2
	 item 67, weight= 204, color= 0
	 item 68, weight= 204, color= 0
	 item 69, weight= 204, color= 2
	 item 70, weight= 210, color= 1
	 item 71, weight= 212, color= 2
	 item 72, weight= 214, color= 4
	 item 73, weight= 228, color= 4
	 item 74, weight= 232, color= 4
	 item 75, weight= 242, color= 4
	 item 76, weight= 244, color= 1
	 item 77, weight= 246, color= 2
	 item 78, weight= 272, color= 3
	 item 79, weight= 276, color= 2
	 item 80, weight= 280, color= 1
	 item 81, weight= 282, color= 4
	 item 82, weight= 286, color= 3
	 item 83, weight= 300, color= 0
	 item 84, weight= 330, color= 0
	 item 85, weight= 334, color= 0
	 item 86, weight= 334, color= 2
	 item 87, weight= 340, color= 0
	 item 88, weight= 364, color= 1
	 item 89, weight= 374, color= 2
	 item 90, weight= 384, color= 1
	 item 91, weight= 386, color= 0
	 item 92, weight= 402, color= 0
	 item 93, weight= 410, color= 0
	 item 94, weight= 420, color= 4
	 item 95, weight= 444, color= 2
	 item 96, weight= 454, color= 0
	 item 97, weight= 466, color= 3
	 item 98, weight= 482, color= 4
	 item 99, weight= 512, color= 3
	 item 100, weight= 516, color= 3
	 item 101, weight= 538, color= 3
	 item 102, weight= 540, color= 1
	 item 103, weight= 550, color= 1
	 item 104, weight= 553, color= 1
	 item 105, weight= 568, color= 1
	 item 106, weight= 604, color= 3
	 item 107, weight= 605, color= 0
	 item 108, weight= 611, color= 1
	 item 109, weight= 634, color= 1
	 item 110, weight= 638, color= 0
	 item 111, weight= 646, color= 4
	 item 112, weight= 660, color= 0
	 item 113, weight= 665, color= 2
	 item 114, weight= 671, color= 0
	 item 115, weight= 674, color= 0
	 item 116, weight= 732, color= 4
	 item 117, weight= 738, color= 2
	 item 118, weight= 745, color= 0
	 item 119, weight= 750, color= 3
	 item 120, weight= 751, color= 1
	 item 121, weight= 771, color= 3
	 item 122, weight= 804, color= 0
	 item 123, weight= 827, color= 4
	 item 124, weight= 840, color= 4
	 item 125, weight= 841, color= 0
	 item 126, weight= 841, color= 4
	 item 127, weight= 862, color= 1
	 item 128, weight= 874, color= 1
	 item 129, weight= 921, color= 1
	 item 130, weight= 923, color= 1
	 item 131, weight= 924, color= 2
	 item 132, weight= 976, color= 2
	 item 133, weight= 980, color= 0
	 item 134, weight= 1018, color= 1
	 item 135, weight= 1020, color= 4
	 item 136, weight= 1021, color= 1
	 item 137, weight= 1022, color= 2
	 item 138, weight= 1023, color= 3
	 item 139, weight= 1229, color= 4
	 item 140, weight= 1230, color= 0
	 item 141, weight= 1231, color= 4
	 item 142, weight= 1236, color= 3
	 item 143, weight= 1238, color= 4
	 item 144, weight= 1349, color= 2
	 item 145, weight= 1351, color= 1
	 item 146, weight= 1364, color= 0
	 item 147, weight= 1410, color= 2
	 item 148, weight= 1426, color= 3
	 item 149, weight= 1449, color= 0
	 item 150, weight= 1452, color= 1
	 item 151, weight= 1465, color= 3
	 item 152, weight= 1492, color= 4
	 item 153, weight= 1531, color= 4
	 item 154, weight= 1536, color= 0
	 item 155, weight= 1547, color= 4
	 item 156, weight= 1555, color= 0
	 item 157, weight= 1558, color= 4
	 item 158, weight= 1563, color= 1
	 item 159, weight= 1574, color= 4
	 item 160, weight= 1580, color= 1
	 item 161, weight= 1651, color= 4
	 item 162, weight= 1659, color= 2
	 item 163, weight= 1668, color= 3
	 item 164, weight= 1682, color= 0
	 item 165, weight= 1694, color= 4
	 item 166, weight= 1696, color= 1
	 item 167, weight= 1710, color= 1
	 item 168, weight= 1725, color= 3
	 item 169, weight= 1731, color= 2
	 item 170, weight= 1740, color= 0
	 item 171, weight= 1758, color= 0
	 item 172, weight= 1793, color= 0
	 item 173, weight= 1798, color= 1
	 item 174, weight= 1812, color= 2
	 item 175, weight= 1814, color= 4
	 item 176, weight= 1844, color= 2
	 item 177, weight= 1882, color= 4
	 item 178, weight= 1898, color= 0
	 item 179, weight= 1914, color= 2
	 item 180, weight= 1932, color= 0
	 item 181, weight= 1956, color= 1
	 item 182, weight= 1966, color= 1
	 item 183, weight= 1978, color= 3
	 item 184, weight= 1994, color= 1
	 item 185, weight= 2010, color= 3
	 item 186, weight= 2028, color= 4
	 item 187, weight= 2052, color= 1
	 item 188, weight= 2058, color= 3
	 item 189, weight= 2062, color= 1
	 item 190, weight= 2098, color= 0
	 item 191, weight= 2108, color= 3
	 item 192, weight= 2114, color= 4
	 item 193, weight= 2118, color= 4
	 item 194, weight= 2132, color= 2
	 item 195, weight= 2162, color= 1
	 item 196, weight= 2166, color= 3
	 item 197, weight= 2172, color= 1
	 item 198, weight= 2188, color= 4
	 item 199, weight= 2192, color= 3
	 item 200, weight= 2202, color= 0
	 item 201, weight= 2204, color= 2
	 item 202, weight= 2206, color= 2

VRPSolver warning: Interval set for resource 1 on source node (when source != sink) is ignored (by definition is [0.0,0.0])
VRPSolver warning: Interval set for resource 2 on source node (when source != sink) is ignored (by definition is [0.0,0.0])
VRPSolver warning: Interval set for resource 3 on source node (when source != sink) is ignored (by definition is [0.0,0.0])
VRPSolver warning: Interval set for resource 4 on source node (when source != sink) is ignored (by definition is [0.0,0.0])
VRPSolver warning: Interval set for resource 5 on source node (when source != sink) is ignored (by definition is [0.0,0.0])
VRPSolver warning: Interval set for resource 6 on source node (when source != sink) is ignored (by definition is [0.0,0.0])
[41m solve [00m
~~~~~~~~~~~~~~~~~~~~~~~~~~~~~~~~~~~~~~~~~~~~~~~~~~~~~~~~~~~~~~~~~~~~~~~~~~~~~~
VRPSolver v0.4.1, 24/03/2021. Web: vrpsolver.math.u-bordeaux.fr
Corresponds to the solver by Pessoa, Sadykov, Uchoa and Vanderbeck (2020)
Paper: dx.doi.org/10.1007/s10107-020-01523-z
USE THIS CODE ONLY FOR ACADEMIC PURPOSES AT YOUR OWN RISK
~~~~~~~~~~~~~~~~~~~~~~~~~~~~~~~~~~~~~~~~~~~~~~~~~~~~~~~~~~~~~~~~~~~~~~~~~~~~~~
BaPCod v053, 24/03/2021, © Inria Bordeaux, France
~~~~~~~~~~~~~~~~~~~~~~~~~~~~~~~~~~~~~~~~~~~~~~~~~~~~~~~~~~~~~~~~~~~~~~~~~~~~~~
VRPSolver parameters:
GlobalTimeLimit = 60
MaxNbOfBBtreeNodeTreated = 100000
treeSearchStrategy = 1
RCSPstopCutGenTimeThresholdInPricing = 10
RCSPhardTimeThresholdInPricing = 20
RCSPnumberOfBucketsPerVertex = 2000
RCSPdynamicBucketSteps = 0
RCSPuseBidirectionalSearch = 1
RCSPapplyReducedCostFixing = 1
RCSPredCostFixingFalseGap = 0
RCSPmaxNumOfColsPerIteration = 100
RCSPmaxNumOfColsPerExactIteration = 100
RCSPheurLabelingStrategy = 4
StabilizationMinPhaseOfStage = 1
RCSPmaxNumOfLabelsInEnumeration = 100000
RCSPmaxNumOfEnumeratedSolutions = 1000000
RCSPmaxNumOfEnumSolutionsForMIP = 100000
RCSPinitNGneighbourhoodSize = 0
RCSPmaxNGneighbourhoodSize = 0
RCSPrankOneCutsMaxNumPerRound = 100
RCSPrankOneCutsMaxNumRows = -1
RCSPrankOneCutsMemoryType = 2
CutTailingOffThreshold = 0.02
CutTailingOffCounterThreshold = 3
SafeDualBoundScaleFactor = -1
StrongBranchingPhaseOneCandidatesNumber = 100
StrongBranchingPhaseOneTreeSizeEstimRatio = 0.3
StrongBranchingPhaseTwoCandidatesNumber = 1
StrongBranchingPhaseTwoTreeSizeEstimRatio = 0.1
MaxTimeForRestrictedMasterIpHeur = -1
DivingHeurUseDepthLimit = 0
MaxLDSbreadth = 3
MaxLDSdepth = 2
New model incumbent solution 1e+06, TIME = 0h0m0s3t = 3
Model is built TIME = 0h0m1s79t = 179
************************************************************************************************
**** BaB tree root node
**** Local DB = -1e+12, global bounds : [ -1e+12 , 1e+06 ], TIME = 0h0m1s79t = 179
**** 1 open nodes, 0 columns (0 active), 0 dyn. constrs. (0 active), 406 art. vars. (406 active)
************************************************************************************************
<DWph=2> <it= 10> <et=3.38> <Mt= 0.03> <Spt= 1.55> <nCl=1000> <DB=-2401995035.0804> <Mlp=156796212.7622> <PB=1000000> 
<DWph=2> <it= 20> <et=5.25> <Mt= 0.17> <Spt= 1.69> <nCl=1000> <DB=-931054603.8454> <Mlp=119752202.0589> <PB=1000000> 
<DWph=2> <it= 30> <et=7.47> <Mt= 0.33> <Spt= 1.90> <nCl=1000> <DB=-505669326.0164> <Mlp=84776773.5869> <PB=1000000> 
<DWph=2> <it= 40> <et=10.00> <Mt= 0.38> <Spt= 2.15> <nCl=1000> <DB=-207559675.0820> <Mlp=69600022.1942> <PB=1000000> 
<DWph=2> <it= 50> <et=13.01> <Mt= 0.35> <Spt= 2.65> <nCl=1000> <DB=-240905645.7743> <Mlp=57894706.2529> <PB=1000000> 
<DWph=2> <it= 60> <et=16.71> <Mt= 0.27> <Spt= 3.43> <nCl=1000> <DB=-193202564.8650> <Mlp=52361312.6314> <PB=1000000> 
<DWph=2> <it= 70> <et=20.97> <Mt= 0.34> <Spt= 3.91> <nCl=1000> <DB=-182215932.0822> <Mlp=33679945.8751> <PB=1000000> 
<DWph=2> <it= 80> <et=28.68> <Mt= 0.27> <Spt= 7.44> <nCl=968> <DB=  -69.2850> <Mlp=   66.9112> <PB=1000000> 
<DWph=2> <it= 90> <et=30.41> <Mt= 0.23> <Spt= 1.50> <nCl=971> <DB=   39.2418> <Mlp=   65.9534> <PB=1000000> 
<DWph=2> <it=100> <et=32.23> <Mt= 0.39> <Spt= 1.42> <nCl=876> <DB=   64.3342> <Mlp=   65.0244> <PB=1000000> 
<DWph=2> <it=110> <et=33.86> <Mt= 0.22> <Spt= 1.26> <nCl=470> <DB=   64.9766> <Mlp=   65.0020> <PB=1000000> 
<DWph=2> <it=120> <et=35.42> <Mt= 0.06> <Spt= 1.49> <nCl= 40> <DB=   64.9968> <Mlp=   65.0018> <PB=1000000> 
<DWph=2> <it=122> <et=35.80> <Mt= 0.01> <Spt= 0.38> <nCl=  2> <DB=   65.0018> <Mlp=   65.0018> <PB=1000000> 
<DWph=1> <it=130> <et=39.09> <Mt= 0.08> <Spt= 3.20> <nCl=130> <DB=   64.9937> <Mlp=   65.0005> <PB=1000000> 
<DWph=1> <it=132> <et=40.21> <Mt= 0.01> <Spt= 1.11> <nCl=  4> <DB=   65.0005> <Mlp=   65.0005> <PB=1000000> 
