Application parameters:
  batch  =>  nothing
  instance  =>  "/IN/201_2500_DI_41.txt-Q20"
  ub  =>  1.0e6
  cfg  =>  "/CFG/BPP.cfg"
data = Colored Bin Packing dataset.
number of items = 202
number of colors = 20
capacity = 2052
Items : 
	 item 1, weight= 4, color= 7
	 item 2, weight= 4, color= 12
	 item 3, weight= 16, color= 19
	 item 4, weight= 24, color= 13
	 item 5, weight= 24, color= 19
	 item 6, weight= 32, color= 5
	 item 7, weight= 32, color= 18
	 item 8, weight= 36, color= 9
	 item 9, weight= 40, color= 3
	 item 10, weight= 40, color= 9
	 item 11, weight= 40, color= 10
	 item 12, weight= 40, color= 17
	 item 13, weight= 42, color= 15
	 item 14, weight= 44, color= 18
	 item 15, weight= 46, color= 8
	 item 16, weight= 46, color= 9
	 item 17, weight= 46, color= 15
	 item 18, weight= 48, color= 3
	 item 19, weight= 48, color= 9
	 item 20, weight= 48, color= 12
	 item 21, weight= 50, color= 11
	 item 22, weight= 52, color= 2
	 item 23, weight= 52, color= 9
	 item 24, weight= 52, color= 13
	 item 25, weight= 52, color= 17
	 item 26, weight= 52, color= 19
	 item 27, weight= 56, color= 2
	 item 28, weight= 56, color= 3
	 item 29, weight= 58, color= 8
	 item 30, weight= 60, color= 10
	 item 31, weight= 62, color= 2
	 item 32, weight= 64, color= 0
	 item 33, weight= 68, color= 2
	 item 34, weight= 68, color= 14
	 item 35, weight= 68, color= 18
	 item 36, weight= 70, color= 18
	 item 37, weight= 72, color= 6
	 item 38, weight= 72, color= 12
	 item 39, weight= 72, color= 14
	 item 40, weight= 76, color= 7
	 item 41, weight= 76, color= 8
	 item 42, weight= 78, color= 17
	 item 43, weight= 80, color= 13
	 item 44, weight= 84, color= 1
	 item 45, weight= 84, color= 11
	 item 46, weight= 84, color= 16
	 item 47, weight= 86, color= 17
	 item 48, weight= 92, color= 7
	 item 49, weight= 94, color= 7
	 item 50, weight= 94, color= 12
	 item 51, weight= 96, color= 9
	 item 52, weight= 100, color= 19
	 item 53, weight= 104, color= 11
	 item 54, weight= 106, color= 19
	 item 55, weight= 112, color= 1
	 item 56, weight= 114, color= 6
	 item 57, weight= 114, color= 8
	 item 58, weight= 116, color= 17
	 item 59, weight= 124, color= 1
	 item 60, weight= 124, color= 7
	 item 61, weight= 128, color= 19
	 item 62, weight= 130, color= 2
	 item 63, weight= 132, color= 8
	 item 64, weight= 136, color= 2
	 item 65, weight= 148, color= 0
	 item 66, weight= 148, color= 8
	 item 67, weight= 152, color= 11
	 item 68, weight= 168, color= 2
	 item 69, weight= 170, color= 8
	 item 70, weight= 174, color= 6
	 item 71, weight= 178, color= 8
	 item 72, weight= 187, color= 8
	 item 73, weight= 214, color= 6
	 item 74, weight= 218, color= 1
	 item 75, weight= 219, color= 8
	 item 76, weight= 225, color= 9
	 item 77, weight= 228, color= 3
	 item 78, weight= 228, color= 6
	 item 79, weight= 229, color= 12
	 item 80, weight= 231, color= 15
	 item 81, weight= 239, color= 14
	 item 82, weight= 240, color= 11
	 item 83, weight= 251, color= 8
	 item 84, weight= 257, color= 5
	 item 85, weight= 262, color= 11
	 item 86, weight= 263, color= 3
	 item 87, weight= 266, color= 13
	 item 88, weight= 271, color= 10
	 item 89, weight= 274, color= 15
	 item 90, weight= 282, color= 9
	 item 91, weight= 287, color= 13
	 item 92, weight= 292, color= 19
	 item 93, weight= 293, color= 7
	 item 94, weight= 313, color= 7
	 item 95, weight= 314, color= 19
	 item 96, weight= 316, color= 8
	 item 97, weight= 331, color= 8
	 item 98, weight= 342, color= 5
	 item 99, weight= 346, color= 13
	 item 100, weight= 357, color= 8
	 item 101, weight= 362, color= 11
	 item 102, weight= 382, color= 18
	 item 103, weight= 385, color= 14
	 item 104, weight= 389, color= 9
	 item 105, weight= 391, color= 8
	 item 106, weight= 402, color= 10
	 item 107, weight= 422, color= 13
	 item 108, weight= 425, color= 14
	 item 109, weight= 428, color= 19
	 item 110, weight= 431, color= 5
	 item 111, weight= 467, color= 0
	 item 112, weight= 472, color= 7
	 item 113, weight= 473, color= 12
	 item 114, weight= 478, color= 14
	 item 115, weight= 481, color= 5
	 item 116, weight= 502, color= 18
	 item 117, weight= 514, color= 19
	 item 118, weight= 525, color= 13
	 item 119, weight= 531, color= 1
	 item 120, weight= 570, color= 14
	 item 121, weight= 571, color= 5
	 item 122, weight= 579, color= 4
	 item 123, weight= 583, color= 14
	 item 124, weight= 593, color= 18
	 item 125, weight= 622, color= 14
	 item 126, weight= 649, color= 16
	 item 127, weight= 655, color= 8
	 item 128, weight= 663, color= 7
	 item 129, weight= 686, color= 7
	 item 130, weight= 692, color= 17
	 item 131, weight= 741, color= 1
	 item 132, weight= 751, color= 2
	 item 133, weight= 762, color= 16
	 item 134, weight= 828, color= 10
	 item 135, weight= 845, color= 6
	 item 136, weight= 854, color= 1
	 item 137, weight= 855, color= 6
	 item 138, weight= 897, color= 18
	 item 139, weight= 1027, color= 11
	 item 140, weight= 1030, color= 19
	 item 141, weight= 1031, color= 10
	 item 142, weight= 1111, color= 13
	 item 143, weight= 1138, color= 4
	 item 144, weight= 1153, color= 19
	 item 145, weight= 1163, color= 13
	 item 146, weight= 1230, color= 16
	 item 147, weight= 1257, color= 13
	 item 148, weight= 1267, color= 18
	 item 149, weight= 1275, color= 3
	 item 150, weight= 1288, color= 2
	 item 151, weight= 1306, color= 3
	 item 152, weight= 1353, color= 8
	 item 153, weight= 1359, color= 16
	 item 154, weight= 1367, color= 16
	 item 155, weight= 1370, color= 7
	 item 156, weight= 1375, color= 12
	 item 157, weight= 1415, color= 13
	 item 158, weight= 1420, color= 18
	 item 159, weight= 1423, color= 3
	 item 160, weight= 1438, color= 8
	 item 161, weight= 1477, color= 10
	 item 162, weight= 1478, color= 18
	 item 163, weight= 1485, color= 0
	 item 164, weight= 1493, color= 11
	 item 165, weight= 1506, color= 17
	 item 166, weight= 1535, color= 19
	 item 167, weight= 1543, color= 17
	 item 168, weight= 1546, color= 13
	 item 169, weight= 1570, color= 14
	 item 170, weight= 1583, color= 3
	 item 171, weight= 1591, color= 4
	 item 172, weight= 1598, color= 12
	 item 173, weight= 1617, color= 6
	 item 174, weight= 1618, color= 17
	 item 175, weight= 1625, color= 6
	 item 176, weight= 1638, color= 1
	 item 177, weight= 1657, color= 5
	 item 178, weight= 1677, color= 4
	 item 179, weight= 1678, color= 18
	 item 180, weight= 1686, color= 4
	 item 181, weight= 1701, color= 15
	 item 182, weight= 1704, color= 16
	 item 183, weight= 1709, color= 14
	 item 184, weight= 1718, color= 13
	 item 185, weight= 1726, color= 10
	 item 186, weight= 1729, color= 10
	 item 187, weight= 1734, color= 1
	 item 188, weight= 1737, color= 12
	 item 189, weight= 1742, color= 10
	 item 190, weight= 1745, color= 6
	 item 191, weight= 1753, color= 11
	 item 192, weight= 1767, color= 9
	 item 193, weight= 1772, color= 13
	 item 194, weight= 1775, color= 10
	 item 195, weight= 1783, color= 6
	 item 196, weight= 1791, color= 18
	 item 197, weight= 1794, color= 3
	 item 198, weight= 1798, color= 10
	 item 199, weight= 1799, color= 13
	 item 200, weight= 1829, color= 13
	 item 201, weight= 1842, color= 8
	 item 202, weight= 1846, color= 19

VRPSolver warning: Interval set for resource 1 on source node (when source != sink) is ignored (by definition is [0.0,0.0])
VRPSolver warning: Interval set for resource 2 on source node (when source != sink) is ignored (by definition is [0.0,0.0])
VRPSolver warning: Interval set for resource 3 on source node (when source != sink) is ignored (by definition is [0.0,0.0])
VRPSolver warning: Interval set for resource 4 on source node (when source != sink) is ignored (by definition is [0.0,0.0])
VRPSolver warning: Interval set for resource 5 on source node (when source != sink) is ignored (by definition is [0.0,0.0])
VRPSolver warning: Interval set for resource 6 on source node (when source != sink) is ignored (by definition is [0.0,0.0])
VRPSolver warning: Interval set for resource 7 on source node (when source != sink) is ignored (by definition is [0.0,0.0])
VRPSolver warning: Interval set for resource 8 on source node (when source != sink) is ignored (by definition is [0.0,0.0])
VRPSolver warning: Interval set for resource 9 on source node (when source != sink) is ignored (by definition is [0.0,0.0])
VRPSolver warning: Interval set for resource 10 on source node (when source != sink) is ignored (by definition is [0.0,0.0])
VRPSolver warning: Interval set for resource 11 on source node (when source != sink) is ignored (by definition is [0.0,0.0])
VRPSolver warning: Interval set for resource 12 on source node (when source != sink) is ignored (by definition is [0.0,0.0])
VRPSolver warning: Interval set for resource 13 on source node (when source != sink) is ignored (by definition is [0.0,0.0])
VRPSolver warning: Interval set for resource 14 on source node (when source != sink) is ignored (by definition is [0.0,0.0])
VRPSolver warning: Interval set for resource 15 on source node (when source != sink) is ignored (by definition is [0.0,0.0])
VRPSolver warning: Interval set for resource 16 on source node (when source != sink) is ignored (by definition is [0.0,0.0])
VRPSolver warning: Interval set for resource 17 on source node (when source != sink) is ignored (by definition is [0.0,0.0])
VRPSolver warning: Interval set for resource 18 on source node (when source != sink) is ignored (by definition is [0.0,0.0])
VRPSolver warning: Interval set for resource 19 on source node (when source != sink) is ignored (by definition is [0.0,0.0])
VRPSolver warning: Interval set for resource 20 on source node (when source != sink) is ignored (by definition is [0.0,0.0])
VRPSolver warning: Interval set for resource 21 on source node (when source != sink) is ignored (by definition is [0.0,0.0])
[41m solve [00m
~~~~~~~~~~~~~~~~~~~~~~~~~~~~~~~~~~~~~~~~~~~~~~~~~~~~~~~~~~~~~~~~~~~~~~~~~~~~~~
VRPSolver v0.4.1, 24/03/2021. Web: vrpsolver.math.u-bordeaux.fr
Corresponds to the solver by Pessoa, Sadykov, Uchoa and Vanderbeck (2020)
Paper: dx.doi.org/10.1007/s10107-020-01523-z
USE THIS CODE ONLY FOR ACADEMIC PURPOSES AT YOUR OWN RISK
~~~~~~~~~~~~~~~~~~~~~~~~~~~~~~~~~~~~~~~~~~~~~~~~~~~~~~~~~~~~~~~~~~~~~~~~~~~~~~
BaPCod v053, 24/03/2021, © Inria Bordeaux, France
~~~~~~~~~~~~~~~~~~~~~~~~~~~~~~~~~~~~~~~~~~~~~~~~~~~~~~~~~~~~~~~~~~~~~~~~~~~~~~
VRPSolver parameters:
GlobalTimeLimit = 60
MaxNbOfBBtreeNodeTreated = 100000
treeSearchStrategy = 1
RCSPstopCutGenTimeThresholdInPricing = 10
RCSPhardTimeThresholdInPricing = 20
RCSPnumberOfBucketsPerVertex = 2000
RCSPdynamicBucketSteps = 0
RCSPuseBidirectionalSearch = 1
RCSPapplyReducedCostFixing = 1
RCSPredCostFixingFalseGap = 0
RCSPmaxNumOfColsPerIteration = 100
RCSPmaxNumOfColsPerExactIteration = 100
RCSPheurLabelingStrategy = 4
StabilizationMinPhaseOfStage = 1
RCSPmaxNumOfLabelsInEnumeration = 100000
RCSPmaxNumOfEnumeratedSolutions = 1000000
RCSPmaxNumOfEnumSolutionsForMIP = 100000
RCSPinitNGneighbourhoodSize = 0
RCSPmaxNGneighbourhoodSize = 0
RCSPrankOneCutsMaxNumPerRound = 100
RCSPrankOneCutsMaxNumRows = -1
RCSPrankOneCutsMemoryType = 2
CutTailingOffThreshold = 0.02
CutTailingOffCounterThreshold = 3
SafeDualBoundScaleFactor = -1
StrongBranchingPhaseOneCandidatesNumber = 100
StrongBranchingPhaseOneTreeSizeEstimRatio = 0.3
StrongBranchingPhaseTwoCandidatesNumber = 1
StrongBranchingPhaseTwoTreeSizeEstimRatio = 0.1
MaxTimeForRestrictedMasterIpHeur = -1
DivingHeurUseDepthLimit = 0
MaxLDSbreadth = 3
MaxLDSdepth = 2
New model incumbent solution 1e+06, TIME = 0h0m0s3t = 3
