Application parameters:
  batch  =>  nothing
  instance  =>  "/IN/201_2500_DI_21.txt-Q5"
  ub  =>  1.0e6
  cfg  =>  "/CFG/BPP.cfg"
data = Colored Bin Packing dataset.
number of items = 202
number of colors = 5
capacity = 2456
Items : 
	 item 1, weight= 8, color= 0
	 item 2, weight= 8, color= 4
	 item 3, weight= 12, color= 0
	 item 4, weight= 16, color= 4
	 item 5, weight= 28, color= 0
	 item 6, weight= 32, color= 1
	 item 7, weight= 32, color= 3
	 item 8, weight= 40, color= 2
	 item 9, weight= 40, color= 3
	 item 10, weight= 44, color= 0
	 item 11, weight= 48, color= 2
	 item 12, weight= 48, color= 4
	 item 13, weight= 48, color= 4
	 item 14, weight= 48, color= 4
	 item 15, weight= 50, color= 4
	 item 16, weight= 52, color= 3
	 item 17, weight= 52, color= 4
	 item 18, weight= 52, color= 4
	 item 19, weight= 56, color= 1
	 item 20, weight= 60, color= 0
	 item 21, weight= 64, color= 0
	 item 22, weight= 64, color= 2
	 item 23, weight= 64, color= 4
	 item 24, weight= 68, color= 2
	 item 25, weight= 68, color= 3
	 item 26, weight= 72, color= 1
	 item 27, weight= 72, color= 2
	 item 28, weight= 76, color= 0
	 item 29, weight= 80, color= 4
	 item 30, weight= 80, color= 4
	 item 31, weight= 82, color= 1
	 item 32, weight= 84, color= 3
	 item 33, weight= 88, color= 1
	 item 34, weight= 88, color= 3
	 item 35, weight= 88, color= 4
	 item 36, weight= 92, color= 1
	 item 37, weight= 96, color= 0
	 item 38, weight= 96, color= 1
	 item 39, weight= 96, color= 4
	 item 40, weight= 100, color= 2
	 item 41, weight= 100, color= 4
	 item 42, weight= 102, color= 1
	 item 43, weight= 104, color= 1
	 item 44, weight= 112, color= 0
	 item 45, weight= 116, color= 0
	 item 46, weight= 116, color= 1
	 item 47, weight= 120, color= 3
	 item 48, weight= 120, color= 4
	 item 49, weight= 122, color= 1
	 item 50, weight= 122, color= 4
	 item 51, weight= 126, color= 0
	 item 52, weight= 128, color= 1
	 item 53, weight= 132, color= 1
	 item 54, weight= 132, color= 4
	 item 55, weight= 140, color= 4
	 item 56, weight= 146, color= 1
	 item 57, weight= 152, color= 4
	 item 58, weight= 160, color= 2
	 item 59, weight= 168, color= 0
	 item 60, weight= 170, color= 3
	 item 61, weight= 172, color= 1
	 item 62, weight= 172, color= 4
	 item 63, weight= 176, color= 3
	 item 64, weight= 182, color= 3
	 item 65, weight= 200, color= 0
	 item 66, weight= 200, color= 1
	 item 67, weight= 200, color= 2
	 item 68, weight= 202, color= 1
	 item 69, weight= 204, color= 2
	 item 70, weight= 226, color= 2
	 item 71, weight= 234, color= 4
	 item 72, weight= 236, color= 4
	 item 73, weight= 242, color= 4
	 item 74, weight= 244, color= 3
	 item 75, weight= 244, color= 4
	 item 76, weight= 252, color= 4
	 item 77, weight= 262, color= 1
	 item 78, weight= 266, color= 4
	 item 79, weight= 272, color= 1
	 item 80, weight= 272, color= 3
	 item 81, weight= 274, color= 4
	 item 82, weight= 282, color= 0
	 item 83, weight= 298, color= 2
	 item 84, weight= 308, color= 0
	 item 85, weight= 330, color= 3
	 item 86, weight= 332, color= 0
	 item 87, weight= 342, color= 2
	 item 88, weight= 358, color= 4
	 item 89, weight= 364, color= 4
	 item 90, weight= 382, color= 4
	 item 91, weight= 384, color= 0
	 item 92, weight= 404, color= 3
	 item 93, weight= 406, color= 4
	 item 94, weight= 413, color= 2
	 item 95, weight= 434, color= 4
	 item 96, weight= 444, color= 0
	 item 97, weight= 449, color= 4
	 item 98, weight= 474, color= 4
	 item 99, weight= 484, color= 1
	 item 100, weight= 491, color= 3
	 item 101, weight= 504, color= 3
	 item 102, weight= 513, color= 4
	 item 103, weight= 514, color= 3
	 item 104, weight= 522, color= 3
	 item 105, weight= 526, color= 0
	 item 106, weight= 540, color= 1
	 item 107, weight= 570, color= 3
	 item 108, weight= 576, color= 3
	 item 109, weight= 585, color= 0
	 item 110, weight= 590, color= 3
	 item 111, weight= 604, color= 1
	 item 112, weight= 611, color= 1
	 item 113, weight= 613, color= 1
	 item 114, weight= 621, color= 1
	 item 115, weight= 637, color= 2
	 item 116, weight= 654, color= 2
	 item 117, weight= 669, color= 3
	 item 118, weight= 678, color= 1
	 item 119, weight= 684, color= 1
	 item 120, weight= 718, color= 1
	 item 121, weight= 739, color= 0
	 item 122, weight= 772, color= 4
	 item 123, weight= 777, color= 3
	 item 124, weight= 806, color= 2
	 item 125, weight= 840, color= 3
	 item 126, weight= 843, color= 2
	 item 127, weight= 861, color= 0
	 item 128, weight= 874, color= 0
	 item 129, weight= 882, color= 4
	 item 130, weight= 884, color= 2
	 item 131, weight= 954, color= 1
	 item 132, weight= 984, color= 2
	 item 133, weight= 1007, color= 4
	 item 134, weight= 1018, color= 1
	 item 135, weight= 1020, color= 0
	 item 136, weight= 1021, color= 1
	 item 137, weight= 1022, color= 0
	 item 138, weight= 1045, color= 2
	 item 139, weight= 1229, color= 0
	 item 140, weight= 1230, color= 0
	 item 141, weight= 1233, color= 3
	 item 142, weight= 1236, color= 0
	 item 143, weight= 1238, color= 4
	 item 144, weight= 1249, color= 4
	 item 145, weight= 1396, color= 0
	 item 146, weight= 1402, color= 3
	 item 147, weight= 1410, color= 0
	 item 148, weight= 1425, color= 2
	 item 149, weight= 1442, color= 3
	 item 150, weight= 1445, color= 0
	 item 151, weight= 1490, color= 1
	 item 152, weight= 1532, color= 2
	 item 153, weight= 1536, color= 0
	 item 154, weight= 1571, color= 1
	 item 155, weight= 1591, color= 4
	 item 156, weight= 1598, color= 2
	 item 157, weight= 1644, color= 1
	 item 158, weight= 1646, color= 3
	 item 159, weight= 1655, color= 3
	 item 160, weight= 1686, color= 4
	 item 161, weight= 1688, color= 3
	 item 162, weight= 1693, color= 1
	 item 163, weight= 1713, color= 0
	 item 164, weight= 1721, color= 1
	 item 165, weight= 1725, color= 0
	 item 166, weight= 1732, color= 2
	 item 167, weight= 1750, color= 3
	 item 168, weight= 1774, color= 0
	 item 169, weight= 1812, color= 1
	 item 170, weight= 1821, color= 3
	 item 171, weight= 1834, color= 2
	 item 172, weight= 1841, color= 3
	 item 173, weight= 1842, color= 3
	 item 174, weight= 1869, color= 4
	 item 175, weight= 1876, color= 3
	 item 176, weight= 1890, color= 3
	 item 177, weight= 1898, color= 3
	 item 178, weight= 1919, color= 1
	 item 179, weight= 1932, color= 0
	 item 180, weight= 1938, color= 2
	 item 181, weight= 1961, color= 4
	 item 182, weight= 1970, color= 0
	 item 183, weight= 1980, color= 1
	 item 184, weight= 1998, color= 4
	 item 185, weight= 2020, color= 1
	 item 186, weight= 2030, color= 2
	 item 187, weight= 2046, color= 1
	 item 188, weight= 2060, color= 4
	 item 189, weight= 2062, color= 2
	 item 190, weight= 2100, color= 0
	 item 191, weight= 2102, color= 2
	 item 192, weight= 2122, color= 1
	 item 193, weight= 2130, color= 1
	 item 194, weight= 2138, color= 4
	 item 195, weight= 2146, color= 0
	 item 196, weight= 2156, color= 1
	 item 197, weight= 2164, color= 0
	 item 198, weight= 2170, color= 3
	 item 199, weight= 2172, color= 0
	 item 200, weight= 2180, color= 1
	 item 201, weight= 2202, color= 1
	 item 202, weight= 2210, color= 2

VRPSolver warning: Interval set for resource 1 on source node (when source != sink) is ignored (by definition is [0.0,0.0])
VRPSolver warning: Interval set for resource 2 on source node (when source != sink) is ignored (by definition is [0.0,0.0])
VRPSolver warning: Interval set for resource 3 on source node (when source != sink) is ignored (by definition is [0.0,0.0])
VRPSolver warning: Interval set for resource 4 on source node (when source != sink) is ignored (by definition is [0.0,0.0])
VRPSolver warning: Interval set for resource 5 on source node (when source != sink) is ignored (by definition is [0.0,0.0])
VRPSolver warning: Interval set for resource 6 on source node (when source != sink) is ignored (by definition is [0.0,0.0])
[41m solve [00m
~~~~~~~~~~~~~~~~~~~~~~~~~~~~~~~~~~~~~~~~~~~~~~~~~~~~~~~~~~~~~~~~~~~~~~~~~~~~~~
VRPSolver v0.4.1, 24/03/2021. Web: vrpsolver.math.u-bordeaux.fr
Corresponds to the solver by Pessoa, Sadykov, Uchoa and Vanderbeck (2020)
Paper: dx.doi.org/10.1007/s10107-020-01523-z
USE THIS CODE ONLY FOR ACADEMIC PURPOSES AT YOUR OWN RISK
~~~~~~~~~~~~~~~~~~~~~~~~~~~~~~~~~~~~~~~~~~~~~~~~~~~~~~~~~~~~~~~~~~~~~~~~~~~~~~
BaPCod v053, 24/03/2021, © Inria Bordeaux, France
~~~~~~~~~~~~~~~~~~~~~~~~~~~~~~~~~~~~~~~~~~~~~~~~~~~~~~~~~~~~~~~~~~~~~~~~~~~~~~
VRPSolver parameters:
GlobalTimeLimit = 60
MaxNbOfBBtreeNodeTreated = 100000
treeSearchStrategy = 1
RCSPstopCutGenTimeThresholdInPricing = 10
RCSPhardTimeThresholdInPricing = 20
RCSPnumberOfBucketsPerVertex = 2000
RCSPdynamicBucketSteps = 0
RCSPuseBidirectionalSearch = 1
RCSPapplyReducedCostFixing = 1
RCSPredCostFixingFalseGap = 0
RCSPmaxNumOfColsPerIteration = 100
RCSPmaxNumOfColsPerExactIteration = 100
RCSPheurLabelingStrategy = 4
StabilizationMinPhaseOfStage = 1
RCSPmaxNumOfLabelsInEnumeration = 100000
RCSPmaxNumOfEnumeratedSolutions = 1000000
RCSPmaxNumOfEnumSolutionsForMIP = 100000
RCSPinitNGneighbourhoodSize = 0
RCSPmaxNGneighbourhoodSize = 0
RCSPrankOneCutsMaxNumPerRound = 100
RCSPrankOneCutsMaxNumRows = -1
RCSPrankOneCutsMemoryType = 2
CutTailingOffThreshold = 0.02
CutTailingOffCounterThreshold = 3
SafeDualBoundScaleFactor = -1
StrongBranchingPhaseOneCandidatesNumber = 100
StrongBranchingPhaseOneTreeSizeEstimRatio = 0.3
StrongBranchingPhaseTwoCandidatesNumber = 1
StrongBranchingPhaseTwoTreeSizeEstimRatio = 0.1
MaxTimeForRestrictedMasterIpHeur = -1
DivingHeurUseDepthLimit = 0
MaxLDSbreadth = 3
MaxLDSdepth = 2
New model incumbent solution 1e+06, TIME = 0h0m0s3t = 3
Model is built TIME = 0h0m1s73t = 173
************************************************************************************************
**** BaB tree root node
**** Local DB = -1e+12, global bounds : [ -1e+12 , 1e+06 ], TIME = 0h0m1s73t = 173
**** 1 open nodes, 0 columns (0 active), 0 dyn. constrs. (0 active), 406 art. vars. (406 active)
************************************************************************************************
<DWph=2> <it= 10> <et=3.35> <Mt= 0.02> <Spt= 1.59> <nCl=1000> <DB=-2562968627.2693> <Mlp=161178809.3108> <PB=1000000> 
<DWph=2> <it= 20> <et=5.22> <Mt= 0.16> <Spt= 1.71> <nCl=1000> <DB=-1083119517.4032> <Mlp=124900252.1316> <PB=1000000> 
<DWph=2> <it= 30> <et=7.67> <Mt= 0.30> <Spt= 2.14> <nCl=1000> <DB=-462598682.4217> <Mlp=86400015.2003> <PB=1000000> 
<DWph=2> <it= 40> <et=10.32> <Mt= 0.33> <Spt= 2.32> <nCl=1000> <DB=-365759518.0581> <Mlp=71300866.4464> <PB=1000000> 
<DWph=2> <it= 50> <et=13.21> <Mt= 0.27> <Spt= 2.62> <nCl=1000> <DB=-236106478.2755> <Mlp=62400296.4071> <PB=1000000> 
<DWph=2> <it= 60> <et=17.20> <Mt= 0.31> <Spt= 3.68> <nCl=1000> <DB=-210555285.5040> <Mlp=52177925.7634> <PB=1000000> 
<DWph=2> <it= 70> <et=22.03> <Mt= 0.23> <Spt= 4.59> <nCl=1000> <DB=-191256475.7355> <Mlp=39459829.7498> <PB=1000000> 
<DWph=2> <it= 80> <et=31.34> <Mt= 0.29> <Spt= 9.02> <nCl=1000> <DB= -205.0411> <Mlp=   69.0230> <PB=1000000> 
<DWph=2> <it= 90> <et=33.45> <Mt= 0.20> <Spt= 1.92> <nCl=995> <DB=  -40.6037> <Mlp=   67.8333> <PB=1000000> 
<DWph=2> <it=100> <et=35.47> <Mt= 0.30> <Spt= 1.71> <nCl=978> <DB=   37.3117> <Mlp=   66.2946> <PB=1000000> 
<DWph=2> <it=110> <et=37.42> <Mt= 0.27> <Spt= 1.55> <nCl=694> <DB=   62.1232> <Mlp=   65.0859> <PB=1000000> 
<DWph=2> <it=120> <et=39.00> <Mt= 0.21> <Spt= 1.35> <nCl=931> <DB=   64.8475> <Mlp=   65.0059> <PB=1000000> 
<DWph=2> <it=130> <et=40.40> <Mt= 0.12> <Spt= 1.29> <nCl=156> <DB=   64.9980> <Mlp=   65.0020> <PB=1000000> 
<DWph=2> <it=136> <et=41.47> <Mt= 0.03> <Spt= 1.02> <nCl= 27> <DB=   64.9988> <Mlp=   65.0018> <PB=1000000> 
<DWph=1> <it=140> <et=43.34> <Mt= 0.05> <Spt= 1.83> <nCl=105> <DB=   64.9708> <Mlp=   65.0007> <PB=1000000> 
<DWph=1> <it=143> <et=44.97> <Mt= 0.02> <Spt= 1.60> <nCl= 19> <DB=   65.0006> <Mlp=   65.0006> <PB=1000000> 
