Application parameters:
  batch  =>  nothing
  instance  =>  "/IN/201_2500_DI_38.txt-Q20"
  ub  =>  1.0e6
  cfg  =>  "/CFG/BPP.cfg"
data = Colored Bin Packing dataset.
number of items = 202
number of colors = 20
capacity = 2472
Items : 
	 item 1, weight= 8, color= 0
	 item 2, weight= 8, color= 8
	 item 3, weight= 8, color= 16
	 item 4, weight= 16, color= 5
	 item 5, weight= 16, color= 14
	 item 6, weight= 24, color= 6
	 item 7, weight= 32, color= 18
	 item 8, weight= 40, color= 0
	 item 9, weight= 40, color= 4
	 item 10, weight= 40, color= 5
	 item 11, weight= 44, color= 2
	 item 12, weight= 44, color= 12
	 item 13, weight= 44, color= 18
	 item 14, weight= 48, color= 10
	 item 15, weight= 48, color= 18
	 item 16, weight= 48, color= 19
	 item 17, weight= 56, color= 8
	 item 18, weight= 60, color= 5
	 item 19, weight= 60, color= 6
	 item 20, weight= 64, color= 8
	 item 21, weight= 64, color= 12
	 item 22, weight= 64, color= 13
	 item 23, weight= 66, color= 8
	 item 24, weight= 72, color= 3
	 item 25, weight= 72, color= 4
	 item 26, weight= 72, color= 16
	 item 27, weight= 76, color= 8
	 item 28, weight= 78, color= 10
	 item 29, weight= 78, color= 17
	 item 30, weight= 78, color= 19
	 item 31, weight= 80, color= 9
	 item 32, weight= 84, color= 4
	 item 33, weight= 88, color= 5
	 item 34, weight= 88, color= 7
	 item 35, weight= 88, color= 8
	 item 36, weight= 88, color= 13
	 item 37, weight= 90, color= 18
	 item 38, weight= 92, color= 13
	 item 39, weight= 94, color= 17
	 item 40, weight= 96, color= 2
	 item 41, weight= 96, color= 3
	 item 42, weight= 100, color= 15
	 item 43, weight= 104, color= 11
	 item 44, weight= 108, color= 1
	 item 45, weight= 108, color= 10
	 item 46, weight= 108, color= 17
	 item 47, weight= 116, color= 13
	 item 48, weight= 120, color= 5
	 item 49, weight= 120, color= 14
	 item 50, weight= 124, color= 6
	 item 51, weight= 128, color= 9
	 item 52, weight= 132, color= 5
	 item 53, weight= 134, color= 6
	 item 54, weight= 136, color= 2
	 item 55, weight= 144, color= 1
	 item 56, weight= 148, color= 14
	 item 57, weight= 152, color= 18
	 item 58, weight= 154, color= 11
	 item 59, weight= 162, color= 9
	 item 60, weight= 168, color= 0
	 item 61, weight= 172, color= 13
	 item 62, weight= 176, color= 6
	 item 63, weight= 176, color= 11
	 item 64, weight= 184, color= 12
	 item 65, weight= 200, color= 6
	 item 66, weight= 204, color= 12
	 item 67, weight= 204, color= 13
	 item 68, weight= 204, color= 16
	 item 69, weight= 204, color= 19
	 item 70, weight= 218, color= 10
	 item 71, weight= 222, color= 15
	 item 72, weight= 230, color= 5
	 item 73, weight= 236, color= 14
	 item 74, weight= 238, color= 5
	 item 75, weight= 246, color= 17
	 item 76, weight= 260, color= 14
	 item 77, weight= 272, color= 3
	 item 78, weight= 272, color= 15
	 item 79, weight= 284, color= 19
	 item 80, weight= 290, color= 11
	 item 81, weight= 302, color= 15
	 item 82, weight= 308, color= 18
	 item 83, weight= 310, color= 7
	 item 84, weight= 314, color= 5
	 item 85, weight= 326, color= 1
	 item 86, weight= 340, color= 7
	 item 87, weight= 372, color= 6
	 item 88, weight= 378, color= 6
	 item 89, weight= 384, color= 12
	 item 90, weight= 386, color= 6
	 item 91, weight= 393, color= 10
	 item 92, weight= 398, color= 13
	 item 93, weight= 401, color= 12
	 item 94, weight= 412, color= 3
	 item 95, weight= 418, color= 9
	 item 96, weight= 430, color= 15
	 item 97, weight= 443, color= 9
	 item 98, weight= 446, color= 6
	 item 99, weight= 452, color= 1
	 item 100, weight= 461, color= 5
	 item 101, weight= 481, color= 19
	 item 102, weight= 482, color= 0
	 item 103, weight= 500, color= 2
	 item 104, weight= 504, color= 12
	 item 105, weight= 505, color= 19
	 item 106, weight= 538, color= 0
	 item 107, weight= 542, color= 5
	 item 108, weight= 547, color= 10
	 item 109, weight= 556, color= 16
	 item 110, weight= 576, color= 16
	 item 111, weight= 585, color= 19
	 item 112, weight= 618, color= 10
	 item 113, weight= 620, color= 1
	 item 114, weight= 638, color= 19
	 item 115, weight= 643, color= 2
	 item 116, weight= 651, color= 7
	 item 117, weight= 662, color= 2
	 item 118, weight= 681, color= 10
	 item 119, weight= 700, color= 8
	 item 120, weight= 726, color= 4
	 item 121, weight= 745, color= 18
	 item 122, weight= 779, color= 10
	 item 123, weight= 796, color= 8
	 item 124, weight= 802, color= 4
	 item 125, weight= 819, color= 10
	 item 126, weight= 840, color= 7
	 item 127, weight= 842, color= 2
	 item 128, weight= 878, color= 10
	 item 129, weight= 883, color= 10
	 item 130, weight= 908, color= 17
	 item 131, weight= 989, color= 5
	 item 132, weight= 1000, color= 19
	 item 133, weight= 1018, color= 10
	 item 134, weight= 1022, color= 9
	 item 135, weight= 1029, color= 12
	 item 136, weight= 1030, color= 3
	 item 137, weight= 1031, color= 5
	 item 138, weight= 1044, color= 14
	 item 139, weight= 1237, color= 13
	 item 140, weight= 1238, color= 15
	 item 141, weight= 1239, color= 10
	 item 142, weight= 1244, color= 4
	 item 143, weight= 1246, color= 14
	 item 144, weight= 1254, color= 10
	 item 145, weight= 1388, color= 17
	 item 146, weight= 1405, color= 10
	 item 147, weight= 1413, color= 8
	 item 148, weight= 1422, color= 10
	 item 149, weight= 1462, color= 7
	 item 150, weight= 1491, color= 18
	 item 151, weight= 1524, color= 19
	 item 152, weight= 1539, color= 15
	 item 153, weight= 1552, color= 19
	 item 154, weight= 1562, color= 17
	 item 155, weight= 1579, color= 15
	 item 156, weight= 1602, color= 3
	 item 157, weight= 1636, color= 3
	 item 158, weight= 1657, color= 10
	 item 159, weight= 1678, color= 12
	 item 160, weight= 1701, color= 12
	 item 161, weight= 1704, color= 11
	 item 162, weight= 1710, color= 13
	 item 163, weight= 1732, color= 11
	 item 164, weight= 1734, color= 14
	 item 165, weight= 1755, color= 12
	 item 166, weight= 1771, color= 11
	 item 167, weight= 1812, color= 15
	 item 168, weight= 1817, color= 9
	 item 169, weight= 1822, color= 0
	 item 170, weight= 1862, color= 12
	 item 171, weight= 1867, color= 3
	 item 172, weight= 1876, color= 11
	 item 173, weight= 1897, color= 1
	 item 174, weight= 1898, color= 12
	 item 175, weight= 1921, color= 15
	 item 176, weight= 1932, color= 4
	 item 177, weight= 1938, color= 1
	 item 178, weight= 1941, color= 3
	 item 179, weight= 1958, color= 6
	 item 180, weight= 1980, color= 11
	 item 181, weight= 1993, color= 7
	 item 182, weight= 1998, color= 17
	 item 183, weight= 2001, color= 2
	 item 184, weight= 2006, color= 1
	 item 185, weight= 2022, color= 7
	 item 186, weight= 2028, color= 7
	 item 187, weight= 2062, color= 19
	 item 188, weight= 2068, color= 9
	 item 189, weight= 2082, color= 9
	 item 190, weight= 2102, color= 3
	 item 191, weight= 2108, color= 0
	 item 192, weight= 2110, color= 18
	 item 193, weight= 2118, color= 5
	 item 194, weight= 2140, color= 5
	 item 195, weight= 2166, color= 17
	 item 196, weight= 2178, color= 10
	 item 197, weight= 2190, color= 9
	 item 198, weight= 2196, color= 16
	 item 199, weight= 2198, color= 4
	 item 200, weight= 2204, color= 2
	 item 201, weight= 2206, color= 15
	 item 202, weight= 2214, color= 17

VRPSolver warning: Interval set for resource 1 on source node (when source != sink) is ignored (by definition is [0.0,0.0])
VRPSolver warning: Interval set for resource 2 on source node (when source != sink) is ignored (by definition is [0.0,0.0])
VRPSolver warning: Interval set for resource 3 on source node (when source != sink) is ignored (by definition is [0.0,0.0])
VRPSolver warning: Interval set for resource 4 on source node (when source != sink) is ignored (by definition is [0.0,0.0])
VRPSolver warning: Interval set for resource 5 on source node (when source != sink) is ignored (by definition is [0.0,0.0])
VRPSolver warning: Interval set for resource 6 on source node (when source != sink) is ignored (by definition is [0.0,0.0])
VRPSolver warning: Interval set for resource 7 on source node (when source != sink) is ignored (by definition is [0.0,0.0])
VRPSolver warning: Interval set for resource 8 on source node (when source != sink) is ignored (by definition is [0.0,0.0])
VRPSolver warning: Interval set for resource 9 on source node (when source != sink) is ignored (by definition is [0.0,0.0])
VRPSolver warning: Interval set for resource 10 on source node (when source != sink) is ignored (by definition is [0.0,0.0])
VRPSolver warning: Interval set for resource 11 on source node (when source != sink) is ignored (by definition is [0.0,0.0])
VRPSolver warning: Interval set for resource 12 on source node (when source != sink) is ignored (by definition is [0.0,0.0])
VRPSolver warning: Interval set for resource 13 on source node (when source != sink) is ignored (by definition is [0.0,0.0])
VRPSolver warning: Interval set for resource 14 on source node (when source != sink) is ignored (by definition is [0.0,0.0])
VRPSolver warning: Interval set for resource 15 on source node (when source != sink) is ignored (by definition is [0.0,0.0])
VRPSolver warning: Interval set for resource 16 on source node (when source != sink) is ignored (by definition is [0.0,0.0])
VRPSolver warning: Interval set for resource 17 on source node (when source != sink) is ignored (by definition is [0.0,0.0])
VRPSolver warning: Interval set for resource 18 on source node (when source != sink) is ignored (by definition is [0.0,0.0])
VRPSolver warning: Interval set for resource 19 on source node (when source != sink) is ignored (by definition is [0.0,0.0])
VRPSolver warning: Interval set for resource 20 on source node (when source != sink) is ignored (by definition is [0.0,0.0])
VRPSolver warning: Interval set for resource 21 on source node (when source != sink) is ignored (by definition is [0.0,0.0])
[41m solve [00m
~~~~~~~~~~~~~~~~~~~~~~~~~~~~~~~~~~~~~~~~~~~~~~~~~~~~~~~~~~~~~~~~~~~~~~~~~~~~~~
VRPSolver v0.4.1, 24/03/2021. Web: vrpsolver.math.u-bordeaux.fr
Corresponds to the solver by Pessoa, Sadykov, Uchoa and Vanderbeck (2020)
Paper: dx.doi.org/10.1007/s10107-020-01523-z
USE THIS CODE ONLY FOR ACADEMIC PURPOSES AT YOUR OWN RISK
~~~~~~~~~~~~~~~~~~~~~~~~~~~~~~~~~~~~~~~~~~~~~~~~~~~~~~~~~~~~~~~~~~~~~~~~~~~~~~
BaPCod v053, 24/03/2021, © Inria Bordeaux, France
~~~~~~~~~~~~~~~~~~~~~~~~~~~~~~~~~~~~~~~~~~~~~~~~~~~~~~~~~~~~~~~~~~~~~~~~~~~~~~
VRPSolver parameters:
GlobalTimeLimit = 60
MaxNbOfBBtreeNodeTreated = 100000
treeSearchStrategy = 1
RCSPstopCutGenTimeThresholdInPricing = 10
RCSPhardTimeThresholdInPricing = 20
RCSPnumberOfBucketsPerVertex = 2000
RCSPdynamicBucketSteps = 0
RCSPuseBidirectionalSearch = 1
RCSPapplyReducedCostFixing = 1
RCSPredCostFixingFalseGap = 0
RCSPmaxNumOfColsPerIteration = 100
RCSPmaxNumOfColsPerExactIteration = 100
RCSPheurLabelingStrategy = 4
StabilizationMinPhaseOfStage = 1
RCSPmaxNumOfLabelsInEnumeration = 100000
RCSPmaxNumOfEnumeratedSolutions = 1000000
RCSPmaxNumOfEnumSolutionsForMIP = 100000
RCSPinitNGneighbourhoodSize = 0
RCSPmaxNGneighbourhoodSize = 0
RCSPrankOneCutsMaxNumPerRound = 100
RCSPrankOneCutsMaxNumRows = -1
RCSPrankOneCutsMemoryType = 2
CutTailingOffThreshold = 0.02
CutTailingOffCounterThreshold = 3
SafeDualBoundScaleFactor = -1
StrongBranchingPhaseOneCandidatesNumber = 100
StrongBranchingPhaseOneTreeSizeEstimRatio = 0.3
StrongBranchingPhaseTwoCandidatesNumber = 1
StrongBranchingPhaseTwoTreeSizeEstimRatio = 0.1
MaxTimeForRestrictedMasterIpHeur = -1
DivingHeurUseDepthLimit = 0
MaxLDSbreadth = 3
MaxLDSdepth = 2
New model incumbent solution 1e+06, TIME = 0h0m0s3t = 3
