Application parameters:
  batch  =>  nothing
  instance  =>  "/IN/201_2500_DI_47.txt-Q20"
  ub  =>  1.0e6
  cfg  =>  "/CFG/BPP.cfg"
data = Colored Bin Packing dataset.
number of items = 202
number of colors = 20
capacity = 1976
Items : 
	 item 1, weight= 8, color= 1
	 item 2, weight= 16, color= 4
	 item 3, weight= 20, color= 12
	 item 4, weight= 24, color= 11
	 item 5, weight= 32, color= 3
	 item 6, weight= 32, color= 4
	 item 7, weight= 32, color= 12
	 item 8, weight= 40, color= 0
	 item 9, weight= 40, color= 3
	 item 10, weight= 40, color= 5
	 item 11, weight= 40, color= 9
	 item 12, weight= 42, color= 1
	 item 13, weight= 42, color= 5
	 item 14, weight= 42, color= 15
	 item 15, weight= 44, color= 5
	 item 16, weight= 46, color= 8
	 item 17, weight= 46, color= 19
	 item 18, weight= 48, color= 2
	 item 19, weight= 48, color= 15
	 item 20, weight= 48, color= 16
	 item 21, weight= 48, color= 17
	 item 22, weight= 50, color= 9
	 item 23, weight= 50, color= 13
	 item 24, weight= 52, color= 0
	 item 25, weight= 52, color= 15
	 item 26, weight= 56, color= 2
	 item 27, weight= 56, color= 10
	 item 28, weight= 60, color= 2
	 item 29, weight= 60, color= 5
	 item 30, weight= 60, color= 19
	 item 31, weight= 62, color= 3
	 item 32, weight= 62, color= 13
	 item 33, weight= 64, color= 2
	 item 34, weight= 64, color= 18
	 item 35, weight= 68, color= 5
	 item 36, weight= 68, color= 7
	 item 37, weight= 68, color= 14
	 item 38, weight= 72, color= 1
	 item 39, weight= 72, color= 5
	 item 40, weight= 72, color= 18
	 item 41, weight= 76, color= 13
	 item 42, weight= 78, color= 5
	 item 43, weight= 78, color= 16
	 item 44, weight= 78, color= 18
	 item 45, weight= 80, color= 3
	 item 46, weight= 84, color= 6
	 item 47, weight= 84, color= 10
	 item 48, weight= 86, color= 14
	 item 49, weight= 92, color= 11
	 item 50, weight= 92, color= 16
	 item 51, weight= 94, color= 7
	 item 52, weight= 96, color= 10
	 item 53, weight= 100, color= 7
	 item 54, weight= 104, color= 1
	 item 55, weight= 106, color= 3
	 item 56, weight= 108, color= 11
	 item 57, weight= 108, color= 18
	 item 58, weight= 110, color= 14
	 item 59, weight= 116, color= 11
	 item 60, weight= 116, color= 15
	 item 61, weight= 128, color= 15
	 item 62, weight= 130, color= 12
	 item 63, weight= 136, color= 16
	 item 64, weight= 140, color= 13
	 item 65, weight= 144, color= 5
	 item 66, weight= 150, color= 8
	 item 67, weight= 158, color= 5
	 item 68, weight= 164, color= 9
	 item 69, weight= 164, color= 12
	 item 70, weight= 166, color= 11
	 item 71, weight= 170, color= 4
	 item 72, weight= 204, color= 6
	 item 73, weight= 206, color= 8
	 item 74, weight= 210, color= 15
	 item 75, weight= 213, color= 4
	 item 76, weight= 216, color= 12
	 item 77, weight= 218, color= 17
	 item 78, weight= 221, color= 4
	 item 79, weight= 227, color= 17
	 item 80, weight= 233, color= 15
	 item 81, weight= 236, color= 18
	 item 82, weight= 241, color= 1
	 item 83, weight= 246, color= 16
	 item 84, weight= 249, color= 3
	 item 85, weight= 253, color= 8
	 item 86, weight= 259, color= 0
	 item 87, weight= 262, color= 10
	 item 88, weight= 266, color= 19
	 item 89, weight= 274, color= 4
	 item 90, weight= 282, color= 4
	 item 91, weight= 304, color= 14
	 item 92, weight= 305, color= 18
	 item 93, weight= 306, color= 8
	 item 94, weight= 307, color= 13
	 item 95, weight= 311, color= 11
	 item 96, weight= 317, color= 13
	 item 97, weight= 319, color= 19
	 item 98, weight= 323, color= 15
	 item 99, weight= 334, color= 15
	 item 100, weight= 346, color= 8
	 item 101, weight= 361, color= 18
	 item 102, weight= 362, color= 17
	 item 103, weight= 380, color= 17
	 item 104, weight= 389, color= 8
	 item 105, weight= 391, color= 16
	 item 106, weight= 395, color= 13
	 item 107, weight= 399, color= 1
	 item 108, weight= 402, color= 7
	 item 109, weight= 408, color= 1
	 item 110, weight= 427, color= 18
	 item 111, weight= 430, color= 3
	 item 112, weight= 456, color= 2
	 item 113, weight= 462, color= 16
	 item 114, weight= 467, color= 3
	 item 115, weight= 481, color= 13
	 item 116, weight= 485, color= 18
	 item 117, weight= 502, color= 1
	 item 118, weight= 502, color= 3
	 item 119, weight= 531, color= 4
	 item 120, weight= 537, color= 17
	 item 121, weight= 542, color= 6
	 item 122, weight= 550, color= 4
	 item 123, weight= 553, color= 12
	 item 124, weight= 585, color= 9
	 item 125, weight= 598, color= 14
	 item 126, weight= 651, color= 0
	 item 127, weight= 657, color= 8
	 item 128, weight= 668, color= 18
	 item 129, weight= 682, color= 13
	 item 130, weight= 718, color= 17
	 item 131, weight= 729, color= 11
	 item 132, weight= 751, color= 10
	 item 133, weight= 795, color= 4
	 item 134, weight= 800, color= 9
	 item 135, weight= 822, color= 16
	 item 136, weight= 823, color= 7
	 item 137, weight= 866, color= 12
	 item 138, weight= 899, color= 10
	 item 139, weight= 989, color= 17
	 item 140, weight= 990, color= 17
	 item 141, weight= 991, color= 19
	 item 142, weight= 1023, color= 9
	 item 143, weight= 1054, color= 4
	 item 144, weight= 1075, color= 8
	 item 145, weight= 1103, color= 19
	 item 146, weight= 1118, color= 7
	 item 147, weight= 1158, color= 2
	 item 148, weight= 1189, color= 13
	 item 149, weight= 1197, color= 18
	 item 150, weight= 1236, color= 12
	 item 151, weight= 1262, color= 17
	 item 152, weight= 1275, color= 10
	 item 153, weight= 1313, color= 3
	 item 154, weight= 1318, color= 8
	 item 155, weight= 1326, color= 11
	 item 156, weight= 1333, color= 2
	 item 157, weight= 1341, color= 18
	 item 158, weight= 1368, color= 1
	 item 159, weight= 1374, color= 2
	 item 160, weight= 1395, color= 1
	 item 161, weight= 1401, color= 6
	 item 162, weight= 1414, color= 3
	 item 163, weight= 1417, color= 11
	 item 164, weight= 1422, color= 3
	 item 165, weight= 1462, color= 4
	 item 166, weight= 1465, color= 18
	 item 167, weight= 1494, color= 9
	 item 168, weight= 1499, color= 19
	 item 169, weight= 1503, color= 2
	 item 170, weight= 1507, color= 16
	 item 171, weight= 1511, color= 15
	 item 172, weight= 1524, color= 5
	 item 173, weight= 1542, color= 0
	 item 174, weight= 1543, color= 0
	 item 175, weight= 1562, color= 17
	 item 176, weight= 1578, color= 0
	 item 177, weight= 1589, color= 18
	 item 178, weight= 1595, color= 5
	 item 179, weight= 1603, color= 12
	 item 180, weight= 1610, color= 5
	 item 181, weight= 1611, color= 8
	 item 182, weight= 1627, color= 9
	 item 183, weight= 1635, color= 19
	 item 184, weight= 1638, color= 4
	 item 185, weight= 1650, color= 11
	 item 186, weight= 1658, color= 5
	 item 187, weight= 1666, color= 2
	 item 188, weight= 1667, color= 3
	 item 189, weight= 1673, color= 12
	 item 190, weight= 1679, color= 9
	 item 191, weight= 1682, color= 14
	 item 192, weight= 1689, color= 6
	 item 193, weight= 1697, color= 11
	 item 194, weight= 1700, color= 6
	 item 195, weight= 1705, color= 2
	 item 196, weight= 1713, color= 6
	 item 197, weight= 1718, color= 19
	 item 198, weight= 1721, color= 3
	 item 199, weight= 1726, color= 17
	 item 200, weight= 1738, color= 19
	 item 201, weight= 1774, color= 9
	 item 202, weight= 1778, color= 18

VRPSolver warning: Interval set for resource 1 on source node (when source != sink) is ignored (by definition is [0.0,0.0])
VRPSolver warning: Interval set for resource 2 on source node (when source != sink) is ignored (by definition is [0.0,0.0])
VRPSolver warning: Interval set for resource 3 on source node (when source != sink) is ignored (by definition is [0.0,0.0])
VRPSolver warning: Interval set for resource 4 on source node (when source != sink) is ignored (by definition is [0.0,0.0])
VRPSolver warning: Interval set for resource 5 on source node (when source != sink) is ignored (by definition is [0.0,0.0])
VRPSolver warning: Interval set for resource 6 on source node (when source != sink) is ignored (by definition is [0.0,0.0])
VRPSolver warning: Interval set for resource 7 on source node (when source != sink) is ignored (by definition is [0.0,0.0])
VRPSolver warning: Interval set for resource 8 on source node (when source != sink) is ignored (by definition is [0.0,0.0])
VRPSolver warning: Interval set for resource 9 on source node (when source != sink) is ignored (by definition is [0.0,0.0])
VRPSolver warning: Interval set for resource 10 on source node (when source != sink) is ignored (by definition is [0.0,0.0])
VRPSolver warning: Interval set for resource 11 on source node (when source != sink) is ignored (by definition is [0.0,0.0])
VRPSolver warning: Interval set for resource 12 on source node (when source != sink) is ignored (by definition is [0.0,0.0])
VRPSolver warning: Interval set for resource 13 on source node (when source != sink) is ignored (by definition is [0.0,0.0])
VRPSolver warning: Interval set for resource 14 on source node (when source != sink) is ignored (by definition is [0.0,0.0])
VRPSolver warning: Interval set for resource 15 on source node (when source != sink) is ignored (by definition is [0.0,0.0])
VRPSolver warning: Interval set for resource 16 on source node (when source != sink) is ignored (by definition is [0.0,0.0])
VRPSolver warning: Interval set for resource 17 on source node (when source != sink) is ignored (by definition is [0.0,0.0])
VRPSolver warning: Interval set for resource 18 on source node (when source != sink) is ignored (by definition is [0.0,0.0])
VRPSolver warning: Interval set for resource 19 on source node (when source != sink) is ignored (by definition is [0.0,0.0])
VRPSolver warning: Interval set for resource 20 on source node (when source != sink) is ignored (by definition is [0.0,0.0])
VRPSolver warning: Interval set for resource 21 on source node (when source != sink) is ignored (by definition is [0.0,0.0])
[41m solve [00m
~~~~~~~~~~~~~~~~~~~~~~~~~~~~~~~~~~~~~~~~~~~~~~~~~~~~~~~~~~~~~~~~~~~~~~~~~~~~~~
VRPSolver v0.4.1, 24/03/2021. Web: vrpsolver.math.u-bordeaux.fr
Corresponds to the solver by Pessoa, Sadykov, Uchoa and Vanderbeck (2020)
Paper: dx.doi.org/10.1007/s10107-020-01523-z
USE THIS CODE ONLY FOR ACADEMIC PURPOSES AT YOUR OWN RISK
~~~~~~~~~~~~~~~~~~~~~~~~~~~~~~~~~~~~~~~~~~~~~~~~~~~~~~~~~~~~~~~~~~~~~~~~~~~~~~
BaPCod v053, 24/03/2021, © Inria Bordeaux, France
~~~~~~~~~~~~~~~~~~~~~~~~~~~~~~~~~~~~~~~~~~~~~~~~~~~~~~~~~~~~~~~~~~~~~~~~~~~~~~
VRPSolver parameters:
GlobalTimeLimit = 60
MaxNbOfBBtreeNodeTreated = 100000
treeSearchStrategy = 1
RCSPstopCutGenTimeThresholdInPricing = 10
RCSPhardTimeThresholdInPricing = 20
RCSPnumberOfBucketsPerVertex = 2000
RCSPdynamicBucketSteps = 0
RCSPuseBidirectionalSearch = 1
RCSPapplyReducedCostFixing = 1
RCSPredCostFixingFalseGap = 0
RCSPmaxNumOfColsPerIteration = 100
RCSPmaxNumOfColsPerExactIteration = 100
RCSPheurLabelingStrategy = 4
StabilizationMinPhaseOfStage = 1
RCSPmaxNumOfLabelsInEnumeration = 100000
RCSPmaxNumOfEnumeratedSolutions = 1000000
RCSPmaxNumOfEnumSolutionsForMIP = 100000
RCSPinitNGneighbourhoodSize = 0
RCSPmaxNGneighbourhoodSize = 0
RCSPrankOneCutsMaxNumPerRound = 100
RCSPrankOneCutsMaxNumRows = -1
RCSPrankOneCutsMemoryType = 2
CutTailingOffThreshold = 0.02
CutTailingOffCounterThreshold = 3
SafeDualBoundScaleFactor = -1
StrongBranchingPhaseOneCandidatesNumber = 100
StrongBranchingPhaseOneTreeSizeEstimRatio = 0.3
StrongBranchingPhaseTwoCandidatesNumber = 1
StrongBranchingPhaseTwoTreeSizeEstimRatio = 0.1
MaxTimeForRestrictedMasterIpHeur = -1
DivingHeurUseDepthLimit = 0
MaxLDSbreadth = 3
MaxLDSdepth = 2
New model incumbent solution 1e+06, TIME = 0h0m0s3t = 3
