Application parameters:
  batch  =>  nothing
  instance  =>  "/IN/402_10000_DI_6.txt-Q5"
  ub  =>  1.0e6
  cfg  =>  "/CFG/BPP.cfg"
data = Colored Bin Packing dataset.
number of items = 403
number of colors = 5
capacity = 6528
Items : 
	 item 1, weight= 12, color= 4
	 item 2, weight= 32, color= 2
	 item 3, weight= 32, color= 4
	 item 4, weight= 36, color= 1
	 item 5, weight= 48, color= 4
	 item 6, weight= 52, color= 2
	 item 7, weight= 64, color= 0
	 item 8, weight= 80, color= 2
	 item 9, weight= 80, color= 4
	 item 10, weight= 80, color= 4
	 item 11, weight= 84, color= 0
	 item 12, weight= 100, color= 1
	 item 13, weight= 112, color= 0
	 item 14, weight= 112, color= 1
	 item 15, weight= 112, color= 1
	 item 16, weight= 112, color= 3
	 item 17, weight= 112, color= 4
	 item 18, weight= 116, color= 1
	 item 19, weight= 120, color= 1
	 item 20, weight= 120, color= 4
	 item 21, weight= 124, color= 1
	 item 22, weight= 124, color= 2
	 item 23, weight= 128, color= 0
	 item 24, weight= 128, color= 2
	 item 25, weight= 128, color= 3
	 item 26, weight= 130, color= 2
	 item 27, weight= 136, color= 1
	 item 28, weight= 144, color= 0
	 item 29, weight= 144, color= 0
	 item 30, weight= 144, color= 1
	 item 31, weight= 144, color= 3
	 item 32, weight= 144, color= 3
	 item 33, weight= 144, color= 4
	 item 34, weight= 152, color= 2
	 item 35, weight= 152, color= 3
	 item 36, weight= 160, color= 0
	 item 37, weight= 160, color= 0
	 item 38, weight= 160, color= 1
	 item 39, weight= 160, color= 1
	 item 40, weight= 160, color= 1
	 item 41, weight= 164, color= 3
	 item 42, weight= 164, color= 3
	 item 43, weight= 176, color= 0
	 item 44, weight= 176, color= 1
	 item 45, weight= 176, color= 1
	 item 46, weight= 176, color= 1
	 item 47, weight= 180, color= 2
	 item 48, weight= 184, color= 4
	 item 49, weight= 192, color= 0
	 item 50, weight= 192, color= 0
	 item 51, weight= 192, color= 1
	 item 52, weight= 192, color= 2
	 item 53, weight= 196, color= 0
	 item 54, weight= 196, color= 4
	 item 55, weight= 200, color= 2
	 item 56, weight= 200, color= 2
	 item 57, weight= 200, color= 4
	 item 58, weight= 204, color= 3
	 item 59, weight= 208, color= 1
	 item 60, weight= 208, color= 2
	 item 61, weight= 212, color= 0
	 item 62, weight= 216, color= 1
	 item 63, weight= 220, color= 1
	 item 64, weight= 220, color= 3
	 item 65, weight= 220, color= 4
	 item 66, weight= 224, color= 1
	 item 67, weight= 224, color= 3
	 item 68, weight= 224, color= 3
	 item 69, weight= 224, color= 4
	 item 70, weight= 224, color= 4
	 item 71, weight= 236, color= 0
	 item 72, weight= 240, color= 0
	 item 73, weight= 240, color= 1
	 item 74, weight= 240, color= 2
	 item 75, weight= 240, color= 3
	 item 76, weight= 244, color= 0
	 item 77, weight= 248, color= 0
	 item 78, weight= 248, color= 0
	 item 79, weight= 248, color= 1
	 item 80, weight= 252, color= 1
	 item 81, weight= 256, color= 0
	 item 82, weight= 264, color= 2
	 item 83, weight= 272, color= 3
	 item 84, weight= 276, color= 0
	 item 85, weight= 276, color= 2
	 item 86, weight= 280, color= 1
	 item 87, weight= 282, color= 0
	 item 88, weight= 282, color= 3
	 item 89, weight= 288, color= 2
	 item 90, weight= 296, color= 2
	 item 91, weight= 300, color= 3
	 item 92, weight= 304, color= 0
	 item 93, weight= 304, color= 4
	 item 94, weight= 312, color= 0
	 item 95, weight= 312, color= 1
	 item 96, weight= 316, color= 0
	 item 97, weight= 320, color= 4
	 item 98, weight= 336, color= 0
	 item 99, weight= 336, color= 1
	 item 100, weight= 340, color= 4
	 item 101, weight= 352, color= 4
	 item 102, weight= 352, color= 4
	 item 103, weight= 358, color= 3
	 item 104, weight= 358, color= 4
	 item 105, weight= 360, color= 1
	 item 106, weight= 368, color= 0
	 item 107, weight= 368, color= 1
	 item 108, weight= 372, color= 3
	 item 109, weight= 376, color= 4
	 item 110, weight= 400, color= 0
	 item 111, weight= 408, color= 0
	 item 112, weight= 416, color= 0
	 item 113, weight= 416, color= 2
	 item 114, weight= 420, color= 3
	 item 115, weight= 424, color= 0
	 item 116, weight= 448, color= 2
	 item 117, weight= 456, color= 4
	 item 118, weight= 456, color= 4
	 item 119, weight= 468, color= 0
	 item 120, weight= 472, color= 1
	 item 121, weight= 476, color= 2
	 item 122, weight= 480, color= 1
	 item 123, weight= 496, color= 1
	 item 124, weight= 504, color= 4
	 item 125, weight= 528, color= 2
	 item 126, weight= 528, color= 4
	 item 127, weight= 536, color= 1
	 item 128, weight= 536, color= 2
	 item 129, weight= 536, color= 4
	 item 130, weight= 540, color= 1
	 item 131, weight= 540, color= 2
	 item 132, weight= 540, color= 3
	 item 133, weight= 540, color= 3
	 item 134, weight= 542, color= 2
	 item 135, weight= 542, color= 3
	 item 136, weight= 542, color= 4
	 item 137, weight= 568, color= 4
	 item 138, weight= 580, color= 2
	 item 139, weight= 582, color= 4
	 item 140, weight= 584, color= 3
	 item 141, weight= 590, color= 3
	 item 142, weight= 604, color= 2
	 item 143, weight= 620, color= 1
	 item 144, weight= 634, color= 4
	 item 145, weight= 644, color= 1
	 item 146, weight= 644, color= 4
	 item 147, weight= 668, color= 3
	 item 148, weight= 686, color= 4
	 item 149, weight= 702, color= 2
	 item 150, weight= 712, color= 0
	 item 151, weight= 720, color= 4
	 item 152, weight= 720, color= 4
	 item 153, weight= 724, color= 3
	 item 154, weight= 728, color= 2
	 item 155, weight= 728, color= 4
	 item 156, weight= 730, color= 0
	 item 157, weight= 734, color= 2
	 item 158, weight= 738, color= 2
	 item 159, weight= 748, color= 3
	 item 160, weight= 760, color= 4
	 item 161, weight= 766, color= 3
	 item 162, weight= 770, color= 3
	 item 163, weight= 792, color= 1
	 item 164, weight= 794, color= 4
	 item 165, weight= 814, color= 4
	 item 166, weight= 820, color= 4
	 item 167, weight= 826, color= 3
	 item 168, weight= 834, color= 1
	 item 169, weight= 844, color= 4
	 item 170, weight= 884, color= 2
	 item 171, weight= 888, color= 2
	 item 172, weight= 902, color= 0
	 item 173, weight= 906, color= 3
	 item 174, weight= 908, color= 1
	 item 175, weight= 930, color= 3
	 item 176, weight= 968, color= 3
	 item 177, weight= 984, color= 2
	 item 178, weight= 988, color= 4
	 item 179, weight= 990, color= 1
	 item 180, weight= 1008, color= 3
	 item 181, weight= 1012, color= 4
	 item 182, weight= 1018, color= 4
	 item 183, weight= 1021, color= 4
	 item 184, weight= 1044, color= 0
	 item 185, weight= 1070, color= 3
	 item 186, weight= 1080, color= 3
	 item 187, weight= 1103, color= 4
	 item 188, weight= 1108, color= 1
	 item 189, weight= 1110, color= 0
	 item 190, weight= 1121, color= 0
	 item 191, weight= 1126, color= 4
	 item 192, weight= 1140, color= 2
	 item 193, weight= 1192, color= 0
	 item 194, weight= 1194, color= 1
	 item 195, weight= 1196, color= 0
	 item 196, weight= 1228, color= 4
	 item 197, weight= 1232, color= 1
	 item 198, weight= 1234, color= 1
	 item 199, weight= 1240, color= 4
	 item 200, weight= 1241, color= 1
	 item 201, weight= 1241, color= 4
	 item 202, weight= 1258, color= 4
	 item 203, weight= 1267, color= 1
	 item 204, weight= 1268, color= 2
	 item 205, weight= 1304, color= 3
	 item 206, weight= 1322, color= 3
	 item 207, weight= 1344, color= 2
	 item 208, weight= 1380, color= 3
	 item 209, weight= 1382, color= 4
	 item 210, weight= 1385, color= 1
	 item 211, weight= 1411, color= 1
	 item 212, weight= 1415, color= 2
	 item 213, weight= 1420, color= 4
	 item 214, weight= 1429, color= 1
	 item 215, weight= 1464, color= 3
	 item 216, weight= 1490, color= 3
	 item 217, weight= 1504, color= 4
	 item 218, weight= 1518, color= 4
	 item 219, weight= 1526, color= 1
	 item 220, weight= 1564, color= 0
	 item 221, weight= 1566, color= 4
	 item 222, weight= 1567, color= 2
	 item 223, weight= 1576, color= 2
	 item 224, weight= 1589, color= 2
	 item 225, weight= 1604, color= 2
	 item 226, weight= 1654, color= 0
	 item 227, weight= 1682, color= 1
	 item 228, weight= 1710, color= 2
	 item 229, weight= 1768, color= 3
	 item 230, weight= 1771, color= 3
	 item 231, weight= 1772, color= 3
	 item 232, weight= 1784, color= 0
	 item 233, weight= 1797, color= 0
	 item 234, weight= 1801, color= 0
	 item 235, weight= 1828, color= 4
	 item 236, weight= 1854, color= 4
	 item 237, weight= 1881, color= 4
	 item 238, weight= 1882, color= 0
	 item 239, weight= 1928, color= 3
	 item 240, weight= 1972, color= 4
	 item 241, weight= 2004, color= 3
	 item 242, weight= 2051, color= 2
	 item 243, weight= 2086, color= 3
	 item 244, weight= 2114, color= 1
	 item 245, weight= 2120, color= 1
	 item 246, weight= 2120, color= 1
	 item 247, weight= 2138, color= 1
	 item 248, weight= 2149, color= 4
	 item 249, weight= 2172, color= 0
	 item 250, weight= 2208, color= 1
	 item 251, weight= 2268, color= 1
	 item 252, weight= 2285, color= 2
	 item 253, weight= 2308, color= 3
	 item 254, weight= 2351, color= 2
	 item 255, weight= 2366, color= 0
	 item 256, weight= 2394, color= 4
	 item 257, weight= 2424, color= 3
	 item 258, weight= 2568, color= 1
	 item 259, weight= 2640, color= 2
	 item 260, weight= 2668, color= 2
	 item 261, weight= 2702, color= 1
	 item 262, weight= 2706, color= 4
	 item 263, weight= 2708, color= 1
	 item 264, weight= 2711, color= 1
	 item 265, weight= 2713, color= 0
	 item 266, weight= 2714, color= 4
	 item 267, weight= 2717, color= 4
	 item 268, weight= 2721, color= 4
	 item 269, weight= 2722, color= 2
	 item 270, weight= 2724, color= 2
	 item 271, weight= 2724, color= 2
	 item 272, weight= 2728, color= 0
	 item 273, weight= 3265, color= 0
	 item 274, weight= 3266, color= 1
	 item 275, weight= 3268, color= 4
	 item 276, weight= 3269, color= 0
	 item 277, weight= 3272, color= 2
	 item 278, weight= 3273, color= 4
	 item 279, weight= 3274, color= 1
	 item 280, weight= 3277, color= 0
	 item 281, weight= 3282, color= 0
	 item 282, weight= 3284, color= 3
	 item 283, weight= 3290, color= 1
	 item 284, weight= 3300, color= 4
	 item 285, weight= 3332, color= 1
	 item 286, weight= 3464, color= 3
	 item 287, weight= 3624, color= 1
	 item 288, weight= 3658, color= 0
	 item 289, weight= 3690, color= 1
	 item 290, weight= 3709, color= 4
	 item 291, weight= 3764, color= 0
	 item 292, weight= 3787, color= 0
	 item 293, weight= 3812, color= 2
	 item 294, weight= 3966, color= 2
	 item 295, weight= 3992, color= 1
	 item 296, weight= 3994, color= 0
	 item 297, weight= 4026, color= 0
	 item 298, weight= 4069, color= 1
	 item 299, weight= 4096, color= 3
	 item 300, weight= 4124, color= 2
	 item 301, weight= 4135, color= 4
	 item 302, weight= 4164, color= 4
	 item 303, weight= 4200, color= 4
	 item 304, weight= 4232, color= 2
	 item 305, weight= 4271, color= 3
	 item 306, weight= 4274, color= 0
	 item 307, weight= 4306, color= 2
	 item 308, weight= 4308, color= 0
	 item 309, weight= 4340, color= 0
	 item 310, weight= 4369, color= 0
	 item 311, weight= 4373, color= 1
	 item 312, weight= 4404, color= 4
	 item 313, weight= 4405, color= 3
	 item 314, weight= 4424, color= 1
	 item 315, weight= 4478, color= 2
	 item 316, weight= 4510, color= 0
	 item 317, weight= 4512, color= 0
	 item 318, weight= 4584, color= 4
	 item 319, weight= 4604, color= 3
	 item 320, weight= 4623, color= 2
	 item 321, weight= 4648, color= 3
	 item 322, weight= 4649, color= 4
	 item 323, weight= 4650, color= 3
	 item 324, weight= 4660, color= 2
	 item 325, weight= 4678, color= 1
	 item 326, weight= 4710, color= 3
	 item 327, weight= 4742, color= 3
	 item 328, weight= 4776, color= 1
	 item 329, weight= 4828, color= 4
	 item 330, weight= 4831, color= 1
	 item 331, weight= 4835, color= 4
	 item 332, weight= 4867, color= 2
	 item 333, weight= 4870, color= 4
	 item 334, weight= 4876, color= 4
	 item 335, weight= 4902, color= 2
	 item 336, weight= 4942, color= 3
	 item 337, weight= 4968, color= 4
	 item 338, weight= 5009, color= 0
	 item 339, weight= 5012, color= 0
	 item 340, weight= 5035, color= 0
	 item 341, weight= 5039, color= 4
	 item 342, weight= 5048, color= 1
	 item 343, weight= 5050, color= 4
	 item 344, weight= 5060, color= 3
	 item 345, weight= 5072, color= 1
	 item 346, weight= 5098, color= 2
	 item 347, weight= 5112, color= 1
	 item 348, weight= 5130, color= 4
	 item 349, weight= 5157, color= 1
	 item 350, weight= 5164, color= 0
	 item 351, weight= 5178, color= 0
	 item 352, weight= 5183, color= 3
	 item 353, weight= 5198, color= 2
	 item 354, weight= 5204, color= 3
	 item 355, weight= 5205, color= 4
	 item 356, weight= 5240, color= 2
	 item 357, weight= 5246, color= 1
	 item 358, weight= 5252, color= 2
	 item 359, weight= 5284, color= 2
	 item 360, weight= 5303, color= 4
	 item 361, weight= 5310, color= 3
	 item 362, weight= 5316, color= 0
	 item 363, weight= 5342, color= 3
	 item 364, weight= 5348, color= 4
	 item 365, weight= 5352, color= 2
	 item 366, weight= 5368, color= 3
	 item 367, weight= 5414, color= 3
	 item 368, weight= 5442, color= 3
	 item 369, weight= 5444, color= 3
	 item 370, weight= 5450, color= 2
	 item 371, weight= 5464, color= 4
	 item 372, weight= 5468, color= 2
	 item 373, weight= 5524, color= 3
	 item 374, weight= 5530, color= 1
	 item 375, weight= 5548, color= 4
	 item 376, weight= 5554, color= 2
	 item 377, weight= 5578, color= 2
	 item 378, weight= 5592, color= 1
	 item 379, weight= 5606, color= 3
	 item 380, weight= 5610, color= 4
	 item 381, weight= 5624, color= 0
	 item 382, weight= 5636, color= 2
	 item 383, weight= 5654, color= 0
	 item 384, weight= 5656, color= 2
	 item 385, weight= 5660, color= 3
	 item 386, weight= 5688, color= 3
	 item 387, weight= 5690, color= 0
	 item 388, weight= 5710, color= 4
	 item 389, weight= 5720, color= 1
	 item 390, weight= 5722, color= 3
	 item 391, weight= 5732, color= 1
	 item 392, weight= 5738, color= 3
	 item 393, weight= 5756, color= 4
	 item 394, weight= 5764, color= 3
	 item 395, weight= 5770, color= 0
	 item 396, weight= 5788, color= 1
	 item 397, weight= 5806, color= 0
	 item 398, weight= 5812, color= 2
	 item 399, weight= 5822, color= 0
	 item 400, weight= 5832, color= 1
	 item 401, weight= 5834, color= 3
	 item 402, weight= 5836, color= 1
	 item 403, weight= 5848, color= 2

VRPSolver warning: Interval set for resource 1 on source node (when source != sink) is ignored (by definition is [0.0,0.0])
VRPSolver warning: Interval set for resource 2 on source node (when source != sink) is ignored (by definition is [0.0,0.0])
VRPSolver warning: Interval set for resource 3 on source node (when source != sink) is ignored (by definition is [0.0,0.0])
VRPSolver warning: Interval set for resource 4 on source node (when source != sink) is ignored (by definition is [0.0,0.0])
VRPSolver warning: Interval set for resource 5 on source node (when source != sink) is ignored (by definition is [0.0,0.0])
VRPSolver warning: Interval set for resource 6 on source node (when source != sink) is ignored (by definition is [0.0,0.0])
[41m solve [00m
~~~~~~~~~~~~~~~~~~~~~~~~~~~~~~~~~~~~~~~~~~~~~~~~~~~~~~~~~~~~~~~~~~~~~~~~~~~~~~
VRPSolver v0.4.1, 24/03/2021. Web: vrpsolver.math.u-bordeaux.fr
Corresponds to the solver by Pessoa, Sadykov, Uchoa and Vanderbeck (2020)
Paper: dx.doi.org/10.1007/s10107-020-01523-z
USE THIS CODE ONLY FOR ACADEMIC PURPOSES AT YOUR OWN RISK
~~~~~~~~~~~~~~~~~~~~~~~~~~~~~~~~~~~~~~~~~~~~~~~~~~~~~~~~~~~~~~~~~~~~~~~~~~~~~~
BaPCod v053, 24/03/2021, © Inria Bordeaux, France
~~~~~~~~~~~~~~~~~~~~~~~~~~~~~~~~~~~~~~~~~~~~~~~~~~~~~~~~~~~~~~~~~~~~~~~~~~~~~~
VRPSolver parameters:
GlobalTimeLimit = 60
MaxNbOfBBtreeNodeTreated = 100000
treeSearchStrategy = 1
RCSPstopCutGenTimeThresholdInPricing = 10
RCSPhardTimeThresholdInPricing = 20
RCSPnumberOfBucketsPerVertex = 2000
RCSPdynamicBucketSteps = 0
RCSPuseBidirectionalSearch = 1
RCSPapplyReducedCostFixing = 1
RCSPredCostFixingFalseGap = 0
RCSPmaxNumOfColsPerIteration = 100
RCSPmaxNumOfColsPerExactIteration = 100
RCSPheurLabelingStrategy = 4
StabilizationMinPhaseOfStage = 1
RCSPmaxNumOfLabelsInEnumeration = 100000
RCSPmaxNumOfEnumeratedSolutions = 1000000
RCSPmaxNumOfEnumSolutionsForMIP = 100000
RCSPinitNGneighbourhoodSize = 0
RCSPmaxNGneighbourhoodSize = 0
RCSPrankOneCutsMaxNumPerRound = 100
RCSPrankOneCutsMaxNumRows = -1
RCSPrankOneCutsMemoryType = 2
CutTailingOffThreshold = 0.02
CutTailingOffCounterThreshold = 3
SafeDualBoundScaleFactor = -1
StrongBranchingPhaseOneCandidatesNumber = 100
StrongBranchingPhaseOneTreeSizeEstimRatio = 0.3
StrongBranchingPhaseTwoCandidatesNumber = 1
StrongBranchingPhaseTwoTreeSizeEstimRatio = 0.1
MaxTimeForRestrictedMasterIpHeur = -1
DivingHeurUseDepthLimit = 0
MaxLDSbreadth = 3
MaxLDSdepth = 2
New model incumbent solution 1e+06, TIME = 0h0m0s3t = 3
Model is built TIME = 0h0m2s79t = 279
************************************************************************************************
**** BaB tree root node
**** Local DB = -1e+12, global bounds : [ -1e+12 , 1e+06 ], TIME = 0h0m2s79t = 279
**** 1 open nodes, 0 columns (0 active), 0 dyn. constrs. (0 active), 808 art. vars. (808 active)
************************************************************************************************
<DWph=2> <it= 10> <et=7.21> <Mt= 0.06> <Spt= 4.35> <nCl=1000> <DB=-8779255702.9310> <Mlp=364412418.2842> <PB=1000000> 
<DWph=2> <it= 20> <et=12.68> <Mt= 0.39> <Spt= 5.07> <nCl=1000> <DB=-4572314396.6661> <Mlp=311990119.2624> <PB=1000000> 
<DWph=2> <it= 30> <et=18.13> <Mt= 0.71> <Spt= 4.74> <nCl=1000> <DB=-2901298330.2840> <Mlp=269873813.9423> <PB=1000000> 
<DWph=2> <it= 40> <et=24.21> <Mt= 0.99> <Spt= 5.08> <nCl=1000> <DB=-2000578561.5828> <Mlp=233749924.8904> <PB=1000000> 
<DWph=2> <it= 50> <et=31.24> <Mt= 1.40> <Spt= 5.63> <nCl=1000> <DB=-1398020207.3143> <Mlp=199276853.6819> <PB=1000000> 
<DWph=2> <it= 60> <et=39.79> <Mt= 1.91> <Spt= 6.64> <nCl=1000> <DB=-1077990976.2308> <Mlp=168149395.4526> <PB=1000000> 
<DWph=2> <it= 70> <et=48.16> <Mt= 1.28> <Spt= 7.08> <nCl=1000> <DB=-726679483.0482> <Mlp=154531193.9148> <PB=1000000> 
<DWph=2> <it= 80> <et=56.29> <Mt= 1.21> <Spt= 6.92> <nCl=1000> <DB=-557098955.2436> <Mlp=149015225.7368> <PB=1000000> 
