Application parameters:
  batch  =>  nothing
  instance  =>  "/IN/402_10000_DI_39.txt-Q20"
  ub  =>  1.0e6
  cfg  =>  "/CFG/BPP.cfg"
data = Colored Bin Packing dataset.
number of items = 403
number of colors = 20
capacity = 9824
Items : 
	 item 1, weight= 16, color= 3
	 item 2, weight= 32, color= 11
	 item 3, weight= 32, color= 15
	 item 4, weight= 48, color= 3
	 item 5, weight= 64, color= 1
	 item 6, weight= 64, color= 8
	 item 7, weight= 64, color= 13
	 item 8, weight= 76, color= 19
	 item 9, weight= 76, color= 19
	 item 10, weight= 88, color= 13
	 item 11, weight= 104, color= 17
	 item 12, weight= 128, color= 16
	 item 13, weight= 136, color= 18
	 item 14, weight= 148, color= 17
	 item 15, weight= 160, color= 3
	 item 16, weight= 160, color= 5
	 item 17, weight= 160, color= 7
	 item 18, weight= 160, color= 13
	 item 19, weight= 164, color= 10
	 item 20, weight= 168, color= 8
	 item 21, weight= 168, color= 19
	 item 22, weight= 172, color= 3
	 item 23, weight= 176, color= 0
	 item 24, weight= 176, color= 7
	 item 25, weight= 176, color= 8
	 item 26, weight= 180, color= 13
	 item 27, weight= 192, color= 3
	 item 28, weight= 192, color= 4
	 item 29, weight= 192, color= 5
	 item 30, weight= 192, color= 9
	 item 31, weight= 192, color= 10
	 item 32, weight= 192, color= 11
	 item 33, weight= 200, color= 18
	 item 34, weight= 204, color= 3
	 item 35, weight= 204, color= 9
	 item 36, weight= 208, color= 11
	 item 37, weight= 208, color= 17
	 item 38, weight= 216, color= 2
	 item 39, weight= 220, color= 7
	 item 40, weight= 224, color= 2
	 item 41, weight= 224, color= 9
	 item 42, weight= 224, color= 13
	 item 43, weight= 228, color= 13
	 item 44, weight= 232, color= 11
	 item 45, weight= 240, color= 4
	 item 46, weight= 240, color= 18
	 item 47, weight= 248, color= 14
	 item 48, weight= 256, color= 3
	 item 49, weight= 256, color= 5
	 item 50, weight= 256, color= 18
	 item 51, weight= 256, color= 18
	 item 52, weight= 264, color= 14
	 item 53, weight= 272, color= 18
	 item 54, weight= 280, color= 17
	 item 55, weight= 280, color= 18
	 item 56, weight= 288, color= 2
	 item 57, weight= 288, color= 5
	 item 58, weight= 288, color= 16
	 item 59, weight= 292, color= 16
	 item 60, weight= 296, color= 15
	 item 61, weight= 304, color= 1
	 item 62, weight= 312, color= 4
	 item 63, weight= 312, color= 5
	 item 64, weight= 312, color= 14
	 item 65, weight= 320, color= 2
	 item 66, weight= 320, color= 7
	 item 67, weight= 320, color= 17
	 item 68, weight= 328, color= 12
	 item 69, weight= 336, color= 9
	 item 70, weight= 340, color= 0
	 item 71, weight= 344, color= 8
	 item 72, weight= 352, color= 13
	 item 73, weight= 352, color= 14
	 item 74, weight= 352, color= 16
	 item 75, weight= 352, color= 18
	 item 76, weight= 368, color= 17
	 item 77, weight= 376, color= 14
	 item 78, weight= 376, color= 15
	 item 79, weight= 384, color= 2
	 item 80, weight= 384, color= 16
	 item 81, weight= 416, color= 0
	 item 82, weight= 416, color= 11
	 item 83, weight= 416, color= 14
	 item 84, weight= 416, color= 15
	 item 85, weight= 416, color= 18
	 item 86, weight= 420, color= 8
	 item 87, weight= 424, color= 18
	 item 88, weight= 464, color= 16
	 item 89, weight= 472, color= 10
	 item 90, weight= 472, color= 19
	 item 91, weight= 476, color= 16
	 item 92, weight= 480, color= 10
	 item 93, weight= 480, color= 15
	 item 94, weight= 484, color= 2
	 item 95, weight= 488, color= 4
	 item 96, weight= 496, color= 0
	 item 97, weight= 496, color= 4
	 item 98, weight= 496, color= 5
	 item 99, weight= 512, color= 3
	 item 100, weight= 512, color= 5
	 item 101, weight= 544, color= 0
	 item 102, weight= 544, color= 17
	 item 103, weight= 548, color= 4
	 item 104, weight= 568, color= 6
	 item 105, weight= 576, color= 0
	 item 106, weight= 576, color= 1
	 item 107, weight= 592, color= 19
	 item 108, weight= 600, color= 14
	 item 109, weight= 602, color= 1
	 item 110, weight= 602, color= 14
	 item 111, weight= 606, color= 17
	 item 112, weight= 608, color= 16
	 item 113, weight= 624, color= 0
	 item 114, weight= 624, color= 11
	 item 115, weight= 640, color= 3
	 item 116, weight= 640, color= 16
	 item 117, weight= 648, color= 13
	 item 118, weight= 672, color= 2
	 item 119, weight= 688, color= 4
	 item 120, weight= 688, color= 16
	 item 121, weight= 700, color= 8
	 item 122, weight= 702, color= 8
	 item 123, weight= 704, color= 8
	 item 124, weight= 704, color= 16
	 item 125, weight= 712, color= 8
	 item 126, weight= 712, color= 11
	 item 127, weight= 800, color= 2
	 item 128, weight= 800, color= 16
	 item 129, weight= 800, color= 16
	 item 130, weight= 808, color= 9
	 item 131, weight= 808, color= 15
	 item 132, weight= 816, color= 8
	 item 133, weight= 816, color= 11
	 item 134, weight= 816, color= 17
	 item 135, weight= 816, color= 19
	 item 136, weight= 818, color= 17
	 item 137, weight= 822, color= 19
	 item 138, weight= 828, color= 15
	 item 139, weight= 844, color= 0
	 item 140, weight= 856, color= 18
	 item 141, weight= 878, color= 9
	 item 142, weight= 880, color= 4
	 item 143, weight= 892, color= 14
	 item 144, weight= 904, color= 4
	 item 145, weight= 918, color= 17
	 item 146, weight= 928, color= 14
	 item 147, weight= 944, color= 10
	 item 148, weight= 968, color= 5
	 item 149, weight= 972, color= 1
	 item 150, weight= 1000, color= 18
	 item 151, weight= 1014, color= 13
	 item 152, weight= 1042, color= 16
	 item 153, weight= 1046, color= 1
	 item 154, weight= 1048, color= 10
	 item 155, weight= 1084, color= 14
	 item 156, weight= 1088, color= 13
	 item 157, weight= 1092, color= 0
	 item 158, weight= 1096, color= 16
	 item 159, weight= 1108, color= 12
	 item 160, weight= 1114, color= 17
	 item 161, weight= 1116, color= 4
	 item 162, weight= 1120, color= 11
	 item 163, weight= 1136, color= 3
	 item 164, weight= 1160, color= 13
	 item 165, weight= 1162, color= 16
	 item 166, weight= 1168, color= 4
	 item 167, weight= 1180, color= 5
	 item 168, weight= 1208, color= 0
	 item 169, weight= 1212, color= 2
	 item 170, weight= 1268, color= 14
	 item 171, weight= 1290, color= 2
	 item 172, weight= 1300, color= 14
	 item 173, weight= 1316, color= 10
	 item 174, weight= 1322, color= 19
	 item 175, weight= 1330, color= 14
	 item 176, weight= 1336, color= 3
	 item 177, weight= 1352, color= 14
	 item 178, weight= 1360, color= 2
	 item 179, weight= 1372, color= 10
	 item 180, weight= 1410, color= 19
	 item 181, weight= 1444, color= 14
	 item 182, weight= 1446, color= 11
	 item 183, weight= 1456, color= 13
	 item 184, weight= 1470, color= 9
	 item 185, weight= 1478, color= 4
	 item 186, weight= 1496, color= 3
	 item 187, weight= 1502, color= 2
	 item 188, weight= 1532, color= 0
	 item 189, weight= 1536, color= 14
	 item 190, weight= 1578, color= 1
	 item 191, weight= 1588, color= 17
	 item 192, weight= 1640, color= 4
	 item 193, weight= 1648, color= 18
	 item 194, weight= 1652, color= 8
	 item 195, weight= 1672, color= 18
	 item 196, weight= 1688, color= 1
	 item 197, weight= 1702, color= 2
	 item 198, weight= 1764, color= 2
	 item 199, weight= 1808, color= 13
	 item 200, weight= 1846, color= 12
	 item 201, weight= 1848, color= 15
	 item 202, weight= 1892, color= 19
	 item 203, weight= 1898, color= 11
	 item 204, weight= 1908, color= 12
	 item 205, weight= 1928, color= 6
	 item 206, weight= 2000, color= 15
	 item 207, weight= 2006, color= 2
	 item 208, weight= 2026, color= 10
	 item 209, weight= 2048, color= 1
	 item 210, weight= 2052, color= 9
	 item 211, weight= 2084, color= 4
	 item 212, weight= 2090, color= 11
	 item 213, weight= 2104, color= 9
	 item 214, weight= 2118, color= 3
	 item 215, weight= 2124, color= 19
	 item 216, weight= 2134, color= 6
	 item 217, weight= 2216, color= 13
	 item 218, weight= 2224, color= 6
	 item 219, weight= 2272, color= 10
	 item 220, weight= 2356, color= 15
	 item 221, weight= 2374, color= 6
	 item 222, weight= 2394, color= 8
	 item 223, weight= 2396, color= 13
	 item 224, weight= 2426, color= 17
	 item 225, weight= 2440, color= 3
	 item 226, weight= 2458, color= 1
	 item 227, weight= 2480, color= 13
	 item 228, weight= 2488, color= 1
	 item 229, weight= 2492, color= 13
	 item 230, weight= 2544, color= 15
	 item 231, weight= 2552, color= 8
	 item 232, weight= 2584, color= 7
	 item 233, weight= 2724, color= 1
	 item 234, weight= 2726, color= 10
	 item 235, weight= 2736, color= 6
	 item 236, weight= 2762, color= 10
	 item 237, weight= 2876, color= 3
	 item 238, weight= 2952, color= 11
	 item 239, weight= 3000, color= 5
	 item 240, weight= 3013, color= 5
	 item 241, weight= 3020, color= 11
	 item 242, weight= 3021, color= 7
	 item 243, weight= 3024, color= 5
	 item 244, weight= 3033, color= 8
	 item 245, weight= 3045, color= 17
	 item 246, weight= 3122, color= 4
	 item 247, weight= 3126, color= 10
	 item 248, weight= 3228, color= 8
	 item 249, weight= 3312, color= 17
	 item 250, weight= 3360, color= 4
	 item 251, weight= 3448, color= 10
	 item 252, weight= 3476, color= 2
	 item 253, weight= 3496, color= 9
	 item 254, weight= 3507, color= 0
	 item 255, weight= 3521, color= 2
	 item 256, weight= 3521, color= 15
	 item 257, weight= 3562, color= 18
	 item 258, weight= 3566, color= 16
	 item 259, weight= 3664, color= 18
	 item 260, weight= 3900, color= 15
	 item 261, weight= 3904, color= 11
	 item 262, weight= 4028, color= 4
	 item 263, weight= 4068, color= 7
	 item 264, weight= 4072, color= 7
	 item 265, weight= 4080, color= 2
	 item 266, weight= 4084, color= 2
	 item 267, weight= 4088, color= 18
	 item 268, weight= 4090, color= 12
	 item 269, weight= 4091, color= 18
	 item 270, weight= 4093, color= 15
	 item 271, weight= 4094, color= 10
	 item 272, weight= 4260, color= 16
	 item 273, weight= 4913, color= 18
	 item 274, weight= 4914, color= 1
	 item 275, weight= 4916, color= 12
	 item 276, weight= 4917, color= 2
	 item 277, weight= 4918, color= 8
	 item 278, weight= 4920, color= 9
	 item 279, weight= 4932, color= 2
	 item 280, weight= 4944, color= 10
	 item 281, weight= 4948, color= 0
	 item 282, weight= 4952, color= 12
	 item 283, weight= 4996, color= 10
	 item 284, weight= 5456, color= 1
	 item 285, weight= 5546, color= 14
	 item 286, weight= 5550, color= 3
	 item 287, weight= 5599, color= 7
	 item 288, weight= 5601, color= 12
	 item 289, weight= 5617, color= 18
	 item 290, weight= 5640, color= 15
	 item 291, weight= 5644, color= 18
	 item 292, weight= 5660, color= 5
	 item 293, weight= 5704, color= 2
	 item 294, weight= 5872, color= 10
	 item 295, weight= 5956, color= 12
	 item 296, weight= 6074, color= 0
	 item 297, weight= 6078, color= 0
	 item 298, weight= 6144, color= 17
	 item 299, weight= 6171, color= 1
	 item 300, weight= 6185, color= 6
	 item 301, weight= 6201, color= 1
	 item 302, weight= 6204, color= 10
	 item 303, weight= 6209, color= 7
	 item 304, weight= 6224, color= 13
	 item 305, weight= 6232, color= 13
	 item 306, weight= 6296, color= 4
	 item 307, weight= 6380, color= 12
	 item 308, weight= 6514, color= 5
	 item 309, weight= 6554, color= 4
	 item 310, weight= 6556, color= 18
	 item 311, weight= 6576, color= 5
	 item 312, weight= 6728, color= 16
	 item 313, weight= 6776, color= 16
	 item 314, weight= 6784, color= 3
	 item 315, weight= 6836, color= 14
	 item 316, weight= 6840, color= 2
	 item 317, weight= 6864, color= 17
	 item 318, weight= 6878, color= 18
	 item 319, weight= 6904, color= 9
	 item 320, weight= 6914, color= 8
	 item 321, weight= 6954, color= 11
	 item 322, weight= 6956, color= 12
	 item 323, weight= 6978, color= 2
	 item 324, weight= 7004, color= 7
	 item 325, weight= 7056, color= 15
	 item 326, weight= 7184, color= 4
	 item 327, weight= 7266, color= 16
	 item 328, weight= 7284, color= 19
	 item 329, weight= 7286, color= 7
	 item 330, weight= 7288, color= 11
	 item 331, weight= 7304, color= 6
	 item 332, weight= 7318, color= 19
	 item 333, weight= 7324, color= 10
	 item 334, weight= 7440, color= 10
	 item 335, weight= 7512, color= 1
	 item 336, weight= 7550, color= 7
	 item 337, weight= 7556, color= 17
	 item 338, weight= 7594, color= 13
	 item 339, weight= 7604, color= 12
	 item 340, weight= 7610, color= 2
	 item 341, weight= 7624, color= 6
	 item 342, weight= 7664, color= 14
	 item 343, weight= 7668, color= 3
	 item 344, weight= 7716, color= 2
	 item 345, weight= 7742, color= 5
	 item 346, weight= 7782, color= 9
	 item 347, weight= 7800, color= 3
	 item 348, weight= 7844, color= 5
	 item 349, weight= 7856, color= 15
	 item 350, weight= 7864, color= 14
	 item 351, weight= 7924, color= 11
	 item 352, weight= 7934, color= 0
	 item 353, weight= 7988, color= 16
	 item 354, weight= 8026, color= 19
	 item 355, weight= 8040, color= 16
	 item 356, weight= 8062, color= 12
	 item 357, weight= 8080, color= 0
	 item 358, weight= 8088, color= 1
	 item 359, weight= 8092, color= 15
	 item 360, weight= 8134, color= 11
	 item 361, weight= 8180, color= 12
	 item 362, weight= 8208, color= 7
	 item 363, weight= 8216, color= 15
	 item 364, weight= 8230, color= 18
	 item 365, weight= 8232, color= 13
	 item 366, weight= 8268, color= 8
	 item 367, weight= 8298, color= 7
	 item 368, weight= 8308, color= 19
	 item 369, weight= 8340, color= 7
	 item 370, weight= 8362, color= 4
	 item 371, weight= 8372, color= 19
	 item 372, weight= 8376, color= 16
	 item 373, weight= 8386, color= 12
	 item 374, weight= 8412, color= 16
	 item 375, weight= 8426, color= 14
	 item 376, weight= 8432, color= 6
	 item 377, weight= 8434, color= 3
	 item 378, weight= 8440, color= 4
	 item 379, weight= 8490, color= 8
	 item 380, weight= 8496, color= 14
	 item 381, weight= 8500, color= 6
	 item 382, weight= 8520, color= 15
	 item 383, weight= 8532, color= 12
	 item 384, weight= 8578, color= 17
	 item 385, weight= 8584, color= 5
	 item 386, weight= 8596, color= 14
	 item 387, weight= 8610, color= 15
	 item 388, weight= 8620, color= 15
	 item 389, weight= 8632, color= 15
	 item 390, weight= 8660, color= 5
	 item 391, weight= 8680, color= 18
	 item 392, weight= 8714, color= 11
	 item 393, weight= 8720, color= 6
	 item 394, weight= 8726, color= 18
	 item 395, weight= 8744, color= 13
	 item 396, weight= 8756, color= 7
	 item 397, weight= 8768, color= 16
	 item 398, weight= 8774, color= 9
	 item 399, weight= 8784, color= 10
	 item 400, weight= 8808, color= 19
	 item 401, weight= 8812, color= 0
	 item 402, weight= 8836, color= 0
	 item 403, weight= 8838, color= 11

VRPSolver warning: Interval set for resource 1 on source node (when source != sink) is ignored (by definition is [0.0,0.0])
VRPSolver warning: Interval set for resource 2 on source node (when source != sink) is ignored (by definition is [0.0,0.0])
VRPSolver warning: Interval set for resource 3 on source node (when source != sink) is ignored (by definition is [0.0,0.0])
VRPSolver warning: Interval set for resource 4 on source node (when source != sink) is ignored (by definition is [0.0,0.0])
VRPSolver warning: Interval set for resource 5 on source node (when source != sink) is ignored (by definition is [0.0,0.0])
VRPSolver warning: Interval set for resource 6 on source node (when source != sink) is ignored (by definition is [0.0,0.0])
VRPSolver warning: Interval set for resource 7 on source node (when source != sink) is ignored (by definition is [0.0,0.0])
VRPSolver warning: Interval set for resource 8 on source node (when source != sink) is ignored (by definition is [0.0,0.0])
VRPSolver warning: Interval set for resource 9 on source node (when source != sink) is ignored (by definition is [0.0,0.0])
VRPSolver warning: Interval set for resource 10 on source node (when source != sink) is ignored (by definition is [0.0,0.0])
VRPSolver warning: Interval set for resource 11 on source node (when source != sink) is ignored (by definition is [0.0,0.0])
VRPSolver warning: Interval set for resource 12 on source node (when source != sink) is ignored (by definition is [0.0,0.0])
VRPSolver warning: Interval set for resource 13 on source node (when source != sink) is ignored (by definition is [0.0,0.0])
VRPSolver warning: Interval set for resource 14 on source node (when source != sink) is ignored (by definition is [0.0,0.0])
VRPSolver warning: Interval set for resource 15 on source node (when source != sink) is ignored (by definition is [0.0,0.0])
VRPSolver warning: Interval set for resource 16 on source node (when source != sink) is ignored (by definition is [0.0,0.0])
VRPSolver warning: Interval set for resource 17 on source node (when source != sink) is ignored (by definition is [0.0,0.0])
VRPSolver warning: Interval set for resource 18 on source node (when source != sink) is ignored (by definition is [0.0,0.0])
VRPSolver warning: Interval set for resource 19 on source node (when source != sink) is ignored (by definition is [0.0,0.0])
VRPSolver warning: Interval set for resource 20 on source node (when source != sink) is ignored (by definition is [0.0,0.0])
VRPSolver warning: Interval set for resource 21 on source node (when source != sink) is ignored (by definition is [0.0,0.0])
[41m solve [00m
~~~~~~~~~~~~~~~~~~~~~~~~~~~~~~~~~~~~~~~~~~~~~~~~~~~~~~~~~~~~~~~~~~~~~~~~~~~~~~
VRPSolver v0.4.1, 24/03/2021. Web: vrpsolver.math.u-bordeaux.fr
Corresponds to the solver by Pessoa, Sadykov, Uchoa and Vanderbeck (2020)
Paper: dx.doi.org/10.1007/s10107-020-01523-z
USE THIS CODE ONLY FOR ACADEMIC PURPOSES AT YOUR OWN RISK
~~~~~~~~~~~~~~~~~~~~~~~~~~~~~~~~~~~~~~~~~~~~~~~~~~~~~~~~~~~~~~~~~~~~~~~~~~~~~~
BaPCod v053, 24/03/2021, © Inria Bordeaux, France
~~~~~~~~~~~~~~~~~~~~~~~~~~~~~~~~~~~~~~~~~~~~~~~~~~~~~~~~~~~~~~~~~~~~~~~~~~~~~~
VRPSolver parameters:
GlobalTimeLimit = 60
MaxNbOfBBtreeNodeTreated = 100000
treeSearchStrategy = 1
RCSPstopCutGenTimeThresholdInPricing = 10
RCSPhardTimeThresholdInPricing = 20
RCSPnumberOfBucketsPerVertex = 2000
RCSPdynamicBucketSteps = 0
RCSPuseBidirectionalSearch = 1
RCSPapplyReducedCostFixing = 1
RCSPredCostFixingFalseGap = 0
RCSPmaxNumOfColsPerIteration = 100
RCSPmaxNumOfColsPerExactIteration = 100
RCSPheurLabelingStrategy = 4
StabilizationMinPhaseOfStage = 1
RCSPmaxNumOfLabelsInEnumeration = 100000
RCSPmaxNumOfEnumeratedSolutions = 1000000
RCSPmaxNumOfEnumSolutionsForMIP = 100000
RCSPinitNGneighbourhoodSize = 0
RCSPmaxNGneighbourhoodSize = 0
RCSPrankOneCutsMaxNumPerRound = 100
RCSPrankOneCutsMaxNumRows = -1
RCSPrankOneCutsMemoryType = 2
CutTailingOffThreshold = 0.02
CutTailingOffCounterThreshold = 3
SafeDualBoundScaleFactor = -1
StrongBranchingPhaseOneCandidatesNumber = 100
StrongBranchingPhaseOneTreeSizeEstimRatio = 0.3
StrongBranchingPhaseTwoCandidatesNumber = 1
StrongBranchingPhaseTwoTreeSizeEstimRatio = 0.1
MaxTimeForRestrictedMasterIpHeur = -1
DivingHeurUseDepthLimit = 0
MaxLDSbreadth = 3
MaxLDSdepth = 2
New model incumbent solution 1e+06, TIME = 0h0m0s3t = 3
