Application parameters:
  batch  =>  nothing
  instance  =>  "/IN/402_10000_DI_22.txt-Q20"
  ub  =>  1.0e6
  cfg  =>  "/CFG/BPP.cfg"
data = Colored Bin Packing dataset.
number of items = 403
number of colors = 20
capacity = 5392
Items : 
	 item 1, weight= 16, color= 0
	 item 2, weight= 16, color= 1
	 item 3, weight= 32, color= 14
	 item 4, weight= 52, color= 1
	 item 5, weight= 56, color= 2
	 item 6, weight= 64, color= 1
	 item 7, weight= 64, color= 5
	 item 8, weight= 64, color= 17
	 item 9, weight= 64, color= 17
	 item 10, weight= 88, color= 9
	 item 11, weight= 92, color= 13
	 item 12, weight= 96, color= 2
	 item 13, weight= 96, color= 3
	 item 14, weight= 96, color= 6
	 item 15, weight= 96, color= 17
	 item 16, weight= 100, color= 4
	 item 17, weight= 100, color= 10
	 item 18, weight= 104, color= 17
	 item 19, weight= 108, color= 10
	 item 20, weight= 108, color= 14
	 item 21, weight= 112, color= 0
	 item 22, weight= 112, color= 0
	 item 23, weight= 112, color= 4
	 item 24, weight= 112, color= 4
	 item 25, weight= 112, color= 6
	 item 26, weight= 112, color= 7
	 item 27, weight= 112, color= 10
	 item 28, weight= 114, color= 14
	 item 29, weight= 114, color= 19
	 item 30, weight= 116, color= 1
	 item 31, weight= 120, color= 11
	 item 32, weight= 120, color= 13
	 item 33, weight= 120, color= 16
	 item 34, weight= 120, color= 19
	 item 35, weight= 124, color= 0
	 item 36, weight= 128, color= 2
	 item 37, weight= 128, color= 5
	 item 38, weight= 128, color= 10
	 item 39, weight= 128, color= 10
	 item 40, weight= 128, color= 18
	 item 41, weight= 130, color= 7
	 item 42, weight= 130, color= 11
	 item 43, weight= 130, color= 12
	 item 44, weight= 132, color= 11
	 item 45, weight= 136, color= 11
	 item 46, weight= 140, color= 7
	 item 47, weight= 144, color= 2
	 item 48, weight= 144, color= 4
	 item 49, weight= 144, color= 5
	 item 50, weight= 144, color= 6
	 item 51, weight= 148, color= 11
	 item 52, weight= 152, color= 0
	 item 53, weight= 152, color= 15
	 item 54, weight= 158, color= 8
	 item 55, weight= 158, color= 16
	 item 56, weight= 160, color= 5
	 item 57, weight= 160, color= 10
	 item 58, weight= 160, color= 12
	 item 59, weight= 160, color= 18
	 item 60, weight= 168, color= 14
	 item 61, weight= 172, color= 9
	 item 62, weight= 174, color= 3
	 item 63, weight= 174, color= 19
	 item 64, weight= 176, color= 3
	 item 65, weight= 176, color= 7
	 item 66, weight= 176, color= 8
	 item 67, weight= 176, color= 8
	 item 68, weight= 176, color= 14
	 item 69, weight= 184, color= 13
	 item 70, weight= 190, color= 9
	 item 71, weight= 192, color= 2
	 item 72, weight= 192, color= 3
	 item 73, weight= 192, color= 10
	 item 74, weight= 192, color= 11
	 item 75, weight= 192, color= 16
	 item 76, weight= 192, color= 19
	 item 77, weight= 194, color= 10
	 item 78, weight= 196, color= 13
	 item 79, weight= 200, color= 16
	 item 80, weight= 200, color= 19
	 item 81, weight= 208, color= 2
	 item 82, weight= 208, color= 16
	 item 83, weight= 216, color= 5
	 item 84, weight= 216, color= 11
	 item 85, weight= 220, color= 15
	 item 86, weight= 224, color= 12
	 item 87, weight= 224, color= 15
	 item 88, weight= 228, color= 14
	 item 89, weight= 232, color= 11
	 item 90, weight= 240, color= 0
	 item 91, weight= 244, color= 6
	 item 92, weight= 244, color= 9
	 item 93, weight= 246, color= 7
	 item 94, weight= 248, color= 9
	 item 95, weight= 256, color= 0
	 item 96, weight= 260, color= 17
	 item 97, weight= 276, color= 19
	 item 98, weight= 278, color= 8
	 item 99, weight= 280, color= 8
	 item 100, weight= 280, color= 17
	 item 101, weight= 282, color= 0
	 item 102, weight= 284, color= 14
	 item 103, weight= 288, color= 1
	 item 104, weight= 288, color= 15
	 item 105, weight= 296, color= 4
	 item 106, weight= 296, color= 12
	 item 107, weight= 296, color= 15
	 item 108, weight= 296, color= 19
	 item 109, weight= 320, color= 7
	 item 110, weight= 324, color= 15
	 item 111, weight= 334, color= 1
	 item 112, weight= 336, color= 3
	 item 113, weight= 336, color= 10
	 item 114, weight= 340, color= 19
	 item 115, weight= 344, color= 4
	 item 116, weight= 344, color= 5
	 item 117, weight= 344, color= 9
	 item 118, weight= 352, color= 7
	 item 119, weight= 368, color= 6
	 item 120, weight= 384, color= 3
	 item 121, weight= 384, color= 5
	 item 122, weight= 386, color= 4
	 item 123, weight= 386, color= 10
	 item 124, weight= 386, color= 13
	 item 125, weight= 392, color= 9
	 item 126, weight= 396, color= 9
	 item 127, weight= 396, color= 12
	 item 128, weight= 400, color= 19
	 item 129, weight= 416, color= 1
	 item 130, weight= 432, color= 19
	 item 131, weight= 440, color= 1
	 item 132, weight= 440, color= 2
	 item 133, weight= 448, color= 1
	 item 134, weight= 448, color= 6
	 item 135, weight= 448, color= 12
	 item 136, weight= 448, color= 13
	 item 137, weight= 454, color= 15
	 item 138, weight= 470, color= 5
	 item 139, weight= 492, color= 18
	 item 140, weight= 494, color= 3
	 item 141, weight= 496, color= 10
	 item 142, weight= 514, color= 2
	 item 143, weight= 516, color= 9
	 item 144, weight= 522, color= 4
	 item 145, weight= 540, color= 13
	 item 146, weight= 546, color= 4
	 item 147, weight= 552, color= 14
	 item 148, weight= 564, color= 7
	 item 149, weight= 565, color= 1
	 item 150, weight= 568, color= 3
	 item 151, weight= 571, color= 19
	 item 152, weight= 575, color= 4
	 item 153, weight= 592, color= 7
	 item 154, weight= 594, color= 14
	 item 155, weight= 600, color= 16
	 item 156, weight= 604, color= 9
	 item 157, weight= 608, color= 19
	 item 158, weight= 609, color= 2
	 item 159, weight= 610, color= 14
	 item 160, weight= 611, color= 14
	 item 161, weight= 632, color= 9
	 item 162, weight= 638, color= 12
	 item 163, weight= 649, color= 14
	 item 164, weight= 651, color= 5
	 item 165, weight= 652, color= 17
	 item 166, weight= 655, color= 13
	 item 167, weight= 659, color= 6
	 item 168, weight= 671, color= 11
	 item 169, weight= 686, color= 19
	 item 170, weight= 700, color= 0
	 item 171, weight= 709, color= 15
	 item 172, weight= 722, color= 1
	 item 173, weight= 723, color= 9
	 item 174, weight= 740, color= 13
	 item 175, weight= 742, color= 9
	 item 176, weight= 760, color= 18
	 item 177, weight= 764, color= 1
	 item 178, weight= 766, color= 8
	 item 179, weight= 769, color= 13
	 item 180, weight= 776, color= 15
	 item 181, weight= 791, color= 10
	 item 182, weight= 794, color= 16
	 item 183, weight= 795, color= 15
	 item 184, weight= 812, color= 15
	 item 185, weight= 848, color= 13
	 item 186, weight= 856, color= 12
	 item 187, weight= 862, color= 9
	 item 188, weight= 871, color= 11
	 item 189, weight= 873, color= 0
	 item 190, weight= 877, color= 5
	 item 191, weight= 881, color= 16
	 item 192, weight= 898, color= 6
	 item 193, weight= 900, color= 19
	 item 194, weight= 924, color= 15
	 item 195, weight= 936, color= 19
	 item 196, weight= 948, color= 1
	 item 197, weight= 971, color= 3
	 item 198, weight= 977, color= 0
	 item 199, weight= 982, color= 8
	 item 200, weight= 994, color= 0
	 item 201, weight= 996, color= 7
	 item 202, weight= 1010, color= 17
	 item 203, weight= 1020, color= 19
	 item 204, weight= 1032, color= 9
	 item 205, weight= 1052, color= 0
	 item 206, weight= 1085, color= 9
	 item 207, weight= 1091, color= 8
	 item 208, weight= 1120, color= 4
	 item 209, weight= 1130, color= 5
	 item 210, weight= 1144, color= 5
	 item 211, weight= 1146, color= 15
	 item 212, weight= 1150, color= 1
	 item 213, weight= 1166, color= 5
	 item 214, weight= 1172, color= 2
	 item 215, weight= 1172, color= 4
	 item 216, weight= 1180, color= 9
	 item 217, weight= 1221, color= 4
	 item 218, weight= 1227, color= 14
	 item 219, weight= 1248, color= 9
	 item 220, weight= 1288, color= 13
	 item 221, weight= 1302, color= 15
	 item 222, weight= 1306, color= 7
	 item 223, weight= 1348, color= 4
	 item 224, weight= 1385, color= 9
	 item 225, weight= 1395, color= 8
	 item 226, weight= 1396, color= 16
	 item 227, weight= 1411, color= 1
	 item 228, weight= 1420, color= 10
	 item 229, weight= 1423, color= 2
	 item 230, weight= 1436, color= 0
	 item 231, weight= 1448, color= 3
	 item 232, weight= 1448, color= 17
	 item 233, weight= 1458, color= 2
	 item 234, weight= 1468, color= 8
	 item 235, weight= 1484, color= 16
	 item 236, weight= 1486, color= 11
	 item 237, weight= 1500, color= 3
	 item 238, weight= 1516, color= 6
	 item 239, weight= 1625, color= 3
	 item 240, weight= 1631, color= 11
	 item 241, weight= 1656, color= 3
	 item 242, weight= 1679, color= 9
	 item 243, weight= 1702, color= 0
	 item 244, weight= 1706, color= 14
	 item 245, weight= 1708, color= 12
	 item 246, weight= 1722, color= 7
	 item 247, weight= 1732, color= 14
	 item 248, weight= 1763, color= 1
	 item 249, weight= 1764, color= 6
	 item 250, weight= 1771, color= 2
	 item 251, weight= 1816, color= 4
	 item 252, weight= 1840, color= 17
	 item 253, weight= 1844, color= 7
	 item 254, weight= 1931, color= 15
	 item 255, weight= 1933, color= 13
	 item 256, weight= 1937, color= 4
	 item 257, weight= 1941, color= 5
	 item 258, weight= 1966, color= 8
	 item 259, weight= 1986, color= 3
	 item 260, weight= 1994, color= 18
	 item 261, weight= 2008, color= 17
	 item 262, weight= 2092, color= 17
	 item 263, weight= 2144, color= 7
	 item 264, weight= 2228, color= 0
	 item 265, weight= 2242, color= 13
	 item 266, weight= 2244, color= 15
	 item 267, weight= 2244, color= 17
	 item 268, weight= 2245, color= 6
	 item 269, weight= 2247, color= 5
	 item 270, weight= 2248, color= 4
	 item 271, weight= 2310, color= 17
	 item 272, weight= 2356, color= 6
	 item 273, weight= 2697, color= 9
	 item 274, weight= 2698, color= 5
	 item 275, weight= 2699, color= 15
	 item 276, weight= 2700, color= 15
	 item 277, weight= 2702, color= 16
	 item 278, weight= 2708, color= 17
	 item 279, weight= 2712, color= 3
	 item 280, weight= 2724, color= 2
	 item 281, weight= 2740, color= 4
	 item 282, weight= 2884, color= 3
	 item 283, weight= 2984, color= 19
	 item 284, weight= 3002, color= 0
	 item 285, weight= 3010, color= 13
	 item 286, weight= 3034, color= 4
	 item 287, weight= 3065, color= 5
	 item 288, weight= 3069, color= 7
	 item 289, weight= 3073, color= 6
	 item 290, weight= 3077, color= 12
	 item 291, weight= 3180, color= 9
	 item 292, weight= 3224, color= 7
	 item 293, weight= 3284, color= 1
	 item 294, weight= 3316, color= 15
	 item 295, weight= 3326, color= 8
	 item 296, weight= 3346, color= 17
	 item 297, weight= 3348, color= 15
	 item 298, weight= 3354, color= 0
	 item 299, weight= 3376, color= 18
	 item 300, weight= 3379, color= 16
	 item 301, weight= 3383, color= 4
	 item 302, weight= 3416, color= 17
	 item 303, weight= 3431, color= 4
	 item 304, weight= 3443, color= 3
	 item 305, weight= 3580, color= 2
	 item 306, weight= 3610, color= 8
	 item 307, weight= 3612, color= 17
	 item 308, weight= 3633, color= 14
	 item 309, weight= 3644, color= 7
	 item 310, weight= 3646, color= 19
	 item 311, weight= 3656, color= 11
	 item 312, weight= 3676, color= 9
	 item 313, weight= 3685, color= 17
	 item 314, weight= 3692, color= 14
	 item 315, weight= 3699, color= 11
	 item 316, weight= 3712, color= 15
	 item 317, weight= 3719, color= 2
	 item 318, weight= 3731, color= 1
	 item 319, weight= 3740, color= 17
	 item 320, weight= 3784, color= 2
	 item 321, weight= 3804, color= 12
	 item 322, weight= 3826, color= 18
	 item 323, weight= 3834, color= 4
	 item 324, weight= 3864, color= 7
	 item 325, weight= 3916, color= 13
	 item 326, weight= 3921, color= 5
	 item 327, weight= 3927, color= 15
	 item 328, weight= 3988, color= 12
	 item 329, weight= 4006, color= 13
	 item 330, weight= 4014, color= 3
	 item 331, weight= 4020, color= 14
	 item 332, weight= 4024, color= 5
	 item 333, weight= 4038, color= 4
	 item 334, weight= 4052, color= 4
	 item 335, weight= 4085, color= 13
	 item 336, weight= 4091, color= 8
	 item 337, weight= 4132, color= 9
	 item 338, weight= 4168, color= 9
	 item 339, weight= 4172, color= 11
	 item 340, weight= 4182, color= 12
	 item 341, weight= 4202, color= 9
	 item 342, weight= 4204, color= 6
	 item 343, weight= 4218, color= 12
	 item 344, weight= 4221, color= 14
	 item 345, weight= 4229, color= 3
	 item 346, weight= 4280, color= 9
	 item 347, weight= 4292, color= 3
	 item 348, weight= 4316, color= 13
	 item 349, weight= 4318, color= 18
	 item 350, weight= 4330, color= 0
	 item 351, weight= 4335, color= 5
	 item 352, weight= 4341, color= 3
	 item 353, weight= 4345, color= 3
	 item 354, weight= 4349, color= 0
	 item 355, weight= 4362, color= 7
	 item 356, weight= 4376, color= 2
	 item 357, weight= 4388, color= 6
	 item 358, weight= 4420, color= 9
	 item 359, weight= 4439, color= 6
	 item 360, weight= 4443, color= 16
	 item 361, weight= 4450, color= 3
	 item 362, weight= 4471, color= 0
	 item 363, weight= 4476, color= 1
	 item 364, weight= 4488, color= 7
	 item 365, weight= 4506, color= 16
	 item 366, weight= 4518, color= 3
	 item 367, weight= 4525, color= 16
	 item 368, weight= 4526, color= 5
	 item 369, weight= 4543, color= 2
	 item 370, weight= 4552, color= 2
	 item 371, weight= 4556, color= 0
	 item 372, weight= 4578, color= 4
	 item 373, weight= 4588, color= 9
	 item 374, weight= 4589, color= 6
	 item 375, weight= 4603, color= 2
	 item 376, weight= 4607, color= 17
	 item 377, weight= 4611, color= 12
	 item 378, weight= 4612, color= 2
	 item 379, weight= 4615, color= 12
	 item 380, weight= 4630, color= 15
	 item 381, weight= 4648, color= 5
	 item 382, weight= 4661, color= 15
	 item 383, weight= 4662, color= 4
	 item 384, weight= 4663, color= 9
	 item 385, weight= 4668, color= 18
	 item 386, weight= 4680, color= 0
	 item 387, weight= 4682, color= 8
	 item 388, weight= 4703, color= 10
	 item 389, weight= 4707, color= 14
	 item 390, weight= 4712, color= 8
	 item 391, weight= 4715, color= 9
	 item 392, weight= 4716, color= 14
	 item 393, weight= 4738, color= 17
	 item 394, weight= 4744, color= 19
	 item 395, weight= 4748, color= 16
	 item 396, weight= 4770, color= 5
	 item 397, weight= 4778, color= 7
	 item 398, weight= 4780, color= 6
	 item 399, weight= 4802, color= 12
	 item 400, weight= 4804, color= 10
	 item 401, weight= 4830, color= 6
	 item 402, weight= 4832, color= 2
	 item 403, weight= 4850, color= 12

VRPSolver warning: Interval set for resource 1 on source node (when source != sink) is ignored (by definition is [0.0,0.0])
VRPSolver warning: Interval set for resource 2 on source node (when source != sink) is ignored (by definition is [0.0,0.0])
VRPSolver warning: Interval set for resource 3 on source node (when source != sink) is ignored (by definition is [0.0,0.0])
VRPSolver warning: Interval set for resource 4 on source node (when source != sink) is ignored (by definition is [0.0,0.0])
VRPSolver warning: Interval set for resource 5 on source node (when source != sink) is ignored (by definition is [0.0,0.0])
VRPSolver warning: Interval set for resource 6 on source node (when source != sink) is ignored (by definition is [0.0,0.0])
VRPSolver warning: Interval set for resource 7 on source node (when source != sink) is ignored (by definition is [0.0,0.0])
VRPSolver warning: Interval set for resource 8 on source node (when source != sink) is ignored (by definition is [0.0,0.0])
VRPSolver warning: Interval set for resource 9 on source node (when source != sink) is ignored (by definition is [0.0,0.0])
VRPSolver warning: Interval set for resource 10 on source node (when source != sink) is ignored (by definition is [0.0,0.0])
VRPSolver warning: Interval set for resource 11 on source node (when source != sink) is ignored (by definition is [0.0,0.0])
VRPSolver warning: Interval set for resource 12 on source node (when source != sink) is ignored (by definition is [0.0,0.0])
VRPSolver warning: Interval set for resource 13 on source node (when source != sink) is ignored (by definition is [0.0,0.0])
VRPSolver warning: Interval set for resource 14 on source node (when source != sink) is ignored (by definition is [0.0,0.0])
VRPSolver warning: Interval set for resource 15 on source node (when source != sink) is ignored (by definition is [0.0,0.0])
VRPSolver warning: Interval set for resource 16 on source node (when source != sink) is ignored (by definition is [0.0,0.0])
VRPSolver warning: Interval set for resource 17 on source node (when source != sink) is ignored (by definition is [0.0,0.0])
VRPSolver warning: Interval set for resource 18 on source node (when source != sink) is ignored (by definition is [0.0,0.0])
VRPSolver warning: Interval set for resource 19 on source node (when source != sink) is ignored (by definition is [0.0,0.0])
VRPSolver warning: Interval set for resource 20 on source node (when source != sink) is ignored (by definition is [0.0,0.0])
VRPSolver warning: Interval set for resource 21 on source node (when source != sink) is ignored (by definition is [0.0,0.0])
[41m solve [00m
~~~~~~~~~~~~~~~~~~~~~~~~~~~~~~~~~~~~~~~~~~~~~~~~~~~~~~~~~~~~~~~~~~~~~~~~~~~~~~
VRPSolver v0.4.1, 24/03/2021. Web: vrpsolver.math.u-bordeaux.fr
Corresponds to the solver by Pessoa, Sadykov, Uchoa and Vanderbeck (2020)
Paper: dx.doi.org/10.1007/s10107-020-01523-z
USE THIS CODE ONLY FOR ACADEMIC PURPOSES AT YOUR OWN RISK
~~~~~~~~~~~~~~~~~~~~~~~~~~~~~~~~~~~~~~~~~~~~~~~~~~~~~~~~~~~~~~~~~~~~~~~~~~~~~~
BaPCod v053, 24/03/2021, © Inria Bordeaux, France
~~~~~~~~~~~~~~~~~~~~~~~~~~~~~~~~~~~~~~~~~~~~~~~~~~~~~~~~~~~~~~~~~~~~~~~~~~~~~~
VRPSolver parameters:
GlobalTimeLimit = 60
MaxNbOfBBtreeNodeTreated = 100000
treeSearchStrategy = 1
RCSPstopCutGenTimeThresholdInPricing = 10
RCSPhardTimeThresholdInPricing = 20
RCSPnumberOfBucketsPerVertex = 2000
RCSPdynamicBucketSteps = 0
RCSPuseBidirectionalSearch = 1
RCSPapplyReducedCostFixing = 1
RCSPredCostFixingFalseGap = 0
RCSPmaxNumOfColsPerIteration = 100
RCSPmaxNumOfColsPerExactIteration = 100
RCSPheurLabelingStrategy = 4
StabilizationMinPhaseOfStage = 1
RCSPmaxNumOfLabelsInEnumeration = 100000
RCSPmaxNumOfEnumeratedSolutions = 1000000
RCSPmaxNumOfEnumSolutionsForMIP = 100000
RCSPinitNGneighbourhoodSize = 0
RCSPmaxNGneighbourhoodSize = 0
RCSPrankOneCutsMaxNumPerRound = 100
RCSPrankOneCutsMaxNumRows = -1
RCSPrankOneCutsMemoryType = 2
CutTailingOffThreshold = 0.02
CutTailingOffCounterThreshold = 3
SafeDualBoundScaleFactor = -1
StrongBranchingPhaseOneCandidatesNumber = 100
StrongBranchingPhaseOneTreeSizeEstimRatio = 0.3
StrongBranchingPhaseTwoCandidatesNumber = 1
StrongBranchingPhaseTwoTreeSizeEstimRatio = 0.1
MaxTimeForRestrictedMasterIpHeur = -1
DivingHeurUseDepthLimit = 0
MaxLDSbreadth = 3
MaxLDSdepth = 2
New model incumbent solution 1e+06, TIME = 0h0m0s3t = 3
