Application parameters:
  batch  =>  nothing
  instance  =>  "/IN/402_10000_DI_4.txt-Q5"
  ub  =>  1.0e6
  cfg  =>  "/CFG/BPP.cfg"
data = Colored Bin Packing dataset.
number of items = 403
number of colors = 5
capacity = 7696
Items : 
	 item 1, weight= 16, color= 0
	 item 2, weight= 16, color= 1
	 item 3, weight= 16, color= 3
	 item 4, weight= 24, color= 3
	 item 5, weight= 32, color= 1
	 item 6, weight= 48, color= 3
	 item 7, weight= 60, color= 0
	 item 8, weight= 86, color= 1
	 item 9, weight= 88, color= 1
	 item 10, weight= 96, color= 2
	 item 11, weight= 112, color= 4
	 item 12, weight= 128, color= 0
	 item 13, weight= 128, color= 0
	 item 14, weight= 128, color= 1
	 item 15, weight= 128, color= 1
	 item 16, weight= 128, color= 3
	 item 17, weight= 132, color= 1
	 item 18, weight= 136, color= 4
	 item 19, weight= 136, color= 4
	 item 20, weight= 138, color= 3
	 item 21, weight= 140, color= 1
	 item 22, weight= 140, color= 2
	 item 23, weight= 144, color= 0
	 item 24, weight= 144, color= 1
	 item 25, weight= 144, color= 1
	 item 26, weight= 152, color= 2
	 item 27, weight= 154, color= 3
	 item 28, weight= 156, color= 1
	 item 29, weight= 160, color= 1
	 item 30, weight= 164, color= 2
	 item 31, weight= 164, color= 3
	 item 32, weight= 168, color= 3
	 item 33, weight= 168, color= 4
	 item 34, weight= 172, color= 0
	 item 35, weight= 172, color= 0
	 item 36, weight= 176, color= 1
	 item 37, weight= 176, color= 4
	 item 38, weight= 178, color= 3
	 item 39, weight= 182, color= 4
	 item 40, weight= 184, color= 0
	 item 41, weight= 184, color= 0
	 item 42, weight= 184, color= 0
	 item 43, weight= 184, color= 2
	 item 44, weight= 196, color= 0
	 item 45, weight= 198, color= 4
	 item 46, weight= 200, color= 0
	 item 47, weight= 200, color= 3
	 item 48, weight= 202, color= 3
	 item 49, weight= 208, color= 0
	 item 50, weight= 208, color= 2
	 item 51, weight= 208, color= 4
	 item 52, weight= 216, color= 1
	 item 53, weight= 216, color= 4
	 item 54, weight= 216, color= 4
	 item 55, weight= 224, color= 1
	 item 56, weight= 224, color= 2
	 item 57, weight= 224, color= 3
	 item 58, weight= 232, color= 2
	 item 59, weight= 232, color= 2
	 item 60, weight= 236, color= 0
	 item 61, weight= 240, color= 1
	 item 62, weight= 240, color= 2
	 item 63, weight= 244, color= 4
	 item 64, weight= 254, color= 2
	 item 65, weight= 254, color= 4
	 item 66, weight= 256, color= 0
	 item 67, weight= 256, color= 1
	 item 68, weight= 256, color= 2
	 item 69, weight= 258, color= 0
	 item 70, weight= 260, color= 0
	 item 71, weight= 260, color= 3
	 item 72, weight= 262, color= 3
	 item 73, weight= 264, color= 0
	 item 74, weight= 266, color= 3
	 item 75, weight= 272, color= 0
	 item 76, weight= 276, color= 2
	 item 77, weight= 288, color= 0
	 item 78, weight= 288, color= 1
	 item 79, weight= 288, color= 4
	 item 80, weight= 288, color= 4
	 item 81, weight= 292, color= 2
	 item 82, weight= 292, color= 3
	 item 83, weight= 296, color= 3
	 item 84, weight= 304, color= 4
	 item 85, weight= 308, color= 0
	 item 86, weight= 312, color= 4
	 item 87, weight= 320, color= 0
	 item 88, weight= 320, color= 3
	 item 89, weight= 328, color= 1
	 item 90, weight= 328, color= 2
	 item 91, weight= 344, color= 0
	 item 92, weight= 350, color= 2
	 item 93, weight= 352, color= 3
	 item 94, weight= 354, color= 0
	 item 95, weight= 360, color= 1
	 item 96, weight= 368, color= 1
	 item 97, weight= 368, color= 2
	 item 98, weight= 368, color= 4
	 item 99, weight= 372, color= 1
	 item 100, weight= 400, color= 0
	 item 101, weight= 400, color= 3
	 item 102, weight= 402, color= 0
	 item 103, weight= 402, color= 2
	 item 104, weight= 406, color= 3
	 item 105, weight= 410, color= 2
	 item 106, weight= 414, color= 2
	 item 107, weight= 416, color= 4
	 item 108, weight= 416, color= 4
	 item 109, weight= 420, color= 2
	 item 110, weight= 424, color= 3
	 item 111, weight= 472, color= 1
	 item 112, weight= 478, color= 1
	 item 113, weight= 480, color= 0
	 item 114, weight= 480, color= 1
	 item 115, weight= 480, color= 2
	 item 116, weight= 480, color= 3
	 item 117, weight= 482, color= 2
	 item 118, weight= 488, color= 4
	 item 119, weight= 520, color= 3
	 item 120, weight= 520, color= 4
	 item 121, weight= 520, color= 4
	 item 122, weight= 544, color= 4
	 item 123, weight= 552, color= 0
	 item 124, weight= 552, color= 0
	 item 125, weight= 552, color= 4
	 item 126, weight= 554, color= 3
	 item 127, weight= 624, color= 0
	 item 128, weight= 624, color= 3
	 item 129, weight= 632, color= 1
	 item 130, weight= 632, color= 2
	 item 131, weight= 632, color= 4
	 item 132, weight= 640, color= 1
	 item 133, weight= 640, color= 1
	 item 134, weight= 640, color= 2
	 item 135, weight= 640, color= 3
	 item 136, weight= 640, color= 3
	 item 137, weight= 644, color= 1
	 item 138, weight= 650, color= 4
	 item 139, weight= 652, color= 3
	 item 140, weight= 674, color= 4
	 item 141, weight= 676, color= 3
	 item 142, weight= 684, color= 1
	 item 143, weight= 691, color= 4
	 item 144, weight= 700, color= 0
	 item 145, weight= 710, color= 3
	 item 146, weight= 734, color= 4
	 item 147, weight= 760, color= 2
	 item 148, weight= 761, color= 3
	 item 149, weight= 775, color= 2
	 item 150, weight= 782, color= 2
	 item 151, weight= 784, color= 1
	 item 152, weight= 785, color= 4
	 item 153, weight= 808, color= 1
	 item 154, weight= 822, color= 4
	 item 155, weight= 827, color= 3
	 item 156, weight= 832, color= 1
	 item 157, weight= 844, color= 2
	 item 158, weight= 848, color= 1
	 item 159, weight= 852, color= 4
	 item 160, weight= 854, color= 1
	 item 161, weight= 866, color= 4
	 item 162, weight= 882, color= 4
	 item 163, weight= 901, color= 3
	 item 164, weight= 921, color= 3
	 item 165, weight= 924, color= 4
	 item 166, weight= 932, color= 4
	 item 167, weight= 934, color= 3
	 item 168, weight= 948, color= 1
	 item 169, weight= 954, color= 1
	 item 170, weight= 963, color= 0
	 item 171, weight= 964, color= 0
	 item 172, weight= 968, color= 3
	 item 173, weight= 983, color= 2
	 item 174, weight= 997, color= 0
	 item 175, weight= 1002, color= 0
	 item 176, weight= 1014, color= 4
	 item 177, weight= 1021, color= 2
	 item 178, weight= 1044, color= 2
	 item 179, weight= 1048, color= 2
	 item 180, weight= 1064, color= 4
	 item 181, weight= 1074, color= 4
	 item 182, weight= 1082, color= 0
	 item 183, weight= 1085, color= 2
	 item 184, weight= 1094, color= 1
	 item 185, weight= 1127, color= 0
	 item 186, weight= 1156, color= 1
	 item 187, weight= 1164, color= 1
	 item 188, weight= 1176, color= 1
	 item 189, weight= 1178, color= 4
	 item 190, weight= 1184, color= 3
	 item 191, weight= 1190, color= 4
	 item 192, weight= 1231, color= 4
	 item 193, weight= 1244, color= 4
	 item 194, weight= 1273, color= 3
	 item 195, weight= 1281, color= 3
	 item 196, weight= 1288, color= 4
	 item 197, weight= 1293, color= 2
	 item 198, weight= 1300, color= 4
	 item 199, weight= 1302, color= 3
	 item 200, weight= 1306, color= 2
	 item 201, weight= 1317, color= 1
	 item 202, weight= 1322, color= 1
	 item 203, weight= 1322, color= 4
	 item 204, weight= 1337, color= 2
	 item 205, weight= 1379, color= 0
	 item 206, weight= 1385, color= 3
	 item 207, weight= 1388, color= 1
	 item 208, weight= 1462, color= 2
	 item 209, weight= 1464, color= 2
	 item 210, weight= 1466, color= 4
	 item 211, weight= 1482, color= 1
	 item 212, weight= 1483, color= 0
	 item 213, weight= 1541, color= 2
	 item 214, weight= 1560, color= 0
	 item 215, weight= 1564, color= 3
	 item 216, weight= 1572, color= 1
	 item 217, weight= 1600, color= 1
	 item 218, weight= 1636, color= 4
	 item 219, weight= 1640, color= 0
	 item 220, weight= 1642, color= 1
	 item 221, weight= 1654, color= 1
	 item 222, weight= 1729, color= 0
	 item 223, weight= 1751, color= 1
	 item 224, weight= 1771, color= 1
	 item 225, weight= 1776, color= 4
	 item 226, weight= 1788, color= 3
	 item 227, weight= 1848, color= 0
	 item 228, weight= 1850, color= 2
	 item 229, weight= 1860, color= 3
	 item 230, weight= 1862, color= 1
	 item 231, weight= 2005, color= 4
	 item 232, weight= 2011, color= 4
	 item 233, weight= 2019, color= 3
	 item 234, weight= 2031, color= 3
	 item 235, weight= 2044, color= 0
	 item 236, weight= 2055, color= 3
	 item 237, weight= 2075, color= 0
	 item 238, weight= 2102, color= 3
	 item 239, weight= 2104, color= 2
	 item 240, weight= 2114, color= 3
	 item 241, weight= 2132, color= 3
	 item 242, weight= 2369, color= 2
	 item 243, weight= 2391, color= 4
	 item 244, weight= 2408, color= 4
	 item 245, weight= 2410, color= 0
	 item 246, weight= 2411, color= 4
	 item 247, weight= 2414, color= 1
	 item 248, weight= 2436, color= 3
	 item 249, weight= 2460, color= 3
	 item 250, weight= 2604, color= 3
	 item 251, weight= 2620, color= 2
	 item 252, weight= 2624, color= 3
	 item 253, weight= 2636, color= 0
	 item 254, weight= 2748, color= 2
	 item 255, weight= 2770, color= 1
	 item 256, weight= 2771, color= 3
	 item 257, weight= 2773, color= 2
	 item 258, weight= 2774, color= 1
	 item 259, weight= 2776, color= 4
	 item 260, weight= 2865, color= 3
	 item 261, weight= 3020, color= 4
	 item 262, weight= 3104, color= 4
	 item 263, weight= 3164, color= 3
	 item 264, weight= 3172, color= 3
	 item 265, weight= 3188, color= 0
	 item 266, weight= 3202, color= 1
	 item 267, weight= 3204, color= 1
	 item 268, weight= 3204, color= 3
	 item 269, weight= 3205, color= 0
	 item 270, weight= 3206, color= 3
	 item 271, weight= 3207, color= 2
	 item 272, weight= 3208, color= 0
	 item 273, weight= 3849, color= 0
	 item 274, weight= 3850, color= 1
	 item 275, weight= 3851, color= 4
	 item 276, weight= 3852, color= 0
	 item 277, weight= 3854, color= 2
	 item 278, weight= 3860, color= 0
	 item 279, weight= 3864, color= 1
	 item 280, weight= 3876, color= 1
	 item 281, weight= 3892, color= 1
	 item 282, weight= 3908, color= 2
	 item 283, weight= 4369, color= 4
	 item 284, weight= 4370, color= 1
	 item 285, weight= 4373, color= 3
	 item 286, weight= 4374, color= 1
	 item 287, weight= 4376, color= 2
	 item 288, weight= 4436, color= 0
	 item 289, weight= 4540, color= 2
	 item 290, weight= 4556, color= 1
	 item 291, weight= 4572, color= 0
	 item 292, weight= 4588, color= 3
	 item 293, weight= 4748, color= 3
	 item 294, weight= 4780, color= 0
	 item 295, weight= 4802, color= 1
	 item 296, weight= 4803, color= 1
	 item 297, weight= 4806, color= 3
	 item 298, weight= 4807, color= 1
	 item 299, weight= 4808, color= 1
	 item 300, weight= 4816, color= 1
	 item 301, weight= 4827, color= 4
	 item 302, weight= 4855, color= 0
	 item 303, weight= 5140, color= 1
	 item 304, weight= 5162, color= 2
	 item 305, weight= 5176, color= 1
	 item 306, weight= 5178, color= 4
	 item 307, weight= 5207, color= 2
	 item 308, weight= 5231, color= 3
	 item 309, weight= 5252, color= 3
	 item 310, weight= 5259, color= 2
	 item 311, weight= 5275, color= 1
	 item 312, weight= 5283, color= 4
	 item 313, weight= 5291, color= 3
	 item 314, weight= 5328, color= 4
	 item 315, weight= 5462, color= 2
	 item 316, weight= 5468, color= 2
	 item 317, weight= 5478, color= 4
	 item 318, weight= 5480, color= 1
	 item 319, weight= 5556, color= 4
	 item 320, weight= 5571, color= 1
	 item 321, weight= 5595, color= 2
	 item 322, weight= 5623, color= 3
	 item 323, weight= 5714, color= 0
	 item 324, weight= 5726, color= 1
	 item 325, weight= 5736, color= 1
	 item 326, weight= 5740, color= 0
	 item 327, weight= 5812, color= 0
	 item 328, weight= 5828, color= 4
	 item 329, weight= 5847, color= 0
	 item 330, weight= 5917, color= 4
	 item 331, weight= 5922, color= 2
	 item 332, weight= 5938, color= 1
	 item 333, weight= 5944, color= 1
	 item 334, weight= 5946, color= 2
	 item 335, weight= 6035, color= 3
	 item 336, weight= 6036, color= 4
	 item 337, weight= 6093, color= 0
	 item 338, weight= 6110, color= 1
	 item 339, weight= 6114, color= 2
	 item 340, weight= 6117, color= 1
	 item 341, weight= 6120, color= 2
	 item 342, weight= 6130, color= 4
	 item 343, weight= 6138, color= 0
	 item 344, weight= 6140, color= 4
	 item 345, weight= 6145, color= 3
	 item 346, weight= 6152, color= 1
	 item 347, weight= 6161, color= 1
	 item 348, weight= 6169, color= 4
	 item 349, weight= 6177, color= 0
	 item 350, weight= 6212, color= 0
	 item 351, weight= 6221, color= 2
	 item 352, weight= 6270, color= 0
	 item 353, weight= 6286, color= 3
	 item 354, weight= 6296, color= 0
	 item 355, weight= 6300, color= 3
	 item 356, weight= 6316, color= 0
	 item 357, weight= 6345, color= 2
	 item 358, weight= 6386, color= 3
	 item 359, weight= 6395, color= 2
	 item 360, weight= 6398, color= 0
	 item 361, weight= 6424, color= 1
	 item 362, weight= 6444, color= 0
	 item 363, weight= 6473, color= 4
	 item 364, weight= 6482, color= 4
	 item 365, weight= 6494, color= 2
	 item 366, weight= 6501, color= 1
	 item 367, weight= 6517, color= 2
	 item 368, weight= 6536, color= 3
	 item 369, weight= 6548, color= 1
	 item 370, weight= 6552, color= 1
	 item 371, weight= 6562, color= 0
	 item 372, weight= 6564, color= 1
	 item 373, weight= 6578, color= 0
	 item 374, weight= 6580, color= 2
	 item 375, weight= 6593, color= 3
	 item 376, weight= 6596, color= 0
	 item 377, weight= 6617, color= 1
	 item 378, weight= 6642, color= 4
	 item 379, weight= 6645, color= 0
	 item 380, weight= 6658, color= 4
	 item 381, weight= 6674, color= 3
	 item 382, weight= 6676, color= 1
	 item 383, weight= 6692, color= 3
	 item 384, weight= 6705, color= 1
	 item 385, weight= 6710, color= 2
	 item 386, weight= 6726, color= 4
	 item 387, weight= 6744, color= 2
	 item 388, weight= 6758, color= 3
	 item 389, weight= 6767, color= 4
	 item 390, weight= 6783, color= 1
	 item 391, weight= 6784, color= 2
	 item 392, weight= 6792, color= 1
	 item 393, weight= 6818, color= 4
	 item 394, weight= 6825, color= 0
	 item 395, weight= 6846, color= 2
	 item 396, weight= 6860, color= 0
	 item 397, weight= 6867, color= 2
	 item 398, weight= 6876, color= 1
	 item 399, weight= 6890, color= 0
	 item 400, weight= 6892, color= 4
	 item 401, weight= 6916, color= 4
	 item 402, weight= 6918, color= 4
	 item 403, weight= 6924, color= 0

VRPSolver warning: Interval set for resource 1 on source node (when source != sink) is ignored (by definition is [0.0,0.0])
VRPSolver warning: Interval set for resource 2 on source node (when source != sink) is ignored (by definition is [0.0,0.0])
VRPSolver warning: Interval set for resource 3 on source node (when source != sink) is ignored (by definition is [0.0,0.0])
VRPSolver warning: Interval set for resource 4 on source node (when source != sink) is ignored (by definition is [0.0,0.0])
VRPSolver warning: Interval set for resource 5 on source node (when source != sink) is ignored (by definition is [0.0,0.0])
VRPSolver warning: Interval set for resource 6 on source node (when source != sink) is ignored (by definition is [0.0,0.0])
[41m solve [00m
~~~~~~~~~~~~~~~~~~~~~~~~~~~~~~~~~~~~~~~~~~~~~~~~~~~~~~~~~~~~~~~~~~~~~~~~~~~~~~
VRPSolver v0.4.1, 24/03/2021. Web: vrpsolver.math.u-bordeaux.fr
Corresponds to the solver by Pessoa, Sadykov, Uchoa and Vanderbeck (2020)
Paper: dx.doi.org/10.1007/s10107-020-01523-z
USE THIS CODE ONLY FOR ACADEMIC PURPOSES AT YOUR OWN RISK
~~~~~~~~~~~~~~~~~~~~~~~~~~~~~~~~~~~~~~~~~~~~~~~~~~~~~~~~~~~~~~~~~~~~~~~~~~~~~~
BaPCod v053, 24/03/2021, © Inria Bordeaux, France
~~~~~~~~~~~~~~~~~~~~~~~~~~~~~~~~~~~~~~~~~~~~~~~~~~~~~~~~~~~~~~~~~~~~~~~~~~~~~~
VRPSolver parameters:
GlobalTimeLimit = 60
MaxNbOfBBtreeNodeTreated = 100000
treeSearchStrategy = 1
RCSPstopCutGenTimeThresholdInPricing = 10
RCSPhardTimeThresholdInPricing = 20
RCSPnumberOfBucketsPerVertex = 2000
RCSPdynamicBucketSteps = 0
RCSPuseBidirectionalSearch = 1
RCSPapplyReducedCostFixing = 1
RCSPredCostFixingFalseGap = 0
RCSPmaxNumOfColsPerIteration = 100
RCSPmaxNumOfColsPerExactIteration = 100
RCSPheurLabelingStrategy = 4
StabilizationMinPhaseOfStage = 1
RCSPmaxNumOfLabelsInEnumeration = 100000
RCSPmaxNumOfEnumeratedSolutions = 1000000
RCSPmaxNumOfEnumSolutionsForMIP = 100000
RCSPinitNGneighbourhoodSize = 0
RCSPmaxNGneighbourhoodSize = 0
RCSPrankOneCutsMaxNumPerRound = 100
RCSPrankOneCutsMaxNumRows = -1
RCSPrankOneCutsMemoryType = 2
CutTailingOffThreshold = 0.02
CutTailingOffCounterThreshold = 3
SafeDualBoundScaleFactor = -1
StrongBranchingPhaseOneCandidatesNumber = 100
StrongBranchingPhaseOneTreeSizeEstimRatio = 0.3
StrongBranchingPhaseTwoCandidatesNumber = 1
StrongBranchingPhaseTwoTreeSizeEstimRatio = 0.1
MaxTimeForRestrictedMasterIpHeur = -1
DivingHeurUseDepthLimit = 0
MaxLDSbreadth = 3
MaxLDSdepth = 2
New model incumbent solution 1e+06, TIME = 0h0m0s3t = 3
Model is built TIME = 0h0m3s14t = 314
************************************************************************************************
**** BaB tree root node
**** Local DB = -1e+12, global bounds : [ -1e+12 , 1e+06 ], TIME = 0h0m3s14t = 314
**** 1 open nodes, 0 columns (0 active), 0 dyn. constrs. (0 active), 808 art. vars. (808 active)
************************************************************************************************
<DWph=2> <it= 10> <et=8.58> <Mt= 0.05> <Spt= 5.38> <nCl=1000> <DB=-8794605143.8260> <Mlp=362000003.0000> <PB=1000000> 
<DWph=2> <it= 20> <et=14.35> <Mt= 0.33> <Spt= 5.43> <nCl=1000> <DB=-5112664120.7467> <Mlp=313390860.8295> <PB=1000000> 
<DWph=2> <it= 30> <et=20.61> <Mt= 0.64> <Spt= 5.62> <nCl=1000> <DB=-3402034086.2381> <Mlp=273509737.2752> <PB=1000000> 
<DWph=2> <it= 40> <et=28.63> <Mt= 1.01> <Spt= 7.00> <nCl=1000> <DB=-2289561220.3905> <Mlp=235758522.2591> <PB=1000000> 
<DWph=2> <it= 50> <et=37.59> <Mt= 1.54> <Spt= 7.42> <nCl=1000> <DB=-1498532078.8919> <Mlp=201367323.7591> <PB=1000000> 
<DWph=2> <it= 60> <et=49.26> <Mt= 2.10> <Spt= 9.57> <nCl=1000> <DB=-946653520.4941> <Mlp=168258085.6044> <PB=1000000> 
<DWph=2> <it= 70> <et=60.61> <Mt= 1.66> <Spt= 9.69> <nCl=1000> <DB=-681490396.2355> <Mlp=155014105.6523> <PB=1000000> 
Global time limit is reached during column generation
ColGenEvalAlg final dual bound: -1e+12 (rounded: -1e+12)
SEARCH IS INTERRUPTED as the time limit is reached. 
************************************************************************************************
Search is finished, global bounds : [ -1e+12 , 1e+06 ], TIME = 0h1m0s78t = 6078
************************************************************************************************
statistics_cols: instance & :Optimal & cutoff & :bcRecRootDb & :bcTimeRootEval & :bcCountNodeProc & :bcRecBestDb & :bcRecBestInc & :bcTimeMain \\
statistics: 402_10000_DI_4 & 0 & 1.0e6 & -999999999901.00 & 60.75 & 1 & 0.00 & -- & 60.78 \\
########################################################
Solution not found
########################################################
