Application parameters:
  batch  =>  nothing
  instance  =>  "/IN/402_10000_DI_18.txt-Q20"
  ub  =>  1.0e6
  cfg  =>  "/CFG/BPP.cfg"
data = Colored Bin Packing dataset.
number of items = 403
number of colors = 20
capacity = 8136
Items : 
	 item 1, weight= 32, color= 0
	 item 2, weight= 40, color= 5
	 item 3, weight= 40, color= 18
	 item 4, weight= 48, color= 5
	 item 5, weight= 48, color= 7
	 item 6, weight= 80, color= 8
	 item 7, weight= 80, color= 10
	 item 8, weight= 80, color= 16
	 item 9, weight= 88, color= 0
	 item 10, weight= 104, color= 2
	 item 11, weight= 120, color= 4
	 item 12, weight= 128, color= 16
	 item 13, weight= 136, color= 0
	 item 14, weight= 136, color= 7
	 item 15, weight= 136, color= 16
	 item 16, weight= 136, color= 19
	 item 17, weight= 140, color= 14
	 item 18, weight= 144, color= 11
	 item 19, weight= 144, color= 12
	 item 20, weight= 150, color= 17
	 item 21, weight= 150, color= 19
	 item 22, weight= 152, color= 3
	 item 23, weight= 152, color= 10
	 item 24, weight= 152, color= 13
	 item 25, weight= 156, color= 8
	 item 26, weight= 158, color= 11
	 item 27, weight= 160, color= 4
	 item 28, weight= 160, color= 10
	 item 29, weight= 164, color= 8
	 item 30, weight= 168, color= 1
	 item 31, weight= 168, color= 4
	 item 32, weight= 168, color= 8
	 item 33, weight= 172, color= 13
	 item 34, weight= 176, color= 8
	 item 35, weight= 176, color= 15
	 item 36, weight= 176, color= 18
	 item 37, weight= 182, color= 5
	 item 38, weight= 182, color= 6
	 item 39, weight= 182, color= 14
	 item 40, weight= 184, color= 7
	 item 41, weight= 184, color= 17
	 item 42, weight= 184, color= 17
	 item 43, weight= 188, color= 17
	 item 44, weight= 200, color= 1
	 item 45, weight= 200, color= 9
	 item 46, weight= 200, color= 13
	 item 47, weight= 200, color= 15
	 item 48, weight= 200, color= 18
	 item 49, weight= 204, color= 4
	 item 50, weight= 208, color= 3
	 item 51, weight= 208, color= 6
	 item 52, weight= 212, color= 8
	 item 53, weight= 216, color= 4
	 item 54, weight= 216, color= 14
	 item 55, weight= 220, color= 19
	 item 56, weight= 222, color= 12
	 item 57, weight= 228, color= 0
	 item 58, weight= 232, color= 1
	 item 59, weight= 232, color= 18
	 item 60, weight= 240, color= 2
	 item 61, weight= 240, color= 3
	 item 62, weight= 240, color= 8
	 item 63, weight= 248, color= 6
	 item 64, weight= 248, color= 7
	 item 65, weight= 248, color= 8
	 item 66, weight= 256, color= 15
	 item 67, weight= 264, color= 6
	 item 68, weight= 264, color= 15
	 item 69, weight= 264, color= 19
	 item 70, weight= 268, color= 10
	 item 71, weight= 270, color= 16
	 item 72, weight= 272, color= 3
	 item 73, weight= 272, color= 4
	 item 74, weight= 272, color= 19
	 item 75, weight= 280, color= 5
	 item 76, weight= 280, color= 12
	 item 77, weight= 280, color= 18
	 item 78, weight= 288, color= 3
	 item 79, weight= 288, color= 7
	 item 80, weight= 292, color= 10
	 item 81, weight= 292, color= 13
	 item 82, weight= 294, color= 4
	 item 83, weight= 304, color= 7
	 item 84, weight= 320, color= 9
	 item 85, weight= 322, color= 12
	 item 86, weight= 328, color= 5
	 item 87, weight= 328, color= 15
	 item 88, weight= 332, color= 8
	 item 89, weight= 332, color= 13
	 item 90, weight= 336, color= 16
	 item 91, weight= 340, color= 18
	 item 92, weight= 356, color= 9
	 item 93, weight= 360, color= 7
	 item 94, weight= 364, color= 11
	 item 95, weight= 384, color= 2
	 item 96, weight= 384, color= 13
	 item 97, weight= 388, color= 4
	 item 98, weight= 392, color= 3
	 item 99, weight= 404, color= 16
	 item 100, weight= 406, color= 19
	 item 101, weight= 408, color= 1
	 item 102, weight= 408, color= 2
	 item 103, weight= 448, color= 6
	 item 104, weight= 448, color= 7
	 item 105, weight= 448, color= 7
	 item 106, weight= 452, color= 11
	 item 107, weight= 452, color= 14
	 item 108, weight= 456, color= 12
	 item 109, weight= 456, color= 14
	 item 110, weight= 456, color= 16
	 item 111, weight= 458, color= 11
	 item 112, weight= 480, color= 11
	 item 113, weight= 496, color= 13
	 item 114, weight= 512, color= 17
	 item 115, weight= 516, color= 15
	 item 116, weight= 518, color= 13
	 item 117, weight= 520, color= 7
	 item 118, weight= 520, color= 10
	 item 119, weight= 524, color= 17
	 item 120, weight= 528, color= 12
	 item 121, weight= 536, color= 11
	 item 122, weight= 576, color= 16
	 item 123, weight= 588, color= 3
	 item 124, weight= 590, color= 3
	 item 125, weight= 608, color= 14
	 item 126, weight= 608, color= 18
	 item 127, weight= 612, color= 10
	 item 128, weight= 612, color= 10
	 item 129, weight= 640, color= 10
	 item 130, weight= 644, color= 4
	 item 131, weight= 644, color= 11
	 item 132, weight= 656, color= 7
	 item 133, weight= 672, color= 0
	 item 134, weight= 676, color= 3
	 item 135, weight= 676, color= 6
	 item 136, weight= 676, color= 6
	 item 137, weight= 676, color= 8
	 item 138, weight= 698, color= 8
	 item 139, weight= 702, color= 6
	 item 140, weight= 724, color= 16
	 item 141, weight= 728, color= 5
	 item 142, weight= 751, color= 9
	 item 143, weight= 759, color= 10
	 item 144, weight= 760, color= 18
	 item 145, weight= 772, color= 6
	 item 146, weight= 774, color= 17
	 item 147, weight= 778, color= 18
	 item 148, weight= 779, color= 7
	 item 149, weight= 785, color= 9
	 item 150, weight= 788, color= 9
	 item 151, weight= 788, color= 19
	 item 152, weight= 791, color= 6
	 item 153, weight= 809, color= 3
	 item 154, weight= 830, color= 19
	 item 155, weight= 844, color= 8
	 item 156, weight= 851, color= 19
	 item 157, weight= 862, color= 7
	 item 158, weight= 863, color= 18
	 item 159, weight= 874, color= 12
	 item 160, weight= 876, color= 16
	 item 161, weight= 885, color= 18
	 item 162, weight= 908, color= 11
	 item 163, weight= 911, color= 8
	 item 164, weight= 919, color= 14
	 item 165, weight= 932, color= 14
	 item 166, weight= 934, color= 13
	 item 167, weight= 938, color= 9
	 item 168, weight= 945, color= 13
	 item 169, weight= 1001, color= 0
	 item 170, weight= 1002, color= 11
	 item 171, weight= 1006, color= 4
	 item 172, weight= 1008, color= 12
	 item 173, weight= 1010, color= 18
	 item 174, weight= 1020, color= 8
	 item 175, weight= 1023, color= 17
	 item 176, weight= 1027, color= 3
	 item 177, weight= 1052, color= 0
	 item 178, weight= 1068, color= 10
	 item 179, weight= 1071, color= 8
	 item 180, weight= 1075, color= 2
	 item 181, weight= 1098, color= 12
	 item 182, weight= 1110, color= 5
	 item 183, weight= 1117, color= 7
	 item 184, weight= 1120, color= 11
	 item 185, weight= 1145, color= 9
	 item 186, weight= 1182, color= 7
	 item 187, weight= 1188, color= 6
	 item 188, weight= 1197, color= 10
	 item 189, weight= 1207, color= 11
	 item 190, weight= 1212, color= 14
	 item 191, weight= 1218, color= 2
	 item 192, weight= 1219, color= 15
	 item 193, weight= 1241, color= 17
	 item 194, weight= 1244, color= 11
	 item 195, weight= 1272, color= 8
	 item 196, weight= 1284, color= 9
	 item 197, weight= 1300, color= 8
	 item 198, weight= 1302, color= 1
	 item 199, weight= 1322, color= 12
	 item 200, weight= 1331, color= 9
	 item 201, weight= 1351, color= 8
	 item 202, weight= 1356, color= 11
	 item 203, weight= 1357, color= 12
	 item 204, weight= 1364, color= 16
	 item 205, weight= 1404, color= 7
	 item 206, weight= 1444, color= 9
	 item 207, weight= 1446, color= 0
	 item 208, weight= 1465, color= 7
	 item 209, weight= 1468, color= 7
	 item 210, weight= 1471, color= 17
	 item 211, weight= 1474, color= 0
	 item 212, weight= 1520, color= 4
	 item 213, weight= 1530, color= 11
	 item 214, weight= 1609, color= 2
	 item 215, weight= 1615, color= 2
	 item 216, weight= 1628, color= 4
	 item 217, weight= 1651, color= 14
	 item 218, weight= 1660, color= 14
	 item 219, weight= 1670, color= 8
	 item 220, weight= 1692, color= 17
	 item 221, weight= 1702, color= 12
	 item 222, weight= 1722, color= 11
	 item 223, weight= 1781, color= 11
	 item 224, weight= 1823, color= 15
	 item 225, weight= 1846, color= 15
	 item 226, weight= 1930, color= 13
	 item 227, weight= 1932, color= 2
	 item 228, weight= 1950, color= 14
	 item 229, weight= 1964, color= 16
	 item 230, weight= 1986, color= 6
	 item 231, weight= 2022, color= 8
	 item 232, weight= 2031, color= 0
	 item 233, weight= 2037, color= 17
	 item 234, weight= 2041, color= 10
	 item 235, weight= 2060, color= 13
	 item 236, weight= 2242, color= 5
	 item 237, weight= 2260, color= 3
	 item 238, weight= 2262, color= 8
	 item 239, weight= 2278, color= 9
	 item 240, weight= 2286, color= 18
	 item 241, weight= 2287, color= 15
	 item 242, weight= 2292, color= 3
	 item 243, weight= 2293, color= 3
	 item 244, weight= 2412, color= 14
	 item 245, weight= 2568, color= 4
	 item 246, weight= 2589, color= 17
	 item 247, weight= 2595, color= 17
	 item 248, weight= 2596, color= 17
	 item 249, weight= 2618, color= 7
	 item 250, weight= 2630, color= 2
	 item 251, weight= 2636, color= 10
	 item 252, weight= 2646, color= 18
	 item 253, weight= 2684, color= 0
	 item 254, weight= 2900, color= 13
	 item 255, weight= 2951, color= 3
	 item 256, weight= 2957, color= 12
	 item 257, weight= 3040, color= 0
	 item 258, weight= 3042, color= 12
	 item 259, weight= 3052, color= 2
	 item 260, weight= 3062, color= 6
	 item 261, weight= 3078, color= 4
	 item 262, weight= 3204, color= 18
	 item 263, weight= 3222, color= 6
	 item 264, weight= 3238, color= 13
	 item 265, weight= 3382, color= 2
	 item 266, weight= 3388, color= 15
	 item 267, weight= 3389, color= 1
	 item 268, weight= 3390, color= 14
	 item 269, weight= 3391, color= 7
	 item 270, weight= 3576, color= 4
	 item 271, weight= 3578, color= 10
	 item 272, weight= 3770, color= 2
	 item 273, weight= 4024, color= 4
	 item 274, weight= 4069, color= 1
	 item 275, weight= 4070, color= 13
	 item 276, weight= 4071, color= 13
	 item 277, weight= 4076, color= 15
	 item 278, weight= 4078, color= 11
	 item 279, weight= 4086, color= 16
	 item 280, weight= 4254, color= 15
	 item 281, weight= 4270, color= 9
	 item 282, weight= 4292, color= 15
	 item 283, weight= 4294, color= 16
	 item 284, weight= 4446, color= 4
	 item 285, weight= 4462, color= 2
	 item 286, weight= 4476, color= 5
	 item 287, weight= 4486, color= 2
	 item 288, weight= 4589, color= 19
	 item 289, weight= 4597, color= 0
	 item 290, weight= 4660, color= 19
	 item 291, weight= 4916, color= 15
	 item 292, weight= 4962, color= 15
	 item 293, weight= 4982, color= 5
	 item 294, weight= 4998, color= 14
	 item 295, weight= 5023, color= 6
	 item 296, weight= 5028, color= 19
	 item 297, weight= 5031, color= 12
	 item 298, weight= 5072, color= 13
	 item 299, weight= 5220, color= 16
	 item 300, weight= 5244, color= 8
	 item 301, weight= 5385, color= 17
	 item 302, weight= 5388, color= 1
	 item 303, weight= 5393, color= 19
	 item 304, weight= 5394, color= 19
	 item 305, weight= 5406, color= 9
	 item 306, weight= 5422, color= 9
	 item 307, weight= 5428, color= 4
	 item 308, weight= 5446, color= 3
	 item 309, weight= 5668, color= 17
	 item 310, weight= 5687, color= 2
	 item 311, weight= 5693, color= 3
	 item 312, weight= 5701, color= 12
	 item 313, weight= 5780, color= 3
	 item 314, weight= 5782, color= 11
	 item 315, weight= 5798, color= 1
	 item 316, weight= 5820, color= 10
	 item 317, weight= 5822, color= 5
	 item 318, weight= 5949, color= 17
	 item 319, weight= 5999, color= 0
	 item 320, weight= 6090, color= 2
	 item 321, weight= 6094, color= 19
	 item 322, weight= 6108, color= 3
	 item 323, weight= 6110, color= 2
	 item 324, weight= 6134, color= 3
	 item 325, weight= 6142, color= 3
	 item 326, weight= 6148, color= 14
	 item 327, weight= 6157, color= 10
	 item 328, weight= 6199, color= 18
	 item 329, weight= 6207, color= 5
	 item 330, weight= 6268, color= 12
	 item 331, weight= 6302, color= 7
	 item 332, weight= 6370, color= 16
	 item 333, weight= 6371, color= 18
	 item 334, weight= 6379, color= 15
	 item 335, weight= 6380, color= 13
	 item 336, weight= 6402, color= 7
	 item 337, weight= 6412, color= 0
	 item 338, weight= 6460, color= 12
	 item 339, weight= 6500, color= 10
	 item 340, weight= 6509, color= 16
	 item 341, weight= 6516, color= 2
	 item 342, weight= 6517, color= 10
	 item 343, weight= 6520, color= 11
	 item 344, weight= 6550, color= 13
	 item 345, weight= 6578, color= 6
	 item 346, weight= 6604, color= 4
	 item 347, weight= 6629, color= 12
	 item 348, weight= 6644, color= 16
	 item 349, weight= 6647, color= 15
	 item 350, weight= 6684, color= 0
	 item 351, weight= 6689, color= 16
	 item 352, weight= 6702, color= 10
	 item 353, weight= 6716, color= 18
	 item 354, weight= 6722, color= 12
	 item 355, weight= 6756, color= 12
	 item 356, weight= 6763, color= 11
	 item 357, weight= 6781, color= 16
	 item 358, weight= 6797, color= 12
	 item 359, weight= 6806, color= 5
	 item 360, weight= 6822, color= 3
	 item 361, weight= 6837, color= 5
	 item 362, weight= 6853, color= 17
	 item 363, weight= 6860, color= 11
	 item 364, weight= 6876, color= 4
	 item 365, weight= 6909, color= 13
	 item 366, weight= 6916, color= 18
	 item 367, weight= 6926, color= 15
	 item 368, weight= 6927, color= 11
	 item 369, weight= 6930, color= 19
	 item 370, weight= 6935, color= 15
	 item 371, weight= 7003, color= 15
	 item 372, weight= 7013, color= 2
	 item 373, weight= 7014, color= 19
	 item 374, weight= 7018, color= 19
	 item 375, weight= 7020, color= 7
	 item 376, weight= 7035, color= 11
	 item 377, weight= 7043, color= 3
	 item 378, weight= 7052, color= 15
	 item 379, weight= 7075, color= 18
	 item 380, weight= 7092, color= 11
	 item 381, weight= 7101, color= 11
	 item 382, weight= 7102, color= 19
	 item 383, weight= 7106, color= 9
	 item 384, weight= 7117, color= 4
	 item 385, weight= 7132, color= 2
	 item 386, weight= 7142, color= 8
	 item 387, weight= 7167, color= 15
	 item 388, weight= 7174, color= 14
	 item 389, weight= 7195, color= 16
	 item 390, weight= 7196, color= 3
	 item 391, weight= 7206, color= 3
	 item 392, weight= 7209, color= 8
	 item 393, weight= 7210, color= 10
	 item 394, weight= 7221, color= 17
	 item 395, weight= 7227, color= 1
	 item 396, weight= 7232, color= 1
	 item 397, weight= 7235, color= 12
	 item 398, weight= 7236, color= 17
	 item 399, weight= 7264, color= 3
	 item 400, weight= 7276, color= 6
	 item 401, weight= 7294, color= 9
	 item 402, weight= 7300, color= 18
	 item 403, weight= 7302, color= 3

VRPSolver warning: Interval set for resource 1 on source node (when source != sink) is ignored (by definition is [0.0,0.0])
VRPSolver warning: Interval set for resource 2 on source node (when source != sink) is ignored (by definition is [0.0,0.0])
VRPSolver warning: Interval set for resource 3 on source node (when source != sink) is ignored (by definition is [0.0,0.0])
VRPSolver warning: Interval set for resource 4 on source node (when source != sink) is ignored (by definition is [0.0,0.0])
VRPSolver warning: Interval set for resource 5 on source node (when source != sink) is ignored (by definition is [0.0,0.0])
VRPSolver warning: Interval set for resource 6 on source node (when source != sink) is ignored (by definition is [0.0,0.0])
VRPSolver warning: Interval set for resource 7 on source node (when source != sink) is ignored (by definition is [0.0,0.0])
VRPSolver warning: Interval set for resource 8 on source node (when source != sink) is ignored (by definition is [0.0,0.0])
VRPSolver warning: Interval set for resource 9 on source node (when source != sink) is ignored (by definition is [0.0,0.0])
VRPSolver warning: Interval set for resource 10 on source node (when source != sink) is ignored (by definition is [0.0,0.0])
VRPSolver warning: Interval set for resource 11 on source node (when source != sink) is ignored (by definition is [0.0,0.0])
VRPSolver warning: Interval set for resource 12 on source node (when source != sink) is ignored (by definition is [0.0,0.0])
VRPSolver warning: Interval set for resource 13 on source node (when source != sink) is ignored (by definition is [0.0,0.0])
VRPSolver warning: Interval set for resource 14 on source node (when source != sink) is ignored (by definition is [0.0,0.0])
VRPSolver warning: Interval set for resource 15 on source node (when source != sink) is ignored (by definition is [0.0,0.0])
VRPSolver warning: Interval set for resource 16 on source node (when source != sink) is ignored (by definition is [0.0,0.0])
VRPSolver warning: Interval set for resource 17 on source node (when source != sink) is ignored (by definition is [0.0,0.0])
VRPSolver warning: Interval set for resource 18 on source node (when source != sink) is ignored (by definition is [0.0,0.0])
VRPSolver warning: Interval set for resource 19 on source node (when source != sink) is ignored (by definition is [0.0,0.0])
VRPSolver warning: Interval set for resource 20 on source node (when source != sink) is ignored (by definition is [0.0,0.0])
VRPSolver warning: Interval set for resource 21 on source node (when source != sink) is ignored (by definition is [0.0,0.0])
[41m solve [00m
~~~~~~~~~~~~~~~~~~~~~~~~~~~~~~~~~~~~~~~~~~~~~~~~~~~~~~~~~~~~~~~~~~~~~~~~~~~~~~
VRPSolver v0.4.1, 24/03/2021. Web: vrpsolver.math.u-bordeaux.fr
Corresponds to the solver by Pessoa, Sadykov, Uchoa and Vanderbeck (2020)
Paper: dx.doi.org/10.1007/s10107-020-01523-z
USE THIS CODE ONLY FOR ACADEMIC PURPOSES AT YOUR OWN RISK
~~~~~~~~~~~~~~~~~~~~~~~~~~~~~~~~~~~~~~~~~~~~~~~~~~~~~~~~~~~~~~~~~~~~~~~~~~~~~~
BaPCod v053, 24/03/2021, © Inria Bordeaux, France
~~~~~~~~~~~~~~~~~~~~~~~~~~~~~~~~~~~~~~~~~~~~~~~~~~~~~~~~~~~~~~~~~~~~~~~~~~~~~~
VRPSolver parameters:
GlobalTimeLimit = 60
MaxNbOfBBtreeNodeTreated = 100000
treeSearchStrategy = 1
RCSPstopCutGenTimeThresholdInPricing = 10
RCSPhardTimeThresholdInPricing = 20
RCSPnumberOfBucketsPerVertex = 2000
RCSPdynamicBucketSteps = 0
RCSPuseBidirectionalSearch = 1
RCSPapplyReducedCostFixing = 1
RCSPredCostFixingFalseGap = 0
RCSPmaxNumOfColsPerIteration = 100
RCSPmaxNumOfColsPerExactIteration = 100
RCSPheurLabelingStrategy = 4
StabilizationMinPhaseOfStage = 1
RCSPmaxNumOfLabelsInEnumeration = 100000
RCSPmaxNumOfEnumeratedSolutions = 1000000
RCSPmaxNumOfEnumSolutionsForMIP = 100000
RCSPinitNGneighbourhoodSize = 0
RCSPmaxNGneighbourhoodSize = 0
RCSPrankOneCutsMaxNumPerRound = 100
RCSPrankOneCutsMaxNumRows = -1
RCSPrankOneCutsMemoryType = 2
CutTailingOffThreshold = 0.02
CutTailingOffCounterThreshold = 3
SafeDualBoundScaleFactor = -1
StrongBranchingPhaseOneCandidatesNumber = 100
StrongBranchingPhaseOneTreeSizeEstimRatio = 0.3
StrongBranchingPhaseTwoCandidatesNumber = 1
StrongBranchingPhaseTwoTreeSizeEstimRatio = 0.1
MaxTimeForRestrictedMasterIpHeur = -1
DivingHeurUseDepthLimit = 0
MaxLDSbreadth = 3
MaxLDSdepth = 2
New model incumbent solution 1e+06, TIME = 0h0m0s3t = 3
