Application parameters:
  batch  =>  nothing
  instance  =>  "/IN/402_10000_DI_27.txt-Q20"
  ub  =>  1.0e6
  cfg  =>  "/CFG/BPP.cfg"
data = Colored Bin Packing dataset.
number of items = 403
number of colors = 20
capacity = 8184
Items : 
	 item 1, weight= 48, color= 8
	 item 2, weight= 58, color= 12
	 item 3, weight= 60, color= 2
	 item 4, weight= 64, color= 6
	 item 5, weight= 68, color= 17
	 item 6, weight= 74, color= 2
	 item 7, weight= 76, color= 5
	 item 8, weight= 80, color= 16
	 item 9, weight= 96, color= 9
	 item 10, weight= 136, color= 0
	 item 11, weight= 136, color= 6
	 item 12, weight= 136, color= 19
	 item 13, weight= 140, color= 5
	 item 14, weight= 140, color= 13
	 item 15, weight= 144, color= 5
	 item 16, weight= 144, color= 9
	 item 17, weight= 148, color= 2
	 item 18, weight= 150, color= 6
	 item 19, weight= 152, color= 7
	 item 20, weight= 156, color= 11
	 item 21, weight= 156, color= 15
	 item 22, weight= 160, color= 3
	 item 23, weight= 160, color= 14
	 item 24, weight= 160, color= 18
	 item 25, weight= 162, color= 8
	 item 26, weight= 162, color= 8
	 item 27, weight= 166, color= 11
	 item 28, weight= 168, color= 1
	 item 29, weight= 168, color= 7
	 item 30, weight= 172, color= 2
	 item 31, weight= 172, color= 3
	 item 32, weight= 176, color= 1
	 item 33, weight= 176, color= 9
	 item 34, weight= 176, color= 15
	 item 35, weight= 178, color= 10
	 item 36, weight= 184, color= 4
	 item 37, weight= 184, color= 6
	 item 38, weight= 184, color= 9
	 item 39, weight= 188, color= 9
	 item 40, weight= 188, color= 10
	 item 41, weight= 188, color= 13
	 item 42, weight= 192, color= 7
	 item 43, weight= 200, color= 5
	 item 44, weight= 200, color= 8
	 item 45, weight= 200, color= 9
	 item 46, weight= 200, color= 12
	 item 47, weight= 200, color= 15
	 item 48, weight= 202, color= 17
	 item 49, weight= 206, color= 6
	 item 50, weight= 208, color= 1
	 item 51, weight= 216, color= 3
	 item 52, weight= 216, color= 10
	 item 53, weight= 216, color= 16
	 item 54, weight= 218, color= 1
	 item 55, weight= 224, color= 4
	 item 56, weight= 224, color= 5
	 item 57, weight= 224, color= 12
	 item 58, weight= 228, color= 8
	 item 59, weight= 232, color= 3
	 item 60, weight= 232, color= 18
	 item 61, weight= 236, color= 0
	 item 62, weight= 236, color= 3
	 item 63, weight= 248, color= 10
	 item 64, weight= 248, color= 13
	 item 65, weight= 248, color= 16
	 item 66, weight= 256, color= 6
	 item 67, weight= 258, color= 2
	 item 68, weight= 260, color= 12
	 item 69, weight= 262, color= 15
	 item 70, weight= 264, color= 14
	 item 71, weight= 272, color= 11
	 item 72, weight= 280, color= 15
	 item 73, weight= 284, color= 1
	 item 74, weight= 290, color= 9
	 item 75, weight= 296, color= 1
	 item 76, weight= 296, color= 6
	 item 77, weight= 300, color= 2
	 item 78, weight= 300, color= 11
	 item 79, weight= 304, color= 0
	 item 80, weight= 312, color= 7
	 item 81, weight= 312, color= 13
	 item 82, weight= 324, color= 2
	 item 83, weight= 336, color= 0
	 item 84, weight= 336, color= 3
	 item 85, weight= 336, color= 13
	 item 86, weight= 360, color= 9
	 item 87, weight= 364, color= 12
	 item 88, weight= 366, color= 5
	 item 89, weight= 366, color= 10
	 item 90, weight= 370, color= 12
	 item 91, weight= 376, color= 19
	 item 92, weight= 376, color= 19
	 item 93, weight= 384, color= 1
	 item 94, weight= 408, color= 3
	 item 95, weight= 408, color= 9
	 item 96, weight= 416, color= 0
	 item 97, weight= 420, color= 16
	 item 98, weight= 424, color= 10
	 item 99, weight= 426, color= 8
	 item 100, weight= 428, color= 2
	 item 101, weight= 428, color= 9
	 item 102, weight= 430, color= 11
	 item 103, weight= 432, color= 13
	 item 104, weight= 436, color= 2
	 item 105, weight= 440, color= 8
	 item 106, weight= 456, color= 7
	 item 107, weight= 464, color= 6
	 item 108, weight= 464, color= 8
	 item 109, weight= 480, color= 12
	 item 110, weight= 482, color= 17
	 item 111, weight= 496, color= 3
	 item 112, weight= 508, color= 10
	 item 113, weight= 508, color= 19
	 item 114, weight= 512, color= 15
	 item 115, weight= 516, color= 4
	 item 116, weight= 520, color= 3
	 item 117, weight= 528, color= 2
	 item 118, weight= 540, color= 4
	 item 119, weight= 542, color= 8
	 item 120, weight= 568, color= 12
	 item 121, weight= 584, color= 14
	 item 122, weight= 588, color= 15
	 item 123, weight= 588, color= 18
	 item 124, weight= 596, color= 5
	 item 125, weight= 600, color= 7
	 item 126, weight= 616, color= 0
	 item 127, weight= 616, color= 9
	 item 128, weight= 618, color= 13
	 item 129, weight= 622, color= 19
	 item 130, weight= 624, color= 10
	 item 131, weight= 626, color= 19
	 item 132, weight= 632, color= 7
	 item 133, weight= 640, color= 18
	 item 134, weight= 672, color= 12
	 item 135, weight= 680, color= 2
	 item 136, weight= 680, color= 5
	 item 137, weight= 680, color= 11
	 item 138, weight= 684, color= 12
	 item 139, weight= 702, color= 6
	 item 140, weight= 714, color= 2
	 item 141, weight= 744, color= 18
	 item 142, weight= 748, color= 11
	 item 143, weight= 754, color= 4
	 item 144, weight= 754, color= 16
	 item 145, weight= 757, color= 12
	 item 146, weight= 764, color= 9
	 item 147, weight= 781, color= 18
	 item 148, weight= 798, color= 8
	 item 149, weight= 804, color= 2
	 item 150, weight= 817, color= 17
	 item 151, weight= 819, color= 11
	 item 152, weight= 822, color= 9
	 item 153, weight= 835, color= 6
	 item 154, weight= 836, color= 3
	 item 155, weight= 846, color= 9
	 item 156, weight= 862, color= 11
	 item 157, weight= 866, color= 11
	 item 158, weight= 874, color= 18
	 item 159, weight= 876, color= 17
	 item 160, weight= 881, color= 18
	 item 161, weight= 882, color= 0
	 item 162, weight= 891, color= 17
	 item 163, weight= 914, color= 0
	 item 164, weight= 924, color= 10
	 item 165, weight= 938, color= 5
	 item 166, weight= 940, color= 17
	 item 167, weight= 943, color= 12
	 item 168, weight= 958, color= 0
	 item 169, weight= 965, color= 9
	 item 170, weight= 1011, color= 13
	 item 171, weight= 1014, color= 8
	 item 172, weight= 1016, color= 4
	 item 173, weight= 1018, color= 4
	 item 174, weight= 1020, color= 19
	 item 175, weight= 1037, color= 7
	 item 176, weight= 1052, color= 6
	 item 177, weight= 1086, color= 2
	 item 178, weight= 1090, color= 3
	 item 179, weight= 1092, color= 18
	 item 180, weight= 1112, color= 5
	 item 181, weight= 1123, color= 7
	 item 182, weight= 1132, color= 13
	 item 183, weight= 1141, color= 12
	 item 184, weight= 1174, color= 11
	 item 185, weight= 1186, color= 3
	 item 186, weight= 1187, color= 3
	 item 187, weight= 1188, color= 10
	 item 188, weight= 1202, color= 14
	 item 189, weight= 1224, color= 1
	 item 190, weight= 1249, color= 7
	 item 191, weight= 1252, color= 6
	 item 192, weight= 1256, color= 11
	 item 193, weight= 1282, color= 9
	 item 194, weight= 1291, color= 3
	 item 195, weight= 1291, color= 14
	 item 196, weight= 1315, color= 4
	 item 197, weight= 1318, color= 10
	 item 198, weight= 1334, color= 4
	 item 199, weight= 1380, color= 11
	 item 200, weight= 1412, color= 5
	 item 201, weight= 1427, color= 3
	 item 202, weight= 1450, color= 19
	 item 203, weight= 1457, color= 4
	 item 204, weight= 1498, color= 0
	 item 205, weight= 1510, color= 19
	 item 206, weight= 1518, color= 19
	 item 207, weight= 1524, color= 7
	 item 208, weight= 1561, color= 4
	 item 209, weight= 1564, color= 7
	 item 210, weight= 1576, color= 10
	 item 211, weight= 1627, color= 12
	 item 212, weight= 1686, color= 1
	 item 213, weight= 1690, color= 17
	 item 214, weight= 1700, color= 19
	 item 215, weight= 1719, color= 0
	 item 216, weight= 1739, color= 16
	 item 217, weight= 1831, color= 18
	 item 218, weight= 1837, color= 14
	 item 219, weight= 1841, color= 3
	 item 220, weight= 1844, color= 16
	 item 221, weight= 1853, color= 6
	 item 222, weight= 1894, color= 1
	 item 223, weight= 1898, color= 9
	 item 224, weight= 1948, color= 6
	 item 225, weight= 2076, color= 13
	 item 226, weight= 2092, color= 13
	 item 227, weight= 2103, color= 11
	 item 228, weight= 2141, color= 13
	 item 229, weight= 2142, color= 15
	 item 230, weight= 2146, color= 11
	 item 231, weight= 2153, color= 7
	 item 232, weight= 2154, color= 14
	 item 233, weight= 2165, color= 5
	 item 234, weight= 2186, color= 11
	 item 235, weight= 2244, color= 19
	 item 236, weight= 2338, color= 15
	 item 237, weight= 2356, color= 12
	 item 238, weight= 2372, color= 17
	 item 239, weight= 2403, color= 12
	 item 240, weight= 2417, color= 3
	 item 241, weight= 2467, color= 5
	 item 242, weight= 2492, color= 7
	 item 243, weight= 2494, color= 3
	 item 244, weight= 2542, color= 7
	 item 245, weight= 2550, color= 0
	 item 246, weight= 2590, color= 2
	 item 247, weight= 2626, color= 13
	 item 248, weight= 2660, color= 3
	 item 249, weight= 2705, color= 16
	 item 250, weight= 2719, color= 3
	 item 251, weight= 2796, color= 10
	 item 252, weight= 2860, color= 14
	 item 253, weight= 2930, color= 5
	 item 254, weight= 2942, color= 16
	 item 255, weight= 2950, color= 8
	 item 256, weight= 2990, color= 12
	 item 257, weight= 3016, color= 1
	 item 258, weight= 3081, color= 3
	 item 259, weight= 3091, color= 3
	 item 260, weight= 3119, color= 13
	 item 261, weight= 3124, color= 18
	 item 262, weight= 3131, color= 14
	 item 263, weight= 3164, color= 19
	 item 264, weight= 3252, color= 13
	 item 265, weight= 3256, color= 12
	 item 266, weight= 3388, color= 6
	 item 267, weight= 3406, color= 19
	 item 268, weight= 3410, color= 16
	 item 269, weight= 3411, color= 10
	 item 270, weight= 3484, color= 3
	 item 271, weight= 3577, color= 10
	 item 272, weight= 3592, color= 18
	 item 273, weight= 4040, color= 10
	 item 274, weight= 4093, color= 8
	 item 275, weight= 4094, color= 8
	 item 276, weight= 4095, color= 7
	 item 277, weight= 4098, color= 15
	 item 278, weight= 4100, color= 3
	 item 279, weight= 4124, color= 15
	 item 280, weight= 4288, color= 7
	 item 281, weight= 4388, color= 9
	 item 282, weight= 4427, color= 1
	 item 283, weight= 4443, color= 1
	 item 284, weight= 4444, color= 17
	 item 285, weight= 4475, color= 9
	 item 286, weight= 4487, color= 5
	 item 287, weight= 4598, color= 15
	 item 288, weight= 4646, color= 9
	 item 289, weight= 4654, color= 0
	 item 290, weight= 4670, color= 13
	 item 291, weight= 4708, color= 6
	 item 292, weight= 4756, color= 1
	 item 293, weight= 4923, color= 8
	 item 294, weight= 4939, color= 12
	 item 295, weight= 4996, color= 2
	 item 296, weight= 5078, color= 6
	 item 297, weight= 5084, color= 10
	 item 298, weight= 5126, color= 12
	 item 299, weight= 5134, color= 9
	 item 300, weight= 5150, color= 0
	 item 301, weight= 5196, color= 9
	 item 302, weight= 5285, color= 14
	 item 303, weight= 5301, color= 15
	 item 304, weight= 5364, color= 8
	 item 305, weight= 5382, color= 6
	 item 306, weight= 5500, color= 10
	 item 307, weight= 5514, color= 1
	 item 308, weight= 5562, color= 13
	 item 309, weight= 5587, color= 9
	 item 310, weight= 5601, color= 12
	 item 311, weight= 5602, color= 19
	 item 312, weight= 5610, color= 17
	 item 313, weight= 5612, color= 2
	 item 314, weight= 5617, color= 8
	 item 315, weight= 5618, color= 19
	 item 316, weight= 5649, color= 1
	 item 317, weight= 5661, color= 17
	 item 318, weight= 5700, color= 3
	 item 319, weight= 5852, color= 3
	 item 320, weight= 5910, color= 4
	 item 321, weight= 5914, color= 3
	 item 322, weight= 5961, color= 10
	 item 323, weight= 5977, color= 6
	 item 324, weight= 5980, color= 4
	 item 325, weight= 5981, color= 0
	 item 326, weight= 5989, color= 12
	 item 327, weight= 6028, color= 7
	 item 328, weight= 6148, color= 0
	 item 329, weight= 6158, color= 1
	 item 330, weight= 6162, color= 9
	 item 331, weight= 6233, color= 6
	 item 332, weight= 6243, color= 5
	 item 333, weight= 6303, color= 19
	 item 334, weight= 6308, color= 7
	 item 335, weight= 6311, color= 17
	 item 336, weight= 6364, color= 18
	 item 337, weight= 6366, color= 2
	 item 338, weight= 6374, color= 0
	 item 339, weight= 6390, color= 12
	 item 340, weight= 6437, color= 18
	 item 341, weight= 6473, color= 18
	 item 342, weight= 6492, color= 8
	 item 343, weight= 6528, color= 19
	 item 344, weight= 6532, color= 4
	 item 345, weight= 6546, color= 5
	 item 346, weight= 6586, color= 0
	 item 347, weight= 6606, color= 19
	 item 348, weight= 6607, color= 17
	 item 349, weight= 6635, color= 7
	 item 350, weight= 6646, color= 19
	 item 351, weight= 6675, color= 18
	 item 352, weight= 6680, color= 5
	 item 353, weight= 6684, color= 6
	 item 354, weight= 6687, color= 16
	 item 355, weight= 6746, color= 5
	 item 356, weight= 6762, color= 8
	 item 357, weight= 6764, color= 18
	 item 358, weight= 6778, color= 9
	 item 359, weight= 6815, color= 14
	 item 360, weight= 6828, color= 4
	 item 361, weight= 6837, color= 4
	 item 362, weight= 6876, color= 5
	 item 363, weight= 6878, color= 4
	 item 364, weight= 6882, color= 1
	 item 365, weight= 6923, color= 10
	 item 366, weight= 6924, color= 15
	 item 367, weight= 6941, color= 17
	 item 368, weight= 6964, color= 9
	 item 369, weight= 6966, color= 10
	 item 370, weight= 6970, color= 14
	 item 371, weight= 6973, color= 13
	 item 372, weight= 7027, color= 16
	 item 373, weight= 7038, color= 1
	 item 374, weight= 7053, color= 4
	 item 375, weight= 7060, color= 7
	 item 376, weight= 7062, color= 16
	 item 377, weight= 7076, color= 0
	 item 378, weight= 7115, color= 9
	 item 379, weight= 7126, color= 12
	 item 380, weight= 7127, color= 16
	 item 381, weight= 7138, color= 13
	 item 382, weight= 7140, color= 2
	 item 383, weight= 7146, color= 1
	 item 384, weight= 7154, color= 18
	 item 385, weight= 7183, color= 11
	 item 386, weight= 7188, color= 8
	 item 387, weight= 7194, color= 12
	 item 388, weight= 7202, color= 8
	 item 389, weight= 7203, color= 12
	 item 390, weight= 7220, color= 15
	 item 391, weight= 7230, color= 11
	 item 392, weight= 7247, color= 4
	 item 393, weight= 7276, color= 2
	 item 394, weight= 7277, color= 9
	 item 395, weight= 7278, color= 19
	 item 396, weight= 7282, color= 7
	 item 397, weight= 7292, color= 8
	 item 398, weight= 7304, color= 18
	 item 399, weight= 7309, color= 18
	 item 400, weight= 7330, color= 5
	 item 401, weight= 7342, color= 0
	 item 402, weight= 7350, color= 19
	 item 403, weight= 7364, color= 19

VRPSolver warning: Interval set for resource 1 on source node (when source != sink) is ignored (by definition is [0.0,0.0])
VRPSolver warning: Interval set for resource 2 on source node (when source != sink) is ignored (by definition is [0.0,0.0])
VRPSolver warning: Interval set for resource 3 on source node (when source != sink) is ignored (by definition is [0.0,0.0])
VRPSolver warning: Interval set for resource 4 on source node (when source != sink) is ignored (by definition is [0.0,0.0])
VRPSolver warning: Interval set for resource 5 on source node (when source != sink) is ignored (by definition is [0.0,0.0])
VRPSolver warning: Interval set for resource 6 on source node (when source != sink) is ignored (by definition is [0.0,0.0])
VRPSolver warning: Interval set for resource 7 on source node (when source != sink) is ignored (by definition is [0.0,0.0])
VRPSolver warning: Interval set for resource 8 on source node (when source != sink) is ignored (by definition is [0.0,0.0])
VRPSolver warning: Interval set for resource 9 on source node (when source != sink) is ignored (by definition is [0.0,0.0])
VRPSolver warning: Interval set for resource 10 on source node (when source != sink) is ignored (by definition is [0.0,0.0])
VRPSolver warning: Interval set for resource 11 on source node (when source != sink) is ignored (by definition is [0.0,0.0])
VRPSolver warning: Interval set for resource 12 on source node (when source != sink) is ignored (by definition is [0.0,0.0])
VRPSolver warning: Interval set for resource 13 on source node (when source != sink) is ignored (by definition is [0.0,0.0])
VRPSolver warning: Interval set for resource 14 on source node (when source != sink) is ignored (by definition is [0.0,0.0])
VRPSolver warning: Interval set for resource 15 on source node (when source != sink) is ignored (by definition is [0.0,0.0])
VRPSolver warning: Interval set for resource 16 on source node (when source != sink) is ignored (by definition is [0.0,0.0])
VRPSolver warning: Interval set for resource 17 on source node (when source != sink) is ignored (by definition is [0.0,0.0])
VRPSolver warning: Interval set for resource 18 on source node (when source != sink) is ignored (by definition is [0.0,0.0])
VRPSolver warning: Interval set for resource 19 on source node (when source != sink) is ignored (by definition is [0.0,0.0])
VRPSolver warning: Interval set for resource 20 on source node (when source != sink) is ignored (by definition is [0.0,0.0])
VRPSolver warning: Interval set for resource 21 on source node (when source != sink) is ignored (by definition is [0.0,0.0])
[41m solve [00m
~~~~~~~~~~~~~~~~~~~~~~~~~~~~~~~~~~~~~~~~~~~~~~~~~~~~~~~~~~~~~~~~~~~~~~~~~~~~~~
VRPSolver v0.4.1, 24/03/2021. Web: vrpsolver.math.u-bordeaux.fr
Corresponds to the solver by Pessoa, Sadykov, Uchoa and Vanderbeck (2020)
Paper: dx.doi.org/10.1007/s10107-020-01523-z
USE THIS CODE ONLY FOR ACADEMIC PURPOSES AT YOUR OWN RISK
~~~~~~~~~~~~~~~~~~~~~~~~~~~~~~~~~~~~~~~~~~~~~~~~~~~~~~~~~~~~~~~~~~~~~~~~~~~~~~
BaPCod v053, 24/03/2021, © Inria Bordeaux, France
~~~~~~~~~~~~~~~~~~~~~~~~~~~~~~~~~~~~~~~~~~~~~~~~~~~~~~~~~~~~~~~~~~~~~~~~~~~~~~
VRPSolver parameters:
GlobalTimeLimit = 60
MaxNbOfBBtreeNodeTreated = 100000
treeSearchStrategy = 1
RCSPstopCutGenTimeThresholdInPricing = 10
RCSPhardTimeThresholdInPricing = 20
RCSPnumberOfBucketsPerVertex = 2000
RCSPdynamicBucketSteps = 0
RCSPuseBidirectionalSearch = 1
RCSPapplyReducedCostFixing = 1
RCSPredCostFixingFalseGap = 0
RCSPmaxNumOfColsPerIteration = 100
RCSPmaxNumOfColsPerExactIteration = 100
RCSPheurLabelingStrategy = 4
StabilizationMinPhaseOfStage = 1
RCSPmaxNumOfLabelsInEnumeration = 100000
RCSPmaxNumOfEnumeratedSolutions = 1000000
RCSPmaxNumOfEnumSolutionsForMIP = 100000
RCSPinitNGneighbourhoodSize = 0
RCSPmaxNGneighbourhoodSize = 0
RCSPrankOneCutsMaxNumPerRound = 100
RCSPrankOneCutsMaxNumRows = -1
RCSPrankOneCutsMemoryType = 2
CutTailingOffThreshold = 0.02
CutTailingOffCounterThreshold = 3
SafeDualBoundScaleFactor = -1
StrongBranchingPhaseOneCandidatesNumber = 100
StrongBranchingPhaseOneTreeSizeEstimRatio = 0.3
StrongBranchingPhaseTwoCandidatesNumber = 1
StrongBranchingPhaseTwoTreeSizeEstimRatio = 0.1
MaxTimeForRestrictedMasterIpHeur = -1
DivingHeurUseDepthLimit = 0
MaxLDSbreadth = 3
MaxLDSdepth = 2
New model incumbent solution 1e+06, TIME = 0h0m0s3t = 3
