Application parameters:
  batch  =>  nothing
  instance  =>  "/IN/402_10000_DI_11.txt-Q20"
  ub  =>  1.0e6
  cfg  =>  "/CFG/BPP.cfg"
data = Colored Bin Packing dataset.
number of items = 403
number of colors = 20
capacity = 7928
Items : 
	 item 1, weight= 32, color= 13
	 item 2, weight= 56, color= 17
	 item 3, weight= 96, color= 11
	 item 4, weight= 104, color= 13
	 item 5, weight= 104, color= 19
	 item 6, weight= 112, color= 4
	 item 7, weight= 112, color= 9
	 item 8, weight= 116, color= 10
	 item 9, weight= 128, color= 5
	 item 10, weight= 132, color= 8
	 item 11, weight= 132, color= 10
	 item 12, weight= 136, color= 10
	 item 13, weight= 136, color= 17
	 item 14, weight= 144, color= 6
	 item 15, weight= 144, color= 18
	 item 16, weight= 152, color= 3
	 item 17, weight= 152, color= 5
	 item 18, weight= 152, color= 6
	 item 19, weight= 152, color= 9
	 item 20, weight= 152, color= 16
	 item 21, weight= 156, color= 10
	 item 22, weight= 156, color= 12
	 item 23, weight= 156, color= 13
	 item 24, weight= 156, color= 14
	 item 25, weight= 156, color= 19
	 item 26, weight= 158, color= 6
	 item 27, weight= 160, color= 18
	 item 28, weight= 160, color= 19
	 item 29, weight= 162, color= 17
	 item 30, weight= 164, color= 9
	 item 31, weight= 168, color= 4
	 item 32, weight= 168, color= 9
	 item 33, weight= 168, color= 15
	 item 34, weight= 172, color= 10
	 item 35, weight= 172, color= 11
	 item 36, weight= 172, color= 15
	 item 37, weight= 172, color= 16
	 item 38, weight= 180, color= 6
	 item 39, weight= 180, color= 13
	 item 40, weight= 180, color= 14
	 item 41, weight= 184, color= 13
	 item 42, weight= 184, color= 16
	 item 43, weight= 188, color= 4
	 item 44, weight= 188, color= 6
	 item 45, weight= 192, color= 12
	 item 46, weight= 196, color= 1
	 item 47, weight= 196, color= 4
	 item 48, weight= 196, color= 14
	 item 49, weight= 200, color= 14
	 item 50, weight= 208, color= 4
	 item 51, weight= 208, color= 10
	 item 52, weight= 208, color= 11
	 item 53, weight= 210, color= 6
	 item 54, weight= 210, color= 10
	 item 55, weight= 212, color= 15
	 item 56, weight= 214, color= 10
	 item 57, weight= 216, color= 10
	 item 58, weight= 220, color= 3
	 item 59, weight= 224, color= 2
	 item 60, weight= 224, color= 8
	 item 61, weight= 228, color= 5
	 item 62, weight= 228, color= 9
	 item 63, weight= 230, color= 16
	 item 64, weight= 232, color= 18
	 item 65, weight= 240, color= 17
	 item 66, weight= 240, color= 18
	 item 67, weight= 248, color= 1
	 item 68, weight= 248, color= 10
	 item 69, weight= 248, color= 16
	 item 70, weight= 250, color= 6
	 item 71, weight= 252, color= 0
	 item 72, weight= 252, color= 9
	 item 73, weight= 258, color= 10
	 item 74, weight= 260, color= 6
	 item 75, weight= 264, color= 0
	 item 76, weight= 272, color= 7
	 item 77, weight= 280, color= 11
	 item 78, weight= 280, color= 16
	 item 79, weight= 282, color= 8
	 item 80, weight= 282, color= 17
	 item 81, weight= 286, color= 0
	 item 82, weight= 286, color= 7
	 item 83, weight= 288, color= 2
	 item 84, weight= 288, color= 5
	 item 85, weight= 304, color= 5
	 item 86, weight= 312, color= 0
	 item 87, weight= 312, color= 12
	 item 88, weight= 312, color= 12
	 item 89, weight= 314, color= 12
	 item 90, weight= 328, color= 13
	 item 91, weight= 332, color= 7
	 item 92, weight= 336, color= 13
	 item 93, weight= 348, color= 8
	 item 94, weight= 352, color= 1
	 item 95, weight= 360, color= 17
	 item 96, weight= 364, color= 13
	 item 97, weight= 364, color= 16
	 item 98, weight= 372, color= 6
	 item 99, weight= 384, color= 8
	 item 100, weight= 388, color= 17
	 item 101, weight= 390, color= 13
	 item 102, weight= 392, color= 7
	 item 103, weight= 400, color= 17
	 item 104, weight= 416, color= 13
	 item 105, weight= 420, color= 16
	 item 106, weight= 440, color= 15
	 item 107, weight= 442, color= 14
	 item 108, weight= 444, color= 16
	 item 109, weight= 456, color= 11
	 item 110, weight= 456, color= 12
	 item 111, weight= 456, color= 17
	 item 112, weight= 480, color= 11
	 item 113, weight= 480, color= 19
	 item 114, weight= 484, color= 7
	 item 115, weight= 484, color= 11
	 item 116, weight= 492, color= 19
	 item 117, weight= 500, color= 1
	 item 118, weight= 502, color= 1
	 item 119, weight= 504, color= 9
	 item 120, weight= 512, color= 15
	 item 121, weight= 528, color= 4
	 item 122, weight= 536, color= 4
	 item 123, weight= 544, color= 1
	 item 124, weight= 560, color= 7
	 item 125, weight= 564, color= 15
	 item 126, weight= 572, color= 2
	 item 127, weight= 574, color= 6
	 item 128, weight= 588, color= 9
	 item 129, weight= 616, color= 2
	 item 130, weight= 624, color= 5
	 item 131, weight= 632, color= 5
	 item 132, weight= 648, color= 4
	 item 133, weight= 656, color= 9
	 item 134, weight= 656, color= 16
	 item 135, weight= 660, color= 9
	 item 136, weight= 660, color= 16
	 item 137, weight= 660, color= 19
	 item 138, weight= 670, color= 7
	 item 139, weight= 678, color= 7
	 item 140, weight= 692, color= 6
	 item 141, weight= 702, color= 4
	 item 142, weight= 738, color= 11
	 item 143, weight= 756, color= 10
	 item 144, weight= 758, color= 15
	 item 145, weight= 762, color= 7
	 item 146, weight= 769, color= 14
	 item 147, weight= 771, color= 2
	 item 148, weight= 780, color= 10
	 item 149, weight= 781, color= 6
	 item 150, weight= 783, color= 4
	 item 151, weight= 790, color= 9
	 item 152, weight= 797, color= 0
	 item 153, weight= 815, color= 11
	 item 154, weight= 822, color= 0
	 item 155, weight= 831, color= 16
	 item 156, weight= 852, color= 17
	 item 157, weight= 855, color= 4
	 item 158, weight= 857, color= 7
	 item 159, weight= 862, color= 13
	 item 160, weight= 866, color= 3
	 item 161, weight= 869, color= 1
	 item 162, weight= 871, color= 2
	 item 163, weight= 872, color= 5
	 item 164, weight= 874, color= 4
	 item 165, weight= 901, color= 4
	 item 166, weight= 903, color= 2
	 item 167, weight= 906, color= 6
	 item 168, weight= 940, color= 9
	 item 169, weight= 941, color= 3
	 item 170, weight= 943, color= 17
	 item 171, weight= 948, color= 8
	 item 172, weight= 966, color= 3
	 item 173, weight= 984, color= 14
	 item 174, weight= 986, color= 14
	 item 175, weight= 989, color= 12
	 item 176, weight= 994, color= 1
	 item 177, weight= 1018, color= 1
	 item 178, weight= 1023, color= 17
	 item 179, weight= 1045, color= 11
	 item 180, weight= 1052, color= 3
	 item 181, weight= 1055, color= 6
	 item 182, weight= 1059, color= 16
	 item 183, weight= 1071, color= 7
	 item 184, weight= 1080, color= 4
	 item 185, weight= 1084, color= 15
	 item 186, weight= 1098, color= 11
	 item 187, weight= 1110, color= 1
	 item 188, weight= 1142, color= 6
	 item 189, weight= 1145, color= 4
	 item 190, weight= 1159, color= 8
	 item 191, weight= 1163, color= 13
	 item 192, weight= 1208, color= 2
	 item 193, weight= 1208, color= 10
	 item 194, weight= 1212, color= 2
	 item 195, weight= 1249, color= 5
	 item 196, weight= 1250, color= 4
	 item 197, weight= 1255, color= 15
	 item 198, weight= 1262, color= 5
	 item 199, weight= 1276, color= 15
	 item 200, weight= 1278, color= 2
	 item 201, weight= 1295, color= 0
	 item 202, weight= 1310, color= 16
	 item 203, weight= 1310, color= 18
	 item 204, weight= 1380, color= 10
	 item 205, weight= 1405, color= 19
	 item 206, weight= 1411, color= 3
	 item 207, weight= 1414, color= 6
	 item 208, weight= 1415, color= 19
	 item 209, weight= 1425, color= 9
	 item 210, weight= 1429, color= 1
	 item 211, weight= 1431, color= 16
	 item 212, weight= 1436, color= 5
	 item 213, weight= 1439, color= 2
	 item 214, weight= 1450, color= 9
	 item 215, weight= 1460, color= 1
	 item 216, weight= 1520, color= 5
	 item 217, weight= 1571, color= 18
	 item 218, weight= 1572, color= 0
	 item 219, weight= 1574, color= 6
	 item 220, weight= 1577, color= 17
	 item 221, weight= 1618, color= 14
	 item 222, weight= 1645, color= 4
	 item 223, weight= 1708, color= 10
	 item 224, weight= 1743, color= 15
	 item 225, weight= 1796, color= 15
	 item 226, weight= 1802, color= 18
	 item 227, weight= 1822, color= 0
	 item 228, weight= 1833, color= 19
	 item 229, weight= 1838, color= 19
	 item 230, weight= 1862, color= 14
	 item 231, weight= 1870, color= 3
	 item 232, weight= 1949, color= 2
	 item 233, weight= 1951, color= 8
	 item 234, weight= 1967, color= 9
	 item 235, weight= 2004, color= 10
	 item 236, weight= 2068, color= 11
	 item 237, weight= 2086, color= 17
	 item 238, weight= 2122, color= 6
	 item 239, weight= 2211, color= 17
	 item 240, weight= 2217, color= 8
	 item 241, weight= 2221, color= 4
	 item 242, weight= 2284, color= 15
	 item 243, weight= 2324, color= 4
	 item 244, weight= 2364, color= 1
	 item 245, weight= 2364, color= 17
	 item 246, weight= 2422, color= 2
	 item 247, weight= 2426, color= 8
	 item 248, weight= 2434, color= 19
	 item 249, weight= 2466, color= 0
	 item 250, weight= 2511, color= 15
	 item 251, weight= 2517, color= 1
	 item 252, weight= 2545, color= 12
	 item 253, weight= 2604, color= 2
	 item 254, weight= 2644, color= 15
	 item 255, weight= 2692, color= 19
	 item 256, weight= 2748, color= 10
	 item 257, weight= 2802, color= 19
	 item 258, weight= 2838, color= 13
	 item 259, weight= 2871, color= 13
	 item 260, weight= 2877, color= 18
	 item 261, weight= 2936, color= 12
	 item 262, weight= 3052, color= 15
	 item 263, weight= 3156, color= 9
	 item 264, weight= 3204, color= 12
	 item 265, weight= 3244, color= 12
	 item 266, weight= 3282, color= 5
	 item 267, weight= 3300, color= 19
	 item 268, weight= 3301, color= 15
	 item 269, weight= 3302, color= 5
	 item 270, weight= 3303, color= 9
	 item 271, weight= 3366, color= 13
	 item 272, weight= 3472, color= 16
	 item 273, weight= 3904, color= 16
	 item 274, weight= 3965, color= 4
	 item 275, weight= 3966, color= 19
	 item 276, weight= 3967, color= 9
	 item 277, weight= 3972, color= 9
	 item 278, weight= 3974, color= 14
	 item 279, weight= 3990, color= 1
	 item 280, weight= 4036, color= 4
	 item 281, weight= 4092, color= 0
	 item 282, weight= 4148, color= 4
	 item 283, weight= 4477, color= 0
	 item 284, weight= 4485, color= 14
	 item 285, weight= 4526, color= 8
	 item 286, weight= 4566, color= 0
	 item 287, weight= 4636, color= 9
	 item 288, weight= 4652, color= 9
	 item 289, weight= 4700, color= 19
	 item 290, weight= 4756, color= 17
	 item 291, weight= 4812, color= 9
	 item 292, weight= 4903, color= 9
	 item 293, weight= 4909, color= 13
	 item 294, weight= 4917, color= 0
	 item 295, weight= 4970, color= 11
	 item 296, weight= 5010, color= 19
	 item 297, weight= 5018, color= 16
	 item 298, weight= 5026, color= 19
	 item 299, weight= 5148, color= 7
	 item 300, weight= 5188, color= 8
	 item 301, weight= 5263, color= 12
	 item 302, weight= 5269, color= 3
	 item 303, weight= 5277, color= 4
	 item 304, weight= 5386, color= 0
	 item 305, weight= 5396, color= 7
	 item 306, weight= 5426, color= 7
	 item 307, weight= 5468, color= 7
	 item 308, weight= 5524, color= 14
	 item 309, weight= 5569, color= 17
	 item 310, weight= 5587, color= 13
	 item 311, weight= 5591, color= 6
	 item 312, weight= 5620, color= 7
	 item 313, weight= 5686, color= 9
	 item 314, weight= 5726, color= 15
	 item 315, weight= 5734, color= 1
	 item 316, weight= 5742, color= 10
	 item 317, weight= 5766, color= 12
	 item 318, weight= 5780, color= 3
	 item 319, weight= 5831, color= 5
	 item 320, weight= 5837, color= 8
	 item 321, weight= 5884, color= 4
	 item 322, weight= 5955, color= 16
	 item 323, weight= 6006, color= 8
	 item 324, weight= 6037, color= 12
	 item 325, weight= 6042, color= 10
	 item 326, weight= 6044, color= 5
	 item 327, weight= 6045, color= 8
	 item 328, weight= 6180, color= 4
	 item 329, weight= 6190, color= 4
	 item 330, weight= 6203, color= 18
	 item 331, weight= 6211, color= 9
	 item 332, weight= 6231, color= 9
	 item 333, weight= 6234, color= 9
	 item 334, weight= 6235, color= 12
	 item 335, weight= 6243, color= 13
	 item 336, weight= 6276, color= 2
	 item 337, weight= 6320, color= 12
	 item 338, weight= 6358, color= 5
	 item 339, weight= 6375, color= 15
	 item 340, weight= 6383, color= 6
	 item 341, weight= 6398, color= 10
	 item 342, weight= 6399, color= 7
	 item 343, weight= 6404, color= 18
	 item 344, weight= 6406, color= 11
	 item 345, weight= 6414, color= 15
	 item 346, weight= 6423, color= 0
	 item 347, weight= 6430, color= 8
	 item 348, weight= 6431, color= 11
	 item 349, weight= 6460, color= 15
	 item 350, weight= 6476, color= 3
	 item 351, weight= 6496, color= 5
	 item 352, weight= 6533, color= 3
	 item 353, weight= 6539, color= 12
	 item 354, weight= 6555, color= 18
	 item 355, weight= 6558, color= 6
	 item 356, weight= 6598, color= 16
	 item 357, weight= 6614, color= 13
	 item 358, weight= 6636, color= 4
	 item 359, weight= 6643, color= 16
	 item 360, weight= 6659, color= 2
	 item 361, weight= 6663, color= 8
	 item 362, weight= 6668, color= 18
	 item 363, weight= 6675, color= 18
	 item 364, weight= 6710, color= 16
	 item 365, weight= 6738, color= 15
	 item 366, weight= 6743, color= 19
	 item 367, weight= 6746, color= 18
	 item 368, weight= 6749, color= 13
	 item 369, weight= 6770, color= 6
	 item 370, weight= 6796, color= 13
	 item 371, weight= 6797, color= 10
	 item 372, weight= 6799, color= 6
	 item 373, weight= 6804, color= 12
	 item 374, weight= 6842, color= 0
	 item 375, weight= 6845, color= 0
	 item 376, weight= 6847, color= 7
	 item 377, weight= 6882, color= 2
	 item 378, weight= 6885, color= 0
	 item 379, weight= 6887, color= 3
	 item 380, weight= 6890, color= 4
	 item 381, weight= 6896, color= 18
	 item 382, weight= 6898, color= 3
	 item 383, weight= 6908, color= 5
	 item 384, weight= 6917, color= 5
	 item 385, weight= 6919, color= 9
	 item 386, weight= 6933, color= 9
	 item 387, weight= 6946, color= 15
	 item 388, weight= 6951, color= 9
	 item 389, weight= 6973, color= 13
	 item 390, weight= 6982, color= 12
	 item 391, weight= 6989, color= 19
	 item 392, weight= 6991, color= 2
	 item 393, weight= 6996, color= 5
	 item 394, weight= 7005, color= 8
	 item 395, weight= 7007, color= 1
	 item 396, weight= 7014, color= 8
	 item 397, weight= 7028, color= 5
	 item 398, weight= 7046, color= 7
	 item 399, weight= 7058, color= 3
	 item 400, weight= 7090, color= 13
	 item 401, weight= 7100, color= 13
	 item 402, weight= 7118, color= 11
	 item 403, weight= 7126, color= 9

VRPSolver warning: Interval set for resource 1 on source node (when source != sink) is ignored (by definition is [0.0,0.0])
VRPSolver warning: Interval set for resource 2 on source node (when source != sink) is ignored (by definition is [0.0,0.0])
VRPSolver warning: Interval set for resource 3 on source node (when source != sink) is ignored (by definition is [0.0,0.0])
VRPSolver warning: Interval set for resource 4 on source node (when source != sink) is ignored (by definition is [0.0,0.0])
VRPSolver warning: Interval set for resource 5 on source node (when source != sink) is ignored (by definition is [0.0,0.0])
VRPSolver warning: Interval set for resource 6 on source node (when source != sink) is ignored (by definition is [0.0,0.0])
VRPSolver warning: Interval set for resource 7 on source node (when source != sink) is ignored (by definition is [0.0,0.0])
VRPSolver warning: Interval set for resource 8 on source node (when source != sink) is ignored (by definition is [0.0,0.0])
VRPSolver warning: Interval set for resource 9 on source node (when source != sink) is ignored (by definition is [0.0,0.0])
VRPSolver warning: Interval set for resource 10 on source node (when source != sink) is ignored (by definition is [0.0,0.0])
VRPSolver warning: Interval set for resource 11 on source node (when source != sink) is ignored (by definition is [0.0,0.0])
VRPSolver warning: Interval set for resource 12 on source node (when source != sink) is ignored (by definition is [0.0,0.0])
VRPSolver warning: Interval set for resource 13 on source node (when source != sink) is ignored (by definition is [0.0,0.0])
VRPSolver warning: Interval set for resource 14 on source node (when source != sink) is ignored (by definition is [0.0,0.0])
VRPSolver warning: Interval set for resource 15 on source node (when source != sink) is ignored (by definition is [0.0,0.0])
VRPSolver warning: Interval set for resource 16 on source node (when source != sink) is ignored (by definition is [0.0,0.0])
VRPSolver warning: Interval set for resource 17 on source node (when source != sink) is ignored (by definition is [0.0,0.0])
VRPSolver warning: Interval set for resource 18 on source node (when source != sink) is ignored (by definition is [0.0,0.0])
VRPSolver warning: Interval set for resource 19 on source node (when source != sink) is ignored (by definition is [0.0,0.0])
VRPSolver warning: Interval set for resource 20 on source node (when source != sink) is ignored (by definition is [0.0,0.0])
VRPSolver warning: Interval set for resource 21 on source node (when source != sink) is ignored (by definition is [0.0,0.0])
[41m solve [00m
~~~~~~~~~~~~~~~~~~~~~~~~~~~~~~~~~~~~~~~~~~~~~~~~~~~~~~~~~~~~~~~~~~~~~~~~~~~~~~
VRPSolver v0.4.1, 24/03/2021. Web: vrpsolver.math.u-bordeaux.fr
Corresponds to the solver by Pessoa, Sadykov, Uchoa and Vanderbeck (2020)
Paper: dx.doi.org/10.1007/s10107-020-01523-z
USE THIS CODE ONLY FOR ACADEMIC PURPOSES AT YOUR OWN RISK
~~~~~~~~~~~~~~~~~~~~~~~~~~~~~~~~~~~~~~~~~~~~~~~~~~~~~~~~~~~~~~~~~~~~~~~~~~~~~~
BaPCod v053, 24/03/2021, © Inria Bordeaux, France
~~~~~~~~~~~~~~~~~~~~~~~~~~~~~~~~~~~~~~~~~~~~~~~~~~~~~~~~~~~~~~~~~~~~~~~~~~~~~~
VRPSolver parameters:
GlobalTimeLimit = 60
MaxNbOfBBtreeNodeTreated = 100000
treeSearchStrategy = 1
RCSPstopCutGenTimeThresholdInPricing = 10
RCSPhardTimeThresholdInPricing = 20
RCSPnumberOfBucketsPerVertex = 2000
RCSPdynamicBucketSteps = 0
RCSPuseBidirectionalSearch = 1
RCSPapplyReducedCostFixing = 1
RCSPredCostFixingFalseGap = 0
RCSPmaxNumOfColsPerIteration = 100
RCSPmaxNumOfColsPerExactIteration = 100
RCSPheurLabelingStrategy = 4
StabilizationMinPhaseOfStage = 1
RCSPmaxNumOfLabelsInEnumeration = 100000
RCSPmaxNumOfEnumeratedSolutions = 1000000
RCSPmaxNumOfEnumSolutionsForMIP = 100000
RCSPinitNGneighbourhoodSize = 0
RCSPmaxNGneighbourhoodSize = 0
RCSPrankOneCutsMaxNumPerRound = 100
RCSPrankOneCutsMaxNumRows = -1
RCSPrankOneCutsMemoryType = 2
CutTailingOffThreshold = 0.02
CutTailingOffCounterThreshold = 3
SafeDualBoundScaleFactor = -1
StrongBranchingPhaseOneCandidatesNumber = 100
StrongBranchingPhaseOneTreeSizeEstimRatio = 0.3
StrongBranchingPhaseTwoCandidatesNumber = 1
StrongBranchingPhaseTwoTreeSizeEstimRatio = 0.1
MaxTimeForRestrictedMasterIpHeur = -1
DivingHeurUseDepthLimit = 0
MaxLDSbreadth = 3
MaxLDSdepth = 2
New model incumbent solution 1e+06, TIME = 0h0m0s3t = 3
