Application parameters:
  batch  =>  nothing
  instance  =>  "/IN/600_20000_DI_39.txt-Q20"
  ub  =>  1.0e6
  cfg  =>  "/CFG/BPP.cfg"
data = Colored Bin Packing dataset.
number of items = 601
number of colors = 20
capacity = 16320
Items : 
	 item 1, weight= 32, color= 0
	 item 2, weight= 32, color= 16
	 item 3, weight= 64, color= 10
	 item 4, weight= 88, color= 17
	 item 5, weight= 96, color= 7
	 item 6, weight= 120, color= 10
	 item 7, weight= 126, color= 2
	 item 8, weight= 128, color= 8
	 item 9, weight= 132, color= 18
	 item 10, weight= 176, color= 6
	 item 11, weight= 176, color= 8
	 item 12, weight= 216, color= 19
	 item 13, weight= 224, color= 18
	 item 14, weight= 256, color= 18
	 item 15, weight= 272, color= 0
	 item 16, weight= 272, color= 6
	 item 17, weight= 272, color= 18
	 item 18, weight= 272, color= 18
	 item 19, weight= 280, color= 11
	 item 20, weight= 280, color= 16
	 item 21, weight= 286, color= 11
	 item 22, weight= 288, color= 1
	 item 23, weight= 288, color= 8
	 item 24, weight= 288, color= 10
	 item 25, weight= 288, color= 18
	 item 26, weight= 288, color= 19
	 item 27, weight= 296, color= 9
	 item 28, weight= 302, color= 17
	 item 29, weight= 304, color= 0
	 item 30, weight= 304, color= 3
	 item 31, weight= 304, color= 9
	 item 32, weight= 308, color= 1
	 item 33, weight= 312, color= 5
	 item 34, weight= 312, color= 12
	 item 35, weight= 312, color= 15
	 item 36, weight= 316, color= 11
	 item 37, weight= 320, color= 13
	 item 38, weight= 320, color= 15
	 item 39, weight= 320, color= 16
	 item 40, weight= 324, color= 2
	 item 41, weight= 324, color= 18
	 item 42, weight= 328, color= 10
	 item 43, weight= 330, color= 3
	 item 44, weight= 332, color= 13
	 item 45, weight= 336, color= 2
	 item 46, weight= 336, color= 16
	 item 47, weight= 340, color= 10
	 item 48, weight= 342, color= 2
	 item 49, weight= 344, color= 5
	 item 50, weight= 348, color= 1
	 item 51, weight= 348, color= 5
	 item 52, weight= 352, color= 6
	 item 53, weight= 352, color= 14
	 item 54, weight= 352, color= 16
	 item 55, weight= 354, color= 15
	 item 56, weight= 356, color= 1
	 item 57, weight= 356, color= 8
	 item 58, weight= 360, color= 12
	 item 59, weight= 364, color= 6
	 item 60, weight= 368, color= 4
	 item 61, weight= 368, color= 19
	 item 62, weight= 374, color= 13
	 item 63, weight= 376, color= 6
	 item 64, weight= 376, color= 17
	 item 65, weight= 384, color= 18
	 item 66, weight= 388, color= 18
	 item 67, weight= 400, color= 5
	 item 68, weight= 400, color= 8
	 item 69, weight= 400, color= 12
	 item 70, weight= 400, color= 17
	 item 71, weight= 402, color= 19
	 item 72, weight= 404, color= 10
	 item 73, weight= 404, color= 15
	 item 74, weight= 416, color= 8
	 item 75, weight= 416, color= 11
	 item 76, weight= 416, color= 11
	 item 77, weight= 416, color= 15
	 item 78, weight= 424, color= 13
	 item 79, weight= 432, color= 8
	 item 80, weight= 432, color= 13
	 item 81, weight= 432, color= 18
	 item 82, weight= 432, color= 18
	 item 83, weight= 436, color= 19
	 item 84, weight= 444, color= 11
	 item 85, weight= 444, color= 18
	 item 86, weight= 448, color= 14
	 item 87, weight= 448, color= 15
	 item 88, weight= 452, color= 17
	 item 89, weight= 456, color= 18
	 item 90, weight= 464, color= 2
	 item 91, weight= 472, color= 3
	 item 92, weight= 472, color= 19
	 item 93, weight= 480, color= 2
	 item 94, weight= 480, color= 2
	 item 95, weight= 480, color= 16
	 item 96, weight= 484, color= 1
	 item 97, weight= 492, color= 7
	 item 98, weight= 496, color= 2
	 item 99, weight= 496, color= 5
	 item 100, weight= 498, color= 4
	 item 101, weight= 512, color= 11
	 item 102, weight= 518, color= 18
	 item 103, weight= 520, color= 0
	 item 104, weight= 520, color= 9
	 item 105, weight= 522, color= 0
	 item 106, weight= 536, color= 13
	 item 107, weight= 538, color= 13
	 item 108, weight= 544, color= 8
	 item 109, weight= 544, color= 16
	 item 110, weight= 558, color= 1
	 item 111, weight= 560, color= 2
	 item 112, weight= 560, color= 4
	 item 113, weight= 576, color= 6
	 item 114, weight= 576, color= 9
	 item 115, weight= 576, color= 18
	 item 116, weight= 582, color= 17
	 item 117, weight= 584, color= 5
	 item 118, weight= 588, color= 9
	 item 119, weight= 588, color= 18
	 item 120, weight= 602, color= 5
	 item 121, weight= 604, color= 3
	 item 122, weight= 608, color= 7
	 item 123, weight= 608, color= 16
	 item 124, weight= 612, color= 17
	 item 125, weight= 640, color= 8
	 item 126, weight= 640, color= 13
	 item 127, weight= 646, color= 18
	 item 128, weight= 648, color= 13
	 item 129, weight= 656, color= 2
	 item 130, weight= 656, color= 3
	 item 131, weight= 656, color= 8
	 item 132, weight= 668, color= 0
	 item 133, weight= 674, color= 5
	 item 134, weight= 684, color= 17
	 item 135, weight= 700, color= 10
	 item 136, weight= 708, color= 19
	 item 137, weight= 716, color= 17
	 item 138, weight= 732, color= 9
	 item 139, weight= 736, color= 11
	 item 140, weight= 736, color= 15
	 item 141, weight= 736, color= 17
	 item 142, weight= 742, color= 7
	 item 143, weight= 744, color= 4
	 item 144, weight= 748, color= 17
	 item 145, weight= 752, color= 2
	 item 146, weight= 752, color= 6
	 item 147, weight= 752, color= 7
	 item 148, weight= 764, color= 11
	 item 149, weight= 788, color= 16
	 item 150, weight= 790, color= 13
	 item 151, weight= 832, color= 13
	 item 152, weight= 832, color= 17
	 item 153, weight= 848, color= 6
	 item 154, weight= 848, color= 12
	 item 155, weight= 856, color= 5
	 item 156, weight= 856, color= 6
	 item 157, weight= 864, color= 9
	 item 158, weight= 884, color= 2
	 item 159, weight= 944, color= 4
	 item 160, weight= 950, color= 7
	 item 161, weight= 952, color= 8
	 item 162, weight= 976, color= 7
	 item 163, weight= 984, color= 3
	 item 164, weight= 984, color= 8
	 item 165, weight= 992, color= 3
	 item 166, weight= 992, color= 10
	 item 167, weight= 992, color= 17
	 item 168, weight= 998, color= 4
	 item 169, weight= 1000, color= 10
	 item 170, weight= 1000, color= 19
	 item 171, weight= 1004, color= 10
	 item 172, weight= 1008, color= 11
	 item 173, weight= 1088, color= 8
	 item 174, weight= 1140, color= 7
	 item 175, weight= 1142, color= 17
	 item 176, weight= 1146, color= 3
	 item 177, weight= 1150, color= 5
	 item 178, weight= 1152, color= 6
	 item 179, weight= 1152, color= 15
	 item 180, weight= 1152, color= 15
	 item 181, weight= 1152, color= 17
	 item 182, weight= 1158, color= 9
	 item 183, weight= 1160, color= 2
	 item 184, weight= 1160, color= 10
	 item 185, weight= 1164, color= 5
	 item 186, weight= 1172, color= 3
	 item 187, weight= 1316, color= 12
	 item 188, weight= 1322, color= 19
	 item 189, weight= 1342, color= 19
	 item 190, weight= 1344, color= 5
	 item 191, weight= 1344, color= 7
	 item 192, weight= 1344, color= 8
	 item 193, weight= 1344, color= 17
	 item 194, weight= 1344, color= 19
	 item 195, weight= 1352, color= 13
	 item 196, weight= 1352, color= 14
	 item 197, weight= 1352, color= 18
	 item 198, weight= 1356, color= 4
	 item 199, weight= 1356, color= 16
	 item 200, weight= 1358, color= 0
	 item 201, weight= 1358, color= 3
	 item 202, weight= 1358, color= 4
	 item 203, weight= 1367, color= 16
	 item 204, weight= 1378, color= 0
	 item 205, weight= 1380, color= 12
	 item 206, weight= 1392, color= 13
	 item 207, weight= 1412, color= 11
	 item 208, weight= 1418, color= 8
	 item 209, weight= 1432, color= 12
	 item 210, weight= 1437, color= 10
	 item 211, weight= 1452, color= 7
	 item 212, weight= 1462, color= 8
	 item 213, weight= 1491, color= 8
	 item 214, weight= 1512, color= 6
	 item 215, weight= 1517, color= 10
	 item 216, weight= 1521, color= 6
	 item 217, weight= 1548, color= 9
	 item 218, weight= 1549, color= 13
	 item 219, weight= 1562, color= 5
	 item 220, weight= 1572, color= 15
	 item 221, weight= 1572, color= 17
	 item 222, weight= 1583, color= 1
	 item 223, weight= 1584, color= 14
	 item 224, weight= 1592, color= 4
	 item 225, weight= 1604, color= 4
	 item 226, weight= 1610, color= 12
	 item 227, weight= 1631, color= 1
	 item 228, weight= 1638, color= 14
	 item 229, weight= 1657, color= 14
	 item 230, weight= 1662, color= 13
	 item 231, weight= 1668, color= 7
	 item 232, weight= 1680, color= 8
	 item 233, weight= 1684, color= 15
	 item 234, weight= 1688, color= 13
	 item 235, weight= 1711, color= 5
	 item 236, weight= 1713, color= 14
	 item 237, weight= 1728, color= 8
	 item 238, weight= 1730, color= 3
	 item 239, weight= 1742, color= 13
	 item 240, weight= 1758, color= 15
	 item 241, weight= 1772, color= 10
	 item 242, weight= 1781, color= 18
	 item 243, weight= 1790, color= 12
	 item 244, weight= 1792, color= 0
	 item 245, weight= 1798, color= 8
	 item 246, weight= 1804, color= 12
	 item 247, weight= 1822, color= 3
	 item 248, weight= 1824, color= 14
	 item 249, weight= 1828, color= 15
	 item 250, weight= 1832, color= 10
	 item 251, weight= 1873, color= 2
	 item 252, weight= 1894, color= 11
	 item 253, weight= 1908, color= 16
	 item 254, weight= 1912, color= 8
	 item 255, weight= 1936, color= 13
	 item 256, weight= 1947, color= 5
	 item 257, weight= 2002, color= 4
	 item 258, weight= 2004, color= 8
	 item 259, weight= 2008, color= 18
	 item 260, weight= 2018, color= 14
	 item 261, weight= 2021, color= 1
	 item 262, weight= 2021, color= 14
	 item 263, weight= 2044, color= 17
	 item 264, weight= 2096, color= 16
	 item 265, weight= 2104, color= 14
	 item 266, weight= 2125, color= 15
	 item 267, weight= 2164, color= 11
	 item 268, weight= 2167, color= 17
	 item 269, weight= 2170, color= 19
	 item 270, weight= 2190, color= 7
	 item 271, weight= 2204, color= 2
	 item 272, weight= 2216, color= 13
	 item 273, weight= 2223, color= 3
	 item 274, weight= 2230, color= 9
	 item 275, weight= 2278, color= 14
	 item 276, weight= 2281, color= 13
	 item 277, weight= 2302, color= 5
	 item 278, weight= 2320, color= 15
	 item 279, weight= 2351, color= 11
	 item 280, weight= 2356, color= 0
	 item 281, weight= 2366, color= 15
	 item 282, weight= 2367, color= 18
	 item 283, weight= 2396, color= 7
	 item 284, weight= 2406, color= 14
	 item 285, weight= 2434, color= 8
	 item 286, weight= 2456, color= 6
	 item 287, weight= 2467, color= 7
	 item 288, weight= 2490, color= 18
	 item 289, weight= 2493, color= 3
	 item 290, weight= 2560, color= 17
	 item 291, weight= 2568, color= 16
	 item 292, weight= 2576, color= 7
	 item 293, weight= 2588, color= 2
	 item 294, weight= 2601, color= 6
	 item 295, weight= 2621, color= 7
	 item 296, weight= 2622, color= 1
	 item 297, weight= 2628, color= 0
	 item 298, weight= 2669, color= 18
	 item 299, weight= 2690, color= 14
	 item 300, weight= 2701, color= 11
	 item 301, weight= 2760, color= 15
	 item 302, weight= 2797, color= 14
	 item 303, weight= 2800, color= 16
	 item 304, weight= 2872, color= 0
	 item 305, weight= 2884, color= 13
	 item 306, weight= 2908, color= 11
	 item 307, weight= 2913, color= 9
	 item 308, weight= 2930, color= 5
	 item 309, weight= 2942, color= 6
	 item 310, weight= 2958, color= 3
	 item 311, weight= 3022, color= 3
	 item 312, weight= 3061, color= 10
	 item 313, weight= 3096, color= 6
	 item 314, weight= 3152, color= 13
	 item 315, weight= 3220, color= 3
	 item 316, weight= 3231, color= 10
	 item 317, weight= 3240, color= 0
	 item 318, weight= 3244, color= 0
	 item 319, weight= 3292, color= 7
	 item 320, weight= 3294, color= 3
	 item 321, weight= 3352, color= 4
	 item 322, weight= 3362, color= 1
	 item 323, weight= 3379, color= 11
	 item 324, weight= 3424, color= 2
	 item 325, weight= 3426, color= 0
	 item 326, weight= 3506, color= 5
	 item 327, weight= 3555, color= 14
	 item 328, weight= 3562, color= 0
	 item 329, weight= 3568, color= 15
	 item 330, weight= 3602, color= 15
	 item 331, weight= 3682, color= 2
	 item 332, weight= 3704, color= 6
	 item 333, weight= 3708, color= 3
	 item 334, weight= 3715, color= 11
	 item 335, weight= 3744, color= 13
	 item 336, weight= 3746, color= 8
	 item 337, weight= 3748, color= 12
	 item 338, weight= 3780, color= 15
	 item 339, weight= 3792, color= 2
	 item 340, weight= 3816, color= 7
	 item 341, weight= 3826, color= 1
	 item 342, weight= 3946, color= 9
	 item 343, weight= 3959, color= 3
	 item 344, weight= 4168, color= 6
	 item 345, weight= 4251, color= 9
	 item 346, weight= 4252, color= 2
	 item 347, weight= 4282, color= 2
	 item 348, weight= 4292, color= 0
	 item 349, weight= 4336, color= 8
	 item 350, weight= 4376, color= 1
	 item 351, weight= 4438, color= 9
	 item 352, weight= 4664, color= 9
	 item 353, weight= 4727, color= 0
	 item 354, weight= 4753, color= 16
	 item 355, weight= 4774, color= 15
	 item 356, weight= 4908, color= 19
	 item 357, weight= 4932, color= 8
	 item 358, weight= 4964, color= 9
	 item 359, weight= 4967, color= 7
	 item 360, weight= 4976, color= 4
	 item 361, weight= 5005, color= 1
	 item 362, weight= 5026, color= 14
	 item 363, weight= 5032, color= 16
	 item 364, weight= 5044, color= 7
	 item 365, weight= 5044, color= 14
	 item 366, weight= 5048, color= 13
	 item 367, weight= 5331, color= 14
	 item 368, weight= 5442, color= 7
	 item 369, weight= 5536, color= 12
	 item 370, weight= 5711, color= 2
	 item 371, weight= 5713, color= 15
	 item 372, weight= 5741, color= 0
	 item 373, weight= 5753, color= 6
	 item 374, weight= 5801, color= 12
	 item 375, weight= 5804, color= 7
	 item 376, weight= 5812, color= 2
	 item 377, weight= 5830, color= 9
	 item 378, weight= 5832, color= 4
	 item 379, weight= 5836, color= 11
	 item 380, weight= 5844, color= 5
	 item 381, weight= 5848, color= 9
	 item 382, weight= 5862, color= 16
	 item 383, weight= 5904, color= 15
	 item 384, weight= 6064, color= 10
	 item 385, weight= 6080, color= 19
	 item 386, weight= 6582, color= 15
	 item 387, weight= 6587, color= 1
	 item 388, weight= 6613, color= 6
	 item 389, weight= 6717, color= 16
	 item 390, weight= 6726, color= 8
	 item 391, weight= 6764, color= 10
	 item 392, weight= 6772, color= 4
	 item 393, weight= 6788, color= 3
	 item 394, weight= 6792, color= 9
	 item 395, weight= 6793, color= 19
	 item 396, weight= 6794, color= 15
	 item 397, weight= 6797, color= 10
	 item 398, weight= 6800, color= 15
	 item 399, weight= 6801, color= 19
	 item 400, weight= 6802, color= 10
	 item 401, weight= 6804, color= 12
	 item 402, weight= 6808, color= 16
	 item 403, weight= 7149, color= 5
	 item 404, weight= 7774, color= 11
	 item 405, weight= 8161, color= 5
	 item 406, weight= 8162, color= 17
	 item 407, weight= 8164, color= 2
	 item 408, weight= 8165, color= 5
	 item 409, weight= 8168, color= 0
	 item 410, weight= 8169, color= 12
	 item 411, weight= 8170, color= 4
	 item 412, weight= 8173, color= 11
	 item 413, weight= 8176, color= 8
	 item 414, weight= 8178, color= 0
	 item 415, weight= 8180, color= 16
	 item 416, weight= 8184, color= 18
	 item 417, weight= 8196, color= 0
	 item 418, weight= 8212, color= 16
	 item 419, weight= 8250, color= 1
	 item 420, weight= 8261, color= 2
	 item 421, weight= 8385, color= 5
	 item 422, weight= 8417, color= 10
	 item 423, weight= 9264, color= 2
	 item 424, weight= 9286, color= 11
	 item 425, weight= 9316, color= 15
	 item 426, weight= 9320, color= 14
	 item 427, weight= 9326, color= 0
	 item 428, weight= 9334, color= 14
	 item 429, weight= 9336, color= 8
	 item 430, weight= 9348, color= 0
	 item 431, weight= 9361, color= 17
	 item 432, weight= 9364, color= 11
	 item 433, weight= 9417, color= 19
	 item 434, weight= 9433, color= 5
	 item 435, weight= 9465, color= 16
	 item 436, weight= 9469, color= 11
	 item 437, weight= 9790, color= 9
	 item 438, weight= 10160, color= 13
	 item 439, weight= 10237, color= 8
	 item 440, weight= 10240, color= 15
	 item 441, weight= 10268, color= 0
	 item 442, weight= 10276, color= 13
	 item 443, weight= 10280, color= 6
	 item 444, weight= 10290, color= 8
	 item 445, weight= 10296, color= 12
	 item 446, weight= 10308, color= 8
	 item 447, weight= 10315, color= 7
	 item 448, weight= 10352, color= 19
	 item 449, weight= 10372, color= 18
	 item 450, weight= 10404, color= 1
	 item 451, weight= 10436, color= 13
	 item 452, weight= 10594, color= 0
	 item 453, weight= 10617, color= 5
	 item 454, weight= 10649, color= 5
	 item 455, weight= 10998, color= 0
	 item 456, weight= 11080, color= 14
	 item 457, weight= 11096, color= 15
	 item 458, weight= 11152, color= 8
	 item 459, weight= 11172, color= 4
	 item 460, weight= 11182, color= 8
	 item 461, weight= 11220, color= 19
	 item 462, weight= 11221, color= 5
	 item 463, weight= 11227, color= 15
	 item 464, weight= 11264, color= 2
	 item 465, weight= 11320, color= 12
	 item 466, weight= 11571, color= 12
	 item 467, weight= 11586, color= 16
	 item 468, weight= 11730, color= 2
	 item 469, weight= 11752, color= 11
	 item 470, weight= 11788, color= 12
	 item 471, weight= 11792, color= 13
	 item 472, weight= 11826, color= 10
	 item 473, weight= 11828, color= 18
	 item 474, weight= 11863, color= 11
	 item 475, weight= 11876, color= 0
	 item 476, weight= 11880, color= 18
	 item 477, weight= 11906, color= 17
	 item 478, weight= 12002, color= 6
	 item 479, weight= 12050, color= 3
	 item 480, weight= 12114, color= 7
	 item 481, weight= 12163, color= 3
	 item 482, weight= 12210, color= 3
	 item 483, weight= 12267, color= 17
	 item 484, weight= 12290, color= 16
	 item 485, weight= 12312, color= 8
	 item 486, weight= 12336, color= 15
	 item 487, weight= 12370, color= 7
	 item 488, weight= 12372, color= 3
	 item 489, weight= 12428, color= 2
	 item 490, weight= 12440, color= 6
	 item 491, weight= 12443, color= 10
	 item 492, weight= 12460, color= 15
	 item 493, weight= 12560, color= 4
	 item 494, weight= 12647, color= 11
	 item 495, weight= 12694, color= 5
	 item 496, weight= 12774, color= 9
	 item 497, weight= 12776, color= 0
	 item 498, weight= 12790, color= 19
	 item 499, weight= 12806, color= 10
	 item 500, weight= 12825, color= 17
	 item 501, weight= 12836, color= 18
	 item 502, weight= 12860, color= 4
	 item 503, weight= 12888, color= 16
	 item 504, weight= 12965, color= 6
	 item 505, weight= 12976, color= 18
	 item 506, weight= 13016, color= 1
	 item 507, weight= 13081, color= 7
	 item 508, weight= 13094, color= 1
	 item 509, weight= 13172, color= 6
	 item 510, weight= 13177, color= 18
	 item 511, weight= 13178, color= 11
	 item 512, weight= 13201, color= 13
	 item 513, weight= 13220, color= 11
	 item 514, weight= 13256, color= 11
	 item 515, weight= 13328, color= 18
	 item 516, weight= 13329, color= 6
	 item 517, weight= 13334, color= 6
	 item 518, weight= 13361, color= 14
	 item 519, weight= 13384, color= 1
	 item 520, weight= 13402, color= 18
	 item 521, weight= 13434, color= 18
	 item 522, weight= 13452, color= 5
	 item 523, weight= 13481, color= 16
	 item 524, weight= 13500, color= 11
	 item 525, weight= 13552, color= 14
	 item 526, weight= 13563, color= 19
	 item 527, weight= 13583, color= 1
	 item 528, weight= 13590, color= 9
	 item 529, weight= 13646, color= 1
	 item 530, weight= 13653, color= 19
	 item 531, weight= 13672, color= 3
	 item 532, weight= 13684, color= 12
	 item 533, weight= 13694, color= 15
	 item 534, weight= 13718, color= 8
	 item 535, weight= 13724, color= 9
	 item 536, weight= 13771, color= 9
	 item 537, weight= 13800, color= 1
	 item 538, weight= 13808, color= 13
	 item 539, weight= 13837, color= 18
	 item 540, weight= 13876, color= 18
	 item 541, weight= 13890, color= 18
	 item 542, weight= 13895, color= 4
	 item 543, weight= 13897, color= 2
	 item 544, weight= 13912, color= 10
	 item 545, weight= 13916, color= 15
	 item 546, weight= 13918, color= 17
	 item 547, weight= 13929, color= 4
	 item 548, weight= 13985, color= 18
	 item 549, weight= 13986, color= 11
	 item 550, weight= 14032, color= 12
	 item 551, weight= 14036, color= 6
	 item 552, weight= 14040, color= 12
	 item 553, weight= 14050, color= 16
	 item 554, weight= 14073, color= 1
	 item 555, weight= 14132, color= 1
	 item 556, weight= 14134, color= 3
	 item 557, weight= 14136, color= 2
	 item 558, weight= 14164, color= 12
	 item 559, weight= 14166, color= 15
	 item 560, weight= 14174, color= 15
	 item 561, weight= 14182, color= 4
	 item 562, weight= 14185, color= 3
	 item 563, weight= 14214, color= 12
	 item 564, weight= 14230, color= 8
	 item 565, weight= 14246, color= 5
	 item 566, weight= 14265, color= 16
	 item 567, weight= 14269, color= 9
	 item 568, weight= 14272, color= 11
	 item 569, weight= 14296, color= 10
	 item 570, weight= 14300, color= 1
	 item 571, weight= 14320, color= 13
	 item 572, weight= 14324, color= 13
	 item 573, weight= 14326, color= 16
	 item 574, weight= 14333, color= 10
	 item 575, weight= 14358, color= 4
	 item 576, weight= 14365, color= 16
	 item 577, weight= 14372, color= 19
	 item 578, weight= 14390, color= 4
	 item 579, weight= 14404, color= 7
	 item 580, weight= 14421, color= 4
	 item 581, weight= 14424, color= 10
	 item 582, weight= 14436, color= 10
	 item 583, weight= 14446, color= 12
	 item 584, weight= 14448, color= 7
	 item 585, weight= 14463, color= 18
	 item 586, weight= 14468, color= 17
	 item 587, weight= 14495, color= 14
	 item 588, weight= 14501, color= 13
	 item 589, weight= 14520, color= 15
	 item 590, weight= 14532, color= 1
	 item 591, weight= 14533, color= 8
	 item 592, weight= 14570, color= 4
	 item 593, weight= 14580, color= 15
	 item 594, weight= 14597, color= 19
	 item 595, weight= 14616, color= 13
	 item 596, weight= 14622, color= 19
	 item 597, weight= 14628, color= 5
	 item 598, weight= 14668, color= 18
	 item 599, weight= 14670, color= 17
	 item 600, weight= 14672, color= 2
	 item 601, weight= 14681, color= 9

VRPSolver warning: Interval set for resource 1 on source node (when source != sink) is ignored (by definition is [0.0,0.0])
VRPSolver warning: Interval set for resource 2 on source node (when source != sink) is ignored (by definition is [0.0,0.0])
VRPSolver warning: Interval set for resource 3 on source node (when source != sink) is ignored (by definition is [0.0,0.0])
VRPSolver warning: Interval set for resource 4 on source node (when source != sink) is ignored (by definition is [0.0,0.0])
VRPSolver warning: Interval set for resource 5 on source node (when source != sink) is ignored (by definition is [0.0,0.0])
VRPSolver warning: Interval set for resource 6 on source node (when source != sink) is ignored (by definition is [0.0,0.0])
VRPSolver warning: Interval set for resource 7 on source node (when source != sink) is ignored (by definition is [0.0,0.0])
VRPSolver warning: Interval set for resource 8 on source node (when source != sink) is ignored (by definition is [0.0,0.0])
VRPSolver warning: Interval set for resource 9 on source node (when source != sink) is ignored (by definition is [0.0,0.0])
VRPSolver warning: Interval set for resource 10 on source node (when source != sink) is ignored (by definition is [0.0,0.0])
VRPSolver warning: Interval set for resource 11 on source node (when source != sink) is ignored (by definition is [0.0,0.0])
VRPSolver warning: Interval set for resource 12 on source node (when source != sink) is ignored (by definition is [0.0,0.0])
VRPSolver warning: Interval set for resource 13 on source node (when source != sink) is ignored (by definition is [0.0,0.0])
VRPSolver warning: Interval set for resource 14 on source node (when source != sink) is ignored (by definition is [0.0,0.0])
VRPSolver warning: Interval set for resource 15 on source node (when source != sink) is ignored (by definition is [0.0,0.0])
VRPSolver warning: Interval set for resource 16 on source node (when source != sink) is ignored (by definition is [0.0,0.0])
VRPSolver warning: Interval set for resource 17 on source node (when source != sink) is ignored (by definition is [0.0,0.0])
VRPSolver warning: Interval set for resource 18 on source node (when source != sink) is ignored (by definition is [0.0,0.0])
VRPSolver warning: Interval set for resource 19 on source node (when source != sink) is ignored (by definition is [0.0,0.0])
VRPSolver warning: Interval set for resource 20 on source node (when source != sink) is ignored (by definition is [0.0,0.0])
VRPSolver warning: Interval set for resource 21 on source node (when source != sink) is ignored (by definition is [0.0,0.0])
[41m solve [00m
~~~~~~~~~~~~~~~~~~~~~~~~~~~~~~~~~~~~~~~~~~~~~~~~~~~~~~~~~~~~~~~~~~~~~~~~~~~~~~
VRPSolver v0.4.1, 24/03/2021. Web: vrpsolver.math.u-bordeaux.fr
Corresponds to the solver by Pessoa, Sadykov, Uchoa and Vanderbeck (2020)
Paper: dx.doi.org/10.1007/s10107-020-01523-z
USE THIS CODE ONLY FOR ACADEMIC PURPOSES AT YOUR OWN RISK
~~~~~~~~~~~~~~~~~~~~~~~~~~~~~~~~~~~~~~~~~~~~~~~~~~~~~~~~~~~~~~~~~~~~~~~~~~~~~~
BaPCod v053, 24/03/2021, © Inria Bordeaux, France
~~~~~~~~~~~~~~~~~~~~~~~~~~~~~~~~~~~~~~~~~~~~~~~~~~~~~~~~~~~~~~~~~~~~~~~~~~~~~~
VRPSolver parameters:
GlobalTimeLimit = 60
MaxNbOfBBtreeNodeTreated = 100000
treeSearchStrategy = 1
RCSPstopCutGenTimeThresholdInPricing = 10
RCSPhardTimeThresholdInPricing = 20
RCSPnumberOfBucketsPerVertex = 2000
RCSPdynamicBucketSteps = 0
RCSPuseBidirectionalSearch = 1
RCSPapplyReducedCostFixing = 1
RCSPredCostFixingFalseGap = 0
RCSPmaxNumOfColsPerIteration = 100
RCSPmaxNumOfColsPerExactIteration = 100
RCSPheurLabelingStrategy = 4
StabilizationMinPhaseOfStage = 1
RCSPmaxNumOfLabelsInEnumeration = 100000
RCSPmaxNumOfEnumeratedSolutions = 1000000
RCSPmaxNumOfEnumSolutionsForMIP = 100000
RCSPinitNGneighbourhoodSize = 0
RCSPmaxNGneighbourhoodSize = 0
RCSPrankOneCutsMaxNumPerRound = 100
RCSPrankOneCutsMaxNumRows = -1
RCSPrankOneCutsMemoryType = 2
CutTailingOffThreshold = 0.02
CutTailingOffCounterThreshold = 3
SafeDualBoundScaleFactor = -1
StrongBranchingPhaseOneCandidatesNumber = 100
StrongBranchingPhaseOneTreeSizeEstimRatio = 0.3
StrongBranchingPhaseTwoCandidatesNumber = 1
StrongBranchingPhaseTwoTreeSizeEstimRatio = 0.1
MaxTimeForRestrictedMasterIpHeur = -1
DivingHeurUseDepthLimit = 0
MaxLDSbreadth = 3
MaxLDSdepth = 2
New model incumbent solution 1e+06, TIME = 0h0m0s3t = 3
