Application parameters:
  batch  =>  nothing
  instance  =>  "/IN/600_20000_DI_15.txt-Q20"
  ub  =>  1.0e6
  cfg  =>  "/CFG/BPP.cfg"
data = Colored Bin Packing dataset.
number of items = 601
number of colors = 20
capacity = 16384
Items : 
	 item 1, weight= 64, color= 3
	 item 2, weight= 70, color= 1
	 item 3, weight= 80, color= 16
	 item 4, weight= 90, color= 14
	 item 5, weight= 96, color= 18
	 item 6, weight= 144, color= 3
	 item 7, weight= 144, color= 5
	 item 8, weight= 208, color= 0
	 item 9, weight= 216, color= 19
	 item 10, weight= 224, color= 5
	 item 11, weight= 240, color= 13
	 item 12, weight= 240, color= 13
	 item 13, weight= 272, color= 1
	 item 14, weight= 272, color= 8
	 item 15, weight= 272, color= 13
	 item 16, weight= 280, color= 17
	 item 17, weight= 284, color= 4
	 item 18, weight= 284, color= 6
	 item 19, weight= 284, color= 9
	 item 20, weight= 288, color= 0
	 item 21, weight= 288, color= 4
	 item 22, weight= 288, color= 8
	 item 23, weight= 288, color= 13
	 item 24, weight= 292, color= 11
	 item 25, weight= 296, color= 10
	 item 26, weight= 304, color= 4
	 item 27, weight= 304, color= 10
	 item 28, weight= 304, color= 11
	 item 29, weight= 304, color= 11
	 item 30, weight= 304, color= 18
	 item 31, weight= 312, color= 2
	 item 32, weight= 312, color= 9
	 item 33, weight= 312, color= 11
	 item 34, weight= 312, color= 14
	 item 35, weight= 320, color= 8
	 item 36, weight= 320, color= 17
	 item 37, weight= 324, color= 8
	 item 38, weight= 328, color= 1
	 item 39, weight= 328, color= 10
	 item 40, weight= 336, color= 5
	 item 41, weight= 336, color= 9
	 item 42, weight= 336, color= 15
	 item 43, weight= 336, color= 16
	 item 44, weight= 336, color= 18
	 item 45, weight= 344, color= 13
	 item 46, weight= 346, color= 7
	 item 47, weight= 348, color= 17
	 item 48, weight= 350, color= 1
	 item 49, weight= 352, color= 11
	 item 50, weight= 352, color= 15
	 item 51, weight= 352, color= 19
	 item 52, weight= 356, color= 4
	 item 53, weight= 366, color= 9
	 item 54, weight= 368, color= 13
	 item 55, weight= 368, color= 19
	 item 56, weight= 372, color= 5
	 item 57, weight= 372, color= 6
	 item 58, weight= 376, color= 19
	 item 59, weight= 380, color= 5
	 item 60, weight= 384, color= 1
	 item 61, weight= 384, color= 11
	 item 62, weight= 388, color= 0
	 item 63, weight= 392, color= 13
	 item 64, weight= 396, color= 17
	 item 65, weight= 396, color= 19
	 item 66, weight= 400, color= 4
	 item 67, weight= 400, color= 7
	 item 68, weight= 400, color= 19
	 item 69, weight= 408, color= 14
	 item 70, weight= 414, color= 12
	 item 71, weight= 416, color= 16
	 item 72, weight= 424, color= 3
	 item 73, weight= 424, color= 7
	 item 74, weight= 424, color= 10
	 item 75, weight= 428, color= 5
	 item 76, weight= 432, color= 11
	 item 77, weight= 434, color= 10
	 item 78, weight= 440, color= 10
	 item 79, weight= 444, color= 5
	 item 80, weight= 444, color= 9
	 item 81, weight= 444, color= 14
	 item 82, weight= 448, color= 3
	 item 83, weight= 448, color= 19
	 item 84, weight= 452, color= 9
	 item 85, weight= 456, color= 9
	 item 86, weight= 460, color= 16
	 item 87, weight= 464, color= 3
	 item 88, weight= 476, color= 13
	 item 89, weight= 480, color= 17
	 item 90, weight= 484, color= 10
	 item 91, weight= 484, color= 17
	 item 92, weight= 488, color= 7
	 item 93, weight= 488, color= 14
	 item 94, weight= 492, color= 3
	 item 95, weight= 496, color= 7
	 item 96, weight= 496, color= 8
	 item 97, weight= 496, color= 12
	 item 98, weight= 502, color= 17
	 item 99, weight= 512, color= 1
	 item 100, weight= 512, color= 14
	 item 101, weight= 520, color= 2
	 item 102, weight= 526, color= 14
	 item 103, weight= 528, color= 5
	 item 104, weight= 528, color= 6
	 item 105, weight= 530, color= 2
	 item 106, weight= 536, color= 13
	 item 107, weight= 544, color= 1
	 item 108, weight= 544, color= 2
	 item 109, weight= 552, color= 18
	 item 110, weight= 554, color= 15
	 item 111, weight= 560, color= 12
	 item 112, weight= 568, color= 15
	 item 113, weight= 570, color= 17
	 item 114, weight= 582, color= 11
	 item 115, weight= 592, color= 0
	 item 116, weight= 596, color= 6
	 item 117, weight= 596, color= 19
	 item 118, weight= 596, color= 19
	 item 119, weight= 600, color= 7
	 item 120, weight= 608, color= 5
	 item 121, weight= 608, color= 7
	 item 122, weight= 616, color= 3
	 item 123, weight= 616, color= 12
	 item 124, weight= 618, color= 3
	 item 125, weight= 640, color= 11
	 item 126, weight= 640, color= 14
	 item 127, weight= 656, color= 1
	 item 128, weight= 660, color= 12
	 item 129, weight= 664, color= 13
	 item 130, weight= 668, color= 4
	 item 131, weight= 672, color= 11
	 item 132, weight= 672, color= 15
	 item 133, weight= 680, color= 9
	 item 134, weight= 688, color= 0
	 item 135, weight= 688, color= 6
	 item 136, weight= 688, color= 12
	 item 137, weight= 704, color= 16
	 item 138, weight= 736, color= 11
	 item 139, weight= 744, color= 5
	 item 140, weight= 744, color= 12
	 item 141, weight= 746, color= 3
	 item 142, weight= 746, color= 8
	 item 143, weight= 748, color= 15
	 item 144, weight= 750, color= 19
	 item 145, weight= 750, color= 19
	 item 146, weight= 752, color= 9
	 item 147, weight= 756, color= 12
	 item 148, weight= 760, color= 15
	 item 149, weight= 762, color= 14
	 item 150, weight= 764, color= 7
	 item 151, weight= 768, color= 5
	 item 152, weight= 776, color= 6
	 item 153, weight= 776, color= 6
	 item 154, weight= 784, color= 1
	 item 155, weight= 832, color= 0
	 item 156, weight= 834, color= 12
	 item 157, weight= 856, color= 10
	 item 158, weight= 860, color= 1
	 item 159, weight= 860, color= 9
	 item 160, weight= 860, color= 14
	 item 161, weight= 864, color= 4
	 item 162, weight= 864, color= 18
	 item 163, weight= 880, color= 3
	 item 164, weight= 880, color= 6
	 item 165, weight= 888, color= 4
	 item 166, weight= 908, color= 10
	 item 167, weight= 912, color= 3
	 item 168, weight= 928, color= 4
	 item 169, weight= 932, color= 11
	 item 170, weight= 934, color= 3
	 item 171, weight= 946, color= 8
	 item 172, weight= 976, color= 11
	 item 173, weight= 1008, color= 3
	 item 174, weight= 1008, color= 7
	 item 175, weight= 1016, color= 3
	 item 176, weight= 1016, color= 9
	 item 177, weight= 1024, color= 3
	 item 178, weight= 1036, color= 18
	 item 179, weight= 1040, color= 7
	 item 180, weight= 1048, color= 14
	 item 181, weight= 1052, color= 0
	 item 182, weight= 1088, color= 13
	 item 183, weight= 1124, color= 0
	 item 184, weight= 1136, color= 8
	 item 185, weight= 1144, color= 0
	 item 186, weight= 1152, color= 1
	 item 187, weight= 1162, color= 16
	 item 188, weight= 1168, color= 18
	 item 189, weight= 1176, color= 6
	 item 190, weight= 1176, color= 11
	 item 191, weight= 1180, color= 6
	 item 192, weight= 1206, color= 3
	 item 193, weight= 1264, color= 6
	 item 194, weight= 1280, color= 5
	 item 195, weight= 1288, color= 15
	 item 196, weight= 1328, color= 16
	 item 197, weight= 1360, color= 1
	 item 198, weight= 1360, color= 11
	 item 199, weight= 1360, color= 15
	 item 200, weight= 1364, color= 1
	 item 201, weight= 1364, color= 4
	 item 202, weight= 1364, color= 15
	 item 203, weight= 1382, color= 10
	 item 204, weight= 1404, color= 8
	 item 205, weight= 1408, color= 0
	 item 206, weight= 1426, color= 13
	 item 207, weight= 1428, color= 4
	 item 208, weight= 1434, color= 11
	 item 209, weight= 1448, color= 6
	 item 210, weight= 1476, color= 7
	 item 211, weight= 1480, color= 12
	 item 212, weight= 1482, color= 8
	 item 213, weight= 1508, color= 7
	 item 214, weight= 1516, color= 8
	 item 215, weight= 1522, color= 0
	 item 216, weight= 1526, color= 19
	 item 217, weight= 1528, color= 3
	 item 218, weight= 1548, color= 6
	 item 219, weight= 1576, color= 4
	 item 220, weight= 1578, color= 15
	 item 221, weight= 1582, color= 4
	 item 222, weight= 1588, color= 7
	 item 223, weight= 1604, color= 7
	 item 224, weight= 1624, color= 16
	 item 225, weight= 1626, color= 15
	 item 226, weight= 1640, color= 17
	 item 227, weight= 1668, color= 14
	 item 228, weight= 1671, color= 6
	 item 229, weight= 1690, color= 5
	 item 230, weight= 1694, color= 5
	 item 231, weight= 1704, color= 11
	 item 232, weight= 1716, color= 5
	 item 233, weight= 1733, color= 6
	 item 234, weight= 1740, color= 11
	 item 235, weight= 1745, color= 0
	 item 236, weight= 1752, color= 1
	 item 237, weight= 1753, color= 2
	 item 238, weight= 1770, color= 19
	 item 239, weight= 1771, color= 19
	 item 240, weight= 1782, color= 0
	 item 241, weight= 1832, color= 4
	 item 242, weight= 1841, color= 0
	 item 243, weight= 1848, color= 16
	 item 244, weight= 1861, color= 10
	 item 245, weight= 1868, color= 14
	 item 246, weight= 1874, color= 11
	 item 247, weight= 1901, color= 1
	 item 248, weight= 1924, color= 7
	 item 249, weight= 1928, color= 2
	 item 250, weight= 1942, color= 19
	 item 251, weight= 1951, color= 5
	 item 252, weight= 1970, color= 8
	 item 253, weight= 1982, color= 13
	 item 254, weight= 1998, color= 4
	 item 255, weight= 2005, color= 0
	 item 256, weight= 2016, color= 17
	 item 257, weight= 2036, color= 8
	 item 258, weight= 2044, color= 8
	 item 259, weight= 2056, color= 16
	 item 260, weight= 2071, color= 15
	 item 261, weight= 2073, color= 8
	 item 262, weight= 2120, color= 9
	 item 263, weight= 2130, color= 16
	 item 264, weight= 2140, color= 8
	 item 265, weight= 2145, color= 11
	 item 266, weight= 2171, color= 19
	 item 267, weight= 2203, color= 16
	 item 268, weight= 2222, color= 11
	 item 269, weight= 2230, color= 0
	 item 270, weight= 2238, color= 10
	 item 271, weight= 2248, color= 1
	 item 272, weight= 2260, color= 2
	 item 273, weight= 2265, color= 16
	 item 274, weight= 2268, color= 16
	 item 275, weight= 2290, color= 14
	 item 276, weight= 2305, color= 12
	 item 277, weight= 2324, color= 12
	 item 278, weight= 2352, color= 11
	 item 279, weight= 2360, color= 3
	 item 280, weight= 2387, color= 3
	 item 281, weight= 2418, color= 2
	 item 282, weight= 2422, color= 9
	 item 283, weight= 2430, color= 18
	 item 284, weight= 2451, color= 14
	 item 285, weight= 2462, color= 6
	 item 286, weight= 2480, color= 16
	 item 287, weight= 2516, color= 19
	 item 288, weight= 2517, color= 14
	 item 289, weight= 2524, color= 3
	 item 290, weight= 2568, color= 17
	 item 291, weight= 2576, color= 4
	 item 292, weight= 2584, color= 2
	 item 293, weight= 2607, color= 5
	 item 294, weight= 2633, color= 4
	 item 295, weight= 2650, color= 4
	 item 296, weight= 2661, color= 9
	 item 297, weight= 2694, color= 1
	 item 298, weight= 2702, color= 15
	 item 299, weight= 2763, color= 1
	 item 300, weight= 2764, color= 14
	 item 301, weight= 2772, color= 13
	 item 302, weight= 2808, color= 4
	 item 303, weight= 2820, color= 7
	 item 304, weight= 2851, color= 10
	 item 305, weight= 2857, color= 15
	 item 306, weight= 2862, color= 5
	 item 307, weight= 2917, color= 19
	 item 308, weight= 2974, color= 0
	 item 309, weight= 2986, color= 11
	 item 310, weight= 2994, color= 0
	 item 311, weight= 3002, color= 16
	 item 312, weight= 3010, color= 3
	 item 313, weight= 3068, color= 7
	 item 314, weight= 3087, color= 19
	 item 315, weight= 3097, color= 16
	 item 316, weight= 3104, color= 11
	 item 317, weight= 3112, color= 5
	 item 318, weight= 3124, color= 0
	 item 319, weight= 3144, color= 13
	 item 320, weight= 3153, color= 6
	 item 321, weight= 3256, color= 8
	 item 322, weight= 3288, color= 16
	 item 323, weight= 3334, color= 14
	 item 324, weight= 3341, color= 5
	 item 325, weight= 3346, color= 8
	 item 326, weight= 3416, color= 18
	 item 327, weight= 3439, color= 18
	 item 328, weight= 3444, color= 18
	 item 329, weight= 3451, color= 14
	 item 330, weight= 3476, color= 1
	 item 331, weight= 3500, color= 18
	 item 332, weight= 3548, color= 4
	 item 333, weight= 3608, color= 13
	 item 334, weight= 3704, color= 12
	 item 335, weight= 3727, color= 6
	 item 336, weight= 3730, color= 13
	 item 337, weight= 3733, color= 18
	 item 338, weight= 3741, color= 11
	 item 339, weight= 3742, color= 19
	 item 340, weight= 3753, color= 15
	 item 341, weight= 3761, color= 13
	 item 342, weight= 3798, color= 13
	 item 343, weight= 3806, color= 17
	 item 344, weight= 3821, color= 19
	 item 345, weight= 3825, color= 10
	 item 346, weight= 3832, color= 15
	 item 347, weight= 3868, color= 2
	 item 348, weight= 3908, color= 5
	 item 349, weight= 3912, color= 13
	 item 350, weight= 3924, color= 1
	 item 351, weight= 3924, color= 10
	 item 352, weight= 4171, color= 19
	 item 353, weight= 4177, color= 2
	 item 354, weight= 4290, color= 8
	 item 355, weight= 4302, color= 16
	 item 356, weight= 4310, color= 15
	 item 357, weight= 4318, color= 6
	 item 358, weight= 4376, color= 13
	 item 359, weight= 4392, color= 9
	 item 360, weight= 4444, color= 8
	 item 361, weight= 4452, color= 6
	 item 362, weight= 4550, color= 18
	 item 363, weight= 4632, color= 18
	 item 364, weight= 4671, color= 1
	 item 365, weight= 4677, color= 8
	 item 366, weight= 4696, color= 1
	 item 367, weight= 4737, color= 15
	 item 368, weight= 4791, color= 8
	 item 369, weight= 4914, color= 15
	 item 370, weight= 5000, color= 14
	 item 371, weight= 5080, color= 4
	 item 372, weight= 5084, color= 7
	 item 373, weight= 5092, color= 14
	 item 374, weight= 5102, color= 19
	 item 375, weight= 5124, color= 10
	 item 376, weight= 5194, color= 14
	 item 377, weight= 5249, color= 11
	 item 378, weight= 5271, color= 7
	 item 379, weight= 5288, color= 9
	 item 380, weight= 5528, color= 10
	 item 381, weight= 5704, color= 10
	 item 382, weight= 5738, color= 5
	 item 383, weight= 5768, color= 10
	 item 384, weight= 5852, color= 1
	 item 385, weight= 5892, color= 11
	 item 386, weight= 5908, color= 5
	 item 387, weight= 5911, color= 15
	 item 388, weight= 5966, color= 2
	 item 389, weight= 6005, color= 5
	 item 390, weight= 6033, color= 18
	 item 391, weight= 6176, color= 19
	 item 392, weight= 6360, color= 11
	 item 393, weight= 6462, color= 0
	 item 394, weight= 6480, color= 15
	 item 395, weight= 6712, color= 18
	 item 396, weight= 6775, color= 4
	 item 397, weight= 6820, color= 1
	 item 398, weight= 6824, color= 0
	 item 399, weight= 6825, color= 5
	 item 400, weight= 6826, color= 4
	 item 401, weight= 6827, color= 16
	 item 402, weight= 6828, color= 9
	 item 403, weight= 7104, color= 17
	 item 404, weight= 7522, color= 12
	 item 405, weight= 8080, color= 0
	 item 406, weight= 8193, color= 0
	 item 407, weight= 8194, color= 5
	 item 408, weight= 8195, color= 19
	 item 409, weight= 8196, color= 0
	 item 410, weight= 8200, color= 18
	 item 411, weight= 8202, color= 9
	 item 412, weight= 8204, color= 9
	 item 413, weight= 8344, color= 8
	 item 414, weight= 8624, color= 4
	 item 415, weight= 8634, color= 0
	 item 416, weight= 8760, color= 11
	 item 417, weight= 9145, color= 8
	 item 418, weight= 9217, color= 8
	 item 419, weight= 9225, color= 17
	 item 420, weight= 9293, color= 5
	 item 421, weight= 9294, color= 19
	 item 422, weight= 9300, color= 0
	 item 423, weight= 9316, color= 6
	 item 424, weight= 9364, color= 12
	 item 425, weight= 9464, color= 9
	 item 426, weight= 9502, color= 9
	 item 427, weight= 9544, color= 9
	 item 428, weight= 9768, color= 5
	 item 429, weight= 10056, color= 5
	 item 430, weight= 10061, color= 10
	 item 431, weight= 10087, color= 4
	 item 432, weight= 10154, color= 14
	 item 433, weight= 10236, color= 11
	 item 434, weight= 10266, color= 18
	 item 435, weight= 10276, color= 11
	 item 436, weight= 10292, color= 0
	 item 437, weight= 10296, color= 10
	 item 438, weight= 10696, color= 12
	 item 439, weight= 10701, color= 4
	 item 440, weight= 10760, color= 3
	 item 441, weight= 10773, color= 3
	 item 442, weight= 10781, color= 19
	 item 443, weight= 10840, color= 18
	 item 444, weight= 10926, color= 4
	 item 445, weight= 10942, color= 13
	 item 446, weight= 11044, color= 15
	 item 447, weight= 11060, color= 9
	 item 448, weight= 11128, color= 2
	 item 449, weight= 11144, color= 1
	 item 450, weight= 11206, color= 9
	 item 451, weight= 11214, color= 8
	 item 452, weight= 11222, color= 2
	 item 453, weight= 11238, color= 12
	 item 454, weight= 11301, color= 1
	 item 455, weight= 11373, color= 15
	 item 456, weight= 11381, color= 8
	 item 457, weight= 11676, color= 11
	 item 458, weight= 11684, color= 0
	 item 459, weight= 11700, color= 18
	 item 460, weight= 11748, color= 10
	 item 461, weight= 11795, color= 15
	 item 462, weight= 11800, color= 18
	 item 463, weight= 11801, color= 1
	 item 464, weight= 11818, color= 17
	 item 465, weight= 11830, color= 18
	 item 466, weight= 11873, color= 9
	 item 467, weight= 11881, color= 12
	 item 468, weight= 11894, color= 17
	 item 469, weight= 11897, color= 11
	 item 470, weight= 11905, color= 10
	 item 471, weight= 11910, color= 14
	 item 472, weight= 11913, color= 5
	 item 473, weight= 11944, color= 19
	 item 474, weight= 12072, color= 7
	 item 475, weight= 12152, color= 5
	 item 476, weight= 12220, color= 7
	 item 477, weight= 12245, color= 1
	 item 478, weight= 12260, color= 11
	 item 479, weight= 12276, color= 11
	 item 480, weight= 12296, color= 19
	 item 481, weight= 12375, color= 8
	 item 482, weight= 12386, color= 14
	 item 483, weight= 12398, color= 10
	 item 484, weight= 12440, color= 15
	 item 485, weight= 12488, color= 18
	 item 486, weight= 12521, color= 6
	 item 487, weight= 12628, color= 5
	 item 488, weight= 12644, color= 2
	 item 489, weight= 12669, color= 1
	 item 490, weight= 12677, color= 2
	 item 491, weight= 12681, color= 0
	 item 492, weight= 12708, color= 17
	 item 493, weight= 12774, color= 18
	 item 494, weight= 12786, color= 7
	 item 495, weight= 12794, color= 5
	 item 496, weight= 12802, color= 13
	 item 497, weight= 12818, color= 2
	 item 498, weight= 12840, color= 5
	 item 499, weight= 12885, color= 18
	 item 500, weight= 12936, color= 8
	 item 501, weight= 12957, color= 6
	 item 502, weight= 12965, color= 18
	 item 503, weight= 13004, color= 1
	 item 504, weight= 13032, color= 7
	 item 505, weight= 13060, color= 13
	 item 506, weight= 13076, color= 12
	 item 507, weight= 13146, color= 7
	 item 508, weight= 13184, color= 4
	 item 509, weight= 13193, color= 11
	 item 510, weight= 13198, color= 13
	 item 511, weight= 13206, color= 9
	 item 512, weight= 13225, color= 3
	 item 513, weight= 13257, color= 8
	 item 514, weight= 13288, color= 6
	 item 515, weight= 13296, color= 8
	 item 516, weight= 13320, color= 2
	 item 517, weight= 13364, color= 9
	 item 518, weight= 13365, color= 3
	 item 519, weight= 13372, color= 12
	 item 520, weight= 13426, color= 3
	 item 521, weight= 13434, color= 16
	 item 522, weight= 13445, color= 17
	 item 523, weight= 13470, color= 16
	 item 524, weight= 13478, color= 9
	 item 525, weight= 13486, color= 6
	 item 526, weight= 13521, color= 8
	 item 527, weight= 13551, color= 17
	 item 528, weight= 13560, color= 4
	 item 529, weight= 13604, color= 7
	 item 530, weight= 13619, color= 1
	 item 531, weight= 13667, color= 14
	 item 532, weight= 13668, color= 13
	 item 533, weight= 13688, color= 17
	 item 534, weight= 13702, color= 7
	 item 535, weight= 13710, color= 0
	 item 536, weight= 13718, color= 7
	 item 537, weight= 13741, color= 16
	 item 538, weight= 13766, color= 1
	 item 539, weight= 13779, color= 0
	 item 540, weight= 13811, color= 15
	 item 541, weight= 13820, color= 7
	 item 542, weight= 13830, color= 17
	 item 543, weight= 13848, color= 13
	 item 544, weight= 13884, color= 0
	 item 545, weight= 13899, color= 2
	 item 546, weight= 13928, color= 10
	 item 547, weight= 13932, color= 6
	 item 548, weight= 13948, color= 13
	 item 549, weight= 13979, color= 4
	 item 550, weight= 13990, color= 5
	 item 551, weight= 14006, color= 1
	 item 552, weight= 14022, color= 4
	 item 553, weight= 14045, color= 15
	 item 554, weight= 14072, color= 3
	 item 555, weight= 14084, color= 15
	 item 556, weight= 14103, color= 10
	 item 557, weight= 14138, color= 6
	 item 558, weight= 14148, color= 7
	 item 559, weight= 14151, color= 9
	 item 560, weight= 14168, color= 6
	 item 561, weight= 14177, color= 12
	 item 562, weight= 14200, color= 10
	 item 563, weight= 14202, color= 18
	 item 564, weight= 14221, color= 14
	 item 565, weight= 14246, color= 10
	 item 566, weight= 14261, color= 3
	 item 567, weight= 14262, color= 5
	 item 568, weight= 14281, color= 19
	 item 569, weight= 14291, color= 15
	 item 570, weight= 14296, color= 15
	 item 571, weight= 14300, color= 10
	 item 572, weight= 14305, color= 0
	 item 573, weight= 14332, color= 3
	 item 574, weight= 14344, color= 6
	 item 575, weight= 14354, color= 9
	 item 576, weight= 14358, color= 5
	 item 577, weight= 14388, color= 9
	 item 578, weight= 14424, color= 4
	 item 579, weight= 14429, color= 10
	 item 580, weight= 14434, color= 8
	 item 581, weight= 14468, color= 3
	 item 582, weight= 14484, color= 2
	 item 583, weight= 14490, color= 4
	 item 584, weight= 14494, color= 19
	 item 585, weight= 14504, color= 8
	 item 586, weight= 14532, color= 13
	 item 587, weight= 14554, color= 18
	 item 588, weight= 14558, color= 15
	 item 589, weight= 14568, color= 13
	 item 590, weight= 14606, color= 12
	 item 591, weight= 14616, color= 11
	 item 592, weight= 14620, color= 3
	 item 593, weight= 14648, color= 12
	 item 594, weight= 14660, color= 9
	 item 595, weight= 14666, color= 14
	 item 596, weight= 14674, color= 7
	 item 597, weight= 14676, color= 18
	 item 598, weight= 14696, color= 10
	 item 599, weight= 14708, color= 7
	 item 600, weight= 14724, color= 11
	 item 601, weight= 14730, color= 6

VRPSolver warning: Interval set for resource 1 on source node (when source != sink) is ignored (by definition is [0.0,0.0])
VRPSolver warning: Interval set for resource 2 on source node (when source != sink) is ignored (by definition is [0.0,0.0])
VRPSolver warning: Interval set for resource 3 on source node (when source != sink) is ignored (by definition is [0.0,0.0])
VRPSolver warning: Interval set for resource 4 on source node (when source != sink) is ignored (by definition is [0.0,0.0])
VRPSolver warning: Interval set for resource 5 on source node (when source != sink) is ignored (by definition is [0.0,0.0])
VRPSolver warning: Interval set for resource 6 on source node (when source != sink) is ignored (by definition is [0.0,0.0])
VRPSolver warning: Interval set for resource 7 on source node (when source != sink) is ignored (by definition is [0.0,0.0])
VRPSolver warning: Interval set for resource 8 on source node (when source != sink) is ignored (by definition is [0.0,0.0])
VRPSolver warning: Interval set for resource 9 on source node (when source != sink) is ignored (by definition is [0.0,0.0])
VRPSolver warning: Interval set for resource 10 on source node (when source != sink) is ignored (by definition is [0.0,0.0])
VRPSolver warning: Interval set for resource 11 on source node (when source != sink) is ignored (by definition is [0.0,0.0])
VRPSolver warning: Interval set for resource 12 on source node (when source != sink) is ignored (by definition is [0.0,0.0])
VRPSolver warning: Interval set for resource 13 on source node (when source != sink) is ignored (by definition is [0.0,0.0])
VRPSolver warning: Interval set for resource 14 on source node (when source != sink) is ignored (by definition is [0.0,0.0])
VRPSolver warning: Interval set for resource 15 on source node (when source != sink) is ignored (by definition is [0.0,0.0])
VRPSolver warning: Interval set for resource 16 on source node (when source != sink) is ignored (by definition is [0.0,0.0])
VRPSolver warning: Interval set for resource 17 on source node (when source != sink) is ignored (by definition is [0.0,0.0])
VRPSolver warning: Interval set for resource 18 on source node (when source != sink) is ignored (by definition is [0.0,0.0])
VRPSolver warning: Interval set for resource 19 on source node (when source != sink) is ignored (by definition is [0.0,0.0])
VRPSolver warning: Interval set for resource 20 on source node (when source != sink) is ignored (by definition is [0.0,0.0])
VRPSolver warning: Interval set for resource 21 on source node (when source != sink) is ignored (by definition is [0.0,0.0])
[41m solve [00m
~~~~~~~~~~~~~~~~~~~~~~~~~~~~~~~~~~~~~~~~~~~~~~~~~~~~~~~~~~~~~~~~~~~~~~~~~~~~~~
VRPSolver v0.4.1, 24/03/2021. Web: vrpsolver.math.u-bordeaux.fr
Corresponds to the solver by Pessoa, Sadykov, Uchoa and Vanderbeck (2020)
Paper: dx.doi.org/10.1007/s10107-020-01523-z
USE THIS CODE ONLY FOR ACADEMIC PURPOSES AT YOUR OWN RISK
~~~~~~~~~~~~~~~~~~~~~~~~~~~~~~~~~~~~~~~~~~~~~~~~~~~~~~~~~~~~~~~~~~~~~~~~~~~~~~
BaPCod v053, 24/03/2021, © Inria Bordeaux, France
~~~~~~~~~~~~~~~~~~~~~~~~~~~~~~~~~~~~~~~~~~~~~~~~~~~~~~~~~~~~~~~~~~~~~~~~~~~~~~
VRPSolver parameters:
GlobalTimeLimit = 60
MaxNbOfBBtreeNodeTreated = 100000
treeSearchStrategy = 1
RCSPstopCutGenTimeThresholdInPricing = 10
RCSPhardTimeThresholdInPricing = 20
RCSPnumberOfBucketsPerVertex = 2000
RCSPdynamicBucketSteps = 0
RCSPuseBidirectionalSearch = 1
RCSPapplyReducedCostFixing = 1
RCSPredCostFixingFalseGap = 0
RCSPmaxNumOfColsPerIteration = 100
RCSPmaxNumOfColsPerExactIteration = 100
RCSPheurLabelingStrategy = 4
StabilizationMinPhaseOfStage = 1
RCSPmaxNumOfLabelsInEnumeration = 100000
RCSPmaxNumOfEnumeratedSolutions = 1000000
RCSPmaxNumOfEnumSolutionsForMIP = 100000
RCSPinitNGneighbourhoodSize = 0
RCSPmaxNGneighbourhoodSize = 0
RCSPrankOneCutsMaxNumPerRound = 100
RCSPrankOneCutsMaxNumRows = -1
RCSPrankOneCutsMemoryType = 2
CutTailingOffThreshold = 0.02
CutTailingOffCounterThreshold = 3
SafeDualBoundScaleFactor = -1
StrongBranchingPhaseOneCandidatesNumber = 100
StrongBranchingPhaseOneTreeSizeEstimRatio = 0.3
StrongBranchingPhaseTwoCandidatesNumber = 1
StrongBranchingPhaseTwoTreeSizeEstimRatio = 0.1
MaxTimeForRestrictedMasterIpHeur = -1
DivingHeurUseDepthLimit = 0
MaxLDSbreadth = 3
MaxLDSdepth = 2
New model incumbent solution 1e+06, TIME = 0h0m0s3t = 3
