Application parameters:
  batch  =>  nothing
  instance  =>  "/IN/600_20000_DI_24.txt-Q20"
  ub  =>  1.0e6
  cfg  =>  "/CFG/BPP.cfg"
data = Colored Bin Packing dataset.
number of items = 601
number of colors = 20
capacity = 16160
Items : 
	 item 1, weight= 28, color= 18
	 item 2, weight= 32, color= 6
	 item 3, weight= 32, color= 10
	 item 4, weight= 52, color= 7
	 item 5, weight= 100, color= 7
	 item 6, weight= 128, color= 7
	 item 7, weight= 128, color= 10
	 item 8, weight= 224, color= 5
	 item 9, weight= 240, color= 8
	 item 10, weight= 250, color= 3
	 item 11, weight= 252, color= 3
	 item 12, weight= 256, color= 1
	 item 13, weight= 256, color= 5
	 item 14, weight= 272, color= 11
	 item 15, weight= 272, color= 17
	 item 16, weight= 272, color= 19
	 item 17, weight= 272, color= 19
	 item 18, weight= 272, color= 19
	 item 19, weight= 280, color= 4
	 item 20, weight= 284, color= 8
	 item 21, weight= 284, color= 9
	 item 22, weight= 288, color= 11
	 item 23, weight= 288, color= 15
	 item 24, weight= 296, color= 15
	 item 25, weight= 296, color= 16
	 item 26, weight= 304, color= 10
	 item 27, weight= 304, color= 15
	 item 28, weight= 304, color= 15
	 item 29, weight= 308, color= 8
	 item 30, weight= 320, color= 0
	 item 31, weight= 320, color= 4
	 item 32, weight= 320, color= 4
	 item 33, weight= 320, color= 8
	 item 34, weight= 320, color= 11
	 item 35, weight= 320, color= 12
	 item 36, weight= 320, color= 13
	 item 37, weight= 320, color= 16
	 item 38, weight= 320, color= 19
	 item 39, weight= 324, color= 17
	 item 40, weight= 328, color= 7
	 item 41, weight= 328, color= 17
	 item 42, weight= 330, color= 9
	 item 43, weight= 336, color= 4
	 item 44, weight= 336, color= 10
	 item 45, weight= 340, color= 17
	 item 46, weight= 344, color= 8
	 item 47, weight= 344, color= 8
	 item 48, weight= 346, color= 0
	 item 49, weight= 352, color= 3
	 item 50, weight= 352, color= 9
	 item 51, weight= 352, color= 11
	 item 52, weight= 352, color= 12
	 item 53, weight= 352, color= 15
	 item 54, weight= 354, color= 2
	 item 55, weight= 356, color= 1
	 item 56, weight= 360, color= 19
	 item 57, weight= 364, color= 5
	 item 58, weight= 368, color= 6
	 item 59, weight= 368, color= 10
	 item 60, weight= 376, color= 1
	 item 61, weight= 384, color= 5
	 item 62, weight= 384, color= 7
	 item 63, weight= 384, color= 8
	 item 64, weight= 384, color= 10
	 item 65, weight= 384, color= 12
	 item 66, weight= 384, color= 15
	 item 67, weight= 388, color= 1
	 item 68, weight= 396, color= 6
	 item 69, weight= 408, color= 11
	 item 70, weight= 412, color= 0
	 item 71, weight= 414, color= 6
	 item 72, weight= 416, color= 11
	 item 73, weight= 416, color= 14
	 item 74, weight= 418, color= 0
	 item 75, weight= 418, color= 18
	 item 76, weight= 420, color= 18
	 item 77, weight= 428, color= 11
	 item 78, weight= 432, color= 13
	 item 79, weight= 440, color= 9
	 item 80, weight= 448, color= 2
	 item 81, weight= 448, color= 2
	 item 82, weight= 448, color= 8
	 item 83, weight= 448, color= 13
	 item 84, weight= 448, color= 15
	 item 85, weight= 454, color= 6
	 item 86, weight= 458, color= 10
	 item 87, weight= 464, color= 3
	 item 88, weight= 464, color= 12
	 item 89, weight= 468, color= 12
	 item 90, weight= 476, color= 8
	 item 91, weight= 478, color= 2
	 item 92, weight= 480, color= 1
	 item 93, weight= 480, color= 4
	 item 94, weight= 480, color= 11
	 item 95, weight= 480, color= 12
	 item 96, weight= 480, color= 15
	 item 97, weight= 488, color= 4
	 item 98, weight= 496, color= 9
	 item 99, weight= 496, color= 18
	 item 100, weight= 498, color= 4
	 item 101, weight= 498, color= 16
	 item 102, weight= 508, color= 12
	 item 103, weight= 512, color= 1
	 item 104, weight= 512, color= 9
	 item 105, weight= 520, color= 15
	 item 106, weight= 528, color= 5
	 item 107, weight= 536, color= 14
	 item 108, weight= 540, color= 1
	 item 109, weight= 544, color= 4
	 item 110, weight= 544, color= 7
	 item 111, weight= 546, color= 12
	 item 112, weight= 552, color= 1
	 item 113, weight= 556, color= 19
	 item 114, weight= 572, color= 16
	 item 115, weight= 576, color= 7
	 item 116, weight= 576, color= 8
	 item 117, weight= 576, color= 16
	 item 118, weight= 584, color= 16
	 item 119, weight= 600, color= 11
	 item 120, weight= 602, color= 13
	 item 121, weight= 608, color= 7
	 item 122, weight= 608, color= 8
	 item 123, weight= 608, color= 14
	 item 124, weight= 612, color= 15
	 item 125, weight= 632, color= 0
	 item 126, weight= 640, color= 3
	 item 127, weight= 640, color= 7
	 item 128, weight= 640, color= 8
	 item 129, weight= 648, color= 2
	 item 130, weight= 656, color= 8
	 item 131, weight= 656, color= 13
	 item 132, weight= 658, color= 10
	 item 133, weight= 660, color= 1
	 item 134, weight= 672, color= 13
	 item 135, weight= 680, color= 8
	 item 136, weight= 688, color= 17
	 item 137, weight= 704, color= 14
	 item 138, weight= 710, color= 6
	 item 139, weight= 728, color= 7
	 item 140, weight= 732, color= 1
	 item 141, weight= 736, color= 1
	 item 142, weight= 736, color= 9
	 item 143, weight= 738, color= 12
	 item 144, weight= 742, color= 17
	 item 145, weight= 744, color= 1
	 item 146, weight= 744, color= 11
	 item 147, weight= 752, color= 4
	 item 148, weight= 752, color= 5
	 item 149, weight= 760, color= 17
	 item 150, weight= 764, color= 11
	 item 151, weight= 800, color= 0
	 item 152, weight= 820, color= 8
	 item 153, weight= 828, color= 18
	 item 154, weight= 832, color= 15
	 item 155, weight= 838, color= 10
	 item 156, weight= 838, color= 12
	 item 157, weight= 848, color= 10
	 item 158, weight= 848, color= 13
	 item 159, weight= 856, color= 13
	 item 160, weight= 864, color= 17
	 item 161, weight= 872, color= 8
	 item 162, weight= 896, color= 15
	 item 163, weight= 948, color= 13
	 item 164, weight= 954, color= 5
	 item 165, weight= 960, color= 1
	 item 166, weight= 960, color= 2
	 item 167, weight= 960, color= 6
	 item 168, weight= 976, color= 16
	 item 169, weight= 984, color= 0
	 item 170, weight= 984, color= 10
	 item 171, weight= 984, color= 16
	 item 172, weight= 992, color= 17
	 item 173, weight= 1000, color= 8
	 item 174, weight= 1056, color= 2
	 item 175, weight= 1072, color= 16
	 item 176, weight= 1080, color= 7
	 item 177, weight= 1088, color= 2
	 item 178, weight= 1088, color= 6
	 item 179, weight= 1090, color= 15
	 item 180, weight= 1104, color= 7
	 item 181, weight= 1128, color= 11
	 item 182, weight= 1136, color= 6
	 item 183, weight= 1144, color= 8
	 item 184, weight= 1152, color= 4
	 item 185, weight= 1160, color= 10
	 item 186, weight= 1164, color= 18
	 item 187, weight= 1168, color= 16
	 item 188, weight= 1184, color= 11
	 item 189, weight= 1192, color= 12
	 item 190, weight= 1204, color= 0
	 item 191, weight= 1312, color= 11
	 item 192, weight= 1312, color= 19
	 item 193, weight= 1328, color= 10
	 item 194, weight= 1328, color= 15
	 item 195, weight= 1328, color= 16
	 item 196, weight= 1328, color= 17
	 item 197, weight= 1344, color= 3
	 item 198, weight= 1344, color= 5
	 item 199, weight= 1344, color= 9
	 item 200, weight= 1344, color= 14
	 item 201, weight= 1344, color= 18
	 item 202, weight= 1346, color= 1
	 item 203, weight= 1360, color= 16
	 item 204, weight= 1364, color= 0
	 item 205, weight= 1372, color= 0
	 item 206, weight= 1374, color= 10
	 item 207, weight= 1384, color= 15
	 item 208, weight= 1428, color= 19
	 item 209, weight= 1430, color= 12
	 item 210, weight= 1432, color= 11
	 item 211, weight= 1456, color= 19
	 item 212, weight= 1460, color= 5
	 item 213, weight= 1482, color= 7
	 item 214, weight= 1484, color= 2
	 item 215, weight= 1484, color= 15
	 item 216, weight= 1534, color= 13
	 item 217, weight= 1550, color= 6
	 item 218, weight= 1564, color= 7
	 item 219, weight= 1603, color= 13
	 item 220, weight= 1604, color= 16
	 item 221, weight= 1624, color= 3
	 item 222, weight= 1630, color= 3
	 item 223, weight= 1654, color= 13
	 item 224, weight= 1657, color= 18
	 item 225, weight= 1660, color= 5
	 item 226, weight= 1672, color= 19
	 item 227, weight= 1680, color= 1
	 item 228, weight= 1700, color= 2
	 item 229, weight= 1720, color= 6
	 item 230, weight= 1722, color= 6
	 item 231, weight= 1722, color= 15
	 item 232, weight= 1723, color= 16
	 item 233, weight= 1733, color= 2
	 item 234, weight= 1744, color= 6
	 item 235, weight= 1756, color= 12
	 item 236, weight= 1768, color= 16
	 item 237, weight= 1773, color= 5
	 item 238, weight= 1776, color= 13
	 item 239, weight= 1788, color= 12
	 item 240, weight= 1792, color= 4
	 item 241, weight= 1792, color= 8
	 item 242, weight= 1798, color= 0
	 item 243, weight= 1799, color= 14
	 item 244, weight= 1812, color= 16
	 item 245, weight= 1840, color= 2
	 item 246, weight= 1841, color= 14
	 item 247, weight= 1842, color= 15
	 item 248, weight= 1862, color= 0
	 item 249, weight= 1889, color= 12
	 item 250, weight= 1891, color= 2
	 item 251, weight= 1904, color= 2
	 item 252, weight= 1912, color= 12
	 item 253, weight= 1922, color= 12
	 item 254, weight= 1945, color= 19
	 item 255, weight= 1952, color= 10
	 item 256, weight= 1956, color= 19
	 item 257, weight= 1964, color= 10
	 item 258, weight= 1968, color= 16
	 item 259, weight= 1994, color= 2
	 item 260, weight= 2008, color= 18
	 item 261, weight= 2052, color= 10
	 item 262, weight= 2069, color= 3
	 item 263, weight= 2071, color= 2
	 item 264, weight= 2091, color= 13
	 item 265, weight= 2095, color= 19
	 item 266, weight= 2104, color= 3
	 item 267, weight= 2106, color= 18
	 item 268, weight= 2124, color= 16
	 item 269, weight= 2146, color= 16
	 item 270, weight= 2162, color= 7
	 item 271, weight= 2170, color= 18
	 item 272, weight= 2184, color= 19
	 item 273, weight= 2214, color= 9
	 item 274, weight= 2244, color= 18
	 item 275, weight= 2249, color= 12
	 item 276, weight= 2252, color= 2
	 item 277, weight= 2256, color= 10
	 item 278, weight= 2275, color= 19
	 item 279, weight= 2299, color= 0
	 item 280, weight= 2304, color= 4
	 item 281, weight= 2344, color= 4
	 item 282, weight= 2354, color= 10
	 item 283, weight= 2394, color= 11
	 item 284, weight= 2408, color= 4
	 item 285, weight= 2408, color= 16
	 item 286, weight= 2412, color= 19
	 item 287, weight= 2416, color= 4
	 item 288, weight= 2440, color= 7
	 item 289, weight= 2448, color= 3
	 item 290, weight= 2468, color= 14
	 item 291, weight= 2483, color= 19
	 item 292, weight= 2493, color= 4
	 item 293, weight= 2496, color= 14
	 item 294, weight= 2497, color= 15
	 item 295, weight= 2512, color= 13
	 item 296, weight= 2516, color= 5
	 item 297, weight= 2554, color= 19
	 item 298, weight= 2576, color= 8
	 item 299, weight= 2600, color= 6
	 item 300, weight= 2622, color= 6
	 item 301, weight= 2668, color= 1
	 item 302, weight= 2709, color= 5
	 item 303, weight= 2724, color= 15
	 item 304, weight= 2731, color= 5
	 item 305, weight= 2768, color= 14
	 item 306, weight= 2776, color= 1
	 item 307, weight= 2778, color= 9
	 item 308, weight= 2826, color= 15
	 item 309, weight= 2916, color= 8
	 item 310, weight= 2936, color= 12
	 item 311, weight= 2952, color= 8
	 item 312, weight= 2972, color= 13
	 item 313, weight= 3003, color= 18
	 item 314, weight= 3017, color= 15
	 item 315, weight= 3024, color= 17
	 item 316, weight= 3066, color= 10
	 item 317, weight= 3120, color= 13
	 item 318, weight= 3137, color= 3
	 item 319, weight= 3212, color= 1
	 item 320, weight= 3240, color= 3
	 item 321, weight= 3248, color= 3
	 item 322, weight= 3268, color= 9
	 item 323, weight= 3288, color= 6
	 item 324, weight= 3293, color= 4
	 item 325, weight= 3314, color= 5
	 item 326, weight= 3332, color= 12
	 item 327, weight= 3352, color= 3
	 item 328, weight= 3355, color= 2
	 item 329, weight= 3360, color= 16
	 item 330, weight= 3384, color= 14
	 item 331, weight= 3418, color= 4
	 item 332, weight= 3444, color= 18
	 item 333, weight= 3632, color= 13
	 item 334, weight= 3658, color= 5
	 item 335, weight= 3665, color= 14
	 item 336, weight= 3691, color= 12
	 item 337, weight= 3712, color= 6
	 item 338, weight= 3715, color= 5
	 item 339, weight= 3720, color= 1
	 item 340, weight= 3740, color= 8
	 item 341, weight= 3756, color= 19
	 item 342, weight= 3768, color= 17
	 item 343, weight= 3804, color= 16
	 item 344, weight= 3830, color= 4
	 item 345, weight= 3832, color= 15
	 item 346, weight= 3844, color= 9
	 item 347, weight= 3856, color= 8
	 item 348, weight= 4102, color= 2
	 item 349, weight= 4112, color= 19
	 item 350, weight= 4147, color= 12
	 item 351, weight= 4193, color= 7
	 item 352, weight= 4197, color= 6
	 item 353, weight= 4248, color= 16
	 item 354, weight= 4276, color= 3
	 item 355, weight= 4296, color= 1
	 item 356, weight= 4316, color= 3
	 item 357, weight= 4348, color= 5
	 item 358, weight= 4366, color= 4
	 item 359, weight= 4496, color= 16
	 item 360, weight= 4745, color= 2
	 item 361, weight= 4771, color= 6
	 item 362, weight= 4840, color= 19
	 item 363, weight= 4856, color= 9
	 item 364, weight= 4924, color= 16
	 item 365, weight= 4926, color= 0
	 item 366, weight= 4948, color= 1
	 item 367, weight= 4962, color= 17
	 item 368, weight= 4964, color= 11
	 item 369, weight= 4976, color= 14
	 item 370, weight= 5012, color= 4
	 item 371, weight= 5363, color= 5
	 item 372, weight= 5406, color= 13
	 item 373, weight= 5414, color= 17
	 item 374, weight= 5440, color= 3
	 item 375, weight= 5450, color= 6
	 item 376, weight= 5456, color= 13
	 item 377, weight= 5461, color= 14
	 item 378, weight= 5512, color= 3
	 item 379, weight= 5528, color= 4
	 item 380, weight= 5724, color= 6
	 item 381, weight= 5748, color= 11
	 item 382, weight= 5780, color= 10
	 item 383, weight= 5784, color= 7
	 item 384, weight= 5812, color= 16
	 item 385, weight= 5829, color= 8
	 item 386, weight= 5844, color= 8
	 item 387, weight= 5982, color= 0
	 item 388, weight= 6032, color= 19
	 item 389, weight= 6034, color= 14
	 item 390, weight= 6287, color= 11
	 item 391, weight= 6528, color= 14
	 item 392, weight= 6648, color= 18
	 item 393, weight= 6664, color= 11
	 item 394, weight= 6684, color= 12
	 item 395, weight= 6696, color= 6
	 item 396, weight= 6724, color= 15
	 item 397, weight= 6728, color= 17
	 item 398, weight= 6728, color= 19
	 item 399, weight= 6730, color= 8
	 item 400, weight= 6731, color= 16
	 item 401, weight= 6733, color= 5
	 item 402, weight= 6734, color= 9
	 item 403, weight= 6736, color= 7
	 item 404, weight= 7724, color= 0
	 item 405, weight= 8081, color= 12
	 item 406, weight= 8082, color= 17
	 item 407, weight= 8084, color= 4
	 item 408, weight= 8085, color= 11
	 item 409, weight= 8086, color= 16
	 item 410, weight= 8088, color= 19
	 item 411, weight= 8092, color= 0
	 item 412, weight= 8104, color= 9
	 item 413, weight= 8112, color= 15
	 item 414, weight= 8136, color= 8
	 item 415, weight= 8148, color= 6
	 item 416, weight= 8168, color= 11
	 item 417, weight= 8200, color= 14
	 item 418, weight= 8922, color= 19
	 item 419, weight= 8944, color= 16
	 item 420, weight= 8986, color= 17
	 item 421, weight= 9148, color= 2
	 item 422, weight= 9163, color= 18
	 item 423, weight= 9167, color= 6
	 item 424, weight= 9188, color= 15
	 item 425, weight= 9224, color= 3
	 item 426, weight= 9252, color= 12
	 item 427, weight= 9268, color= 0
	 item 428, weight= 9300, color= 12
	 item 429, weight= 9528, color= 17
	 item 430, weight= 9560, color= 4
	 item 431, weight= 9609, color= 2
	 item 432, weight= 9622, color= 17
	 item 433, weight= 9648, color= 0
	 item 434, weight= 9674, color= 18
	 item 435, weight= 9725, color= 2
	 item 436, weight= 10144, color= 18
	 item 437, weight= 10148, color= 19
	 item 438, weight= 10206, color= 5
	 item 439, weight= 10212, color= 2
	 item 440, weight= 10224, color= 18
	 item 441, weight= 10228, color= 1
	 item 442, weight= 10250, color= 15
	 item 443, weight= 10260, color= 16
	 item 444, weight= 10344, color= 0
	 item 445, weight= 10360, color= 18
	 item 446, weight= 10435, color= 3
	 item 447, weight= 10467, color= 10
	 item 448, weight= 10694, color= 6
	 item 449, weight= 10768, color= 9
	 item 450, weight= 10922, color= 4
	 item 451, weight= 10948, color= 19
	 item 452, weight= 10988, color= 12
	 item 453, weight= 11016, color= 3
	 item 454, weight= 11036, color= 18
	 item 455, weight= 11080, color= 18
	 item 456, weight= 11125, color= 4
	 item 457, weight= 11129, color= 17
	 item 458, weight= 11168, color= 17
	 item 459, weight= 11185, color= 2
	 item 460, weight= 11238, color= 11
	 item 461, weight= 11248, color= 13
	 item 462, weight= 11566, color= 7
	 item 463, weight= 11568, color= 14
	 item 464, weight= 11576, color= 18
	 item 465, weight= 11596, color= 14
	 item 466, weight= 11640, color= 1
	 item 467, weight= 11660, color= 18
	 item 468, weight= 11676, color= 0
	 item 469, weight= 11703, color= 15
	 item 470, weight= 11704, color= 1
	 item 471, weight= 11708, color= 14
	 item 472, weight= 11731, color= 5
	 item 473, weight= 11763, color= 15
	 item 474, weight= 11774, color= 15
	 item 475, weight= 11824, color= 7
	 item 476, weight= 12028, color= 14
	 item 477, weight= 12062, color= 12
	 item 478, weight= 12104, color= 6
	 item 479, weight= 12152, color= 7
	 item 480, weight= 12186, color= 16
	 item 481, weight= 12196, color= 18
	 item 482, weight= 12209, color= 15
	 item 483, weight= 12216, color= 16
	 item 484, weight= 12233, color= 19
	 item 485, weight= 12244, color= 1
	 item 486, weight= 12272, color= 14
	 item 487, weight= 12280, color= 2
	 item 488, weight= 12308, color= 14
	 item 489, weight= 12432, color= 6
	 item 490, weight= 12482, color= 7
	 item 491, weight= 12541, color= 5
	 item 492, weight= 12545, color= 3
	 item 493, weight= 12557, color= 15
	 item 494, weight= 12560, color= 12
	 item 495, weight= 12604, color= 16
	 item 496, weight= 12632, color= 15
	 item 497, weight= 12668, color= 15
	 item 498, weight= 12778, color= 15
	 item 499, weight= 12830, color= 9
	 item 500, weight= 12840, color= 16
	 item 501, weight= 12880, color= 0
	 item 502, weight= 12883, color= 0
	 item 503, weight= 12900, color= 9
	 item 504, weight= 12911, color= 4
	 item 505, weight= 12964, color= 14
	 item 506, weight= 12984, color= 5
	 item 507, weight= 13018, color= 12
	 item 508, weight= 13048, color= 6
	 item 509, weight= 13098, color= 6
	 item 510, weight= 13104, color= 15
	 item 511, weight= 13148, color= 0
	 item 512, weight= 13165, color= 15
	 item 513, weight= 13168, color= 6
	 item 514, weight= 13169, color= 8
	 item 515, weight= 13181, color= 6
	 item 516, weight= 13204, color= 2
	 item 517, weight= 13232, color= 7
	 item 518, weight= 13268, color= 0
	 item 519, weight= 13272, color= 10
	 item 520, weight= 13288, color= 11
	 item 521, weight= 13290, color= 5
	 item 522, weight= 13296, color= 4
	 item 523, weight= 13338, color= 3
	 item 524, weight= 13352, color= 8
	 item 525, weight= 13403, color= 8
	 item 526, weight= 13408, color= 16
	 item 527, weight= 13416, color= 8
	 item 528, weight= 13431, color= 15
	 item 529, weight= 13460, color= 19
	 item 530, weight= 13463, color= 15
	 item 531, weight= 13468, color= 8
	 item 532, weight= 13488, color= 10
	 item 533, weight= 13506, color= 5
	 item 534, weight= 13544, color= 11
	 item 535, weight= 13570, color= 12
	 item 536, weight= 13634, color= 1
	 item 537, weight= 13640, color= 12
	 item 538, weight= 13647, color= 4
	 item 539, weight= 13651, color= 7
	 item 540, weight= 13675, color= 6
	 item 541, weight= 13679, color= 18
	 item 542, weight= 13700, color= 12
	 item 543, weight= 13732, color= 14
	 item 544, weight= 13738, color= 2
	 item 545, weight= 13768, color= 16
	 item 546, weight= 13770, color= 7
	 item 547, weight= 13790, color= 10
	 item 548, weight= 13808, color= 15
	 item 549, weight= 13812, color= 2
	 item 550, weight= 13820, color= 1
	 item 551, weight= 13827, color= 13
	 item 552, weight= 13854, color= 1
	 item 553, weight= 13880, color= 4
	 item 554, weight= 13888, color= 10
	 item 555, weight= 13893, color= 15
	 item 556, weight= 13936, color= 13
	 item 557, weight= 13951, color= 13
	 item 558, weight= 13954, color= 6
	 item 559, weight= 13968, color= 15
	 item 560, weight= 13988, color= 7
	 item 561, weight= 14006, color= 11
	 item 562, weight= 14020, color= 14
	 item 563, weight= 14021, color= 2
	 item 564, weight= 14032, color= 19
	 item 565, weight= 14033, color= 10
	 item 566, weight= 14040, color= 3
	 item 567, weight= 14060, color= 1
	 item 568, weight= 14081, color= 12
	 item 569, weight= 14093, color= 11
	 item 570, weight= 14096, color= 16
	 item 571, weight= 14098, color= 0
	 item 572, weight= 14104, color= 1
	 item 573, weight= 14124, color= 14
	 item 574, weight= 14154, color= 16
	 item 575, weight= 14160, color= 18
	 item 576, weight= 14168, color= 13
	 item 577, weight= 14172, color= 19
	 item 578, weight= 14173, color= 7
	 item 579, weight= 14178, color= 14
	 item 580, weight= 14206, color= 12
	 item 581, weight= 14216, color= 2
	 item 582, weight= 14233, color= 3
	 item 583, weight= 14236, color= 12
	 item 584, weight= 14237, color= 12
	 item 585, weight= 14270, color= 4
	 item 586, weight= 14292, color= 17
	 item 587, weight= 14302, color= 7
	 item 588, weight= 14380, color= 9
	 item 589, weight= 14382, color= 5
	 item 590, weight= 14388, color= 7
	 item 591, weight= 14412, color= 1
	 item 592, weight= 14446, color= 1
	 item 593, weight= 14448, color= 11
	 item 594, weight= 14452, color= 11
	 item 595, weight= 14456, color= 7
	 item 596, weight= 14504, color= 17
	 item 597, weight= 14514, color= 16
	 item 598, weight= 14516, color= 5
	 item 599, weight= 14524, color= 15
	 item 600, weight= 14526, color= 14
	 item 601, weight= 14544, color= 3

VRPSolver warning: Interval set for resource 1 on source node (when source != sink) is ignored (by definition is [0.0,0.0])
VRPSolver warning: Interval set for resource 2 on source node (when source != sink) is ignored (by definition is [0.0,0.0])
VRPSolver warning: Interval set for resource 3 on source node (when source != sink) is ignored (by definition is [0.0,0.0])
VRPSolver warning: Interval set for resource 4 on source node (when source != sink) is ignored (by definition is [0.0,0.0])
VRPSolver warning: Interval set for resource 5 on source node (when source != sink) is ignored (by definition is [0.0,0.0])
VRPSolver warning: Interval set for resource 6 on source node (when source != sink) is ignored (by definition is [0.0,0.0])
VRPSolver warning: Interval set for resource 7 on source node (when source != sink) is ignored (by definition is [0.0,0.0])
VRPSolver warning: Interval set for resource 8 on source node (when source != sink) is ignored (by definition is [0.0,0.0])
VRPSolver warning: Interval set for resource 9 on source node (when source != sink) is ignored (by definition is [0.0,0.0])
VRPSolver warning: Interval set for resource 10 on source node (when source != sink) is ignored (by definition is [0.0,0.0])
VRPSolver warning: Interval set for resource 11 on source node (when source != sink) is ignored (by definition is [0.0,0.0])
VRPSolver warning: Interval set for resource 12 on source node (when source != sink) is ignored (by definition is [0.0,0.0])
VRPSolver warning: Interval set for resource 13 on source node (when source != sink) is ignored (by definition is [0.0,0.0])
VRPSolver warning: Interval set for resource 14 on source node (when source != sink) is ignored (by definition is [0.0,0.0])
VRPSolver warning: Interval set for resource 15 on source node (when source != sink) is ignored (by definition is [0.0,0.0])
VRPSolver warning: Interval set for resource 16 on source node (when source != sink) is ignored (by definition is [0.0,0.0])
VRPSolver warning: Interval set for resource 17 on source node (when source != sink) is ignored (by definition is [0.0,0.0])
VRPSolver warning: Interval set for resource 18 on source node (when source != sink) is ignored (by definition is [0.0,0.0])
VRPSolver warning: Interval set for resource 19 on source node (when source != sink) is ignored (by definition is [0.0,0.0])
VRPSolver warning: Interval set for resource 20 on source node (when source != sink) is ignored (by definition is [0.0,0.0])
VRPSolver warning: Interval set for resource 21 on source node (when source != sink) is ignored (by definition is [0.0,0.0])
[41m solve [00m
~~~~~~~~~~~~~~~~~~~~~~~~~~~~~~~~~~~~~~~~~~~~~~~~~~~~~~~~~~~~~~~~~~~~~~~~~~~~~~
VRPSolver v0.4.1, 24/03/2021. Web: vrpsolver.math.u-bordeaux.fr
Corresponds to the solver by Pessoa, Sadykov, Uchoa and Vanderbeck (2020)
Paper: dx.doi.org/10.1007/s10107-020-01523-z
USE THIS CODE ONLY FOR ACADEMIC PURPOSES AT YOUR OWN RISK
~~~~~~~~~~~~~~~~~~~~~~~~~~~~~~~~~~~~~~~~~~~~~~~~~~~~~~~~~~~~~~~~~~~~~~~~~~~~~~
BaPCod v053, 24/03/2021, © Inria Bordeaux, France
~~~~~~~~~~~~~~~~~~~~~~~~~~~~~~~~~~~~~~~~~~~~~~~~~~~~~~~~~~~~~~~~~~~~~~~~~~~~~~
VRPSolver parameters:
GlobalTimeLimit = 60
MaxNbOfBBtreeNodeTreated = 100000
treeSearchStrategy = 1
RCSPstopCutGenTimeThresholdInPricing = 10
RCSPhardTimeThresholdInPricing = 20
RCSPnumberOfBucketsPerVertex = 2000
RCSPdynamicBucketSteps = 0
RCSPuseBidirectionalSearch = 1
RCSPapplyReducedCostFixing = 1
RCSPredCostFixingFalseGap = 0
RCSPmaxNumOfColsPerIteration = 100
RCSPmaxNumOfColsPerExactIteration = 100
RCSPheurLabelingStrategy = 4
StabilizationMinPhaseOfStage = 1
RCSPmaxNumOfLabelsInEnumeration = 100000
RCSPmaxNumOfEnumeratedSolutions = 1000000
RCSPmaxNumOfEnumSolutionsForMIP = 100000
RCSPinitNGneighbourhoodSize = 0
RCSPmaxNGneighbourhoodSize = 0
RCSPrankOneCutsMaxNumPerRound = 100
RCSPrankOneCutsMaxNumRows = -1
RCSPrankOneCutsMemoryType = 2
CutTailingOffThreshold = 0.02
CutTailingOffCounterThreshold = 3
SafeDualBoundScaleFactor = -1
StrongBranchingPhaseOneCandidatesNumber = 100
StrongBranchingPhaseOneTreeSizeEstimRatio = 0.3
StrongBranchingPhaseTwoCandidatesNumber = 1
StrongBranchingPhaseTwoTreeSizeEstimRatio = 0.1
MaxTimeForRestrictedMasterIpHeur = -1
DivingHeurUseDepthLimit = 0
MaxLDSbreadth = 3
MaxLDSdepth = 2
New model incumbent solution 1e+06, TIME = 0h0m0s3t = 3
