Application parameters:
  batch  =>  nothing
  instance  =>  "/IN/600_20000_DI_28.txt-Q20"
  ub  =>  1.0e6
  cfg  =>  "/CFG/BPP.cfg"
data = Colored Bin Packing dataset.
number of items = 601
number of colors = 20
capacity = 19008
Items : 
	 item 1, weight= 32, color= 2
	 item 2, weight= 32, color= 15
	 item 3, weight= 64, color= 9
	 item 4, weight= 112, color= 13
	 item 5, weight= 130, color= 1
	 item 6, weight= 144, color= 13
	 item 7, weight= 160, color= 7
	 item 8, weight= 176, color= 7
	 item 9, weight= 176, color= 7
	 item 10, weight= 176, color= 17
	 item 11, weight= 192, color= 9
	 item 12, weight= 200, color= 15
	 item 13, weight= 208, color= 0
	 item 14, weight= 208, color= 18
	 item 15, weight= 212, color= 11
	 item 16, weight= 276, color= 4
	 item 17, weight= 288, color= 7
	 item 18, weight= 288, color= 11
	 item 19, weight= 304, color= 16
	 item 20, weight= 320, color= 1
	 item 21, weight= 320, color= 5
	 item 22, weight= 320, color= 8
	 item 23, weight= 320, color= 12
	 item 24, weight= 320, color= 12
	 item 25, weight= 320, color= 14
	 item 26, weight= 328, color= 19
	 item 27, weight= 330, color= 12
	 item 28, weight= 332, color= 19
	 item 29, weight= 336, color= 7
	 item 30, weight= 344, color= 4
	 item 31, weight= 344, color= 6
	 item 32, weight= 348, color= 9
	 item 33, weight= 352, color= 0
	 item 34, weight= 352, color= 2
	 item 35, weight= 352, color= 5
	 item 36, weight= 356, color= 0
	 item 37, weight= 364, color= 12
	 item 38, weight= 368, color= 4
	 item 39, weight= 368, color= 13
	 item 40, weight= 368, color= 17
	 item 41, weight= 372, color= 14
	 item 42, weight= 376, color= 5
	 item 43, weight= 376, color= 7
	 item 44, weight= 380, color= 3
	 item 45, weight= 384, color= 1
	 item 46, weight= 384, color= 9
	 item 47, weight= 384, color= 11
	 item 48, weight= 384, color= 15
	 item 49, weight= 384, color= 17
	 item 50, weight= 388, color= 12
	 item 51, weight= 400, color= 6
	 item 52, weight= 400, color= 12
	 item 53, weight= 404, color= 8
	 item 54, weight= 404, color= 12
	 item 55, weight= 404, color= 15
	 item 56, weight= 404, color= 16
	 item 57, weight= 406, color= 18
	 item 58, weight= 412, color= 17
	 item 59, weight= 412, color= 17
	 item 60, weight= 416, color= 19
	 item 61, weight= 416, color= 19
	 item 62, weight= 422, color= 9
	 item 63, weight= 428, color= 4
	 item 64, weight= 428, color= 17
	 item 65, weight= 432, color= 2
	 item 66, weight= 432, color= 12
	 item 67, weight= 448, color= 6
	 item 68, weight= 448, color= 11
	 item 69, weight= 448, color= 13
	 item 70, weight= 448, color= 14
	 item 71, weight= 454, color= 13
	 item 72, weight= 456, color= 10
	 item 73, weight= 464, color= 9
	 item 74, weight= 464, color= 17
	 item 75, weight= 468, color= 2
	 item 76, weight= 474, color= 11
	 item 77, weight= 480, color= 16
	 item 78, weight= 490, color= 1
	 item 79, weight= 496, color= 0
	 item 80, weight= 496, color= 15
	 item 81, weight= 496, color= 16
	 item 82, weight= 500, color= 0
	 item 83, weight= 502, color= 3
	 item 84, weight= 512, color= 7
	 item 85, weight= 512, color= 17
	 item 86, weight= 524, color= 11
	 item 87, weight= 528, color= 2
	 item 88, weight= 528, color= 14
	 item 89, weight= 536, color= 11
	 item 90, weight= 536, color= 18
	 item 91, weight= 544, color= 4
	 item 92, weight= 544, color= 7
	 item 93, weight= 556, color= 14
	 item 94, weight= 568, color= 0
	 item 95, weight= 576, color= 2
	 item 96, weight= 576, color= 6
	 item 97, weight= 576, color= 12
	 item 98, weight= 584, color= 4
	 item 99, weight= 592, color= 4
	 item 100, weight= 598, color= 3
	 item 101, weight= 600, color= 7
	 item 102, weight= 600, color= 11
	 item 103, weight= 604, color= 1
	 item 104, weight= 616, color= 19
	 item 105, weight= 624, color= 1
	 item 106, weight= 636, color= 17
	 item 107, weight= 640, color= 7
	 item 108, weight= 640, color= 11
	 item 109, weight= 656, color= 14
	 item 110, weight= 658, color= 12
	 item 111, weight= 664, color= 4
	 item 112, weight= 668, color= 17
	 item 113, weight= 672, color= 1
	 item 114, weight= 672, color= 2
	 item 115, weight= 672, color= 3
	 item 116, weight= 672, color= 7
	 item 117, weight= 688, color= 6
	 item 118, weight= 688, color= 19
	 item 119, weight= 700, color= 13
	 item 120, weight= 700, color= 14
	 item 121, weight= 704, color= 10
	 item 122, weight= 710, color= 19
	 item 123, weight= 712, color= 15
	 item 124, weight= 752, color= 13
	 item 125, weight= 752, color= 15
	 item 126, weight= 756, color= 6
	 item 127, weight= 760, color= 12
	 item 128, weight= 760, color= 14
	 item 129, weight= 768, color= 2
	 item 130, weight= 768, color= 4
	 item 131, weight= 768, color= 9
	 item 132, weight= 768, color= 14
	 item 133, weight= 784, color= 8
	 item 134, weight= 788, color= 9
	 item 135, weight= 800, color= 6
	 item 136, weight= 800, color= 8
	 item 137, weight= 800, color= 11
	 item 138, weight= 832, color= 0
	 item 139, weight= 832, color= 15
	 item 140, weight= 844, color= 0
	 item 141, weight= 860, color= 5
	 item 142, weight= 864, color= 7
	 item 143, weight= 868, color= 17
	 item 144, weight= 872, color= 14
	 item 145, weight= 884, color= 17
	 item 146, weight= 888, color= 9
	 item 147, weight= 896, color= 7
	 item 148, weight= 896, color= 10
	 item 149, weight= 912, color= 17
	 item 150, weight= 956, color= 12
	 item 151, weight= 974, color= 19
	 item 152, weight= 992, color= 12
	 item 153, weight= 992, color= 17
	 item 154, weight= 992, color= 18
	 item 155, weight= 996, color= 1
	 item 156, weight= 996, color= 13
	 item 157, weight= 1000, color= 3
	 item 158, weight= 1000, color= 13
	 item 159, weight= 1002, color= 1
	 item 160, weight= 1008, color= 10
	 item 161, weight= 1008, color= 12
	 item 162, weight= 1058, color= 4
	 item 163, weight= 1088, color= 5
	 item 164, weight= 1094, color= 18
	 item 165, weight= 1112, color= 10
	 item 166, weight= 1116, color= 16
	 item 167, weight= 1116, color= 19
	 item 168, weight= 1120, color= 15
	 item 169, weight= 1120, color= 17
	 item 170, weight= 1148, color= 3
	 item 171, weight= 1152, color= 7
	 item 172, weight= 1152, color= 12
	 item 173, weight= 1152, color= 18
	 item 174, weight= 1160, color= 8
	 item 175, weight= 1160, color= 19
	 item 176, weight= 1168, color= 1
	 item 177, weight= 1176, color= 18
	 item 178, weight= 1232, color= 10
	 item 179, weight= 1256, color= 18
	 item 180, weight= 1260, color= 3
	 item 181, weight= 1260, color= 17
	 item 182, weight= 1280, color= 4
	 item 183, weight= 1334, color= 15
	 item 184, weight= 1344, color= 6
	 item 185, weight= 1344, color= 13
	 item 186, weight= 1352, color= 16
	 item 187, weight= 1360, color= 1
	 item 188, weight= 1366, color= 6
	 item 189, weight= 1384, color= 1
	 item 190, weight= 1536, color= 2
	 item 191, weight= 1536, color= 5
	 item 192, weight= 1548, color= 14
	 item 193, weight= 1568, color= 11
	 item 194, weight= 1568, color= 13
	 item 195, weight= 1576, color= 6
	 item 196, weight= 1576, color= 11
	 item 197, weight= 1576, color= 12
	 item 198, weight= 1576, color= 14
	 item 199, weight= 1580, color= 5
	 item 200, weight= 1580, color= 16
	 item 201, weight= 1582, color= 0
	 item 202, weight= 1582, color= 5
	 item 203, weight= 1582, color= 10
	 item 204, weight= 1602, color= 17
	 item 205, weight= 1608, color= 12
	 item 206, weight= 1612, color= 15
	 item 207, weight= 1622, color= 7
	 item 208, weight= 1632, color= 18
	 item 209, weight= 1662, color= 13
	 item 210, weight= 1672, color= 16
	 item 211, weight= 1674, color= 18
	 item 212, weight= 1708, color= 19
	 item 213, weight= 1726, color= 0
	 item 214, weight= 1744, color= 13
	 item 215, weight= 1748, color= 15
	 item 216, weight= 1754, color= 15
	 item 217, weight= 1764, color= 3
	 item 218, weight= 1789, color= 10
	 item 219, weight= 1824, color= 19
	 item 220, weight= 1829, color= 13
	 item 221, weight= 1840, color= 14
	 item 222, weight= 1842, color= 4
	 item 223, weight= 1848, color= 10
	 item 224, weight= 1864, color= 5
	 item 225, weight= 1867, color= 6
	 item 226, weight= 1892, color= 14
	 item 227, weight= 1928, color= 3
	 item 228, weight= 1929, color= 10
	 item 229, weight= 1930, color= 1
	 item 230, weight= 1950, color= 15
	 item 231, weight= 1956, color= 14
	 item 232, weight= 1964, color= 11
	 item 233, weight= 1968, color= 14
	 item 234, weight= 2008, color= 9
	 item 235, weight= 2021, color= 8
	 item 236, weight= 2022, color= 17
	 item 237, weight= 2028, color= 17
	 item 238, weight= 2029, color= 0
	 item 239, weight= 2035, color= 9
	 item 240, weight= 2045, color= 2
	 item 241, weight= 2060, color= 7
	 item 242, weight= 2062, color= 12
	 item 243, weight= 2078, color= 3
	 item 244, weight= 2100, color= 1
	 item 245, weight= 2115, color= 0
	 item 246, weight= 2128, color= 6
	 item 247, weight= 2141, color= 17
	 item 248, weight= 2158, color= 8
	 item 249, weight= 2168, color= 4
	 item 250, weight= 2168, color= 14
	 item 251, weight= 2204, color= 3
	 item 252, weight= 2251, color= 18
	 item 253, weight= 2264, color= 11
	 item 254, weight= 2272, color= 17
	 item 255, weight= 2276, color= 18
	 item 256, weight= 2277, color= 1
	 item 257, weight= 2310, color= 7
	 item 258, weight= 2342, color= 7
	 item 259, weight= 2352, color= 15
	 item 260, weight= 2354, color= 2
	 item 261, weight= 2354, color= 9
	 item 262, weight= 2365, color= 18
	 item 263, weight= 2373, color= 14
	 item 264, weight= 2408, color= 18
	 item 265, weight= 2444, color= 9
	 item 266, weight= 2453, color= 13
	 item 267, weight= 2484, color= 4
	 item 268, weight= 2492, color= 16
	 item 269, weight= 2494, color= 1
	 item 270, weight= 2506, color= 8
	 item 271, weight= 2521, color= 14
	 item 272, weight= 2536, color= 10
	 item 273, weight= 2576, color= 2
	 item 274, weight= 2627, color= 7
	 item 275, weight= 2658, color= 18
	 item 276, weight= 2684, color= 10
	 item 277, weight= 2688, color= 16
	 item 278, weight= 2700, color= 16
	 item 279, weight= 2729, color= 10
	 item 280, weight= 2732, color= 12
	 item 281, weight= 2742, color= 19
	 item 282, weight= 2756, color= 13
	 item 283, weight= 2794, color= 1
	 item 284, weight= 2808, color= 5
	 item 285, weight= 2851, color= 13
	 item 286, weight= 2860, color= 9
	 item 287, weight= 2864, color= 5
	 item 288, weight= 2888, color= 8
	 item 289, weight= 2926, color= 18
	 item 290, weight= 2996, color= 14
	 item 291, weight= 2997, color= 12
	 item 292, weight= 3000, color= 1
	 item 293, weight= 3020, color= 4
	 item 294, weight= 3024, color= 0
	 item 295, weight= 3036, color= 5
	 item 296, weight= 3086, color= 4
	 item 297, weight= 3138, color= 11
	 item 298, weight= 3185, color= 19
	 item 299, weight= 3240, color= 18
	 item 300, weight= 3248, color= 10
	 item 301, weight= 3288, color= 12
	 item 302, weight= 3295, color= 10
	 item 303, weight= 3338, color= 1
	 item 304, weight= 3342, color= 11
	 item 305, weight= 3354, color= 8
	 item 306, weight= 3372, color= 14
	 item 307, weight= 3376, color= 11
	 item 308, weight= 3396, color= 19
	 item 309, weight= 3480, color= 10
	 item 310, weight= 3502, color= 5
	 item 311, weight= 3503, color= 2
	 item 312, weight= 3512, color= 5
	 item 313, weight= 3536, color= 16
	 item 314, weight= 3557, color= 9
	 item 315, weight= 3574, color= 15
	 item 316, weight= 3743, color= 4
	 item 317, weight= 3778, color= 13
	 item 318, weight= 3785, color= 7
	 item 319, weight= 3804, color= 10
	 item 320, weight= 3828, color= 11
	 item 321, weight= 3844, color= 7
	 item 322, weight= 3844, color= 17
	 item 323, weight= 3928, color= 8
	 item 324, weight= 3951, color= 2
	 item 325, weight= 3976, color= 9
	 item 326, weight= 4016, color= 19
	 item 327, weight= 4022, color= 16
	 item 328, weight= 4225, color= 8
	 item 329, weight= 4264, color= 13
	 item 330, weight= 4272, color= 17
	 item 331, weight= 4306, color= 17
	 item 332, weight= 4362, color= 18
	 item 333, weight= 4364, color= 14
	 item 334, weight= 4372, color= 9
	 item 335, weight= 4426, color= 3
	 item 336, weight= 4447, color= 8
	 item 337, weight= 4494, color= 4
	 item 338, weight= 4552, color= 19
	 item 339, weight= 4568, color= 17
	 item 340, weight= 4592, color= 0
	 item 341, weight= 4789, color= 5
	 item 342, weight= 4802, color= 10
	 item 343, weight= 4970, color= 9
	 item 344, weight= 4976, color= 9
	 item 345, weight= 4982, color= 6
	 item 346, weight= 4998, color= 10
	 item 347, weight= 5004, color= 12
	 item 348, weight= 5010, color= 9
	 item 349, weight= 5019, color= 19
	 item 350, weight= 5028, color= 7
	 item 351, weight= 5044, color= 2
	 item 352, weight= 5060, color= 17
	 item 353, weight= 5080, color= 14
	 item 354, weight= 5256, color= 17
	 item 355, weight= 5295, color= 15
	 item 356, weight= 5570, color= 14
	 item 357, weight= 5582, color= 7
	 item 358, weight= 5598, color= 17
	 item 359, weight= 5606, color= 9
	 item 360, weight= 5743, color= 19
	 item 361, weight= 5776, color= 3
	 item 362, weight= 5804, color= 3
	 item 363, weight= 5828, color= 15
	 item 364, weight= 5840, color= 17
	 item 365, weight= 5844, color= 8
	 item 366, weight= 5848, color= 14
	 item 367, weight= 5864, color= 11
	 item 368, weight= 6165, color= 15
	 item 369, weight= 6212, color= 6
	 item 370, weight= 6290, color= 6
	 item 371, weight= 6302, color= 12
	 item 372, weight= 6318, color= 14
	 item 373, weight= 6480, color= 15
	 item 374, weight= 6496, color= 13
	 item 375, weight= 6671, color= 8
	 item 376, weight= 6764, color= 9
	 item 377, weight= 6772, color= 1
	 item 378, weight= 6792, color= 12
	 item 379, weight= 6808, color= 0
	 item 380, weight= 6831, color= 7
	 item 381, weight= 6934, color= 9
	 item 382, weight= 7027, color= 17
	 item 383, weight= 7104, color= 16
	 item 384, weight= 7154, color= 8
	 item 385, weight= 7536, color= 1
	 item 386, weight= 7631, color= 12
	 item 387, weight= 7743, color= 16
	 item 388, weight= 7792, color= 3
	 item 389, weight= 7884, color= 10
	 item 390, weight= 7892, color= 13
	 item 391, weight= 7894, color= 18
	 item 392, weight= 7906, color= 11
	 item 393, weight= 7908, color= 10
	 item 394, weight= 7913, color= 2
	 item 395, weight= 7917, color= 8
	 item 396, weight= 7921, color= 17
	 item 397, weight= 7922, color= 16
	 item 398, weight= 7924, color= 1
	 item 399, weight= 7928, color= 5
	 item 400, weight= 7944, color= 16
	 item 401, weight= 8288, color= 12
	 item 402, weight= 8397, color= 9
	 item 403, weight= 8816, color= 16
	 item 404, weight= 9318, color= 18
	 item 405, weight= 9376, color= 15
	 item 406, weight= 9505, color= 7
	 item 407, weight= 9506, color= 19
	 item 408, weight= 9508, color= 7
	 item 409, weight= 9509, color= 11
	 item 410, weight= 9512, color= 2
	 item 411, weight= 9513, color= 0
	 item 412, weight= 9514, color= 11
	 item 413, weight= 9517, color= 9
	 item 414, weight= 9520, color= 5
	 item 415, weight= 9522, color= 13
	 item 416, weight= 9524, color= 17
	 item 417, weight= 9528, color= 10
	 item 418, weight= 9538, color= 0
	 item 419, weight= 9540, color= 9
	 item 420, weight= 9556, color= 5
	 item 421, weight= 9680, color= 8
	 item 422, weight= 9717, color= 12
	 item 423, weight= 10678, color= 4
	 item 424, weight= 10690, color= 15
	 item 425, weight= 10704, color= 12
	 item 426, weight= 10811, color= 5
	 item 427, weight= 10840, color= 4
	 item 428, weight= 10872, color= 13
	 item 429, weight= 10884, color= 2
	 item 430, weight= 10900, color= 0
	 item 431, weight= 11003, color= 19
	 item 432, weight= 11007, color= 19
	 item 433, weight= 11047, color= 0
	 item 434, weight= 11248, color= 3
	 item 435, weight= 11430, color= 7
	 item 436, weight= 11446, color= 4
	 item 437, weight= 11462, color= 5
	 item 438, weight= 11611, color= 14
	 item 439, weight= 11976, color= 10
	 item 440, weight= 11996, color= 11
	 item 441, weight= 12004, color= 4
	 item 442, weight= 12008, color= 9
	 item 443, weight= 12016, color= 18
	 item 444, weight= 12020, color= 6
	 item 445, weight= 12052, color= 7
	 item 446, weight= 12117, color= 6
	 item 447, weight= 12282, color= 12
	 item 448, weight= 12294, color= 6
	 item 449, weight= 12310, color= 10
	 item 450, weight= 12326, color= 13
	 item 451, weight= 12655, color= 2
	 item 452, weight= 12656, color= 6
	 item 453, weight= 12920, color= 5
	 item 454, weight= 12940, color= 4
	 item 455, weight= 12952, color= 10
	 item 456, weight= 12964, color= 17
	 item 457, weight= 12980, color= 18
	 item 458, weight= 12987, color= 2
	 item 459, weight= 13012, color= 16
	 item 460, weight= 13014, color= 7
	 item 461, weight= 13030, color= 19
	 item 462, weight= 13040, color= 1
	 item 463, weight= 13046, color= 17
	 item 464, weight= 13263, color= 15
	 item 465, weight= 13520, color= 12
	 item 466, weight= 13528, color= 3
	 item 467, weight= 13560, color= 1
	 item 468, weight= 13602, color= 2
	 item 469, weight= 13618, color= 18
	 item 470, weight= 13673, color= 15
	 item 471, weight= 13698, color= 19
	 item 472, weight= 13764, color= 14
	 item 473, weight= 13778, color= 19
	 item 474, weight= 13780, color= 4
	 item 475, weight= 13842, color= 19
	 item 476, weight= 13904, color= 18
	 item 477, weight= 13939, color= 18
	 item 478, weight= 14138, color= 16
	 item 479, weight= 14186, color= 10
	 item 480, weight= 14216, color= 2
	 item 481, weight= 14224, color= 10
	 item 482, weight= 14248, color= 18
	 item 483, weight= 14269, color= 2
	 item 484, weight= 14312, color= 9
	 item 485, weight= 14396, color= 11
	 item 486, weight= 14404, color= 7
	 item 487, weight= 14420, color= 7
	 item 488, weight= 14452, color= 13
	 item 489, weight= 14467, color= 9
	 item 490, weight= 14478, color= 9
	 item 491, weight= 14722, color= 17
	 item 492, weight= 14741, color= 8
	 item 493, weight= 14768, color= 0
	 item 494, weight= 14805, color= 16
	 item 495, weight= 14806, color= 13
	 item 496, weight= 14808, color= 18
	 item 497, weight= 14840, color= 4
	 item 498, weight= 14940, color= 2
	 item 499, weight= 14960, color= 8
	 item 500, weight= 14964, color= 18
	 item 501, weight= 14998, color= 8
	 item 502, weight= 15006, color= 11
	 item 503, weight= 15055, color= 16
	 item 504, weight= 15064, color= 3
	 item 505, weight= 15120, color= 8
	 item 506, weight= 15128, color= 7
	 item 507, weight= 15135, color= 16
	 item 508, weight= 15187, color= 3
	 item 509, weight= 15246, color= 19
	 item 510, weight= 15264, color= 14
	 item 511, weight= 15306, color= 1
	 item 512, weight= 15372, color= 5
	 item 513, weight= 15388, color= 4
	 item 514, weight= 15408, color= 18
	 item 515, weight= 15413, color= 8
	 item 516, weight= 15420, color= 14
	 item 517, weight= 15498, color= 19
	 item 518, weight= 15544, color= 18
	 item 519, weight= 15589, color= 5
	 item 520, weight= 15622, color= 11
	 item 521, weight= 15656, color= 7
	 item 522, weight= 15658, color= 11
	 item 523, weight= 15735, color= 2
	 item 524, weight= 15748, color= 10
	 item 525, weight= 15754, color= 15
	 item 526, weight= 15772, color= 12
	 item 527, weight= 15788, color= 6
	 item 528, weight= 15792, color= 3
	 item 529, weight= 15820, color= 4
	 item 530, weight= 15822, color= 15
	 item 531, weight= 15857, color= 11
	 item 532, weight= 15884, color= 10
	 item 533, weight= 15896, color= 17
	 item 534, weight= 15920, color= 15
	 item 535, weight= 15976, color= 7
	 item 536, weight= 15985, color= 5
	 item 537, weight= 16002, color= 15
	 item 538, weight= 16018, color= 9
	 item 539, weight= 16028, color= 19
	 item 540, weight= 16065, color= 16
	 item 541, weight= 16084, color= 10
	 item 542, weight= 16136, color= 1
	 item 543, weight= 16161, color= 18
	 item 544, weight= 16186, color= 5
	 item 545, weight= 16202, color= 14
	 item 546, weight= 16208, color= 1
	 item 547, weight= 16239, color= 16
	 item 548, weight= 16277, color= 16
	 item 549, weight= 16284, color= 18
	 item 550, weight= 16296, color= 18
	 item 551, weight= 16309, color= 12
	 item 552, weight= 16340, color= 16
	 item 553, weight= 16372, color= 8
	 item 554, weight= 16408, color= 10
	 item 555, weight= 16422, color= 5
	 item 556, weight= 16439, color= 17
	 item 557, weight= 16454, color= 7
	 item 558, weight= 16464, color= 4
	 item 559, weight= 16471, color= 7
	 item 560, weight= 16486, color= 12
	 item 561, weight= 16492, color= 16
	 item 562, weight= 16518, color= 3
	 item 563, weight= 16534, color= 10
	 item 564, weight= 16567, color= 17
	 item 565, weight= 16575, color= 15
	 item 566, weight= 16580, color= 9
	 item 567, weight= 16582, color= 17
	 item 568, weight= 16583, color= 12
	 item 569, weight= 16616, color= 11
	 item 570, weight= 16664, color= 4
	 item 571, weight= 16668, color= 4
	 item 572, weight= 16670, color= 14
	 item 573, weight= 16687, color= 9
	 item 574, weight= 16688, color= 11
	 item 575, weight= 16694, color= 10
	 item 576, weight= 16695, color= 14
	 item 577, weight= 16696, color= 12
	 item 578, weight= 16740, color= 17
	 item 579, weight= 16756, color= 17
	 item 580, weight= 16769, color= 1
	 item 581, weight= 16776, color= 4
	 item 582, weight= 16798, color= 18
	 item 583, weight= 16815, color= 5
	 item 584, weight= 16816, color= 12
	 item 585, weight= 16863, color= 5
	 item 586, weight= 16864, color= 19
	 item 587, weight= 16900, color= 11
	 item 588, weight= 16906, color= 12
	 item 589, weight= 16916, color= 8
	 item 590, weight= 16938, color= 2
	 item 591, weight= 16952, color= 14
	 item 592, weight= 16964, color= 5
	 item 593, weight= 16976, color= 5
	 item 594, weight= 17002, color= 1
	 item 595, weight= 17016, color= 3
	 item 596, weight= 17018, color= 11
	 item 597, weight= 17036, color= 17
	 item 598, weight= 17066, color= 16
	 item 599, weight= 17076, color= 15
	 item 600, weight= 17086, color= 6
	 item 601, weight= 17096, color= 5

VRPSolver warning: Interval set for resource 1 on source node (when source != sink) is ignored (by definition is [0.0,0.0])
VRPSolver warning: Interval set for resource 2 on source node (when source != sink) is ignored (by definition is [0.0,0.0])
VRPSolver warning: Interval set for resource 3 on source node (when source != sink) is ignored (by definition is [0.0,0.0])
VRPSolver warning: Interval set for resource 4 on source node (when source != sink) is ignored (by definition is [0.0,0.0])
VRPSolver warning: Interval set for resource 5 on source node (when source != sink) is ignored (by definition is [0.0,0.0])
VRPSolver warning: Interval set for resource 6 on source node (when source != sink) is ignored (by definition is [0.0,0.0])
VRPSolver warning: Interval set for resource 7 on source node (when source != sink) is ignored (by definition is [0.0,0.0])
VRPSolver warning: Interval set for resource 8 on source node (when source != sink) is ignored (by definition is [0.0,0.0])
VRPSolver warning: Interval set for resource 9 on source node (when source != sink) is ignored (by definition is [0.0,0.0])
VRPSolver warning: Interval set for resource 10 on source node (when source != sink) is ignored (by definition is [0.0,0.0])
VRPSolver warning: Interval set for resource 11 on source node (when source != sink) is ignored (by definition is [0.0,0.0])
VRPSolver warning: Interval set for resource 12 on source node (when source != sink) is ignored (by definition is [0.0,0.0])
VRPSolver warning: Interval set for resource 13 on source node (when source != sink) is ignored (by definition is [0.0,0.0])
VRPSolver warning: Interval set for resource 14 on source node (when source != sink) is ignored (by definition is [0.0,0.0])
VRPSolver warning: Interval set for resource 15 on source node (when source != sink) is ignored (by definition is [0.0,0.0])
VRPSolver warning: Interval set for resource 16 on source node (when source != sink) is ignored (by definition is [0.0,0.0])
VRPSolver warning: Interval set for resource 17 on source node (when source != sink) is ignored (by definition is [0.0,0.0])
VRPSolver warning: Interval set for resource 18 on source node (when source != sink) is ignored (by definition is [0.0,0.0])
VRPSolver warning: Interval set for resource 19 on source node (when source != sink) is ignored (by definition is [0.0,0.0])
VRPSolver warning: Interval set for resource 20 on source node (when source != sink) is ignored (by definition is [0.0,0.0])
VRPSolver warning: Interval set for resource 21 on source node (when source != sink) is ignored (by definition is [0.0,0.0])
[41m solve [00m
~~~~~~~~~~~~~~~~~~~~~~~~~~~~~~~~~~~~~~~~~~~~~~~~~~~~~~~~~~~~~~~~~~~~~~~~~~~~~~
VRPSolver v0.4.1, 24/03/2021. Web: vrpsolver.math.u-bordeaux.fr
Corresponds to the solver by Pessoa, Sadykov, Uchoa and Vanderbeck (2020)
Paper: dx.doi.org/10.1007/s10107-020-01523-z
USE THIS CODE ONLY FOR ACADEMIC PURPOSES AT YOUR OWN RISK
~~~~~~~~~~~~~~~~~~~~~~~~~~~~~~~~~~~~~~~~~~~~~~~~~~~~~~~~~~~~~~~~~~~~~~~~~~~~~~
BaPCod v053, 24/03/2021, © Inria Bordeaux, France
~~~~~~~~~~~~~~~~~~~~~~~~~~~~~~~~~~~~~~~~~~~~~~~~~~~~~~~~~~~~~~~~~~~~~~~~~~~~~~
VRPSolver parameters:
GlobalTimeLimit = 60
MaxNbOfBBtreeNodeTreated = 100000
treeSearchStrategy = 1
RCSPstopCutGenTimeThresholdInPricing = 10
RCSPhardTimeThresholdInPricing = 20
RCSPnumberOfBucketsPerVertex = 2000
RCSPdynamicBucketSteps = 0
RCSPuseBidirectionalSearch = 1
RCSPapplyReducedCostFixing = 1
RCSPredCostFixingFalseGap = 0
RCSPmaxNumOfColsPerIteration = 100
RCSPmaxNumOfColsPerExactIteration = 100
RCSPheurLabelingStrategy = 4
StabilizationMinPhaseOfStage = 1
RCSPmaxNumOfLabelsInEnumeration = 100000
RCSPmaxNumOfEnumeratedSolutions = 1000000
RCSPmaxNumOfEnumSolutionsForMIP = 100000
RCSPinitNGneighbourhoodSize = 0
RCSPmaxNGneighbourhoodSize = 0
RCSPrankOneCutsMaxNumPerRound = 100
RCSPrankOneCutsMaxNumRows = -1
RCSPrankOneCutsMemoryType = 2
CutTailingOffThreshold = 0.02
CutTailingOffCounterThreshold = 3
SafeDualBoundScaleFactor = -1
StrongBranchingPhaseOneCandidatesNumber = 100
StrongBranchingPhaseOneTreeSizeEstimRatio = 0.3
StrongBranchingPhaseTwoCandidatesNumber = 1
StrongBranchingPhaseTwoTreeSizeEstimRatio = 0.1
MaxTimeForRestrictedMasterIpHeur = -1
DivingHeurUseDepthLimit = 0
MaxLDSbreadth = 3
MaxLDSdepth = 2
New model incumbent solution 1e+06, TIME = 0h0m0s3t = 3
