Application parameters:
  batch  =>  nothing
  instance  =>  "/IN/600_20000_DI_40.txt-Q5"
  ub  =>  1.0e6
  cfg  =>  "/CFG/BPP.cfg"
data = Colored Bin Packing dataset.
number of items = 601
number of colors = 5
capacity = 15600
Items : 
	 item 1, weight= 24, color= 2
	 item 2, weight= 80, color= 0
	 item 3, weight= 128, color= 4
	 item 4, weight= 140, color= 3
	 item 5, weight= 176, color= 2
	 item 6, weight= 216, color= 3
	 item 7, weight= 224, color= 3
	 item 8, weight= 224, color= 4
	 item 9, weight= 240, color= 3
	 item 10, weight= 248, color= 3
	 item 11, weight= 256, color= 1
	 item 12, weight= 256, color= 1
	 item 13, weight= 256, color= 3
	 item 14, weight= 256, color= 4
	 item 15, weight= 260, color= 3
	 item 16, weight= 264, color= 1
	 item 17, weight= 264, color= 2
	 item 18, weight= 268, color= 0
	 item 19, weight= 268, color= 2
	 item 20, weight= 276, color= 3
	 item 21, weight= 280, color= 1
	 item 22, weight= 280, color= 2
	 item 23, weight= 282, color= 2
	 item 24, weight= 284, color= 1
	 item 25, weight= 286, color= 2
	 item 26, weight= 288, color= 1
	 item 27, weight= 288, color= 2
	 item 28, weight= 288, color= 3
	 item 29, weight= 290, color= 3
	 item 30, weight= 292, color= 1
	 item 31, weight= 300, color= 2
	 item 32, weight= 300, color= 2
	 item 33, weight= 302, color= 3
	 item 34, weight= 304, color= 0
	 item 35, weight= 304, color= 0
	 item 36, weight= 304, color= 2
	 item 37, weight= 304, color= 2
	 item 38, weight= 304, color= 3
	 item 39, weight= 304, color= 4
	 item 40, weight= 308, color= 2
	 item 41, weight= 310, color= 3
	 item 42, weight= 312, color= 1
	 item 43, weight= 312, color= 1
	 item 44, weight= 312, color= 1
	 item 45, weight= 320, color= 2
	 item 46, weight= 320, color= 3
	 item 47, weight= 320, color= 3
	 item 48, weight= 320, color= 4
	 item 49, weight= 322, color= 2
	 item 50, weight= 322, color= 2
	 item 51, weight= 324, color= 4
	 item 52, weight= 326, color= 4
	 item 53, weight= 328, color= 1
	 item 54, weight= 332, color= 3
	 item 55, weight= 332, color= 4
	 item 56, weight= 336, color= 1
	 item 57, weight= 336, color= 4
	 item 58, weight= 338, color= 1
	 item 59, weight= 340, color= 4
	 item 60, weight= 342, color= 2
	 item 61, weight= 344, color= 0
	 item 62, weight= 352, color= 0
	 item 63, weight= 352, color= 3
	 item 64, weight= 356, color= 0
	 item 65, weight= 358, color= 1
	 item 66, weight= 360, color= 1
	 item 67, weight= 362, color= 1
	 item 68, weight= 372, color= 3
	 item 69, weight= 380, color= 2
	 item 70, weight= 384, color= 1
	 item 71, weight= 384, color= 1
	 item 72, weight= 384, color= 3
	 item 73, weight= 384, color= 3
	 item 74, weight= 384, color= 4
	 item 75, weight= 392, color= 0
	 item 76, weight= 392, color= 3
	 item 77, weight= 392, color= 4
	 item 78, weight= 400, color= 3
	 item 79, weight= 404, color= 2
	 item 80, weight= 406, color= 3
	 item 81, weight= 412, color= 0
	 item 82, weight= 416, color= 4
	 item 83, weight= 424, color= 0
	 item 84, weight= 424, color= 3
	 item 85, weight= 428, color= 3
	 item 86, weight= 432, color= 0
	 item 87, weight= 432, color= 3
	 item 88, weight= 440, color= 3
	 item 89, weight= 440, color= 4
	 item 90, weight= 448, color= 3
	 item 91, weight= 454, color= 4
	 item 92, weight= 456, color= 3
	 item 93, weight= 456, color= 4
	 item 94, weight= 464, color= 4
	 item 95, weight= 468, color= 4
	 item 96, weight= 470, color= 4
	 item 97, weight= 472, color= 0
	 item 98, weight= 472, color= 0
	 item 99, weight= 480, color= 0
	 item 100, weight= 488, color= 0
	 item 101, weight= 496, color= 0
	 item 102, weight= 496, color= 1
	 item 103, weight= 496, color= 2
	 item 104, weight= 496, color= 4
	 item 105, weight= 506, color= 4
	 item 106, weight= 508, color= 3
	 item 107, weight= 512, color= 2
	 item 108, weight= 520, color= 0
	 item 109, weight= 520, color= 2
	 item 110, weight= 522, color= 0
	 item 111, weight= 524, color= 0
	 item 112, weight= 528, color= 0
	 item 113, weight= 528, color= 1
	 item 114, weight= 528, color= 4
	 item 115, weight= 532, color= 2
	 item 116, weight= 532, color= 4
	 item 117, weight= 534, color= 1
	 item 118, weight= 538, color= 0
	 item 119, weight= 542, color= 3
	 item 120, weight= 544, color= 2
	 item 121, weight= 558, color= 4
	 item 122, weight= 560, color= 0
	 item 123, weight= 572, color= 4
	 item 124, weight= 576, color= 2
	 item 125, weight= 576, color= 3
	 item 126, weight= 584, color= 4
	 item 127, weight= 588, color= 3
	 item 128, weight= 592, color= 1
	 item 129, weight= 592, color= 3
	 item 130, weight= 596, color= 1
	 item 131, weight= 604, color= 0
	 item 132, weight= 616, color= 4
	 item 133, weight= 624, color= 3
	 item 134, weight= 632, color= 2
	 item 135, weight= 636, color= 2
	 item 136, weight= 640, color= 0
	 item 137, weight= 640, color= 0
	 item 138, weight= 640, color= 4
	 item 139, weight= 652, color= 4
	 item 140, weight= 656, color= 0
	 item 141, weight= 668, color= 2
	 item 142, weight= 672, color= 2
	 item 143, weight= 680, color= 0
	 item 144, weight= 688, color= 2
	 item 145, weight= 692, color= 2
	 item 146, weight= 704, color= 0
	 item 147, weight= 704, color= 2
	 item 148, weight= 710, color= 2
	 item 149, weight= 712, color= 2
	 item 150, weight= 720, color= 2
	 item 151, weight= 724, color= 4
	 item 152, weight= 728, color= 4
	 item 153, weight= 740, color= 0
	 item 154, weight= 752, color= 1
	 item 155, weight= 776, color= 0
	 item 156, weight= 776, color= 4
	 item 157, weight= 784, color= 2
	 item 158, weight= 784, color= 4
	 item 159, weight= 794, color= 1
	 item 160, weight= 800, color= 0
	 item 161, weight= 832, color= 3
	 item 162, weight= 848, color= 3
	 item 163, weight= 856, color= 4
	 item 164, weight= 864, color= 0
	 item 165, weight= 864, color= 1
	 item 166, weight= 876, color= 1
	 item 167, weight= 876, color= 4
	 item 168, weight= 888, color= 0
	 item 169, weight= 896, color= 4
	 item 170, weight= 912, color= 0
	 item 171, weight= 912, color= 3
	 item 172, weight= 960, color= 0
	 item 173, weight= 960, color= 1
	 item 174, weight= 976, color= 1
	 item 175, weight= 976, color= 4
	 item 176, weight= 978, color= 1
	 item 177, weight= 978, color= 2
	 item 178, weight= 982, color= 1
	 item 179, weight= 984, color= 0
	 item 180, weight= 998, color= 3
	 item 181, weight= 1000, color= 4
	 item 182, weight= 1008, color= 2
	 item 183, weight= 1016, color= 0
	 item 184, weight= 1040, color= 3
	 item 185, weight= 1072, color= 4
	 item 186, weight= 1120, color= 4
	 item 187, weight= 1124, color= 2
	 item 188, weight= 1128, color= 2
	 item 189, weight= 1144, color= 0
	 item 190, weight= 1144, color= 0
	 item 191, weight= 1144, color= 1
	 item 192, weight= 1144, color= 2
	 item 193, weight= 1216, color= 3
	 item 194, weight= 1280, color= 0
	 item 195, weight= 1280, color= 2
	 item 196, weight= 1296, color= 0
	 item 197, weight= 1296, color= 0
	 item 198, weight= 1296, color= 0
	 item 199, weight= 1296, color= 2
	 item 200, weight= 1296, color= 3
	 item 201, weight= 1298, color= 2
	 item 202, weight= 1298, color= 3
	 item 203, weight= 1298, color= 4
	 item 204, weight= 1304, color= 3
	 item 205, weight= 1322, color= 2
	 item 206, weight= 1324, color= 1
	 item 207, weight= 1332, color= 4
	 item 208, weight= 1350, color= 4
	 item 209, weight= 1368, color= 4
	 item 210, weight= 1390, color= 4
	 item 211, weight= 1412, color= 1
	 item 212, weight= 1414, color= 2
	 item 213, weight= 1419, color= 4
	 item 214, weight= 1434, color= 3
	 item 215, weight= 1439, color= 2
	 item 216, weight= 1459, color= 1
	 item 217, weight= 1460, color= 1
	 item 218, weight= 1464, color= 0
	 item 219, weight= 1466, color= 1
	 item 220, weight= 1476, color= 0
	 item 221, weight= 1506, color= 0
	 item 222, weight= 1507, color= 3
	 item 223, weight= 1513, color= 1
	 item 224, weight= 1528, color= 1
	 item 225, weight= 1532, color= 4
	 item 226, weight= 1546, color= 4
	 item 227, weight= 1553, color= 1
	 item 228, weight= 1562, color= 2
	 item 229, weight= 1565, color= 3
	 item 230, weight= 1602, color= 2
	 item 231, weight= 1604, color= 4
	 item 232, weight= 1605, color= 4
	 item 233, weight= 1608, color= 0
	 item 234, weight= 1611, color= 1
	 item 235, weight= 1619, color= 3
	 item 236, weight= 1622, color= 3
	 item 237, weight= 1635, color= 1
	 item 238, weight= 1644, color= 0
	 item 239, weight= 1662, color= 2
	 item 240, weight= 1668, color= 0
	 item 241, weight= 1670, color= 1
	 item 242, weight= 1688, color= 1
	 item 243, weight= 1689, color= 2
	 item 244, weight= 1695, color= 1
	 item 245, weight= 1710, color= 2
	 item 246, weight= 1719, color= 4
	 item 247, weight= 1732, color= 4
	 item 248, weight= 1755, color= 3
	 item 249, weight= 1789, color= 1
	 item 250, weight= 1795, color= 4
	 item 251, weight= 1800, color= 2
	 item 252, weight= 1804, color= 1
	 item 253, weight= 1804, color= 2
	 item 254, weight= 1811, color= 2
	 item 255, weight= 1814, color= 4
	 item 256, weight= 1822, color= 3
	 item 257, weight= 1860, color= 1
	 item 258, weight= 1882, color= 1
	 item 259, weight= 1888, color= 3
	 item 260, weight= 1890, color= 2
	 item 261, weight= 1891, color= 1
	 item 262, weight= 1901, color= 0
	 item 263, weight= 1923, color= 2
	 item 264, weight= 1932, color= 4
	 item 265, weight= 1960, color= 4
	 item 266, weight= 1972, color= 3
	 item 267, weight= 1982, color= 1
	 item 268, weight= 1992, color= 3
	 item 269, weight= 2004, color= 1
	 item 270, weight= 2009, color= 3
	 item 271, weight= 2035, color= 1
	 item 272, weight= 2042, color= 0
	 item 273, weight= 2074, color= 4
	 item 274, weight= 2116, color= 0
	 item 275, weight= 2123, color= 3
	 item 276, weight= 2144, color= 4
	 item 277, weight= 2146, color= 2
	 item 278, weight= 2171, color= 4
	 item 279, weight= 2184, color= 0
	 item 280, weight= 2204, color= 4
	 item 281, weight= 2209, color= 3
	 item 282, weight= 2213, color= 2
	 item 283, weight= 2260, color= 1
	 item 284, weight= 2273, color= 3
	 item 285, weight= 2280, color= 1
	 item 286, weight= 2298, color= 3
	 item 287, weight= 2302, color= 4
	 item 288, weight= 2348, color= 3
	 item 289, weight= 2351, color= 0
	 item 290, weight= 2367, color= 3
	 item 291, weight= 2372, color= 4
	 item 292, weight= 2382, color= 1
	 item 293, weight= 2445, color= 2
	 item 294, weight= 2448, color= 3
	 item 295, weight= 2480, color= 2
	 item 296, weight= 2482, color= 4
	 item 297, weight= 2500, color= 3
	 item 298, weight= 2504, color= 3
	 item 299, weight= 2531, color= 3
	 item 300, weight= 2534, color= 2
	 item 301, weight= 2568, color= 0
	 item 302, weight= 2568, color= 0
	 item 303, weight= 2596, color= 2
	 item 304, weight= 2602, color= 3
	 item 305, weight= 2620, color= 1
	 item 306, weight= 2622, color= 3
	 item 307, weight= 2661, color= 1
	 item 308, weight= 2662, color= 3
	 item 309, weight= 2679, color= 3
	 item 310, weight= 2687, color= 4
	 item 311, weight= 2695, color= 0
	 item 312, weight= 2711, color= 1
	 item 313, weight= 2712, color= 2
	 item 314, weight= 2748, color= 0
	 item 315, weight= 2799, color= 0
	 item 316, weight= 2814, color= 1
	 item 317, weight= 2874, color= 2
	 item 318, weight= 2892, color= 0
	 item 319, weight= 2904, color= 0
	 item 320, weight= 2912, color= 0
	 item 321, weight= 2948, color= 3
	 item 322, weight= 2961, color= 0
	 item 323, weight= 2962, color= 0
	 item 324, weight= 2971, color= 4
	 item 325, weight= 2981, color= 4
	 item 326, weight= 3048, color= 4
	 item 327, weight= 3092, color= 4
	 item 328, weight= 3156, color= 2
	 item 329, weight= 3174, color= 3
	 item 330, weight= 3187, color= 2
	 item 331, weight= 3201, color= 0
	 item 332, weight= 3208, color= 4
	 item 333, weight= 3236, color= 1
	 item 334, weight= 3266, color= 1
	 item 335, weight= 3308, color= 2
	 item 336, weight= 3354, color= 4
	 item 337, weight= 3378, color= 1
	 item 338, weight= 3402, color= 0
	 item 339, weight= 3416, color= 0
	 item 340, weight= 3465, color= 4
	 item 341, weight= 3551, color= 3
	 item 342, weight= 3564, color= 3
	 item 343, weight= 3574, color= 3
	 item 344, weight= 3604, color= 3
	 item 345, weight= 3623, color= 2
	 item 346, weight= 3646, color= 3
	 item 347, weight= 3652, color= 2
	 item 348, weight= 3706, color= 4
	 item 349, weight= 3816, color= 3
	 item 350, weight= 3885, color= 0
	 item 351, weight= 3898, color= 1
	 item 352, weight= 3944, color= 0
	 item 353, weight= 3956, color= 4
	 item 354, weight= 3971, color= 1
	 item 355, weight= 3976, color= 1
	 item 356, weight= 4044, color= 2
	 item 357, weight= 4168, color= 4
	 item 358, weight= 4174, color= 4
	 item 359, weight= 4254, color= 3
	 item 360, weight= 4287, color= 3
	 item 361, weight= 4340, color= 1
	 item 362, weight= 4389, color= 3
	 item 363, weight= 4402, color= 1
	 item 364, weight= 4408, color= 1
	 item 365, weight= 4444, color= 3
	 item 366, weight= 4600, color= 4
	 item 367, weight= 4810, color= 3
	 item 368, weight= 4840, color= 1
	 item 369, weight= 4874, color= 4
	 item 370, weight= 4889, color= 1
	 item 371, weight= 4891, color= 3
	 item 372, weight= 4892, color= 2
	 item 373, weight= 4895, color= 0
	 item 374, weight= 4911, color= 4
	 item 375, weight= 4932, color= 2
	 item 376, weight= 4999, color= 0
	 item 377, weight= 5006, color= 3
	 item 378, weight= 5083, color= 3
	 item 379, weight= 5236, color= 3
	 item 380, weight= 5448, color= 0
	 item 381, weight= 5578, color= 4
	 item 382, weight= 5621, color= 3
	 item 383, weight= 5640, color= 2
	 item 384, weight= 5644, color= 4
	 item 385, weight= 5656, color= 2
	 item 386, weight= 5723, color= 2
	 item 387, weight= 5730, color= 1
	 item 388, weight= 5734, color= 4
	 item 389, weight= 5756, color= 4
	 item 390, weight= 5824, color= 2
	 item 391, weight= 5876, color= 4
	 item 392, weight= 6004, color= 2
	 item 393, weight= 6088, color= 3
	 item 394, weight= 6472, color= 2
	 item 395, weight= 6491, color= 1
	 item 396, weight= 6492, color= 3
	 item 397, weight= 6493, color= 2
	 item 398, weight= 6497, color= 0
	 item 399, weight= 6498, color= 0
	 item 400, weight= 6500, color= 3
	 item 401, weight= 6501, color= 4
	 item 402, weight= 6502, color= 0
	 item 403, weight= 6864, color= 2
	 item 404, weight= 6872, color= 3
	 item 405, weight= 7696, color= 3
	 item 406, weight= 7801, color= 1
	 item 407, weight= 7802, color= 2
	 item 408, weight= 7804, color= 4
	 item 409, weight= 7805, color= 0
	 item 410, weight= 7806, color= 2
	 item 411, weight= 7809, color= 1
	 item 412, weight= 7812, color= 1
	 item 413, weight= 7813, color= 0
	 item 414, weight= 7816, color= 2
	 item 415, weight= 7848, color= 0
	 item 416, weight= 8296, color= 4
	 item 417, weight= 8700, color= 2
	 item 418, weight= 8722, color= 3
	 item 419, weight= 8726, color= 3
	 item 420, weight= 8733, color= 2
	 item 421, weight= 8828, color= 2
	 item 422, weight= 8840, color= 1
	 item 423, weight= 8855, color= 3
	 item 424, weight= 8876, color= 0
	 item 425, weight= 9080, color= 3
	 item 426, weight= 9196, color= 3
	 item 427, weight= 9320, color= 0
	 item 428, weight= 9324, color= 4
	 item 429, weight= 9490, color= 2
	 item 430, weight= 9501, color= 3
	 item 431, weight= 9594, color= 3
	 item 432, weight= 9603, color= 0
	 item 433, weight= 9684, color= 2
	 item 434, weight= 9707, color= 1
	 item 435, weight= 9727, color= 1
	 item 436, weight= 9731, color= 4
	 item 437, weight= 9732, color= 1
	 item 438, weight= 9735, color= 4
	 item 439, weight= 9800, color= 0
	 item 440, weight= 9830, color= 3
	 item 441, weight= 10088, color= 3
	 item 442, weight= 10218, color= 1
	 item 443, weight= 10268, color= 3
	 item 444, weight= 10322, color= 0
	 item 445, weight= 10328, color= 3
	 item 446, weight= 10335, color= 4
	 item 447, weight= 10396, color= 2
	 item 448, weight= 10457, color= 2
	 item 449, weight= 10498, color= 2
	 item 450, weight= 10600, color= 3
	 item 451, weight= 10756, color= 1
	 item 452, weight= 10822, color= 2
	 item 453, weight= 10835, color= 4
	 item 454, weight= 10840, color= 0
	 item 455, weight= 10860, color= 0
	 item 456, weight= 10926, color= 4
	 item 457, weight= 10939, color= 1
	 item 458, weight= 11032, color= 2
	 item 459, weight= 11154, color= 4
	 item 460, weight= 11226, color= 3
	 item 461, weight= 11244, color= 1
	 item 462, weight= 11253, color= 2
	 item 463, weight= 11272, color= 0
	 item 464, weight= 11284, color= 2
	 item 465, weight= 11332, color= 3
	 item 466, weight= 11339, color= 0
	 item 467, weight= 11443, color= 0
	 item 468, weight= 11512, color= 3
	 item 469, weight= 11518, color= 1
	 item 470, weight= 11578, color= 4
	 item 471, weight= 11636, color= 2
	 item 472, weight= 11682, color= 3
	 item 473, weight= 11706, color= 2
	 item 474, weight= 11724, color= 4
	 item 475, weight= 11752, color= 3
	 item 476, weight= 11754, color= 0
	 item 477, weight= 11759, color= 3
	 item 478, weight= 11777, color= 1
	 item 479, weight= 11794, color= 1
	 item 480, weight= 11892, color= 3
	 item 481, weight= 11960, color= 4
	 item 482, weight= 12020, color= 3
	 item 483, weight= 12023, color= 0
	 item 484, weight= 12037, color= 1
	 item 485, weight= 12050, color= 0
	 item 486, weight= 12068, color= 0
	 item 487, weight= 12120, color= 1
	 item 488, weight= 12132, color= 0
	 item 489, weight= 12154, color= 1
	 item 490, weight= 12226, color= 2
	 item 491, weight= 12243, color= 2
	 item 492, weight= 12308, color= 2
	 item 493, weight= 12347, color= 2
	 item 494, weight= 12360, color= 2
	 item 495, weight= 12367, color= 2
	 item 496, weight= 12371, color= 3
	 item 497, weight= 12387, color= 2
	 item 498, weight= 12391, color= 3
	 item 499, weight= 12407, color= 0
	 item 500, weight= 12410, color= 3
	 item 501, weight= 12454, color= 4
	 item 502, weight= 12460, color= 1
	 item 503, weight= 12478, color= 4
	 item 504, weight= 12492, color= 1
	 item 505, weight= 12496, color= 3
	 item 506, weight= 12536, color= 2
	 item 507, weight= 12563, color= 2
	 item 508, weight= 12600, color= 3
	 item 509, weight= 12604, color= 2
	 item 510, weight= 12622, color= 2
	 item 511, weight= 12667, color= 2
	 item 512, weight= 12672, color= 4
	 item 513, weight= 12744, color= 0
	 item 514, weight= 12746, color= 0
	 item 515, weight= 12756, color= 1
	 item 516, weight= 12779, color= 2
	 item 517, weight= 12788, color= 2
	 item 518, weight= 12842, color= 4
	 item 519, weight= 12846, color= 3
	 item 520, weight= 12872, color= 2
	 item 521, weight= 12873, color= 4
	 item 522, weight= 12926, color= 1
	 item 523, weight= 12951, color= 3
	 item 524, weight= 12956, color= 3
	 item 525, weight= 12977, color= 3
	 item 526, weight= 12984, color= 2
	 item 527, weight= 12997, color= 3
	 item 528, weight= 13026, color= 2
	 item 529, weight= 13036, color= 0
	 item 530, weight= 13053, color= 0
	 item 531, weight= 13068, color= 3
	 item 532, weight= 13114, color= 3
	 item 533, weight= 13139, color= 2
	 item 534, weight= 13154, color= 2
	 item 535, weight= 13159, color= 0
	 item 536, weight= 13191, color= 1
	 item 537, weight= 13204, color= 3
	 item 538, weight= 13224, color= 3
	 item 539, weight= 13226, color= 1
	 item 540, weight= 13236, color= 0
	 item 541, weight= 13256, color= 3
	 item 542, weight= 13284, color= 3
	 item 543, weight= 13293, color= 2
	 item 544, weight= 13319, color= 4
	 item 545, weight= 13346, color= 4
	 item 546, weight= 13405, color= 4
	 item 547, weight= 13426, color= 4
	 item 548, weight= 13427, color= 1
	 item 549, weight= 13436, color= 2
	 item 550, weight= 13444, color= 4
	 item 551, weight= 13447, color= 4
	 item 552, weight= 13448, color= 1
	 item 553, weight= 13455, color= 0
	 item 554, weight= 13486, color= 3
	 item 555, weight= 13514, color= 4
	 item 556, weight= 13524, color= 3
	 item 557, weight= 13539, color= 3
	 item 558, weight= 13550, color= 1
	 item 559, weight= 13567, color= 0
	 item 560, weight= 13572, color= 0
	 item 561, weight= 13575, color= 3
	 item 562, weight= 13576, color= 0
	 item 563, weight= 13598, color= 3
	 item 564, weight= 13604, color= 0
	 item 565, weight= 13606, color= 2
	 item 566, weight= 13636, color= 4
	 item 567, weight= 13639, color= 1
	 item 568, weight= 13654, color= 1
	 item 569, weight= 13659, color= 4
	 item 570, weight= 13667, color= 4
	 item 571, weight= 13675, color= 3
	 item 572, weight= 13678, color= 3
	 item 573, weight= 13684, color= 4
	 item 574, weight= 13688, color= 1
	 item 575, weight= 13723, color= 3
	 item 576, weight= 13726, color= 0
	 item 577, weight= 13737, color= 4
	 item 578, weight= 13746, color= 4
	 item 579, weight= 13764, color= 4
	 item 580, weight= 13768, color= 3
	 item 581, weight= 13785, color= 2
	 item 582, weight= 13793, color= 1
	 item 583, weight= 13794, color= 4
	 item 584, weight= 13821, color= 0
	 item 585, weight= 13836, color= 4
	 item 586, weight= 13842, color= 0
	 item 587, weight= 13848, color= 1
	 item 588, weight= 13851, color= 2
	 item 589, weight= 13875, color= 3
	 item 590, weight= 13882, color= 3
	 item 591, weight= 13899, color= 0
	 item 592, weight= 13906, color= 3
	 item 593, weight= 13908, color= 3
	 item 594, weight= 13924, color= 4
	 item 595, weight= 13934, color= 4
	 item 596, weight= 13976, color= 1
	 item 597, weight= 13982, color= 1
	 item 598, weight= 14004, color= 4
	 item 599, weight= 14018, color= 4
	 item 600, weight= 14020, color= 3
	 item 601, weight= 14040, color= 0

VRPSolver warning: Interval set for resource 1 on source node (when source != sink) is ignored (by definition is [0.0,0.0])
VRPSolver warning: Interval set for resource 2 on source node (when source != sink) is ignored (by definition is [0.0,0.0])
VRPSolver warning: Interval set for resource 3 on source node (when source != sink) is ignored (by definition is [0.0,0.0])
VRPSolver warning: Interval set for resource 4 on source node (when source != sink) is ignored (by definition is [0.0,0.0])
VRPSolver warning: Interval set for resource 5 on source node (when source != sink) is ignored (by definition is [0.0,0.0])
VRPSolver warning: Interval set for resource 6 on source node (when source != sink) is ignored (by definition is [0.0,0.0])
[41m solve [00m
~~~~~~~~~~~~~~~~~~~~~~~~~~~~~~~~~~~~~~~~~~~~~~~~~~~~~~~~~~~~~~~~~~~~~~~~~~~~~~
VRPSolver v0.4.1, 24/03/2021. Web: vrpsolver.math.u-bordeaux.fr
Corresponds to the solver by Pessoa, Sadykov, Uchoa and Vanderbeck (2020)
Paper: dx.doi.org/10.1007/s10107-020-01523-z
USE THIS CODE ONLY FOR ACADEMIC PURPOSES AT YOUR OWN RISK
~~~~~~~~~~~~~~~~~~~~~~~~~~~~~~~~~~~~~~~~~~~~~~~~~~~~~~~~~~~~~~~~~~~~~~~~~~~~~~
BaPCod v053, 24/03/2021, © Inria Bordeaux, France
~~~~~~~~~~~~~~~~~~~~~~~~~~~~~~~~~~~~~~~~~~~~~~~~~~~~~~~~~~~~~~~~~~~~~~~~~~~~~~
VRPSolver parameters:
GlobalTimeLimit = 60
MaxNbOfBBtreeNodeTreated = 100000
treeSearchStrategy = 1
RCSPstopCutGenTimeThresholdInPricing = 10
RCSPhardTimeThresholdInPricing = 20
RCSPnumberOfBucketsPerVertex = 2000
RCSPdynamicBucketSteps = 0
RCSPuseBidirectionalSearch = 1
RCSPapplyReducedCostFixing = 1
RCSPredCostFixingFalseGap = 0
RCSPmaxNumOfColsPerIteration = 100
RCSPmaxNumOfColsPerExactIteration = 100
RCSPheurLabelingStrategy = 4
StabilizationMinPhaseOfStage = 1
RCSPmaxNumOfLabelsInEnumeration = 100000
RCSPmaxNumOfEnumeratedSolutions = 1000000
RCSPmaxNumOfEnumSolutionsForMIP = 100000
RCSPinitNGneighbourhoodSize = 0
RCSPmaxNGneighbourhoodSize = 0
RCSPrankOneCutsMaxNumPerRound = 100
RCSPrankOneCutsMaxNumRows = -1
RCSPrankOneCutsMemoryType = 2
CutTailingOffThreshold = 0.02
CutTailingOffCounterThreshold = 3
SafeDualBoundScaleFactor = -1
StrongBranchingPhaseOneCandidatesNumber = 100
StrongBranchingPhaseOneTreeSizeEstimRatio = 0.3
StrongBranchingPhaseTwoCandidatesNumber = 1
StrongBranchingPhaseTwoTreeSizeEstimRatio = 0.1
MaxTimeForRestrictedMasterIpHeur = -1
DivingHeurUseDepthLimit = 0
MaxLDSbreadth = 3
MaxLDSdepth = 2
New model incumbent solution 1e+06, TIME = 0h0m0s3t = 3
Model is built TIME = 0h0m4s43t = 443
************************************************************************************************
**** BaB tree root node
**** Local DB = -1e+12, global bounds : [ -1e+12 , 1e+06 ], TIME = 0h0m4s44t = 444
**** 1 open nodes, 0 columns (0 active), 0 dyn. constrs. (0 active), 1204 art. vars. (1204 active)
************************************************************************************************
<DWph=2> <it= 10> <et=12.14> <Mt= 0.06> <Spt= 7.63> <nCl=1000> <DB=-18152605007.9757> <Mlp=570806352.4021> <PB=1000000> 
<DWph=2> <it= 20> <et=20.82> <Mt= 0.50> <Spt= 8.17> <nCl=1000> <DB=-11012575163.0747> <Mlp=508383070.8536> <PB=1000000> 
<DWph=2> <it= 30> <et=30.50> <Mt= 1.28> <Spt= 8.39> <nCl=1000> <DB=-7196269546.7917> <Mlp=459402772.5536> <PB=1000000> 
<DWph=2> <it= 40> <et=41.49> <Mt= 2.01> <Spt= 8.98> <nCl=1000> <DB=-5278886186.7449> <Mlp=404935158.5536> <PB=1000000> 
<DWph=2> <it= 50> <et=54.02> <Mt= 2.78> <Spt= 9.74> <nCl=1000> <DB=-4182993102.1195> <Mlp=364983804.8702> <PB=1000000> 
