Application parameters:
  batch  =>  nothing
  instance  =>  "/IN/600_20000_DI_47.txt-Q20"
  ub  =>  1.0e6
  cfg  =>  "/CFG/BPP.cfg"
data = Colored Bin Packing dataset.
number of items = 601
number of colors = 20
capacity = 15200
Items : 
	 item 1, weight= 20, color= 12
	 item 2, weight= 28, color= 11
	 item 3, weight= 64, color= 9
	 item 4, weight= 72, color= 6
	 item 5, weight= 96, color= 7
	 item 6, weight= 96, color= 18
	 item 7, weight= 112, color= 5
	 item 8, weight= 140, color= 19
	 item 9, weight= 144, color= 7
	 item 10, weight= 160, color= 6
	 item 11, weight= 160, color= 9
	 item 12, weight= 168, color= 10
	 item 13, weight= 204, color= 12
	 item 14, weight= 208, color= 14
	 item 15, weight= 224, color= 17
	 item 16, weight= 256, color= 11
	 item 17, weight= 256, color= 17
	 item 18, weight= 256, color= 18
	 item 19, weight= 258, color= 15
	 item 20, weight= 258, color= 17
	 item 21, weight= 260, color= 6
	 item 22, weight= 260, color= 12
	 item 23, weight= 264, color= 10
	 item 24, weight= 264, color= 19
	 item 25, weight= 272, color= 8
	 item 26, weight= 272, color= 18
	 item 27, weight= 272, color= 19
	 item 28, weight= 280, color= 2
	 item 29, weight= 280, color= 16
	 item 30, weight= 284, color= 10
	 item 31, weight= 288, color= 1
	 item 32, weight= 288, color= 10
	 item 33, weight= 288, color= 10
	 item 34, weight= 288, color= 19
	 item 35, weight= 290, color= 4
	 item 36, weight= 294, color= 1
	 item 37, weight= 296, color= 1
	 item 38, weight= 296, color= 5
	 item 39, weight= 296, color= 13
	 item 40, weight= 304, color= 10
	 item 41, weight= 304, color= 14
	 item 42, weight= 304, color= 18
	 item 43, weight= 312, color= 10
	 item 44, weight= 312, color= 12
	 item 45, weight= 312, color= 15
	 item 46, weight= 320, color= 2
	 item 47, weight= 320, color= 2
	 item 48, weight= 320, color= 14
	 item 49, weight= 320, color= 14
	 item 50, weight= 328, color= 18
	 item 51, weight= 332, color= 8
	 item 52, weight= 336, color= 10
	 item 53, weight= 338, color= 6
	 item 54, weight= 342, color= 2
	 item 55, weight= 342, color= 16
	 item 56, weight= 348, color= 16
	 item 57, weight= 350, color= 2
	 item 58, weight= 352, color= 4
	 item 59, weight= 352, color= 7
	 item 60, weight= 360, color= 0
	 item 61, weight= 360, color= 0
	 item 62, weight= 364, color= 9
	 item 63, weight= 368, color= 2
	 item 64, weight= 368, color= 16
	 item 65, weight= 368, color= 18
	 item 66, weight= 376, color= 8
	 item 67, weight= 380, color= 9
	 item 68, weight= 384, color= 6
	 item 69, weight= 384, color= 18
	 item 70, weight= 388, color= 2
	 item 71, weight= 392, color= 7
	 item 72, weight= 392, color= 17
	 item 73, weight= 400, color= 2
	 item 74, weight= 400, color= 5
	 item 75, weight= 400, color= 15
	 item 76, weight= 408, color= 10
	 item 77, weight= 416, color= 4
	 item 78, weight= 416, color= 10
	 item 79, weight= 416, color= 16
	 item 80, weight= 424, color= 2
	 item 81, weight= 424, color= 5
	 item 82, weight= 432, color= 5
	 item 83, weight= 432, color= 12
	 item 84, weight= 434, color= 12
	 item 85, weight= 440, color= 0
	 item 86, weight= 442, color= 16
	 item 87, weight= 444, color= 4
	 item 88, weight= 448, color= 18
	 item 89, weight= 452, color= 5
	 item 90, weight= 456, color= 12
	 item 91, weight= 460, color= 2
	 item 92, weight= 462, color= 1
	 item 93, weight= 464, color= 4
	 item 94, weight= 464, color= 11
	 item 95, weight= 480, color= 7
	 item 96, weight= 480, color= 10
	 item 97, weight= 488, color= 16
	 item 98, weight= 494, color= 14
	 item 99, weight= 496, color= 7
	 item 100, weight= 496, color= 18
	 item 101, weight= 500, color= 5
	 item 102, weight= 502, color= 6
	 item 103, weight= 504, color= 18
	 item 104, weight= 512, color= 7
	 item 105, weight= 512, color= 17
	 item 106, weight= 514, color= 5
	 item 107, weight= 520, color= 3
	 item 108, weight= 528, color= 2
	 item 109, weight= 528, color= 8
	 item 110, weight= 532, color= 5
	 item 111, weight= 560, color= 10
	 item 112, weight= 564, color= 3
	 item 113, weight= 566, color= 6
	 item 114, weight= 566, color= 15
	 item 115, weight= 568, color= 11
	 item 116, weight= 576, color= 16
	 item 117, weight= 576, color= 18
	 item 118, weight= 578, color= 16
	 item 119, weight= 580, color= 4
	 item 120, weight= 582, color= 5
	 item 121, weight= 592, color= 0
	 item 122, weight= 608, color= 0
	 item 123, weight= 608, color= 11
	 item 124, weight= 608, color= 14
	 item 125, weight= 620, color= 16
	 item 126, weight= 624, color= 8
	 item 127, weight= 632, color= 3
	 item 128, weight= 640, color= 4
	 item 129, weight= 644, color= 3
	 item 130, weight= 648, color= 11
	 item 131, weight= 648, color= 15
	 item 132, weight= 664, color= 12
	 item 133, weight= 672, color= 4
	 item 134, weight= 680, color= 4
	 item 135, weight= 688, color= 14
	 item 136, weight= 692, color= 0
	 item 137, weight= 692, color= 4
	 item 138, weight= 692, color= 8
	 item 139, weight= 692, color= 14
	 item 140, weight= 700, color= 8
	 item 141, weight= 700, color= 11
	 item 142, weight= 700, color= 14
	 item 143, weight= 704, color= 3
	 item 144, weight= 704, color= 7
	 item 145, weight= 716, color= 5
	 item 146, weight= 716, color= 6
	 item 147, weight= 720, color= 9
	 item 148, weight= 720, color= 11
	 item 149, weight= 728, color= 18
	 item 150, weight= 736, color= 8
	 item 151, weight= 760, color= 11
	 item 152, weight= 792, color= 15
	 item 153, weight= 796, color= 2
	 item 154, weight= 796, color= 15
	 item 155, weight= 796, color= 19
	 item 156, weight= 800, color= 8
	 item 157, weight= 812, color= 12
	 item 158, weight= 812, color= 13
	 item 159, weight= 816, color= 11
	 item 160, weight= 832, color= 2
	 item 161, weight= 832, color= 4
	 item 162, weight= 848, color= 0
	 item 163, weight= 856, color= 16
	 item 164, weight= 860, color= 8
	 item 165, weight= 860, color= 9
	 item 166, weight= 872, color= 2
	 item 167, weight= 876, color= 7
	 item 168, weight= 876, color= 18
	 item 169, weight= 880, color= 8
	 item 170, weight= 912, color= 12
	 item 171, weight= 944, color= 14
	 item 172, weight= 944, color= 15
	 item 173, weight= 946, color= 17
	 item 174, weight= 952, color= 11
	 item 175, weight= 954, color= 6
	 item 176, weight= 960, color= 2
	 item 177, weight= 970, color= 15
	 item 178, weight= 976, color= 2
	 item 179, weight= 976, color= 11
	 item 180, weight= 984, color= 3
	 item 181, weight= 984, color= 4
	 item 182, weight= 984, color= 17
	 item 183, weight= 1000, color= 19
	 item 184, weight= 1016, color= 7
	 item 185, weight= 1048, color= 4
	 item 186, weight= 1056, color= 14
	 item 187, weight= 1064, color= 16
	 item 188, weight= 1076, color= 17
	 item 189, weight= 1096, color= 19
	 item 190, weight= 1098, color= 4
	 item 191, weight= 1104, color= 11
	 item 192, weight= 1110, color= 9
	 item 193, weight= 1112, color= 0
	 item 194, weight= 1112, color= 6
	 item 195, weight= 1152, color= 13
	 item 196, weight= 1216, color= 2
	 item 197, weight= 1232, color= 1
	 item 198, weight= 1248, color= 15
	 item 199, weight= 1264, color= 1
	 item 200, weight= 1264, color= 1
	 item 201, weight= 1264, color= 3
	 item 202, weight= 1264, color= 17
	 item 203, weight= 1266, color= 5
	 item 204, weight= 1284, color= 14
	 item 205, weight= 1291, color= 16
	 item 206, weight= 1302, color= 9
	 item 207, weight= 1311, color= 6
	 item 208, weight= 1324, color= 11
	 item 209, weight= 1340, color= 3
	 item 210, weight= 1342, color= 2
	 item 211, weight= 1368, color= 5
	 item 212, weight= 1371, color= 14
	 item 213, weight= 1388, color= 16
	 item 214, weight= 1406, color= 10
	 item 215, weight= 1428, color= 19
	 item 216, weight= 1434, color= 5
	 item 217, weight= 1443, color= 13
	 item 218, weight= 1448, color= 17
	 item 219, weight= 1460, color= 13
	 item 220, weight= 1461, color= 17
	 item 221, weight= 1464, color= 7
	 item 222, weight= 1481, color= 8
	 item 223, weight= 1486, color= 12
	 item 224, weight= 1494, color= 8
	 item 225, weight= 1497, color= 7
	 item 226, weight= 1516, color= 17
	 item 227, weight= 1522, color= 16
	 item 228, weight= 1532, color= 19
	 item 229, weight= 1560, color= 16
	 item 230, weight= 1566, color= 14
	 item 231, weight= 1569, color= 19
	 item 232, weight= 1572, color= 10
	 item 233, weight= 1598, color= 10
	 item 234, weight= 1610, color= 10
	 item 235, weight= 1624, color= 12
	 item 236, weight= 1644, color= 10
	 item 237, weight= 1672, color= 18
	 item 238, weight= 1678, color= 10
	 item 239, weight= 1681, color= 9
	 item 240, weight= 1684, color= 14
	 item 241, weight= 1699, color= 9
	 item 242, weight= 1715, color= 19
	 item 243, weight= 1719, color= 13
	 item 244, weight= 1758, color= 4
	 item 245, weight= 1759, color= 19
	 item 246, weight= 1764, color= 19
	 item 247, weight= 1800, color= 3
	 item 248, weight= 1811, color= 2
	 item 249, weight= 1820, color= 12
	 item 250, weight= 1838, color= 5
	 item 251, weight= 1846, color= 1
	 item 252, weight= 1880, color= 18
	 item 253, weight= 1888, color= 6
	 item 254, weight= 1900, color= 7
	 item 255, weight= 1909, color= 4
	 item 256, weight= 1912, color= 4
	 item 257, weight= 1940, color= 0
	 item 258, weight= 1954, color= 19
	 item 259, weight= 1971, color= 17
	 item 260, weight= 1980, color= 7
	 item 261, weight= 2002, color= 12
	 item 262, weight= 2008, color= 11
	 item 263, weight= 2028, color= 6
	 item 264, weight= 2058, color= 10
	 item 265, weight= 2064, color= 15
	 item 266, weight= 2092, color= 4
	 item 267, weight= 2126, color= 3
	 item 268, weight= 2132, color= 15
	 item 269, weight= 2136, color= 18
	 item 270, weight= 2163, color= 0
	 item 271, weight= 2181, color= 2
	 item 272, weight= 2196, color= 19
	 item 273, weight= 2206, color= 18
	 item 274, weight= 2213, color= 17
	 item 275, weight= 2226, color= 6
	 item 276, weight= 2256, color= 16
	 item 277, weight= 2264, color= 10
	 item 278, weight= 2266, color= 12
	 item 279, weight= 2290, color= 9
	 item 280, weight= 2313, color= 0
	 item 281, weight= 2314, color= 9
	 item 282, weight= 2316, color= 7
	 item 283, weight= 2338, color= 4
	 item 284, weight= 2352, color= 9
	 item 285, weight= 2364, color= 8
	 item 286, weight= 2436, color= 16
	 item 287, weight= 2440, color= 15
	 item 288, weight= 2458, color= 1
	 item 289, weight= 2492, color= 7
	 item 290, weight= 2507, color= 0
	 item 291, weight= 2520, color= 15
	 item 292, weight= 2521, color= 16
	 item 293, weight= 2526, color= 15
	 item 294, weight= 2535, color= 1
	 item 295, weight= 2563, color= 8
	 item 296, weight= 2568, color= 19
	 item 297, weight= 2577, color= 8
	 item 298, weight= 2580, color= 12
	 item 299, weight= 2610, color= 15
	 item 300, weight= 2643, color= 5
	 item 301, weight= 2643, color= 14
	 item 302, weight= 2652, color= 10
	 item 303, weight= 2680, color= 4
	 item 304, weight= 2694, color= 8
	 item 305, weight= 2823, color= 3
	 item 306, weight= 2837, color= 2
	 item 307, weight= 2841, color= 6
	 item 308, weight= 2844, color= 5
	 item 309, weight= 2852, color= 3
	 item 310, weight= 2864, color= 7
	 item 311, weight= 2882, color= 13
	 item 312, weight= 2901, color= 11
	 item 313, weight= 2917, color= 0
	 item 314, weight= 2918, color= 1
	 item 315, weight= 2968, color= 16
	 item 316, weight= 2980, color= 0
	 item 317, weight= 3054, color= 5
	 item 318, weight= 3096, color= 18
	 item 319, weight= 3109, color= 15
	 item 320, weight= 3144, color= 10
	 item 321, weight= 3231, color= 8
	 item 322, weight= 3236, color= 1
	 item 323, weight= 3276, color= 0
	 item 324, weight= 3356, color= 8
	 item 325, weight= 3416, color= 6
	 item 326, weight= 3422, color= 16
	 item 327, weight= 3461, color= 19
	 item 328, weight= 3466, color= 14
	 item 329, weight= 3466, color= 17
	 item 330, weight= 3468, color= 19
	 item 331, weight= 3474, color= 16
	 item 332, weight= 3482, color= 13
	 item 333, weight= 3506, color= 8
	 item 334, weight= 3514, color= 15
	 item 335, weight= 3522, color= 1
	 item 336, weight= 3592, color= 7
	 item 337, weight= 3594, color= 18
	 item 338, weight= 3598, color= 8
	 item 339, weight= 3602, color= 14
	 item 340, weight= 3607, color= 18
	 item 341, weight= 3640, color= 5
	 item 342, weight= 3684, color= 5
	 item 343, weight= 3820, color= 4
	 item 344, weight= 3854, color= 3
	 item 345, weight= 3885, color= 7
	 item 346, weight= 3974, color= 17
	 item 347, weight= 3986, color= 13
	 item 348, weight= 3994, color= 3
	 item 349, weight= 4002, color= 2
	 item 350, weight= 4024, color= 16
	 item 351, weight= 4030, color= 13
	 item 352, weight= 4059, color= 2
	 item 353, weight= 4074, color= 18
	 item 354, weight= 4082, color= 8
	 item 355, weight= 4163, color= 12
	 item 356, weight= 4168, color= 17
	 item 357, weight= 4228, color= 2
	 item 358, weight= 4244, color= 8
	 item 359, weight= 4285, color= 15
	 item 360, weight= 4300, color= 9
	 item 361, weight= 4306, color= 2
	 item 362, weight= 4314, color= 13
	 item 363, weight= 4380, color= 11
	 item 364, weight= 4386, color= 17
	 item 365, weight= 4394, color= 12
	 item 366, weight= 4424, color= 8
	 item 367, weight= 4550, color= 0
	 item 368, weight= 4648, color= 17
	 item 369, weight= 4727, color= 7
	 item 370, weight= 4741, color= 13
	 item 371, weight= 4781, color= 3
	 item 372, weight= 4784, color= 10
	 item 373, weight= 4853, color= 6
	 item 374, weight= 4904, color= 18
	 item 375, weight= 4916, color= 6
	 item 376, weight= 4922, color= 14
	 item 377, weight= 4924, color= 7
	 item 378, weight= 4926, color= 17
	 item 379, weight= 5036, color= 5
	 item 380, weight= 5116, color= 6
	 item 381, weight= 5228, color= 19
	 item 382, weight= 5260, color= 13
	 item 383, weight= 5320, color= 3
	 item 384, weight= 5340, color= 13
	 item 385, weight= 5487, color= 13
	 item 386, weight= 5501, color= 10
	 item 387, weight= 5557, color= 9
	 item 388, weight= 5562, color= 15
	 item 389, weight= 5564, color= 3
	 item 390, weight= 5566, color= 12
	 item 391, weight= 5664, color= 11
	 item 392, weight= 5727, color= 13
	 item 393, weight= 5816, color= 16
	 item 394, weight= 6164, color= 16
	 item 395, weight= 6312, color= 17
	 item 396, weight= 6329, color= 17
	 item 397, weight= 6330, color= 14
	 item 398, weight= 6331, color= 5
	 item 399, weight= 6332, color= 10
	 item 400, weight= 6334, color= 10
	 item 401, weight= 6523, color= 3
	 item 402, weight= 6672, color= 6
	 item 403, weight= 6860, color= 11
	 item 404, weight= 7208, color= 2
	 item 405, weight= 7536, color= 18
	 item 406, weight= 7601, color= 16
	 item 407, weight= 7602, color= 6
	 item 408, weight= 7603, color= 4
	 item 409, weight= 7604, color= 15
	 item 410, weight= 7606, color= 15
	 item 411, weight= 7607, color= 8
	 item 412, weight= 7608, color= 18
	 item 413, weight= 7612, color= 15
	 item 414, weight= 7640, color= 11
	 item 415, weight= 7804, color= 9
	 item 416, weight= 8232, color= 7
	 item 417, weight= 8522, color= 15
	 item 418, weight= 8526, color= 5
	 item 419, weight= 8532, color= 2
	 item 420, weight= 8533, color= 12
	 item 421, weight= 8601, color= 7
	 item 422, weight= 8617, color= 10
	 item 423, weight= 8796, color= 10
	 item 424, weight= 8824, color= 6
	 item 425, weight= 8892, color= 7
	 item 426, weight= 9020, color= 8
	 item 427, weight= 9068, color= 12
	 item 428, weight= 9164, color= 14
	 item 429, weight= 9290, color= 8
	 item 430, weight= 9292, color= 10
	 item 431, weight= 9294, color= 13
	 item 432, weight= 9308, color= 9
	 item 433, weight= 9320, color= 3
	 item 434, weight= 9377, color= 0
	 item 435, weight= 9445, color= 15
	 item 436, weight= 9465, color= 17
	 item 437, weight= 9472, color= 11
	 item 438, weight= 9513, color= 17
	 item 439, weight= 9529, color= 10
	 item 440, weight= 9640, color= 5
	 item 441, weight= 9896, color= 4
	 item 442, weight= 9930, color= 0
	 item 443, weight= 9938, color= 15
	 item 444, weight= 9948, color= 12
	 item 445, weight= 10026, color= 7
	 item 446, weight= 10034, color= 9
	 item 447, weight= 10042, color= 5
	 item 448, weight= 10044, color= 19
	 item 449, weight= 10108, color= 14
	 item 450, weight= 10205, color= 15
	 item 451, weight= 10216, color= 19
	 item 452, weight= 10283, color= 1
	 item 453, weight= 10306, color= 1
	 item 454, weight= 10314, color= 1
	 item 455, weight= 10376, color= 10
	 item 456, weight= 10402, color= 9
	 item 457, weight= 10410, color= 6
	 item 458, weight= 10418, color= 13
	 item 459, weight= 10434, color= 2
	 item 460, weight= 10620, color= 13
	 item 461, weight= 10647, color= 12
	 item 462, weight= 10667, color= 17
	 item 463, weight= 10716, color= 19
	 item 464, weight= 10780, color= 2
	 item 465, weight= 10840, color= 13
	 item 466, weight= 10873, color= 1
	 item 467, weight= 10882, color= 4
	 item 468, weight= 10890, color= 4
	 item 469, weight= 10904, color= 11
	 item 470, weight= 10978, color= 6
	 item 471, weight= 10986, color= 6
	 item 472, weight= 10994, color= 6
	 item 473, weight= 11010, color= 14
	 item 474, weight= 11026, color= 0
	 item 475, weight= 11034, color= 10
	 item 476, weight= 11042, color= 0
	 item 477, weight= 11044, color= 8
	 item 478, weight= 11047, color= 3
	 item 479, weight= 11050, color= 16
	 item 480, weight= 11098, color= 15
	 item 481, weight= 11112, color= 11
	 item 482, weight= 11180, color= 3
	 item 483, weight= 11276, color= 3
	 item 484, weight= 11324, color= 19
	 item 485, weight= 11325, color= 19
	 item 486, weight= 11432, color= 11
	 item 487, weight= 11434, color= 1
	 item 488, weight= 11471, color= 4
	 item 489, weight= 11496, color= 13
	 item 490, weight= 11530, color= 8
	 item 491, weight= 11538, color= 7
	 item 492, weight= 11628, color= 19
	 item 493, weight= 11656, color= 3
	 item 494, weight= 11701, color= 10
	 item 495, weight= 11702, color= 19
	 item 496, weight= 11721, color= 9
	 item 497, weight= 11742, color= 4
	 item 498, weight= 11780, color= 2
	 item 499, weight= 11793, color= 6
	 item 500, weight= 11796, color= 17
	 item 501, weight= 11797, color= 12
	 item 502, weight= 11813, color= 14
	 item 503, weight= 11974, color= 3
	 item 504, weight= 11992, color= 5
	 item 505, weight= 12020, color= 14
	 item 506, weight= 12070, color= 5
	 item 507, weight= 12108, color= 9
	 item 508, weight= 12109, color= 14
	 item 509, weight= 12120, color= 12
	 item 510, weight= 12160, color= 10
	 item 511, weight= 12170, color= 2
	 item 512, weight= 12177, color= 14
	 item 513, weight= 12184, color= 17
	 item 514, weight= 12193, color= 8
	 item 515, weight= 12212, color= 5
	 item 516, weight= 12254, color= 7
	 item 517, weight= 12280, color= 1
	 item 518, weight= 12284, color= 5
	 item 519, weight= 12372, color= 4
	 item 520, weight= 12398, color= 6
	 item 521, weight= 12425, color= 16
	 item 522, weight= 12426, color= 5
	 item 523, weight= 12428, color= 6
	 item 524, weight= 12445, color= 7
	 item 525, weight= 12482, color= 2
	 item 526, weight= 12488, color= 2
	 item 527, weight= 12493, color= 0
	 item 528, weight= 12521, color= 19
	 item 529, weight= 12528, color= 0
	 item 530, weight= 12530, color= 1
	 item 531, weight= 12545, color= 16
	 item 532, weight= 12554, color= 9
	 item 533, weight= 12565, color= 7
	 item 534, weight= 12572, color= 11
	 item 535, weight= 12585, color= 18
	 item 536, weight= 12605, color= 9
	 item 537, weight= 12644, color= 11
	 item 538, weight= 12648, color= 5
	 item 539, weight= 12650, color= 10
	 item 540, weight= 12692, color= 10
	 item 541, weight= 12734, color= 9
	 item 542, weight= 12772, color= 18
	 item 543, weight= 12792, color= 11
	 item 544, weight= 12798, color= 19
	 item 545, weight= 12828, color= 1
	 item 546, weight= 12837, color= 19
	 item 547, weight= 12858, color= 7
	 item 548, weight= 12876, color= 2
	 item 549, weight= 12890, color= 14
	 item 550, weight= 12911, color= 6
	 item 551, weight= 12920, color= 7
	 item 552, weight= 12924, color= 14
	 item 553, weight= 12952, color= 6
	 item 554, weight= 12986, color= 7
	 item 555, weight= 12998, color= 14
	 item 556, weight= 13020, color= 3
	 item 557, weight= 13029, color= 17
	 item 558, weight= 13048, color= 8
	 item 559, weight= 13084, color= 4
	 item 560, weight= 13091, color= 9
	 item 561, weight= 13094, color= 7
	 item 562, weight= 13139, color= 18
	 item 563, weight= 13143, color= 5
	 item 564, weight= 13163, color= 5
	 item 565, weight= 13183, color= 12
	 item 566, weight= 13188, color= 16
	 item 567, weight= 13190, color= 13
	 item 568, weight= 13208, color= 0
	 item 569, weight= 13236, color= 11
	 item 570, weight= 13256, color= 14
	 item 571, weight= 13270, color= 11
	 item 572, weight= 13316, color= 10
	 item 573, weight= 13319, color= 10
	 item 574, weight= 13322, color= 6
	 item 575, weight= 13336, color= 12
	 item 576, weight= 13364, color= 13
	 item 577, weight= 13374, color= 11
	 item 578, weight= 13388, color= 7
	 item 579, weight= 13418, color= 6
	 item 580, weight= 13425, color= 11
	 item 581, weight= 13445, color= 6
	 item 582, weight= 13448, color= 8
	 item 583, weight= 13449, color= 9
	 item 584, weight= 13452, color= 12
	 item 585, weight= 13462, color= 5
	 item 586, weight= 13464, color= 17
	 item 587, weight= 13469, color= 4
	 item 588, weight= 13482, color= 4
	 item 589, weight= 13492, color= 14
	 item 590, weight= 13514, color= 13
	 item 591, weight= 13540, color= 16
	 item 592, weight= 13557, color= 13
	 item 593, weight= 13560, color= 18
	 item 594, weight= 13594, color= 7
	 item 595, weight= 13596, color= 17
	 item 596, weight= 13610, color= 12
	 item 597, weight= 13620, color= 2
	 item 598, weight= 13629, color= 4
	 item 599, weight= 13638, color= 3
	 item 600, weight= 13651, color= 2
	 item 601, weight= 13660, color= 1

VRPSolver warning: Interval set for resource 1 on source node (when source != sink) is ignored (by definition is [0.0,0.0])
VRPSolver warning: Interval set for resource 2 on source node (when source != sink) is ignored (by definition is [0.0,0.0])
VRPSolver warning: Interval set for resource 3 on source node (when source != sink) is ignored (by definition is [0.0,0.0])
VRPSolver warning: Interval set for resource 4 on source node (when source != sink) is ignored (by definition is [0.0,0.0])
VRPSolver warning: Interval set for resource 5 on source node (when source != sink) is ignored (by definition is [0.0,0.0])
VRPSolver warning: Interval set for resource 6 on source node (when source != sink) is ignored (by definition is [0.0,0.0])
VRPSolver warning: Interval set for resource 7 on source node (when source != sink) is ignored (by definition is [0.0,0.0])
VRPSolver warning: Interval set for resource 8 on source node (when source != sink) is ignored (by definition is [0.0,0.0])
VRPSolver warning: Interval set for resource 9 on source node (when source != sink) is ignored (by definition is [0.0,0.0])
VRPSolver warning: Interval set for resource 10 on source node (when source != sink) is ignored (by definition is [0.0,0.0])
VRPSolver warning: Interval set for resource 11 on source node (when source != sink) is ignored (by definition is [0.0,0.0])
VRPSolver warning: Interval set for resource 12 on source node (when source != sink) is ignored (by definition is [0.0,0.0])
VRPSolver warning: Interval set for resource 13 on source node (when source != sink) is ignored (by definition is [0.0,0.0])
VRPSolver warning: Interval set for resource 14 on source node (when source != sink) is ignored (by definition is [0.0,0.0])
VRPSolver warning: Interval set for resource 15 on source node (when source != sink) is ignored (by definition is [0.0,0.0])
VRPSolver warning: Interval set for resource 16 on source node (when source != sink) is ignored (by definition is [0.0,0.0])
VRPSolver warning: Interval set for resource 17 on source node (when source != sink) is ignored (by definition is [0.0,0.0])
VRPSolver warning: Interval set for resource 18 on source node (when source != sink) is ignored (by definition is [0.0,0.0])
VRPSolver warning: Interval set for resource 19 on source node (when source != sink) is ignored (by definition is [0.0,0.0])
VRPSolver warning: Interval set for resource 20 on source node (when source != sink) is ignored (by definition is [0.0,0.0])
VRPSolver warning: Interval set for resource 21 on source node (when source != sink) is ignored (by definition is [0.0,0.0])
[41m solve [00m
~~~~~~~~~~~~~~~~~~~~~~~~~~~~~~~~~~~~~~~~~~~~~~~~~~~~~~~~~~~~~~~~~~~~~~~~~~~~~~
VRPSolver v0.4.1, 24/03/2021. Web: vrpsolver.math.u-bordeaux.fr
Corresponds to the solver by Pessoa, Sadykov, Uchoa and Vanderbeck (2020)
Paper: dx.doi.org/10.1007/s10107-020-01523-z
USE THIS CODE ONLY FOR ACADEMIC PURPOSES AT YOUR OWN RISK
~~~~~~~~~~~~~~~~~~~~~~~~~~~~~~~~~~~~~~~~~~~~~~~~~~~~~~~~~~~~~~~~~~~~~~~~~~~~~~
BaPCod v053, 24/03/2021, © Inria Bordeaux, France
~~~~~~~~~~~~~~~~~~~~~~~~~~~~~~~~~~~~~~~~~~~~~~~~~~~~~~~~~~~~~~~~~~~~~~~~~~~~~~
VRPSolver parameters:
GlobalTimeLimit = 60
MaxNbOfBBtreeNodeTreated = 100000
treeSearchStrategy = 1
RCSPstopCutGenTimeThresholdInPricing = 10
RCSPhardTimeThresholdInPricing = 20
RCSPnumberOfBucketsPerVertex = 2000
RCSPdynamicBucketSteps = 0
RCSPuseBidirectionalSearch = 1
RCSPapplyReducedCostFixing = 1
RCSPredCostFixingFalseGap = 0
RCSPmaxNumOfColsPerIteration = 100
RCSPmaxNumOfColsPerExactIteration = 100
RCSPheurLabelingStrategy = 4
StabilizationMinPhaseOfStage = 1
RCSPmaxNumOfLabelsInEnumeration = 100000
RCSPmaxNumOfEnumeratedSolutions = 1000000
RCSPmaxNumOfEnumSolutionsForMIP = 100000
RCSPinitNGneighbourhoodSize = 0
RCSPmaxNGneighbourhoodSize = 0
RCSPrankOneCutsMaxNumPerRound = 100
RCSPrankOneCutsMaxNumRows = -1
RCSPrankOneCutsMemoryType = 2
CutTailingOffThreshold = 0.02
CutTailingOffCounterThreshold = 3
SafeDualBoundScaleFactor = -1
StrongBranchingPhaseOneCandidatesNumber = 100
StrongBranchingPhaseOneTreeSizeEstimRatio = 0.3
StrongBranchingPhaseTwoCandidatesNumber = 1
StrongBranchingPhaseTwoTreeSizeEstimRatio = 0.1
MaxTimeForRestrictedMasterIpHeur = -1
DivingHeurUseDepthLimit = 0
MaxLDSbreadth = 3
MaxLDSdepth = 2
New model incumbent solution 1e+06, TIME = 0h0m0s3t = 3
