Application parameters:
  batch  =>  nothing
  instance  =>  "/IN/600_20000_DI_4.txt-Q5"
  ub  =>  1.0e6
  cfg  =>  "/CFG/BPP.cfg"
data = Colored Bin Packing dataset.
number of items = 601
number of colors = 5
capacity = 16432
Items : 
	 item 1, weight= 28, color= 1
	 item 2, weight= 42, color= 2
	 item 3, weight= 42, color= 3
	 item 4, weight= 64, color= 0
	 item 5, weight= 106, color= 2
	 item 6, weight= 112, color= 1
	 item 7, weight= 112, color= 3
	 item 8, weight= 126, color= 4
	 item 9, weight= 164, color= 1
	 item 10, weight= 184, color= 1
	 item 11, weight= 192, color= 1
	 item 12, weight= 208, color= 2
	 item 13, weight= 224, color= 1
	 item 14, weight= 232, color= 2
	 item 15, weight= 240, color= 0
	 item 16, weight= 240, color= 0
	 item 17, weight= 256, color= 4
	 item 18, weight= 268, color= 2
	 item 19, weight= 272, color= 4
	 item 20, weight= 276, color= 0
	 item 21, weight= 276, color= 4
	 item 22, weight= 288, color= 0
	 item 23, weight= 288, color= 2
	 item 24, weight= 288, color= 4
	 item 25, weight= 288, color= 4
	 item 26, weight= 296, color= 1
	 item 27, weight= 296, color= 4
	 item 28, weight= 298, color= 3
	 item 29, weight= 300, color= 0
	 item 30, weight= 300, color= 0
	 item 31, weight= 300, color= 4
	 item 32, weight= 304, color= 0
	 item 33, weight= 304, color= 4
	 item 34, weight= 308, color= 0
	 item 35, weight= 308, color= 2
	 item 36, weight= 312, color= 2
	 item 37, weight= 316, color= 2
	 item 38, weight= 320, color= 0
	 item 39, weight= 320, color= 2
	 item 40, weight= 320, color= 4
	 item 41, weight= 324, color= 0
	 item 42, weight= 324, color= 1
	 item 43, weight= 328, color= 1
	 item 44, weight= 328, color= 2
	 item 45, weight= 328, color= 2
	 item 46, weight= 330, color= 4
	 item 47, weight= 336, color= 1
	 item 48, weight= 336, color= 1
	 item 49, weight= 336, color= 2
	 item 50, weight= 340, color= 2
	 item 51, weight= 344, color= 3
	 item 52, weight= 344, color= 4
	 item 53, weight= 350, color= 2
	 item 54, weight= 352, color= 0
	 item 55, weight= 352, color= 1
	 item 56, weight= 356, color= 1
	 item 57, weight= 360, color= 4
	 item 58, weight= 368, color= 0
	 item 59, weight= 368, color= 2
	 item 60, weight= 368, color= 4
	 item 61, weight= 370, color= 4
	 item 62, weight= 376, color= 0
	 item 63, weight= 376, color= 2
	 item 64, weight= 378, color= 4
	 item 65, weight= 384, color= 2
	 item 66, weight= 384, color= 4
	 item 67, weight= 390, color= 0
	 item 68, weight= 392, color= 2
	 item 69, weight= 392, color= 2
	 item 70, weight= 396, color= 4
	 item 71, weight= 400, color= 2
	 item 72, weight= 408, color= 1
	 item 73, weight= 408, color= 3
	 item 74, weight= 414, color= 1
	 item 75, weight= 416, color= 3
	 item 76, weight= 416, color= 4
	 item 77, weight= 420, color= 4
	 item 78, weight= 428, color= 2
	 item 79, weight= 430, color= 4
	 item 80, weight= 432, color= 2
	 item 81, weight= 432, color= 2
	 item 82, weight= 438, color= 2
	 item 83, weight= 444, color= 4
	 item 84, weight= 448, color= 1
	 item 85, weight= 448, color= 3
	 item 86, weight= 448, color= 4
	 item 87, weight= 452, color= 2
	 item 88, weight= 456, color= 3
	 item 89, weight= 460, color= 2
	 item 90, weight= 464, color= 1
	 item 91, weight= 464, color= 2
	 item 92, weight= 480, color= 0
	 item 93, weight= 480, color= 1
	 item 94, weight= 480, color= 3
	 item 95, weight= 484, color= 2
	 item 96, weight= 488, color= 2
	 item 97, weight= 496, color= 0
	 item 98, weight= 496, color= 1
	 item 99, weight= 496, color= 2
	 item 100, weight= 500, color= 0
	 item 101, weight= 504, color= 1
	 item 102, weight= 504, color= 3
	 item 103, weight= 512, color= 0
	 item 104, weight= 516, color= 1
	 item 105, weight= 518, color= 1
	 item 106, weight= 528, color= 0
	 item 107, weight= 544, color= 1
	 item 108, weight= 544, color= 4
	 item 109, weight= 548, color= 1
	 item 110, weight= 552, color= 0
	 item 111, weight= 558, color= 4
	 item 112, weight= 560, color= 3
	 item 113, weight= 562, color= 0
	 item 114, weight= 568, color= 0
	 item 115, weight= 568, color= 0
	 item 116, weight= 576, color= 3
	 item 117, weight= 580, color= 0
	 item 118, weight= 580, color= 2
	 item 119, weight= 580, color= 2
	 item 120, weight= 584, color= 1
	 item 121, weight= 604, color= 0
	 item 122, weight= 604, color= 0
	 item 123, weight= 608, color= 2
	 item 124, weight= 640, color= 1
	 item 125, weight= 640, color= 1
	 item 126, weight= 640, color= 4
	 item 127, weight= 644, color= 1
	 item 128, weight= 648, color= 1
	 item 129, weight= 648, color= 3
	 item 130, weight= 656, color= 0
	 item 131, weight= 656, color= 2
	 item 132, weight= 658, color= 2
	 item 133, weight= 664, color= 1
	 item 134, weight= 668, color= 2
	 item 135, weight= 688, color= 1
	 item 136, weight= 704, color= 4
	 item 137, weight= 712, color= 2
	 item 138, weight= 716, color= 4
	 item 139, weight= 720, color= 0
	 item 140, weight= 720, color= 4
	 item 141, weight= 736, color= 0
	 item 142, weight= 738, color= 3
	 item 143, weight= 742, color= 2
	 item 144, weight= 744, color= 3
	 item 145, weight= 746, color= 4
	 item 146, weight= 752, color= 4
	 item 147, weight= 762, color= 0
	 item 148, weight= 784, color= 0
	 item 149, weight= 800, color= 2
	 item 150, weight= 800, color= 3
	 item 151, weight= 800, color= 4
	 item 152, weight= 816, color= 2
	 item 153, weight= 824, color= 3
	 item 154, weight= 834, color= 4
	 item 155, weight= 848, color= 3
	 item 156, weight= 848, color= 3
	 item 157, weight= 850, color= 0
	 item 158, weight= 856, color= 2
	 item 159, weight= 864, color= 1
	 item 160, weight= 864, color= 3
	 item 161, weight= 904, color= 3
	 item 162, weight= 908, color= 3
	 item 163, weight= 908, color= 4
	 item 164, weight= 908, color= 4
	 item 165, weight= 932, color= 0
	 item 166, weight= 950, color= 2
	 item 167, weight= 960, color= 4
	 item 168, weight= 976, color= 2
	 item 169, weight= 976, color= 3
	 item 170, weight= 984, color= 1
	 item 171, weight= 984, color= 4
	 item 172, weight= 992, color= 2
	 item 173, weight= 992, color= 2
	 item 174, weight= 1000, color= 3
	 item 175, weight= 1024, color= 4
	 item 176, weight= 1024, color= 4
	 item 177, weight= 1032, color= 2
	 item 178, weight= 1036, color= 4
	 item 179, weight= 1040, color= 2
	 item 180, weight= 1052, color= 1
	 item 181, weight= 1054, color= 4
	 item 182, weight= 1056, color= 3
	 item 183, weight= 1056, color= 4
	 item 184, weight= 1070, color= 0
	 item 185, weight= 1136, color= 1
	 item 186, weight= 1144, color= 1
	 item 187, weight= 1184, color= 0
	 item 188, weight= 1184, color= 2
	 item 189, weight= 1184, color= 2
	 item 190, weight= 1196, color= 1
	 item 191, weight= 1198, color= 2
	 item 192, weight= 1200, color= 2
	 item 193, weight= 1214, color= 3
	 item 194, weight= 1264, color= 1
	 item 195, weight= 1280, color= 4
	 item 196, weight= 1344, color= 0
	 item 197, weight= 1360, color= 1
	 item 198, weight= 1360, color= 4
	 item 199, weight= 1368, color= 0
	 item 200, weight= 1368, color= 0
	 item 201, weight= 1368, color= 0
	 item 202, weight= 1368, color= 1
	 item 203, weight= 1368, color= 2
	 item 204, weight= 1374, color= 1
	 item 205, weight= 1382, color= 0
	 item 206, weight= 1394, color= 0
	 item 207, weight= 1442, color= 0
	 item 208, weight= 1448, color= 2
	 item 209, weight= 1468, color= 1
	 item 210, weight= 1484, color= 4
	 item 211, weight= 1491, color= 1
	 item 212, weight= 1498, color= 3
	 item 213, weight= 1502, color= 2
	 item 214, weight= 1510, color= 1
	 item 215, weight= 1511, color= 4
	 item 216, weight= 1524, color= 4
	 item 217, weight= 1528, color= 2
	 item 218, weight= 1542, color= 3
	 item 219, weight= 1550, color= 1
	 item 220, weight= 1560, color= 3
	 item 221, weight= 1570, color= 1
	 item 222, weight= 1572, color= 1
	 item 223, weight= 1598, color= 3
	 item 224, weight= 1607, color= 1
	 item 225, weight= 1612, color= 3
	 item 226, weight= 1614, color= 0
	 item 227, weight= 1623, color= 0
	 item 228, weight= 1642, color= 0
	 item 229, weight= 1650, color= 1
	 item 230, weight= 1652, color= 0
	 item 231, weight= 1653, color= 1
	 item 232, weight= 1656, color= 4
	 item 233, weight= 1668, color= 4
	 item 234, weight= 1684, color= 0
	 item 235, weight= 1688, color= 1
	 item 236, weight= 1689, color= 2
	 item 237, weight= 1702, color= 4
	 item 238, weight= 1721, color= 4
	 item 239, weight= 1741, color= 0
	 item 240, weight= 1748, color= 0
	 item 241, weight= 1761, color= 1
	 item 242, weight= 1770, color= 4
	 item 243, weight= 1798, color= 2
	 item 244, weight= 1805, color= 1
	 item 245, weight= 1816, color= 0
	 item 246, weight= 1843, color= 3
	 item 247, weight= 1876, color= 3
	 item 248, weight= 1886, color= 3
	 item 249, weight= 1890, color= 3
	 item 250, weight= 1896, color= 3
	 item 251, weight= 1901, color= 3
	 item 252, weight= 1922, color= 0
	 item 253, weight= 1948, color= 1
	 item 254, weight= 1953, color= 2
	 item 255, weight= 1964, color= 0
	 item 256, weight= 1982, color= 0
	 item 257, weight= 1986, color= 1
	 item 258, weight= 1992, color= 4
	 item 259, weight= 2005, color= 0
	 item 260, weight= 2016, color= 0
	 item 261, weight= 2037, color= 4
	 item 262, weight= 2041, color= 0
	 item 263, weight= 2043, color= 1
	 item 264, weight= 2044, color= 0
	 item 265, weight= 2075, color= 1
	 item 266, weight= 2084, color= 3
	 item 267, weight= 2088, color= 0
	 item 268, weight= 2098, color= 4
	 item 269, weight= 2102, color= 0
	 item 270, weight= 2143, color= 3
	 item 271, weight= 2157, color= 3
	 item 272, weight= 2160, color= 2
	 item 273, weight= 2174, color= 1
	 item 274, weight= 2197, color= 3
	 item 275, weight= 2216, color= 4
	 item 276, weight= 2232, color= 0
	 item 277, weight= 2250, color= 2
	 item 278, weight= 2269, color= 3
	 item 279, weight= 2284, color= 3
	 item 280, weight= 2303, color= 1
	 item 281, weight= 2317, color= 0
	 item 282, weight= 2324, color= 1
	 item 283, weight= 2326, color= 0
	 item 284, weight= 2328, color= 3
	 item 285, weight= 2418, color= 0
	 item 286, weight= 2431, color= 3
	 item 287, weight= 2441, color= 3
	 item 288, weight= 2488, color= 3
	 item 289, weight= 2501, color= 0
	 item 290, weight= 2510, color= 1
	 item 291, weight= 2512, color= 2
	 item 292, weight= 2516, color= 1
	 item 293, weight= 2524, color= 3
	 item 294, weight= 2532, color= 4
	 item 295, weight= 2556, color= 2
	 item 296, weight= 2568, color= 1
	 item 297, weight= 2583, color= 4
	 item 298, weight= 2592, color= 4
	 item 299, weight= 2597, color= 3
	 item 300, weight= 2604, color= 3
	 item 301, weight= 2680, color= 3
	 item 302, weight= 2734, color= 2
	 item 303, weight= 2746, color= 4
	 item 304, weight= 2754, color= 0
	 item 305, weight= 2767, color= 2
	 item 306, weight= 2778, color= 4
	 item 307, weight= 2781, color= 0
	 item 308, weight= 2801, color= 1
	 item 309, weight= 2813, color= 3
	 item 310, weight= 2844, color= 4
	 item 311, weight= 2852, color= 0
	 item 312, weight= 2884, color= 0
	 item 313, weight= 2888, color= 4
	 item 314, weight= 2906, color= 1
	 item 315, weight= 2914, color= 4
	 item 316, weight= 2922, color= 1
	 item 317, weight= 2932, color= 1
	 item 318, weight= 3014, color= 4
	 item 319, weight= 3025, color= 4
	 item 320, weight= 3027, color= 2
	 item 321, weight= 3080, color= 3
	 item 322, weight= 3088, color= 4
	 item 323, weight= 3218, color= 2
	 item 324, weight= 3222, color= 1
	 item 325, weight= 3244, color= 2
	 item 326, weight= 3252, color= 0
	 item 327, weight= 3283, color= 0
	 item 328, weight= 3284, color= 2
	 item 329, weight= 3288, color= 0
	 item 330, weight= 3297, color= 3
	 item 331, weight= 3320, color= 2
	 item 332, weight= 3320, color= 4
	 item 333, weight= 3332, color= 0
	 item 334, weight= 3345, color= 0
	 item 335, weight= 3528, color= 1
	 item 336, weight= 3528, color= 1
	 item 337, weight= 3582, color= 4
	 item 338, weight= 3586, color= 1
	 item 339, weight= 3607, color= 2
	 item 340, weight= 3608, color= 4
	 item 341, weight= 3721, color= 2
	 item 342, weight= 3724, color= 2
	 item 343, weight= 3733, color= 0
	 item 344, weight= 3748, color= 4
	 item 345, weight= 3780, color= 4
	 item 346, weight= 3813, color= 0
	 item 347, weight= 3960, color= 0
	 item 348, weight= 3979, color= 3
	 item 349, weight= 4010, color= 3
	 item 350, weight= 4022, color= 3
	 item 351, weight= 4056, color= 3
	 item 352, weight= 4131, color= 2
	 item 353, weight= 4177, color= 2
	 item 354, weight= 4248, color= 4
	 item 355, weight= 4257, color= 2
	 item 356, weight= 4260, color= 2
	 item 357, weight= 4284, color= 1
	 item 358, weight= 4332, color= 0
	 item 359, weight= 4344, color= 2
	 item 360, weight= 4530, color= 3
	 item 361, weight= 4542, color= 0
	 item 362, weight= 4550, color= 1
	 item 363, weight= 4558, color= 4
	 item 364, weight= 4663, color= 3
	 item 365, weight= 4757, color= 2
	 item 366, weight= 4824, color= 4
	 item 367, weight= 4873, color= 4
	 item 368, weight= 4888, color= 0
	 item 369, weight= 4920, color= 1
	 item 370, weight= 4924, color= 1
	 item 371, weight= 4932, color= 0
	 item 372, weight= 4964, color= 1
	 item 373, weight= 5012, color= 4
	 item 374, weight= 5032, color= 4
	 item 375, weight= 5144, color= 4
	 item 376, weight= 5168, color= 3
	 item 377, weight= 5182, color= 0
	 item 378, weight= 5186, color= 1
	 item 379, weight= 5263, color= 2
	 item 380, weight= 5277, color= 1
	 item 381, weight= 5288, color= 4
	 item 382, weight= 5357, color= 4
	 item 383, weight= 5684, color= 0
	 item 384, weight= 5740, color= 0
	 item 385, weight= 5932, color= 1
	 item 386, weight= 5938, color= 4
	 item 387, weight= 5942, color= 1
	 item 388, weight= 5983, color= 3
	 item 389, weight= 5997, color= 4
	 item 390, weight= 6008, color= 4
	 item 391, weight= 6040, color= 3
	 item 392, weight= 6064, color= 2
	 item 393, weight= 6077, color= 4
	 item 394, weight= 6408, color= 1
	 item 395, weight= 6612, color= 3
	 item 396, weight= 6808, color= 0
	 item 397, weight= 6836, color= 2
	 item 398, weight= 6840, color= 3
	 item 399, weight= 6842, color= 0
	 item 400, weight= 6844, color= 0
	 item 401, weight= 6845, color= 3
	 item 402, weight= 6846, color= 3
	 item 403, weight= 6847, color= 4
	 item 404, weight= 7280, color= 1
	 item 405, weight= 8128, color= 1
	 item 406, weight= 8217, color= 1
	 item 407, weight= 8218, color= 0
	 item 408, weight= 8219, color= 3
	 item 409, weight= 8220, color= 0
	 item 410, weight= 8222, color= 3
	 item 411, weight= 8232, color= 0
	 item 412, weight= 8236, color= 1
	 item 413, weight= 8280, color= 3
	 item 414, weight= 8744, color= 3
	 item 415, weight= 9141, color= 4
	 item 416, weight= 9224, color= 4
	 item 417, weight= 9237, color= 1
	 item 418, weight= 9253, color= 0
	 item 419, weight= 9306, color= 2
	 item 420, weight= 9310, color= 1
	 item 421, weight= 9316, color= 2
	 item 422, weight= 9324, color= 2
	 item 423, weight= 9336, color= 2
	 item 424, weight= 9548, color= 1
	 item 425, weight= 9612, color= 3
	 item 426, weight= 10005, color= 4
	 item 427, weight= 10101, color= 4
	 item 428, weight= 10104, color= 3
	 item 429, weight= 10117, color= 1
	 item 430, weight= 10210, color= 2
	 item 431, weight= 10218, color= 0
	 item 432, weight= 10240, color= 0
	 item 433, weight= 10264, color= 3
	 item 434, weight= 10408, color= 4
	 item 435, weight= 10420, color= 3
	 item 436, weight= 10484, color= 2
	 item 437, weight= 10516, color= 0
	 item 438, weight= 10532, color= 1
	 item 439, weight= 10536, color= 0
	 item 440, weight= 10648, color= 1
	 item 441, weight= 10725, color= 1
	 item 442, weight= 10821, color= 0
	 item 443, weight= 10837, color= 3
	 item 444, weight= 10966, color= 4
	 item 445, weight= 10974, color= 0
	 item 446, weight= 10982, color= 4
	 item 447, weight= 10998, color= 4
	 item 448, weight= 11000, color= 4
	 item 449, weight= 11224, color= 2
	 item 450, weight= 11236, color= 4
	 item 451, weight= 11292, color= 4
	 item 452, weight= 11324, color= 4
	 item 453, weight= 11325, color= 2
	 item 454, weight= 11336, color= 4
	 item 455, weight= 11421, color= 3
	 item 456, weight= 11477, color= 1
	 item 457, weight= 11576, color= 3
	 item 458, weight= 11610, color= 1
	 item 459, weight= 11622, color= 3
	 item 460, weight= 11688, color= 1
	 item 461, weight= 11857, color= 1
	 item 462, weight= 11900, color= 3
	 item 463, weight= 11940, color= 3
	 item 464, weight= 11953, color= 2
	 item 465, weight= 11969, color= 0
	 item 466, weight= 11972, color= 4
	 item 467, weight= 12009, color= 4
	 item 468, weight= 12104, color= 1
	 item 469, weight= 12105, color= 2
	 item 470, weight= 12130, color= 3
	 item 471, weight= 12138, color= 3
	 item 472, weight= 12200, color= 1
	 item 473, weight= 12216, color= 4
	 item 474, weight= 12419, color= 4
	 item 475, weight= 12436, color= 0
	 item 476, weight= 12456, color= 4
	 item 477, weight= 12477, color= 3
	 item 478, weight= 12493, color= 0
	 item 479, weight= 12500, color= 2
	 item 480, weight= 12504, color= 3
	 item 481, weight= 12532, color= 2
	 item 482, weight= 12548, color= 2
	 item 483, weight= 12566, color= 3
	 item 484, weight= 12574, color= 2
	 item 485, weight= 12744, color= 2
	 item 486, weight= 12801, color= 2
	 item 487, weight= 12803, color= 4
	 item 488, weight= 12856, color= 0
	 item 489, weight= 12916, color= 0
	 item 490, weight= 12930, color= 4
	 item 491, weight= 12938, color= 4
	 item 492, weight= 12946, color= 1
	 item 493, weight= 12962, color= 3
	 item 494, weight= 12968, color= 4
	 item 495, weight= 12980, color= 2
	 item 496, weight= 13012, color= 4
	 item 497, weight= 13028, color= 4
	 item 498, weight= 13057, color= 4
	 item 499, weight= 13072, color= 3
	 item 500, weight= 13073, color= 2
	 item 501, weight= 13113, color= 2
	 item 502, weight= 13138, color= 4
	 item 503, weight= 13154, color= 0
	 item 504, weight= 13224, color= 4
	 item 505, weight= 13316, color= 3
	 item 506, weight= 13317, color= 1
	 item 507, weight= 13333, color= 1
	 item 508, weight= 13368, color= 2
	 item 509, weight= 13372, color= 0
	 item 510, weight= 13404, color= 2
	 item 511, weight= 13420, color= 1
	 item 512, weight= 13422, color= 2
	 item 513, weight= 13438, color= 2
	 item 514, weight= 13440, color= 0
	 item 515, weight= 13464, color= 1
	 item 516, weight= 13470, color= 0
	 item 517, weight= 13487, color= 0
	 item 518, weight= 13503, color= 1
	 item 519, weight= 13517, color= 1
	 item 520, weight= 13534, color= 3
	 item 521, weight= 13642, color= 0
	 item 522, weight= 13644, color= 2
	 item 523, weight= 13656, color= 3
	 item 524, weight= 13669, color= 4
	 item 525, weight= 13699, color= 2
	 item 526, weight= 13700, color= 4
	 item 527, weight= 13711, color= 1
	 item 528, weight= 13734, color= 4
	 item 529, weight= 13784, color= 3
	 item 530, weight= 13797, color= 3
	 item 531, weight= 13816, color= 4
	 item 532, weight= 13826, color= 2
	 item 533, weight= 13836, color= 4
	 item 534, weight= 13845, color= 0
	 item 535, weight= 13861, color= 3
	 item 536, weight= 13910, color= 0
	 item 537, weight= 13918, color= 0
	 item 538, weight= 13928, color= 1
	 item 539, weight= 13940, color= 4
	 item 540, weight= 13943, color= 3
	 item 541, weight= 13983, color= 0
	 item 542, weight= 13988, color= 4
	 item 543, weight= 14025, color= 1
	 item 544, weight= 14050, color= 0
	 item 545, weight= 14056, color= 1
	 item 546, weight= 14058, color= 2
	 item 547, weight= 14073, color= 4
	 item 548, weight= 14076, color= 1
	 item 549, weight= 14089, color= 2
	 item 550, weight= 14140, color= 4
	 item 551, weight= 14153, color= 1
	 item 552, weight= 14166, color= 1
	 item 553, weight= 14168, color= 3
	 item 554, weight= 14170, color= 0
	 item 555, weight= 14188, color= 2
	 item 556, weight= 14221, color= 4
	 item 557, weight= 14263, color= 0
	 item 558, weight= 14264, color= 1
	 item 559, weight= 14267, color= 4
	 item 560, weight= 14278, color= 0
	 item 561, weight= 14310, color= 3
	 item 562, weight= 14321, color= 3
	 item 563, weight= 14340, color= 0
	 item 564, weight= 14385, color= 1
	 item 565, weight= 14390, color= 4
	 item 566, weight= 14398, color= 0
	 item 567, weight= 14407, color= 0
	 item 568, weight= 14408, color= 0
	 item 569, weight= 14412, color= 3
	 item 570, weight= 14436, color= 4
	 item 571, weight= 14449, color= 1
	 item 572, weight= 14452, color= 0
	 item 573, weight= 14454, color= 3
	 item 574, weight= 14456, color= 2
	 item 575, weight= 14466, color= 1
	 item 576, weight= 14485, color= 1
	 item 577, weight= 14498, color= 2
	 item 578, weight= 14500, color= 3
	 item 579, weight= 14518, color= 0
	 item 580, weight= 14548, color= 3
	 item 581, weight= 14557, color= 3
	 item 582, weight= 14568, color= 1
	 item 583, weight= 14574, color= 1
	 item 584, weight= 14582, color= 3
	 item 585, weight= 14600, color= 1
	 item 586, weight= 14605, color= 4
	 item 587, weight= 14612, color= 2
	 item 588, weight= 14621, color= 2
	 item 589, weight= 14622, color= 1
	 item 590, weight= 14630, color= 0
	 item 591, weight= 14638, color= 3
	 item 592, weight= 14643, color= 2
	 item 593, weight= 14654, color= 1
	 item 594, weight= 14660, color= 0
	 item 595, weight= 14663, color= 4
	 item 596, weight= 14676, color= 0
	 item 597, weight= 14696, color= 0
	 item 598, weight= 14702, color= 4
	 item 599, weight= 14762, color= 2
	 item 600, weight= 14774, color= 1
	 item 601, weight= 14786, color= 1

VRPSolver warning: Interval set for resource 1 on source node (when source != sink) is ignored (by definition is [0.0,0.0])
VRPSolver warning: Interval set for resource 2 on source node (when source != sink) is ignored (by definition is [0.0,0.0])
VRPSolver warning: Interval set for resource 3 on source node (when source != sink) is ignored (by definition is [0.0,0.0])
VRPSolver warning: Interval set for resource 4 on source node (when source != sink) is ignored (by definition is [0.0,0.0])
VRPSolver warning: Interval set for resource 5 on source node (when source != sink) is ignored (by definition is [0.0,0.0])
VRPSolver warning: Interval set for resource 6 on source node (when source != sink) is ignored (by definition is [0.0,0.0])
[41m solve [00m
~~~~~~~~~~~~~~~~~~~~~~~~~~~~~~~~~~~~~~~~~~~~~~~~~~~~~~~~~~~~~~~~~~~~~~~~~~~~~~
VRPSolver v0.4.1, 24/03/2021. Web: vrpsolver.math.u-bordeaux.fr
Corresponds to the solver by Pessoa, Sadykov, Uchoa and Vanderbeck (2020)
Paper: dx.doi.org/10.1007/s10107-020-01523-z
USE THIS CODE ONLY FOR ACADEMIC PURPOSES AT YOUR OWN RISK
~~~~~~~~~~~~~~~~~~~~~~~~~~~~~~~~~~~~~~~~~~~~~~~~~~~~~~~~~~~~~~~~~~~~~~~~~~~~~~
BaPCod v053, 24/03/2021, © Inria Bordeaux, France
~~~~~~~~~~~~~~~~~~~~~~~~~~~~~~~~~~~~~~~~~~~~~~~~~~~~~~~~~~~~~~~~~~~~~~~~~~~~~~
VRPSolver parameters:
GlobalTimeLimit = 60
MaxNbOfBBtreeNodeTreated = 100000
treeSearchStrategy = 1
RCSPstopCutGenTimeThresholdInPricing = 10
RCSPhardTimeThresholdInPricing = 20
RCSPnumberOfBucketsPerVertex = 2000
RCSPdynamicBucketSteps = 0
RCSPuseBidirectionalSearch = 1
RCSPapplyReducedCostFixing = 1
RCSPredCostFixingFalseGap = 0
RCSPmaxNumOfColsPerIteration = 100
RCSPmaxNumOfColsPerExactIteration = 100
RCSPheurLabelingStrategy = 4
StabilizationMinPhaseOfStage = 1
RCSPmaxNumOfLabelsInEnumeration = 100000
RCSPmaxNumOfEnumeratedSolutions = 1000000
RCSPmaxNumOfEnumSolutionsForMIP = 100000
RCSPinitNGneighbourhoodSize = 0
RCSPmaxNGneighbourhoodSize = 0
RCSPrankOneCutsMaxNumPerRound = 100
RCSPrankOneCutsMaxNumRows = -1
RCSPrankOneCutsMemoryType = 2
CutTailingOffThreshold = 0.02
CutTailingOffCounterThreshold = 3
SafeDualBoundScaleFactor = -1
StrongBranchingPhaseOneCandidatesNumber = 100
StrongBranchingPhaseOneTreeSizeEstimRatio = 0.3
StrongBranchingPhaseTwoCandidatesNumber = 1
StrongBranchingPhaseTwoTreeSizeEstimRatio = 0.1
MaxTimeForRestrictedMasterIpHeur = -1
DivingHeurUseDepthLimit = 0
MaxLDSbreadth = 3
MaxLDSdepth = 2
New model incumbent solution 1e+06, TIME = 0h0m0s3t = 3
Model is built TIME = 0h0m4s2t = 402
************************************************************************************************
**** BaB tree root node
**** Local DB = -1e+12, global bounds : [ -1e+12 , 1e+06 ], TIME = 0h0m4s2t = 402
**** 1 open nodes, 0 columns (0 active), 0 dyn. constrs. (0 active), 1204 art. vars. (1204 active)
************************************************************************************************
<DWph=2> <it= 10> <et=11.40> <Mt= 0.07> <Spt= 7.29> <nCl=1000> <DB=-17300025992.9338> <Mlp=572974230.1470> <PB=1000000> 
<DWph=2> <it= 20> <et=19.64> <Mt= 0.51> <Spt= 7.73> <nCl=1000> <DB=-10775302506.3312> <Mlp=512084363.5167> <PB=1000000> 
<DWph=2> <it= 30> <et=28.87> <Mt= 1.30> <Spt= 7.92> <nCl=1000> <DB=-7098672588.6102> <Mlp=462446858.7240> <PB=1000000> 
<DWph=2> <it= 40> <et=39.42> <Mt= 2.48> <Spt= 8.06> <nCl=1000> <DB=-5166510088.3620> <Mlp=399592668.3422> <PB=1000000> 
<DWph=2> <it= 50> <et=51.41> <Mt= 3.31> <Spt= 8.67> <nCl=1000> <DB=-3884188776.5250> <Mlp=356790622.1645> <PB=1000000> 
<DWph=2> <it= 60> <et=65.36> <Mt= 4.12> <Spt= 9.84> <nCl=1000> <DB=-2919480059.2585> <Mlp=314422966.5807> <PB=1000000> 
Global time limit is reached during column generation
ColGenEvalAlg final dual bound: -1e+12 (rounded: -1e+12)
SEARCH IS INTERRUPTED as the time limit is reached. 
************************************************************************************************
Search is finished, global bounds : [ -1e+12 , 1e+06 ], TIME = 0h1m5s62t = 6562
************************************************************************************************
