Application parameters:
  batch  =>  nothing
  instance  =>  "/IN/600_20000_DI_16.txt-Q20"
  ub  =>  1.0e6
  cfg  =>  "/CFG/BPP.cfg"
data = Colored Bin Packing dataset.
number of items = 601
number of colors = 20
capacity = 16336
Items : 
	 item 1, weight= 40, color= 2
	 item 2, weight= 48, color= 3
	 item 3, weight= 80, color= 11
	 item 4, weight= 110, color= 13
	 item 5, weight= 132, color= 2
	 item 6, weight= 160, color= 13
	 item 7, weight= 192, color= 3
	 item 8, weight= 200, color= 12
	 item 9, weight= 224, color= 11
	 item 10, weight= 240, color= 5
	 item 11, weight= 256, color= 12
	 item 12, weight= 260, color= 12
	 item 13, weight= 272, color= 6
	 item 14, weight= 272, color= 7
	 item 15, weight= 276, color= 18
	 item 16, weight= 280, color= 14
	 item 17, weight= 284, color= 5
	 item 18, weight= 284, color= 16
	 item 19, weight= 288, color= 1
	 item 20, weight= 288, color= 5
	 item 21, weight= 288, color= 8
	 item 22, weight= 288, color= 8
	 item 23, weight= 288, color= 10
	 item 24, weight= 288, color= 13
	 item 25, weight= 292, color= 18
	 item 26, weight= 294, color= 2
	 item 27, weight= 294, color= 18
	 item 28, weight= 296, color= 5
	 item 29, weight= 304, color= 4
	 item 30, weight= 304, color= 17
	 item 31, weight= 304, color= 18
	 item 32, weight= 308, color= 7
	 item 33, weight= 310, color= 1
	 item 34, weight= 312, color= 2
	 item 35, weight= 316, color= 14
	 item 36, weight= 320, color= 2
	 item 37, weight= 320, color= 4
	 item 38, weight= 320, color= 10
	 item 39, weight= 320, color= 11
	 item 40, weight= 320, color= 11
	 item 41, weight= 320, color= 14
	 item 42, weight= 324, color= 15
	 item 43, weight= 330, color= 16
	 item 44, weight= 332, color= 1
	 item 45, weight= 332, color= 14
	 item 46, weight= 336, color= 1
	 item 47, weight= 336, color= 6
	 item 48, weight= 336, color= 13
	 item 49, weight= 344, color= 14
	 item 50, weight= 348, color= 14
	 item 51, weight= 350, color= 6
	 item 52, weight= 350, color= 17
	 item 53, weight= 352, color= 6
	 item 54, weight= 352, color= 19
	 item 55, weight= 356, color= 9
	 item 56, weight= 360, color= 18
	 item 57, weight= 362, color= 6
	 item 58, weight= 364, color= 5
	 item 59, weight= 368, color= 6
	 item 60, weight= 368, color= 9
	 item 61, weight= 368, color= 16
	 item 62, weight= 368, color= 16
	 item 63, weight= 370, color= 11
	 item 64, weight= 374, color= 10
	 item 65, weight= 376, color= 2
	 item 66, weight= 376, color= 6
	 item 67, weight= 376, color= 16
	 item 68, weight= 382, color= 19
	 item 69, weight= 384, color= 0
	 item 70, weight= 384, color= 18
	 item 71, weight= 390, color= 16
	 item 72, weight= 392, color= 5
	 item 73, weight= 392, color= 15
	 item 74, weight= 400, color= 0
	 item 75, weight= 408, color= 10
	 item 76, weight= 412, color= 18
	 item 77, weight= 414, color= 15
	 item 78, weight= 416, color= 9
	 item 79, weight= 416, color= 11
	 item 80, weight= 416, color= 14
	 item 81, weight= 424, color= 3
	 item 82, weight= 424, color= 10
	 item 83, weight= 428, color= 3
	 item 84, weight= 428, color= 11
	 item 85, weight= 432, color= 9
	 item 86, weight= 432, color= 18
	 item 87, weight= 434, color= 6
	 item 88, weight= 434, color= 17
	 item 89, weight= 436, color= 3
	 item 90, weight= 448, color= 19
	 item 91, weight= 454, color= 4
	 item 92, weight= 460, color= 10
	 item 93, weight= 462, color= 1
	 item 94, weight= 464, color= 7
	 item 95, weight= 464, color= 14
	 item 96, weight= 472, color= 16
	 item 97, weight= 476, color= 2
	 item 98, weight= 478, color= 1
	 item 99, weight= 480, color= 2
	 item 100, weight= 480, color= 3
	 item 101, weight= 486, color= 18
	 item 102, weight= 488, color= 8
	 item 103, weight= 496, color= 2
	 item 104, weight= 496, color= 7
	 item 105, weight= 504, color= 13
	 item 106, weight= 504, color= 17
	 item 107, weight= 508, color= 7
	 item 108, weight= 512, color= 1
	 item 109, weight= 512, color= 2
	 item 110, weight= 512, color= 18
	 item 111, weight= 528, color= 9
	 item 112, weight= 528, color= 12
	 item 113, weight= 540, color= 4
	 item 114, weight= 542, color= 13
	 item 115, weight= 544, color= 9
	 item 116, weight= 546, color= 16
	 item 117, weight= 548, color= 3
	 item 118, weight= 550, color= 13
	 item 119, weight= 554, color= 18
	 item 120, weight= 560, color= 19
	 item 121, weight= 562, color= 6
	 item 122, weight= 568, color= 7
	 item 123, weight= 576, color= 1
	 item 124, weight= 576, color= 3
	 item 125, weight= 576, color= 11
	 item 126, weight= 580, color= 9
	 item 127, weight= 596, color= 8
	 item 128, weight= 600, color= 11
	 item 129, weight= 600, color= 14
	 item 130, weight= 624, color= 3
	 item 131, weight= 628, color= 5
	 item 132, weight= 636, color= 17
	 item 133, weight= 640, color= 0
	 item 134, weight= 640, color= 8
	 item 135, weight= 642, color= 18
	 item 136, weight= 648, color= 8
	 item 137, weight= 648, color= 12
	 item 138, weight= 650, color= 1
	 item 139, weight= 652, color= 7
	 item 140, weight= 654, color= 18
	 item 141, weight= 660, color= 19
	 item 142, weight= 700, color= 1
	 item 143, weight= 704, color= 14
	 item 144, weight= 704, color= 19
	 item 145, weight= 706, color= 15
	 item 146, weight= 714, color= 8
	 item 147, weight= 724, color= 5
	 item 148, weight= 728, color= 0
	 item 149, weight= 736, color= 10
	 item 150, weight= 744, color= 4
	 item 151, weight= 752, color= 6
	 item 152, weight= 752, color= 8
	 item 153, weight= 776, color= 3
	 item 154, weight= 776, color= 14
	 item 155, weight= 782, color= 8
	 item 156, weight= 784, color= 1
	 item 157, weight= 784, color= 7
	 item 158, weight= 790, color= 8
	 item 159, weight= 812, color= 10
	 item 160, weight= 836, color= 19
	 item 161, weight= 848, color= 5
	 item 162, weight= 856, color= 6
	 item 163, weight= 856, color= 10
	 item 164, weight= 864, color= 9
	 item 165, weight= 868, color= 10
	 item 166, weight= 872, color= 17
	 item 167, weight= 880, color= 16
	 item 168, weight= 896, color= 13
	 item 169, weight= 912, color= 7
	 item 170, weight= 924, color= 7
	 item 171, weight= 928, color= 4
	 item 172, weight= 936, color= 6
	 item 173, weight= 964, color= 4
	 item 174, weight= 992, color= 10
	 item 175, weight= 992, color= 11
	 item 176, weight= 992, color= 16
	 item 177, weight= 1000, color= 9
	 item 178, weight= 1008, color= 4
	 item 179, weight= 1040, color= 8
	 item 180, weight= 1072, color= 1
	 item 181, weight= 1078, color= 13
	 item 182, weight= 1108, color= 14
	 item 183, weight= 1108, color= 15
	 item 184, weight= 1110, color= 6
	 item 185, weight= 1116, color= 1
	 item 186, weight= 1152, color= 2
	 item 187, weight= 1160, color= 10
	 item 188, weight= 1168, color= 18
	 item 189, weight= 1188, color= 19
	 item 190, weight= 1192, color= 0
	 item 191, weight= 1216, color= 17
	 item 192, weight= 1264, color= 17
	 item 193, weight= 1308, color= 18
	 item 194, weight= 1328, color= 17
	 item 195, weight= 1344, color= 2
	 item 196, weight= 1344, color= 12
	 item 197, weight= 1344, color= 14
	 item 198, weight= 1352, color= 1
	 item 199, weight= 1352, color= 10
	 item 200, weight= 1352, color= 17
	 item 201, weight= 1360, color= 5
	 item 202, weight= 1360, color= 8
	 item 203, weight= 1360, color= 10
	 item 204, weight= 1372, color= 11
	 item 205, weight= 1380, color= 6
	 item 206, weight= 1386, color= 11
	 item 207, weight= 1414, color= 14
	 item 208, weight= 1416, color= 5
	 item 209, weight= 1426, color= 1
	 item 210, weight= 1448, color= 10
	 item 211, weight= 1458, color= 5
	 item 212, weight= 1460, color= 18
	 item 213, weight= 1468, color= 12
	 item 214, weight= 1473, color= 8
	 item 215, weight= 1481, color= 19
	 item 216, weight= 1482, color= 16
	 item 217, weight= 1494, color= 16
	 item 218, weight= 1521, color= 5
	 item 219, weight= 1528, color= 3
	 item 220, weight= 1546, color= 15
	 item 221, weight= 1556, color= 18
	 item 222, weight= 1557, color= 2
	 item 223, weight= 1562, color= 7
	 item 224, weight= 1580, color= 9
	 item 225, weight= 1581, color= 3
	 item 226, weight= 1600, color= 4
	 item 227, weight= 1606, color= 14
	 item 228, weight= 1610, color= 6
	 item 229, weight= 1612, color= 1
	 item 230, weight= 1634, color= 9
	 item 231, weight= 1651, color= 15
	 item 232, weight= 1672, color= 11
	 item 233, weight= 1678, color= 8
	 item 234, weight= 1681, color= 13
	 item 235, weight= 1682, color= 16
	 item 236, weight= 1696, color= 13
	 item 237, weight= 1716, color= 16
	 item 238, weight= 1720, color= 0
	 item 239, weight= 1740, color= 0
	 item 240, weight= 1749, color= 2
	 item 241, weight= 1751, color= 5
	 item 242, weight= 1759, color= 18
	 item 243, weight= 1782, color= 6
	 item 244, weight= 1784, color= 11
	 item 245, weight= 1794, color= 16
	 item 246, weight= 1815, color= 11
	 item 247, weight= 1834, color= 19
	 item 248, weight= 1848, color= 2
	 item 249, weight= 1851, color= 14
	 item 250, weight= 1858, color= 18
	 item 251, weight= 1868, color= 4
	 item 252, weight= 1879, color= 12
	 item 253, weight= 1898, color= 11
	 item 254, weight= 1902, color= 5
	 item 255, weight= 1905, color= 18
	 item 256, weight= 1908, color= 12
	 item 257, weight= 1915, color= 1
	 item 258, weight= 1928, color= 14
	 item 259, weight= 1940, color= 1
	 item 260, weight= 1955, color= 8
	 item 261, weight= 1967, color= 13
	 item 262, weight= 1982, color= 9
	 item 263, weight= 2000, color= 8
	 item 264, weight= 2040, color= 6
	 item 265, weight= 2046, color= 4
	 item 266, weight= 2074, color= 14
	 item 267, weight= 2077, color= 7
	 item 268, weight= 2081, color= 12
	 item 269, weight= 2092, color= 4
	 item 270, weight= 2096, color= 17
	 item 271, weight= 2130, color= 3
	 item 272, weight= 2132, color= 3
	 item 273, weight= 2149, color= 7
	 item 274, weight= 2158, color= 19
	 item 275, weight= 2168, color= 4
	 item 276, weight= 2175, color= 8
	 item 277, weight= 2248, color= 18
	 item 278, weight= 2258, color= 15
	 item 279, weight= 2261, color= 4
	 item 280, weight= 2275, color= 14
	 item 281, weight= 2288, color= 10
	 item 282, weight= 2296, color= 9
	 item 283, weight= 2310, color= 5
	 item 284, weight= 2315, color= 17
	 item 285, weight= 2329, color= 1
	 item 286, weight= 2364, color= 6
	 item 287, weight= 2372, color= 7
	 item 288, weight= 2381, color= 8
	 item 289, weight= 2392, color= 6
	 item 290, weight= 2399, color= 18
	 item 291, weight= 2414, color= 3
	 item 292, weight= 2431, color= 12
	 item 293, weight= 2432, color= 13
	 item 294, weight= 2452, color= 1
	 item 295, weight= 2490, color= 15
	 item 296, weight= 2504, color= 1
	 item 297, weight= 2548, color= 7
	 item 298, weight= 2551, color= 11
	 item 299, weight= 2564, color= 6
	 item 300, weight= 2566, color= 19
	 item 301, weight= 2568, color= 15
	 item 302, weight= 2648, color= 4
	 item 303, weight= 2648, color= 6
	 item 304, weight= 2660, color= 12
	 item 305, weight= 2673, color= 0
	 item 306, weight= 2689, color= 12
	 item 307, weight= 2711, color= 18
	 item 308, weight= 2713, color= 4
	 item 309, weight= 2738, color= 13
	 item 310, weight= 2741, color= 13
	 item 311, weight= 2750, color= 4
	 item 312, weight= 2753, color= 13
	 item 313, weight= 2781, color= 1
	 item 314, weight= 2804, color= 3
	 item 315, weight= 2810, color= 17
	 item 316, weight= 2815, color= 8
	 item 317, weight= 2821, color= 18
	 item 318, weight= 2876, color= 3
	 item 319, weight= 2888, color= 6
	 item 320, weight= 2901, color= 17
	 item 321, weight= 2902, color= 15
	 item 322, weight= 2952, color= 9
	 item 323, weight= 2987, color= 8
	 item 324, weight= 3018, color= 14
	 item 325, weight= 3120, color= 11
	 item 326, weight= 3150, color= 4
	 item 327, weight= 3187, color= 14
	 item 328, weight= 3213, color= 13
	 item 329, weight= 3228, color= 6
	 item 330, weight= 3240, color= 13
	 item 331, weight= 3252, color= 8
	 item 332, weight= 3253, color= 14
	 item 333, weight= 3262, color= 2
	 item 334, weight= 3268, color= 11
	 item 335, weight= 3302, color= 2
	 item 336, weight= 3442, color= 14
	 item 337, weight= 3507, color= 18
	 item 338, weight= 3533, color= 8
	 item 339, weight= 3542, color= 5
	 item 340, weight= 3573, color= 13
	 item 341, weight= 3592, color= 19
	 item 342, weight= 3634, color= 17
	 item 343, weight= 3716, color= 19
	 item 344, weight= 3724, color= 6
	 item 345, weight= 3784, color= 7
	 item 346, weight= 3891, color= 5
	 item 347, weight= 3898, color= 0
	 item 348, weight= 3917, color= 15
	 item 349, weight= 3957, color= 19
	 item 350, weight= 3964, color= 18
	 item 351, weight= 4008, color= 8
	 item 352, weight= 4008, color= 13
	 item 353, weight= 4062, color= 10
	 item 354, weight= 4185, color= 6
	 item 355, weight= 4276, color= 18
	 item 356, weight= 4300, color= 15
	 item 357, weight= 4316, color= 9
	 item 358, weight= 4344, color= 0
	 item 359, weight= 4351, color= 14
	 item 360, weight= 4374, color= 11
	 item 361, weight= 4428, color= 5
	 item 362, weight= 4616, color= 0
	 item 363, weight= 4625, color= 9
	 item 364, weight= 4680, color= 11
	 item 365, weight= 4682, color= 1
	 item 366, weight= 4823, color= 6
	 item 367, weight= 4980, color= 10
	 item 368, weight= 5016, color= 8
	 item 369, weight= 5036, color= 14
	 item 370, weight= 5054, color= 5
	 item 371, weight= 5153, color= 6
	 item 372, weight= 5204, color= 19
	 item 373, weight= 5240, color= 10
	 item 374, weight= 5369, color= 10
	 item 375, weight= 5391, color= 14
	 item 376, weight= 5546, color= 4
	 item 377, weight= 5551, color= 16
	 item 378, weight= 5562, color= 18
	 item 379, weight= 5586, color= 19
	 item 380, weight= 5764, color= 6
	 item 381, weight= 5820, color= 17
	 item 382, weight= 5832, color= 19
	 item 383, weight= 5868, color= 19
	 item 384, weight= 5946, color= 15
	 item 385, weight= 5963, color= 6
	 item 386, weight= 6064, color= 19
	 item 387, weight= 6104, color= 11
	 item 388, weight= 6265, color= 16
	 item 389, weight= 6354, color= 2
	 item 390, weight= 6374, color= 18
	 item 391, weight= 6392, color= 10
	 item 392, weight= 6549, color= 3
	 item 393, weight= 6728, color= 19
	 item 394, weight= 6764, color= 13
	 item 395, weight= 6772, color= 9
	 item 396, weight= 6788, color= 18
	 item 397, weight= 6802, color= 7
	 item 398, weight= 6804, color= 11
	 item 399, weight= 6806, color= 1
	 item 400, weight= 6807, color= 1
	 item 401, weight= 6808, color= 14
	 item 402, weight= 7152, color= 13
	 item 403, weight= 7511, color= 13
	 item 404, weight= 7540, color= 7
	 item 405, weight= 8080, color= 19
	 item 406, weight= 8169, color= 5
	 item 407, weight= 8170, color= 14
	 item 408, weight= 8171, color= 16
	 item 409, weight= 8172, color= 10
	 item 410, weight= 8174, color= 2
	 item 411, weight= 8180, color= 17
	 item 412, weight= 8184, color= 4
	 item 413, weight= 8196, color= 11
	 item 414, weight= 8212, color= 13
	 item 415, weight= 8228, color= 12
	 item 416, weight= 8264, color= 10
	 item 417, weight= 8479, color= 14
	 item 418, weight= 8680, color= 1
	 item 419, weight= 9016, color= 6
	 item 420, weight= 9181, color= 0
	 item 421, weight= 9202, color= 17
	 item 422, weight= 9234, color= 10
	 item 423, weight= 9300, color= 17
	 item 424, weight= 9356, color= 7
	 item 425, weight= 9420, color= 1
	 item 426, weight= 9471, color= 7
	 item 427, weight= 9634, color= 10
	 item 428, weight= 9666, color= 15
	 item 429, weight= 9675, color= 1
	 item 430, weight= 9682, color= 4
	 item 431, weight= 9698, color= 11
	 item 432, weight= 9720, color= 14
	 item 433, weight= 9867, color= 8
	 item 434, weight= 9895, color= 7
	 item 435, weight= 10056, color= 15
	 item 436, weight= 10274, color= 0
	 item 437, weight= 10300, color= 6
	 item 438, weight= 10328, color= 16
	 item 439, weight= 10364, color= 2
	 item 440, weight= 10549, color= 8
	 item 441, weight= 10703, color= 4
	 item 442, weight= 10718, color= 16
	 item 443, weight= 10728, color= 17
	 item 444, weight= 10787, color= 17
	 item 445, weight= 10808, color= 13
	 item 446, weight= 11028, color= 17
	 item 447, weight= 11084, color= 15
	 item 448, weight= 11090, color= 1
	 item 449, weight= 11117, color= 6
	 item 450, weight= 11128, color= 6
	 item 451, weight= 11164, color= 6
	 item 452, weight= 11180, color= 19
	 item 453, weight= 11212, color= 14
	 item 454, weight= 11315, color= 16
	 item 455, weight= 11462, color= 9
	 item 456, weight= 11544, color= 6
	 item 457, weight= 11589, color= 13
	 item 458, weight= 11637, color= 2
	 item 459, weight= 11662, color= 2
	 item 460, weight= 11669, color= 0
	 item 461, weight= 11800, color= 14
	 item 462, weight= 11844, color= 10
	 item 463, weight= 11868, color= 12
	 item 464, weight= 11884, color= 5
	 item 465, weight= 11960, color= 5
	 item 466, weight= 11978, color= 6
	 item 467, weight= 12040, color= 12
	 item 468, weight= 12049, color= 0
	 item 469, weight= 12090, color= 19
	 item 470, weight= 12097, color= 8
	 item 471, weight= 12129, color= 3
	 item 472, weight= 12374, color= 9
	 item 473, weight= 12420, color= 5
	 item 474, weight= 12422, color= 0
	 item 475, weight= 12433, color= 11
	 item 476, weight= 12436, color= 7
	 item 477, weight= 12456, color= 3
	 item 478, weight= 12468, color= 17
	 item 479, weight= 12481, color= 14
	 item 480, weight= 12513, color= 4
	 item 481, weight= 12558, color= 4
	 item 482, weight= 12606, color= 3
	 item 483, weight= 12718, color= 19
	 item 484, weight= 12753, color= 14
	 item 485, weight= 12808, color= 16
	 item 486, weight= 12855, color= 14
	 item 487, weight= 12858, color= 19
	 item 488, weight= 12872, color= 13
	 item 489, weight= 12892, color= 10
	 item 490, weight= 12953, color= 7
	 item 491, weight= 12972, color= 11
	 item 492, weight= 13001, color= 17
	 item 493, weight= 13033, color= 16
	 item 494, weight= 13038, color= 0
	 item 495, weight= 13049, color= 15
	 item 496, weight= 13054, color= 0
	 item 497, weight= 13081, color= 2
	 item 498, weight= 13085, color= 9
	 item 499, weight= 13104, color= 13
	 item 500, weight= 13160, color= 9
	 item 501, weight= 13176, color= 9
	 item 502, weight= 13229, color= 10
	 item 503, weight= 13256, color= 17
	 item 504, weight= 13258, color= 8
	 item 505, weight= 13268, color= 8
	 item 506, weight= 13277, color= 0
	 item 507, weight= 13284, color= 0
	 item 508, weight= 13316, color= 19
	 item 509, weight= 13334, color= 15
	 item 510, weight= 13336, color= 19
	 item 511, weight= 13350, color= 11
	 item 512, weight= 13389, color= 0
	 item 513, weight= 13396, color= 18
	 item 514, weight= 13419, color= 7
	 item 515, weight= 13442, color= 10
	 item 516, weight= 13447, color= 18
	 item 517, weight= 13459, color= 18
	 item 518, weight= 13479, color= 5
	 item 519, weight= 13480, color= 9
	 item 520, weight= 13492, color= 4
	 item 521, weight= 13508, color= 3
	 item 522, weight= 13559, color= 7
	 item 523, weight= 13566, color= 16
	 item 524, weight= 13607, color= 17
	 item 525, weight= 13630, color= 5
	 item 526, weight= 13639, color= 17
	 item 527, weight= 13656, color= 7
	 item 528, weight= 13727, color= 14
	 item 529, weight= 13736, color= 7
	 item 530, weight= 13750, color= 7
	 item 531, weight= 13759, color= 3
	 item 532, weight= 13780, color= 19
	 item 533, weight= 13782, color= 8
	 item 534, weight= 13816, color= 13
	 item 535, weight= 13824, color= 19
	 item 536, weight= 13828, color= 15
	 item 537, weight= 13839, color= 5
	 item 538, weight= 13845, color= 1
	 item 539, weight= 13850, color= 15
	 item 540, weight= 13882, color= 2
	 item 541, weight= 13896, color= 10
	 item 542, weight= 13897, color= 19
	 item 543, weight= 13962, color= 11
	 item 544, weight= 13977, color= 18
	 item 545, weight= 13991, color= 8
	 item 546, weight= 14012, color= 1
	 item 547, weight= 14024, color= 1
	 item 548, weight= 14039, color= 8
	 item 549, weight= 14052, color= 9
	 item 550, weight= 14058, color= 16
	 item 551, weight= 14062, color= 15
	 item 552, weight= 14083, color= 9
	 item 553, weight= 14100, color= 14
	 item 554, weight= 14110, color= 4
	 item 555, weight= 14115, color= 6
	 item 556, weight= 14120, color= 2
	 item 557, weight= 14138, color= 12
	 item 558, weight= 14159, color= 19
	 item 559, weight= 14186, color= 14
	 item 560, weight= 14200, color= 11
	 item 561, weight= 14202, color= 9
	 item 562, weight= 14227, color= 5
	 item 563, weight= 14235, color= 2
	 item 564, weight= 14239, color= 10
	 item 565, weight= 14252, color= 16
	 item 566, weight= 14280, color= 6
	 item 567, weight= 14284, color= 7
	 item 568, weight= 14319, color= 14
	 item 569, weight= 14320, color= 6
	 item 570, weight= 14322, color= 16
	 item 571, weight= 14326, color= 10
	 item 572, weight= 14344, color= 17
	 item 573, weight= 14355, color= 9
	 item 574, weight= 14378, color= 16
	 item 575, weight= 14391, color= 4
	 item 576, weight= 14404, color= 18
	 item 577, weight= 14406, color= 2
	 item 578, weight= 14410, color= 14
	 item 579, weight= 14416, color= 5
	 item 580, weight= 14439, color= 17
	 item 581, weight= 14444, color= 19
	 item 582, weight= 14469, color= 6
	 item 583, weight= 14476, color= 16
	 item 584, weight= 14482, color= 8
	 item 585, weight= 14511, color= 4
	 item 586, weight= 14514, color= 17
	 item 587, weight= 14520, color= 18
	 item 588, weight= 14546, color= 12
	 item 589, weight= 14561, color= 15
	 item 590, weight= 14562, color= 1
	 item 591, weight= 14569, color= 6
	 item 592, weight= 14580, color= 8
	 item 593, weight= 14588, color= 11
	 item 594, weight= 14590, color= 17
	 item 595, weight= 14600, color= 13
	 item 596, weight= 14626, color= 8
	 item 597, weight= 14642, color= 4
	 item 598, weight= 14674, color= 0
	 item 599, weight= 14680, color= 11
	 item 600, weight= 14684, color= 17
	 item 601, weight= 14692, color= 12

VRPSolver warning: Interval set for resource 1 on source node (when source != sink) is ignored (by definition is [0.0,0.0])
VRPSolver warning: Interval set for resource 2 on source node (when source != sink) is ignored (by definition is [0.0,0.0])
VRPSolver warning: Interval set for resource 3 on source node (when source != sink) is ignored (by definition is [0.0,0.0])
VRPSolver warning: Interval set for resource 4 on source node (when source != sink) is ignored (by definition is [0.0,0.0])
VRPSolver warning: Interval set for resource 5 on source node (when source != sink) is ignored (by definition is [0.0,0.0])
VRPSolver warning: Interval set for resource 6 on source node (when source != sink) is ignored (by definition is [0.0,0.0])
VRPSolver warning: Interval set for resource 7 on source node (when source != sink) is ignored (by definition is [0.0,0.0])
VRPSolver warning: Interval set for resource 8 on source node (when source != sink) is ignored (by definition is [0.0,0.0])
VRPSolver warning: Interval set for resource 9 on source node (when source != sink) is ignored (by definition is [0.0,0.0])
VRPSolver warning: Interval set for resource 10 on source node (when source != sink) is ignored (by definition is [0.0,0.0])
VRPSolver warning: Interval set for resource 11 on source node (when source != sink) is ignored (by definition is [0.0,0.0])
VRPSolver warning: Interval set for resource 12 on source node (when source != sink) is ignored (by definition is [0.0,0.0])
VRPSolver warning: Interval set for resource 13 on source node (when source != sink) is ignored (by definition is [0.0,0.0])
VRPSolver warning: Interval set for resource 14 on source node (when source != sink) is ignored (by definition is [0.0,0.0])
VRPSolver warning: Interval set for resource 15 on source node (when source != sink) is ignored (by definition is [0.0,0.0])
VRPSolver warning: Interval set for resource 16 on source node (when source != sink) is ignored (by definition is [0.0,0.0])
VRPSolver warning: Interval set for resource 17 on source node (when source != sink) is ignored (by definition is [0.0,0.0])
VRPSolver warning: Interval set for resource 18 on source node (when source != sink) is ignored (by definition is [0.0,0.0])
VRPSolver warning: Interval set for resource 19 on source node (when source != sink) is ignored (by definition is [0.0,0.0])
VRPSolver warning: Interval set for resource 20 on source node (when source != sink) is ignored (by definition is [0.0,0.0])
VRPSolver warning: Interval set for resource 21 on source node (when source != sink) is ignored (by definition is [0.0,0.0])
[41m solve [00m
~~~~~~~~~~~~~~~~~~~~~~~~~~~~~~~~~~~~~~~~~~~~~~~~~~~~~~~~~~~~~~~~~~~~~~~~~~~~~~
VRPSolver v0.4.1, 24/03/2021. Web: vrpsolver.math.u-bordeaux.fr
Corresponds to the solver by Pessoa, Sadykov, Uchoa and Vanderbeck (2020)
Paper: dx.doi.org/10.1007/s10107-020-01523-z
USE THIS CODE ONLY FOR ACADEMIC PURPOSES AT YOUR OWN RISK
~~~~~~~~~~~~~~~~~~~~~~~~~~~~~~~~~~~~~~~~~~~~~~~~~~~~~~~~~~~~~~~~~~~~~~~~~~~~~~
BaPCod v053, 24/03/2021, © Inria Bordeaux, France
~~~~~~~~~~~~~~~~~~~~~~~~~~~~~~~~~~~~~~~~~~~~~~~~~~~~~~~~~~~~~~~~~~~~~~~~~~~~~~
VRPSolver parameters:
GlobalTimeLimit = 60
MaxNbOfBBtreeNodeTreated = 100000
treeSearchStrategy = 1
RCSPstopCutGenTimeThresholdInPricing = 10
RCSPhardTimeThresholdInPricing = 20
RCSPnumberOfBucketsPerVertex = 2000
RCSPdynamicBucketSteps = 0
RCSPuseBidirectionalSearch = 1
RCSPapplyReducedCostFixing = 1
RCSPredCostFixingFalseGap = 0
RCSPmaxNumOfColsPerIteration = 100
RCSPmaxNumOfColsPerExactIteration = 100
RCSPheurLabelingStrategy = 4
StabilizationMinPhaseOfStage = 1
RCSPmaxNumOfLabelsInEnumeration = 100000
RCSPmaxNumOfEnumeratedSolutions = 1000000
RCSPmaxNumOfEnumSolutionsForMIP = 100000
RCSPinitNGneighbourhoodSize = 0
RCSPmaxNGneighbourhoodSize = 0
RCSPrankOneCutsMaxNumPerRound = 100
RCSPrankOneCutsMaxNumRows = -1
RCSPrankOneCutsMemoryType = 2
CutTailingOffThreshold = 0.02
CutTailingOffCounterThreshold = 3
SafeDualBoundScaleFactor = -1
StrongBranchingPhaseOneCandidatesNumber = 100
StrongBranchingPhaseOneTreeSizeEstimRatio = 0.3
StrongBranchingPhaseTwoCandidatesNumber = 1
StrongBranchingPhaseTwoTreeSizeEstimRatio = 0.1
MaxTimeForRestrictedMasterIpHeur = -1
DivingHeurUseDepthLimit = 0
MaxLDSbreadth = 3
MaxLDSdepth = 2
New model incumbent solution 1e+06, TIME = 0h0m0s3t = 3
