Application parameters:
  batch  =>  nothing
  instance  =>  "/IN/Falkenauer_t60_07.txt-Q2"
  ub  =>  1.0e6
  cfg  =>  "/CFG/BPP.cfg"
data = Colored Bin Packing dataset.
number of items = 60
number of colors = 2
capacity = 1000
Items : 
	 item 1, weight= 250, color= 0
	 item 2, weight= 252, color= 1
	 item 3, weight= 255, color= 0
	 item 4, weight= 255, color= 0
	 item 5, weight= 256, color= 1
	 item 6, weight= 256, color= 1
	 item 7, weight= 260, color= 0
	 item 8, weight= 260, color= 0
	 item 9, weight= 260, color= 0
	 item 10, weight= 261, color= 0
	 item 11, weight= 263, color= 1
	 item 12, weight= 264, color= 1
	 item 13, weight= 264, color= 1
	 item 14, weight= 265, color= 0
	 item 15, weight= 266, color= 0
	 item 16, weight= 267, color= 1
	 item 17, weight= 268, color= 0
	 item 18, weight= 273, color= 1
	 item 19, weight= 279, color= 0
	 item 20, weight= 279, color= 1
	 item 21, weight= 281, color= 0
	 item 22, weight= 281, color= 1
	 item 23, weight= 286, color= 1
	 item 24, weight= 293, color= 0
	 item 25, weight= 296, color= 1
	 item 26, weight= 297, color= 1
	 item 27, weight= 303, color= 1
	 item 28, weight= 307, color= 1
	 item 29, weight= 314, color= 0
	 item 30, weight= 318, color= 1
	 item 31, weight= 322, color= 0
	 item 32, weight= 324, color= 1
	 item 33, weight= 326, color= 0
	 item 34, weight= 327, color= 0
	 item 35, weight= 329, color= 0
	 item 36, weight= 330, color= 0
	 item 37, weight= 353, color= 1
	 item 38, weight= 362, color= 0
	 item 39, weight= 365, color= 0
	 item 40, weight= 365, color= 0
	 item 41, weight= 366, color= 1
	 item 42, weight= 370, color= 1
	 item 43, weight= 370, color= 1
	 item 44, weight= 373, color= 1
	 item 45, weight= 378, color= 1
	 item 46, weight= 380, color= 1
	 item 47, weight= 392, color= 0
	 item 48, weight= 406, color= 0
	 item 49, weight= 407, color= 1
	 item 50, weight= 410, color= 0
	 item 51, weight= 410, color= 0
	 item 52, weight= 412, color= 1
	 item 53, weight= 422, color= 0
	 item 54, weight= 432, color= 1
	 item 55, weight= 454, color= 1
	 item 56, weight= 465, color= 0
	 item 57, weight= 476, color= 0
	 item 58, weight= 478, color= 1
	 item 59, weight= 480, color= 1
	 item 60, weight= 487, color= 0

VRPSolver warning: Interval set for resource 1 on source node (when source != sink) is ignored (by definition is [0.0,0.0])
VRPSolver warning: Interval set for resource 2 on source node (when source != sink) is ignored (by definition is [0.0,0.0])
VRPSolver warning: Interval set for resource 3 on source node (when source != sink) is ignored (by definition is [0.0,0.0])
[41m solve [00m
~~~~~~~~~~~~~~~~~~~~~~~~~~~~~~~~~~~~~~~~~~~~~~~~~~~~~~~~~~~~~~~~~~~~~~~~~~~~~~
VRPSolver v0.4.1, 24/03/2021. Web: vrpsolver.math.u-bordeaux.fr
Corresponds to the solver by Pessoa, Sadykov, Uchoa and Vanderbeck (2020)
Paper: dx.doi.org/10.1007/s10107-020-01523-z
USE THIS CODE ONLY FOR ACADEMIC PURPOSES AT YOUR OWN RISK
~~~~~~~~~~~~~~~~~~~~~~~~~~~~~~~~~~~~~~~~~~~~~~~~~~~~~~~~~~~~~~~~~~~~~~~~~~~~~~
BaPCod v053, 24/03/2021, © Inria Bordeaux, France
~~~~~~~~~~~~~~~~~~~~~~~~~~~~~~~~~~~~~~~~~~~~~~~~~~~~~~~~~~~~~~~~~~~~~~~~~~~~~~
VRPSolver parameters:
GlobalTimeLimit = 60
MaxNbOfBBtreeNodeTreated = 100000
treeSearchStrategy = 1
RCSPstopCutGenTimeThresholdInPricing = 10
RCSPhardTimeThresholdInPricing = 20
RCSPnumberOfBucketsPerVertex = 2000
RCSPdynamicBucketSteps = 0
RCSPuseBidirectionalSearch = 1
RCSPapplyReducedCostFixing = 1
RCSPredCostFixingFalseGap = 0
RCSPmaxNumOfColsPerIteration = 100
RCSPmaxNumOfColsPerExactIteration = 100
RCSPheurLabelingStrategy = 4
StabilizationMinPhaseOfStage = 1
RCSPmaxNumOfLabelsInEnumeration = 100000
RCSPmaxNumOfEnumeratedSolutions = 1000000
RCSPmaxNumOfEnumSolutionsForMIP = 100000
RCSPinitNGneighbourhoodSize = 0
RCSPmaxNGneighbourhoodSize = 0
RCSPrankOneCutsMaxNumPerRound = 100
RCSPrankOneCutsMaxNumRows = -1
RCSPrankOneCutsMemoryType = 2
CutTailingOffThreshold = 0.02
CutTailingOffCounterThreshold = 3
SafeDualBoundScaleFactor = -1
StrongBranchingPhaseOneCandidatesNumber = 100
StrongBranchingPhaseOneTreeSizeEstimRatio = 0.3
StrongBranchingPhaseTwoCandidatesNumber = 1
StrongBranchingPhaseTwoTreeSizeEstimRatio = 0.1
MaxTimeForRestrictedMasterIpHeur = -1
DivingHeurUseDepthLimit = 0
MaxLDSbreadth = 3
MaxLDSdepth = 2
New model incumbent solution 1e+06, TIME = 0h0m0s3t = 3
Model is built TIME = 0h0m1s24t = 124
************************************************************************************************
**** BaB tree root node
**** Local DB = -1e+12, global bounds : [ -1e+12 , 1e+06 ], TIME = 0h0m1s24t = 124
**** 1 open nodes, 0 columns (0 active), 0 dyn. constrs. (0 active), 122 art. vars. (122 active)
************************************************************************************************
<DWph=2> <it= 10> <et=1.39> <Mt= 0.00> <Spt= 0.14> <nCl=995> <DB=    8.9222> <Mlp=   20.1284> <PB=1000000> 
<DWph=2> <it= 17> <et=1.49> <Mt= 0.01> <Spt= 0.09> <nCl=165> <DB=   20.0000> <Mlp=   20.0000> <PB=20> 
<DWph=1> <it= 18> <et=1.52> <Mt= 0.00> <Spt= 0.02> <nCl=  0> <DB=   20.0000> <Mlp=   20.0000> <PB=20> 
<DWph=0> <it= 19> <et=1.53> <Mt= 0.00> <Spt= 0.01> <nCl=  0> <DB=   20.0000> <Mlp=   20.0000> <PB=20> 
ColGenEvalAlg final dual bound: 20 (rounded: 20)
New model incumbent solution 20, TIME = 0h0m1s54t = 154
************************************************************************************************
Search is finished, global bounds : [ 20 , 20 ], TIME = 0h0m1s54t = 154
************************************************************************************************
[32mBaPCod : solution defined.[00m
statistics_cols: instance & :Optimal & cutoff & :bcRecRootDb & :bcTimeRootEval & :bcCountNodeProc & :bcRecBestDb & :bcRecBestInc & :bcTimeMain \\
statistics: Falkenauer_t60_07 & 1 & 1.0e6 & 20.00 & 1.54 & 1 & 20.00 & 20 & 1.54 \\
########################################################
bin_id=1: 260(0) 370(1) 370(1) 
bin_id=2: 261(0) 366(1) 373(1) 
bin_id=3: 255(0) 365(0) 380(1) 
bin_id=4: 264(1) 330(0) 406(0) 
bin_id=5: 266(0) 324(1) 410(0) 
bin_id=6: 256(1) 322(0) 422(0) 
bin_id=7: 256(1) 279(0) 465(0) 
bin_id=8: 255(0) 267(1) 478(1) 
bin_id=9: 260(0) 264(1) 476(0) 
bin_id=10: 279(1) 314(0) 407(1) 
bin_id=11: 250(0) 263(1) 487(0) 
bin_id=12: 252(1) 268(0) 480(1) 
bin_id=13: 265(0) 303(1) 432(1) 
bin_id=14: 296(1) 326(0) 378(1) 
bin_id=15: 281(0) 307(1) 412(1) 
bin_id=16: 318(1) 329(0) 353(1) 
bin_id=17: 273(1) 362(0) 365(0) 
bin_id=18: 293(0) 297(1) 410(0) 
bin_id=19: 281(1) 327(0) 392(0) 
bin_id=20: 260(0) 286(1) 454(1) 
Objective value: 20.0
########################################################
