Application parameters:
  batch  =>  nothing
  instance  =>  "/IN/Falkenauer_t120_14.txt-Q2"
  ub  =>  1.0e6
  cfg  =>  "/CFG/BPP.cfg"
data = Colored Bin Packing dataset.
number of items = 120
number of colors = 2
capacity = 1000
Items : 
	 item 1, weight= 250, color= 0
	 item 2, weight= 250, color= 0
	 item 3, weight= 251, color= 1
	 item 4, weight= 251, color= 1
	 item 5, weight= 251, color= 1
	 item 6, weight= 251, color= 1
	 item 7, weight= 252, color= 1
	 item 8, weight= 253, color= 0
	 item 9, weight= 253, color= 0
	 item 10, weight= 254, color= 0
	 item 11, weight= 254, color= 1
	 item 12, weight= 254, color= 1
	 item 13, weight= 254, color= 1
	 item 14, weight= 254, color= 1
	 item 15, weight= 255, color= 0
	 item 16, weight= 256, color= 0
	 item 17, weight= 256, color= 1
	 item 18, weight= 256, color= 1
	 item 19, weight= 257, color= 0
	 item 20, weight= 257, color= 1
	 item 21, weight= 258, color= 0
	 item 22, weight= 258, color= 1
	 item 23, weight= 259, color= 0
	 item 24, weight= 259, color= 1
	 item 25, weight= 260, color= 0
	 item 26, weight= 260, color= 0
	 item 27, weight= 261, color= 1
	 item 28, weight= 261, color= 1
	 item 29, weight= 261, color= 1
	 item 30, weight= 262, color= 0
	 item 31, weight= 264, color= 0
	 item 32, weight= 265, color= 0
	 item 33, weight= 266, color= 0
	 item 34, weight= 267, color= 1
	 item 35, weight= 269, color= 1
	 item 36, weight= 271, color= 0
	 item 37, weight= 271, color= 0
	 item 38, weight= 273, color= 0
	 item 39, weight= 273, color= 1
	 item 40, weight= 275, color= 1
	 item 41, weight= 276, color= 0
	 item 42, weight= 280, color= 0
	 item 43, weight= 280, color= 0
	 item 44, weight= 282, color= 0
	 item 45, weight= 283, color= 0
	 item 46, weight= 284, color= 1
	 item 47, weight= 287, color= 1
	 item 48, weight= 289, color= 0
	 item 49, weight= 289, color= 0
	 item 50, weight= 289, color= 1
	 item 51, weight= 290, color= 0
	 item 52, weight= 294, color= 0
	 item 53, weight= 298, color= 0
	 item 54, weight= 302, color= 0
	 item 55, weight= 302, color= 1
	 item 56, weight= 305, color= 1
	 item 57, weight= 306, color= 0
	 item 58, weight= 309, color= 0
	 item 59, weight= 309, color= 0
	 item 60, weight= 309, color= 0
	 item 61, weight= 311, color= 1
	 item 62, weight= 313, color= 0
	 item 63, weight= 313, color= 1
	 item 64, weight= 316, color= 1
	 item 65, weight= 319, color= 0
	 item 66, weight= 328, color= 1
	 item 67, weight= 329, color= 1
	 item 68, weight= 329, color= 1
	 item 69, weight= 331, color= 1
	 item 70, weight= 332, color= 1
	 item 71, weight= 336, color= 0
	 item 72, weight= 336, color= 1
	 item 73, weight= 340, color= 1
	 item 74, weight= 343, color= 1
	 item 75, weight= 350, color= 0
	 item 76, weight= 350, color= 1
	 item 77, weight= 353, color= 0
	 item 78, weight= 356, color= 0
	 item 79, weight= 357, color= 1
	 item 80, weight= 358, color= 0
	 item 81, weight= 363, color= 0
	 item 82, weight= 365, color= 0
	 item 83, weight= 369, color= 1
	 item 84, weight= 373, color= 0
	 item 85, weight= 373, color= 1
	 item 86, weight= 382, color= 1
	 item 87, weight= 384, color= 0
	 item 88, weight= 384, color= 0
	 item 89, weight= 386, color= 0
	 item 90, weight= 388, color= 0
	 item 91, weight= 390, color= 0
	 item 92, weight= 396, color= 1
	 item 93, weight= 402, color= 0
	 item 94, weight= 404, color= 1
	 item 95, weight= 405, color= 0
	 item 96, weight= 405, color= 1
	 item 97, weight= 412, color= 0
	 item 98, weight= 414, color= 0
	 item 99, weight= 416, color= 1
	 item 100, weight= 418, color= 0
	 item 101, weight= 418, color= 0
	 item 102, weight= 421, color= 1
	 item 103, weight= 430, color= 1
	 item 104, weight= 433, color= 1
	 item 105, weight= 442, color= 0
	 item 106, weight= 443, color= 0
	 item 107, weight= 444, color= 1
	 item 108, weight= 445, color= 1
	 item 109, weight= 450, color= 0
	 item 110, weight= 453, color= 0
	 item 111, weight= 470, color= 0
	 item 112, weight= 470, color= 1
	 item 113, weight= 484, color= 0
	 item 114, weight= 486, color= 0
	 item 115, weight= 486, color= 0
	 item 116, weight= 489, color= 0
	 item 117, weight= 494, color= 0
	 item 118, weight= 496, color= 0
	 item 119, weight= 496, color= 1
	 item 120, weight= 496, color= 1

VRPSolver warning: Interval set for resource 1 on source node (when source != sink) is ignored (by definition is [0.0,0.0])
VRPSolver warning: Interval set for resource 2 on source node (when source != sink) is ignored (by definition is [0.0,0.0])
VRPSolver warning: Interval set for resource 3 on source node (when source != sink) is ignored (by definition is [0.0,0.0])
[41m solve [00m
~~~~~~~~~~~~~~~~~~~~~~~~~~~~~~~~~~~~~~~~~~~~~~~~~~~~~~~~~~~~~~~~~~~~~~~~~~~~~~
VRPSolver v0.4.1, 24/03/2021. Web: vrpsolver.math.u-bordeaux.fr
Corresponds to the solver by Pessoa, Sadykov, Uchoa and Vanderbeck (2020)
Paper: dx.doi.org/10.1007/s10107-020-01523-z
USE THIS CODE ONLY FOR ACADEMIC PURPOSES AT YOUR OWN RISK
~~~~~~~~~~~~~~~~~~~~~~~~~~~~~~~~~~~~~~~~~~~~~~~~~~~~~~~~~~~~~~~~~~~~~~~~~~~~~~
BaPCod v053, 24/03/2021, © Inria Bordeaux, France
~~~~~~~~~~~~~~~~~~~~~~~~~~~~~~~~~~~~~~~~~~~~~~~~~~~~~~~~~~~~~~~~~~~~~~~~~~~~~~
VRPSolver parameters:
GlobalTimeLimit = 60
MaxNbOfBBtreeNodeTreated = 100000
treeSearchStrategy = 1
RCSPstopCutGenTimeThresholdInPricing = 10
RCSPhardTimeThresholdInPricing = 20
RCSPnumberOfBucketsPerVertex = 2000
RCSPdynamicBucketSteps = 0
RCSPuseBidirectionalSearch = 1
RCSPapplyReducedCostFixing = 1
RCSPredCostFixingFalseGap = 0
RCSPmaxNumOfColsPerIteration = 100
RCSPmaxNumOfColsPerExactIteration = 100
RCSPheurLabelingStrategy = 4
StabilizationMinPhaseOfStage = 1
RCSPmaxNumOfLabelsInEnumeration = 100000
RCSPmaxNumOfEnumeratedSolutions = 1000000
RCSPmaxNumOfEnumSolutionsForMIP = 100000
RCSPinitNGneighbourhoodSize = 0
RCSPmaxNGneighbourhoodSize = 0
RCSPrankOneCutsMaxNumPerRound = 100
RCSPrankOneCutsMaxNumRows = -1
RCSPrankOneCutsMemoryType = 2
CutTailingOffThreshold = 0.02
CutTailingOffCounterThreshold = 3
SafeDualBoundScaleFactor = -1
StrongBranchingPhaseOneCandidatesNumber = 100
StrongBranchingPhaseOneTreeSizeEstimRatio = 0.3
StrongBranchingPhaseTwoCandidatesNumber = 1
StrongBranchingPhaseTwoTreeSizeEstimRatio = 0.1
MaxTimeForRestrictedMasterIpHeur = -1
DivingHeurUseDepthLimit = 0
MaxLDSbreadth = 3
MaxLDSdepth = 2
New model incumbent solution 1e+06, TIME = 0h0m0s3t = 3
Model is built TIME = 0h0m1s35t = 135
************************************************************************************************
**** BaB tree root node
**** Local DB = -1e+12, global bounds : [ -1e+12 , 1e+06 ], TIME = 0h0m1s35t = 135
**** 1 open nodes, 0 columns (0 active), 0 dyn. constrs. (0 active), 242 art. vars. (242 active)
************************************************************************************************
<DWph=2> <it= 10> <et=1.64> <Mt= 0.00> <Spt= 0.27> <nCl=1000> <DB=-306363605.9484> <Mlp=49200027.0000> <PB=1000000> 
<DWph=2> <it= 20> <et=1.99> <Mt= 0.02> <Spt= 0.33> <nCl=853> <DB=   25.5417> <Mlp=   40.5417> <PB=1000000> 
<DWph=2> <it= 30> <et=2.31> <Mt= 0.05> <Spt= 0.28> <nCl=534> <DB=   39.8959> <Mlp=   40.0005> <PB=1000000> 
<DWph=2> <it= 32> <et=2.40> <Mt= 0.00> <Spt= 0.08> <nCl= 23> <DB=   40.0000> <Mlp=   40.0000> <PB=1000000> 
<DWph=1> <it= 33> <et=2.43> <Mt= 0.00> <Spt= 0.03> <nCl=  0> <DB=   40.0000> <Mlp=   40.0000> <PB=1000000> 
<DWph=0> <it= 34> <et=2.46> <Mt= 0.01> <Spt= 0.03> <nCl=  0> <DB=   40.0000> <Mlp=   40.0000> <PB=1000000> 
Reduced cost fixing for graph G_1... took 0.19 sec., 58447 buck. arcs remain (100% from prev., 36.9% from max.)
Run enumeration... took 1.25 sec. and succeeded! Pricing will be done by inspection.
<DWph=2> <it= 35> <et=4.12> <Mt= 0.05> <Spt= 0.00> <nCl=  0> <DB=   40.0000> <Mlp=   40.0000> <PB=1000000> 
<DWph=1> <it= 36> <et=4.12> <Mt= 0.00> <Spt= 0.00> <nCl=  0> <DB=   40.0000> <Mlp=   40.0000> <PB=1000000> 
<DWph=0> <it= 37> <et=4.12> <Mt= 0.00> <Spt= 0.00> <nCl=  0> <DB=   40.0000> <Mlp=   40.0000> <PB=1000000> 
ColGenEvalAlg final dual bound: 40 (rounded: 40)
----------- Diving heuristic started -----------
<DWph=2> <it=  1> <et=4.23> <Mt= 0.00> <Spt= 0.00> <nCl=  0> <DB=   40.0000> <Mlp=   40.0000> <PB=1000000> 
<DWph=1> <it=  2> <et=4.23> <Mt= 0.00> <Spt= 0.00> <nCl=  0> <DB=   40.0000> <Mlp=   40.0000> <PB=1000000> 
<DWph=0> <it=  3> <et=4.23> <Mt= 0.00> <Spt= 0.00> <nCl=  0> <DB=   40.0000> <Mlp=   40.0000> <PB=1000000> 
ColGenEvalAlg final dual bound: 40 (rounded: 40)
---- Diving heuristic node with dive number = 0, fix depth = 0 and tabu list size = 0
Fixed projected solution = [x_1_0_1_OspV=1, x_1_7_1_OspV=1, x_1_74_1_OspV=1, x_1_95_1_OspV=1]
<DWph=2> <it=  1> <et=4.38> <Mt= 0.01> <Spt= 0.00> <nCl=  0> <DB=   40.0000> <Mlp=   40.0000> <PB=1000000> 
<DWph=1> <it=  2> <et=4.38> <Mt= 0.00> <Spt= 0.00> <nCl=  0> <DB=   40.0000> <Mlp=   40.0000> <PB=1000000> 
<DWph=0> <it=  3> <et=4.38> <Mt= 0.00> <Spt= 0.00> <nCl=  0> <DB=   40.0000> <Mlp=   40.0000> <PB=1000000> 
ColGenEvalAlg final dual bound: 40 (rounded: 40)
---- Diving heuristic node with dive number = 0, fix depth = 0 and tabu list size = 0
Fixed projected solution = [x_1_0_1_OspV=1, x_1_10_1_OspV=1, x_1_75_1_OspV=1, x_1_92_1_OspV=1]
<DWph=2> <it=  1> <et=4.47> <Mt= 0.00> <Spt= 0.00> <nCl=  0> <DB=   40.0000> <Mlp=   40.0000> <PB=1000000> 
<DWph=1> <it=  2> <et=4.47> <Mt= 0.00> <Spt= 0.00> <nCl=  0> <DB=   40.0000> <Mlp=   40.0000> <PB=1000000> 
<DWph=0> <it=  3> <et=4.48> <Mt= 0.00> <Spt= 0.00> <nCl=  0> <DB=   40.0000> <Mlp=   40.0000> <PB=1000000> 
ColGenEvalAlg final dual bound: 40 (rounded: 40)
---- Diving heuristic node with dive number = 0, fix depth = 0 and tabu list size = 0
Fixed projected solution = [x_1_0_1_OspV=1, x_1_41_1_OspV=1, x_1_73_1_OspV=1, x_1_87_1_OspV=1]
<DWph=2> <it=  1> <et=4.57> <Mt= 0.00> <Spt= 0.00> <nCl=  0> <DB=   40.0000> <Mlp=   40.0000> <PB=1000000> 
<DWph=1> <it=  2> <et=4.57> <Mt= 0.00> <Spt= 0.00> <nCl=  0> <DB=   40.0000> <Mlp=   40.0000> <PB=1000000> 
<DWph=0> <it=  3> <et=4.57> <Mt= 0.00> <Spt= 0.00> <nCl=  0> <DB=   40.0000> <Mlp=   40.0000> <PB=1000000> 
ColGenEvalAlg final dual bound: 40 (rounded: 40)
---- Diving heuristic node with dive number = 0, fix depth = 0 and tabu list size = 0
Fixed projected solution = [x_1_0_1_OspV=1, x_1_57_1_OspV=1, x_1_68_1_OspV=1, x_1_82_1_OspV=1]
<DWph=2> <it=  1> <et=4.66> <Mt= 0.00> <Spt= 0.00> <nCl=  0> <DB=   40.0000> <Mlp=   40.0000> <PB=1000000> 
<DWph=1> <it=  2> <et=4.66> <Mt= 0.01> <Spt= 0.00> <nCl=  0> <DB=   40.0000> <Mlp=   40.0000> <PB=1000000> 
<DWph=0> <it=  3> <et=4.66> <Mt= 0.00> <Spt= 0.00> <nCl=  0> <DB=   40.0000> <Mlp=   40.0000> <PB=1000000> 
ColGenEvalAlg final dual bound: 40 (rounded: 40)
---- Diving heuristic node with dive number = 0, fix depth = 1 and tabu list size = 0
Fixed projected solution = [x_1_0_1_OspV=1, x_1_16_1_OspV=1, x_1_22_1_OspV=1, x_1_114_1_OspV=1]
<DWph=2> <it=  1> <et=4.73> <Mt= 0.00> <Spt= 0.00> <nCl=  0> <DB=   40.0000> <Mlp=   40.0000> <PB=1000000> 
<DWph=1> <it=  2> <et=4.73> <Mt= 0.00> <Spt= 0.00> <nCl=  0> <DB=   40.0000> <Mlp=   40.0000> <PB=1000000> 
<DWph=0> <it=  3> <et=4.73> <Mt= 0.00> <Spt= 0.00> <nCl=  0> <DB=   40.0000> <Mlp=   40.0000> <PB=1000000> 
ColGenEvalAlg final dual bound: 40 (rounded: 40)
---- Diving heuristic node with dive number = 0, fix depth = 1 and tabu list size = 0
Fixed projected solution = [x_1_0_1_OspV=1, x_1_38_1_OspV=1, x_1_80_1_OspV=1, x_1_83_1_OspV=1]
<DWph=2> <it=  1> <et=4.88> <Mt= 0.00> <Spt= 0.00> <nCl=  0> <DB=   40.0000> <Mlp=   40.0000> <PB=1000000> 
<DWph=1> <it=  2> <et=4.88> <Mt= 0.00> <Spt= 0.00> <nCl=  0> <DB=   40.0000> <Mlp=   40.0000> <PB=1000000> 
<DWph=0> <it=  3> <et=4.88> <Mt= 0.00> <Spt= 0.00> <nCl=  0> <DB=   40.0000> <Mlp=   40.0000> <PB=1000000> 
ColGenEvalAlg final dual bound: 40 (rounded: 40)
---- Diving heuristic node with dive number = 0, fix depth = 2 and tabu list size = 0
Fixed projected solution = [x_1_0_1_OspV=1, x_1_2_1_OspV=1, x_1_11_1_OspV=1, x_1_118_1_OspV=1]
<DWph=2> <it=  1> <et=4.96> <Mt= 0.02> <Spt= 0.00> <nCl=  0> <DB=   40.0000> <Mlp=   40.0000> <PB=1000000> 
<DWph=1> <it=  2> <et=4.96> <Mt= 0.00> <Spt= 0.00> <nCl=  0> <DB=   40.0000> <Mlp=   40.0000> <PB=1000000> 
<DWph=0> <it=  3> <et=4.96> <Mt= 0.00> <Spt= 0.00> <nCl=  0> <DB=   40.0000> <Mlp=   40.0000> <PB=1000000> 
ColGenEvalAlg final dual bound: 40 (rounded: 40)
---- Diving heuristic node with dive number = 0, fix depth = 2 and tabu list size = 0
Fixed projected solution = [x_1_0_1_OspV=1, x_1_13_1_OspV=1, x_1_62_1_OspV=1, x_1_104_1_OspV=1]
<DWph=2> <it=  1> <et=4.96> <Mt= 0.00> <Spt= 0.00> <nCl=  0> <DB=   40.0000> <Mlp=   40.0000> <PB=1000000> 
<DWph=1> <it=  2> <et=4.96> <Mt= 0.00> <Spt= 0.00> <nCl=  0> <DB=   40.0000> <Mlp=   40.0000> <PB=1000000> 
<DWph=0> <it=  3> <et=4.96> <Mt= 0.00> <Spt= 0.00> <nCl=  0> <DB=   40.0000> <Mlp=   40.0000> <PB=1000000> 
ColGenEvalAlg final dual bound: 40 (rounded: 40)
---- Diving heuristic node with dive number = 0, fix depth = 3 and tabu list size = 0
Fixed projected solution = [x_1_0_1_OspV=1, x_1_21_1_OspV=1, x_1_50_1_OspV=1, x_1_110_1_OspV=1]
<DWph=2> <it=  1> <et=4.98> <Mt= 0.01> <Spt= 0.00> <nCl=  0> <DB=   40.0000> <Mlp=   40.0000> <PB=1000000> 
<DWph=1> <it=  2> <et=4.98> <Mt= 0.00> <Spt= 0.00> <nCl=  0> <DB=   40.0000> <Mlp=   40.0000> <PB=1000000> 
<DWph=0> <it=  3> <et=4.98> <Mt= 0.00> <Spt= 0.00> <nCl=  0> <DB=   40.0000> <Mlp=   40.0000> <PB=1000000> 
ColGenEvalAlg final dual bound: 40 (rounded: 40)
---- Diving heuristic node with dive number = 0, fix depth = 4 and tabu list size = 0
Fixed projected solution = [x_1_0_1_OspV=1, x_1_23_1_OspV=1, x_1_71_1_OspV=1, x_1_96_1_OspV=1]
<DWph=2> <it=  1> <et=4.98> <Mt= 0.00> <Spt= 0.00> <nCl=  0> <DB=   40.0000> <Mlp=   40.0000> <PB=1000000> 
<DWph=1> <it=  2> <et=4.98> <Mt= 0.00> <Spt= 0.00> <nCl=  0> <DB=   40.0000> <Mlp=   40.0000> <PB=1000000> 
<DWph=0> <it=  3> <et=4.98> <Mt= 0.00> <Spt= 0.00> <nCl=  0> <DB=   40.0000> <Mlp=   40.0000> <PB=1000000> 
ColGenEvalAlg final dual bound: 40 (rounded: 40)
---- Diving heuristic node with dive number = 0, fix depth = 5 and tabu list size = 0
Fixed projected solution = [x_1_0_1_OspV=1, x_1_58_1_OspV=1, x_1_59_1_OspV=1, x_1_86_1_OspV=1]
<DWph=2> <it=  1> <et=4.99> <Mt= 0.01> <Spt= 0.00> <nCl=  0> <DB=   40.0000> <Mlp=   40.0000> <PB=1000000> 
<DWph=1> <it=  2> <et=4.99> <Mt= 0.00> <Spt= 0.00> <nCl=  0> <DB=   40.0000> <Mlp=   40.0000> <PB=1000000> 
<DWph=0> <it=  3> <et=4.99> <Mt= 0.00> <Spt= 0.00> <nCl=  0> <DB=   40.0000> <Mlp=   40.0000> <PB=1000000> 
ColGenEvalAlg final dual bound: 40 (rounded: 40)
---- Diving heuristic node with dive number = 0, fix depth = 6 and tabu list size = 0
Fixed projected solution = [x_1_0_1_OspV=1, x_1_33_1_OspV=1, x_1_64_1_OspV=1, x_1_101_1_OspV=1]
<DWph=2> <it=  1> <et=5.00> <Mt= 0.01> <Spt= 0.00> <nCl=  0> <DB=   40.0000> <Mlp=   40.0000> <PB=1000000> 
<DWph=1> <it=  2> <et=5.01> <Mt= 0.00> <Spt= 0.00> <nCl=  0> <DB=   40.0000> <Mlp=   40.0000> <PB=1000000> 
<DWph=0> <it=  3> <et=5.01> <Mt= 0.00> <Spt= 0.00> <nCl=  0> <DB=   40.0000> <Mlp=   40.0000> <PB=1000000> 
ColGenEvalAlg final dual bound: 40 (rounded: 40)
---- Diving heuristic node with dive number = 0, fix depth = 7 and tabu list size = 0
Fixed projected solution = [x_1_0_1_OspV=1, x_1_43_1_OspV=1, x_1_72_1_OspV=1, x_1_88_1_OspV=1]
<DWph=2> <it=  1> <et=5.02> <Mt= 0.01> <Spt= 0.00> <nCl=  0> <DB=   40.0000> <Mlp=   40.0000> <PB=1000000> 
<DWph=1> <it=  2> <et=5.02> <Mt= 0.00> <Spt= 0.00> <nCl=  0> <DB=   40.0000> <Mlp=   40.0000> <PB=1000000> 
<DWph=0> <it=  3> <et=5.02> <Mt= 0.00> <Spt= 0.00> <nCl=  0> <DB=   40.0000> <Mlp=   40.0000> <PB=1000000> 
ColGenEvalAlg final dual bound: 40 (rounded: 40)
---- Diving heuristic node with dive number = 0, fix depth = 8 and tabu list size = 0
Fixed projected solution = [x_1_0_1_OspV=1, x_1_37_1_OspV=1, x_1_63_1_OspV=1, x_1_99_1_OspV=1]
<DWph=2> <it=  1> <et=5.03> <Mt= 0.01> <Spt= 0.00> <nCl=  0> <DB=   40.0000> <Mlp=   40.0000> <PB=1000000> 
<DWph=1> <it=  2> <et=5.03> <Mt= 0.00> <Spt= 0.00> <nCl=  0> <DB=   40.0000> <Mlp=   40.0000> <PB=1000000> 
<DWph=0> <it=  3> <et=5.03> <Mt= 0.00> <Spt= 0.00> <nCl=  0> <DB=   40.0000> <Mlp=   40.0000> <PB=1000000> 
ColGenEvalAlg final dual bound: 40 (rounded: 40)
---- Diving heuristic node with dive number = 0, fix depth = 8 and tabu list size = 0
Fixed projected solution = [x_1_0_1_OspV=1, x_1_8_1_OspV=1, x_1_27_1_OspV=1, x_1_115_1_OspV=1]
<DWph=2> <it=  1> <et=5.03> <Mt= 0.00> <Spt= 0.00> <nCl=  0> <DB=   40.0000> <Mlp=   40.0000> <PB=1000000> 
<DWph=1> <it=  2> <et=5.04> <Mt= 0.00> <Spt= 0.00> <nCl=  0> <DB=   40.0000> <Mlp=   40.0000> <PB=1000000> 
<DWph=0> <it=  3> <et=5.04> <Mt= 0.00> <Spt= 0.00> <nCl=  0> <DB=   40.0000> <Mlp=   40.0000> <PB=1000000> 
ColGenEvalAlg final dual bound: 40 (rounded: 40)
---- Diving heuristic node with dive number = 0, fix depth = 9 and tabu list size = 0
Fixed projected solution = [x_1_0_1_OspV=1, x_1_28_1_OspV=1, x_1_35_1_OspV=1, x_1_111_1_OspV=1]
<DWph=2> <it=  1> <et=5.05> <Mt= 0.02> <Spt= 0.00> <nCl=  0> <DB=   40.0000> <Mlp=   40.0000> <PB=1000000> 
<DWph=1> <it=  2> <et=5.05> <Mt= 0.00> <Spt= 0.00> <nCl=  0> <DB=   40.0000> <Mlp=   40.0000> <PB=1000000> 
<DWph=0> <it=  3> <et=5.05> <Mt= 0.00> <Spt= 0.00> <nCl=  0> <DB=   40.0000> <Mlp=   40.0000> <PB=1000000> 
ColGenEvalAlg final dual bound: 40 (rounded: 40)
---- Diving heuristic node with dive number = 0, fix depth = 9 and tabu list size = 0
Fixed projected solution = [x_1_0_1_OspV=1, x_1_29_1_OspV=1, x_1_49_1_OspV=1, x_1_109_1_OspV=1]
<DWph=2> <it=  1> <et=5.05> <Mt= 0.00> <Spt= 0.00> <nCl=  0> <DB=   40.0000> <Mlp=   40.0000> <PB=1000000> 
<DWph=1> <it=  2> <et=5.05> <Mt= 0.00> <Spt= 0.00> <nCl=  0> <DB=   40.0000> <Mlp=   40.0000> <PB=1000000> 
<DWph=0> <it=  3> <et=5.06> <Mt= 0.00> <Spt= 0.00> <nCl=  0> <DB=   40.0000> <Mlp=   40.0000> <PB=1000000> 
ColGenEvalAlg final dual bound: 40 (rounded: 40)
---- Diving heuristic node with dive number = 0, fix depth = 9 and tabu list size = 0
Fixed projected solution = [x_1_0_1_OspV=1, x_1_5_1_OspV=1, x_1_9_1_OspV=1, x_1_119_1_OspV=1]
<DWph=2> <it=  1> <et=5.06> <Mt= 0.00> <Spt= 0.00> <nCl=  0> <DB=   40.0000> <Mlp=   40.0000> <PB=1000000> 
<DWph=1> <it=  2> <et=5.06> <Mt= 0.00> <Spt= 0.00> <nCl=  0> <DB=   40.0000> <Mlp=   40.0000> <PB=1000000> 
<DWph=0> <it=  3> <et=5.06> <Mt= 0.00> <Spt= 0.00> <nCl=  0> <DB=   40.0000> <Mlp=   40.0000> <PB=1000000> 
ColGenEvalAlg final dual bound: 40 (rounded: 40)
---- Diving heuristic node with dive number = 0, fix depth = 9 and tabu list size = 0
Fixed projected solution = [x_1_0_1_OspV=1, x_1_1_1_OspV=1, x_1_12_1_OspV=1, x_1_120_1_OspV=1]
<DWph=2> <it=  1> <et=5.06> <Mt= 0.00> <Spt= 0.00> <nCl=  0> <DB=   40.0000> <Mlp=   40.0000> <PB=1000000> 
<DWph=1> <it=  2> <et=5.06> <Mt= 0.00> <Spt= 0.00> <nCl=  0> <DB=   40.0000> <Mlp=   40.0000> <PB=1000000> 
<DWph=0> <it=  3> <et=5.06> <Mt= 0.00> <Spt= 0.00> <nCl=  0> <DB=   40.0000> <Mlp=   40.0000> <PB=1000000> 
ColGenEvalAlg final dual bound: 40 (rounded: 40)
---- Diving heuristic node with dive number = 0, fix depth = 9 and tabu list size = 0
Fixed projected solution = [x_1_0_1_OspV=1, x_1_19_1_OspV=1, x_1_39_1_OspV=1, x_1_112_1_OspV=1]
<DWph=2> <it=  1> <et=5.07> <Mt= 0.00> <Spt= 0.00> <nCl=  0> <DB=   40.0000> <Mlp=   40.0000> <PB=1000000> 
<DWph=1> <it=  2> <et=5.07> <Mt= 0.00> <Spt= 0.00> <nCl=  0> <DB=   40.0000> <Mlp=   40.0000> <PB=1000000> 
<DWph=0> <it=  3> <et=5.07> <Mt= 0.00> <Spt= 0.00> <nCl=  0> <DB=   40.0000> <Mlp=   40.0000> <PB=1000000> 
ColGenEvalAlg final dual bound: 40 (rounded: 40)
---- Diving heuristic node with dive number = 0, fix depth = 10 and tabu list size = 0
Fixed projected solution = [x_1_0_1_OspV=1, x_1_14_1_OspV=1, x_1_84_1_OspV=1, x_1_85_1_OspV=1]
<DWph=2> <it=  8> <et=5.09> <Mt= 0.03> <Spt= 0.00> <nCl=  0> <DB=1238749.6747> <Mlp=1238749.6747> <PB=1000000> 
<DWph=1> <it=  9> <et=5.09> <Mt= 0.00> <Spt= 0.00> <nCl=  0> <DB=1238749.6747> <Mlp=1238749.6747> <PB=1000000> 
<DWph=0> <it= 10> <et=5.13> <Mt= 0.00> <Spt= 0.03> <nCl=100> <DB=-27284438577.4664> <Mlp=1238749.6747> <PB=1000000> 
<DWph=0> <it= 13> <et=5.21> <Mt= 0.00> <Spt= 0.08> <nCl=200> <DB=   40.0000> <Mlp=   40.0000> <PB=40> 
ColGenEvalAlg final dual bound: 40 (rounded: 40)
New model incumbent solution 40, TIME = 0h0m5s24t = 524
************************************************************************************************
Search is finished, global bounds : [ 40 , 40 ], TIME = 0h0m5s24t = 524
************************************************************************************************
[32mBaPCod : solution defined.[00m
statistics_cols: instance & :Optimal & cutoff & :bcRecRootDb & :bcTimeRootEval & :bcCountNodeProc & :bcRecBestDb & :bcRecBestInc & :bcTimeMain \\
statistics: Falkenauer_t120_14 & 1 & 1.0e6 & 40.00 & 4.23 & 1 & 40.00 & 40 & 5.24 \\
########################################################
bin_id=1: 254(1) 373(0) 373(1) 
bin_id=2: 252(1) 343(1) 405(0) 
bin_id=3: 264(0) 332(1) 404(1) 
bin_id=4: 266(0) 316(1) 418(0) 
bin_id=5: 254(1) 313(0) 433(1) 
bin_id=6: 256(1) 302(1) 442(0) 
bin_id=7: 262(0) 294(0) 444(1) 
bin_id=8: 254(0) 350(0) 396(1) 
bin_id=9: 256(1) 356(0) 388(0) 
bin_id=10: 261(1) 289(0) 450(0) 
bin_id=11: 251(1) 265(0) 484(0) 
bin_id=12: 253(0) 261(1) 486(0) 
bin_id=13: 258(0) 289(1) 453(0) 
bin_id=14: 309(0) 309(0) 382(1) 
bin_id=15: 276(0) 340(1) 384(0) 
bin_id=16: 280(0) 336(1) 384(0) 
bin_id=17: 251(1) 255(0) 494(0) 
bin_id=18: 250(0) 254(1) 496(0) 
bin_id=19: 251(1) 253(0) 496(1) 
bin_id=20: 305(1) 309(0) 386(0) 
bin_id=21: 283(0) 287(1) 430(1) 
bin_id=22: 261(1) 269(1) 470(0) 
bin_id=23: 289(0) 290(0) 421(1) 
bin_id=24: 271(0) 311(1) 418(0) 
bin_id=25: 256(0) 258(1) 486(0) 
bin_id=26: 306(0) 329(1) 365(0) 
bin_id=27: 251(1) 260(0) 489(0) 
bin_id=28: 260(0) 350(1) 390(0) 
bin_id=29: 284(1) 302(0) 414(0) 
bin_id=30: 273(0) 358(0) 369(1) 
bin_id=31: 271(0) 313(1) 416(1) 
bin_id=32: 267(1) 331(1) 402(0) 
bin_id=33: 275(1) 282(0) 443(0) 
bin_id=34: 250(0) 254(1) 496(1) 
bin_id=35: 259(1) 329(1) 412(0) 
bin_id=36: 257(1) 298(0) 445(1) 
bin_id=37: 259(0) 336(0) 405(1) 
bin_id=38: 257(0) 273(1) 470(1) 
bin_id=39: 319(0) 328(1) 353(0) 
bin_id=40: 280(0) 357(1) 363(0) 
Objective value: 40.0
########################################################
