Application parameters:
  batch  =>  nothing
  instance  =>  "/IN/Falkenauer_t249_13.txt-Q2"
  ub  =>  1.0e6
  cfg  =>  "/CFG/BPP.cfg"
data = Colored Bin Packing dataset.
number of items = 249
number of colors = 2
capacity = 1000
Items : 
	 item 1, weight= 250, color= 0
	 item 2, weight= 250, color= 0
	 item 3, weight= 250, color= 0
	 item 4, weight= 250, color= 1
	 item 5, weight= 250, color= 1
	 item 6, weight= 250, color= 1
	 item 7, weight= 250, color= 1
	 item 8, weight= 251, color= 0
	 item 9, weight= 251, color= 0
	 item 10, weight= 251, color= 1
	 item 11, weight= 251, color= 1
	 item 12, weight= 252, color= 0
	 item 13, weight= 252, color= 0
	 item 14, weight= 252, color= 0
	 item 15, weight= 252, color= 1
	 item 16, weight= 252, color= 1
	 item 17, weight= 252, color= 1
	 item 18, weight= 252, color= 1
	 item 19, weight= 252, color= 1
	 item 20, weight= 253, color= 0
	 item 21, weight= 253, color= 0
	 item 22, weight= 253, color= 0
	 item 23, weight= 253, color= 1
	 item 24, weight= 253, color= 1
	 item 25, weight= 254, color= 0
	 item 26, weight= 254, color= 0
	 item 27, weight= 254, color= 1
	 item 28, weight= 254, color= 1
	 item 29, weight= 255, color= 0
	 item 30, weight= 255, color= 1
	 item 31, weight= 256, color= 0
	 item 32, weight= 256, color= 1
	 item 33, weight= 256, color= 1
	 item 34, weight= 256, color= 1
	 item 35, weight= 256, color= 1
	 item 36, weight= 256, color= 1
	 item 37, weight= 256, color= 1
	 item 38, weight= 257, color= 0
	 item 39, weight= 257, color= 1
	 item 40, weight= 257, color= 1
	 item 41, weight= 257, color= 1
	 item 42, weight= 258, color= 0
	 item 43, weight= 258, color= 0
	 item 44, weight= 258, color= 0
	 item 45, weight= 258, color= 1
	 item 46, weight= 258, color= 1
	 item 47, weight= 259, color= 0
	 item 48, weight= 259, color= 1
	 item 49, weight= 260, color= 0
	 item 50, weight= 260, color= 1
	 item 51, weight= 260, color= 1
	 item 52, weight= 261, color= 0
	 item 53, weight= 261, color= 1
	 item 54, weight= 262, color= 0
	 item 55, weight= 262, color= 0
	 item 56, weight= 262, color= 0
	 item 57, weight= 262, color= 1
	 item 58, weight= 262, color= 1
	 item 59, weight= 263, color= 0
	 item 60, weight= 263, color= 0
	 item 61, weight= 263, color= 0
	 item 62, weight= 263, color= 0
	 item 63, weight= 263, color= 0
	 item 64, weight= 264, color= 0
	 item 65, weight= 265, color= 0
	 item 66, weight= 265, color= 1
	 item 67, weight= 265, color= 1
	 item 68, weight= 266, color= 0
	 item 69, weight= 266, color= 0
	 item 70, weight= 266, color= 0
	 item 71, weight= 266, color= 0
	 item 72, weight= 266, color= 1
	 item 73, weight= 266, color= 1
	 item 74, weight= 267, color= 0
	 item 75, weight= 267, color= 1
	 item 76, weight= 270, color= 0
	 item 77, weight= 271, color= 0
	 item 78, weight= 271, color= 1
	 item 79, weight= 272, color= 0
	 item 80, weight= 272, color= 1
	 item 81, weight= 273, color= 0
	 item 82, weight= 273, color= 1
	 item 83, weight= 274, color= 0
	 item 84, weight= 274, color= 0
	 item 85, weight= 276, color= 0
	 item 86, weight= 276, color= 0
	 item 87, weight= 277, color= 1
	 item 88, weight= 278, color= 1
	 item 89, weight= 279, color= 0
	 item 90, weight= 279, color= 1
	 item 91, weight= 280, color= 0
	 item 92, weight= 280, color= 0
	 item 93, weight= 281, color= 0
	 item 94, weight= 281, color= 1
	 item 95, weight= 282, color= 0
	 item 96, weight= 282, color= 1
	 item 97, weight= 284, color= 1
	 item 98, weight= 286, color= 1
	 item 99, weight= 286, color= 1
	 item 100, weight= 286, color= 1
	 item 101, weight= 288, color= 1
	 item 102, weight= 289, color= 1
	 item 103, weight= 290, color= 0
	 item 104, weight= 290, color= 1
	 item 105, weight= 290, color= 1
	 item 106, weight= 290, color= 1
	 item 107, weight= 291, color= 0
	 item 108, weight= 291, color= 0
	 item 109, weight= 291, color= 0
	 item 110, weight= 292, color= 0
	 item 111, weight= 292, color= 0
	 item 112, weight= 293, color= 1
	 item 113, weight= 293, color= 1
	 item 114, weight= 293, color= 1
	 item 115, weight= 294, color= 1
	 item 116, weight= 295, color= 0
	 item 117, weight= 296, color= 1
	 item 118, weight= 299, color= 0
	 item 119, weight= 302, color= 0
	 item 120, weight= 302, color= 0
	 item 121, weight= 302, color= 0
	 item 122, weight= 302, color= 1
	 item 123, weight= 304, color= 0
	 item 124, weight= 305, color= 1
	 item 125, weight= 306, color= 1
	 item 126, weight= 308, color= 0
	 item 127, weight= 310, color= 0
	 item 128, weight= 310, color= 1
	 item 129, weight= 310, color= 1
	 item 130, weight= 310, color= 1
	 item 131, weight= 312, color= 1
	 item 132, weight= 315, color= 1
	 item 133, weight= 315, color= 1
	 item 134, weight= 318, color= 0
	 item 135, weight= 318, color= 0
	 item 136, weight= 320, color= 1
	 item 137, weight= 321, color= 0
	 item 138, weight= 322, color= 0
	 item 139, weight= 323, color= 1
	 item 140, weight= 324, color= 0
	 item 141, weight= 325, color= 1
	 item 142, weight= 326, color= 1
	 item 143, weight= 328, color= 0
	 item 144, weight= 329, color= 1
	 item 145, weight= 330, color= 1
	 item 146, weight= 331, color= 1
	 item 147, weight= 334, color= 1
	 item 148, weight= 335, color= 1
	 item 149, weight= 337, color= 1
	 item 150, weight= 338, color= 0
	 item 151, weight= 340, color= 0
	 item 152, weight= 345, color= 0
	 item 153, weight= 348, color= 0
	 item 154, weight= 350, color= 1
	 item 155, weight= 352, color= 0
	 item 156, weight= 353, color= 0
	 item 157, weight= 354, color= 1
	 item 158, weight= 355, color= 1
	 item 159, weight= 356, color= 0
	 item 160, weight= 356, color= 1
	 item 161, weight= 357, color= 1
	 item 162, weight= 358, color= 0
	 item 163, weight= 360, color= 0
	 item 164, weight= 360, color= 1
	 item 165, weight= 361, color= 1
	 item 166, weight= 363, color= 0
	 item 167, weight= 363, color= 0
	 item 168, weight= 367, color= 0
	 item 169, weight= 368, color= 0
	 item 170, weight= 371, color= 1
	 item 171, weight= 372, color= 1
	 item 172, weight= 372, color= 1
	 item 173, weight= 377, color= 0
	 item 174, weight= 377, color= 1
	 item 175, weight= 379, color= 1
	 item 176, weight= 380, color= 0
	 item 177, weight= 380, color= 0
	 item 178, weight= 381, color= 1
	 item 179, weight= 382, color= 0
	 item 180, weight= 382, color= 1
	 item 181, weight= 384, color= 0
	 item 182, weight= 385, color= 1
	 item 183, weight= 386, color= 0
	 item 184, weight= 387, color= 1
	 item 185, weight= 387, color= 1
	 item 186, weight= 393, color= 0
	 item 187, weight= 393, color= 0
	 item 188, weight= 393, color= 1
	 item 189, weight= 395, color= 1
	 item 190, weight= 397, color= 0
	 item 191, weight= 399, color= 0
	 item 192, weight= 399, color= 1
	 item 193, weight= 400, color= 0
	 item 194, weight= 402, color= 0
	 item 195, weight= 404, color= 0
	 item 196, weight= 404, color= 1
	 item 197, weight= 406, color= 1
	 item 198, weight= 406, color= 1
	 item 199, weight= 408, color= 1
	 item 200, weight= 410, color= 0
	 item 201, weight= 410, color= 1
	 item 202, weight= 412, color= 0
	 item 203, weight= 413, color= 0
	 item 204, weight= 414, color= 0
	 item 205, weight= 415, color= 0
	 item 206, weight= 416, color= 0
	 item 207, weight= 418, color= 1
	 item 208, weight= 432, color= 1
	 item 209, weight= 434, color= 0
	 item 210, weight= 434, color= 1
	 item 211, weight= 436, color= 0
	 item 212, weight= 437, color= 1
	 item 213, weight= 437, color= 1
	 item 214, weight= 439, color= 1
	 item 215, weight= 441, color= 0
	 item 216, weight= 441, color= 0
	 item 217, weight= 447, color= 0
	 item 218, weight= 449, color= 0
	 item 219, weight= 451, color= 1
	 item 220, weight= 455, color= 1
	 item 221, weight= 456, color= 0
	 item 222, weight= 456, color= 1
	 item 223, weight= 457, color= 0
	 item 224, weight= 458, color= 1
	 item 225, weight= 459, color= 0
	 item 226, weight= 459, color= 1
	 item 227, weight= 465, color= 0
	 item 228, weight= 467, color= 0
	 item 229, weight= 467, color= 0
	 item 230, weight= 470, color= 1
	 item 231, weight= 472, color= 0
	 item 232, weight= 476, color= 0
	 item 233, weight= 476, color= 1
	 item 234, weight= 479, color= 1
	 item 235, weight= 480, color= 0
	 item 236, weight= 481, color= 0
	 item 237, weight= 482, color= 1
	 item 238, weight= 484, color= 0
	 item 239, weight= 486, color= 1
	 item 240, weight= 487, color= 0
	 item 241, weight= 487, color= 1
	 item 242, weight= 488, color= 0
	 item 243, weight= 489, color= 1
	 item 244, weight= 490, color= 0
	 item 245, weight= 492, color= 0
	 item 246, weight= 492, color= 0
	 item 247, weight= 492, color= 1
	 item 248, weight= 493, color= 1
	 item 249, weight= 495, color= 0

VRPSolver warning: Interval set for resource 1 on source node (when source != sink) is ignored (by definition is [0.0,0.0])
VRPSolver warning: Interval set for resource 2 on source node (when source != sink) is ignored (by definition is [0.0,0.0])
VRPSolver warning: Interval set for resource 3 on source node (when source != sink) is ignored (by definition is [0.0,0.0])
[41m solve [00m
~~~~~~~~~~~~~~~~~~~~~~~~~~~~~~~~~~~~~~~~~~~~~~~~~~~~~~~~~~~~~~~~~~~~~~~~~~~~~~
VRPSolver v0.4.1, 24/03/2021. Web: vrpsolver.math.u-bordeaux.fr
Corresponds to the solver by Pessoa, Sadykov, Uchoa and Vanderbeck (2020)
Paper: dx.doi.org/10.1007/s10107-020-01523-z
USE THIS CODE ONLY FOR ACADEMIC PURPOSES AT YOUR OWN RISK
~~~~~~~~~~~~~~~~~~~~~~~~~~~~~~~~~~~~~~~~~~~~~~~~~~~~~~~~~~~~~~~~~~~~~~~~~~~~~~
BaPCod v053, 24/03/2021, © Inria Bordeaux, France
~~~~~~~~~~~~~~~~~~~~~~~~~~~~~~~~~~~~~~~~~~~~~~~~~~~~~~~~~~~~~~~~~~~~~~~~~~~~~~
VRPSolver parameters:
GlobalTimeLimit = 60
MaxNbOfBBtreeNodeTreated = 100000
treeSearchStrategy = 1
RCSPstopCutGenTimeThresholdInPricing = 10
RCSPhardTimeThresholdInPricing = 20
RCSPnumberOfBucketsPerVertex = 2000
RCSPdynamicBucketSteps = 0
RCSPuseBidirectionalSearch = 1
RCSPapplyReducedCostFixing = 1
RCSPredCostFixingFalseGap = 0
RCSPmaxNumOfColsPerIteration = 100
RCSPmaxNumOfColsPerExactIteration = 100
RCSPheurLabelingStrategy = 4
StabilizationMinPhaseOfStage = 1
RCSPmaxNumOfLabelsInEnumeration = 100000
RCSPmaxNumOfEnumeratedSolutions = 1000000
RCSPmaxNumOfEnumSolutionsForMIP = 100000
RCSPinitNGneighbourhoodSize = 0
RCSPmaxNGneighbourhoodSize = 0
RCSPrankOneCutsMaxNumPerRound = 100
RCSPrankOneCutsMaxNumRows = -1
RCSPrankOneCutsMemoryType = 2
CutTailingOffThreshold = 0.02
CutTailingOffCounterThreshold = 3
SafeDualBoundScaleFactor = -1
StrongBranchingPhaseOneCandidatesNumber = 100
StrongBranchingPhaseOneTreeSizeEstimRatio = 0.3
StrongBranchingPhaseTwoCandidatesNumber = 1
StrongBranchingPhaseTwoTreeSizeEstimRatio = 0.1
MaxTimeForRestrictedMasterIpHeur = -1
DivingHeurUseDepthLimit = 0
MaxLDSbreadth = 3
MaxLDSdepth = 2
New model incumbent solution 1e+06, TIME = 0h0m0s3t = 3
Model is built TIME = 0h0m1s67t = 167
************************************************************************************************
**** BaB tree root node
**** Local DB = -1e+12, global bounds : [ -1e+12 , 1e+06 ], TIME = 0h0m1s67t = 167
**** 1 open nodes, 0 columns (0 active), 0 dyn. constrs. (0 active), 500 art. vars. (500 active)
************************************************************************************************
<DWph=2> <it= 10> <et=2.40> <Mt= 0.00> <Spt= 0.71> <nCl=1000> <DB=-647229113.8280> <Mlp=190400039.1667> <PB=1000000> 
<DWph=2> <it= 20> <et=3.18> <Mt= 0.02> <Spt= 0.76> <nCl=1000> <DB=-640336883.8159> <Mlp=114000060.1667> <PB=1000000> 
<DWph=2> <it= 30> <et=3.94> <Mt= 0.05> <Spt= 0.71> <nCl=1000> <DB=-598487247.0975> <Mlp=29520077.5000> <PB=1000000> 
<DWph=2> <it= 40> <et=4.87> <Mt= 0.08> <Spt= 0.84> <nCl=870> <DB=    9.3487> <Mlp=   85.4524> <PB=1000000> 
<DWph=2> <it= 50> <et=5.74> <Mt= 0.16> <Spt= 0.71> <nCl=1000> <DB=   64.2752> <Mlp=   83.8733> <PB=1000000> 
<DWph=2> <it= 60> <et=6.71> <Mt= 0.22> <Spt= 0.75> <nCl=919> <DB=   80.5422> <Mlp=   83.0317> <PB=1000000> 
<DWph=2> <it= 63> <et=7.05> <Mt= 0.04> <Spt= 0.30> <nCl=196> <DB=   83.0000> <Mlp=   83.0000> <PB=1000000> 
<DWph=1> <it= 64> <et=7.21> <Mt= 0.00> <Spt= 0.15> <nCl=  0> <DB=   83.0000> <Mlp=   83.0000> <PB=1000000> 
<DWph=0> <it= 65> <et=7.29> <Mt= 0.00> <Spt= 0.08> <nCl=  0> <DB=   83.0000> <Mlp=   83.0000> <PB=1000000> 
Reduced cost fixing for graph G_1... took 0.54 sec., 148582 buck. arcs remain (100% from prev., 40.1% from max.)
Run enumeration... took 1.26 sec. and not succeeded.
ColGenEvalAlg final dual bound: 83 (rounded: 83)
----------- Diving heuristic started -----------
<DWph=2> <it=  1> <et=9.14> <Mt= 0.01> <Spt= 0.00> <nCl=  0> <DB=   83.0000> <Mlp=   83.0000> <PB=1000000> 
<DWph=1> <it=  2> <et=9.14> <Mt= 0.00> <Spt= 0.00> <nCl=  0> <DB=   83.0000> <Mlp=   83.0000> <PB=1000000> 
---- Diving heuristic node with dive number = 0, fix depth = 0 and tabu list size = 0
Fixed projected solution = [x_1_0_1_OspV=1, x_1_93_1_OspV=1, x_1_95_1_OspV=1, x_1_212_1_OspV=1]
<DWph=2> <it=  1> <et=9.19> <Mt= 0.00> <Spt= 0.00> <nCl=  0> <DB=   83.0000> <Mlp=   83.0000> <PB=1000000> 
<DWph=1> <it=  2> <et=9.19> <Mt= 0.00> <Spt= 0.00> <nCl=  0> <DB=   83.0000> <Mlp=   83.0000> <PB=1000000> 
---- Diving heuristic node with dive number = 0, fix depth = 0 and tabu list size = 0
Fixed projected solution = [x_1_0_1_OspV=1, x_1_13_1_OspV=1, x_1_71_1_OspV=1, x_1_237_1_OspV=1]
<DWph=2> <it=  1> <et=9.24> <Mt= 0.00> <Spt= 0.00> <nCl=  0> <DB=   83.0000> <Mlp=   83.0000> <PB=1000000> 
<DWph=1> <it=  2> <et=9.24> <Mt= 0.00> <Spt= 0.00> <nCl=  0> <DB=   83.0000> <Mlp=   83.0000> <PB=1000000> 
---- Diving heuristic node with dive number = 0, fix depth = 0 and tabu list size = 0
Fixed projected solution = [x_1_0_1_OspV=1, x_1_54_1_OspV=1, x_1_82_1_OspV=1, x_1_227_1_OspV=1]
<DWph=2> <it=  1> <et=9.28> <Mt= 0.00> <Spt= 0.00> <nCl=  0> <DB=   83.0000> <Mlp=   83.0000> <PB=1000000> 
<DWph=1> <it=  2> <et=9.28> <Mt= 0.01> <Spt= 0.00> <nCl=  0> <DB=   83.0000> <Mlp=   83.0000> <PB=1000000> 
---- Diving heuristic node with dive number = 0, fix depth = 0 and tabu list size = 0
Fixed projected solution = [x_1_0_1_OspV=1, x_1_39_1_OspV=1, x_1_86_1_OspV=1, x_1_229_1_OspV=1]
<DWph=2> <it=  1> <et=9.33> <Mt= 0.00> <Spt= 0.00> <nCl=  0> <DB=   83.0000> <Mlp=   83.0000> <PB=1000000> 
<DWph=1> <it=  2> <et=9.33> <Mt= 0.00> <Spt= 0.00> <nCl=  0> <DB=   83.0000> <Mlp=   83.0000> <PB=1000000> 
---- Diving heuristic node with dive number = 0, fix depth = 0 and tabu list size = 0
Fixed projected solution = [x_1_0_1_OspV=1, x_1_45_1_OspV=1, x_1_68_1_OspV=1, x_1_232_1_OspV=1]
<DWph=2> <it=  1> <et=9.38> <Mt= 0.00> <Spt= 0.00> <nCl=  0> <DB=   83.0000> <Mlp=   83.0000> <PB=1000000> 
<DWph=1> <it=  2> <et=9.38> <Mt= 0.00> <Spt= 0.00> <nCl=  0> <DB=   83.0000> <Mlp=   83.0000> <PB=1000000> 
---- Diving heuristic node with dive number = 0, fix depth = 1 and tabu list size = 0
Fixed projected solution = [x_1_0_1_OspV=1, x_1_67_1_OspV=1, x_1_141_1_OspV=1, x_1_200_1_OspV=1]
<DWph=2> <it=  1> <et=9.41> <Mt= 0.00> <Spt= 0.00> <nCl=  0> <DB=   83.0000> <Mlp=   83.0000> <PB=1000000> 
<DWph=1> <it=  2> <et=9.41> <Mt= 0.00> <Spt= 0.00> <nCl=  0> <DB=   83.0000> <Mlp=   83.0000> <PB=1000000> 
---- Diving heuristic node with dive number = 0, fix depth = 2 and tabu list size = 0
Fixed projected solution = [x_1_0_1_OspV=1, x_1_12_1_OspV=1, x_1_57_1_OspV=1, x_1_239_1_OspV=1]
<DWph=2> <it=  1> <et=9.45> <Mt= 0.01> <Spt= 0.00> <nCl=  0> <DB=   83.0000> <Mlp=   83.0000> <PB=1000000> 
<DWph=1> <it=  2> <et=9.45> <Mt= 0.00> <Spt= 0.00> <nCl=  0> <DB=   83.0000> <Mlp=   83.0000> <PB=1000000> 
---- Diving heuristic node with dive number = 0, fix depth = 3 and tabu list size = 0
Fixed projected solution = [x_1_0_1_OspV=1, x_1_61_1_OspV=1, x_1_66_1_OspV=1, x_1_231_1_OspV=1]
<DWph=2> <it=  1> <et=9.46> <Mt= 0.00> <Spt= 0.00> <nCl=  0> <DB=   83.0000> <Mlp=   83.0000> <PB=1000000> 
<DWph=1> <it=  2> <et=9.46> <Mt= 0.00> <Spt= 0.00> <nCl=  0> <DB=   83.0000> <Mlp=   83.0000> <PB=1000000> 
---- Diving heuristic node with dive number = 0, fix depth = 4 and tabu list size = 0
Fixed projected solution = [x_1_0_1_OspV=1, x_1_99_1_OspV=1, x_1_137_1_OspV=1, x_1_188_1_OspV=1]
<DWph=2> <it=  1> <et=9.47> <Mt= 0.00> <Spt= 0.00> <nCl=  0> <DB=   83.0000> <Mlp=   83.0000> <PB=1000000> 
<DWph=1> <it=  2> <et=9.47> <Mt= 0.00> <Spt= 0.00> <nCl=  0> <DB=   83.0000> <Mlp=   83.0000> <PB=1000000> 
---- Diving heuristic node with dive number = 0, fix depth = 5 and tabu list size = 0
Fixed projected solution = [x_1_0_1_OspV=1, x_1_100_1_OspV=1, x_1_160_1_OspV=1, x_1_162_1_OspV=1]
<DWph=2> <it=  1> <et=9.48> <Mt= 0.01> <Spt= 0.00> <nCl=  0> <DB=   83.0000> <Mlp=   83.0000> <PB=1000000> 
<DWph=1> <it=  2> <et=9.48> <Mt= 0.00> <Spt= 0.00> <nCl=  0> <DB=   83.0000> <Mlp=   83.0000> <PB=1000000> 
---- Diving heuristic node with dive number = 0, fix depth = 6 and tabu list size = 0
Fixed projected solution = [x_1_0_1_OspV=1, x_1_52_1_OspV=1, x_1_91_1_OspV=1, x_1_226_1_OspV=1]
<DWph=2> <it=  1> <et=9.49> <Mt= 0.00> <Spt= 0.00> <nCl=  0> <DB=   83.0000> <Mlp=   83.0000> <PB=1000000> 
<DWph=1> <it=  2> <et=9.49> <Mt= 0.00> <Spt= 0.00> <nCl=  0> <DB=   83.0000> <Mlp=   83.0000> <PB=1000000> 
---- Diving heuristic node with dive number = 0, fix depth = 7 and tabu list size = 0
Fixed projected solution = [x_1_0_1_OspV=1, x_1_53_1_OspV=1, x_1_119_1_OspV=1, x_1_213_1_OspV=1]
<DWph=2> <it=  1> <et=9.50> <Mt= 0.01> <Spt= 0.00> <nCl=  0> <DB=   83.0000> <Mlp=   83.0000> <PB=1000000> 
<DWph=1> <it=  2> <et=9.50> <Mt= 0.00> <Spt= 0.00> <nCl=  0> <DB=   83.0000> <Mlp=   83.0000> <PB=1000000> 
---- Diving heuristic node with dive number = 0, fix depth = 8 and tabu list size = 0
Fixed projected solution = [x_1_0_1_OspV=1, x_1_31_1_OspV=1, x_1_83_1_OspV=1, x_1_230_1_OspV=1]
<DWph=2> <it=  1> <et=9.51> <Mt= 0.01> <Spt= 0.00> <nCl=  0> <DB=   83.0000> <Mlp=   83.0000> <PB=1000000> 
<DWph=1> <it=  2> <et=9.51> <Mt= 0.00> <Spt= 0.00> <nCl=  0> <DB=   83.0000> <Mlp=   83.0000> <PB=1000000> 
---- Diving heuristic node with dive number = 0, fix depth = 9 and tabu list size = 0
Fixed projected solution = [x_1_0_1_OspV=1, x_1_3_1_OspV=1, x_1_170_1_OspV=1, x_1_175_1_OspV=1]
<DWph=2> <it=  1> <et=9.52> <Mt= 0.00> <Spt= 0.00> <nCl=  0> <DB=   83.0000> <Mlp=   83.0000> <PB=1000000> 
<DWph=1> <it=  2> <et=9.52> <Mt= 0.00> <Spt= 0.00> <nCl=  0> <DB=   83.0000> <Mlp=   83.0000> <PB=1000000> 
---- Diving heuristic node with dive number = 0, fix depth = 10 and tabu list size = 0
Fixed projected solution = [x_1_0_1_OspV=1, x_1_69_1_OspV=1, x_1_89_1_OspV=1, x_1_220_1_OspV=1]
<DWph=2> <it=  1> <et=9.53> <Mt= 0.01> <Spt= 0.00> <nCl=  0> <DB=   83.0000> <Mlp=   83.0000> <PB=1000000> 
<DWph=1> <it=  2> <et=9.53> <Mt= 0.00> <Spt= 0.00> <nCl=  0> <DB=   83.0000> <Mlp=   83.0000> <PB=1000000> 
---- Diving heuristic node with dive number = 0, fix depth = 11 and tabu list size = 0
Fixed projected solution = [x_1_0_1_OspV=1, x_1_108_1_OspV=1, x_1_129_1_OspV=1, x_1_192_1_OspV=1]
<DWph=2> <it=  1> <et=9.55> <Mt= 0.01> <Spt= 0.00> <nCl=  0> <DB=   83.0000> <Mlp=   83.0000> <PB=1000000> 
<DWph=1> <it=  2> <et=9.55> <Mt= 0.00> <Spt= 0.00> <nCl=  0> <DB=   83.0000> <Mlp=   83.0000> <PB=1000000> 
---- Diving heuristic node with dive number = 0, fix depth = 12 and tabu list size = 0
Fixed projected solution = [x_1_0_1_OspV=1, x_1_35_1_OspV=1, x_1_130_1_OspV=1, x_1_209_1_OspV=1]
<DWph=2> <it=  1> <et=9.56> <Mt= 0.00> <Spt= 0.00> <nCl=  0> <DB=   83.0000> <Mlp=   83.0000> <PB=1000000> 
<DWph=1> <it=  2> <et=9.56> <Mt= 0.00> <Spt= 0.00> <nCl=  0> <DB=   83.0000> <Mlp=   83.0000> <PB=1000000> 
---- Diving heuristic node with dive number = 0, fix depth = 13 and tabu list size = 0
Fixed projected solution = [x_1_0_1_OspV=1, x_1_110_1_OspV=1, x_1_123_1_OspV=1, x_1_196_1_OspV=1]
<DWph=2> <it=  1> <et=9.57> <Mt= 0.01> <Spt= 0.00> <nCl=  0> <DB=   83.0000> <Mlp=   83.0000> <PB=1000000> 
<DWph=1> <it=  2> <et=9.57> <Mt= 0.00> <Spt= 0.00> <nCl=  0> <DB=   83.0000> <Mlp=   83.0000> <PB=1000000> 
---- Diving heuristic node with dive number = 0, fix depth = 14 and tabu list size = 0
Fixed projected solution = [x_1_0_1_OspV=1, x_1_84_1_OspV=1, x_1_136_1_OspV=1, x_1_198_1_OspV=1]
<DWph=2> <it=  1> <et=9.58> <Mt= 0.00> <Spt= 0.00> <nCl=  0> <DB=   83.0000> <Mlp=   83.0000> <PB=1000000> 
<DWph=1> <it=  2> <et=9.58> <Mt= 0.00> <Spt= 0.00> <nCl=  0> <DB=   83.0000> <Mlp=   83.0000> <PB=1000000> 
---- Diving heuristic node with dive number = 0, fix depth = 15 and tabu list size = 0
Fixed projected solution = [x_1_0_1_OspV=1, x_1_27_1_OspV=1, x_1_43_1_OspV=1, x_1_242_1_OspV=1]
<DWph=2> <it=  1> <et=9.59> <Mt= 0.01> <Spt= 0.00> <nCl=  0> <DB=   83.0000> <Mlp=   83.0000> <PB=1000000> 
<DWph=1> <it=  2> <et=9.60> <Mt= 0.00> <Spt= 0.00> <nCl=  0> <DB=   83.0000> <Mlp=   83.0000> <PB=1000000> 
---- Diving heuristic node with dive number = 0, fix depth = 16 and tabu list size = 0
Fixed projected solution = [x_1_0_1_OspV=1, x_1_56_1_OspV=1, x_1_96_1_OspV=1, x_1_222_1_OspV=1]
<DWph=2> <it=  1> <et=9.61> <Mt= 0.01> <Spt= 0.00> <nCl=  0> <DB=   83.0000> <Mlp=   83.0000> <PB=1000000> 
<DWph=1> <it=  2> <et=9.61> <Mt= 0.00> <Spt= 0.00> <nCl=  0> <DB=   83.0000> <Mlp=   83.0000> <PB=1000000> 
---- Diving heuristic node with dive number = 0, fix depth = 17 and tabu list size = 0
Fixed projected solution = [x_1_0_1_OspV=1, x_1_58_1_OspV=1, x_1_118_1_OspV=1, x_1_214_1_OspV=1]
<DWph=2> <it=  1> <et=9.63> <Mt= 0.02> <Spt= 0.00> <nCl=  0> <DB=   83.0000> <Mlp=   83.0000> <PB=1000000> 
<DWph=1> <it=  2> <et=9.63> <Mt= 0.00> <Spt= 0.00> <nCl=  0> <DB=   83.0000> <Mlp=   83.0000> <PB=1000000> 
---- Diving heuristic node with dive number = 0, fix depth = 18 and tabu list size = 0
Fixed projected solution = [x_1_0_1_OspV=1, x_1_24_1_OspV=1, x_1_154_1_OspV=1, x_1_190_1_OspV=1]
<DWph=2> <it=  1> <et=9.65> <Mt= 0.01> <Spt= 0.00> <nCl=  0> <DB=   83.0000> <Mlp=   83.0000> <PB=1000000> 
<DWph=1> <it=  2> <et=9.65> <Mt= 0.00> <Spt= 0.00> <nCl=  0> <DB=   83.0000> <Mlp=   83.0000> <PB=1000000> 
---- Diving heuristic node with dive number = 0, fix depth = 19 and tabu list size = 0
Fixed projected solution = [x_1_0_1_OspV=1, x_1_55_1_OspV=1, x_1_125_1_OspV=1, x_1_208_1_OspV=1]
<DWph=2> <it=  1> <et=9.67> <Mt= 0.02> <Spt= 0.00> <nCl=  0> <DB=   83.0000> <Mlp=   83.0000> <PB=1000000> 
<DWph=1> <it=  2> <et=9.67> <Mt= 0.00> <Spt= 0.00> <nCl=  0> <DB=   83.0000> <Mlp=   83.0000> <PB=1000000> 
---- Diving heuristic node with dive number = 0, fix depth = 20 and tabu list size = 0
Fixed projected solution = [x_1_0_1_OspV=1, x_1_7_1_OspV=1, x_1_44_1_OspV=1, x_1_247_1_OspV=1]
<DWph=2> <it=  1> <et=9.68> <Mt= 0.01> <Spt= 0.00> <nCl=  0> <DB=   83.0000> <Mlp=   83.0000> <PB=1000000> 
<DWph=1> <it=  2> <et=9.68> <Mt= 0.00> <Spt= 0.00> <nCl=  0> <DB=   83.0000> <Mlp=   83.0000> <PB=1000000> 
---- Diving heuristic node with dive number = 0, fix depth = 21 and tabu list size = 0
Fixed projected solution = [x_1_0_1_OspV=1, x_1_132_1_OspV=1, x_1_143_1_OspV=1, x_1_161_1_OspV=1]
<DWph=2> <it=  1> <et=9.70> <Mt= 0.01> <Spt= 0.00> <nCl=  0> <DB=   83.0000> <Mlp=   83.0000> <PB=1000000> 
<DWph=1> <it=  2> <et=9.70> <Mt= 0.00> <Spt= 0.00> <nCl=  0> <DB=   83.0000> <Mlp=   83.0000> <PB=1000000> 
---- Diving heuristic node with dive number = 0, fix depth = 22 and tabu list size = 0
Fixed projected solution = [x_1_0_1_OspV=1, x_1_74_1_OspV=1, x_1_139_1_OspV=1, x_1_201_1_OspV=1]
<DWph=2> <it=  1> <et=9.72> <Mt= 0.02> <Spt= 0.00> <nCl=  0> <DB=   83.0000> <Mlp=   83.0000> <PB=1000000> 
<DWph=1> <it=  2> <et=9.72> <Mt= 0.00> <Spt= 0.00> <nCl=  0> <DB=   83.0000> <Mlp=   83.0000> <PB=1000000> 
---- Diving heuristic node with dive number = 0, fix depth = 23 and tabu list size = 0
Fixed projected solution = [x_1_0_1_OspV=1, x_1_23_1_OspV=1, x_1_166_1_OspV=1, x_1_181_1_OspV=1]
<DWph=2> <it=  1> <et=9.74> <Mt= 0.01> <Spt= 0.00> <nCl=  0> <DB=   83.0000> <Mlp=   83.0000> <PB=1000000> 
<DWph=1> <it=  2> <et=9.74> <Mt= 0.00> <Spt= 0.00> <nCl=  0> <DB=   83.0000> <Mlp=   83.0000> <PB=1000000> 
---- Diving heuristic node with dive number = 0, fix depth = 24 and tabu list size = 0
Fixed projected solution = [x_1_0_1_OspV=1, x_1_70_1_OspV=1, x_1_75_1_OspV=1, x_1_228_1_OspV=1]
<DWph=2> <it=  1> <et=9.77> <Mt= 0.02> <Spt= 0.00> <nCl=  0> <DB=   83.0000> <Mlp=   83.0000> <PB=1000000> 
<DWph=1> <it=  2> <et=9.77> <Mt= 0.00> <Spt= 0.00> <nCl=  0> <DB=   83.0000> <Mlp=   83.0000> <PB=1000000> 
---- Diving heuristic node with dive number = 0, fix depth = 24 and tabu list size = 0
Fixed projected solution = [x_1_0_1_OspV=1, x_1_64_1_OspV=1, x_1_87_1_OspV=1, x_1_225_1_OspV=1]
<DWph=2> <it=  1> <et=9.77> <Mt= 0.00> <Spt= 0.00> <nCl=  0> <DB=   83.0000> <Mlp=   83.0000> <PB=1000000> 
<DWph=1> <it=  2> <et=9.77> <Mt= 0.00> <Spt= 0.00> <nCl=  0> <DB=   83.0000> <Mlp=   83.0000> <PB=1000000> 
---- Diving heuristic node with dive number = 0, fix depth = 25 and tabu list size = 0
Fixed projected solution = [x_1_0_1_OspV=1, x_1_16_1_OspV=1, x_1_20_1_OspV=1, x_1_249_1_OspV=1]
<DWph=2> <it=  1> <et=9.80> <Mt= 0.02> <Spt= 0.00> <nCl=  0> <DB=   83.0000> <Mlp=   83.0000> <PB=1000000> 
<DWph=1> <it=  2> <et=9.80> <Mt= 0.00> <Spt= 0.00> <nCl=  0> <DB=   83.0000> <Mlp=   83.0000> <PB=1000000> 
---- Diving heuristic node with dive number = 0, fix depth = 26 and tabu list size = 0
Fixed projected solution = [x_1_0_1_OspV=1, x_1_88_1_OspV=1, x_1_134_1_OspV=1, x_1_195_1_OspV=1]
<DWph=2> <it=  1> <et=9.81> <Mt= 0.01> <Spt= 0.00> <nCl=  0> <DB=   83.0000> <Mlp=   83.0000> <PB=1000000> 
<DWph=1> <it=  2> <et=9.82> <Mt= 0.00> <Spt= 0.00> <nCl=  0> <DB=   83.0000> <Mlp=   83.0000> <PB=1000000> 
---- Diving heuristic node with dive number = 0, fix depth = 27 and tabu list size = 0
Fixed projected solution = [x_1_0_1_OspV=1, x_1_106_1_OspV=1, x_1_120_1_OspV=1, x_1_199_1_OspV=1]
<DWph=2> <it=  1> <et=9.83> <Mt= 0.02> <Spt= 0.00> <nCl=  0> <DB=   83.0000> <Mlp=   83.0000> <PB=1000000> 
<DWph=1> <it=  2> <et=9.83> <Mt= 0.00> <Spt= 0.00> <nCl=  0> <DB=   83.0000> <Mlp=   83.0000> <PB=1000000> 
---- Diving heuristic node with dive number = 0, fix depth = 28 and tabu list size = 0
Fixed projected solution = [x_1_0_1_OspV=1, x_1_14_1_OspV=1, x_1_131_1_OspV=1, x_1_211_1_OspV=1]
<DWph=2> <it=  1> <et=9.85> <Mt= 0.01> <Spt= 0.00> <nCl=  0> <DB=   83.0000> <Mlp=   83.0000> <PB=1000000> 
<DWph=1> <it=  2> <et=9.85> <Mt= 0.00> <Spt= 0.00> <nCl=  0> <DB=   83.0000> <Mlp=   83.0000> <PB=1000000> 
---- Diving heuristic node with dive number = 0, fix depth = 29 and tabu list size = 0
Fixed projected solution = [x_1_0_1_OspV=1, x_1_49_1_OspV=1, x_1_50_1_OspV=1, x_1_235_1_OspV=1]
<DWph=2> <it=  1> <et=9.88> <Mt= 0.02> <Spt= 0.00> <nCl=  0> <DB=   83.0000> <Mlp=   83.0000> <PB=1000000> 
<DWph=1> <it=  2> <et=9.88> <Mt= 0.00> <Spt= 0.00> <nCl=  0> <DB=   83.0000> <Mlp=   83.0000> <PB=1000000> 
---- Diving heuristic node with dive number = 0, fix depth = 30 and tabu list size = 0
Fixed projected solution = [x_1_0_1_OspV=1, x_1_18_1_OspV=1, x_1_47_1_OspV=1, x_1_243_1_OspV=1]
<DWph=2> <it=  1> <et=9.90> <Mt= 0.02> <Spt= 0.00> <nCl=  0> <DB=   83.0000> <Mlp=   83.0000> <PB=1000000> 
<DWph=1> <it=  2> <et=9.90> <Mt= 0.00> <Spt= 0.00> <nCl=  0> <DB=   83.0000> <Mlp=   83.0000> <PB=1000000> 
---- Diving heuristic node with dive number = 0, fix depth = 31 and tabu list size = 0
Fixed projected solution = [x_1_0_1_OspV=1, x_1_8_1_OspV=1, x_1_149_1_OspV=1, x_1_202_1_OspV=1]
<DWph=2> <it=  1> <et=9.92> <Mt= 0.01> <Spt= 0.00> <nCl=  0> <DB=   83.0000> <Mlp=   83.0000> <PB=1000000> 
<DWph=1> <it=  2> <et=9.92> <Mt= 0.00> <Spt= 0.00> <nCl=  0> <DB=   83.0000> <Mlp=   83.0000> <PB=1000000> 
---- Diving heuristic node with dive number = 0, fix depth = 31 and tabu list size = 0
Fixed projected solution = [x_1_0_1_OspV=1, x_1_76_1_OspV=1, x_1_148_1_OspV=1, x_1_189_1_OspV=1]
<DWph=2> <it=  1> <et=9.93> <Mt= 0.01> <Spt= 0.00> <nCl=  0> <DB=   83.0000> <Mlp=   83.0000> <PB=1000000> 
<DWph=1> <it=  2> <et=9.93> <Mt= 0.00> <Spt= 0.00> <nCl=  0> <DB=   83.0000> <Mlp=   83.0000> <PB=1000000> 
---- Diving heuristic node with dive number = 0, fix depth = 32 and tabu list size = 0
Fixed projected solution = [x_1_0_1_OspV=1, x_1_9_1_OspV=1, x_1_172_1_OspV=1, x_1_174_1_OspV=1]
<DWph=2> <it=  1> <et=9.95> <Mt= 0.01> <Spt= 0.00> <nCl=  0> <DB=   83.0000> <Mlp=   83.0000> <PB=1000000> 
<DWph=1> <it=  2> <et=9.95> <Mt= 0.00> <Spt= 0.00> <nCl=  0> <DB=   83.0000> <Mlp=   83.0000> <PB=1000000> 
---- Diving heuristic node with dive number = 0, fix depth = 33 and tabu list size = 0
Fixed projected solution = [x_1_0_1_OspV=1, x_1_10_1_OspV=1, x_1_48_1_OspV=1, x_1_244_1_OspV=1]
<DWph=2> <it=  1> <et=9.97> <Mt= 0.02> <Spt= 0.00> <nCl=  0> <DB=   83.0000> <Mlp=   83.0000> <PB=1000000> 
<DWph=1> <it=  2> <et=9.97> <Mt= 0.00> <Spt= 0.00> <nCl=  0> <DB=   83.0000> <Mlp=   83.0000> <PB=1000000> 
---- Diving heuristic node with dive number = 0, fix depth = 34 and tabu list size = 0
Fixed projected solution = [x_1_0_1_OspV=1, x_1_81_1_OspV=1, x_1_98_1_OspV=1, x_1_216_1_OspV=1]
<DWph=2> <it=  1> <et=9.98> <Mt= 0.01> <Spt= 0.00> <nCl=  0> <DB=   83.0000> <Mlp=   83.0000> <PB=1000000> 
<DWph=1> <it=  2> <et=9.98> <Mt= 0.00> <Spt= 0.00> <nCl=  0> <DB=   83.0000> <Mlp=   83.0000> <PB=1000000> 
---- Diving heuristic node with dive number = 0, fix depth = 35 and tabu list size = 0
Fixed projected solution = [x_1_0_1_OspV=1, x_1_25_1_OspV=1, x_1_146_1_OspV=1, x_1_205_1_OspV=1]
<DWph=2> <it=  1> <et=10.01> <Mt= 0.02> <Spt= 0.00> <nCl=  0> <DB=   83.0000> <Mlp=   83.0000> <PB=1000000> 
<DWph=1> <it=  2> <et=10.01> <Mt= 0.00> <Spt= 0.00> <nCl=  0> <DB=   83.0000> <Mlp=   83.0000> <PB=1000000> 
---- Diving heuristic node with dive number = 0, fix depth = 36 and tabu list size = 0
Fixed projected solution = [x_1_0_1_OspV=1, x_1_111_1_OspV=1, x_1_156_1_OspV=1, x_1_158_1_OspV=1]
<DWph=2> <it=  2> <et=10.16> <Mt= 0.05> <Spt= 0.09> <nCl=100> <DB=   82.4047> <Mlp=   83.0000> <PB=1000000> 
<DWph=1> <it=  3> <et=10.16> <Mt= 0.00> <Spt= 0.00> <nCl=  0> <DB=   83.0000> <Mlp=   83.0000> <PB=1000000> 
---- Diving heuristic node with dive number = 0, fix depth = 37 and tabu list size = 0
Fixed projected solution = [x_1_0_1_OspV=1, x_1_29_1_OspV=1, x_1_115_1_OspV=1, x_1_219_1_OspV=1]
<DWph=2> <it=  1> <et=10.18> <Mt= 0.02> <Spt= 0.00> <nCl=  0> <DB=   83.0000> <Mlp=   83.0000> <PB=1000000> 
<DWph=1> <it=  2> <et=10.18> <Mt= 0.00> <Spt= 0.00> <nCl=  0> <DB=   83.0000> <Mlp=   83.0000> <PB=1000000> 
---- Diving heuristic node with dive number = 0, fix depth = 38 and tabu list size = 0
Fixed projected solution = [x_1_0_1_OspV=1, x_1_40_1_OspV=1, x_1_117_1_OspV=1, x_1_217_1_OspV=1]
<DWph=2> <it=  1> <et=10.21> <Mt= 0.02> <Spt= 0.00> <nCl=  0> <DB=   83.0000> <Mlp=   83.0000> <PB=1000000> 
<DWph=1> <it=  2> <et=10.21> <Mt= 0.00> <Spt= 0.00> <nCl=  0> <DB=   83.0000> <Mlp=   83.0000> <PB=1000000> 
---- Diving heuristic node with dive number = 0, fix depth = 39 and tabu list size = 0
Fixed projected solution = [x_1_0_1_OspV=1, x_1_15_1_OspV=1, x_1_32_1_OspV=1, x_1_245_1_OspV=1]
<DWph=2> <it=  1> <et=10.23> <Mt= 0.01> <Spt= 0.00> <nCl=  0> <DB=   83.0000> <Mlp=   83.0000> <PB=1000000> 
<DWph=1> <it=  2> <et=10.23> <Mt= 0.00> <Spt= 0.00> <nCl=  0> <DB=   83.0000> <Mlp=   83.0000> <PB=1000000> 
---- Diving heuristic node with dive number = 0, fix depth = 40 and tabu list size = 0
Fixed projected solution = [x_1_0_1_OspV=1, x_1_6_1_OspV=1, x_1_59_1_OspV=1, x_1_240_1_OspV=1]
<DWph=2> <it=  1> <et=10.25> <Mt= 0.02> <Spt= 0.00> <nCl=  0> <DB=   83.0000> <Mlp=   83.0000> <PB=1000000> 
<DWph=1> <it=  2> <et=10.25> <Mt= 0.00> <Spt= 0.00> <nCl=  0> <DB=   83.0000> <Mlp=   83.0000> <PB=1000000> 
---- Diving heuristic node with dive number = 0, fix depth = 41 and tabu list size = 0
Fixed projected solution = [x_1_0_1_OspV=1, x_1_46_1_OspV=1, x_1_60_1_OspV=1, x_1_234_1_OspV=1]
<DWph=2> <it=  1> <et=10.27> <Mt= 0.02> <Spt= 0.00> <nCl=  0> <DB=   83.0000> <Mlp=   83.0000> <PB=1000000> 
<DWph=1> <it=  2> <et=10.27> <Mt= 0.00> <Spt= 0.00> <nCl=  0> <DB=   83.0000> <Mlp=   83.0000> <PB=1000000> 
---- Diving heuristic node with dive number = 0, fix depth = 41 and tabu list size = 0
Fixed projected solution = [x_1_0_1_OspV=1, x_1_17_1_OspV=1, x_1_33_1_OspV=1, x_1_246_1_OspV=1]
<DWph=2> <it=  1> <et=10.28> <Mt= 0.00> <Spt= 0.00> <nCl=  0> <DB=   83.0000> <Mlp=   83.0000> <PB=1000000> 
<DWph=1> <it=  2> <et=10.28> <Mt= 0.00> <Spt= 0.00> <nCl=  0> <DB=   83.0000> <Mlp=   83.0000> <PB=1000000> 
---- Diving heuristic node with dive number = 0, fix depth = 42 and tabu list size = 0
Fixed projected solution = [x_1_0_1_OspV=1, x_1_51_1_OspV=1, x_1_169_1_OspV=1, x_1_171_1_OspV=1]
<DWph=2> <it=  4> <et=10.58> <Mt= 0.09> <Spt= 0.21> <nCl=300> <DB=   82.8879> <Mlp=   83.0000> <PB=1000000> 
<DWph=1> <it=  5> <et=10.58> <Mt= 0.00> <Spt= 0.00> <nCl=  0> <DB=   83.0000> <Mlp=   83.0000> <PB=1000000> 
---- Diving heuristic node with dive number = 0, fix depth = 42 and tabu list size = 0
Fixed projected solution = [x_1_0_1_OspV=1, x_1_26_1_OspV=1, x_1_151_1_OspV=1, x_1_197_1_OspV=1]
<DWph=2> <it=  1> <et=10.59> <Mt= 0.00> <Spt= 0.00> <nCl=  0> <DB=   83.0000> <Mlp=   83.0000> <PB=1000000> 
<DWph=1> <it=  2> <et=10.59> <Mt= 0.00> <Spt= 0.00> <nCl=  0> <DB=   83.0000> <Mlp=   83.0000> <PB=1000000> 
---- Diving heuristic node with dive number = 0, fix depth = 42 and tabu list size = 0
Fixed projected solution = [x_1_0_1_OspV=1, x_1_80_1_OspV=1, x_1_133_1_OspV=1, x_1_203_1_OspV=1]
<DWph=2> <it=  1> <et=10.60> <Mt= 0.00> <Spt= 0.00> <nCl=  0> <DB=   83.0000> <Mlp=   83.0000> <PB=1000000> 
<DWph=1> <it=  2> <et=10.60> <Mt= 0.00> <Spt= 0.00> <nCl=  0> <DB=   83.0000> <Mlp=   83.0000> <PB=1000000> 
---- Diving heuristic node with dive number = 0, fix depth = 43 and tabu list size = 0
Fixed projected solution = [x_1_0_1_OspV=1, x_1_4_1_OspV=1, x_1_72_1_OspV=1, x_1_238_1_OspV=1]
<DWph=2> <it=  1> <et=10.62> <Mt= 0.01> <Spt= 0.00> <nCl=  0> <DB=   83.0000> <Mlp=   83.0000> <PB=1000000> 
<DWph=1> <it=  2> <et=10.62> <Mt= 0.00> <Spt= 0.00> <nCl=  0> <DB=   83.0000> <Mlp=   83.0000> <PB=1000000> 
---- Diving heuristic node with dive number = 0, fix depth = 44 and tabu list size = 0
Fixed projected solution = [x_1_0_1_OspV=1, x_1_21_1_OspV=1, x_1_77_1_OspV=1, x_1_233_1_OspV=1]
<DWph=2> <it=  1> <et=10.64> <Mt= 0.02> <Spt= 0.00> <nCl=  0> <DB=   83.0000> <Mlp=   83.0000> <PB=1000000> 
<DWph=1> <it=  2> <et=10.64> <Mt= 0.00> <Spt= 0.00> <nCl=  0> <DB=   83.0000> <Mlp=   83.0000> <PB=1000000> 
---- Diving heuristic node with dive number = 0, fix depth = 45 and tabu list size = 0
Fixed projected solution = [x_1_0_1_OspV=1, x_1_85_1_OspV=1, x_1_103_1_OspV=1, x_1_210_1_OspV=1]
<DWph=2> <it=  1> <et=10.67> <Mt= 0.03> <Spt= 0.00> <nCl=  0> <DB=   83.0000> <Mlp=   83.0000> <PB=1000000> 
<DWph=1> <it=  2> <et=10.67> <Mt= 0.00> <Spt= 0.00> <nCl=  0> <DB=   83.0000> <Mlp=   83.0000> <PB=1000000> 
---- Diving heuristic node with dive number = 0, fix depth = 45 and tabu list size = 0
Fixed projected solution = [x_1_0_1_OspV=1, x_1_37_1_OspV=1, x_1_167_1_OspV=1, x_1_178_1_OspV=1]
<DWph=2> <it=  1> <et=10.68> <Mt= 0.00> <Spt= 0.00> <nCl=  0> <DB=   83.0000> <Mlp=   83.0000> <PB=1000000> 
<DWph=1> <it=  2> <et=10.68> <Mt= 0.00> <Spt= 0.00> <nCl=  0> <DB=   83.0000> <Mlp=   83.0000> <PB=1000000> 
---- Diving heuristic node with dive number = 0, fix depth = 46 and tabu list size = 0
Fixed projected solution = [x_1_0_1_OspV=1, x_1_104_1_OspV=1, x_1_145_1_OspV=1, x_1_177_1_OspV=1]
<DWph=2> <it=  1> <et=10.71> <Mt= 0.03> <Spt= 0.00> <nCl=  0> <DB=   83.0000> <Mlp=   83.0000> <PB=1000000> 
<DWph=1> <it=  2> <et=10.71> <Mt= 0.00> <Spt= 0.00> <nCl=  0> <DB=   83.0000> <Mlp=   83.0000> <PB=1000000> 
---- Diving heuristic node with dive number = 0, fix depth = 46 and tabu list size = 0
Fixed projected solution = [x_1_0_1_OspV=1, x_1_42_1_OspV=1, x_1_97_1_OspV=1, x_1_224_1_OspV=1]
<DWph=2> <it=  1> <et=10.72> <Mt= 0.00> <Spt= 0.00> <nCl=  0> <DB=   83.0000> <Mlp=   83.0000> <PB=1000000> 
<DWph=1> <it=  2> <et=10.72> <Mt= 0.00> <Spt= 0.00> <nCl=  0> <DB=   83.0000> <Mlp=   83.0000> <PB=1000000> 
---- Diving heuristic node with dive number = 0, fix depth = 46 and tabu list size = 0
Fixed projected solution = [x_1_0_1_OspV=1, x_1_102_1_OspV=1, x_1_140_1_OspV=1, x_1_184_1_OspV=1]
<DWph=2> <it=  1> <et=10.72> <Mt= 0.01> <Spt= 0.00> <nCl=  0> <DB=   83.0000> <Mlp=   83.0000> <PB=1000000> 
<DWph=1> <it=  2> <et=10.73> <Mt= 0.00> <Spt= 0.00> <nCl=  0> <DB=   83.0000> <Mlp=   83.0000> <PB=1000000> 
---- Diving heuristic node with dive number = 0, fix depth = 46 and tabu list size = 0
Fixed projected solution = [x_1_0_1_OspV=1, x_1_2_1_OspV=1, x_1_38_1_OspV=1, x_1_248_1_OspV=1]
<DWph=2> <it=  1> <et=10.73> <Mt= 0.00> <Spt= 0.00> <nCl=  0> <DB=   83.0000> <Mlp=   83.0000> <PB=1000000> 
<DWph=1> <it=  2> <et=10.73> <Mt= 0.00> <Spt= 0.00> <nCl=  0> <DB=   83.0000> <Mlp=   83.0000> <PB=1000000> 
---- Diving heuristic node with dive number = 0, fix depth = 47 and tabu list size = 0
Fixed projected solution = [x_1_0_1_OspV=1, x_1_11_1_OspV=1, x_1_168_1_OspV=1, x_1_179_1_OspV=1]
<DWph=2> <it=  4> <et=11.10> <Mt= 0.15> <Spt= 0.21> <nCl=300> <DB=   82.8425> <Mlp=   83.0000> <PB=1000000> 
<DWph=1> <it=  5> <et=11.10> <Mt= 0.00> <Spt= 0.00> <nCl=  0> <DB=   83.0000> <Mlp=   83.0000> <PB=1000000> 
---- Diving heuristic node with dive number = 0, fix depth = 47 and tabu list size = 0
Fixed projected solution = [x_1_0_1_OspV=1, x_1_92_1_OspV=1, x_1_150_1_OspV=1, x_1_180_1_OspV=1]
<DWph=2> <it=  1> <et=11.11> <Mt= 0.00> <Spt= 0.00> <nCl=  0> <DB=   83.0000> <Mlp=   83.0000> <PB=1000000> 
<DWph=1> <it=  2> <et=11.11> <Mt= 0.00> <Spt= 0.00> <nCl=  0> <DB=   83.0000> <Mlp=   83.0000> <PB=1000000> 
---- Diving heuristic node with dive number = 0, fix depth = 47 and tabu list size = 0
Fixed projected solution = [x_1_0_1_OspV=1, x_1_105_1_OspV=1, x_1_126_1_OspV=1, x_1_194_1_OspV=1]
<DWph=2> <it=  1> <et=11.11> <Mt= 0.00> <Spt= 0.00> <nCl=  0> <DB=   83.0000> <Mlp=   83.0000> <PB=1000000> 
<DWph=1> <it=  2> <et=11.11> <Mt= 0.00> <Spt= 0.00> <nCl=  0> <DB=   83.0000> <Mlp=   83.0000> <PB=1000000> 
---- Diving heuristic node with dive number = 0, fix depth = 48 and tabu list size = 0
Fixed projected solution = [x_1_0_1_OspV=1, x_1_30_1_OspV=1, x_1_163_1_OspV=1, x_1_182_1_OspV=1]
<DWph=2> <it=  5> <et=11.48> <Mt= 0.08> <Spt= 0.29> <nCl=365> <DB=   82.9460> <Mlp=   83.0000> <PB=1000000> 
<DWph=1> <it=  6> <et=11.48> <Mt= 0.00> <Spt= 0.00> <nCl=  0> <DB=   83.0000> <Mlp=   83.0000> <PB=1000000> 
---- Diving heuristic node with dive number = 0, fix depth = 48 and tabu list size = 0
Fixed projected solution = [x_1_0_1_OspV=1, x_1_5_1_OspV=1, x_1_114_1_OspV=1, x_1_223_1_OspV=1]
<DWph=2> <it=  1> <et=11.49> <Mt= 0.00> <Spt= 0.00> <nCl=  0> <DB=   83.0000> <Mlp=   83.0000> <PB=1000000> 
<DWph=1> <it=  2> <et=11.50> <Mt= 0.00> <Spt= 0.00> <nCl=  0> <DB=   83.0000> <Mlp=   83.0000> <PB=1000000> 
---- Diving heuristic node with dive number = 0, fix depth = 49 and tabu list size = 0
Fixed projected solution = [x_1_0_1_OspV=1, x_1_78_1_OspV=1, x_1_155_1_OspV=1, x_1_173_1_OspV=1]
<DWph=2> <it=  1> <et=11.50> <Mt= 0.01> <Spt= 0.00> <nCl=  0> <DB=   83.0000> <Mlp=   83.0000> <PB=1000000> 
<DWph=1> <it=  2> <et=11.50> <Mt= 0.00> <Spt= 0.00> <nCl=  0> <DB=   83.0000> <Mlp=   83.0000> <PB=1000000> 
---- Diving heuristic node with dive number = 0, fix depth = 49 and tabu list size = 0
Fixed projected solution = [x_1_0_1_OspV=1, x_1_1_1_OspV=1, x_1_62_1_OspV=1, x_1_241_1_OspV=1]
<DWph=2> <it=  1> <et=11.51> <Mt= 0.00> <Spt= 0.00> <nCl=  0> <DB=   83.0000> <Mlp=   83.0000> <PB=1000000> 
<DWph=1> <it=  2> <et=11.51> <Mt= 0.00> <Spt= 0.00> <nCl=  0> <DB=   83.0000> <Mlp=   83.0000> <PB=1000000> 
---- Diving heuristic node with dive number = 0, fix depth = 50 and tabu list size = 0
Fixed projected solution = [x_1_0_1_OspV=1, x_1_79_1_OspV=1, x_1_128_1_OspV=1, x_1_207_1_OspV=1]
<DWph=2> <it= 10> <et=12.54> <Mt= 0.10> <Spt= 0.92> <nCl=413> <DB=   81.8366> <Mlp=   83.0006> <PB=1000000> 
<DWph=2> <it= 20> <et=13.78> <Mt= 0.02> <Spt= 1.22> <nCl= 83> <DB=   83.0003> <Mlp=   83.0003> <PB=1000000> 
<DWph=1> <it= 22> <et=14.02> <Mt= 0.01> <Spt= 0.22> <nCl= 20> <DB=   83.0003> <Mlp=   83.0003> <PB=1000000> 
---- Diving heuristic node with dive number = 0, fix depth = 51 and tabu list size = 0
Fixed projected solution = [x_1_0_1_OspV=1, x_1_22_1_OspV=1, x_1_157_1_OspV=1, x_1_186_1_OspV=1]
<DWph=2> <it= 10> <et=15.15> <Mt= 0.04> <Spt= 1.07> <nCl= 76> <DB=   83.0003> <Mlp=   83.0003> <PB=1000000> 
<DWph=1> <it= 13> <et=15.53> <Mt= 0.01> <Spt= 0.38> <nCl=  4> <DB=   83.0003> <Mlp=   83.0003> <PB=1000000> 
---- Diving heuristic node with dive number = 0, fix depth = 52 and tabu list size = 0
Fixed projected solution = [x_1_0_1_OspV=1, x_1_122_1_OspV=1, x_1_135_1_OspV=1, x_1_176_1_OspV=1]
<DWph=2> <it= 10> <et=16.51> <Mt= 0.08> <Spt= 0.88> <nCl=213> <DB=   82.9178> <Mlp=   83.0011> <PB=1000000> 
<DWph=2> <it= 14> <et=17.18> <Mt= 0.01> <Spt= 0.66> <nCl=  7> <DB=   82.9365> <Mlp=   83.0011> <PB=1000000> 
<DWph=1> <it= 15> <et=17.33> <Mt= 0.00> <Spt= 0.15> <nCl=  0> <DB=   83.0011> <Mlp=   83.0011> <PB=1000000> 
---- Diving heuristic node with dive number = 0, fix depth = 53 and tabu list size = 0
Fixed projected solution = [x_1_0_1_OspV=1, x_1_107_1_OspV=1, x_1_112_1_OspV=1, x_1_206_1_OspV=1]
<DWph=2> <it=  4> <et=17.87> <Mt= 0.02> <Spt= 0.50> <nCl= 10> <DB=   83.0019> <Mlp=   83.0019> <PB=1000000> 
<DWph=1> <it=  5> <et=18.02> <Mt= 0.01> <Spt= 0.15> <nCl=  0> <DB=   83.0019> <Mlp=   83.0019> <PB=1000000> 
---- Diving heuristic node with dive number = 0, fix depth = 54 and tabu list size = 0
Fixed projected solution = [x_1_0_1_OspV=1, x_1_73_1_OspV=1, x_1_113_1_OspV=1, x_1_215_1_OspV=1]
<DWph=2> <it=  7> <et=18.89> <Mt= 0.07> <Spt= 0.78> <nCl= 65> <DB=   83.0033> <Mlp=   83.0033> <PB=1000000> 
<DWph=1> <it=  9> <et=19.11> <Mt= 0.00> <Spt= 0.22> <nCl=  4> <DB=   83.0033> <Mlp=   83.0033> <PB=1000000> 
---- Diving heuristic node with dive number = 0, fix depth = 55 and tabu list size = 0
Fixed projected solution = [x_1_0_1_OspV=1, x_1_90_1_OspV=1, x_1_138_1_OspV=1, x_1_191_1_OspV=1]
<DWph=2> <it=  6> <et=19.74> <Mt= 0.05> <Spt= 0.57> <nCl=  7> <DB=   83.0043> <Mlp=   83.0043> <PB=1000000> 
<DWph=1> <it=  7> <et=19.95> <Mt= 0.00> <Spt= 0.21> <nCl=  0> <DB=   83.0043> <Mlp=   83.0043> <PB=1000000> 
---- Diving heuristic node with dive number = 0, fix depth = 56 and tabu list size = 0
Fixed projected solution = [x_1_0_1_OspV=1, x_1_34_1_OspV=1, x_1_63_1_OspV=1, x_1_236_1_OspV=1]
<DWph=2> <it=  9> <et=21.04> <Mt= 0.06> <Spt= 1.01> <nCl= 60> <DB=   83.0082> <Mlp=   83.0082> <PB=1000000> 
<DWph=1> <it= 10> <et=21.19> <Mt= 0.01> <Spt= 0.15> <nCl=  0> <DB=   83.0082> <Mlp=   83.0082> <PB=1000000> 
---- Diving heuristic node with dive number = 0, fix depth = 57 and tabu list size = 0
Fixed projected solution = [x_1_0_1_OspV=1, x_1_121_1_OspV=1, x_1_124_1_OspV=1, x_1_187_1_OspV=1]
<DWph=2> <it=  9> <et=22.38> <Mt= 0.17> <Spt= 0.99> <nCl=236> <DB=   83.0147> <Mlp=   83.0147> <PB=1000000> 
<DWph=1> <it= 10> <et=22.53> <Mt= 0.01> <Spt= 0.14> <nCl=  0> <DB=   83.0147> <Mlp=   83.0147> <PB=1000000> 
---- Diving heuristic node with dive number = 0, fix depth = 58 and tabu list size = 0
Fixed projected solution = [x_1_0_1_OspV=1, x_1_65_1_OspV=1, x_1_153_1_OspV=1, x_1_185_1_OspV=1]
<DWph=2> <it=  9> <et=23.60> <Mt= 0.15> <Spt= 0.91> <nCl=288> <DB=   83.0233> <Mlp=   83.0233> <PB=1000000> 
<DWph=1> <it= 10> <et=23.74> <Mt= 0.00> <Spt= 0.14> <nCl=  0> <DB=   83.0233> <Mlp=   83.0233> <PB=1000000> 
---- Diving heuristic node with dive number = 0, fix depth = 59 and tabu list size = 0
Fixed projected solution = [x_1_0_1_OspV=1, x_1_36_1_OspV=1, x_1_116_1_OspV=1, x_1_218_1_OspV=1]
<DWph=2> <it=  4> <et=24.23> <Mt= 0.05> <Spt= 0.41> <nCl= 44> <DB=   83.0233> <Mlp=   83.0233> <PB=1000000> 
<DWph=1> <it=  5> <et=24.45> <Mt= 0.00> <Spt= 0.22> <nCl=  0> <DB=   83.0233> <Mlp=   83.0233> <PB=1000000> 
---- Diving heuristic node with dive number = 0, fix depth = 60 and tabu list size = 0
Fixed projected solution = [x_1_0_1_OspV=1, x_1_101_1_OspV=1, x_1_142_1_OspV=1, x_1_183_1_OspV=1]
<DWph=2> <it=  8> <et=25.32> <Mt= 0.09> <Spt= 0.77> <nCl= 98> <DB=   83.0417> <Mlp=   83.0417> <PB=1000000> 
<DWph=1> <it= 10> <et=25.47> <Mt= 0.01> <Spt= 0.14> <nCl= 10> <DB=   75.9167> <Mlp=   83.0417> <PB=1000000> 
<DWph=1> <it= 19> <et=26.25> <Mt= 0.02> <Spt= 0.76> <nCl= 14> <DB=   83.0417> <Mlp=   83.0417> <PB=1000000> 
---- Diving heuristic node with dive number = 0, fix depth = 61 and tabu list size = 0
Fixed projected solution = [x_1_0_1_OspV=1, x_1_28_1_OspV=1, x_1_152_1_OspV=1, x_1_193_1_OspV=1]
<DWph=2> <it=  3> <et=26.64> <Mt= 0.09> <Spt= 0.28> <nCl=130> <DB=   81.5188> <Mlp=   83.0417> <PB=1000000> 
<DWph=1> <it=  5> <et=26.93> <Mt= 0.01> <Spt= 0.29> <nCl=  5> <DB=   83.0417> <Mlp=   83.0417> <PB=1000000> 
---- Diving heuristic node with dive number = 0, fix depth = 62 and tabu list size = 0
Fixed projected solution = [x_1_0_1_OspV=1, x_1_94_1_OspV=1, x_1_159_1_OspV=1, x_1_165_1_OspV=1]
<DWph=2> <it= 10> <et=27.89> <Mt= 0.18> <Spt= 0.71> <nCl=565> <DB=   79.7793> <Mlp=   83.1000> <PB=1000000> 
<DWph=2> <it= 20> <et=28.77> <Mt= 0.03> <Spt= 0.84> <nCl=178> <DB=   80.5346> <Mlp=   83.0833> <PB=1000000> 
<DWph=2> <it= 26> <et=29.53> <Mt= 0.01> <Spt= 0.75> <nCl= 43> <DB=   83.0769> <Mlp=   83.0769> <PB=1000000> 
<DWph=1> <it= 27> <et=29.74> <Mt= 0.00> <Spt= 0.21> <nCl=  0> <DB=   83.0769> <Mlp=   83.0769> <PB=1000000> 
---- Diving heuristic node with dive number = 0, fix depth = 63 and tabu list size = 0
Fixed projected solution = [x_1_0_1_OspV=1, x_1_19_1_OspV=1, x_1_109_1_OspV=1, x_1_221_1_OspV=1]
<DWph=2> <it= 10> <et=30.62> <Mt= 0.16> <Spt= 0.71> <nCl=418> <DB=   80.3005> <Mlp=   83.5000> <PB=1000000> 
<DWph=2> <it= 11> <et=30.91> <Mt= 0.00> <Spt= 0.28> <nCl=  0> <DB=   83.5000> <Mlp=   83.5000> <PB=1000000> 
<DWph=1> <it= 20> <et=31.57> <Mt= 0.02> <Spt= 0.64> <nCl= 18> <DB=   -0.5000> <Mlp=   83.5000> <PB=1000000> 
<DWph=1> <it= 30> <et=32.31> <Mt= 0.03> <Spt= 0.72> <nCl= 81> <DB=   -0.5000> <Mlp=   83.5000> <PB=1000000> 
<DWph=1> <it= 31> <et=32.60> <Mt= 0.00> <Spt= 0.28> <nCl=  0> <DB=   83.5000> <Mlp=   83.5000> <PB=1000000> 
---- Diving heuristic node with dive number = 0, fix depth = 64 and tabu list size = 0
Fixed projected solution = [x_1_0_1_OspV=1, x_1_41_1_OspV=1, x_1_144_1_OspV=1, x_1_204_1_OspV=1]
<DWph=2> <it= 10> <et=33.49> <Mt= 0.15> <Spt= 0.72> <nCl=589> <DB=   67.3927> <Mlp=   84.0000> <PB=84> 
<DWph=2> <it= 20> <et=34.25> <Mt= 0.03> <Spt= 0.73> <nCl=116> <DB=   81.5697> <Mlp=   84.0000> <PB=84> 
<DWph=2> <it= 26> <et=35.22> <Mt= 0.02> <Spt= 0.95> <nCl= 94> <DB=   84.0000> <Mlp=   84.0000> <PB=84> 
<DWph=1> <it= 27> <et=35.43> <Mt= 0.00> <Spt= 0.21> <nCl=  0> <DB=   84.0000> <Mlp=   84.0000> <PB=84> 
---- Diving heuristic node with dive number = 1, fix depth = 2 and tabu list size = 1
Fixed projected solution = [x_1_0_1_OspV=1, x_1_61_1_OspV=1, x_1_66_1_OspV=1, x_1_231_1_OspV=1]
<DWph=2> <it=  1> <et=35.62> <Mt= 0.00> <Spt= 0.00> <nCl=  0> <DB=   83.0000> <Mlp=   83.0000> <PB=84> 
<DWph=1> <it=  2> <et=35.62> <Mt= 0.00> <Spt= 0.00> <nCl=  0> <DB=   83.0000> <Mlp=   83.0000> <PB=84> 
---- Diving heuristic node with dive number = 1, fix depth = 3 and tabu list size = 1
Fixed projected solution = [x_1_0_1_OspV=1, x_1_99_1_OspV=1, x_1_137_1_OspV=1, x_1_188_1_OspV=1]
<DWph=2> <it=  1> <et=35.63> <Mt= 0.01> <Spt= 0.00> <nCl=  0> <DB=   83.0000> <Mlp=   83.0000> <PB=84> 
<DWph=1> <it=  2> <et=35.63> <Mt= 0.00> <Spt= 0.00> <nCl=  0> <DB=   83.0000> <Mlp=   83.0000> <PB=84> 
---- Diving heuristic node with dive number = 1, fix depth = 4 and tabu list size = 1
Fixed projected solution = [x_1_0_1_OspV=1, x_1_100_1_OspV=1, x_1_160_1_OspV=1, x_1_162_1_OspV=1]
<DWph=2> <it=  1> <et=35.64> <Mt= 0.00> <Spt= 0.00> <nCl=  0> <DB=   83.0000> <Mlp=   83.0000> <PB=84> 
<DWph=1> <it=  2> <et=35.64> <Mt= 0.00> <Spt= 0.00> <nCl=  0> <DB=   83.0000> <Mlp=   83.0000> <PB=84> 
---- Diving heuristic node with dive number = 1, fix depth = 5 and tabu list size = 1
Fixed projected solution = [x_1_0_1_OspV=1, x_1_84_1_OspV=1, x_1_136_1_OspV=1, x_1_198_1_OspV=1]
<DWph=2> <it=  1> <et=35.65> <Mt= 0.01> <Spt= 0.00> <nCl=  0> <DB=   83.0000> <Mlp=   83.0000> <PB=84> 
<DWph=1> <it=  2> <et=35.65> <Mt= 0.00> <Spt= 0.00> <nCl=  0> <DB=   83.0000> <Mlp=   83.0000> <PB=84> 
---- Diving heuristic node with dive number = 1, fix depth = 6 and tabu list size = 1
Fixed projected solution = [x_1_0_1_OspV=1, x_1_27_1_OspV=1, x_1_43_1_OspV=1, x_1_242_1_OspV=1]
<DWph=2> <it=  1> <et=35.67> <Mt= 0.00> <Spt= 0.00> <nCl=  0> <DB=   83.0000> <Mlp=   83.0000> <PB=84> 
<DWph=1> <it=  2> <et=35.67> <Mt= 0.00> <Spt= 0.00> <nCl=  0> <DB=   83.0000> <Mlp=   83.0000> <PB=84> 
---- Diving heuristic node with dive number = 1, fix depth = 7 and tabu list size = 1
Fixed projected solution = [x_1_0_1_OspV=1, x_1_52_1_OspV=1, x_1_91_1_OspV=1, x_1_226_1_OspV=1]
<DWph=2> <it=  1> <et=35.68> <Mt= 0.01> <Spt= 0.00> <nCl=  0> <DB=   83.0000> <Mlp=   83.0000> <PB=84> 
<DWph=1> <it=  2> <et=35.68> <Mt= 0.00> <Spt= 0.00> <nCl=  0> <DB=   83.0000> <Mlp=   83.0000> <PB=84> 
---- Diving heuristic node with dive number = 1, fix depth = 8 and tabu list size = 1
Fixed projected solution = [x_1_0_1_OspV=1, x_1_31_1_OspV=1, x_1_83_1_OspV=1, x_1_230_1_OspV=1]
<DWph=2> <it=  1> <et=35.69> <Mt= 0.00> <Spt= 0.00> <nCl=  0> <DB=   83.0000> <Mlp=   83.0000> <PB=84> 
<DWph=1> <it=  2> <et=35.70> <Mt= 0.00> <Spt= 0.00> <nCl=  0> <DB=   83.0000> <Mlp=   83.0000> <PB=84> 
---- Diving heuristic node with dive number = 1, fix depth = 9 and tabu list size = 1
Fixed projected solution = [x_1_0_1_OspV=1, x_1_3_1_OspV=1, x_1_170_1_OspV=1, x_1_175_1_OspV=1]
<DWph=2> <it=  1> <et=35.71> <Mt= 0.01> <Spt= 0.00> <nCl=  0> <DB=   83.0000> <Mlp=   83.0000> <PB=84> 
<DWph=1> <it=  2> <et=35.71> <Mt= 0.00> <Spt= 0.00> <nCl=  0> <DB=   83.0000> <Mlp=   83.0000> <PB=84> 
---- Diving heuristic node with dive number = 1, fix depth = 10 and tabu list size = 1
Fixed projected solution = [x_1_0_1_OspV=1, x_1_35_1_OspV=1, x_1_130_1_OspV=1, x_1_209_1_OspV=1]
<DWph=2> <it=  1> <et=35.72> <Mt= 0.00> <Spt= 0.00> <nCl=  0> <DB=   83.0000> <Mlp=   83.0000> <PB=84> 
<DWph=1> <it=  2> <et=35.72> <Mt= 0.00> <Spt= 0.00> <nCl=  0> <DB=   83.0000> <Mlp=   83.0000> <PB=84> 
---- Diving heuristic node with dive number = 1, fix depth = 11 and tabu list size = 1
Fixed projected solution = [x_1_0_1_OspV=1, x_1_108_1_OspV=1, x_1_129_1_OspV=1, x_1_192_1_OspV=1]
<DWph=2> <it=  1> <et=35.73> <Mt= 0.01> <Spt= 0.00> <nCl=  0> <DB=   83.0000> <Mlp=   83.0000> <PB=84> 
<DWph=1> <it=  2> <et=35.74> <Mt= 0.00> <Spt= 0.00> <nCl=  0> <DB=   83.0000> <Mlp=   83.0000> <PB=84> 
---- Diving heuristic node with dive number = 1, fix depth = 12 and tabu list size = 1
Fixed projected solution = [x_1_0_1_OspV=1, x_1_73_1_OspV=1, x_1_85_1_OspV=1, x_1_224_1_OspV=1]
<DWph=2> <it=  1> <et=35.75> <Mt= 0.01> <Spt= 0.00> <nCl=  0> <DB=   83.0000> <Mlp=   83.0000> <PB=84> 
<DWph=1> <it=  2> <et=35.75> <Mt= 0.00> <Spt= 0.00> <nCl=  0> <DB=   83.0000> <Mlp=   83.0000> <PB=84> 
---- Diving heuristic node with dive number = 1, fix depth = 13 and tabu list size = 1
Fixed projected solution = [x_1_0_1_OspV=1, x_1_24_1_OspV=1, x_1_154_1_OspV=1, x_1_190_1_OspV=1]
<DWph=2> <it=  1> <et=35.77> <Mt= 0.00> <Spt= 0.00> <nCl=  0> <DB=   83.0000> <Mlp=   83.0000> <PB=84> 
<DWph=1> <it=  2> <et=35.77> <Mt= 0.01> <Spt= 0.00> <nCl=  0> <DB=   83.0000> <Mlp=   83.0000> <PB=84> 
---- Diving heuristic node with dive number = 1, fix depth = 14 and tabu list size = 1
Fixed projected solution = [x_1_0_1_OspV=1, x_1_8_1_OspV=1, x_1_149_1_OspV=1, x_1_202_1_OspV=1]
<DWph=2> <it=  1> <et=35.78> <Mt= 0.01> <Spt= 0.00> <nCl=  0> <DB=   83.0000> <Mlp=   83.0000> <PB=84> 
<DWph=1> <it=  2> <et=35.78> <Mt= 0.00> <Spt= 0.00> <nCl=  0> <DB=   83.0000> <Mlp=   83.0000> <PB=84> 
---- Diving heuristic node with dive number = 1, fix depth = 14 and tabu list size = 1
Fixed projected solution = [x_1_0_1_OspV=1, x_1_12_1_OspV=1, x_1_57_1_OspV=1, x_1_239_1_OspV=1]
<DWph=2> <it=  1> <et=35.79> <Mt= 0.00> <Spt= 0.00> <nCl=  0> <DB=   83.0000> <Mlp=   83.0000> <PB=84> 
<DWph=1> <it=  2> <et=35.79> <Mt= 0.00> <Spt= 0.00> <nCl=  0> <DB=   83.0000> <Mlp=   83.0000> <PB=84> 
---- Diving heuristic node with dive number = 1, fix depth = 15 and tabu list size = 1
Fixed projected solution = [x_1_0_1_OspV=1, x_1_76_1_OspV=1, x_1_148_1_OspV=1, x_1_189_1_OspV=1]
<DWph=2> <it=  1> <et=35.80> <Mt= 0.00> <Spt= 0.00> <nCl=  0> <DB=   83.0000> <Mlp=   83.0000> <PB=84> 
<DWph=1> <it=  2> <et=35.80> <Mt= 0.00> <Spt= 0.00> <nCl=  0> <DB=   83.0000> <Mlp=   83.0000> <PB=84> 
---- Diving heuristic node with dive number = 1, fix depth = 16 and tabu list size = 1
Fixed projected solution = [x_1_0_1_OspV=1, x_1_7_1_OspV=1, x_1_44_1_OspV=1, x_1_247_1_OspV=1]
<DWph=2> <it=  1> <et=35.82> <Mt= 0.01> <Spt= 0.00> <nCl=  0> <DB=   83.0000> <Mlp=   83.0000> <PB=84> 
<DWph=1> <it=  2> <et=35.82> <Mt= 0.00> <Spt= 0.00> <nCl=  0> <DB=   83.0000> <Mlp=   83.0000> <PB=84> 
---- Diving heuristic node with dive number = 1, fix depth = 17 and tabu list size = 1
Fixed projected solution = [x_1_0_1_OspV=1, x_1_9_1_OspV=1, x_1_172_1_OspV=1, x_1_174_1_OspV=1]
<DWph=2> <it=  1> <et=35.84> <Mt= 0.01> <Spt= 0.00> <nCl=  0> <DB=   83.0000> <Mlp=   83.0000> <PB=84> 
<DWph=1> <it=  2> <et=35.84> <Mt= 0.00> <Spt= 0.00> <nCl=  0> <DB=   83.0000> <Mlp=   83.0000> <PB=84> 
---- Diving heuristic node with dive number = 1, fix depth = 18 and tabu list size = 1
Fixed projected solution = [x_1_0_1_OspV=1, x_1_110_1_OspV=1, x_1_123_1_OspV=1, x_1_196_1_OspV=1]
<DWph=2> <it=  1> <et=35.86> <Mt= 0.01> <Spt= 0.00> <nCl=  0> <DB=   83.0000> <Mlp=   83.0000> <PB=84> 
<DWph=1> <it=  2> <et=35.86> <Mt= 0.00> <Spt= 0.00> <nCl=  0> <DB=   83.0000> <Mlp=   83.0000> <PB=84> 
---- Diving heuristic node with dive number = 1, fix depth = 19 and tabu list size = 1
Fixed projected solution = [x_1_0_1_OspV=1, x_1_74_1_OspV=1, x_1_139_1_OspV=1, x_1_201_1_OspV=1]
<DWph=2> <it=  1> <et=35.88> <Mt= 0.02> <Spt= 0.00> <nCl=  0> <DB=   83.0000> <Mlp=   83.0000> <PB=84> 
<DWph=1> <it=  2> <et=35.88> <Mt= 0.00> <Spt= 0.00> <nCl=  0> <DB=   83.0000> <Mlp=   83.0000> <PB=84> 
---- Diving heuristic node with dive number = 1, fix depth = 20 and tabu list size = 1
Fixed projected solution = [x_1_0_1_OspV=1, x_1_23_1_OspV=1, x_1_166_1_OspV=1, x_1_181_1_OspV=1]
<DWph=2> <it=  1> <et=35.90> <Mt= 0.01> <Spt= 0.00> <nCl=  0> <DB=   83.0000> <Mlp=   83.0000> <PB=84> 
<DWph=1> <it=  2> <et=35.90> <Mt= 0.00> <Spt= 0.00> <nCl=  0> <DB=   83.0000> <Mlp=   83.0000> <PB=84> 
---- Diving heuristic node with dive number = 1, fix depth = 21 and tabu list size = 1
Fixed projected solution = [x_1_0_1_OspV=1, x_1_14_1_OspV=1, x_1_131_1_OspV=1, x_1_211_1_OspV=1]
<DWph=2> <it=  1> <et=35.93> <Mt= 0.02> <Spt= 0.00> <nCl=  0> <DB=   83.0000> <Mlp=   83.0000> <PB=84> 
<DWph=1> <it=  2> <et=35.93> <Mt= 0.00> <Spt= 0.00> <nCl=  0> <DB=   83.0000> <Mlp=   83.0000> <PB=84> 
---- Diving heuristic node with dive number = 1, fix depth = 22 and tabu list size = 1
Fixed projected solution = [x_1_0_1_OspV=1, x_1_58_1_OspV=1, x_1_118_1_OspV=1, x_1_214_1_OspV=1]
<DWph=2> <it=  1> <et=35.95> <Mt= 0.01> <Spt= 0.00> <nCl=  0> <DB=   83.0000> <Mlp=   83.0000> <PB=84> 
<DWph=1> <it=  2> <et=35.95> <Mt= 0.00> <Spt= 0.00> <nCl=  0> <DB=   83.0000> <Mlp=   83.0000> <PB=84> 
---- Diving heuristic node with dive number = 1, fix depth = 23 and tabu list size = 1
Fixed projected solution = [x_1_0_1_OspV=1, x_1_63_1_OspV=1, x_1_159_1_OspV=1, x_1_178_1_OspV=1]
<DWph=2> <it=  1> <et=35.97> <Mt= 0.01> <Spt= 0.00> <nCl=  0> <DB=   83.0000> <Mlp=   83.0000> <PB=84> 
<DWph=1> <it=  2> <et=35.97> <Mt= 0.01> <Spt= 0.00> <nCl=  0> <DB=   83.0000> <Mlp=   83.0000> <PB=84> 
---- Diving heuristic node with dive number = 1, fix depth = 24 and tabu list size = 1
Fixed projected solution = [x_1_0_1_OspV=1, x_1_46_1_OspV=1, x_1_60_1_OspV=1, x_1_234_1_OspV=1]
<DWph=2> <it=  1> <et=36.00> <Mt= 0.02> <Spt= 0.00> <nCl=  0> <DB=   83.0000> <Mlp=   83.0000> <PB=84> 
<DWph=1> <it=  2> <et=36.00> <Mt= 0.00> <Spt= 0.00> <nCl=  0> <DB=   83.0000> <Mlp=   83.0000> <PB=84> 
---- Diving heuristic node with dive number = 1, fix depth = 25 and tabu list size = 1
Fixed projected solution = [x_1_0_1_OspV=1, x_1_88_1_OspV=1, x_1_134_1_OspV=1, x_1_195_1_OspV=1]
<DWph=2> <it=  1> <et=36.02> <Mt= 0.01> <Spt= 0.00> <nCl=  0> <DB=   83.0000> <Mlp=   83.0000> <PB=84> 
<DWph=1> <it=  2> <et=36.02> <Mt= 0.00> <Spt= 0.00> <nCl=  0> <DB=   83.0000> <Mlp=   83.0000> <PB=84> 
---- Diving heuristic node with dive number = 1, fix depth = 26 and tabu list size = 1
Fixed projected solution = [x_1_0_1_OspV=1, x_1_2_1_OspV=1, x_1_38_1_OspV=1, x_1_248_1_OspV=1]
<DWph=2> <it=  1> <et=36.04> <Mt= 0.01> <Spt= 0.00> <nCl=  0> <DB=   83.0000> <Mlp=   83.0000> <PB=84> 
<DWph=1> <it=  2> <et=36.04> <Mt= 0.00> <Spt= 0.00> <nCl=  0> <DB=   83.0000> <Mlp=   83.0000> <PB=84> 
---- Diving heuristic node with dive number = 1, fix depth = 27 and tabu list size = 1
Fixed projected solution = [x_1_0_1_OspV=1, x_1_92_1_OspV=1, x_1_150_1_OspV=1, x_1_180_1_OspV=1]
<DWph=2> <it=  1> <et=36.06> <Mt= 0.02> <Spt= 0.00> <nCl=  0> <DB=   83.0000> <Mlp=   83.0000> <PB=84> 
<DWph=1> <it=  2> <et=36.06> <Mt= 0.00> <Spt= 0.00> <nCl=  0> <DB=   83.0000> <Mlp=   83.0000> <PB=84> 
---- Diving heuristic node with dive number = 1, fix depth = 28 and tabu list size = 1
Fixed projected solution = [x_1_0_1_OspV=1, x_1_104_1_OspV=1, x_1_126_1_OspV=1, x_1_194_1_OspV=1]
<DWph=2> <it=  1> <et=36.09> <Mt= 0.02> <Spt= 0.00> <nCl=  0> <DB=   83.0000> <Mlp=   83.0000> <PB=84> 
<DWph=1> <it=  2> <et=36.09> <Mt= 0.00> <Spt= 0.00> <nCl=  0> <DB=   83.0000> <Mlp=   83.0000> <PB=84> 
---- Diving heuristic node with dive number = 1, fix depth = 29 and tabu list size = 1
Fixed projected solution = [x_1_0_1_OspV=1, x_1_29_1_OspV=1, x_1_115_1_OspV=1, x_1_219_1_OspV=1]
<DWph=2> <it=  1> <et=36.11> <Mt= 0.01> <Spt= 0.00> <nCl=  0> <DB=   83.0000> <Mlp=   83.0000> <PB=84> 
<DWph=1> <it=  2> <et=36.11> <Mt= 0.01> <Spt= 0.00> <nCl=  0> <DB=   83.0000> <Mlp=   83.0000> <PB=84> 
---- Diving heuristic node with dive number = 1, fix depth = 30 and tabu list size = 1
Fixed projected solution = [x_1_0_1_OspV=1, x_1_51_1_OspV=1, x_1_164_1_OspV=1, x_1_177_1_OspV=1]
<DWph=2> <it=  1> <et=36.14> <Mt= 0.01> <Spt= 0.00> <nCl=  0> <DB=   83.0000> <Mlp=   83.0000> <PB=84> 
<DWph=1> <it=  2> <et=36.14> <Mt= 0.00> <Spt= 0.00> <nCl=  0> <DB=   83.0000> <Mlp=   83.0000> <PB=84> 
---- Diving heuristic node with dive number = 1, fix depth = 31 and tabu list size = 1
Fixed projected solution = [x_1_0_1_OspV=1, x_1_79_1_OspV=1, x_1_90_1_OspV=1, x_1_218_1_OspV=1]
<DWph=2> <it=  1> <et=36.16> <Mt= 0.01> <Spt= 0.00> <nCl=  0> <DB=   83.0000> <Mlp=   83.0000> <PB=84> 
<DWph=1> <it=  2> <et=36.16> <Mt= 0.00> <Spt= 0.00> <nCl=  0> <DB=   83.0000> <Mlp=   83.0000> <PB=84> 
---- Diving heuristic node with dive number = 1, fix depth = 32 and tabu list size = 1
Fixed projected solution = [x_1_0_1_OspV=1, x_1_105_1_OspV=1, x_1_140_1_OspV=1, x_1_183_1_OspV=1]
<DWph=2> <it=  1> <et=36.18> <Mt= 0.02> <Spt= 0.00> <nCl=  0> <DB=   83.0000> <Mlp=   83.0000> <PB=84> 
<DWph=1> <it=  2> <et=36.18> <Mt= 0.00> <Spt= 0.00> <nCl=  0> <DB=   83.0000> <Mlp=   83.0000> <PB=84> 
---- Diving heuristic node with dive number = 1, fix depth = 33 and tabu list size = 1
Fixed projected solution = [x_1_0_1_OspV=1, x_1_77_1_OspV=1, x_1_165_1_OspV=1, x_1_169_1_OspV=1]
<DWph=2> <it=  2> <et=36.29> <Mt= 0.03> <Spt= 0.07> <nCl=100> <DB=   82.8477> <Mlp=   83.0000> <PB=84> 
<DWph=1> <it=  3> <et=36.29> <Mt= 0.00> <Spt= 0.00> <nCl=  0> <DB=   83.0000> <Mlp=   83.0000> <PB=84> 
---- Diving heuristic node with dive number = 1, fix depth = 34 and tabu list size = 1
Fixed projected solution = [x_1_0_1_OspV=1, x_1_25_1_OspV=1, x_1_146_1_OspV=1, x_1_205_1_OspV=1]
<DWph=2> <it=  1> <et=36.33> <Mt= 0.02> <Spt= 0.00> <nCl=  0> <DB=   83.0000> <Mlp=   83.0000> <PB=84> 
<DWph=1> <it=  2> <et=36.33> <Mt= 0.00> <Spt= 0.00> <nCl=  0> <DB=   83.0000> <Mlp=   83.0000> <PB=84> 
---- Diving heuristic node with dive number = 1, fix depth = 35 and tabu list size = 1
Fixed projected solution = [x_1_0_1_OspV=1, x_1_53_1_OspV=1, x_1_119_1_OspV=1, x_1_213_1_OspV=1]
<DWph=2> <it=  1> <et=36.36> <Mt= 0.02> <Spt= 0.00> <nCl=  0> <DB=   83.0000> <Mlp=   83.0000> <PB=84> 
<DWph=1> <it=  2> <et=36.36> <Mt= 0.00> <Spt= 0.00> <nCl=  0> <DB=   83.0000> <Mlp=   83.0000> <PB=84> 
---- Diving heuristic node with dive number = 1, fix depth = 36 and tabu list size = 1
Fixed projected solution = [x_1_0_1_OspV=1, x_1_18_1_OspV=1, x_1_47_1_OspV=1, x_1_243_1_OspV=1]
<DWph=2> <it=  1> <et=36.38> <Mt= 0.01> <Spt= 0.00> <nCl=  0> <DB=   83.0000> <Mlp=   83.0000> <PB=84> 
<DWph=1> <it=  2> <et=36.38> <Mt= 0.00> <Spt= 0.00> <nCl=  0> <DB=   83.0000> <Mlp=   83.0000> <PB=84> 
---- Diving heuristic node with dive number = 1, fix depth = 37 and tabu list size = 1
Fixed projected solution = [x_1_0_1_OspV=1, x_1_40_1_OspV=1, x_1_117_1_OspV=1, x_1_217_1_OspV=1]
<DWph=2> <it=  1> <et=36.42> <Mt= 0.04> <Spt= 0.00> <nCl=  0> <DB=   83.0000> <Mlp=   83.0000> <PB=84> 
<DWph=1> <it=  2> <et=36.42> <Mt= 0.00> <Spt= 0.00> <nCl=  0> <DB=   83.0000> <Mlp=   83.0000> <PB=84> 
---- Diving heuristic node with dive number = 1, fix depth = 38 and tabu list size = 1
Fixed projected solution = [x_1_0_1_OspV=1, x_1_21_1_OspV=1, x_1_147_1_OspV=1, x_1_203_1_OspV=1]
<DWph=2> <it=  2> <et=36.55> <Mt= 0.04> <Spt= 0.08> <nCl=100> <DB=   82.3698> <Mlp=   83.0000> <PB=84> 
<DWph=1> <it=  3> <et=36.55> <Mt= 0.00> <Spt= 0.00> <nCl=  0> <DB=   83.0000> <Mlp=   83.0000> <PB=84> 
---- Diving heuristic node with dive number = 1, fix depth = 39 and tabu list size = 1
Fixed projected solution = [x_1_0_1_OspV=1, x_1_132_1_OspV=1, x_1_143_1_OspV=1, x_1_161_1_OspV=1]
<DWph=2> <it=  1> <et=36.58> <Mt= 0.02> <Spt= 0.00> <nCl=  0> <DB=   83.0000> <Mlp=   83.0000> <PB=84> 
<DWph=1> <it=  2> <et=36.58> <Mt= 0.00> <Spt= 0.00> <nCl=  0> <DB=   83.0000> <Mlp=   83.0000> <PB=84> 
---- Diving heuristic node with dive number = 1, fix depth = 40 and tabu list size = 1
Fixed projected solution = [x_1_0_1_OspV=1, x_1_69_1_OspV=1, x_1_89_1_OspV=1, x_1_220_1_OspV=1]
<DWph=2> <it=  1> <et=36.61> <Mt= 0.02> <Spt= 0.00> <nCl=  0> <DB=   83.0000> <Mlp=   83.0000> <PB=84> 
<DWph=1> <it=  2> <et=36.61> <Mt= 0.00> <Spt= 0.00> <nCl=  0> <DB=   83.0000> <Mlp=   83.0000> <PB=84> 
---- Diving heuristic node with dive number = 1, fix depth = 41 and tabu list size = 1
Fixed projected solution = [x_1_0_1_OspV=1, x_1_28_1_OspV=1, x_1_65_1_OspV=1, x_1_236_1_OspV=1]
<DWph=2> <it=  1> <et=36.63> <Mt= 0.02> <Spt= 0.00> <nCl=  0> <DB=   83.0000> <Mlp=   83.0000> <PB=84> 
<DWph=1> <it=  2> <et=36.64> <Mt= 0.00> <Spt= 0.00> <nCl=  0> <DB=   83.0000> <Mlp=   83.0000> <PB=84> 
---- Diving heuristic node with dive number = 1, fix depth = 42 and tabu list size = 1
Fixed projected solution = [x_1_0_1_OspV=1, x_1_19_1_OspV=1, x_1_153_1_OspV=1, x_1_193_1_OspV=1]
<DWph=2> <it=  2> <et=36.76> <Mt= 0.04> <Spt= 0.07> <nCl=100> <DB=   82.7005> <Mlp=   83.0000> <PB=84> 
<DWph=1> <it=  3> <et=36.76> <Mt= 0.00> <Spt= 0.00> <nCl=  0> <DB=   83.0000> <Mlp=   83.0000> <PB=84> 
---- Diving heuristic node with dive number = 1, fix depth = 43 and tabu list size = 1
Fixed projected solution = [x_1_0_1_OspV=1, x_1_55_1_OspV=1, x_1_125_1_OspV=1, x_1_208_1_OspV=1]
<DWph=2> <it=  1> <et=36.80> <Mt= 0.03> <Spt= 0.00> <nCl=  0> <DB=   83.0000> <Mlp=   83.0000> <PB=84> 
<DWph=1> <it=  2> <et=36.80> <Mt= 0.00> <Spt= 0.00> <nCl=  0> <DB=   83.0000> <Mlp=   83.0000> <PB=84> 
---- Diving heuristic node with dive number = 1, fix depth = 44 and tabu list size = 1
Fixed projected solution = [x_1_0_1_OspV=1, x_1_56_1_OspV=1, x_1_96_1_OspV=1, x_1_222_1_OspV=1]
<DWph=2> <it=  1> <et=36.83> <Mt= 0.02> <Spt= 0.00> <nCl=  0> <DB=   83.0000> <Mlp=   83.0000> <PB=84> 
<DWph=1> <it=  2> <et=36.83> <Mt= 0.00> <Spt= 0.00> <nCl=  0> <DB=   83.0000> <Mlp=   83.0000> <PB=84> 
---- Diving heuristic node with dive number = 1, fix depth = 45 and tabu list size = 1
Fixed projected solution = [x_1_0_1_OspV=1, x_1_42_1_OspV=1, x_1_72_1_OspV=1, x_1_233_1_OspV=1]
<DWph=2> <it=  1> <et=36.86> <Mt= 0.03> <Spt= 0.00> <nCl=  0> <DB=   83.0000> <Mlp=   83.0000> <PB=84> 
<DWph=1> <it=  2> <et=36.86> <Mt= 0.00> <Spt= 0.00> <nCl=  0> <DB=   83.0000> <Mlp=   83.0000> <PB=84> 
---- Diving heuristic node with dive number = 1, fix depth = 46 and tabu list size = 1
Fixed projected solution = [x_1_0_1_OspV=1, x_1_133_1_OspV=1, x_1_151_1_OspV=1, x_1_152_1_OspV=1]
<DWph=2> <it=  1> <et=36.90> <Mt= 0.03> <Spt= 0.00> <nCl=  0> <DB=   83.0000> <Mlp=   83.0000> <PB=84> 
<DWph=1> <it=  2> <et=36.90> <Mt= 0.00> <Spt= 0.00> <nCl=  0> <DB=   83.0000> <Mlp=   83.0000> <PB=84> 
---- Diving heuristic node with dive number = 1, fix depth = 46 and tabu list size = 1
Fixed projected solution = [x_1_0_1_OspV=1, x_1_15_1_OspV=1, x_1_36_1_OspV=1, x_1_245_1_OspV=1]
<DWph=2> <it=  1> <et=36.91> <Mt= 0.00> <Spt= 0.00> <nCl=  0> <DB=   83.0000> <Mlp=   83.0000> <PB=84> 
<DWph=1> <it=  2> <et=36.91> <Mt= 0.00> <Spt= 0.00> <nCl=  0> <DB=   83.0000> <Mlp=   83.0000> <PB=84> 
---- Diving heuristic node with dive number = 1, fix depth = 47 and tabu list size = 1
Fixed projected solution = [x_1_0_1_OspV=1, x_1_32_1_OspV=1, x_1_49_1_OspV=1, x_1_238_1_OspV=1]
<DWph=2> <it=  1> <et=36.95> <Mt= 0.03> <Spt= 0.00> <nCl=  0> <DB=   83.0000> <Mlp=   83.0000> <PB=84> 
<DWph=1> <it=  2> <et=36.95> <Mt= 0.00> <Spt= 0.00> <nCl=  0> <DB=   83.0000> <Mlp=   83.0000> <PB=84> 
---- Diving heuristic node with dive number = 1, fix depth = 48 and tabu list size = 1
Fixed projected solution = [x_1_0_1_OspV=1, x_1_10_1_OspV=1, x_1_48_1_OspV=1, x_1_244_1_OspV=1]
<DWph=2> <it=  1> <et=36.99> <Mt= 0.03> <Spt= 0.00> <nCl=  0> <DB=   83.0000> <Mlp=   83.0000> <PB=84> 
<DWph=1> <it=  2> <et=36.99> <Mt= 0.00> <Spt= 0.00> <nCl=  0> <DB=   83.0000> <Mlp=   83.0000> <PB=84> 
---- Diving heuristic node with dive number = 1, fix depth = 49 and tabu list size = 1
Fixed projected solution = [x_1_0_1_OspV=1, x_1_26_1_OspV=1, x_1_124_1_OspV=1, x_1_215_1_OspV=1]
<DWph=2> <it=  2> <et=37.11> <Mt= 0.05> <Spt= 0.07> <nCl=100> <DB=   82.6790> <Mlp=   83.0000> <PB=84> 
<DWph=1> <it=  3> <et=37.11> <Mt= 0.00> <Spt= 0.00> <nCl=  0> <DB=   83.0000> <Mlp=   83.0000> <PB=84> 
---- Diving heuristic node with dive number = 1, fix depth = 50 and tabu list size = 1
Fixed projected solution = [x_1_0_1_OspV=1, x_1_97_1_OspV=1, x_1_122_1_OspV=1, x_1_204_1_OspV=1]
<DWph=2> <it=  1> <et=37.16> <Mt= 0.03> <Spt= 0.00> <nCl=  0> <DB=   83.0000> <Mlp=   83.0000> <PB=84> 
<DWph=1> <it=  2> <et=37.16> <Mt= 0.00> <Spt= 0.00> <nCl=  0> <DB=   83.0000> <Mlp=   83.0000> <PB=84> 
---- Diving heuristic node with dive number = 1, fix depth = 51 and tabu list size = 1
Fixed projected solution = [x_1_0_1_OspV=1, x_1_109_1_OspV=1, x_1_113_1_OspV=1, x_1_206_1_OspV=1]
<DWph=2> <it=  2> <et=37.31> <Mt= 0.07> <Spt= 0.08> <nCl=100> <DB=   82.7431> <Mlp=   83.0000> <PB=84> 
<DWph=1> <it=  3> <et=37.31> <Mt= 0.00> <Spt= 0.00> <nCl=  0> <DB=   83.0000> <Mlp=   83.0000> <PB=84> 
---- Diving heuristic node with dive number = 1, fix depth = 52 and tabu list size = 1
Fixed projected solution = [x_1_0_1_OspV=1, x_1_70_1_OspV=1, x_1_112_1_OspV=1, x_1_216_1_OspV=1]
<DWph=2> <it=  1> <et=37.34> <Mt= 0.01> <Spt= 0.00> <nCl=  0> <DB=   83.0000> <Mlp=   83.0000> <PB=84> 
<DWph=1> <it=  2> <et=37.34> <Mt= 0.00> <Spt= 0.00> <nCl=  0> <DB=   83.0000> <Mlp=   83.0000> <PB=84> 
---- Diving heuristic node with dive number = 1, fix depth = 52 and tabu list size = 1
Fixed projected solution = [x_1_0_1_OspV=1, x_1_94_1_OspV=1, x_1_142_1_OspV=1, x_1_187_1_OspV=1]
<DWph=2> <it=  1> <et=37.35> <Mt= 0.01> <Spt= 0.00> <nCl=  0> <DB=   83.0000> <Mlp=   83.0000> <PB=84> 
<DWph=1> <it=  2> <et=37.35> <Mt= 0.00> <Spt= 0.00> <nCl=  0> <DB=   83.0000> <Mlp=   83.0000> <PB=84> 
---- Diving heuristic node with dive number = 1, fix depth = 52 and tabu list size = 1
Fixed projected solution = [x_1_0_1_OspV=1, x_1_41_1_OspV=1, x_1_98_1_OspV=1, x_1_223_1_OspV=1]
<DWph=2> <it=  1> <et=37.36> <Mt= 0.00> <Spt= 0.00> <nCl=  0> <DB=   83.0000> <Mlp=   83.0000> <PB=84> 
<DWph=1> <it=  2> <et=37.36> <Mt= 0.00> <Spt= 0.00> <nCl=  0> <DB=   83.0000> <Mlp=   83.0000> <PB=84> 
---- Diving heuristic node with dive number = 1, fix depth = 53 and tabu list size = 1
Fixed projected solution = [x_1_0_1_OspV=1, x_1_11_1_OspV=1, x_1_168_1_OspV=1, x_1_179_1_OspV=1]
<DWph=2> <it=  9> <et=38.60> <Mt= 0.10> <Spt= 1.12> <nCl=439> <DB=   83.0003> <Mlp=   83.0003> <PB=84> 
<DWph=1> <it= 10> <et=38.68> <Mt= 0.01> <Spt= 0.08> <nCl= 14> <DB=   82.7837> <Mlp=   83.0003> <PB=84> 
<DWph=1> <it= 14> <et=39.07> <Mt= 0.01> <Spt= 0.38> <nCl= 12> <DB=   83.0003> <Mlp=   83.0003> <PB=84> 
---- Diving heuristic node with dive number = 1, fix depth = 54 and tabu list size = 1
Fixed projected solution = [x_1_0_1_OspV=1, x_1_81_1_OspV=1, x_1_158_1_OspV=1, x_1_171_1_OspV=1]
<DWph=2> <it= 10> <et=40.06> <Mt= 0.05> <Spt= 0.91> <nCl= 79> <DB=   82.9610> <Mlp=   83.0008> <PB=84> 
<DWph=2> <it= 11> <et=40.29> <Mt= 0.00> <Spt= 0.23> <nCl=  0> <DB=   83.0007> <Mlp=   83.0007> <PB=84> 
<DWph=1> <it= 15> <et=40.76> <Mt= 0.01> <Spt= 0.46> <nCl=  6> <DB=   83.0007> <Mlp=   83.0007> <PB=84> 
---- Diving heuristic node with dive number = 1, fix depth = 54 and tabu list size = 1
Fixed projected solution = [x_1_0_1_OspV=1, x_1_37_1_OspV=1, x_1_87_1_OspV=1, x_1_228_1_OspV=1]
<DWph=2> <it=  1> <et=40.92> <Mt= 0.00> <Spt= 0.14> <nCl=  0> <DB=   83.0007> <Mlp=   83.0007> <PB=84> 
<DWph=1> <it=  2> <et=41.08> <Mt= 0.00> <Spt= 0.16> <nCl=  0> <DB=   83.0007> <Mlp=   83.0007> <PB=84> 
---- Diving heuristic node with dive number = 1, fix depth = 55 and tabu list size = 1
Fixed projected solution = [x_1_0_1_OspV=1, x_1_1_1_OspV=1, x_1_30_1_OspV=1, x_1_249_1_OspV=1]
<DWph=2> <it= 10> <et=42.14> <Mt= 0.07> <Spt= 0.97> <nCl=129> <DB=   82.9585> <Mlp=   83.0007> <PB=84> 
<DWph=2> <it= 11> <et=42.29> <Mt= 0.00> <Spt= 0.15> <nCl=  0> <DB=   83.0007> <Mlp=   83.0007> <PB=84> 
<DWph=1> <it= 13> <et=42.53> <Mt= 0.00> <Spt= 0.23> <nCl=  2> <DB=   83.0007> <Mlp=   83.0007> <PB=84> 
---- Diving heuristic node with dive number = 1, fix depth = 56 and tabu list size = 1
Fixed projected solution = [x_1_0_1_OspV=1, x_1_50_1_OspV=1, x_1_156_1_OspV=1, x_1_185_1_OspV=1]
<DWph=2> <it=  8> <et=43.57> <Mt= 0.12> <Spt= 0.91> <nCl=143> <DB=   83.0014> <Mlp=   83.0014> <PB=84> 
<DWph=1> <it=  9> <et=43.73> <Mt= 0.00> <Spt= 0.15> <nCl=  0> <DB=   83.0014> <Mlp=   83.0014> <PB=84> 
---- Diving heuristic node with dive number = 1, fix depth = 57 and tabu list size = 1
Fixed projected solution = [x_1_0_1_OspV=1, x_1_103_1_OspV=1, x_1_120_1_OspV=1, x_1_199_1_OspV=1]
<DWph=2> <it=  1> <et=43.92> <Mt= 0.02> <Spt= 0.15> <nCl=  0> <DB=   83.0014> <Mlp=   83.0014> <PB=84> 
<DWph=1> <it=  2> <et=44.07> <Mt= 0.01> <Spt= 0.15> <nCl=  0> <DB=   83.0014> <Mlp=   83.0014> <PB=84> 
---- Diving heuristic node with dive number = 1, fix depth = 58 and tabu list size = 1
Fixed projected solution = [x_1_0_1_OspV=1, x_1_22_1_OspV=1, x_1_75_1_OspV=1, x_1_235_1_OspV=1]
<DWph=2> <it=  3> <et=44.53> <Mt= 0.06> <Spt= 0.38> <nCl=  3> <DB=   83.0020> <Mlp=   83.0020> <PB=84> 
<DWph=1> <it=  4> <et=44.68> <Mt= 0.00> <Spt= 0.15> <nCl=  0> <DB=   83.0020> <Mlp=   83.0020> <PB=84> 
---- Diving heuristic node with dive number = 1, fix depth = 59 and tabu list size = 1
Fixed projected solution = [x_1_0_1_OspV=1, x_1_20_1_OspV=1, x_1_157_1_OspV=1, x_1_186_1_OspV=1]
<DWph=2> <it=  5> <et=45.51> <Mt= 0.06> <Spt= 0.59> <nCl= 26> <DB=   83.0022> <Mlp=   83.0022> <PB=84> 
<DWph=1> <it=  8> <et=45.81> <Mt= 0.01> <Spt= 0.29> <nCl= 10> <DB=   83.0022> <Mlp=   83.0022> <PB=84> 
---- Diving heuristic node with dive number = 1, fix depth = 60 and tabu list size = 1
Fixed projected solution = [x_1_0_1_OspV=1, x_1_17_1_OspV=1, x_1_34_1_OspV=1, x_1_246_1_OspV=1]
<DWph=2> <it=  8> <et=46.81> <Mt= 0.13> <Spt= 0.85> <nCl=265> <DB=   83.0023> <Mlp=   83.0023> <PB=84> 
<DWph=1> <it= 10> <et=46.96> <Mt= 0.01> <Spt= 0.14> <nCl=  3> <DB=   82.7645> <Mlp=   83.0023> <PB=84> 
<DWph=1> <it= 11> <et=47.11> <Mt= 0.00> <Spt= 0.15> <nCl=  0> <DB=   83.0023> <Mlp=   83.0023> <PB=84> 
---- Diving heuristic node with dive number = 1, fix depth = 61 and tabu list size = 1
Fixed projected solution = [x_1_0_1_OspV=1, x_1_5_1_OspV=1, x_1_59_1_OspV=1, x_1_241_1_OspV=1]
<DWph=2> <it=  8> <et=48.12> <Mt= 0.03> <Spt= 0.96> <nCl=129> <DB=   83.0027> <Mlp=   83.0027> <PB=84> 
<DWph=1> <it=  9> <et=48.26> <Mt= 0.00> <Spt= 0.15> <nCl=  0> <DB=   83.0027> <Mlp=   83.0027> <PB=84> 
---- Diving heuristic node with dive number = 1, fix depth = 62 and tabu list size = 1
Fixed projected solution = [x_1_0_1_OspV=1, x_1_4_1_OspV=1, x_1_62_1_OspV=1, x_1_240_1_OspV=1]
<DWph=2> <it=  7> <et=49.06> <Mt= 0.04> <Spt= 0.74> <nCl=284> <DB=   83.0031> <Mlp=   83.0031> <PB=84> 
<DWph=1> <it=  8> <et=49.29> <Mt= 0.00> <Spt= 0.22> <nCl=  0> <DB=   83.0031> <Mlp=   83.0031> <PB=84> 
---- Diving heuristic node with dive number = 1, fix depth = 63 and tabu list size = 1
Fixed projected solution = [x_1_0_1_OspV=1, x_1_116_1_OspV=1, x_1_135_1_OspV=1, x_1_184_1_OspV=1]
<DWph=2> <it=  9> <et=50.32> <Mt= 0.06> <Spt= 0.96> <nCl=136> <DB=   83.0041> <Mlp=   83.0041> <PB=84> 
<DWph=1> <it= 10> <et=50.40> <Mt= 0.00> <Spt= 0.08> <nCl=  1> <DB=   82.2798> <Mlp=   83.0041> <PB=84> 
<DWph=1> <it= 11> <et=50.55> <Mt= 0.01> <Spt= 0.14> <nCl=  0> <DB=   83.0041> <Mlp=   83.0041> <PB=84> 
---- Diving heuristic node with dive number = 1, fix depth = 64 and tabu list size = 1
Fixed projected solution = [x_1_0_1_OspV=1, x_1_106_1_OspV=1, x_1_111_1_OspV=1, x_1_207_1_OspV=1]
<DWph=2> <it=  1> <et=50.72> <Mt= 0.00> <Spt= 0.15> <nCl=  0> <DB=   83.0041> <Mlp=   83.0041> <PB=84> 
<DWph=1> <it=  2> <et=50.87> <Mt= 0.00> <Spt= 0.15> <nCl=  0> <DB=   83.0041> <Mlp=   83.0041> <PB=84> 
---- Diving heuristic node with dive number = 1, fix depth = 65 and tabu list size = 1
Fixed projected solution = [x_1_0_1_OspV=1, x_1_64_1_OspV=1, x_1_121_1_OspV=1, x_1_210_1_OspV=1]
<DWph=2> <it= 10> <et=51.83> <Mt= 0.13> <Spt= 0.81> <nCl=400> <DB=   82.7367> <Mlp=   83.0081> <PB=84> 
<DWph=2> <it= 20> <et=52.99> <Mt= 0.03> <Spt= 1.13> <nCl= 38> <DB=   83.0081> <Mlp=   83.0081> <PB=84> 
<DWph=1> <it= 22> <et=53.30> <Mt= 0.00> <Spt= 0.31> <nCl=  1> <DB=   83.0081> <Mlp=   83.0081> <PB=84> 
---- Diving heuristic node with dive number = 1, fix depth = 66 and tabu list size = 1
Fixed projected solution = [x_1_0_1_OspV=1, x_1_16_1_OspV=1, x_1_167_1_OspV=1, x_1_182_1_OspV=1]
<DWph=2> <it=  6> <et=54.07> <Mt= 0.08> <Spt= 0.66> <nCl=167> <DB=   83.0156> <Mlp=   83.0156> <PB=84> 
<DWph=1> <it=  7> <et=54.29> <Mt= 0.00> <Spt= 0.22> <nCl=  0> <DB=   83.0156> <Mlp=   83.0156> <PB=84> 
---- Diving heuristic node with dive number = 1, fix depth = 67 and tabu list size = 1
Fixed projected solution = [x_1_0_1_OspV=1, x_1_6_1_OspV=1, x_1_107_1_OspV=1, x_1_225_1_OspV=1]
<DWph=2> <it=  2> <et=54.63> <Mt= 0.04> <Spt= 0.29> <nCl= 46> <DB=   83.0164> <Mlp=   83.0164> <PB=84> 
<DWph=1> <it=  3> <et=54.78> <Mt= 0.00> <Spt= 0.15> <nCl=  0> <DB=   83.0164> <Mlp=   83.0164> <PB=84> 
---- Diving heuristic node with dive number = 1, fix depth = 68 and tabu list size = 1
Fixed projected solution = [x_1_0_1_OspV=1, x_1_114_1_OspV=1, x_1_145_1_OspV=1, x_1_173_1_OspV=1]
<DWph=2> <it= 10> <et=55.86> <Mt= 0.10> <Spt= 0.97> <nCl=237> <DB=   82.4122> <Mlp=   83.0172> <PB=84> 
<DWph=2> <it= 12> <et=56.17> <Mt= 0.00> <Spt= 0.29> <nCl=  1> <DB=   83.0172> <Mlp=   83.0172> <PB=84> 
<DWph=1> <it= 15> <et=56.47> <Mt= 0.01> <Spt= 0.30> <nCl=  3> <DB=   83.0172> <Mlp=   83.0172> <PB=84> 
---- Diving heuristic node with dive number = 1, fix depth = 69 and tabu list size = 1
Fixed projected solution = [x_1_0_1_OspV=1, x_1_102_1_OspV=1, x_1_128_1_OspV=1, x_1_191_1_OspV=1]
<DWph=2> <it=  7> <et=57.35> <Mt= 0.12> <Spt= 0.74> <nCl=106> <DB=   83.0286> <Mlp=   83.0286> <PB=84> 
<DWph=1> <it=  8> <et=57.57> <Mt= 0.00> <Spt= 0.22> <nCl=  0> <DB=   83.0286> <Mlp=   83.0286> <PB=84> 
---- Diving heuristic node with dive number = 1, fix depth = 70 and tabu list size = 1
Fixed projected solution = [x_1_0_1_OspV=1, x_1_127_1_OspV=1, x_1_144_1_OspV=1, x_1_163_1_OspV=1]
<DWph=2> <it= 10> <et=58.65> <Mt= 0.23> <Spt= 0.74> <nCl=415> <DB=   80.3111> <Mlp=   83.0833> <PB=84> 
<DWph=2> <it= 20> <et=59.44> <Mt= 0.03> <Spt= 0.74> <nCl= 86> <DB=   82.4887> <Mlp=   83.0833> <PB=84> 
<DWph=2> <it= 30> <et=60.51> <Mt= 0.03> <Spt= 1.05> <nCl=175> <DB=   79.9071> <Mlp=   83.0833> <PB=84> 
Global time limit is reached during column generation
SEARCH IS INTERRUPTED as the time limit is reached. 
---- Diving heuristic node with dive number = 2, fix depth = 2 and tabu list size = 2
Fixed projected solution = [x_1_0_1_OspV=1, x_1_100_1_OspV=1, x_1_160_1_OspV=1, x_1_162_1_OspV=1]
---- Diving heuristic node with dive number = 3, fix depth = 2 and tabu list size = 3
Fixed projected solution = [x_1_0_1_OspV=1, x_1_99_1_OspV=1, x_1_137_1_OspV=1, x_1_188_1_OspV=1]
---- Diving heuristic node with dive number = 4, fix depth = 1 and tabu list size = 1
Fixed projected solution = [x_1_0_1_OspV=1, x_1_12_1_OspV=1, x_1_57_1_OspV=1, x_1_239_1_OspV=1]
---- Diving heuristic node with dive number = 5, fix depth = 1 and tabu list size = 2
Fixed projected solution = [x_1_0_1_OspV=1, x_1_61_1_OspV=1, x_1_66_1_OspV=1, x_1_231_1_OspV=1]
---- Diving heuristic node with dive number = 6, fix depth = 1 and tabu list size = 3
Fixed projected solution = [x_1_0_1_OspV=1, x_1_100_1_OspV=1, x_1_160_1_OspV=1, x_1_162_1_OspV=1]
**** Strong branching phase 1 is started *****
**** Strong branching phase 3 is started *****
New model incumbent solution 84, TIME = 0h1m1s46t = 6146
************************************************************************************************
Search is finished, global bounds : [ 83 , 84 ], TIME = 0h1m1s46t = 6146
************************************************************************************************
[32mBaPCod : solution defined.[00m
statistics_cols: instance & :Optimal & cutoff & :bcRecRootDb & :bcTimeRootEval & :bcCountNodeProc & :bcRecBestDb & :bcRecBestInc & :bcTimeMain \\
statistics: Falkenauer_t249_13 & 0 & 1.0e6 & 83.00 & 9.14 & 1 & 83.00 & 84 & 61.46 \\
########################################################
bin_id=1: 260(1) 368(0) 372(1) 
bin_id=2: 251(1) 367(0) 382(0) 
bin_id=3: 256(1) 363(0) 381(1) 
bin_id=4: 253(1) 363(0) 384(0) 
bin_id=5: 255(1) 360(0) 385(1) 
bin_id=6: 286(1) 356(1) 358(0) 
bin_id=7: 253(0) 354(1) 393(0) 
bin_id=8: 292(0) 353(0) 355(1) 
bin_id=9: 253(1) 350(1) 397(0) 
bin_id=10: 254(0) 340(0) 406(1) 
bin_id=11: 251(0) 337(1) 412(0) 
bin_id=12: 270(0) 335(1) 395(1) 
bin_id=13: 254(0) 331(1) 415(0) 
bin_id=14: 252(0) 312(1) 436(0) 
bin_id=15: 256(1) 310(1) 434(0) 
bin_id=16: 261(1) 302(0) 437(1) 
bin_id=17: 262(1) 299(0) 439(1) 
bin_id=18: 257(1) 296(1) 447(0) 
bin_id=19: 256(1) 295(0) 449(0) 
bin_id=20: 255(0) 294(1) 451(1) 
bin_id=21: 258(0) 284(1) 458(1) 
bin_id=22: 281(0) 282(0) 437(1) 
bin_id=23: 261(0) 280(0) 459(1) 
bin_id=24: 256(0) 274(0) 470(1) 
bin_id=25: 252(0) 266(0) 482(1) 
bin_id=26: 262(0) 306(1) 432(1) 
bin_id=27: 262(0) 273(1) 465(0) 
bin_id=28: 266(0) 267(1) 467(0) 
bin_id=29: 264(0) 277(1) 459(0) 
bin_id=30: 257(1) 276(0) 467(0) 
bin_id=31: 250(1) 266(1) 484(0) 
bin_id=32: 250(0) 371(1) 379(1) 
bin_id=33: 256(1) 263(0) 481(0) 
bin_id=34: 260(0) 260(1) 480(0) 
bin_id=35: 265(1) 325(1) 410(0) 
bin_id=36: 267(0) 323(1) 410(1) 
bin_id=37: 272(1) 315(1) 413(0) 
bin_id=38: 250(1) 263(0) 487(0) 
bin_id=39: 266(0) 279(0) 455(1) 
bin_id=40: 258(1) 263(0) 479(1) 
bin_id=41: 254(1) 258(0) 488(0) 
bin_id=42: 252(0) 262(1) 486(1) 
bin_id=43: 291(0) 310(1) 399(1) 
bin_id=44: 251(1) 259(1) 490(0) 
bin_id=45: 286(1) 321(0) 393(1) 
bin_id=46: 292(0) 304(0) 404(1) 
bin_id=47: 289(1) 324(0) 387(1) 
bin_id=48: 250(1) 258(0) 492(1) 
bin_id=49: 252(1) 256(1) 492(0) 
bin_id=50: 251(0) 372(1) 377(1) 
bin_id=51: 252(1) 259(0) 489(1) 
bin_id=52: 290(1) 302(0) 408(1) 
bin_id=53: 290(1) 330(1) 380(0) 
bin_id=54: 274(0) 320(1) 406(1) 
bin_id=55: 278(1) 318(0) 404(0) 
bin_id=56: 280(0) 338(0) 382(1) 
bin_id=57: 290(1) 308(0) 402(0) 
bin_id=58: 273(0) 286(1) 441(0) 
bin_id=59: 250(0) 257(0) 493(1) 
bin_id=60: 252(1) 253(0) 495(0) 
bin_id=61: 258(1) 266(0) 476(0) 
bin_id=62: 276(0) 290(0) 434(1) 
bin_id=63: 250(0) 263(0) 487(1) 
bin_id=64: 315(1) 328(0) 357(1) 
bin_id=65: 265(0) 348(0) 387(1) 
bin_id=66: 263(0) 265(1) 472(0) 
bin_id=67: 271(1) 352(0) 377(0) 
bin_id=68: 252(1) 256(1) 492(0) 
bin_id=69: 253(0) 271(0) 476(1) 
bin_id=70: 262(0) 282(1) 456(1) 
bin_id=71: 302(1) 318(0) 380(0) 
bin_id=72: 250(1) 293(1) 457(0) 
bin_id=73: 288(1) 326(1) 386(0) 
bin_id=74: 291(0) 293(1) 416(0) 
bin_id=75: 272(0) 310(1) 418(1) 
bin_id=76: 279(1) 322(0) 399(0) 
bin_id=77: 266(1) 293(1) 441(0) 
bin_id=78: 302(0) 305(1) 393(0) 
bin_id=79: 257(1) 329(1) 414(0) 
bin_id=80: 252(1) 291(0) 456(0) 
bin_id=81: 281(1) 356(0) 361(1) 
bin_id=82: 254(1) 345(0) 400(0) 
bin_id=83: 334(1) 
bin_id=84: 310(0) 360(1) 
Objective value: 84.0
########################################################
