Application parameters:
  batch  =>  nothing
  instance  =>  "/IN/Falkenauer_t120_17.txt-Q2"
  ub  =>  1.0e6
  cfg  =>  "/CFG/BPP.cfg"
data = Colored Bin Packing dataset.
number of items = 120
number of colors = 2
capacity = 1000
Items : 
	 item 1, weight= 250, color= 0
	 item 2, weight= 251, color= 1
	 item 3, weight= 251, color= 1
	 item 4, weight= 251, color= 1
	 item 5, weight= 252, color= 1
	 item 6, weight= 252, color= 1
	 item 7, weight= 253, color= 1
	 item 8, weight= 253, color= 1
	 item 9, weight= 254, color= 0
	 item 10, weight= 254, color= 1
	 item 11, weight= 254, color= 1
	 item 12, weight= 255, color= 0
	 item 13, weight= 256, color= 0
	 item 14, weight= 256, color= 0
	 item 15, weight= 257, color= 0
	 item 16, weight= 257, color= 0
	 item 17, weight= 257, color= 1
	 item 18, weight= 257, color= 1
	 item 19, weight= 258, color= 0
	 item 20, weight= 258, color= 0
	 item 21, weight= 259, color= 0
	 item 22, weight= 259, color= 1
	 item 23, weight= 260, color= 0
	 item 24, weight= 262, color= 0
	 item 25, weight= 263, color= 0
	 item 26, weight= 266, color= 1
	 item 27, weight= 266, color= 1
	 item 28, weight= 267, color= 0
	 item 29, weight= 267, color= 1
	 item 30, weight= 269, color= 0
	 item 31, weight= 269, color= 1
	 item 32, weight= 269, color= 1
	 item 33, weight= 270, color= 0
	 item 34, weight= 270, color= 1
	 item 35, weight= 271, color= 0
	 item 36, weight= 272, color= 1
	 item 37, weight= 273, color= 0
	 item 38, weight= 274, color= 0
	 item 39, weight= 274, color= 1
	 item 40, weight= 275, color= 0
	 item 41, weight= 275, color= 1
	 item 42, weight= 276, color= 0
	 item 43, weight= 279, color= 0
	 item 44, weight= 279, color= 0
	 item 45, weight= 279, color= 0
	 item 46, weight= 279, color= 1
	 item 47, weight= 280, color= 1
	 item 48, weight= 282, color= 1
	 item 49, weight= 283, color= 1
	 item 50, weight= 285, color= 0
	 item 51, weight= 285, color= 1
	 item 52, weight= 286, color= 1
	 item 53, weight= 288, color= 0
	 item 54, weight= 288, color= 1
	 item 55, weight= 289, color= 1
	 item 56, weight= 292, color= 1
	 item 57, weight= 294, color= 1
	 item 58, weight= 296, color= 0
	 item 59, weight= 296, color= 1
	 item 60, weight= 296, color= 1
	 item 61, weight= 300, color= 1
	 item 62, weight= 301, color= 0
	 item 63, weight= 304, color= 0
	 item 64, weight= 306, color= 1
	 item 65, weight= 307, color= 1
	 item 66, weight= 308, color= 1
	 item 67, weight= 314, color= 0
	 item 68, weight= 314, color= 1
	 item 69, weight= 319, color= 1
	 item 70, weight= 319, color= 1
	 item 71, weight= 321, color= 1
	 item 72, weight= 322, color= 1
	 item 73, weight= 323, color= 1
	 item 74, weight= 324, color= 1
	 item 75, weight= 330, color= 0
	 item 76, weight= 332, color= 0
	 item 77, weight= 337, color= 0
	 item 78, weight= 352, color= 0
	 item 79, weight= 357, color= 0
	 item 80, weight= 359, color= 1
	 item 81, weight= 360, color= 1
	 item 82, weight= 377, color= 0
	 item 83, weight= 378, color= 1
	 item 84, weight= 379, color= 0
	 item 85, weight= 384, color= 1
	 item 86, weight= 385, color= 0
	 item 87, weight= 388, color= 1
	 item 88, weight= 396, color= 0
	 item 89, weight= 397, color= 1
	 item 90, weight= 398, color= 0
	 item 91, weight= 399, color= 1
	 item 92, weight= 401, color= 0
	 item 93, weight= 414, color= 0
	 item 94, weight= 416, color= 1
	 item 95, weight= 422, color= 0
	 item 96, weight= 422, color= 1
	 item 97, weight= 431, color= 1
	 item 98, weight= 432, color= 1
	 item 99, weight= 433, color= 0
	 item 100, weight= 435, color= 1
	 item 101, weight= 442, color= 1
	 item 102, weight= 446, color= 0
	 item 103, weight= 447, color= 0
	 item 104, weight= 447, color= 0
	 item 105, weight= 449, color= 0
	 item 106, weight= 450, color= 1
	 item 107, weight= 453, color= 1
	 item 108, weight= 454, color= 0
	 item 109, weight= 456, color= 0
	 item 110, weight= 470, color= 1
	 item 111, weight= 471, color= 0
	 item 112, weight= 473, color= 0
	 item 113, weight= 474, color= 0
	 item 114, weight= 476, color= 0
	 item 115, weight= 477, color= 0
	 item 116, weight= 489, color= 0
	 item 117, weight= 492, color= 0
	 item 118, weight= 495, color= 0
	 item 119, weight= 496, color= 0
	 item 120, weight= 499, color= 0

VRPSolver warning: Interval set for resource 1 on source node (when source != sink) is ignored (by definition is [0.0,0.0])
VRPSolver warning: Interval set for resource 2 on source node (when source != sink) is ignored (by definition is [0.0,0.0])
VRPSolver warning: Interval set for resource 3 on source node (when source != sink) is ignored (by definition is [0.0,0.0])
[41m solve [00m
~~~~~~~~~~~~~~~~~~~~~~~~~~~~~~~~~~~~~~~~~~~~~~~~~~~~~~~~~~~~~~~~~~~~~~~~~~~~~~
VRPSolver v0.4.1, 24/03/2021. Web: vrpsolver.math.u-bordeaux.fr
Corresponds to the solver by Pessoa, Sadykov, Uchoa and Vanderbeck (2020)
Paper: dx.doi.org/10.1007/s10107-020-01523-z
USE THIS CODE ONLY FOR ACADEMIC PURPOSES AT YOUR OWN RISK
~~~~~~~~~~~~~~~~~~~~~~~~~~~~~~~~~~~~~~~~~~~~~~~~~~~~~~~~~~~~~~~~~~~~~~~~~~~~~~
BaPCod v053, 24/03/2021, © Inria Bordeaux, France
~~~~~~~~~~~~~~~~~~~~~~~~~~~~~~~~~~~~~~~~~~~~~~~~~~~~~~~~~~~~~~~~~~~~~~~~~~~~~~
VRPSolver parameters:
GlobalTimeLimit = 60
MaxNbOfBBtreeNodeTreated = 100000
treeSearchStrategy = 1
RCSPstopCutGenTimeThresholdInPricing = 10
RCSPhardTimeThresholdInPricing = 20
RCSPnumberOfBucketsPerVertex = 2000
RCSPdynamicBucketSteps = 0
RCSPuseBidirectionalSearch = 1
RCSPapplyReducedCostFixing = 1
RCSPredCostFixingFalseGap = 0
RCSPmaxNumOfColsPerIteration = 100
RCSPmaxNumOfColsPerExactIteration = 100
RCSPheurLabelingStrategy = 4
StabilizationMinPhaseOfStage = 1
RCSPmaxNumOfLabelsInEnumeration = 100000
RCSPmaxNumOfEnumeratedSolutions = 1000000
RCSPmaxNumOfEnumSolutionsForMIP = 100000
RCSPinitNGneighbourhoodSize = 0
RCSPmaxNGneighbourhoodSize = 0
RCSPrankOneCutsMaxNumPerRound = 100
RCSPrankOneCutsMaxNumRows = -1
RCSPrankOneCutsMemoryType = 2
CutTailingOffThreshold = 0.02
CutTailingOffCounterThreshold = 3
SafeDualBoundScaleFactor = -1
StrongBranchingPhaseOneCandidatesNumber = 100
StrongBranchingPhaseOneTreeSizeEstimRatio = 0.3
StrongBranchingPhaseTwoCandidatesNumber = 1
StrongBranchingPhaseTwoTreeSizeEstimRatio = 0.1
MaxTimeForRestrictedMasterIpHeur = -1
DivingHeurUseDepthLimit = 0
MaxLDSbreadth = 3
MaxLDSdepth = 2
New model incumbent solution 1e+06, TIME = 0h0m0s3t = 3
Model is built TIME = 0h0m1s40t = 140
************************************************************************************************
**** BaB tree root node
**** Local DB = -1e+12, global bounds : [ -1e+12 , 1e+06 ], TIME = 0h0m1s41t = 141
**** 1 open nodes, 0 columns (0 active), 0 dyn. constrs. (0 active), 242 art. vars. (242 active)
************************************************************************************************
<DWph=2> <it= 10> <et=1.73> <Mt= 0.00> <Spt= 0.31> <nCl=1000> <DB=-306479831.4171> <Mlp=48600030.5000> <PB=1000000> 
<DWph=2> <it= 20> <et=2.13> <Mt= 0.03> <Spt= 0.37> <nCl=906> <DB=    1.8758> <Mlp=   41.6667> <PB=1000000> 
<DWph=2> <it= 30> <et=2.46> <Mt= 0.03> <Spt= 0.31> <nCl=499> <DB=   15.5469> <Mlp=   40.6667> <PB=1000000> 
<DWph=2> <it= 40> <et=2.86> <Mt= 0.04> <Spt= 0.35> <nCl=581> <DB=   40.0000> <Mlp=   40.0000> <PB=1000000> 
<DWph=1> <it= 41> <et=2.92> <Mt= 0.00> <Spt= 0.05> <nCl=  0> <DB=   40.0000> <Mlp=   40.0000> <PB=1000000> 
<DWph=0> <it= 42> <et=2.95> <Mt= 0.01> <Spt= 0.03> <nCl=  0> <DB=   40.0000> <Mlp=   40.0000> <PB=1000000> 
Reduced cost fixing for graph G_1... took 0.2 sec., 61715 buck. arcs remain (100% from prev., 38.8% from max.)
Run enumeration... took 1.24 sec. and succeeded! Pricing will be done by inspection.
<DWph=2> <it= 43> <et=4.66> <Mt= 0.05> <Spt= 0.00> <nCl=  0> <DB=   40.0000> <Mlp=   40.0000> <PB=1000000> 
<DWph=1> <it= 44> <et=4.67> <Mt= 0.00> <Spt= 0.00> <nCl=  0> <DB=   40.0000> <Mlp=   40.0000> <PB=1000000> 
<DWph=0> <it= 45> <et=4.67> <Mt= 0.00> <Spt= 0.00> <nCl=  0> <DB=   40.0000> <Mlp=   40.0000> <PB=1000000> 
ColGenEvalAlg final dual bound: 40 (rounded: 40)
----------- Diving heuristic started -----------
<DWph=2> <it=  1> <et=4.78> <Mt= 0.00> <Spt= 0.00> <nCl=  0> <DB=   40.0000> <Mlp=   40.0000> <PB=1000000> 
<DWph=1> <it=  2> <et=4.78> <Mt= 0.00> <Spt= 0.00> <nCl=  0> <DB=   40.0000> <Mlp=   40.0000> <PB=1000000> 
<DWph=0> <it=  3> <et=4.78> <Mt= 0.01> <Spt= 0.00> <nCl=  0> <DB=   40.0000> <Mlp=   40.0000> <PB=1000000> 
ColGenEvalAlg final dual bound: 40 (rounded: 40)
---- Diving heuristic node with dive number = 0, fix depth = 0 and tabu list size = 0
Fixed projected solution = [x_1_0_1_OspV=1, x_1_33_1_OspV=1, x_1_53_1_OspV=1, x_1_101_1_OspV=1]
<DWph=2> <it=  1> <et=4.92> <Mt= 0.00> <Spt= 0.00> <nCl=  0> <DB=   40.0000> <Mlp=   40.0000> <PB=1000000> 
<DWph=1> <it=  2> <et=4.92> <Mt= 0.00> <Spt= 0.00> <nCl=  0> <DB=   40.0000> <Mlp=   40.0000> <PB=1000000> 
<DWph=0> <it=  3> <et=4.93> <Mt= 0.00> <Spt= 0.00> <nCl=  0> <DB=   40.0000> <Mlp=   40.0000> <PB=1000000> 
ColGenEvalAlg final dual bound: 40 (rounded: 40)
---- Diving heuristic node with dive number = 0, fix depth = 0 and tabu list size = 0
Fixed projected solution = [x_1_0_1_OspV=1, x_1_10_1_OspV=1, x_1_40_1_OspV=1, x_1_111_1_OspV=1]
<DWph=2> <it=  1> <et=5.02> <Mt= 0.00> <Spt= 0.00> <nCl=  0> <DB=   40.0000> <Mlp=   40.0000> <PB=1000000> 
<DWph=1> <it=  2> <et=5.02> <Mt= 0.00> <Spt= 0.00> <nCl=  0> <DB=   40.0000> <Mlp=   40.0000> <PB=1000000> 
<DWph=0> <it=  3> <et=5.02> <Mt= 0.00> <Spt= 0.00> <nCl=  0> <DB=   40.0000> <Mlp=   40.0000> <PB=1000000> 
ColGenEvalAlg final dual bound: 40 (rounded: 40)
---- Diving heuristic node with dive number = 0, fix depth = 0 and tabu list size = 0
Fixed projected solution = [x_1_0_1_OspV=1, x_1_30_1_OspV=1, x_1_76_1_OspV=1, x_1_91_1_OspV=1]
<DWph=2> <it=  1> <et=5.11> <Mt= 0.00> <Spt= 0.00> <nCl=  0> <DB=   40.0000> <Mlp=   40.0000> <PB=1000000> 
<DWph=1> <it=  2> <et=5.12> <Mt= 0.00> <Spt= 0.00> <nCl=  0> <DB=   40.0000> <Mlp=   40.0000> <PB=1000000> 
<DWph=0> <it=  3> <et=5.12> <Mt= 0.01> <Spt= 0.00> <nCl=  0> <DB=   40.0000> <Mlp=   40.0000> <PB=1000000> 
ColGenEvalAlg final dual bound: 40 (rounded: 40)
---- Diving heuristic node with dive number = 0, fix depth = 0 and tabu list size = 0
Fixed projected solution = [x_1_0_1_OspV=1, x_1_2_1_OspV=1, x_1_7_1_OspV=1, x_1_119_1_OspV=1]
<DWph=2> <it=  1> <et=5.21> <Mt= 0.00> <Spt= 0.00> <nCl=  0> <DB=   40.0000> <Mlp=   40.0000> <PB=1000000> 
<DWph=1> <it=  2> <et=5.21> <Mt= 0.00> <Spt= 0.00> <nCl=  0> <DB=   40.0000> <Mlp=   40.0000> <PB=1000000> 
<DWph=0> <it=  3> <et=5.21> <Mt= 0.00> <Spt= 0.00> <nCl=  0> <DB=   40.0000> <Mlp=   40.0000> <PB=1000000> 
ColGenEvalAlg final dual bound: 40 (rounded: 40)
---- Diving heuristic node with dive number = 0, fix depth = 1 and tabu list size = 0
Fixed projected solution = [x_1_0_1_OspV=1, x_1_3_1_OspV=1, x_1_11_1_OspV=1, x_1_118_1_OspV=1]
<DWph=2> <it=  1> <et=5.28> <Mt= 0.00> <Spt= 0.00> <nCl=  0> <DB=   40.0000> <Mlp=   40.0000> <PB=1000000> 
<DWph=1> <it=  2> <et=5.28> <Mt= 0.00> <Spt= 0.00> <nCl=  0> <DB=   40.0000> <Mlp=   40.0000> <PB=1000000> 
<DWph=0> <it=  3> <et=5.28> <Mt= 0.00> <Spt= 0.00> <nCl=  0> <DB=   40.0000> <Mlp=   40.0000> <PB=1000000> 
ColGenEvalAlg final dual bound: 40 (rounded: 40)
---- Diving heuristic node with dive number = 0, fix depth = 1 and tabu list size = 0
Fixed projected solution = [x_1_0_1_OspV=1, x_1_1_1_OspV=1, x_1_4_1_OspV=1, x_1_120_1_OspV=1]
<DWph=2> <it=  1> <et=5.43> <Mt= 0.00> <Spt= 0.00> <nCl=  0> <DB=   40.0000> <Mlp=   40.0000> <PB=1000000> 
<DWph=1> <it=  2> <et=5.43> <Mt= 0.00> <Spt= 0.00> <nCl=  0> <DB=   40.0000> <Mlp=   40.0000> <PB=1000000> 
<DWph=0> <it=  3> <et=5.43> <Mt= 0.00> <Spt= 0.00> <nCl=  0> <DB=   40.0000> <Mlp=   40.0000> <PB=1000000> 
ColGenEvalAlg final dual bound: 40 (rounded: 40)
---- Diving heuristic node with dive number = 0, fix depth = 2 and tabu list size = 0
Fixed projected solution = [x_1_0_1_OspV=1, x_1_18_1_OspV=1, x_1_60_1_OspV=1, x_1_104_1_OspV=1]
<DWph=2> <it=  1> <et=5.50> <Mt= 0.00> <Spt= 0.00> <nCl=  0> <DB=   40.0000> <Mlp=   40.0000> <PB=1000000> 
<DWph=1> <it=  2> <et=5.50> <Mt= 0.00> <Spt= 0.00> <nCl=  0> <DB=   40.0000> <Mlp=   40.0000> <PB=1000000> 
<DWph=0> <it=  3> <et=5.50> <Mt= 0.00> <Spt= 0.00> <nCl=  0> <DB=   40.0000> <Mlp=   40.0000> <PB=1000000> 
ColGenEvalAlg final dual bound: 40 (rounded: 40)
---- Diving heuristic node with dive number = 0, fix depth = 3 and tabu list size = 0
Fixed projected solution = [x_1_0_1_OspV=1, x_1_45_1_OspV=1, x_1_52_1_OspV=1, x_1_100_1_OspV=1]
<DWph=2> <it=  1> <et=5.51> <Mt= 0.01> <Spt= 0.00> <nCl=  0> <DB=   40.0000> <Mlp=   40.0000> <PB=1000000> 
<DWph=1> <it=  2> <et=5.51> <Mt= 0.00> <Spt= 0.00> <nCl=  0> <DB=   40.0000> <Mlp=   40.0000> <PB=1000000> 
<DWph=0> <it=  3> <et=5.51> <Mt= 0.00> <Spt= 0.00> <nCl=  0> <DB=   40.0000> <Mlp=   40.0000> <PB=1000000> 
ColGenEvalAlg final dual bound: 40 (rounded: 40)
---- Diving heuristic node with dive number = 0, fix depth = 4 and tabu list size = 0
Fixed projected solution = [x_1_0_1_OspV=1, x_1_34_1_OspV=1, x_1_39_1_OspV=1, x_1_109_1_OspV=1]
<DWph=2> <it=  1> <et=5.51> <Mt= 0.00> <Spt= 0.00> <nCl=  0> <DB=   40.0000> <Mlp=   40.0000> <PB=1000000> 
<DWph=1> <it=  2> <et=5.51> <Mt= 0.00> <Spt= 0.00> <nCl=  0> <DB=   40.0000> <Mlp=   40.0000> <PB=1000000> 
<DWph=0> <it=  3> <et=5.51> <Mt= 0.00> <Spt= 0.00> <nCl=  0> <DB=   40.0000> <Mlp=   40.0000> <PB=1000000> 
ColGenEvalAlg final dual bound: 40 (rounded: 40)
---- Diving heuristic node with dive number = 0, fix depth = 5 and tabu list size = 0
Fixed projected solution = [x_1_0_1_OspV=1, x_1_65_1_OspV=1, x_1_67_1_OspV=1, x_1_84_1_OspV=1]
<DWph=2> <it=  1> <et=5.52> <Mt= 0.00> <Spt= 0.00> <nCl=  0> <DB=   40.0000> <Mlp=   40.0000> <PB=1000000> 
<DWph=1> <it=  2> <et=5.52> <Mt= 0.00> <Spt= 0.00> <nCl=  0> <DB=   40.0000> <Mlp=   40.0000> <PB=1000000> 
<DWph=0> <it=  3> <et=5.52> <Mt= 0.00> <Spt= 0.00> <nCl=  0> <DB=   40.0000> <Mlp=   40.0000> <PB=1000000> 
ColGenEvalAlg final dual bound: 40 (rounded: 40)
---- Diving heuristic node with dive number = 0, fix depth = 6 and tabu list size = 0
Fixed projected solution = [x_1_0_1_OspV=1, x_1_21_1_OspV=1, x_1_35_1_OspV=1, x_1_110_1_OspV=1]
<DWph=2> <it=  1> <et=5.52> <Mt= 0.01> <Spt= 0.00> <nCl=  0> <DB=   40.0000> <Mlp=   40.0000> <PB=1000000> 
<DWph=1> <it=  2> <et=5.52> <Mt= 0.00> <Spt= 0.00> <nCl=  0> <DB=   40.0000> <Mlp=   40.0000> <PB=1000000> 
<DWph=0> <it=  3> <et=5.52> <Mt= 0.00> <Spt= 0.00> <nCl=  0> <DB=   40.0000> <Mlp=   40.0000> <PB=1000000> 
ColGenEvalAlg final dual bound: 40 (rounded: 40)
---- Diving heuristic node with dive number = 0, fix depth = 7 and tabu list size = 0
Fixed projected solution = [x_1_0_1_OspV=1, x_1_15_1_OspV=1, x_1_71_1_OspV=1, x_1_95_1_OspV=1]
<DWph=2> <it=  1> <et=5.53> <Mt= 0.00> <Spt= 0.00> <nCl=  0> <DB=   40.0000> <Mlp=   40.0000> <PB=1000000> 
<DWph=1> <it=  2> <et=5.53> <Mt= 0.00> <Spt= 0.00> <nCl=  0> <DB=   40.0000> <Mlp=   40.0000> <PB=1000000> 
<DWph=0> <it=  3> <et=5.53> <Mt= 0.00> <Spt= 0.00> <nCl=  0> <DB=   40.0000> <Mlp=   40.0000> <PB=1000000> 
ColGenEvalAlg final dual bound: 40 (rounded: 40)
---- Diving heuristic node with dive number = 0, fix depth = 8 and tabu list size = 0
Fixed projected solution = [x_1_0_1_OspV=1, x_1_32_1_OspV=1, x_1_75_1_OspV=1, x_1_92_1_OspV=1]
<DWph=2> <it=  1> <et=5.54> <Mt= 0.01> <Spt= 0.00> <nCl=  0> <DB=   40.0000> <Mlp=   40.0000> <PB=1000000> 
<DWph=1> <it=  2> <et=5.54> <Mt= 0.00> <Spt= 0.00> <nCl=  0> <DB=   40.0000> <Mlp=   40.0000> <PB=1000000> 
<DWph=0> <it=  3> <et=5.54> <Mt= 0.00> <Spt= 0.00> <nCl=  0> <DB=   40.0000> <Mlp=   40.0000> <PB=1000000> 
ColGenEvalAlg final dual bound: 40 (rounded: 40)
---- Diving heuristic node with dive number = 0, fix depth = 9 and tabu list size = 0
Fixed projected solution = [x_1_0_1_OspV=1, x_1_46_1_OspV=1, x_1_54_1_OspV=1, x_1_99_1_OspV=1]
<DWph=2> <it=  1> <et=5.54> <Mt= 0.00> <Spt= 0.00> <nCl=  0> <DB=   40.0000> <Mlp=   40.0000> <PB=1000000> 
<DWph=1> <it=  2> <et=5.54> <Mt= 0.00> <Spt= 0.00> <nCl=  0> <DB=   40.0000> <Mlp=   40.0000> <PB=1000000> 
<DWph=0> <it=  3> <et=5.54> <Mt= 0.00> <Spt= 0.00> <nCl=  0> <DB=   40.0000> <Mlp=   40.0000> <PB=1000000> 
ColGenEvalAlg final dual bound: 40 (rounded: 40)
---- Diving heuristic node with dive number = 0, fix depth = 10 and tabu list size = 0
Fixed projected solution = [x_1_0_1_OspV=1, x_1_48_1_OspV=1, x_1_58_1_OspV=1, x_1_96_1_OspV=1]
<DWph=2> <it=  1> <et=5.55> <Mt= 0.00> <Spt= 0.00> <nCl=  0> <DB=   40.0000> <Mlp=   40.0000> <PB=1000000> 
<DWph=1> <it=  2> <et=5.55> <Mt= 0.00> <Spt= 0.00> <nCl=  0> <DB=   40.0000> <Mlp=   40.0000> <PB=1000000> 
<DWph=0> <it=  3> <et=5.55> <Mt= 0.00> <Spt= 0.00> <nCl=  0> <DB=   40.0000> <Mlp=   40.0000> <PB=1000000> 
ColGenEvalAlg final dual bound: 40 (rounded: 40)
---- Diving heuristic node with dive number = 0, fix depth = 11 and tabu list size = 0
Fixed projected solution = [x_1_0_1_OspV=1, x_1_12_1_OspV=1, x_1_36_1_OspV=1, x_1_112_1_OspV=1]
<DWph=2> <it=  1> <et=5.56> <Mt= 0.01> <Spt= 0.00> <nCl=  0> <DB=   40.0004> <Mlp=   40.0004> <PB=1000000> 
<DWph=1> <it=  2> <et=5.56> <Mt= 0.00> <Spt= 0.00> <nCl=  0> <DB=   40.0004> <Mlp=   40.0004> <PB=1000000> 
<DWph=0> <it=  4> <et=5.60> <Mt= 0.00> <Spt= 0.04> <nCl=100> <DB=   40.0000> <Mlp=   40.0000> <PB=1000000> 
ColGenEvalAlg final dual bound: 40 (rounded: 40)
---- Diving heuristic node with dive number = 0, fix depth = 12 and tabu list size = 0
Fixed projected solution = [x_1_0_1_OspV=1, x_1_62_1_OspV=1, x_1_68_1_OspV=1, x_1_86_1_OspV=1]
<DWph=2> <it=  1> <et=5.61> <Mt= 0.01> <Spt= 0.00> <nCl=  0> <DB=   40.0000> <Mlp=   40.0000> <PB=1000000> 
<DWph=1> <it=  2> <et=5.61> <Mt= 0.00> <Spt= 0.00> <nCl=  0> <DB=   40.0000> <Mlp=   40.0000> <PB=1000000> 
<DWph=0> <it=  3> <et=5.61> <Mt= 0.00> <Spt= 0.00> <nCl=  0> <DB=   40.0000> <Mlp=   40.0000> <PB=1000000> 
ColGenEvalAlg final dual bound: 40 (rounded: 40)
---- Diving heuristic node with dive number = 0, fix depth = 13 and tabu list size = 0
Fixed projected solution = [x_1_0_1_OspV=1, x_1_14_1_OspV=1, x_1_81_1_OspV=1, x_1_85_1_OspV=1]
<DWph=2> <it=  1> <et=5.61> <Mt= 0.00> <Spt= 0.00> <nCl=  0> <DB=   40.0000> <Mlp=   40.0000> <PB=1000000> 
<DWph=1> <it=  2> <et=5.61> <Mt= 0.00> <Spt= 0.00> <nCl=  0> <DB=   40.0000> <Mlp=   40.0000> <PB=1000000> 
<DWph=0> <it=  3> <et=5.61> <Mt= 0.00> <Spt= 0.00> <nCl=  0> <DB=   40.0000> <Mlp=   40.0000> <PB=1000000> 
ColGenEvalAlg final dual bound: 40 (rounded: 40)
---- Diving heuristic node with dive number = 0, fix depth = 14 and tabu list size = 0
Fixed projected solution = [x_1_0_1_OspV=1, x_1_25_1_OspV=1, x_1_80_1_OspV=1, x_1_83_1_OspV=1]
<DWph=2> <it=  1> <et=5.62> <Mt= 0.00> <Spt= 0.00> <nCl=  0> <DB=   40.0000> <Mlp=   40.0000> <PB=1000000> 
<DWph=1> <it=  2> <et=5.62> <Mt= 0.00> <Spt= 0.00> <nCl=  0> <DB=   40.0000> <Mlp=   40.0000> <PB=1000000> 
<DWph=0> <it=  3> <et=5.62> <Mt= 0.00> <Spt= 0.00> <nCl=  0> <DB=   40.0000> <Mlp=   40.0000> <PB=1000000> 
ColGenEvalAlg final dual bound: 40 (rounded: 40)
---- Diving heuristic node with dive number = 0, fix depth = 14 and tabu list size = 0
Fixed projected solution = [x_1_0_1_OspV=1, x_1_37_1_OspV=1, x_1_59_1_OspV=1, x_1_97_1_OspV=1]
<DWph=2> <it=  1> <et=5.62> <Mt= 0.01> <Spt= 0.00> <nCl=  0> <DB=   40.0000> <Mlp=   40.0000> <PB=1000000> 
<DWph=1> <it=  2> <et=5.62> <Mt= 0.00> <Spt= 0.00> <nCl=  0> <DB=   40.0000> <Mlp=   40.0000> <PB=1000000> 
<DWph=0> <it=  3> <et=5.62> <Mt= 0.00> <Spt= 0.00> <nCl=  0> <DB=   40.0000> <Mlp=   40.0000> <PB=1000000> 
ColGenEvalAlg final dual bound: 40 (rounded: 40)
---- Diving heuristic node with dive number = 0, fix depth = 15 and tabu list size = 0
Fixed projected solution = [x_1_0_1_OspV=1, x_1_22_1_OspV=1, x_1_57_1_OspV=1, x_1_103_1_OspV=1]
<DWph=2> <it=  1> <et=5.63> <Mt= 0.00> <Spt= 0.00> <nCl=  0> <DB=   40.0000> <Mlp=   40.0000> <PB=1000000> 
<DWph=1> <it=  2> <et=5.63> <Mt= 0.00> <Spt= 0.00> <nCl=  0> <DB=   40.0000> <Mlp=   40.0000> <PB=1000000> 
<DWph=0> <it=  3> <et=5.63> <Mt= 0.00> <Spt= 0.00> <nCl=  0> <DB=   40.0000> <Mlp=   40.0000> <PB=1000000> 
ColGenEvalAlg final dual bound: 40 (rounded: 40)
---- Diving heuristic node with dive number = 0, fix depth = 15 and tabu list size = 0
Fixed projected solution = [x_1_0_1_OspV=1, x_1_41_1_OspV=1, x_1_43_1_OspV=1, x_1_102_1_OspV=1]
<DWph=2> <it=  1> <et=5.63> <Mt= 0.00> <Spt= 0.00> <nCl=  0> <DB=   40.0000> <Mlp=   40.0000> <PB=1000000> 
<DWph=1> <it=  2> <et=5.63> <Mt= 0.00> <Spt= 0.00> <nCl=  0> <DB=   40.0000> <Mlp=   40.0000> <PB=1000000> 
<DWph=0> <it=  3> <et=5.63> <Mt= 0.00> <Spt= 0.00> <nCl=  0> <DB=   40.0000> <Mlp=   40.0000> <PB=1000000> 
ColGenEvalAlg final dual bound: 40 (rounded: 40)
---- Diving heuristic node with dive number = 0, fix depth = 15 and tabu list size = 0
Fixed projected solution = [x_1_0_1_OspV=1, x_1_5_1_OspV=1, x_1_13_1_OspV=1, x_1_117_1_OspV=1]
<DWph=2> <it=  1> <et=5.64> <Mt= 0.00> <Spt= 0.00> <nCl=  0> <DB=   40.0000> <Mlp=   40.0000> <PB=1000000> 
<DWph=1> <it=  2> <et=5.64> <Mt= 0.00> <Spt= 0.00> <nCl=  0> <DB=   40.0000> <Mlp=   40.0000> <PB=1000000> 
<DWph=0> <it=  3> <et=5.64> <Mt= 0.00> <Spt= 0.00> <nCl=  0> <DB=   40.0000> <Mlp=   40.0000> <PB=1000000> 
ColGenEvalAlg final dual bound: 40 (rounded: 40)
---- Diving heuristic node with dive number = 0, fix depth = 15 and tabu list size = 0
Fixed projected solution = [x_1_0_1_OspV=1, x_1_8_1_OspV=1, x_1_19_1_OspV=1, x_1_116_1_OspV=1]
<DWph=2> <it=  1> <et=5.64> <Mt= 0.01> <Spt= 0.00> <nCl=  0> <DB=   40.0000> <Mlp=   40.0000> <PB=1000000> 
<DWph=1> <it=  2> <et=5.64> <Mt= 0.00> <Spt= 0.00> <nCl=  0> <DB=   40.0000> <Mlp=   40.0000> <PB=1000000> 
<DWph=0> <it=  3> <et=5.64> <Mt= 0.00> <Spt= 0.00> <nCl=  0> <DB=   40.0000> <Mlp=   40.0000> <PB=1000000> 
ColGenEvalAlg final dual bound: 40 (rounded: 40)
---- Diving heuristic node with dive number = 0, fix depth = 15 and tabu list size = 0
Fixed projected solution = [x_1_0_1_OspV=1, x_1_26_1_OspV=1, x_1_51_1_OspV=1, x_1_105_1_OspV=1]
<DWph=2> <it=  1> <et=5.64> <Mt= 0.00> <Spt= 0.00> <nCl=  0> <DB=   40.0000> <Mlp=   40.0000> <PB=1000000> 
<DWph=1> <it=  2> <et=5.64> <Mt= 0.00> <Spt= 0.00> <nCl=  0> <DB=   40.0000> <Mlp=   40.0000> <PB=1000000> 
<DWph=0> <it=  3> <et=5.65> <Mt= 0.00> <Spt= 0.00> <nCl=  0> <DB=   40.0000> <Mlp=   40.0000> <PB=1000000> 
ColGenEvalAlg final dual bound: 40 (rounded: 40)
---- Diving heuristic node with dive number = 0, fix depth = 16 and tabu list size = 0
Fixed projected solution = [x_1_0_1_OspV=1, x_1_27_1_OspV=1, x_1_77_1_OspV=1, x_1_89_1_OspV=1]
<DWph=2> <it=  1> <et=5.66> <Mt= 0.01> <Spt= 0.00> <nCl=  0> <DB=   40.0050> <Mlp=   40.0050> <PB=1000000> 
<DWph=1> <it=  2> <et=5.66> <Mt= 0.00> <Spt= 0.00> <nCl=  0> <DB=   40.0050> <Mlp=   40.0050> <PB=1000000> 
<DWph=0> <it=  6> <et=5.81> <Mt= 0.01> <Spt= 0.14> <nCl=175> <DB=   40.0027> <Mlp=   40.0027> <PB=1000000> 
ColGenEvalAlg final dual bound: 40.0027 (rounded: 41)
---- Diving heuristic node with dive number = 0, fix depth = 17 and tabu list size = 0
Fixed projected solution = [x_1_0_1_OspV=1, x_1_17_1_OspV=1, x_1_28_1_OspV=1, x_1_114_1_OspV=1]
<DWph=2> <it=  1> <et=5.82> <Mt= 0.00> <Spt= 0.00> <nCl=  0> <DB=   40.0030> <Mlp=   40.0030> <PB=1000000> 
<DWph=1> <it=  2> <et=5.82> <Mt= 0.00> <Spt= 0.00> <nCl=  0> <DB=   40.0030> <Mlp=   40.0030> <PB=1000000> 
<DWph=0> <it=  4> <et=5.85> <Mt= 0.00> <Spt= 0.03> <nCl= 10> <DB=   40.0027> <Mlp=   40.0027> <PB=1000000> 
ColGenEvalAlg final dual bound: 40.0027 (rounded: 41)
---- Diving heuristic node with dive number = 0, fix depth = 18 and tabu list size = 0
Fixed projected solution = [x_1_0_1_OspV=1, x_1_47_1_OspV=1, x_1_64_1_OspV=1, x_1_93_1_OspV=1]
<DWph=2> <it=  1> <et=5.86> <Mt= 0.00> <Spt= 0.00> <nCl=  0> <DB=   40.0031> <Mlp=   40.0031> <PB=1000000> 
<DWph=1> <it=  2> <et=5.86> <Mt= 0.01> <Spt= 0.00> <nCl=  0> <DB=   40.0031> <Mlp=   40.0031> <PB=1000000> 
<DWph=0> <it=  4> <et=5.90> <Mt= 0.00> <Spt= 0.04> <nCl= 21> <DB=   40.0027> <Mlp=   40.0027> <PB=1000000> 
ColGenEvalAlg final dual bound: 40.0027 (rounded: 41)
---- Diving heuristic node with dive number = 0, fix depth = 19 and tabu list size = 0
Fixed projected solution = [x_1_0_1_OspV=1, x_1_70_1_OspV=1, x_1_74_1_OspV=1, x_1_79_1_OspV=1]
<DWph=2> <it=  1> <et=5.90> <Mt= 0.00> <Spt= 0.00> <nCl=  0> <DB=   40.0027> <Mlp=   40.0027> <PB=1000000> 
<DWph=1> <it=  2> <et=5.90> <Mt= 0.00> <Spt= 0.00> <nCl=  0> <DB=   40.0027> <Mlp=   40.0027> <PB=1000000> 
<DWph=0> <it=  3> <et=5.90> <Mt= 0.00> <Spt= 0.00> <nCl=  0> <DB=   40.0027> <Mlp=   40.0027> <PB=1000000> 
ColGenEvalAlg final dual bound: 40.0027 (rounded: 41)
---- Diving heuristic node with dive number = 0, fix depth = 20 and tabu list size = 0
Fixed projected solution = [x_1_0_1_OspV=1, x_1_24_1_OspV=1, x_1_72_1_OspV=1, x_1_94_1_OspV=1]
<DWph=2> <it=  1> <et=5.91> <Mt= 0.01> <Spt= 0.00> <nCl=  0> <DB=   40.0208> <Mlp=   40.0208> <PB=1000000> 
<DWph=1> <it=  2> <et=5.91> <Mt= 0.00> <Spt= 0.00> <nCl=  0> <DB=   40.0208> <Mlp=   40.0208> <PB=1000000> 
<DWph=0> <it=  6> <et=6.06> <Mt= 0.00> <Spt= 0.14> <nCl=114> <DB=   40.0068> <Mlp=   40.0068> <PB=1000000> 
ColGenEvalAlg final dual bound: 40.0068 (rounded: 41)
---- Diving heuristic node with dive number = 0, fix depth = 21 and tabu list size = 0
Fixed projected solution = [x_1_0_1_OspV=1, x_1_63_1_OspV=1, x_1_66_1_OspV=1, x_1_87_1_OspV=1]
<DWph=2> <it=  1> <et=6.08> <Mt= 0.02> <Spt= 0.00> <nCl=  0> <DB=   40.0135> <Mlp=   40.0135> <PB=1000000> 
<DWph=1> <it=  2> <et=6.08> <Mt= 0.00> <Spt= 0.00> <nCl=  0> <DB=   40.0135> <Mlp=   40.0135> <PB=1000000> 
<DWph=0> <it=  4> <et=6.15> <Mt= 0.00> <Spt= 0.07> <nCl= 17> <DB=   40.0116> <Mlp=   40.0116> <PB=1000000> 
ColGenEvalAlg final dual bound: 40.0116 (rounded: 41)
---- Diving heuristic node with dive number = 0, fix depth = 22 and tabu list size = 0
Fixed projected solution = [x_1_0_1_OspV=1, x_1_9_1_OspV=1, x_1_31_1_OspV=1, x_1_115_1_OspV=1]
<DWph=2> <it=  1> <et=6.16> <Mt= 0.00> <Spt= 0.00> <nCl=  0> <DB=   40.0125> <Mlp=   40.0125> <PB=1000000> 
<DWph=1> <it=  2> <et=6.16> <Mt= 0.00> <Spt= 0.00> <nCl=  0> <DB=   40.0125> <Mlp=   40.0125> <PB=1000000> 
<DWph=0> <it=  4> <et=6.23> <Mt= 0.00> <Spt= 0.07> <nCl=  4> <DB=   40.0120> <Mlp=   40.0120> <PB=1000000> 
ColGenEvalAlg final dual bound: 40.012 (rounded: 41)
---- Diving heuristic node with dive number = 0, fix depth = 23 and tabu list size = 0
Fixed projected solution = [x_1_0_1_OspV=1, x_1_16_1_OspV=1, x_1_55_1_OspV=1, x_1_108_1_OspV=1]
<DWph=2> <it=  1> <et=6.25> <Mt= 0.02> <Spt= 0.00> <nCl=  0> <DB=   40.0169> <Mlp=   40.0169> <PB=1000000> 
<DWph=1> <it=  2> <et=6.25> <Mt= 0.00> <Spt= 0.00> <nCl=  0> <DB=   40.0169> <Mlp=   40.0169> <PB=1000000> 
<DWph=0> <it=  5> <et=6.36> <Mt= 0.00> <Spt= 0.10> <nCl=117> <DB=   40.0137> <Mlp=   40.0137> <PB=1000000> 
ColGenEvalAlg final dual bound: 40.0137 (rounded: 41)
---- Diving heuristic node with dive number = 0, fix depth = 24 and tabu list size = 0
Fixed projected solution = [x_1_0_1_OspV=1, x_1_44_1_OspV=1, x_1_73_1_OspV=1, x_1_90_1_OspV=1]
<DWph=2> <it=  1> <et=6.37> <Mt= 0.01> <Spt= 0.00> <nCl=  0> <DB=   40.0161> <Mlp=   40.0161> <PB=1000000> 
<DWph=1> <it=  2> <et=6.37> <Mt= 0.00> <Spt= 0.00> <nCl=  0> <DB=   40.0161> <Mlp=   40.0161> <PB=1000000> 
<DWph=0> <it=  5> <et=6.48> <Mt= 0.00> <Spt= 0.11> <nCl=  7> <DB=   40.0161> <Mlp=   40.0161> <PB=1000000> 
ColGenEvalAlg final dual bound: 40.0161 (rounded: 41)
---- Diving heuristic node with dive number = 0, fix depth = 25 and tabu list size = 0
Fixed projected solution = [x_1_0_1_OspV=1, x_1_61_1_OspV=1, x_1_69_1_OspV=1, x_1_82_1_OspV=1]
<DWph=2> <it=  4> <et=6.50> <Mt= 0.02> <Spt= 0.00> <nCl=  0> <DB=1745494.6364> <Mlp=1745494.6364> <PB=1000000> 
<DWph=1> <it=  5> <et=6.50> <Mt= 0.00> <Spt= 0.00> <nCl=  0> <DB=1745494.6364> <Mlp=1745494.6364> <PB=1000000> 
<DWph=0> <it= 10> <et=6.69> <Mt= 0.01> <Spt= 0.17> <nCl=211> <DB=   40.0263> <Mlp=   40.0263> <PB=1000000> 
ColGenEvalAlg final dual bound: 40.0263 (rounded: 41)
---- Diving heuristic node with dive number = 0, fix depth = 26 and tabu list size = 0
Fixed projected solution = [x_1_0_1_OspV=1, x_1_6_1_OspV=1, x_1_78_1_OspV=1, x_1_88_1_OspV=1]
<DWph=2> <it=  1> <et=6.70> <Mt= 0.00> <Spt= 0.00> <nCl=  0> <DB=   40.0455> <Mlp=   40.0455> <PB=1000000> 
<DWph=1> <it=  2> <et=6.70> <Mt= 0.00> <Spt= 0.00> <nCl=  0> <DB=   40.0455> <Mlp=   40.0455> <PB=1000000> 
<DWph=0> <it=  6> <et=6.85> <Mt= 0.01> <Spt= 0.14> <nCl=230> <DB=   40.0455> <Mlp=   40.0455> <PB=1000000> 
ColGenEvalAlg final dual bound: 40.0455 (rounded: 41)
---- Diving heuristic node with dive number = 0, fix depth = 27 and tabu list size = 0
Fixed projected solution = [x_1_0_1_OspV=1, x_1_20_1_OspV=1, x_1_29_1_OspV=1, x_1_113_1_OspV=1]
<DWph=2> <it=  1> <et=6.86> <Mt= 0.01> <Spt= 0.00> <nCl=  0> <DB=2880040.1000> <Mlp=2880040.1000> <PB=1000000> 
<DWph=1> <it=  2> <et=6.86> <Mt= 0.00> <Spt= 0.00> <nCl=  0> <DB=2880040.1000> <Mlp=2880040.1000> <PB=1000000> 
<DWph=0> <it=  6> <et=7.01> <Mt= 0.00> <Spt= 0.14> <nCl=254> <DB=   40.1429> <Mlp=   40.1429> <PB=1000000> 
ColGenEvalAlg final dual bound: 40.1429 (rounded: 41)
---- Diving heuristic node with dive number = 0, fix depth = 28 and tabu list size = 0
Fixed projected solution = [x_1_0_1_OspV=1, x_1_23_1_OspV=1, x_1_49_1_OspV=1, x_1_107_1_OspV=1]
<DWph=2> <it=  1> <et=7.03> <Mt= 0.02> <Spt= 0.00> <nCl=  0> <DB=2400040.2500> <Mlp=2400040.2500> <PB=1000000> 
<DWph=1> <it=  2> <et=7.03> <Mt= 0.00> <Spt= 0.01> <nCl=  0> <DB=2400040.2500> <Mlp=2400040.2500> <PB=1000000> 
<DWph=0> <it=  7> <et=7.22> <Mt= 0.01> <Spt= 0.17> <nCl=138> <DB=   40.2000> <Mlp=   40.2000> <PB=1000000> 
ColGenEvalAlg final dual bound: 40.2 (rounded: 41)
---- Diving heuristic node with dive number = 0, fix depth = 29 and tabu list size = 0
Fixed projected solution = [x_1_0_1_OspV=1, x_1_38_1_OspV=1, x_1_56_1_OspV=1, x_1_98_1_OspV=1]
<DWph=2> <it=  1> <et=7.24> <Mt= 0.01> <Spt= 0.00> <nCl=  0> <DB=9600040.0000> <Mlp=9600040.0000> <PB=1000000> 
<DWph=1> <it=  2> <et=7.24> <Mt= 0.00> <Spt= 0.00> <nCl=  0> <DB=9600040.0000> <Mlp=9600040.0000> <PB=1000000> 
<DWph=0> <it=  6> <et=7.35> <Mt= 0.01> <Spt= 0.11> <nCl=300> <DB=   40.2000> <Mlp=   41.0000> <PB=41> 
ColGenEvalAlg final dual bound: 40.2 (rounded: 41)
---- Diving heuristic node with dive number = 1, fix depth = 2 and tabu list size = 1
Fixed projected solution = [x_1_0_1_OspV=1, x_1_34_1_OspV=1, x_1_39_1_OspV=1, x_1_109_1_OspV=1]
<DWph=2> <it=  1> <et=7.46> <Mt= 0.00> <Spt= 0.00> <nCl=  0> <DB=   40.0000> <Mlp=   40.0000> <PB=41> 
<DWph=1> <it=  2> <et=7.46> <Mt= 0.00> <Spt= 0.00> <nCl=  0> <DB=   40.0000> <Mlp=   40.0000> <PB=41> 
<DWph=0> <it=  3> <et=7.46> <Mt= 0.00> <Spt= 0.00> <nCl=  0> <DB=   40.0000> <Mlp=   40.0000> <PB=41> 
ColGenEvalAlg final dual bound: 40 (rounded: 40)
---- Diving heuristic node with dive number = 1, fix depth = 3 and tabu list size = 1
Fixed projected solution = [x_1_0_1_OspV=1, x_1_65_1_OspV=1, x_1_67_1_OspV=1, x_1_84_1_OspV=1]
<DWph=2> <it=  1> <et=7.46> <Mt= 0.00> <Spt= 0.00> <nCl=  0> <DB=   40.0000> <Mlp=   40.0000> <PB=41> 
<DWph=1> <it=  2> <et=7.46> <Mt= 0.00> <Spt= 0.00> <nCl=  0> <DB=   40.0000> <Mlp=   40.0000> <PB=41> 
<DWph=0> <it=  3> <et=7.46> <Mt= 0.00> <Spt= 0.00> <nCl=  0> <DB=   40.0000> <Mlp=   40.0000> <PB=41> 
ColGenEvalAlg final dual bound: 40 (rounded: 40)
---- Diving heuristic node with dive number = 1, fix depth = 4 and tabu list size = 1
Fixed projected solution = [x_1_0_1_OspV=1, x_1_21_1_OspV=1, x_1_35_1_OspV=1, x_1_110_1_OspV=1]
<DWph=2> <it=  1> <et=7.47> <Mt= 0.01> <Spt= 0.00> <nCl=  0> <DB=   40.0000> <Mlp=   40.0000> <PB=41> 
<DWph=1> <it=  2> <et=7.47> <Mt= 0.00> <Spt= 0.00> <nCl=  0> <DB=   40.0000> <Mlp=   40.0000> <PB=41> 
<DWph=0> <it=  3> <et=7.47> <Mt= 0.00> <Spt= 0.00> <nCl=  0> <DB=   40.0000> <Mlp=   40.0000> <PB=41> 
ColGenEvalAlg final dual bound: 40 (rounded: 40)
---- Diving heuristic node with dive number = 1, fix depth = 5 and tabu list size = 1
Fixed projected solution = [x_1_0_1_OspV=1, x_1_15_1_OspV=1, x_1_71_1_OspV=1, x_1_95_1_OspV=1]
<DWph=2> <it=  1> <et=7.47> <Mt= 0.00> <Spt= 0.00> <nCl=  0> <DB=   40.0000> <Mlp=   40.0000> <PB=41> 
<DWph=1> <it=  2> <et=7.47> <Mt= 0.00> <Spt= 0.00> <nCl=  0> <DB=   40.0000> <Mlp=   40.0000> <PB=41> 
<DWph=0> <it=  3> <et=7.47> <Mt= 0.00> <Spt= 0.00> <nCl=  0> <DB=   40.0000> <Mlp=   40.0000> <PB=41> 
ColGenEvalAlg final dual bound: 40 (rounded: 40)
---- Diving heuristic node with dive number = 1, fix depth = 6 and tabu list size = 1
Fixed projected solution = [x_1_0_1_OspV=1, x_1_44_1_OspV=1, x_1_74_1_OspV=1, x_1_89_1_OspV=1]
<DWph=2> <it=  1> <et=7.48> <Mt= 0.00> <Spt= 0.00> <nCl=  0> <DB=   40.0000> <Mlp=   40.0000> <PB=41> 
<DWph=1> <it=  2> <et=7.48> <Mt= 0.00> <Spt= 0.00> <nCl=  0> <DB=   40.0000> <Mlp=   40.0000> <PB=41> 
<DWph=0> <it=  3> <et=7.48> <Mt= 0.00> <Spt= 0.00> <nCl=  0> <DB=   40.0000> <Mlp=   40.0000> <PB=41> 
ColGenEvalAlg final dual bound: 40 (rounded: 40)
---- Diving heuristic node with dive number = 1, fix depth = 7 and tabu list size = 1
Fixed projected solution = [x_1_0_1_OspV=1, x_1_26_1_OspV=1, x_1_47_1_OspV=1, x_1_108_1_OspV=1]
<DWph=2> <it=  1> <et=7.49> <Mt= 0.01> <Spt= 0.00> <nCl=  0> <DB=   40.0000> <Mlp=   40.0000> <PB=41> 
<DWph=1> <it=  2> <et=7.49> <Mt= 0.00> <Spt= 0.00> <nCl=  0> <DB=   40.0000> <Mlp=   40.0000> <PB=41> 
<DWph=0> <it=  3> <et=7.49> <Mt= 0.00> <Spt= 0.00> <nCl=  0> <DB=   40.0000> <Mlp=   40.0000> <PB=41> 
ColGenEvalAlg final dual bound: 40 (rounded: 40)
---- Diving heuristic node with dive number = 1, fix depth = 8 and tabu list size = 1
Fixed projected solution = [x_1_0_1_OspV=1, x_1_46_1_OspV=1, x_1_54_1_OspV=1, x_1_99_1_OspV=1]
<DWph=2> <it=  1> <et=7.50> <Mt= 0.01> <Spt= 0.00> <nCl=  0> <DB=   40.0000> <Mlp=   40.0000> <PB=41> 
<DWph=1> <it=  2> <et=7.50> <Mt= 0.00> <Spt= 0.00> <nCl=  0> <DB=   40.0000> <Mlp=   40.0000> <PB=41> 
<DWph=0> <it=  3> <et=7.50> <Mt= 0.00> <Spt= 0.00> <nCl=  0> <DB=   40.0000> <Mlp=   40.0000> <PB=41> 
ColGenEvalAlg final dual bound: 40 (rounded: 40)
---- Diving heuristic node with dive number = 1, fix depth = 9 and tabu list size = 1
Fixed projected solution = [x_1_0_1_OspV=1, x_1_61_1_OspV=1, x_1_73_1_OspV=1, x_1_82_1_OspV=1]
<DWph=2> <it=  1> <et=7.51> <Mt= 0.01> <Spt= 0.00> <nCl=  0> <DB=   40.0006> <Mlp=   40.0006> <PB=41> 
<DWph=1> <it=  2> <et=7.51> <Mt= 0.00> <Spt= 0.00> <nCl=  0> <DB=   40.0006> <Mlp=   40.0006> <PB=41> 
<DWph=0> <it=  4> <et=7.55> <Mt= 0.00> <Spt= 0.04> <nCl=100> <DB=   40.0000> <Mlp=   40.0000> <PB=41> 
ColGenEvalAlg final dual bound: 40 (rounded: 40)
---- Diving heuristic node with dive number = 1, fix depth = 10 and tabu list size = 1
Fixed projected solution = [x_1_0_1_OspV=1, x_1_24_1_OspV=1, x_1_72_1_OspV=1, x_1_94_1_OspV=1]
<DWph=2> <it=  1> <et=7.56> <Mt= 0.00> <Spt= 0.00> <nCl=  0> <DB=   40.0000> <Mlp=   40.0000> <PB=41> 
<DWph=1> <it=  2> <et=7.56> <Mt= 0.00> <Spt= 0.00> <nCl=  0> <DB=   40.0000> <Mlp=   40.0000> <PB=41> 
<DWph=0> <it=  3> <et=7.56> <Mt= 0.00> <Spt= 0.00> <nCl=  0> <DB=   40.0000> <Mlp=   40.0000> <PB=41> 
ColGenEvalAlg final dual bound: 40 (rounded: 40)
---- Diving heuristic node with dive number = 1, fix depth = 11 and tabu list size = 1
Fixed projected solution = [x_1_0_1_OspV=1, x_1_14_1_OspV=1, x_1_81_1_OspV=1, x_1_85_1_OspV=1]
<DWph=2> <it=  1> <et=7.57> <Mt= 0.01> <Spt= 0.00> <nCl=  0> <DB=   40.0000> <Mlp=   40.0000> <PB=41> 
<DWph=1> <it=  2> <et=7.57> <Mt= 0.00> <Spt= 0.00> <nCl=  0> <DB=   40.0000> <Mlp=   40.0000> <PB=41> 
<DWph=0> <it=  3> <et=7.57> <Mt= 0.00> <Spt= 0.00> <nCl=  0> <DB=   40.0000> <Mlp=   40.0000> <PB=41> 
ColGenEvalAlg final dual bound: 40 (rounded: 40)
---- Diving heuristic node with dive number = 1, fix depth = 12 and tabu list size = 1
Fixed projected solution = [x_1_0_1_OspV=1, x_1_49_1_OspV=1, x_1_69_1_OspV=1, x_1_90_1_OspV=1]
<DWph=2> <it=  1> <et=7.58> <Mt= 0.00> <Spt= 0.00> <nCl=  0> <DB=   40.0000> <Mlp=   40.0000> <PB=41> 
<DWph=1> <it=  2> <et=7.58> <Mt= 0.00> <Spt= 0.00> <nCl=  0> <DB=   40.0000> <Mlp=   40.0000> <PB=41> 
<DWph=0> <it=  3> <et=7.58> <Mt= 0.00> <Spt= 0.00> <nCl=  0> <DB=   40.0000> <Mlp=   40.0000> <PB=41> 
ColGenEvalAlg final dual bound: 40 (rounded: 40)
---- Diving heuristic node with dive number = 1, fix depth = 13 and tabu list size = 1
Fixed projected solution = [x_1_0_1_OspV=1, x_1_50_1_OspV=1, x_1_68_1_OspV=1, x_1_92_1_OspV=1]
<DWph=2> <it=  1> <et=7.58> <Mt= 0.00> <Spt= 0.00> <nCl=  0> <DB=   40.0000> <Mlp=   40.0000> <PB=41> 
<DWph=1> <it=  2> <et=7.58> <Mt= 0.00> <Spt= 0.00> <nCl=  0> <DB=   40.0000> <Mlp=   40.0000> <PB=41> 
<DWph=0> <it=  3> <et=7.59> <Mt= 0.00> <Spt= 0.00> <nCl=  0> <DB=   40.0000> <Mlp=   40.0000> <PB=41> 
ColGenEvalAlg final dual bound: 40 (rounded: 40)
---- Diving heuristic node with dive number = 1, fix depth = 14 and tabu list size = 1
Fixed projected solution = [x_1_0_1_OspV=1, x_1_51_1_OspV=1, x_1_75_1_OspV=1, x_1_86_1_OspV=1]
<DWph=2> <it=  1> <et=7.59> <Mt= 0.01> <Spt= 0.00> <nCl=  0> <DB=   40.0000> <Mlp=   40.0000> <PB=41> 
<DWph=1> <it=  2> <et=7.59> <Mt= 0.00> <Spt= 0.00> <nCl=  0> <DB=   40.0000> <Mlp=   40.0000> <PB=41> 
<DWph=0> <it=  3> <et=7.59> <Mt= 0.00> <Spt= 0.00> <nCl=  0> <DB=   40.0000> <Mlp=   40.0000> <PB=41> 
ColGenEvalAlg final dual bound: 40 (rounded: 40)
---- Diving heuristic node with dive number = 1, fix depth = 14 and tabu list size = 1
Fixed projected solution = [x_1_0_1_OspV=1, x_1_25_1_OspV=1, x_1_80_1_OspV=1, x_1_83_1_OspV=1]
<DWph=2> <it=  1> <et=7.60> <Mt= 0.00> <Spt= 0.00> <nCl=  0> <DB=   40.0000> <Mlp=   40.0000> <PB=41> 
<DWph=1> <it=  2> <et=7.60> <Mt= 0.00> <Spt= 0.00> <nCl=  0> <DB=   40.0000> <Mlp=   40.0000> <PB=41> 
<DWph=0> <it=  3> <et=7.60> <Mt= 0.00> <Spt= 0.00> <nCl=  0> <DB=   40.0000> <Mlp=   40.0000> <PB=41> 
ColGenEvalAlg final dual bound: 40 (rounded: 40)
---- Diving heuristic node with dive number = 1, fix depth = 14 and tabu list size = 1
Fixed projected solution = [x_1_0_1_OspV=1, x_1_20_1_OspV=1, x_1_55_1_OspV=1, x_1_107_1_OspV=1]
<DWph=2> <it=  1> <et=7.60> <Mt= 0.00> <Spt= 0.00> <nCl=  0> <DB=   40.0000> <Mlp=   40.0000> <PB=41> 
<DWph=1> <it=  2> <et=7.60> <Mt= 0.00> <Spt= 0.00> <nCl=  0> <DB=   40.0000> <Mlp=   40.0000> <PB=41> 
<DWph=0> <it=  3> <et=7.60> <Mt= 0.00> <Spt= 0.00> <nCl=  0> <DB=   40.0000> <Mlp=   40.0000> <PB=41> 
ColGenEvalAlg final dual bound: 40 (rounded: 40)
---- Diving heuristic node with dive number = 1, fix depth = 14 and tabu list size = 1
Fixed projected solution = [x_1_0_1_OspV=1, x_1_64_1_OspV=1, x_1_77_1_OspV=1, x_1_79_1_OspV=1]
<DWph=2> <it=  1> <et=7.61> <Mt= 0.00> <Spt= 0.00> <nCl=  0> <DB=   40.0000> <Mlp=   40.0000> <PB=41> 
<DWph=1> <it=  2> <et=7.61> <Mt= 0.00> <Spt= 0.00> <nCl=  0> <DB=   40.0000> <Mlp=   40.0000> <PB=41> 
<DWph=0> <it=  3> <et=7.61> <Mt= 0.00> <Spt= 0.00> <nCl=  0> <DB=   40.0000> <Mlp=   40.0000> <PB=41> 
ColGenEvalAlg final dual bound: 40 (rounded: 40)
---- Diving heuristic node with dive number = 1, fix depth = 14 and tabu list size = 1
Fixed projected solution = [x_1_0_1_OspV=1, x_1_8_1_OspV=1, x_1_12_1_OspV=1, x_1_117_1_OspV=1]
<DWph=2> <it=  1> <et=7.61> <Mt= 0.01> <Spt= 0.00> <nCl=  0> <DB=   40.0000> <Mlp=   40.0000> <PB=41> 
<DWph=1> <it=  2> <et=7.61> <Mt= 0.00> <Spt= 0.00> <nCl=  0> <DB=   40.0000> <Mlp=   40.0000> <PB=41> 
<DWph=0> <it=  3> <et=7.61> <Mt= 0.00> <Spt= 0.00> <nCl=  0> <DB=   40.0000> <Mlp=   40.0000> <PB=41> 
ColGenEvalAlg final dual bound: 40 (rounded: 40)
---- Diving heuristic node with dive number = 1, fix depth = 15 and tabu list size = 1
Fixed projected solution = [x_1_0_1_OspV=1, x_1_5_1_OspV=1, x_1_62_1_OspV=1, x_1_103_1_OspV=1]
<DWph=2> <it=  1> <et=7.62> <Mt= 0.00> <Spt= 0.00> <nCl=  0> <DB=   40.0000> <Mlp=   40.0000> <PB=41> 
<DWph=1> <it=  2> <et=7.62> <Mt= 0.00> <Spt= 0.00> <nCl=  0> <DB=   40.0000> <Mlp=   40.0000> <PB=41> 
<DWph=0> <it=  3> <et=7.62> <Mt= 0.00> <Spt= 0.00> <nCl=  0> <DB=   40.0000> <Mlp=   40.0000> <PB=41> 
ColGenEvalAlg final dual bound: 40 (rounded: 40)
---- Diving heuristic node with dive number = 1, fix depth = 16 and tabu list size = 1
Fixed projected solution = [x_1_0_1_OspV=1, x_1_13_1_OspV=1, x_1_57_1_OspV=1, x_1_106_1_OspV=1]
<DWph=2> <it=  1> <et=7.63> <Mt= 0.00> <Spt= 0.00> <nCl=  0> <DB=   40.0000> <Mlp=   40.0000> <PB=41> 
<DWph=1> <it=  2> <et=7.63> <Mt= 0.00> <Spt= 0.00> <nCl=  0> <DB=   40.0000> <Mlp=   40.0000> <PB=41> 
<DWph=0> <it=  3> <et=7.63> <Mt= 0.00> <Spt= 0.00> <nCl=  0> <DB=   40.0000> <Mlp=   40.0000> <PB=41> 
ColGenEvalAlg final dual bound: 40 (rounded: 40)
---- Diving heuristic node with dive number = 1, fix depth = 16 and tabu list size = 1
Fixed projected solution = [x_1_0_1_OspV=1, x_1_18_1_OspV=1, x_1_60_1_OspV=1, x_1_104_1_OspV=1]
<DWph=2> <it=  1> <et=7.63> <Mt= 0.01> <Spt= 0.00> <nCl=  0> <DB=   40.0000> <Mlp=   40.0000> <PB=41> 
<DWph=1> <it=  2> <et=7.63> <Mt= 0.00> <Spt= 0.00> <nCl=  0> <DB=   40.0000> <Mlp=   40.0000> <PB=41> 
<DWph=0> <it=  3> <et=7.63> <Mt= 0.00> <Spt= 0.00> <nCl=  0> <DB=   40.0000> <Mlp=   40.0000> <PB=41> 
ColGenEvalAlg final dual bound: 40 (rounded: 40)
---- Diving heuristic node with dive number = 1, fix depth = 16 and tabu list size = 1
Fixed projected solution = [x_1_0_1_OspV=1, x_1_23_1_OspV=1, x_1_78_1_OspV=1, x_1_87_1_OspV=1]
<DWph=2> <it=  1> <et=7.64> <Mt= 0.00> <Spt= 0.00> <nCl=  0> <DB=   40.0000> <Mlp=   40.0000> <PB=41> 
<DWph=1> <it=  2> <et=7.64> <Mt= 0.00> <Spt= 0.00> <nCl=  0> <DB=   40.0000> <Mlp=   40.0000> <PB=41> 
<DWph=0> <it=  3> <et=7.64> <Mt= 0.00> <Spt= 0.00> <nCl=  0> <DB=   40.0000> <Mlp=   40.0000> <PB=41> 
ColGenEvalAlg final dual bound: 40 (rounded: 40)
---- Diving heuristic node with dive number = 1, fix depth = 16 and tabu list size = 1
Fixed projected solution = [x_1_0_1_OspV=1, x_1_37_1_OspV=1, x_1_58_1_OspV=1, x_1_97_1_OspV=1]
<DWph=2> <it=  1> <et=7.64> <Mt= 0.00> <Spt= 0.00> <nCl=  0> <DB=   40.0000> <Mlp=   40.0000> <PB=41> 
<DWph=1> <it=  2> <et=7.64> <Mt= 0.00> <Spt= 0.00> <nCl=  0> <DB=   40.0000> <Mlp=   40.0000> <PB=41> 
<DWph=0> <it=  3> <et=7.64> <Mt= 0.00> <Spt= 0.00> <nCl=  0> <DB=   40.0000> <Mlp=   40.0000> <PB=41> 
ColGenEvalAlg final dual bound: 40 (rounded: 40)
---- Diving heuristic node with dive number = 1, fix depth = 16 and tabu list size = 1
Fixed projected solution = [x_1_0_1_OspV=1, x_1_38_1_OspV=1, x_1_63_1_OspV=1, x_1_96_1_OspV=1]
<DWph=2> <it=  1> <et=7.64> <Mt= 0.00> <Spt= 0.00> <nCl=  0> <DB=   40.0000> <Mlp=   40.0000> <PB=41> 
<DWph=1> <it=  2> <et=7.65> <Mt= 0.00> <Spt= 0.00> <nCl=  0> <DB=   40.0000> <Mlp=   40.0000> <PB=41> 
<DWph=0> <it=  3> <et=7.65> <Mt= 0.00> <Spt= 0.00> <nCl=  0> <DB=   40.0000> <Mlp=   40.0000> <PB=41> 
ColGenEvalAlg final dual bound: 40 (rounded: 40)
---- Diving heuristic node with dive number = 1, fix depth = 16 and tabu list size = 1
Fixed projected solution = [x_1_0_1_OspV=1, x_1_59_1_OspV=1, x_1_66_1_OspV=1, x_1_88_1_OspV=1]
<DWph=2> <it=  1> <et=7.65> <Mt= 0.00> <Spt= 0.00> <nCl=  0> <DB=   40.0000> <Mlp=   40.0000> <PB=41> 
<DWph=1> <it=  2> <et=7.65> <Mt= 0.00> <Spt= 0.00> <nCl=  0> <DB=   40.0000> <Mlp=   40.0000> <PB=41> 
<DWph=0> <it=  3> <et=7.65> <Mt= 0.00> <Spt= 0.00> <nCl=  0> <DB=   40.0000> <Mlp=   40.0000> <PB=41> 
ColGenEvalAlg final dual bound: 40 (rounded: 40)
---- Diving heuristic node with dive number = 1, fix depth = 16 and tabu list size = 1
Fixed projected solution = [x_1_0_1_OspV=1, x_1_42_1_OspV=1, x_1_56_1_OspV=1, x_1_98_1_OspV=1]
<DWph=2> <it=  1> <et=7.65> <Mt= 0.00> <Spt= 0.00> <nCl=  0> <DB=   40.0000> <Mlp=   40.0000> <PB=41> 
<DWph=1> <it=  2> <et=7.65> <Mt= 0.00> <Spt= 0.00> <nCl=  0> <DB=   40.0000> <Mlp=   40.0000> <PB=41> 
<DWph=0> <it=  3> <et=7.66> <Mt= 0.00> <Spt= 0.00> <nCl=  0> <DB=   40.0000> <Mlp=   40.0000> <PB=41> 
ColGenEvalAlg final dual bound: 40 (rounded: 40)
---- Diving heuristic node with dive number = 1, fix depth = 17 and tabu list size = 1
Fixed projected solution = [x_1_0_1_OspV=1, x_1_9_1_OspV=1, x_1_31_1_OspV=1, x_1_115_1_OspV=1]
<DWph=2> <it=  1> <et=7.69> <Mt= 0.03> <Spt= 0.00> <nCl=  0> <DB=240040.4000> <Mlp=240040.4000> <PB=41> 
<DWph=1> <it=  2> <et=7.69> <Mt= 0.00> <Spt= 0.00> <nCl=  0> <DB=240040.4000> <Mlp=240040.4000> <PB=41> 
<DWph=0> <it= 10> <et=8.05> <Mt= 0.02> <Spt= 0.34> <nCl=654> <DB=   37.5143> <Mlp=   40.0286> <PB=41> 
<DWph=0> <it= 11> <et=8.09> <Mt= 0.00> <Spt= 0.04> <nCl=  0> <DB=   40.0286> <Mlp=   40.0286> <PB=41> 
ColGenEvalAlg final dual bound: 40.0286 (rounded: 41)
---- Diving heuristic node with dive number = 2, fix depth = 2 and tabu list size = 2
Fixed projected solution = [x_1_0_1_OspV=1, x_1_45_1_OspV=1, x_1_52_1_OspV=1, x_1_100_1_OspV=1]
<DWph=2> <it=  1> <et=8.15> <Mt= 0.00> <Spt= 0.00> <nCl=  0> <DB=   40.0000> <Mlp=   40.0000> <PB=41> 
<DWph=1> <it=  2> <et=8.15> <Mt= 0.00> <Spt= 0.00> <nCl=  0> <DB=   40.0000> <Mlp=   40.0000> <PB=41> 
<DWph=0> <it=  3> <et=8.15> <Mt= 0.00> <Spt= 0.00> <nCl=  0> <DB=   40.0000> <Mlp=   40.0000> <PB=41> 
ColGenEvalAlg final dual bound: 40 (rounded: 40)
---- Diving heuristic node with dive number = 2, fix depth = 3 and tabu list size = 2
Fixed projected solution = [x_1_0_1_OspV=1, x_1_65_1_OspV=1, x_1_67_1_OspV=1, x_1_84_1_OspV=1]
<DWph=2> <it=  1> <et=8.16> <Mt= 0.01> <Spt= 0.00> <nCl=  0> <DB=   40.0000> <Mlp=   40.0000> <PB=41> 
<DWph=1> <it=  2> <et=8.16> <Mt= 0.00> <Spt= 0.00> <nCl=  0> <DB=   40.0000> <Mlp=   40.0000> <PB=41> 
<DWph=0> <it=  3> <et=8.16> <Mt= 0.00> <Spt= 0.00> <nCl=  0> <DB=   40.0000> <Mlp=   40.0000> <PB=41> 
ColGenEvalAlg final dual bound: 40 (rounded: 40)
---- Diving heuristic node with dive number = 2, fix depth = 3 and tabu list size = 2
Fixed projected solution = [x_1_0_1_OspV=1, x_1_18_1_OspV=1, x_1_60_1_OspV=1, x_1_104_1_OspV=1]
<DWph=2> <it=  1> <et=8.16> <Mt= 0.00> <Spt= 0.00> <nCl=  0> <DB=   40.0000> <Mlp=   40.0000> <PB=41> 
<DWph=1> <it=  2> <et=8.16> <Mt= 0.00> <Spt= 0.00> <nCl=  0> <DB=   40.0000> <Mlp=   40.0000> <PB=41> 
<DWph=0> <it=  3> <et=8.17> <Mt= 0.00> <Spt= 0.00> <nCl=  0> <DB=   40.0000> <Mlp=   40.0000> <PB=41> 
ColGenEvalAlg final dual bound: 40 (rounded: 40)
---- Diving heuristic node with dive number = 2, fix depth = 4 and tabu list size = 2
Fixed projected solution = [x_1_0_1_OspV=1, x_1_21_1_OspV=1, x_1_35_1_OspV=1, x_1_110_1_OspV=1]
<DWph=2> <it=  1> <et=8.17> <Mt= 0.00> <Spt= 0.00> <nCl=  0> <DB=   40.0000> <Mlp=   40.0000> <PB=41> 
<DWph=1> <it=  2> <et=8.17> <Mt= 0.00> <Spt= 0.00> <nCl=  0> <DB=   40.0000> <Mlp=   40.0000> <PB=41> 
<DWph=0> <it=  3> <et=8.17> <Mt= 0.00> <Spt= 0.00> <nCl=  0> <DB=   40.0000> <Mlp=   40.0000> <PB=41> 
ColGenEvalAlg final dual bound: 40 (rounded: 40)
---- Diving heuristic node with dive number = 2, fix depth = 5 and tabu list size = 2
Fixed projected solution = [x_1_0_1_OspV=1, x_1_15_1_OspV=1, x_1_71_1_OspV=1, x_1_95_1_OspV=1]
<DWph=2> <it=  1> <et=8.18> <Mt= 0.00> <Spt= 0.00> <nCl=  0> <DB=   40.0000> <Mlp=   40.0000> <PB=41> 
<DWph=1> <it=  2> <et=8.18> <Mt= 0.00> <Spt= 0.00> <nCl=  0> <DB=   40.0000> <Mlp=   40.0000> <PB=41> 
<DWph=0> <it=  3> <et=8.18> <Mt= 0.00> <Spt= 0.00> <nCl=  0> <DB=   40.0000> <Mlp=   40.0000> <PB=41> 
ColGenEvalAlg final dual bound: 40 (rounded: 40)
---- Diving heuristic node with dive number = 2, fix depth = 6 and tabu list size = 2
Fixed projected solution = [x_1_0_1_OspV=1, x_1_14_1_OspV=1, x_1_72_1_OspV=1, x_1_96_1_OspV=1]
<DWph=2> <it=  1> <et=8.19> <Mt= 0.01> <Spt= 0.00> <nCl=  0> <DB=   40.0000> <Mlp=   40.0000> <PB=41> 
<DWph=1> <it=  2> <et=8.19> <Mt= 0.00> <Spt= 0.00> <nCl=  0> <DB=   40.0000> <Mlp=   40.0000> <PB=41> 
<DWph=0> <it=  3> <et=8.19> <Mt= 0.00> <Spt= 0.00> <nCl=  0> <DB=   40.0000> <Mlp=   40.0000> <PB=41> 
ColGenEvalAlg final dual bound: 40 (rounded: 40)
---- Diving heuristic node with dive number = 2, fix depth = 7 and tabu list size = 2
Fixed projected solution = [x_1_0_1_OspV=1, x_1_46_1_OspV=1, x_1_54_1_OspV=1, x_1_99_1_OspV=1]
<DWph=2> <it=  1> <et=8.20> <Mt= 0.01> <Spt= 0.00> <nCl=  0> <DB=   40.0000> <Mlp=   40.0000> <PB=41> 
<DWph=1> <it=  2> <et=8.20> <Mt= 0.00> <Spt= 0.00> <nCl=  0> <DB=   40.0000> <Mlp=   40.0000> <PB=41> 
<DWph=0> <it=  3> <et=8.20> <Mt= 0.00> <Spt= 0.00> <nCl=  0> <DB=   40.0000> <Mlp=   40.0000> <PB=41> 
ColGenEvalAlg final dual bound: 40 (rounded: 40)
---- Diving heuristic node with dive number = 2, fix depth = 8 and tabu list size = 2
Fixed projected solution = [x_1_0_1_OspV=1, x_1_24_1_OspV=1, x_1_81_1_OspV=1, x_1_83_1_OspV=1]
<DWph=2> <it=  1> <et=8.21> <Mt= 0.00> <Spt= 0.00> <nCl=  0> <DB=   40.0004> <Mlp=   40.0004> <PB=41> 
<DWph=1> <it=  2> <et=8.21> <Mt= 0.00> <Spt= 0.00> <nCl=  0> <DB=   40.0004> <Mlp=   40.0004> <PB=41> 
<DWph=0> <it=  4> <et=8.25> <Mt= 0.01> <Spt= 0.03> <nCl=100> <DB=   40.0000> <Mlp=   40.0000> <PB=41> 
ColGenEvalAlg final dual bound: 40 (rounded: 40)
---- Diving heuristic node with dive number = 2, fix depth = 9 and tabu list size = 2
Fixed projected solution = [x_1_0_1_OspV=1, x_1_55_1_OspV=1, x_1_78_1_OspV=1, x_1_80_1_OspV=1]
<DWph=2> <it=  1> <et=8.26> <Mt= 0.00> <Spt= 0.00> <nCl=  0> <DB=   40.0000> <Mlp=   40.0000> <PB=41> 
<DWph=1> <it=  2> <et=8.26> <Mt= 0.00> <Spt= 0.00> <nCl=  0> <DB=   40.0000> <Mlp=   40.0000> <PB=41> 
<DWph=0> <it=  3> <et=8.26> <Mt= 0.00> <Spt= 0.00> <nCl=  0> <DB=   40.0000> <Mlp=   40.0000> <PB=41> 
ColGenEvalAlg final dual bound: 40 (rounded: 40)
---- Diving heuristic node with dive number = 2, fix depth = 10 and tabu list size = 2
Fixed projected solution = [x_1_0_1_OspV=1, x_1_20_1_OspV=1, x_1_56_1_OspV=1, x_1_106_1_OspV=1]
<DWph=2> <it=  1> <et=8.26> <Mt= 0.00> <Spt= 0.00> <nCl=  0> <DB=   40.0000> <Mlp=   40.0000> <PB=41> 
<DWph=1> <it=  2> <et=8.26> <Mt= 0.00> <Spt= 0.00> <nCl=  0> <DB=   40.0000> <Mlp=   40.0000> <PB=41> 
<DWph=0> <it=  3> <et=8.26> <Mt= 0.00> <Spt= 0.00> <nCl=  0> <DB=   40.0000> <Mlp=   40.0000> <PB=41> 
ColGenEvalAlg final dual bound: 40 (rounded: 40)
---- Diving heuristic node with dive number = 2, fix depth = 11 and tabu list size = 2
Fixed projected solution = [x_1_0_1_OspV=1, x_1_48_1_OspV=1, x_1_75_1_OspV=1, x_1_87_1_OspV=1]
<DWph=2> <it=  1> <et=8.27> <Mt= 0.00> <Spt= 0.00> <nCl=  0> <DB=   40.0000> <Mlp=   40.0000> <PB=41> 
<DWph=1> <it=  2> <et=8.27> <Mt= 0.00> <Spt= 0.00> <nCl=  0> <DB=   40.0000> <Mlp=   40.0000> <PB=41> 
<DWph=0> <it=  3> <et=8.27> <Mt= 0.00> <Spt= 0.00> <nCl=  0> <DB=   40.0000> <Mlp=   40.0000> <PB=41> 
ColGenEvalAlg final dual bound: 40 (rounded: 40)
---- Diving heuristic node with dive number = 2, fix depth = 12 and tabu list size = 2
Fixed projected solution = [x_1_0_1_OspV=1, x_1_37_1_OspV=1, x_1_38_1_OspV=1, x_1_107_1_OspV=1]
<DWph=2> <it=  1> <et=8.28> <Mt= 0.01> <Spt= 0.00> <nCl=  0> <DB=   40.0000> <Mlp=   40.0000> <PB=41> 
<DWph=1> <it=  2> <et=8.28> <Mt= 0.00> <Spt= 0.00> <nCl=  0> <DB=   40.0000> <Mlp=   40.0000> <PB=41> 
<DWph=0> <it=  3> <et=8.28> <Mt= 0.00> <Spt= 0.00> <nCl=  0> <DB=   40.0000> <Mlp=   40.0000> <PB=41> 
ColGenEvalAlg final dual bound: 40 (rounded: 40)
---- Diving heuristic node with dive number = 2, fix depth = 13 and tabu list size = 2
Fixed projected solution = [x_1_0_1_OspV=1, x_1_25_1_OspV=1, x_1_64_1_OspV=1, x_1_97_1_OspV=1]
<DWph=2> <it=  1> <et=8.29> <Mt= 0.00> <Spt= 0.00> <nCl=  0> <DB=   40.0000> <Mlp=   40.0000> <PB=41> 
<DWph=1> <it=  2> <et=8.29> <Mt= 0.00> <Spt= 0.00> <nCl=  0> <DB=   40.0000> <Mlp=   40.0000> <PB=41> 
<DWph=0> <it=  3> <et=8.29> <Mt= 0.00> <Spt= 0.00> <nCl=  0> <DB=   40.0000> <Mlp=   40.0000> <PB=41> 
ColGenEvalAlg final dual bound: 40 (rounded: 40)
---- Diving heuristic node with dive number = 2, fix depth = 14 and tabu list size = 2
Fixed projected solution = [x_1_0_1_OspV=1, x_1_12_1_OspV=1, x_1_59_1_OspV=1, x_1_105_1_OspV=1]
<DWph=2> <it=  1> <et=8.30> <Mt= 0.01> <Spt= 0.00> <nCl=  0> <DB=   40.0000> <Mlp=   40.0000> <PB=41> 
<DWph=1> <it=  2> <et=8.30> <Mt= 0.00> <Spt= 0.00> <nCl=  0> <DB=   40.0000> <Mlp=   40.0000> <PB=41> 
<DWph=0> <it=  3> <et=8.30> <Mt= 0.00> <Spt= 0.00> <nCl=  0> <DB=   40.0000> <Mlp=   40.0000> <PB=41> 
ColGenEvalAlg final dual bound: 40 (rounded: 40)
---- Diving heuristic node with dive number = 2, fix depth = 14 and tabu list size = 2
Fixed projected solution = [x_1_0_1_OspV=1, x_1_6_1_OspV=1, x_1_13_1_OspV=1, x_1_117_1_OspV=1]
<DWph=2> <it=  1> <et=8.30> <Mt= 0.00> <Spt= 0.00> <nCl=  0> <DB=   40.0000> <Mlp=   40.0000> <PB=41> 
<DWph=1> <it=  2> <et=8.30> <Mt= 0.00> <Spt= 0.00> <nCl=  0> <DB=   40.0000> <Mlp=   40.0000> <PB=41> 
<DWph=0> <it=  3> <et=8.30> <Mt= 0.00> <Spt= 0.00> <nCl=  0> <DB=   40.0000> <Mlp=   40.0000> <PB=41> 
ColGenEvalAlg final dual bound: 40 (rounded: 40)
---- Diving heuristic node with dive number = 2, fix depth = 15 and tabu list size = 2
Fixed projected solution = [x_1_0_1_OspV=1, x_1_26_1_OspV=1, x_1_47_1_OspV=1, x_1_108_1_OspV=1]
<DWph=2> <it=  1> <et=8.31> <Mt= 0.01> <Spt= 0.00> <nCl=  0> <DB=   40.0000> <Mlp=   40.0000> <PB=41> 
<DWph=1> <it=  2> <et=8.31> <Mt= 0.00> <Spt= 0.00> <nCl=  0> <DB=   40.0000> <Mlp=   40.0000> <PB=41> 
<DWph=0> <it=  3> <et=8.31> <Mt= 0.00> <Spt= 0.00> <nCl=  0> <DB=   40.0000> <Mlp=   40.0000> <PB=41> 
ColGenEvalAlg final dual bound: 40 (rounded: 40)
---- Diving heuristic node with dive number = 2, fix depth = 15 and tabu list size = 2
Fixed projected solution = [x_1_0_1_OspV=1, x_1_8_1_OspV=1, x_1_19_1_OspV=1, x_1_116_1_OspV=1]
<DWph=2> <it=  1> <et=8.32> <Mt= 0.00> <Spt= 0.00> <nCl=  0> <DB=   40.0000> <Mlp=   40.0000> <PB=41> 
<DWph=1> <it=  2> <et=8.32> <Mt= 0.00> <Spt= 0.00> <nCl=  0> <DB=   40.0000> <Mlp=   40.0000> <PB=41> 
<DWph=0> <it=  3> <et=8.32> <Mt= 0.00> <Spt= 0.00> <nCl=  0> <DB=   40.0000> <Mlp=   40.0000> <PB=41> 
ColGenEvalAlg final dual bound: 40 (rounded: 40)
---- Diving heuristic node with dive number = 2, fix depth = 16 and tabu list size = 2
Fixed projected solution = [x_1_0_1_OspV=1, x_1_9_1_OspV=1, x_1_31_1_OspV=1, x_1_115_1_OspV=1]
<DWph=2> <it=  1> <et=8.33> <Mt= 0.01> <Spt= 0.00> <nCl=  0> <DB=   40.0015> <Mlp=   40.0015> <PB=41> 
<DWph=1> <it=  2> <et=8.33> <Mt= 0.00> <Spt= 0.00> <nCl=  0> <DB=   40.0015> <Mlp=   40.0015> <PB=41> 
<DWph=0> <it=  4> <et=8.41> <Mt= 0.01> <Spt= 0.08> <nCl= 51> <DB=   40.0005> <Mlp=   40.0005> <PB=41> 
ColGenEvalAlg final dual bound: 40.0005 (rounded: 41)
---- Diving heuristic node with dive number = 3, fix depth = 2 and tabu list size = 3
Fixed projected solution = [x_1_0_1_OspV=1, x_1_21_1_OspV=1, x_1_35_1_OspV=1, x_1_110_1_OspV=1]
<DWph=2> <it=  1> <et=8.50> <Mt= 0.00> <Spt= 0.00> <nCl=  0> <DB=   40.0000> <Mlp=   40.0000> <PB=41> 
<DWph=1> <it=  2> <et=8.50> <Mt= 0.00> <Spt= 0.00> <nCl=  0> <DB=   40.0000> <Mlp=   40.0000> <PB=41> 
<DWph=0> <it=  3> <et=8.50> <Mt= 0.00> <Spt= 0.00> <nCl=  0> <DB=   40.0000> <Mlp=   40.0000> <PB=41> 
ColGenEvalAlg final dual bound: 40 (rounded: 40)
---- Diving heuristic node with dive number = 3, fix depth = 3 and tabu list size = 3
Fixed projected solution = [x_1_0_1_OspV=1, x_1_15_1_OspV=1, x_1_71_1_OspV=1, x_1_95_1_OspV=1]
<DWph=2> <it=  1> <et=8.50> <Mt= 0.00> <Spt= 0.00> <nCl=  0> <DB=   40.0000> <Mlp=   40.0000> <PB=41> 
<DWph=1> <it=  2> <et=8.50> <Mt= 0.00> <Spt= 0.00> <nCl=  0> <DB=   40.0000> <Mlp=   40.0000> <PB=41> 
<DWph=0> <it=  3> <et=8.51> <Mt= 0.00> <Spt= 0.00> <nCl=  0> <DB=   40.0000> <Mlp=   40.0000> <PB=41> 
ColGenEvalAlg final dual bound: 40 (rounded: 40)
---- Diving heuristic node with dive number = 3, fix depth = 4 and tabu list size = 3
Fixed projected solution = [x_1_0_1_OspV=1, x_1_65_1_OspV=1, x_1_67_1_OspV=1, x_1_84_1_OspV=1]
<DWph=2> <it=  1> <et=8.51> <Mt= 0.00> <Spt= 0.00> <nCl=  0> <DB=   40.0000> <Mlp=   40.0000> <PB=41> 
<DWph=1> <it=  2> <et=8.51> <Mt= 0.00> <Spt= 0.00> <nCl=  0> <DB=   40.0000> <Mlp=   40.0000> <PB=41> 
<DWph=0> <it=  3> <et=8.51> <Mt= 0.00> <Spt= 0.00> <nCl=  0> <DB=   40.0000> <Mlp=   40.0000> <PB=41> 
ColGenEvalAlg final dual bound: 40 (rounded: 40)
---- Diving heuristic node with dive number = 3, fix depth = 5 and tabu list size = 3
Fixed projected solution = [x_1_0_1_OspV=1, x_1_61_1_OspV=1, x_1_73_1_OspV=1, x_1_82_1_OspV=1]
<DWph=2> <it=  1> <et=8.52> <Mt= 0.01> <Spt= 0.00> <nCl=  0> <DB=   40.0000> <Mlp=   40.0000> <PB=41> 
<DWph=1> <it=  2> <et=8.52> <Mt= 0.00> <Spt= 0.00> <nCl=  0> <DB=   40.0000> <Mlp=   40.0000> <PB=41> 
<DWph=0> <it=  3> <et=8.52> <Mt= 0.00> <Spt= 0.00> <nCl=  0> <DB=   40.0000> <Mlp=   40.0000> <PB=41> 
ColGenEvalAlg final dual bound: 40 (rounded: 40)
---- Diving heuristic node with dive number = 3, fix depth = 6 and tabu list size = 3
Fixed projected solution = [x_1_0_1_OspV=1, x_1_41_1_OspV=1, x_1_43_1_OspV=1, x_1_102_1_OspV=1]
<DWph=2> <it=  1> <et=8.53> <Mt= 0.00> <Spt= 0.00> <nCl=  0> <DB=   40.0000> <Mlp=   40.0000> <PB=41> 
<DWph=1> <it=  2> <et=8.53> <Mt= 0.00> <Spt= 0.00> <nCl=  0> <DB=   40.0000> <Mlp=   40.0000> <PB=41> 
<DWph=0> <it=  3> <et=8.53> <Mt= 0.00> <Spt= 0.00> <nCl=  0> <DB=   40.0000> <Mlp=   40.0000> <PB=41> 
ColGenEvalAlg final dual bound: 40 (rounded: 40)
---- Diving heuristic node with dive number = 3, fix depth = 7 and tabu list size = 3
Fixed projected solution = [x_1_0_1_OspV=1, x_1_5_1_OspV=1, x_1_62_1_OspV=1, x_1_103_1_OspV=1]
<DWph=2> <it=  1> <et=8.54> <Mt= 0.01> <Spt= 0.00> <nCl=  0> <DB=   40.0001> <Mlp=   40.0001> <PB=41> 
<DWph=1> <it=  2> <et=8.54> <Mt= 0.00> <Spt= 0.00> <nCl=  0> <DB=   40.0001> <Mlp=   40.0001> <PB=41> 
<DWph=0> <it=  4> <et=8.58> <Mt= 0.01> <Spt= 0.03> <nCl=100> <DB=   40.0000> <Mlp=   40.0000> <PB=41> 
ColGenEvalAlg final dual bound: 40 (rounded: 40)
---- Diving heuristic node with dive number = 3, fix depth = 8 and tabu list size = 3
Fixed projected solution = [x_1_0_1_OspV=1, x_1_44_1_OspV=1, x_1_74_1_OspV=1, x_1_89_1_OspV=1]
<DWph=2> <it=  1> <et=8.59> <Mt= 0.00> <Spt= 0.00> <nCl=  0> <DB=   40.0000> <Mlp=   40.0000> <PB=41> 
<DWph=1> <it=  2> <et=8.59> <Mt= 0.00> <Spt= 0.00> <nCl=  0> <DB=   40.0000> <Mlp=   40.0000> <PB=41> 
<DWph=0> <it=  3> <et=8.59> <Mt= 0.00> <Spt= 0.00> <nCl=  0> <DB=   40.0000> <Mlp=   40.0000> <PB=41> 
ColGenEvalAlg final dual bound: 40 (rounded: 40)
---- Diving heuristic node with dive number = 3, fix depth = 9 and tabu list size = 3
Fixed projected solution = [x_1_0_1_OspV=1, x_1_26_1_OspV=1, x_1_47_1_OspV=1, x_1_108_1_OspV=1]
<DWph=2> <it=  1> <et=8.60> <Mt= 0.00> <Spt= 0.00> <nCl=  0> <DB=   40.0000> <Mlp=   40.0000> <PB=41> 
<DWph=1> <it=  2> <et=8.60> <Mt= 0.01> <Spt= 0.00> <nCl=  0> <DB=   40.0000> <Mlp=   40.0000> <PB=41> 
<DWph=0> <it=  3> <et=8.60> <Mt= 0.00> <Spt= 0.00> <nCl=  0> <DB=   40.0000> <Mlp=   40.0000> <PB=41> 
ColGenEvalAlg final dual bound: 40 (rounded: 40)
---- Diving heuristic node with dive number = 3, fix depth = 10 and tabu list size = 3
Fixed projected solution = [x_1_0_1_OspV=1, x_1_49_1_OspV=1, x_1_50_1_OspV=1, x_1_98_1_OspV=1]
<DWph=2> <it=  1> <et=8.61> <Mt= 0.00> <Spt= 0.00> <nCl=  0> <DB=   40.0000> <Mlp=   40.0000> <PB=41> 
<DWph=1> <it=  2> <et=8.61> <Mt= 0.00> <Spt= 0.00> <nCl=  0> <DB=   40.0000> <Mlp=   40.0000> <PB=41> 
<DWph=0> <it=  3> <et=8.61> <Mt= 0.00> <Spt= 0.00> <nCl=  0> <DB=   40.0000> <Mlp=   40.0000> <PB=41> 
ColGenEvalAlg final dual bound: 40 (rounded: 40)
---- Diving heuristic node with dive number = 3, fix depth = 11 and tabu list size = 3
Fixed projected solution = [x_1_0_1_OspV=1, x_1_59_1_OspV=1, x_1_69_1_OspV=1, x_1_86_1_OspV=1]
<DWph=2> <it=  1> <et=8.62> <Mt= 0.00> <Spt= 0.00> <nCl=  0> <DB=   40.0000> <Mlp=   40.0000> <PB=41> 
<DWph=1> <it=  2> <et=8.62> <Mt= 0.00> <Spt= 0.00> <nCl=  0> <DB=   40.0000> <Mlp=   40.0000> <PB=41> 
<DWph=0> <it=  3> <et=8.62> <Mt= 0.01> <Spt= 0.00> <nCl=  0> <DB=   40.0000> <Mlp=   40.0000> <PB=41> 
ColGenEvalAlg final dual bound: 40 (rounded: 40)
---- Diving heuristic node with dive number = 3, fix depth = 12 and tabu list size = 3
Fixed projected solution = [x_1_0_1_OspV=1, x_1_14_1_OspV=1, x_1_81_1_OspV=1, x_1_85_1_OspV=1]
<DWph=2> <it=  1> <et=8.63> <Mt= 0.00> <Spt= 0.00> <nCl=  0> <DB=   40.0000> <Mlp=   40.0000> <PB=41> 
<DWph=1> <it=  2> <et=8.63> <Mt= 0.00> <Spt= 0.00> <nCl=  0> <DB=   40.0000> <Mlp=   40.0000> <PB=41> 
<DWph=0> <it=  3> <et=8.63> <Mt= 0.00> <Spt= 0.00> <nCl=  0> <DB=   40.0000> <Mlp=   40.0000> <PB=41> 
ColGenEvalAlg final dual bound: 40 (rounded: 40)
---- Diving heuristic node with dive number = 3, fix depth = 12 and tabu list size = 3
Fixed projected solution = [x_1_0_1_OspV=1, x_1_24_1_OspV=1, x_1_72_1_OspV=1, x_1_94_1_OspV=1]
<DWph=2> <it=  1> <et=8.63> <Mt= 0.00> <Spt= 0.00> <nCl=  0> <DB=   40.0000> <Mlp=   40.0000> <PB=41> 
<DWph=1> <it=  2> <et=8.63> <Mt= 0.00> <Spt= 0.00> <nCl=  0> <DB=   40.0000> <Mlp=   40.0000> <PB=41> 
<DWph=0> <it=  3> <et=8.63> <Mt= 0.00> <Spt= 0.00> <nCl=  0> <DB=   40.0000> <Mlp=   40.0000> <PB=41> 
ColGenEvalAlg final dual bound: 40 (rounded: 40)
---- Diving heuristic node with dive number = 3, fix depth = 13 and tabu list size = 3
Fixed projected solution = [x_1_0_1_OspV=1, x_1_32_1_OspV=1, x_1_75_1_OspV=1, x_1_92_1_OspV=1]
<DWph=2> <it=  1> <et=8.64> <Mt= 0.01> <Spt= 0.00> <nCl=  0> <DB=   40.0000> <Mlp=   40.0000> <PB=41> 
<DWph=1> <it=  2> <et=8.64> <Mt= 0.00> <Spt= 0.00> <nCl=  0> <DB=   40.0000> <Mlp=   40.0000> <PB=41> 
<DWph=0> <it=  3> <et=8.64> <Mt= 0.00> <Spt= 0.00> <nCl=  0> <DB=   40.0000> <Mlp=   40.0000> <PB=41> 
ColGenEvalAlg final dual bound: 40 (rounded: 40)
---- Diving heuristic node with dive number = 3, fix depth = 14 and tabu list size = 3
Fixed projected solution = [x_1_0_1_OspV=1, x_1_48_1_OspV=1, x_1_58_1_OspV=1, x_1_96_1_OspV=1]
<DWph=2> <it=  1> <et=8.65> <Mt= 0.00> <Spt= 0.00> <nCl=  0> <DB=   40.0000> <Mlp=   40.0000> <PB=41> 
<DWph=1> <it=  2> <et=8.65> <Mt= 0.00> <Spt= 0.00> <nCl=  0> <DB=   40.0000> <Mlp=   40.0000> <PB=41> 
<DWph=0> <it=  3> <et=8.65> <Mt= 0.00> <Spt= 0.00> <nCl=  0> <DB=   40.0000> <Mlp=   40.0000> <PB=41> 
ColGenEvalAlg final dual bound: 40 (rounded: 40)
---- Diving heuristic node with dive number = 3, fix depth = 14 and tabu list size = 3
Fixed projected solution = [x_1_0_1_OspV=1, x_1_12_1_OspV=1, x_1_79_1_OspV=1, x_1_87_1_OspV=1]
<DWph=2> <it=  1> <et=8.65> <Mt= 0.00> <Spt= 0.00> <nCl=  0> <DB=   40.0000> <Mlp=   40.0000> <PB=41> 
<DWph=1> <it=  2> <et=8.65> <Mt= 0.00> <Spt= 0.00> <nCl=  0> <DB=   40.0000> <Mlp=   40.0000> <PB=41> 
<DWph=0> <it=  3> <et=8.65> <Mt= 0.00> <Spt= 0.00> <nCl=  0> <DB=   40.0000> <Mlp=   40.0000> <PB=41> 
ColGenEvalAlg final dual bound: 40 (rounded: 40)
---- Diving heuristic node with dive number = 3, fix depth = 14 and tabu list size = 3
Fixed projected solution = [x_1_0_1_OspV=1, x_1_54_1_OspV=1, x_1_68_1_OspV=1, x_1_90_1_OspV=1]
<DWph=2> <it=  1> <et=8.66> <Mt= 0.00> <Spt= 0.00> <nCl=  0> <DB=   40.0000> <Mlp=   40.0000> <PB=41> 
<DWph=1> <it=  2> <et=8.66> <Mt= 0.00> <Spt= 0.00> <nCl=  0> <DB=   40.0000> <Mlp=   40.0000> <PB=41> 
<DWph=0> <it=  3> <et=8.66> <Mt= 0.00> <Spt= 0.00> <nCl=  0> <DB=   40.0000> <Mlp=   40.0000> <PB=41> 
ColGenEvalAlg final dual bound: 40 (rounded: 40)
---- Diving heuristic node with dive number = 3, fix depth = 14 and tabu list size = 3
Fixed projected solution = [x_1_0_1_OspV=1, x_1_34_1_OspV=1, x_1_78_1_OspV=1, x_1_83_1_OspV=1]
<DWph=2> <it=  1> <et=8.66> <Mt= 0.01> <Spt= 0.00> <nCl=  0> <DB=   40.0000> <Mlp=   40.0000> <PB=41> 
<DWph=1> <it=  2> <et=8.66> <Mt= 0.00> <Spt= 0.00> <nCl=  0> <DB=   40.0000> <Mlp=   40.0000> <PB=41> 
<DWph=0> <it=  3> <et=8.66> <Mt= 0.00> <Spt= 0.00> <nCl=  0> <DB=   40.0000> <Mlp=   40.0000> <PB=41> 
ColGenEvalAlg final dual bound: 40 (rounded: 40)
---- Diving heuristic node with dive number = 3, fix depth = 14 and tabu list size = 3
Fixed projected solution = [x_1_0_1_OspV=1, x_1_6_1_OspV=1, x_1_13_1_OspV=1, x_1_117_1_OspV=1]
<DWph=2> <it=  1> <et=8.67> <Mt= 0.00> <Spt= 0.00> <nCl=  0> <DB=   40.0000> <Mlp=   40.0000> <PB=41> 
<DWph=1> <it=  2> <et=8.67> <Mt= 0.00> <Spt= 0.00> <nCl=  0> <DB=   40.0000> <Mlp=   40.0000> <PB=41> 
<DWph=0> <it=  3> <et=8.67> <Mt= 0.00> <Spt= 0.00> <nCl=  0> <DB=   40.0000> <Mlp=   40.0000> <PB=41> 
ColGenEvalAlg final dual bound: 40 (rounded: 40)
---- Diving heuristic node with dive number = 3, fix depth = 14 and tabu list size = 3
Fixed projected solution = [x_1_0_1_OspV=1, x_1_25_1_OspV=1, x_1_64_1_OspV=1, x_1_97_1_OspV=1]
<DWph=2> <it=  1> <et=8.67> <Mt= 0.00> <Spt= 0.00> <nCl=  0> <DB=   40.0000> <Mlp=   40.0000> <PB=41> 
<DWph=1> <it=  2> <et=8.67> <Mt= 0.00> <Spt= 0.00> <nCl=  0> <DB=   40.0000> <Mlp=   40.0000> <PB=41> 
<DWph=0> <it=  3> <et=8.67> <Mt= 0.00> <Spt= 0.00> <nCl=  0> <DB=   40.0000> <Mlp=   40.0000> <PB=41> 
ColGenEvalAlg final dual bound: 40 (rounded: 40)
---- Diving heuristic node with dive number = 3, fix depth = 14 and tabu list size = 3
Fixed projected solution = [x_1_0_1_OspV=1, x_1_63_1_OspV=1, x_1_77_1_OspV=1, x_1_80_1_OspV=1]
<DWph=2> <it=  1> <et=8.68> <Mt= 0.00> <Spt= 0.00> <nCl=  0> <DB=   40.0000> <Mlp=   40.0000> <PB=41> 
<DWph=1> <it=  2> <et=8.68> <Mt= 0.00> <Spt= 0.00> <nCl=  0> <DB=   40.0000> <Mlp=   40.0000> <PB=41> 
<DWph=0> <it=  3> <et=8.68> <Mt= 0.00> <Spt= 0.00> <nCl=  0> <DB=   40.0000> <Mlp=   40.0000> <PB=41> 
ColGenEvalAlg final dual bound: 40 (rounded: 40)
---- Diving heuristic node with dive number = 3, fix depth = 15 and tabu list size = 3
Fixed projected solution = [x_1_0_1_OspV=1, x_1_22_1_OspV=1, x_1_66_1_OspV=1, x_1_99_1_OspV=1]
<DWph=2> <it=  1> <et=8.70> <Mt= 0.02> <Spt= 0.00> <nCl=  0> <DB=   40.0407> <Mlp=   40.0407> <PB=41> 
<DWph=1> <it=  2> <et=8.70> <Mt= 0.00> <Spt= 0.00> <nCl=  0> <DB=   40.0407> <Mlp=   40.0407> <PB=41> 
<DWph=0> <it=  7> <et=8.86> <Mt= 0.01> <Spt= 0.15> <nCl=381> <DB=   40.0000> <Mlp=   40.0000> <PB=40> 
ColGenEvalAlg final dual bound: 40 (rounded: 40)
New model incumbent solution 40, TIME = 0h0m8s90t = 890
************************************************************************************************
Search is finished, global bounds : [ 40 , 40 ], TIME = 0h0m8s90t = 890
************************************************************************************************
[32mBaPCod : solution defined.[00m
statistics_cols: instance & :Optimal & cutoff & :bcRecRootDb & :bcTimeRootEval & :bcCountNodeProc & :bcRecBestDb & :bcRecBestInc & :bcTimeMain \\
statistics: Falkenauer_t120_17 & 1 & 1.0e6 & 40.00 & 4.77 & 1 & 40.00 & 40 & 8.90 \\
########################################################
bin_id=1: 256(0) 360(1) 384(1) 
bin_id=2: 259(1) 308(1) 433(0) 
bin_id=3: 252(1) 301(0) 447(0) 
bin_id=4: 270(0) 288(0) 442(1) 
bin_id=5: 254(1) 275(0) 471(0) 
bin_id=6: 269(0) 332(0) 399(1) 
bin_id=7: 257(0) 321(1) 422(0) 
bin_id=8: 257(0) 269(1) 474(0) 
bin_id=9: 266(1) 280(1) 454(0) 
bin_id=10: 255(0) 357(0) 388(1) 
bin_id=11: 251(1) 254(1) 495(0) 
bin_id=12: 251(1) 253(1) 496(0) 
bin_id=13: 275(1) 279(0) 446(0) 
bin_id=14: 250(0) 251(1) 499(0) 
bin_id=15: 257(1) 266(1) 477(0) 
bin_id=16: 257(1) 267(0) 476(0) 
bin_id=17: 300(1) 323(1) 377(0) 
bin_id=18: 288(1) 314(1) 398(0) 
bin_id=19: 253(1) 258(0) 489(0) 
bin_id=20: 283(1) 285(0) 432(1) 
bin_id=21: 273(0) 274(0) 453(1) 
bin_id=22: 259(0) 271(0) 470(1) 
bin_id=23: 285(1) 319(1) 396(0) 
bin_id=24: 269(1) 330(0) 401(0) 
bin_id=25: 292(1) 294(1) 414(0) 
bin_id=26: 279(0) 324(1) 397(1) 
bin_id=27: 296(1) 319(1) 385(0) 
bin_id=28: 307(1) 314(0) 379(0) 
bin_id=29: 270(1) 352(0) 378(1) 
bin_id=30: 282(1) 296(0) 422(1) 
bin_id=31: 252(1) 256(0) 492(0) 
bin_id=32: 263(0) 306(1) 431(1) 
bin_id=33: 272(1) 279(1) 449(0) 
bin_id=34: 262(0) 322(1) 416(1) 
bin_id=35: 260(0) 267(1) 473(0) 
bin_id=36: 276(0) 289(1) 435(1) 
bin_id=37: 274(1) 279(0) 447(0) 
bin_id=38: 258(0) 286(1) 456(0) 
bin_id=39: 304(0) 337(0) 359(1) 
bin_id=40: 254(0) 296(1) 450(1) 
Objective value: 40.0
########################################################
