Academic license - for non-commercial use only - expires 2025-02-09
Gurobi Optimizer version 9.1.2 build v9.1.2rc0 (linux64)
Thread count: 20 physical cores, 40 logical processors, using up to 1 threads
Optimize a model with 1756 rows, 25225 columns and 121146 nonzeros
Model fingerprint: 0x4d2fb292
Variable types: 0 continuous, 25225 integer (0 binary)
Coefficient statistics:
  Matrix range     [1e+00, 1e+00]
  Objective range  [1e+00, 1e+00]
  Bounds range     [1e+02, 1e+02]
  RHS range        [1e+00, 1e+00]

Warning: Completing partial solution with 25082 unfixed non-continuous variables out of 25225
User MIP start produced solution with objective 48 (0.03s)
Loaded user MIP start with objective 48

Presolve removed 882 rows and 4345 columns
Presolve time: 0.23s
Presolved: 874 rows, 20880 columns, 66605 nonzeros
Variable types: 0 continuous, 20880 integer (20632 binary)

Root relaxation: objective 3.400000e+01, 4429 iterations, 0.59 seconds

    Nodes    |    Current Node    |     Objective Bounds      |     Work
 Expl Unexpl |  Obj  Depth IntInf | Incumbent    BestBd   Gap | It/Node Time

*    0     0               0      34.0000000   34.00000  0.00%     -    0s

Explored 0 nodes (5080 simplex iterations) in 0.98 seconds
Thread count was 1 (of 40 available processors)

Solution count 2: 34 48 

Optimal solution found (tolerance 1.00e-04)
Best objective 3.400000000000e+01, best bound 3.400000000000e+01, gap 0.0000%
1	25225	1756	0	34	34	1.072
