Academic license - for non-commercial use only - expires 2025-02-09
Gurobi Optimizer version 9.1.2 build v9.1.2rc0 (linux64)
Thread count: 20 physical cores, 40 logical processors, using up to 1 threads
Optimize a model with 2461 rows, 178658 columns and 864672 nonzeros
Model fingerprint: 0xcc9efbe5
Variable types: 0 continuous, 178658 integer (0 binary)
Coefficient statistics:
  Matrix range     [1e+00, 1e+00]
  Objective range  [1e+00, 1e+00]
  Bounds range     [5e+02, 5e+02]
  RHS range        [1e+00, 1e+00]

Warning: Completing partial solution with 178012 unfixed non-continuous variables out of 178658
User MIP start produced solution with objective 225 (0.24s)
Loaded user MIP start with objective 225

Presolve removed 902 rows and 26500 columns
Presolve time: 2.05s
Presolved: 1559 rows, 152158 columns, 535726 nonzeros
Found heuristic solution: objective 225.0000000
Variable types: 0 continuous, 152158 integer (151822 binary)

Root simplex log...

Iteration    Objective       Primal Inf.    Dual Inf.      Time
    8405    1.6600068e+02   9.277892e+03   0.000000e+00      5s
   20893    1.6644637e+02   2.100554e+04   0.000000e+00     10s
   34977    1.6644974e+02   3.895932e+05   0.000000e+00     15s
   40720    1.6700000e+02   0.000000e+00   0.000000e+00     20s

Root relaxation: objective 1.670000e+02, 40720 iterations, 17.22 seconds
Total elapsed time = 23.85s
Total elapsed time = 34.90s
Total elapsed time = 38.14s
Total elapsed time = 41.27s

    Nodes    |    Current Node    |     Objective Bounds      |     Work
 Expl Unexpl |  Obj  Depth IntInf | Incumbent    BestBd   Gap | It/Node Time

*    0     0               0     167.0000000  167.00000  0.00%     -   44s

Explored 0 nodes (195140 simplex iterations) in 44.13 seconds
Thread count was 1 (of 40 available processors)

Solution count 3: 167 225 225 

Optimal solution found (tolerance 1.00e-04)
Best objective 1.670000000000e+02, best bound 1.670000000000e+02, gap 0.0000%
1	178658	2461	0	167	167	44.545
