Academic license - for non-commercial use only - expires 2025-02-09
Gurobi Optimizer version 9.1.2 build v9.1.2rc0 (linux64)
Thread count: 20 physical cores, 40 logical processors, using up to 1 threads
Optimize a model with 3507 rows, 251502 columns and 1757508 nonzeros
Model fingerprint: 0xc980d4c4
Variable types: 0 continuous, 251502 integer (251502 binary)
Coefficient statistics:
  Matrix range     [1e+00, 1e+06]
  Objective range  [1e+00, 1e+00]
  Bounds range     [1e+00, 1e+00]
  RHS range        [1e+00, 1e+00]

Loaded user MIP start with objective 231

Presolve time: 1.83s
Presolved: 3507 rows, 251502 columns, 1757508 nonzeros
Variable types: 0 continuous, 251502 integer (251502 binary)

Root relaxation: objective 2.267875e+02, 4550 iterations, 1.39 seconds
Total elapsed time = 5.31s

    Nodes    |    Current Node    |     Objective Bounds      |     Work
 Expl Unexpl |  Obj  Depth IntInf | Incumbent    BestBd   Gap | It/Node Time

     0     0  226.78751    0  387  231.00000  226.78751  1.82%     -    8s
     0     0  226.78751    0  522  231.00000  226.78751  1.82%     -   12s
     0     0  226.78751    0  556  231.00000  226.78751  1.82%     -   31s
     0     0  226.78751    0  370  231.00000  226.78751  1.82%     -   40s

Cutting planes:
  Cover: 209
  Clique: 101
  MIR: 11
  StrongCG: 11
  RLT: 7

Explored 1 nodes (37131 simplex iterations) in 60.04 seconds
Thread count was 1 (of 40 available processors)

Solution count 1: 231 

Time limit reached
Best objective 2.310000000000e+02, best bound 2.270000000000e+02, gap 1.7316%
0	251502	3507	1	227	231	60.635
