Academic license - for non-commercial use only - expires 2025-02-09
Gurobi Optimizer version 9.1.2 build v9.1.2rc0 (linux64)
Thread count: 20 physical cores, 40 logical processors, using up to 1 threads
Optimize a model with 3507 rows, 251502 columns and 1757508 nonzeros
Model fingerprint: 0xb7a83c18
Variable types: 0 continuous, 251502 integer (251502 binary)
Coefficient statistics:
  Matrix range     [1e+00, 1e+03]
  Objective range  [1e+00, 1e+00]
  Bounds range     [1e+00, 1e+00]
  RHS range        [1e+00, 1e+00]

Loaded user MIP start with objective 227

Presolve time: 1.81s
Presolved: 3507 rows, 251502 columns, 1757508 nonzeros
Variable types: 0 continuous, 251502 integer (251502 binary)

Root relaxation: objective 2.240899e+02, 4618 iterations, 1.41 seconds
Total elapsed time = 6.53s

    Nodes    |    Current Node    |     Objective Bounds      |     Work
 Expl Unexpl |  Obj  Depth IntInf | Incumbent    BestBd   Gap | It/Node Time

     0     0  224.08991    0  358  227.00000  224.08991  1.28%     -   10s
     0     0  224.08991    0  464  227.00000  224.08991  1.28%     -   14s
     0     0  224.08991    0  552  227.00000  224.08991  1.28%     -   28s
     0     0  224.08991    0  372  227.00000  224.08991  1.28%     -   40s
     0     0  224.08991    0  528  227.00000  224.08991  1.28%     -   51s
     0     0  224.08991    0  382  227.00000  224.08991  1.28%     -   60s

Cutting planes:
  Cover: 195
  Clique: 57
  MIR: 124
  StrongCG: 130
  RLT: 5

Explored 1 nodes (108311 simplex iterations) in 60.05 seconds
Thread count was 1 (of 40 available processors)

Solution count 1: 227 

Time limit reached
Best objective 2.270000000000e+02, best bound 2.250000000000e+02, gap 0.8811%
0	251502	3507	1	225	227	60.651
