Application parameters:
  batch  =>  nothing
  instance  =>  "/IN/N102W1000001R2550Q5-005"
  ub  =>  1.0e6
  cfg  =>  "/CFG/BPP.cfg"
data = Colored Bin Packing dataset.
number of items = 102
number of colors = 5
capacity = 1000001
Items : 
	 item 1, weight= 250100, color= 2
	 item 2, weight= 250157, color= 1
	 item 3, weight= 250260, color= 0
	 item 4, weight= 250261, color= 4
	 item 5, weight= 250598, color= 3
	 item 6, weight= 251914, color= 1
	 item 7, weight= 252328, color= 3
	 item 8, weight= 252518, color= 2
	 item 9, weight= 256426, color= 4
	 item 10, weight= 256759, color= 4
	 item 11, weight= 257857, color= 4
	 item 12, weight= 258174, color= 1
	 item 13, weight= 259050, color= 0
	 item 14, weight= 261623, color= 1
	 item 15, weight= 262128, color= 0
	 item 16, weight= 262563, color= 3
	 item 17, weight= 263284, color= 2
	 item 18, weight= 265958, color= 1
	 item 19, weight= 268172, color= 2
	 item 20, weight= 268354, color= 4
	 item 21, weight= 271162, color= 4
	 item 22, weight= 272319, color= 1
	 item 23, weight= 272557, color= 0
	 item 24, weight= 273986, color= 2
	 item 25, weight= 274068, color= 4
	 item 26, weight= 275183, color= 1
	 item 27, weight= 275208, color= 1
	 item 28, weight= 276168, color= 0
	 item 29, weight= 277446, color= 4
	 item 30, weight= 277708, color= 4
	 item 31, weight= 279649, color= 2
	 item 32, weight= 280567, color= 1
	 item 33, weight= 281671, color= 1
	 item 34, weight= 287403, color= 0
	 item 35, weight= 287646, color= 1
	 item 36, weight= 290737, color= 0
	 item 37, weight= 292380, color= 2
	 item 38, weight= 292525, color= 0
	 item 39, weight= 292867, color= 1
	 item 40, weight= 293801, color= 2
	 item 41, weight= 294883, color= 0
	 item 42, weight= 296962, color= 0
	 item 43, weight= 299865, color= 3
	 item 44, weight= 301569, color= 4
	 item 45, weight= 304570, color= 4
	 item 46, weight= 305253, color= 4
	 item 47, weight= 305357, color= 3
	 item 48, weight= 306372, color= 0
	 item 49, weight= 308554, color= 4
	 item 50, weight= 312292, color= 1
	 item 51, weight= 318410, color= 2
	 item 52, weight= 320576, color= 1
	 item 53, weight= 325293, color= 2
	 item 54, weight= 327603, color= 3
	 item 55, weight= 327927, color= 1
	 item 56, weight= 328481, color= 3
	 item 57, weight= 333530, color= 3
	 item 58, weight= 334523, color= 0
	 item 59, weight= 336220, color= 2
	 item 60, weight= 338446, color= 1
	 item 61, weight= 341406, color= 1
	 item 62, weight= 342862, color= 0
	 item 63, weight= 344928, color= 2
	 item 64, weight= 349716, color= 4
	 item 65, weight= 353242, color= 1
	 item 66, weight= 353385, color= 1
	 item 67, weight= 355183, color= 3
	 item 68, weight= 355600, color= 0
	 item 69, weight= 358917, color= 4
	 item 70, weight= 368454, color= 4
	 item 71, weight= 368898, color= 0
	 item 72, weight= 370138, color= 1
	 item 73, weight= 372691, color= 2
	 item 74, weight= 373690, color= 1
	 item 75, weight= 375454, color= 1
	 item 76, weight= 375468, color= 0
	 item 77, weight= 379461, color= 2
	 item 78, weight= 380022, color= 2
	 item 79, weight= 382456, color= 1
	 item 80, weight= 385904, color= 0
	 item 81, weight= 386227, color= 2
	 item 82, weight= 386276, color= 4
	 item 83, weight= 391492, color= 2
	 item 84, weight= 396866, color= 0
	 item 85, weight= 403348, color= 4
	 item 86, weight= 403801, color= 0
	 item 87, weight= 413348, color= 3
	 item 88, weight= 414609, color= 2
	 item 89, weight= 416862, color= 3
	 item 90, weight= 425593, color= 3
	 item 91, weight= 431017, color= 2
	 item 92, weight= 431556, color= 4
	 item 93, weight= 435064, color= 2
	 item 94, weight= 448222, color= 2
	 item 95, weight= 456172, color= 2
	 item 96, weight= 457875, color= 3
	 item 97, weight= 463593, color= 1
	 item 98, weight= 474589, color= 0
	 item 99, weight= 481387, color= 1
	 item 100, weight= 497075, color= 1
	 item 101, weight= 497222, color= 1
	 item 102, weight= 499744, color= 4

VRPSolver warning: Interval set for resource 1 on source node (when source != sink) is ignored (by definition is [0.0,0.0])
VRPSolver warning: Interval set for resource 2 on source node (when source != sink) is ignored (by definition is [0.0,0.0])
VRPSolver warning: Interval set for resource 3 on source node (when source != sink) is ignored (by definition is [0.0,0.0])
VRPSolver warning: Interval set for resource 4 on source node (when source != sink) is ignored (by definition is [0.0,0.0])
VRPSolver warning: Interval set for resource 5 on source node (when source != sink) is ignored (by definition is [0.0,0.0])
VRPSolver warning: Interval set for resource 6 on source node (when source != sink) is ignored (by definition is [0.0,0.0])
[41m solve [00m
~~~~~~~~~~~~~~~~~~~~~~~~~~~~~~~~~~~~~~~~~~~~~~~~~~~~~~~~~~~~~~~~~~~~~~~~~~~~~~
VRPSolver v0.4.1, 24/03/2021. Web: vrpsolver.math.u-bordeaux.fr
Corresponds to the solver by Pessoa, Sadykov, Uchoa and Vanderbeck (2020)
Paper: dx.doi.org/10.1007/s10107-020-01523-z
USE THIS CODE ONLY FOR ACADEMIC PURPOSES AT YOUR OWN RISK
~~~~~~~~~~~~~~~~~~~~~~~~~~~~~~~~~~~~~~~~~~~~~~~~~~~~~~~~~~~~~~~~~~~~~~~~~~~~~~
BaPCod v053, 24/03/2021, © Inria Bordeaux, France
~~~~~~~~~~~~~~~~~~~~~~~~~~~~~~~~~~~~~~~~~~~~~~~~~~~~~~~~~~~~~~~~~~~~~~~~~~~~~~
VRPSolver parameters:
GlobalTimeLimit = 60
MaxNbOfBBtreeNodeTreated = 100000
treeSearchStrategy = 1
RCSPstopCutGenTimeThresholdInPricing = 10
RCSPhardTimeThresholdInPricing = 20
RCSPnumberOfBucketsPerVertex = 2000
RCSPdynamicBucketSteps = 0
RCSPuseBidirectionalSearch = 1
RCSPapplyReducedCostFixing = 1
RCSPredCostFixingFalseGap = 0
RCSPmaxNumOfColsPerIteration = 100
RCSPmaxNumOfColsPerExactIteration = 100
RCSPheurLabelingStrategy = 4
StabilizationMinPhaseOfStage = 1
RCSPmaxNumOfLabelsInEnumeration = 100000
RCSPmaxNumOfEnumeratedSolutions = 1000000
RCSPmaxNumOfEnumSolutionsForMIP = 100000
RCSPinitNGneighbourhoodSize = 0
RCSPmaxNGneighbourhoodSize = 0
RCSPrankOneCutsMaxNumPerRound = 100
RCSPrankOneCutsMaxNumRows = -1
RCSPrankOneCutsMemoryType = 2
CutTailingOffThreshold = 0.02
CutTailingOffCounterThreshold = 3
SafeDualBoundScaleFactor = -1
StrongBranchingPhaseOneCandidatesNumber = 100
StrongBranchingPhaseOneTreeSizeEstimRatio = 0.3
StrongBranchingPhaseTwoCandidatesNumber = 1
StrongBranchingPhaseTwoTreeSizeEstimRatio = 0.1
MaxTimeForRestrictedMasterIpHeur = -1
DivingHeurUseDepthLimit = 0
MaxLDSbreadth = 3
MaxLDSdepth = 2
New model incumbent solution 1e+06, TIME = 0h0m0s3t = 3
Model is built TIME = 0h0m1s68t = 168
************************************************************************************************
**** BaB tree root node
**** Local DB = -1e+12, global bounds : [ -1e+12 , 1e+06 ], TIME = 0h0m1s68t = 168
**** 1 open nodes, 0 columns (0 active), 0 dyn. constrs. (0 active), 206 art. vars. (206 active)
************************************************************************************************
<DWph=2> <it= 10> <et=2.13> <Mt= 0.00> <Spt= 0.44> <nCl=1000> <DB=-260064260.8435> <Mlp=43600022.8333> <PB=1000000> 
<DWph=2> <it= 20> <et=2.67> <Mt= 0.02> <Spt= 0.53> <nCl=923> <DB=   22.8577> <Mlp=   34.5417> <PB=1000000> 
<DWph=2> <it= 30> <et=3.16> <Mt= 0.03> <Spt= 0.45> <nCl=530> <DB=   33.9077> <Mlp=   34.0012> <PB=1000000> 
<DWph=2> <it= 32> <et=3.30> <Mt= 0.00> <Spt= 0.13> <nCl=  2> <DB=   34.0000> <Mlp=   34.0000> <PB=34> 
<DWph=1> <it= 35> <et=3.48> <Mt= 0.01> <Spt= 0.18> <nCl=  4> <DB=   34.0000> <Mlp=   34.0000> <PB=34> 
<DWph=0> <it= 36> <et=3.53> <Mt= 0.00> <Spt= 0.05> <nCl=  0> <DB=   34.0000> <Mlp=   34.0000> <PB=34> 
ColGenEvalAlg final dual bound: 34 (rounded: 34)
New model incumbent solution 34, TIME = 0h0m3s56t = 356
************************************************************************************************
Search is finished, global bounds : [ 34 , 34 ], TIME = 0h0m3s56t = 356
************************************************************************************************
[32mBaPCod : solution defined.[00m
statistics_cols: instance & :Optimal & cutoff & :bcRecRootDb & :bcTimeRootEval & :bcCountNodeProc & :bcRecBestDb & :bcRecBestInc & :bcTimeMain \\
statistics: N102W1000001R2550Q5-005 & 1 & 1.0e6 & 34.00 & 3.56 & 1 & 34.00 & 34 & 3.56 \\
########################################################
bin_id=1: 257857(4) 368454(4) 373690(1) 
bin_id=2: 258174(1) 355600(0) 386227(2) 
bin_id=3: 305357(3) 344928(2) 349716(4) 
bin_id=4: 262563(3) 320576(1) 416862(3) 
bin_id=5: 265958(1) 276168(0) 457875(3) 
bin_id=6: 262128(0) 263284(2) 474589(0) 
bin_id=7: 250260(0) 268354(4) 481387(1) 
bin_id=8: 250598(3) 252328(3) 497075(1) 
bin_id=9: 251914(1) 299865(3) 448222(2) 
bin_id=10: 250100(2) 250157(1) 499744(4) 
bin_id=11: 304570(4) 325293(2) 370138(1) 
bin_id=12: 305253(4) 312292(1) 382456(1) 
bin_id=13: 274068(4) 353242(1) 372691(2) 
bin_id=14: 277446(4) 296962(0) 425593(3) 
bin_id=15: 275183(1) 293801(2) 431017(2) 
bin_id=16: 268172(2) 328481(3) 403348(4) 
bin_id=17: 273986(2) 334523(0) 391492(2) 
bin_id=18: 306372(0) 338446(1) 355183(3) 
bin_id=19: 281671(1) 342862(0) 375468(0) 
bin_id=20: 256759(4) 279649(2) 463593(1) 
bin_id=21: 250261(4) 252518(2) 497222(1) 
bin_id=22: 275208(1) 327927(1) 396866(0) 
bin_id=23: 287646(1) 308554(4) 403801(0) 
bin_id=24: 259050(0) 327603(3) 413348(3) 
bin_id=25: 301569(4) 318410(2) 380022(2) 
bin_id=26: 256426(4) 287403(0) 456172(2) 
bin_id=27: 272557(0) 292380(2) 435064(2) 
bin_id=28: 280567(1) 333530(3) 385904(0) 
bin_id=29: 294883(0) 336220(2) 368898(0) 
bin_id=30: 261623(1) 358917(4) 379461(2) 
bin_id=31: 271162(4) 353385(1) 375454(1) 
bin_id=32: 292525(0) 292867(1) 414609(2) 
bin_id=33: 272319(1) 341406(1) 386276(4) 
bin_id=34: 277708(4) 290737(0) 431556(4) 
Objective value: 34.0
########################################################
