Application parameters:
  batch  =>  nothing
  instance  =>  "/IN/N102W1000001R2550Q20-003"
  ub  =>  1.0e6
  cfg  =>  "/CFG/BPP.cfg"
data = Colored Bin Packing dataset.
number of items = 102
number of colors = 20
capacity = 1000001
Items : 
	 item 1, weight= 250332, color= 19
	 item 2, weight= 250885, color= 1
	 item 3, weight= 252501, color= 1
	 item 4, weight= 253197, color= 8
	 item 5, weight= 253416, color= 8
	 item 6, weight= 254692, color= 8
	 item 7, weight= 254700, color= 19
	 item 8, weight= 254808, color= 9
	 item 9, weight= 254831, color= 6
	 item 10, weight= 255264, color= 17
	 item 11, weight= 256330, color= 3
	 item 12, weight= 259834, color= 19
	 item 13, weight= 260292, color= 4
	 item 14, weight= 260761, color= 6
	 item 15, weight= 263145, color= 6
	 item 16, weight= 263589, color= 5
	 item 17, weight= 264249, color= 6
	 item 18, weight= 264607, color= 0
	 item 19, weight= 265581, color= 5
	 item 20, weight= 265746, color= 5
	 item 21, weight= 268781, color= 12
	 item 22, weight= 270838, color= 15
	 item 23, weight= 271171, color= 10
	 item 24, weight= 272661, color= 0
	 item 25, weight= 277312, color= 14
	 item 26, weight= 277874, color= 11
	 item 27, weight= 278831, color= 11
	 item 28, weight= 282001, color= 0
	 item 29, weight= 283099, color= 12
	 item 30, weight= 283524, color= 13
	 item 31, weight= 284285, color= 16
	 item 32, weight= 284712, color= 4
	 item 33, weight= 285474, color= 6
	 item 34, weight= 286721, color= 15
	 item 35, weight= 289428, color= 1
	 item 36, weight= 291618, color= 12
	 item 37, weight= 297398, color= 3
	 item 38, weight= 297821, color= 10
	 item 39, weight= 298432, color= 14
	 item 40, weight= 299399, color= 5
	 item 41, weight= 301770, color= 16
	 item 42, weight= 303169, color= 8
	 item 43, weight= 308417, color= 5
	 item 44, weight= 308875, color= 7
	 item 45, weight= 308939, color= 7
	 item 46, weight= 309444, color= 5
	 item 47, weight= 315457, color= 0
	 item 48, weight= 316231, color= 1
	 item 49, weight= 316799, color= 7
	 item 50, weight= 318148, color= 8
	 item 51, weight= 318851, color= 16
	 item 52, weight= 320227, color= 11
	 item 53, weight= 320712, color= 5
	 item 54, weight= 321223, color= 3
	 item 55, weight= 321256, color= 17
	 item 56, weight= 322676, color= 17
	 item 57, weight= 327914, color= 13
	 item 58, weight= 328755, color= 4
	 item 59, weight= 329081, color= 16
	 item 60, weight= 334391, color= 17
	 item 61, weight= 340286, color= 10
	 item 62, weight= 342842, color= 15
	 item 63, weight= 343737, color= 6
	 item 64, weight= 350281, color= 1
	 item 65, weight= 352772, color= 6
	 item 66, weight= 353449, color= 5
	 item 67, weight= 354036, color= 3
	 item 68, weight= 354725, color= 6
	 item 69, weight= 357098, color= 4
	 item 70, weight= 359802, color= 7
	 item 71, weight= 362441, color= 11
	 item 72, weight= 362716, color= 12
	 item 73, weight= 365541, color= 10
	 item 74, weight= 368313, color= 14
	 item 75, weight= 369240, color= 19
	 item 76, weight= 371847, color= 10
	 item 77, weight= 373758, color= 17
	 item 78, weight= 375609, color= 13
	 item 79, weight= 381347, color= 9
	 item 80, weight= 383869, color= 11
	 item 81, weight= 385426, color= 2
	 item 82, weight= 389886, color= 19
	 item 83, weight= 393763, color= 14
	 item 84, weight= 394439, color= 4
	 item 85, weight= 406350, color= 10
	 item 86, weight= 407214, color= 18
	 item 87, weight= 407480, color= 15
	 item 88, weight= 415404, color= 12
	 item 89, weight= 428404, color= 11
	 item 90, weight= 432699, color= 10
	 item 91, weight= 434449, color= 10
	 item 92, weight= 435988, color= 8
	 item 93, weight= 436434, color= 10
	 item 94, weight= 443400, color= 15
	 item 95, weight= 454411, color= 16
	 item 96, weight= 456141, color= 3
	 item 97, weight= 462519, color= 7
	 item 98, weight= 463091, color= 19
	 item 99, weight= 476412, color= 14
	 item 100, weight= 482156, color= 14
	 item 101, weight= 484445, color= 6
	 item 102, weight= 493339, color= 7

VRPSolver warning: Interval set for resource 1 on source node (when source != sink) is ignored (by definition is [0.0,0.0])
VRPSolver warning: Interval set for resource 2 on source node (when source != sink) is ignored (by definition is [0.0,0.0])
VRPSolver warning: Interval set for resource 3 on source node (when source != sink) is ignored (by definition is [0.0,0.0])
VRPSolver warning: Interval set for resource 4 on source node (when source != sink) is ignored (by definition is [0.0,0.0])
VRPSolver warning: Interval set for resource 5 on source node (when source != sink) is ignored (by definition is [0.0,0.0])
VRPSolver warning: Interval set for resource 6 on source node (when source != sink) is ignored (by definition is [0.0,0.0])
VRPSolver warning: Interval set for resource 7 on source node (when source != sink) is ignored (by definition is [0.0,0.0])
VRPSolver warning: Interval set for resource 8 on source node (when source != sink) is ignored (by definition is [0.0,0.0])
VRPSolver warning: Interval set for resource 9 on source node (when source != sink) is ignored (by definition is [0.0,0.0])
VRPSolver warning: Interval set for resource 10 on source node (when source != sink) is ignored (by definition is [0.0,0.0])
VRPSolver warning: Interval set for resource 11 on source node (when source != sink) is ignored (by definition is [0.0,0.0])
VRPSolver warning: Interval set for resource 12 on source node (when source != sink) is ignored (by definition is [0.0,0.0])
VRPSolver warning: Interval set for resource 13 on source node (when source != sink) is ignored (by definition is [0.0,0.0])
VRPSolver warning: Interval set for resource 14 on source node (when source != sink) is ignored (by definition is [0.0,0.0])
VRPSolver warning: Interval set for resource 15 on source node (when source != sink) is ignored (by definition is [0.0,0.0])
VRPSolver warning: Interval set for resource 16 on source node (when source != sink) is ignored (by definition is [0.0,0.0])
VRPSolver warning: Interval set for resource 17 on source node (when source != sink) is ignored (by definition is [0.0,0.0])
VRPSolver warning: Interval set for resource 18 on source node (when source != sink) is ignored (by definition is [0.0,0.0])
VRPSolver warning: Interval set for resource 19 on source node (when source != sink) is ignored (by definition is [0.0,0.0])
VRPSolver warning: Interval set for resource 20 on source node (when source != sink) is ignored (by definition is [0.0,0.0])
VRPSolver warning: Interval set for resource 21 on source node (when source != sink) is ignored (by definition is [0.0,0.0])
[41m solve [00m
~~~~~~~~~~~~~~~~~~~~~~~~~~~~~~~~~~~~~~~~~~~~~~~~~~~~~~~~~~~~~~~~~~~~~~~~~~~~~~
VRPSolver v0.4.1, 24/03/2021. Web: vrpsolver.math.u-bordeaux.fr
Corresponds to the solver by Pessoa, Sadykov, Uchoa and Vanderbeck (2020)
Paper: dx.doi.org/10.1007/s10107-020-01523-z
USE THIS CODE ONLY FOR ACADEMIC PURPOSES AT YOUR OWN RISK
~~~~~~~~~~~~~~~~~~~~~~~~~~~~~~~~~~~~~~~~~~~~~~~~~~~~~~~~~~~~~~~~~~~~~~~~~~~~~~
BaPCod v053, 24/03/2021, © Inria Bordeaux, France
~~~~~~~~~~~~~~~~~~~~~~~~~~~~~~~~~~~~~~~~~~~~~~~~~~~~~~~~~~~~~~~~~~~~~~~~~~~~~~
VRPSolver parameters:
GlobalTimeLimit = 60
MaxNbOfBBtreeNodeTreated = 100000
treeSearchStrategy = 1
RCSPstopCutGenTimeThresholdInPricing = 10
RCSPhardTimeThresholdInPricing = 20
RCSPnumberOfBucketsPerVertex = 2000
RCSPdynamicBucketSteps = 0
RCSPuseBidirectionalSearch = 1
RCSPapplyReducedCostFixing = 1
RCSPredCostFixingFalseGap = 0
RCSPmaxNumOfColsPerIteration = 100
RCSPmaxNumOfColsPerExactIteration = 100
RCSPheurLabelingStrategy = 4
StabilizationMinPhaseOfStage = 1
RCSPmaxNumOfLabelsInEnumeration = 100000
RCSPmaxNumOfEnumeratedSolutions = 1000000
RCSPmaxNumOfEnumSolutionsForMIP = 100000
RCSPinitNGneighbourhoodSize = 0
RCSPmaxNGneighbourhoodSize = 0
RCSPrankOneCutsMaxNumPerRound = 100
RCSPrankOneCutsMaxNumRows = -1
RCSPrankOneCutsMemoryType = 2
CutTailingOffThreshold = 0.02
CutTailingOffCounterThreshold = 3
SafeDualBoundScaleFactor = -1
StrongBranchingPhaseOneCandidatesNumber = 100
StrongBranchingPhaseOneTreeSizeEstimRatio = 0.3
StrongBranchingPhaseTwoCandidatesNumber = 1
StrongBranchingPhaseTwoTreeSizeEstimRatio = 0.1
MaxTimeForRestrictedMasterIpHeur = -1
DivingHeurUseDepthLimit = 0
MaxLDSbreadth = 3
MaxLDSdepth = 2
New model incumbent solution 1e+06, TIME = 0h0m0s2t = 2
