Application parameters:
  batch  =>  nothing
  instance  =>  "/IN/N2001W1000001R2550Q20-002"
  ub  =>  1.0e6
  cfg  =>  "/CFG/BPP.cfg"
data = Colored Bin Packing dataset.
number of items = 2001
number of colors = 20
capacity = 1000001
Items : 
	 item 1, weight= 250016, color= 16
	 item 2, weight= 250073, color= 19
	 item 3, weight= 250117, color= 0
	 item 4, weight= 250123, color= 1
	 item 5, weight= 250124, color= 0
	 item 6, weight= 250139, color= 18
	 item 7, weight= 250167, color= 14
	 item 8, weight= 250198, color= 14
	 item 9, weight= 250201, color= 19
	 item 10, weight= 250227, color= 13
	 item 11, weight= 250236, color= 11
	 item 12, weight= 250314, color= 4
	 item 13, weight= 250314, color= 17
	 item 14, weight= 250379, color= 5
	 item 15, weight= 250417, color= 2
	 item 16, weight= 250431, color= 18
	 item 17, weight= 250447, color= 9
	 item 18, weight= 250447, color= 15
	 item 19, weight= 250454, color= 19
	 item 20, weight= 250470, color= 5
	 item 21, weight= 250481, color= 19
	 item 22, weight= 250487, color= 16
	 item 23, weight= 250496, color= 1
	 item 24, weight= 250524, color= 7
	 item 25, weight= 250581, color= 15
	 item 26, weight= 250656, color= 9
	 item 27, weight= 250728, color= 12
	 item 28, weight= 250736, color= 0
	 item 29, weight= 250769, color= 17
	 item 30, weight= 250781, color= 6
	 item 31, weight= 250787, color= 9
	 item 32, weight= 250818, color= 15
	 item 33, weight= 250829, color= 4
	 item 34, weight= 250901, color= 18
	 item 35, weight= 250928, color= 16
	 item 36, weight= 250950, color= 3
	 item 37, weight= 251028, color= 10
	 item 38, weight= 251109, color= 15
	 item 39, weight= 251144, color= 16
	 item 40, weight= 251270, color= 16
	 item 41, weight= 251277, color= 16
	 item 42, weight= 251293, color= 10
	 item 43, weight= 251302, color= 13
	 item 44, weight= 251302, color= 16
	 item 45, weight= 251332, color= 11
	 item 46, weight= 251416, color= 5
	 item 47, weight= 251424, color= 13
	 item 48, weight= 251428, color= 1
	 item 49, weight= 251453, color= 1
	 item 50, weight= 251460, color= 0
	 item 51, weight= 251464, color= 14
	 item 52, weight= 251481, color= 17
	 item 53, weight= 251523, color= 13
	 item 54, weight= 251526, color= 6
	 item 55, weight= 251550, color= 18
	 item 56, weight= 251597, color= 17
	 item 57, weight= 251639, color= 16
	 item 58, weight= 251647, color= 15
	 item 59, weight= 251691, color= 4
	 item 60, weight= 251712, color= 0
	 item 61, weight= 251744, color= 16
	 item 62, weight= 251747, color= 13
	 item 63, weight= 251783, color= 17
	 item 64, weight= 251837, color= 2
	 item 65, weight= 251860, color= 7
	 item 66, weight= 251910, color= 19
	 item 67, weight= 251934, color= 0
	 item 68, weight= 251948, color= 13
	 item 69, weight= 251969, color= 7
	 item 70, weight= 251997, color= 2
	 item 71, weight= 251998, color= 1
	 item 72, weight= 252043, color= 10
	 item 73, weight= 252103, color= 11
	 item 74, weight= 252182, color= 8
	 item 75, weight= 252235, color= 12
	 item 76, weight= 252287, color= 16
	 item 77, weight= 252310, color= 15
	 item 78, weight= 252329, color= 14
	 item 79, weight= 252389, color= 10
	 item 80, weight= 252457, color= 18
	 item 81, weight= 252468, color= 4
	 item 82, weight= 252485, color= 9
	 item 83, weight= 252491, color= 17
	 item 84, weight= 252501, color= 15
	 item 85, weight= 252606, color= 12
	 item 86, weight= 252615, color= 0
	 item 87, weight= 252623, color= 13
	 item 88, weight= 252665, color= 12
	 item 89, weight= 252706, color= 17
	 item 90, weight= 252738, color= 15
	 item 91, weight= 252772, color= 10
	 item 92, weight= 252902, color= 7
	 item 93, weight= 252929, color= 10
	 item 94, weight= 252934, color= 18
	 item 95, weight= 253019, color= 8
	 item 96, weight= 253050, color= 16
	 item 97, weight= 253051, color= 5
	 item 98, weight= 253080, color= 1
	 item 99, weight= 253096, color= 3
	 item 100, weight= 253098, color= 2
	 item 101, weight= 253172, color= 0
	 item 102, weight= 253194, color= 3
	 item 103, weight= 253210, color= 7
	 item 104, weight= 253252, color= 5
	 item 105, weight= 253253, color= 17
	 item 106, weight= 253278, color= 12
	 item 107, weight= 253287, color= 15
	 item 108, weight= 253306, color= 13
	 item 109, weight= 253318, color= 4
	 item 110, weight= 253318, color= 11
	 item 111, weight= 253381, color= 17
	 item 112, weight= 253391, color= 0
	 item 113, weight= 253424, color= 8
	 item 114, weight= 253436, color= 16
	 item 115, weight= 253485, color= 14
	 item 116, weight= 253496, color= 0
	 item 117, weight= 253556, color= 0
	 item 118, weight= 253579, color= 7
	 item 119, weight= 253612, color= 4
	 item 120, weight= 253636, color= 0
	 item 121, weight= 253668, color= 19
	 item 122, weight= 253682, color= 16
	 item 123, weight= 253698, color= 16
	 item 124, weight= 253705, color= 18
	 item 125, weight= 253708, color= 1
	 item 126, weight= 253824, color= 18
	 item 127, weight= 253862, color= 9
	 item 128, weight= 253885, color= 8
	 item 129, weight= 253906, color= 5
	 item 130, weight= 253957, color= 18
	 item 131, weight= 253996, color= 6
	 item 132, weight= 253997, color= 17
	 item 133, weight= 254129, color= 11
	 item 134, weight= 254129, color= 15
	 item 135, weight= 254155, color= 1
	 item 136, weight= 254159, color= 5
	 item 137, weight= 254217, color= 9
	 item 138, weight= 254256, color= 4
	 item 139, weight= 254324, color= 3
	 item 140, weight= 254368, color= 15
	 item 141, weight= 254379, color= 1
	 item 142, weight= 254395, color= 7
	 item 143, weight= 254432, color= 3
	 item 144, weight= 254522, color= 8
	 item 145, weight= 254531, color= 14
	 item 146, weight= 254550, color= 3
	 item 147, weight= 254853, color= 2
	 item 148, weight= 254873, color= 12
	 item 149, weight= 254891, color= 18
	 item 150, weight= 254937, color= 10
	 item 151, weight= 254986, color= 14
	 item 152, weight= 255003, color= 18
	 item 153, weight= 255043, color= 3
	 item 154, weight= 255081, color= 8
	 item 155, weight= 255111, color= 17
	 item 156, weight= 255305, color= 9
	 item 157, weight= 255324, color= 7
	 item 158, weight= 255425, color= 3
	 item 159, weight= 255456, color= 2
	 item 160, weight= 255462, color= 16
	 item 161, weight= 255494, color= 7
	 item 162, weight= 255505, color= 10
	 item 163, weight= 255530, color= 8
	 item 164, weight= 255538, color= 1
	 item 165, weight= 255607, color= 10
	 item 166, weight= 255669, color= 5
	 item 167, weight= 255677, color= 3
	 item 168, weight= 255677, color= 19
	 item 169, weight= 255679, color= 0
	 item 170, weight= 255703, color= 4
	 item 171, weight= 255707, color= 17
	 item 172, weight= 255792, color= 11
	 item 173, weight= 255920, color= 15
	 item 174, weight= 256006, color= 4
	 item 175, weight= 256013, color= 6
	 item 176, weight= 256175, color= 11
	 item 177, weight= 256196, color= 19
	 item 178, weight= 256220, color= 10
	 item 179, weight= 256251, color= 19
	 item 180, weight= 256327, color= 8
	 item 181, weight= 256341, color= 16
	 item 182, weight= 256352, color= 11
	 item 183, weight= 256389, color= 19
	 item 184, weight= 256416, color= 3
	 item 185, weight= 256443, color= 12
	 item 186, weight= 256498, color= 4
	 item 187, weight= 256560, color= 15
	 item 188, weight= 256571, color= 15
	 item 189, weight= 256581, color= 12
	 item 190, weight= 256588, color= 10
	 item 191, weight= 256590, color= 10
	 item 192, weight= 256619, color= 12
	 item 193, weight= 256623, color= 6
	 item 194, weight= 256638, color= 12
	 item 195, weight= 256709, color= 1
	 item 196, weight= 256875, color= 9
	 item 197, weight= 256897, color= 8
	 item 198, weight= 256902, color= 1
	 item 199, weight= 256950, color= 18
	 item 200, weight= 256981, color= 11
	 item 201, weight= 257008, color= 10
	 item 202, weight= 257071, color= 17
	 item 203, weight= 257174, color= 7
	 item 204, weight= 257203, color= 4
	 item 205, weight= 257217, color= 18
	 item 206, weight= 257224, color= 17
	 item 207, weight= 257270, color= 5
	 item 208, weight= 257295, color= 7
	 item 209, weight= 257296, color= 15
	 item 210, weight= 257318, color= 3
	 item 211, weight= 257421, color= 18
	 item 212, weight= 257443, color= 15
	 item 213, weight= 257591, color= 6
	 item 214, weight= 257591, color= 17
	 item 215, weight= 257651, color= 5
	 item 216, weight= 257733, color= 8
	 item 217, weight= 257740, color= 2
	 item 218, weight= 257758, color= 18
	 item 219, weight= 257812, color= 12
	 item 220, weight= 257832, color= 0
	 item 221, weight= 257854, color= 17
	 item 222, weight= 257906, color= 9
	 item 223, weight= 258188, color= 4
	 item 224, weight= 258239, color= 12
	 item 225, weight= 258316, color= 16
	 item 226, weight= 258380, color= 7
	 item 227, weight= 258407, color= 11
	 item 228, weight= 258408, color= 4
	 item 229, weight= 258410, color= 18
	 item 230, weight= 258419, color= 0
	 item 231, weight= 258504, color= 3
	 item 232, weight= 258554, color= 5
	 item 233, weight= 258645, color= 1
	 item 234, weight= 258650, color= 12
	 item 235, weight= 258660, color= 6
	 item 236, weight= 258682, color= 11
	 item 237, weight= 258695, color= 6
	 item 238, weight= 258707, color= 13
	 item 239, weight= 258737, color= 6
	 item 240, weight= 258767, color= 0
	 item 241, weight= 258817, color= 18
	 item 242, weight= 258900, color= 7
	 item 243, weight= 258959, color= 6
	 item 244, weight= 258995, color= 17
	 item 245, weight= 259124, color= 4
	 item 246, weight= 259131, color= 13
	 item 247, weight= 259231, color= 10
	 item 248, weight= 259281, color= 0
	 item 249, weight= 259289, color= 12
	 item 250, weight= 259292, color= 0
	 item 251, weight= 259332, color= 9
	 item 252, weight= 259392, color= 13
	 item 253, weight= 259392, color= 17
	 item 254, weight= 259403, color= 3
	 item 255, weight= 259442, color= 3
	 item 256, weight= 259488, color= 6
	 item 257, weight= 259530, color= 10
	 item 258, weight= 259599, color= 1
	 item 259, weight= 259603, color= 8
	 item 260, weight= 259626, color= 5
	 item 261, weight= 259670, color= 6
	 item 262, weight= 259679, color= 5
	 item 263, weight= 259821, color= 9
	 item 264, weight= 259877, color= 8
	 item 265, weight= 259911, color= 5
	 item 266, weight= 259932, color= 15
	 item 267, weight= 260012, color= 8
	 item 268, weight= 260037, color= 17
	 item 269, weight= 260141, color= 13
	 item 270, weight= 260214, color= 8
	 item 271, weight= 260229, color= 9
	 item 272, weight= 260241, color= 10
	 item 273, weight= 260243, color= 12
	 item 274, weight= 260405, color= 1
	 item 275, weight= 260429, color= 11
	 item 276, weight= 260446, color= 16
	 item 277, weight= 260495, color= 2
	 item 278, weight= 260523, color= 11
	 item 279, weight= 260641, color= 1
	 item 280, weight= 260655, color= 17
	 item 281, weight= 260694, color= 11
	 item 282, weight= 260712, color= 11
	 item 283, weight= 260812, color= 2
	 item 284, weight= 260888, color= 18
	 item 285, weight= 260906, color= 16
	 item 286, weight= 260979, color= 0
	 item 287, weight= 261020, color= 1
	 item 288, weight= 261067, color= 4
	 item 289, weight= 261095, color= 16
	 item 290, weight= 261153, color= 11
	 item 291, weight= 261268, color= 3
	 item 292, weight= 261332, color= 2
	 item 293, weight= 261357, color= 2
	 item 294, weight= 261371, color= 6
	 item 295, weight= 261488, color= 1
	 item 296, weight= 261498, color= 7
	 item 297, weight= 261590, color= 14
	 item 298, weight= 261607, color= 16
	 item 299, weight= 261623, color= 11
	 item 300, weight= 261627, color= 0
	 item 301, weight= 261783, color= 18
	 item 302, weight= 261809, color= 14
	 item 303, weight= 261812, color= 2
	 item 304, weight= 261874, color= 11
	 item 305, weight= 261918, color= 14
	 item 306, weight= 261932, color= 14
	 item 307, weight= 261982, color= 14
	 item 308, weight= 261982, color= 19
	 item 309, weight= 262008, color= 18
	 item 310, weight= 262015, color= 3
	 item 311, weight= 262033, color= 15
	 item 312, weight= 262046, color= 6
	 item 313, weight= 262106, color= 5
	 item 314, weight= 262165, color= 19
	 item 315, weight= 262348, color= 3
	 item 316, weight= 262363, color= 3
	 item 317, weight= 262440, color= 2
	 item 318, weight= 262598, color= 15
	 item 319, weight= 262626, color= 0
	 item 320, weight= 262702, color= 15
	 item 321, weight= 262810, color= 17
	 item 322, weight= 262812, color= 12
	 item 323, weight= 262831, color= 2
	 item 324, weight= 262951, color= 0
	 item 325, weight= 262991, color= 3
	 item 326, weight= 263017, color= 9
	 item 327, weight= 263019, color= 7
	 item 328, weight= 263214, color= 2
	 item 329, weight= 263218, color= 3
	 item 330, weight= 263221, color= 8
	 item 331, weight= 263230, color= 0
	 item 332, weight= 263305, color= 16
	 item 333, weight= 263406, color= 10
	 item 334, weight= 263410, color= 10
	 item 335, weight= 263438, color= 16
	 item 336, weight= 263468, color= 14
	 item 337, weight= 263532, color= 8
	 item 338, weight= 263572, color= 19
	 item 339, weight= 263660, color= 4
	 item 340, weight= 263725, color= 8
	 item 341, weight= 263744, color= 15
	 item 342, weight= 263757, color= 7
	 item 343, weight= 263761, color= 18
	 item 344, weight= 263827, color= 16
	 item 345, weight= 264001, color= 16
	 item 346, weight= 264014, color= 17
	 item 347, weight= 264118, color= 15
	 item 348, weight= 264145, color= 16
	 item 349, weight= 264166, color= 17
	 item 350, weight= 264223, color= 2
	 item 351, weight= 264358, color= 4
	 item 352, weight= 264535, color= 0
	 item 353, weight= 264604, color= 15
	 item 354, weight= 264663, color= 17
	 item 355, weight= 264682, color= 7
	 item 356, weight= 264718, color= 16
	 item 357, weight= 264722, color= 18
	 item 358, weight= 264734, color= 18
	 item 359, weight= 264818, color= 15
	 item 360, weight= 264827, color= 9
	 item 361, weight= 264836, color= 13
	 item 362, weight= 264876, color= 17
	 item 363, weight= 264998, color= 4
	 item 364, weight= 265024, color= 10
	 item 365, weight= 265037, color= 7
	 item 366, weight= 265079, color= 10
	 item 367, weight= 265087, color= 4
	 item 368, weight= 265122, color= 11
	 item 369, weight= 265133, color= 17
	 item 370, weight= 265152, color= 16
	 item 371, weight= 265186, color= 4
	 item 372, weight= 265214, color= 13
	 item 373, weight= 265441, color= 12
	 item 374, weight= 265515, color= 19
	 item 375, weight= 265780, color= 10
	 item 376, weight= 265903, color= 14
	 item 377, weight= 265910, color= 2
	 item 378, weight= 265972, color= 1
	 item 379, weight= 265989, color= 0
	 item 380, weight= 266115, color= 19
	 item 381, weight= 266153, color= 16
	 item 382, weight= 266214, color= 18
	 item 383, weight= 266241, color= 7
	 item 384, weight= 266260, color= 4
	 item 385, weight= 266315, color= 1
	 item 386, weight= 266355, color= 10
	 item 387, weight= 266423, color= 13
	 item 388, weight= 266424, color= 7
	 item 389, weight= 266447, color= 13
	 item 390, weight= 266527, color= 5
	 item 391, weight= 266546, color= 5
	 item 392, weight= 266548, color= 12
	 item 393, weight= 266604, color= 0
	 item 394, weight= 266700, color= 16
	 item 395, weight= 266723, color= 10
	 item 396, weight= 266740, color= 17
	 item 397, weight= 266813, color= 9
	 item 398, weight= 266922, color= 7
	 item 399, weight= 266927, color= 7
	 item 400, weight= 267087, color= 5
	 item 401, weight= 267101, color= 10
	 item 402, weight= 267147, color= 7
	 item 403, weight= 267225, color= 19
	 item 404, weight= 267234, color= 15
	 item 405, weight= 267352, color= 8
	 item 406, weight= 267447, color= 9
	 item 407, weight= 267484, color= 17
	 item 408, weight= 267541, color= 5
	 item 409, weight= 267698, color= 5
	 item 410, weight= 267873, color= 14
	 item 411, weight= 267962, color= 7
	 item 412, weight= 268068, color= 16
	 item 413, weight= 268279, color= 12
	 item 414, weight= 268398, color= 11
	 item 415, weight= 268474, color= 10
	 item 416, weight= 268482, color= 14
	 item 417, weight= 268755, color= 8
	 item 418, weight= 268757, color= 14
	 item 419, weight= 268822, color= 9
	 item 420, weight= 268833, color= 8
	 item 421, weight= 268900, color= 6
	 item 422, weight= 268943, color= 0
	 item 423, weight= 269049, color= 5
	 item 424, weight= 269062, color= 12
	 item 425, weight= 269067, color= 7
	 item 426, weight= 269197, color= 2
	 item 427, weight= 269286, color= 5
	 item 428, weight= 269328, color= 3
	 item 429, weight= 269425, color= 1
	 item 430, weight= 269490, color= 16
	 item 431, weight= 269560, color= 14
	 item 432, weight= 269570, color= 5
	 item 433, weight= 269623, color= 13
	 item 434, weight= 269626, color= 9
	 item 435, weight= 269638, color= 16
	 item 436, weight= 269649, color= 2
	 item 437, weight= 269676, color= 14
	 item 438, weight= 269706, color= 10
	 item 439, weight= 269730, color= 2
	 item 440, weight= 269756, color= 1
	 item 441, weight= 269788, color= 7
	 item 442, weight= 269816, color= 5
	 item 443, weight= 270013, color= 12
	 item 444, weight= 270074, color= 14
	 item 445, weight= 270135, color= 11
	 item 446, weight= 270181, color= 18
	 item 447, weight= 270254, color= 0
	 item 448, weight= 270285, color= 8
	 item 449, weight= 270315, color= 2
	 item 450, weight= 270444, color= 12
	 item 451, weight= 270488, color= 7
	 item 452, weight= 270503, color= 10
	 item 453, weight= 270832, color= 5
	 item 454, weight= 270878, color= 13
	 item 455, weight= 270923, color= 7
	 item 456, weight= 271155, color= 13
	 item 457, weight= 271176, color= 5
	 item 458, weight= 271271, color= 7
	 item 459, weight= 271339, color= 10
	 item 460, weight= 271351, color= 2
	 item 461, weight= 271438, color= 16
	 item 462, weight= 271583, color= 17
	 item 463, weight= 271781, color= 18
	 item 464, weight= 271799, color= 19
	 item 465, weight= 271887, color= 15
	 item 466, weight= 271955, color= 19
	 item 467, weight= 271993, color= 8
	 item 468, weight= 272011, color= 19
	 item 469, weight= 272024, color= 1
	 item 470, weight= 272029, color= 9
	 item 471, weight= 272227, color= 15
	 item 472, weight= 272338, color= 11
	 item 473, weight= 272420, color= 10
	 item 474, weight= 272465, color= 15
	 item 475, weight= 272470, color= 4
	 item 476, weight= 272470, color= 9
	 item 477, weight= 272607, color= 4
	 item 478, weight= 272627, color= 17
	 item 479, weight= 272650, color= 9
	 item 480, weight= 272696, color= 2
	 item 481, weight= 272845, color= 3
	 item 482, weight= 272877, color= 1
	 item 483, weight= 272939, color= 18
	 item 484, weight= 272992, color= 8
	 item 485, weight= 273034, color= 10
	 item 486, weight= 273064, color= 13
	 item 487, weight= 273081, color= 9
	 item 488, weight= 273104, color= 19
	 item 489, weight= 273110, color= 16
	 item 490, weight= 273117, color= 14
	 item 491, weight= 273182, color= 4
	 item 492, weight= 273207, color= 5
	 item 493, weight= 273210, color= 16
	 item 494, weight= 273339, color= 6
	 item 495, weight= 273492, color= 12
	 item 496, weight= 273590, color= 0
	 item 497, weight= 273609, color= 4
	 item 498, weight= 273671, color= 19
	 item 499, weight= 273689, color= 19
	 item 500, weight= 273729, color= 18
	 item 501, weight= 273768, color= 12
	 item 502, weight= 273788, color= 2
	 item 503, weight= 273797, color= 3
	 item 504, weight= 273821, color= 0
	 item 505, weight= 273879, color= 9
	 item 506, weight= 273943, color= 1
	 item 507, weight= 274022, color= 16
	 item 508, weight= 274039, color= 2
	 item 509, weight= 274242, color= 0
	 item 510, weight= 274247, color= 3
	 item 511, weight= 274466, color= 4
	 item 512, weight= 274577, color= 10
	 item 513, weight= 274641, color= 12
	 item 514, weight= 274677, color= 8
	 item 515, weight= 274777, color= 13
	 item 516, weight= 274789, color= 17
	 item 517, weight= 274847, color= 17
	 item 518, weight= 274855, color= 9
	 item 519, weight= 275021, color= 9
	 item 520, weight= 275147, color= 16
	 item 521, weight= 275229, color= 11
	 item 522, weight= 275243, color= 19
	 item 523, weight= 275250, color= 11
	 item 524, weight= 275468, color= 0
	 item 525, weight= 275505, color= 19
	 item 526, weight= 275518, color= 6
	 item 527, weight= 275536, color= 17
	 item 528, weight= 275571, color= 12
	 item 529, weight= 275638, color= 0
	 item 530, weight= 275681, color= 8
	 item 531, weight= 275749, color= 1
	 item 532, weight= 275768, color= 16
	 item 533, weight= 275805, color= 11
	 item 534, weight= 275836, color= 2
	 item 535, weight= 275867, color= 10
	 item 536, weight= 275894, color= 15
	 item 537, weight= 275949, color= 12
	 item 538, weight= 276053, color= 2
	 item 539, weight= 276103, color= 14
	 item 540, weight= 276144, color= 3
	 item 541, weight= 276210, color= 16
	 item 542, weight= 276350, color= 0
	 item 543, weight= 276419, color= 13
	 item 544, weight= 276421, color= 16
	 item 545, weight= 276430, color= 16
	 item 546, weight= 276519, color= 4
	 item 547, weight= 276574, color= 0
	 item 548, weight= 276703, color= 3
	 item 549, weight= 276704, color= 15
	 item 550, weight= 276716, color= 8
	 item 551, weight= 276856, color= 12
	 item 552, weight= 276882, color= 12
	 item 553, weight= 277114, color= 10
	 item 554, weight= 277123, color= 17
	 item 555, weight= 277230, color= 10
	 item 556, weight= 277458, color= 12
	 item 557, weight= 277464, color= 10
	 item 558, weight= 277466, color= 14
	 item 559, weight= 277617, color= 8
	 item 560, weight= 277626, color= 10
	 item 561, weight= 277636, color= 6
	 item 562, weight= 277660, color= 8
	 item 563, weight= 277726, color= 10
	 item 564, weight= 277743, color= 9
	 item 565, weight= 277754, color= 17
	 item 566, weight= 277766, color= 1
	 item 567, weight= 277869, color= 12
	 item 568, weight= 278001, color= 6
	 item 569, weight= 278020, color= 2
	 item 570, weight= 278062, color= 12
	 item 571, weight= 278102, color= 6
	 item 572, weight= 278112, color= 15
	 item 573, weight= 278121, color= 7
	 item 574, weight= 278211, color= 3
	 item 575, weight= 278257, color= 13
	 item 576, weight= 278431, color= 5
	 item 577, weight= 278729, color= 11
	 item 578, weight= 278756, color= 11
	 item 579, weight= 278964, color= 17
	 item 580, weight= 278972, color= 18
	 item 581, weight= 279007, color= 0
	 item 582, weight= 279315, color= 1
	 item 583, weight= 279343, color= 0
	 item 584, weight= 279427, color= 1
	 item 585, weight= 279455, color= 4
	 item 586, weight= 279541, color= 9
	 item 587, weight= 279774, color= 2
	 item 588, weight= 279990, color= 9
	 item 589, weight= 280002, color= 6
	 item 590, weight= 280199, color= 0
	 item 591, weight= 280466, color= 16
	 item 592, weight= 280492, color= 13
	 item 593, weight= 280547, color= 16
	 item 594, weight= 280568, color= 4
	 item 595, weight= 280583, color= 14
	 item 596, weight= 280639, color= 12
	 item 597, weight= 280659, color= 9
	 item 598, weight= 280668, color= 0
	 item 599, weight= 280668, color= 9
	 item 600, weight= 280683, color= 3
	 item 601, weight= 280705, color= 15
	 item 602, weight= 280851, color= 13
	 item 603, weight= 280920, color= 15
	 item 604, weight= 280939, color= 12
	 item 605, weight= 280988, color= 17
	 item 606, weight= 281014, color= 16
	 item 607, weight= 281118, color= 12
	 item 608, weight= 281250, color= 7
	 item 609, weight= 281250, color= 17
	 item 610, weight= 281270, color= 1
	 item 611, weight= 281364, color= 5
	 item 612, weight= 281367, color= 11
	 item 613, weight= 281373, color= 16
	 item 614, weight= 281453, color= 12
	 item 615, weight= 281529, color= 17
	 item 616, weight= 281609, color= 11
	 item 617, weight= 281635, color= 16
	 item 618, weight= 281659, color= 6
	 item 619, weight= 281762, color= 19
	 item 620, weight= 281861, color= 7
	 item 621, weight= 281946, color= 2
	 item 622, weight= 282023, color= 1
	 item 623, weight= 282049, color= 15
	 item 624, weight= 282129, color= 2
	 item 625, weight= 282231, color= 0
	 item 626, weight= 282356, color= 8
	 item 627, weight= 282501, color= 12
	 item 628, weight= 282506, color= 19
	 item 629, weight= 282509, color= 17
	 item 630, weight= 282681, color= 15
	 item 631, weight= 282704, color= 12
	 item 632, weight= 282729, color= 17
	 item 633, weight= 282845, color= 1
	 item 634, weight= 282978, color= 6
	 item 635, weight= 283022, color= 13
	 item 636, weight= 283036, color= 17
	 item 637, weight= 283040, color= 8
	 item 638, weight= 283041, color= 1
	 item 639, weight= 283042, color= 0
	 item 640, weight= 283044, color= 9
	 item 641, weight= 283052, color= 14
	 item 642, weight= 283134, color= 12
	 item 643, weight= 283367, color= 15
	 item 644, weight= 283374, color= 17
	 item 645, weight= 283474, color= 3
	 item 646, weight= 283582, color= 7
	 item 647, weight= 283805, color= 17
	 item 648, weight= 283869, color= 9
	 item 649, weight= 283967, color= 4
	 item 650, weight= 284008, color= 4
	 item 651, weight= 284017, color= 14
	 item 652, weight= 284180, color= 17
	 item 653, weight= 284294, color= 5
	 item 654, weight= 284333, color= 16
	 item 655, weight= 284531, color= 6
	 item 656, weight= 284748, color= 6
	 item 657, weight= 284883, color= 14
	 item 658, weight= 285005, color= 1
	 item 659, weight= 285016, color= 7
	 item 660, weight= 285037, color= 12
	 item 661, weight= 285167, color= 19
	 item 662, weight= 285233, color= 7
	 item 663, weight= 285236, color= 3
	 item 664, weight= 285244, color= 0
	 item 665, weight= 285344, color= 10
	 item 666, weight= 285420, color= 16
	 item 667, weight= 285520, color= 4
	 item 668, weight= 285609, color= 17
	 item 669, weight= 285617, color= 1
	 item 670, weight= 285698, color= 13
	 item 671, weight= 285924, color= 8
	 item 672, weight= 286098, color= 5
	 item 673, weight= 286174, color= 9
	 item 674, weight= 286245, color= 7
	 item 675, weight= 286341, color= 1
	 item 676, weight= 286407, color= 4
	 item 677, weight= 286464, color= 6
	 item 678, weight= 286471, color= 11
	 item 679, weight= 286482, color= 10
	 item 680, weight= 286568, color= 2
	 item 681, weight= 286572, color= 9
	 item 682, weight= 286618, color= 5
	 item 683, weight= 286634, color= 9
	 item 684, weight= 286732, color= 6
	 item 685, weight= 286778, color= 9
	 item 686, weight= 286789, color= 7
	 item 687, weight= 286804, color= 15
	 item 688, weight= 286949, color= 17
	 item 689, weight= 287248, color= 16
	 item 690, weight= 287342, color= 8
	 item 691, weight= 287390, color= 14
	 item 692, weight= 287406, color= 2
	 item 693, weight= 287570, color= 8
	 item 694, weight= 287586, color= 13
	 item 695, weight= 287653, color= 3
	 item 696, weight= 287687, color= 1
	 item 697, weight= 287889, color= 14
	 item 698, weight= 288025, color= 9
	 item 699, weight= 288039, color= 11
	 item 700, weight= 288063, color= 13
	 item 701, weight= 288144, color= 5
	 item 702, weight= 288230, color= 6
	 item 703, weight= 288281, color= 9
	 item 704, weight= 288412, color= 7
	 item 705, weight= 288450, color= 2
	 item 706, weight= 288490, color= 18
	 item 707, weight= 288579, color= 14
	 item 708, weight= 288710, color= 3
	 item 709, weight= 288765, color= 5
	 item 710, weight= 288817, color= 18
	 item 711, weight= 288984, color= 15
	 item 712, weight= 289133, color= 4
	 item 713, weight= 289141, color= 5
	 item 714, weight= 289182, color= 16
	 item 715, weight= 289194, color= 16
	 item 716, weight= 289305, color= 4
	 item 717, weight= 289358, color= 14
	 item 718, weight= 289358, color= 18
	 item 719, weight= 289390, color= 7
	 item 720, weight= 289628, color= 0
	 item 721, weight= 289655, color= 9
	 item 722, weight= 289662, color= 11
	 item 723, weight= 289683, color= 6
	 item 724, weight= 289691, color= 12
	 item 725, weight= 289724, color= 10
	 item 726, weight= 289751, color= 4
	 item 727, weight= 289815, color= 4
	 item 728, weight= 289905, color= 8
	 item 729, weight= 289966, color= 19
	 item 730, weight= 290343, color= 7
	 item 731, weight= 290728, color= 16
	 item 732, weight= 290786, color= 0
	 item 733, weight= 290927, color= 5
	 item 734, weight= 290941, color= 12
	 item 735, weight= 291051, color= 0
	 item 736, weight= 291142, color= 0
	 item 737, weight= 291204, color= 5
	 item 738, weight= 291348, color= 1
	 item 739, weight= 291440, color= 0
	 item 740, weight= 291737, color= 12
	 item 741, weight= 291913, color= 5
	 item 742, weight= 291948, color= 2
	 item 743, weight= 292056, color= 0
	 item 744, weight= 292136, color= 1
	 item 745, weight= 292149, color= 6
	 item 746, weight= 292155, color= 5
	 item 747, weight= 292490, color= 18
	 item 748, weight= 292506, color= 5
	 item 749, weight= 292574, color= 14
	 item 750, weight= 292601, color= 6
	 item 751, weight= 292680, color= 10
	 item 752, weight= 292704, color= 1
	 item 753, weight= 292746, color= 15
	 item 754, weight= 292846, color= 6
	 item 755, weight= 292885, color= 2
	 item 756, weight= 292963, color= 2
	 item 757, weight= 292964, color= 12
	 item 758, weight= 293021, color= 13
	 item 759, weight= 293031, color= 17
	 item 760, weight= 293100, color= 5
	 item 761, weight= 293152, color= 8
	 item 762, weight= 293340, color= 16
	 item 763, weight= 293428, color= 2
	 item 764, weight= 293503, color= 3
	 item 765, weight= 293537, color= 5
	 item 766, weight= 293559, color= 0
	 item 767, weight= 293774, color= 15
	 item 768, weight= 293823, color= 15
	 item 769, weight= 293972, color= 7
	 item 770, weight= 294115, color= 6
	 item 771, weight= 294247, color= 5
	 item 772, weight= 294306, color= 0
	 item 773, weight= 294354, color= 3
	 item 774, weight= 294475, color= 10
	 item 775, weight= 294661, color= 16
	 item 776, weight= 294734, color= 14
	 item 777, weight= 294746, color= 2
	 item 778, weight= 294837, color= 16
	 item 779, weight= 294956, color= 2
	 item 780, weight= 295112, color= 8
	 item 781, weight= 295207, color= 11
	 item 782, weight= 295286, color= 9
	 item 783, weight= 295289, color= 2
	 item 784, weight= 295299, color= 0
	 item 785, weight= 295377, color= 7
	 item 786, weight= 295524, color= 4
	 item 787, weight= 295749, color= 16
	 item 788, weight= 295754, color= 12
	 item 789, weight= 295962, color= 8
	 item 790, weight= 296012, color= 19
	 item 791, weight= 296116, color= 13
	 item 792, weight= 296182, color= 2
	 item 793, weight= 296414, color= 16
	 item 794, weight= 296574, color= 9
	 item 795, weight= 296803, color= 17
	 item 796, weight= 296900, color= 0
	 item 797, weight= 296901, color= 11
	 item 798, weight= 296925, color= 6
	 item 799, weight= 296931, color= 17
	 item 800, weight= 296998, color= 9
	 item 801, weight= 297251, color= 1
	 item 802, weight= 297262, color= 8
	 item 803, weight= 297381, color= 11
	 item 804, weight= 297397, color= 4
	 item 805, weight= 297429, color= 9
	 item 806, weight= 297544, color= 19
	 item 807, weight= 297643, color= 12
	 item 808, weight= 297732, color= 13
	 item 809, weight= 297771, color= 17
	 item 810, weight= 297778, color= 13
	 item 811, weight= 297901, color= 0
	 item 812, weight= 297932, color= 2
	 item 813, weight= 297956, color= 15
	 item 814, weight= 297972, color= 17
	 item 815, weight= 298231, color= 7
	 item 816, weight= 298258, color= 13
	 item 817, weight= 298261, color= 17
	 item 818, weight= 298283, color= 0
	 item 819, weight= 298290, color= 8
	 item 820, weight= 298292, color= 4
	 item 821, weight= 298385, color= 7
	 item 822, weight= 298391, color= 11
	 item 823, weight= 298430, color= 18
	 item 824, weight= 298883, color= 10
	 item 825, weight= 298902, color= 11
	 item 826, weight= 298914, color= 7
	 item 827, weight= 298943, color= 6
	 item 828, weight= 299073, color= 14
	 item 829, weight= 299209, color= 13
	 item 830, weight= 299346, color= 2
	 item 831, weight= 299355, color= 8
	 item 832, weight= 299646, color= 10
	 item 833, weight= 299776, color= 0
	 item 834, weight= 299811, color= 2
	 item 835, weight= 299812, color= 11
	 item 836, weight= 299835, color= 13
	 item 837, weight= 299849, color= 17
	 item 838, weight= 299969, color= 11
	 item 839, weight= 299980, color= 3
	 item 840, weight= 300005, color= 18
	 item 841, weight= 300106, color= 8
	 item 842, weight= 300117, color= 13
	 item 843, weight= 300342, color= 11
	 item 844, weight= 300354, color= 17
	 item 845, weight= 300386, color= 3
	 item 846, weight= 300429, color= 6
	 item 847, weight= 300724, color= 2
	 item 848, weight= 300741, color= 9
	 item 849, weight= 300826, color= 8
	 item 850, weight= 300869, color= 18
	 item 851, weight= 300915, color= 0
	 item 852, weight= 301012, color= 8
	 item 853, weight= 301068, color= 9
	 item 854, weight= 301076, color= 6
	 item 855, weight= 301100, color= 11
	 item 856, weight= 301145, color= 2
	 item 857, weight= 301210, color= 1
	 item 858, weight= 301251, color= 0
	 item 859, weight= 301333, color= 10
	 item 860, weight= 301495, color= 15
	 item 861, weight= 301556, color= 11
	 item 862, weight= 301884, color= 3
	 item 863, weight= 301943, color= 10
	 item 864, weight= 302059, color= 9
	 item 865, weight= 302193, color= 14
	 item 866, weight= 302285, color= 1
	 item 867, weight= 302285, color= 13
	 item 868, weight= 302291, color= 8
	 item 869, weight= 302409, color= 18
	 item 870, weight= 302460, color= 17
	 item 871, weight= 302636, color= 0
	 item 872, weight= 302646, color= 6
	 item 873, weight= 302660, color= 19
	 item 874, weight= 302750, color= 14
	 item 875, weight= 302887, color= 9
	 item 876, weight= 303018, color= 12
	 item 877, weight= 303222, color= 17
	 item 878, weight= 303366, color= 16
	 item 879, weight= 303407, color= 17
	 item 880, weight= 303567, color= 17
	 item 881, weight= 303630, color= 2
	 item 882, weight= 303697, color= 10
	 item 883, weight= 303698, color= 10
	 item 884, weight= 303710, color= 7
	 item 885, weight= 303798, color= 10
	 item 886, weight= 303933, color= 11
	 item 887, weight= 304019, color= 3
	 item 888, weight= 304070, color= 15
	 item 889, weight= 304123, color= 17
	 item 890, weight= 304217, color= 16
	 item 891, weight= 304242, color= 17
	 item 892, weight= 304537, color= 1
	 item 893, weight= 304850, color= 3
	 item 894, weight= 304871, color= 0
	 item 895, weight= 304891, color= 12
	 item 896, weight= 304897, color= 17
	 item 897, weight= 304902, color= 4
	 item 898, weight= 304926, color= 2
	 item 899, weight= 305011, color= 6
	 item 900, weight= 305025, color= 17
	 item 901, weight= 305060, color= 14
	 item 902, weight= 305067, color= 3
	 item 903, weight= 305262, color= 10
	 item 904, weight= 305274, color= 18
	 item 905, weight= 305282, color= 13
	 item 906, weight= 305410, color= 5
	 item 907, weight= 305410, color= 7
	 item 908, weight= 305497, color= 17
	 item 909, weight= 305625, color= 11
	 item 910, weight= 305783, color= 19
	 item 911, weight= 305802, color= 11
	 item 912, weight= 305804, color= 13
	 item 913, weight= 305805, color= 11
	 item 914, weight= 306050, color= 0
	 item 915, weight= 306101, color= 11
	 item 916, weight= 306191, color= 19
	 item 917, weight= 306359, color= 18
	 item 918, weight= 306557, color= 9
	 item 919, weight= 306652, color= 14
	 item 920, weight= 306694, color= 14
	 item 921, weight= 306695, color= 7
	 item 922, weight= 306732, color= 13
	 item 923, weight= 306740, color= 12
	 item 924, weight= 306784, color= 12
	 item 925, weight= 306921, color= 15
	 item 926, weight= 306959, color= 19
	 item 927, weight= 307038, color= 5
	 item 928, weight= 307224, color= 15
	 item 929, weight= 307260, color= 15
	 item 930, weight= 307565, color= 0
	 item 931, weight= 307765, color= 1
	 item 932, weight= 307783, color= 9
	 item 933, weight= 307885, color= 7
	 item 934, weight= 308125, color= 9
	 item 935, weight= 308183, color= 11
	 item 936, weight= 308202, color= 17
	 item 937, weight= 308244, color= 9
	 item 938, weight= 308264, color= 13
	 item 939, weight= 308283, color= 14
	 item 940, weight= 308359, color= 15
	 item 941, weight= 308454, color= 7
	 item 942, weight= 308558, color= 19
	 item 943, weight= 308667, color= 4
	 item 944, weight= 308669, color= 10
	 item 945, weight= 308901, color= 11
	 item 946, weight= 308935, color= 14
	 item 947, weight= 309061, color= 18
	 item 948, weight= 309128, color= 19
	 item 949, weight= 309223, color= 19
	 item 950, weight= 309236, color= 18
	 item 951, weight= 309312, color= 10
	 item 952, weight= 309427, color= 10
	 item 953, weight= 309450, color= 8
	 item 954, weight= 309591, color= 19
	 item 955, weight= 309695, color= 17
	 item 956, weight= 309745, color= 18
	 item 957, weight= 309778, color= 2
	 item 958, weight= 309782, color= 5
	 item 959, weight= 309852, color= 3
	 item 960, weight= 309864, color= 15
	 item 961, weight= 310239, color= 17
	 item 962, weight= 310259, color= 9
	 item 963, weight= 310348, color= 18
	 item 964, weight= 310488, color= 15
	 item 965, weight= 310573, color= 16
	 item 966, weight= 310634, color= 12
	 item 967, weight= 310797, color= 9
	 item 968, weight= 310802, color= 5
	 item 969, weight= 310823, color= 12
	 item 970, weight= 310857, color= 9
	 item 971, weight= 310948, color= 17
	 item 972, weight= 311021, color= 14
	 item 973, weight= 311270, color= 8
	 item 974, weight= 311296, color= 14
	 item 975, weight= 311297, color= 13
	 item 976, weight= 311597, color= 8
	 item 977, weight= 311711, color= 8
	 item 978, weight= 312105, color= 7
	 item 979, weight= 312379, color= 11
	 item 980, weight= 312561, color= 6
	 item 981, weight= 312643, color= 1
	 item 982, weight= 312783, color= 19
	 item 983, weight= 312872, color= 17
	 item 984, weight= 313238, color= 7
	 item 985, weight= 313610, color= 17
	 item 986, weight= 313827, color= 7
	 item 987, weight= 313874, color= 19
	 item 988, weight= 313897, color= 18
	 item 989, weight= 313943, color= 4
	 item 990, weight= 314032, color= 9
	 item 991, weight= 314041, color= 11
	 item 992, weight= 314257, color= 10
	 item 993, weight= 314648, color= 4
	 item 994, weight= 314658, color= 12
	 item 995, weight= 314848, color= 10
	 item 996, weight= 314918, color= 11
	 item 997, weight= 315019, color= 13
	 item 998, weight= 315130, color= 15
	 item 999, weight= 315165, color= 13
	 item 1000, weight= 315216, color= 4
	 item 1001, weight= 315287, color= 14
	 item 1002, weight= 315315, color= 11
	 item 1003, weight= 315541, color= 6
	 item 1004, weight= 315666, color= 17
	 item 1005, weight= 315675, color= 13
	 item 1006, weight= 315780, color= 17
	 item 1007, weight= 315944, color= 1
	 item 1008, weight= 315998, color= 5
	 item 1009, weight= 316014, color= 0
	 item 1010, weight= 316047, color= 12
	 item 1011, weight= 316080, color= 1
	 item 1012, weight= 316104, color= 1
	 item 1013, weight= 316146, color= 13
	 item 1014, weight= 316578, color= 9
	 item 1015, weight= 316771, color= 2
	 item 1016, weight= 316801, color= 15
	 item 1017, weight= 316969, color= 19
	 item 1018, weight= 316973, color= 4
	 item 1019, weight= 317007, color= 2
	 item 1020, weight= 317015, color= 11
	 item 1021, weight= 317035, color= 9
	 item 1022, weight= 317195, color= 11
	 item 1023, weight= 317234, color= 0
	 item 1024, weight= 317537, color= 16
	 item 1025, weight= 317591, color= 13
	 item 1026, weight= 317784, color= 14
	 item 1027, weight= 317921, color= 14
	 item 1028, weight= 317981, color= 13
	 item 1029, weight= 318200, color= 19
	 item 1030, weight= 318207, color= 18
	 item 1031, weight= 318223, color= 19
	 item 1032, weight= 318379, color= 13
	 item 1033, weight= 318540, color= 0
	 item 1034, weight= 318640, color= 7
	 item 1035, weight= 318839, color= 4
	 item 1036, weight= 318903, color= 13
	 item 1037, weight= 319086, color= 12
	 item 1038, weight= 319091, color= 16
	 item 1039, weight= 319269, color= 18
	 item 1040, weight= 319635, color= 6
	 item 1041, weight= 319695, color= 1
	 item 1042, weight= 319715, color= 18
	 item 1043, weight= 319719, color= 0
	 item 1044, weight= 319815, color= 0
	 item 1045, weight= 319937, color= 8
	 item 1046, weight= 320022, color= 16
	 item 1047, weight= 320035, color= 1
	 item 1048, weight= 320174, color= 17
	 item 1049, weight= 320223, color= 10
	 item 1050, weight= 320229, color= 10
	 item 1051, weight= 320335, color= 10
	 item 1052, weight= 320413, color= 0
	 item 1053, weight= 320414, color= 10
	 item 1054, weight= 320490, color= 10
	 item 1055, weight= 320539, color= 18
	 item 1056, weight= 320591, color= 5
	 item 1057, weight= 320615, color= 5
	 item 1058, weight= 320744, color= 9
	 item 1059, weight= 320769, color= 14
	 item 1060, weight= 320865, color= 7
	 item 1061, weight= 321320, color= 2
	 item 1062, weight= 321372, color= 11
	 item 1063, weight= 321701, color= 14
	 item 1064, weight= 322083, color= 9
	 item 1065, weight= 322161, color= 3
	 item 1066, weight= 322210, color= 13
	 item 1067, weight= 322287, color= 0
	 item 1068, weight= 322303, color= 10
	 item 1069, weight= 322329, color= 12
	 item 1070, weight= 322362, color= 3
	 item 1071, weight= 322415, color= 2
	 item 1072, weight= 322423, color= 12
	 item 1073, weight= 322611, color= 7
	 item 1074, weight= 322724, color= 8
	 item 1075, weight= 322808, color= 1
	 item 1076, weight= 323064, color= 18
	 item 1077, weight= 323094, color= 3
	 item 1078, weight= 323238, color= 0
	 item 1079, weight= 323239, color= 2
	 item 1080, weight= 323326, color= 8
	 item 1081, weight= 323327, color= 6
	 item 1082, weight= 323334, color= 11
	 item 1083, weight= 323398, color= 2
	 item 1084, weight= 323432, color= 13
	 item 1085, weight= 323442, color= 10
	 item 1086, weight= 323876, color= 7
	 item 1087, weight= 323928, color= 9
	 item 1088, weight= 324022, color= 4
	 item 1089, weight= 324143, color= 3
	 item 1090, weight= 324205, color= 13
	 item 1091, weight= 324512, color= 8
	 item 1092, weight= 324514, color= 0
	 item 1093, weight= 324776, color= 5
	 item 1094, weight= 324817, color= 12
	 item 1095, weight= 324941, color= 11
	 item 1096, weight= 325156, color= 2
	 item 1097, weight= 325228, color= 0
	 item 1098, weight= 325385, color= 17
	 item 1099, weight= 325519, color= 18
	 item 1100, weight= 325625, color= 16
	 item 1101, weight= 325702, color= 11
	 item 1102, weight= 325715, color= 14
	 item 1103, weight= 325897, color= 2
	 item 1104, weight= 326178, color= 10
	 item 1105, weight= 326182, color= 0
	 item 1106, weight= 326239, color= 16
	 item 1107, weight= 326265, color= 10
	 item 1108, weight= 326301, color= 15
	 item 1109, weight= 326633, color= 17
	 item 1110, weight= 327203, color= 11
	 item 1111, weight= 327212, color= 2
	 item 1112, weight= 327273, color= 4
	 item 1113, weight= 327441, color= 18
	 item 1114, weight= 327451, color= 7
	 item 1115, weight= 327487, color= 14
	 item 1116, weight= 327689, color= 8
	 item 1117, weight= 327794, color= 18
	 item 1118, weight= 327818, color= 10
	 item 1119, weight= 327851, color= 15
	 item 1120, weight= 327872, color= 16
	 item 1121, weight= 327904, color= 9
	 item 1122, weight= 327905, color= 11
	 item 1123, weight= 327969, color= 18
	 item 1124, weight= 328204, color= 5
	 item 1125, weight= 328224, color= 7
	 item 1126, weight= 328969, color= 19
	 item 1127, weight= 329080, color= 9
	 item 1128, weight= 329238, color= 17
	 item 1129, weight= 329466, color= 3
	 item 1130, weight= 329678, color= 4
	 item 1131, weight= 329744, color= 0
	 item 1132, weight= 330137, color= 13
	 item 1133, weight= 330170, color= 15
	 item 1134, weight= 330409, color= 7
	 item 1135, weight= 330567, color= 17
	 item 1136, weight= 330611, color= 12
	 item 1137, weight= 330648, color= 8
	 item 1138, weight= 330948, color= 6
	 item 1139, weight= 331019, color= 0
	 item 1140, weight= 331094, color= 0
	 item 1141, weight= 331311, color= 5
	 item 1142, weight= 331322, color= 8
	 item 1143, weight= 331336, color= 6
	 item 1144, weight= 331397, color= 5
	 item 1145, weight= 331650, color= 1
	 item 1146, weight= 331727, color= 17
	 item 1147, weight= 331740, color= 9
	 item 1148, weight= 331855, color= 3
	 item 1149, weight= 331855, color= 19
	 item 1150, weight= 331883, color= 18
	 item 1151, weight= 331894, color= 17
	 item 1152, weight= 332056, color= 6
	 item 1153, weight= 332092, color= 0
	 item 1154, weight= 332353, color= 17
	 item 1155, weight= 332403, color= 17
	 item 1156, weight= 332484, color= 15
	 item 1157, weight= 332485, color= 17
	 item 1158, weight= 332670, color= 3
	 item 1159, weight= 332685, color= 14
	 item 1160, weight= 332731, color= 11
	 item 1161, weight= 332927, color= 5
	 item 1162, weight= 333036, color= 10
	 item 1163, weight= 333106, color= 19
	 item 1164, weight= 333184, color= 0
	 item 1165, weight= 333217, color= 3
	 item 1166, weight= 333230, color= 3
	 item 1167, weight= 333281, color= 14
	 item 1168, weight= 333746, color= 11
	 item 1169, weight= 333783, color= 5
	 item 1170, weight= 333983, color= 11
	 item 1171, weight= 333996, color= 2
	 item 1172, weight= 334093, color= 5
	 item 1173, weight= 334152, color= 1
	 item 1174, weight= 334238, color= 10
	 item 1175, weight= 334284, color= 14
	 item 1176, weight= 334318, color= 5
	 item 1177, weight= 334445, color= 7
	 item 1178, weight= 334479, color= 5
	 item 1179, weight= 334750, color= 9
	 item 1180, weight= 334795, color= 2
	 item 1181, weight= 334800, color= 15
	 item 1182, weight= 334912, color= 1
	 item 1183, weight= 335634, color= 18
	 item 1184, weight= 335709, color= 18
	 item 1185, weight= 335903, color= 8
	 item 1186, weight= 336238, color= 17
	 item 1187, weight= 336243, color= 2
	 item 1188, weight= 336831, color= 7
	 item 1189, weight= 337115, color= 16
	 item 1190, weight= 337293, color= 3
	 item 1191, weight= 337352, color= 5
	 item 1192, weight= 337579, color= 19
	 item 1193, weight= 337967, color= 9
	 item 1194, weight= 338142, color= 18
	 item 1195, weight= 338272, color= 16
	 item 1196, weight= 338387, color= 1
	 item 1197, weight= 338458, color= 18
	 item 1198, weight= 338471, color= 10
	 item 1199, weight= 338676, color= 13
	 item 1200, weight= 338702, color= 14
	 item 1201, weight= 338725, color= 15
	 item 1202, weight= 338949, color= 3
	 item 1203, weight= 339080, color= 16
	 item 1204, weight= 339372, color= 7
	 item 1205, weight= 339512, color= 18
	 item 1206, weight= 339514, color= 10
	 item 1207, weight= 339706, color= 0
	 item 1208, weight= 339979, color= 7
	 item 1209, weight= 339987, color= 4
	 item 1210, weight= 340034, color= 14
	 item 1211, weight= 340108, color= 9
	 item 1212, weight= 340178, color= 5
	 item 1213, weight= 340199, color= 14
	 item 1214, weight= 340264, color= 17
	 item 1215, weight= 340375, color= 15
	 item 1216, weight= 340664, color= 11
	 item 1217, weight= 340698, color= 14
	 item 1218, weight= 340754, color= 11
	 item 1219, weight= 340914, color= 2
	 item 1220, weight= 340972, color= 8
	 item 1221, weight= 341441, color= 8
	 item 1222, weight= 341489, color= 10
	 item 1223, weight= 341626, color= 9
	 item 1224, weight= 341776, color= 3
	 item 1225, weight= 341826, color= 9
	 item 1226, weight= 342047, color= 8
	 item 1227, weight= 342333, color= 13
	 item 1228, weight= 342391, color= 11
	 item 1229, weight= 342403, color= 1
	 item 1230, weight= 342712, color= 7
	 item 1231, weight= 343215, color= 5
	 item 1232, weight= 343503, color= 6
	 item 1233, weight= 343747, color= 10
	 item 1234, weight= 343908, color= 15
	 item 1235, weight= 343934, color= 3
	 item 1236, weight= 344092, color= 9
	 item 1237, weight= 344310, color= 11
	 item 1238, weight= 344348, color= 1
	 item 1239, weight= 344428, color= 10
	 item 1240, weight= 344430, color= 1
	 item 1241, weight= 344501, color= 13
	 item 1242, weight= 344536, color= 11
	 item 1243, weight= 344735, color= 18
	 item 1244, weight= 344787, color= 17
	 item 1245, weight= 345112, color= 18
	 item 1246, weight= 345218, color= 13
	 item 1247, weight= 345251, color= 0
	 item 1248, weight= 346144, color= 3
	 item 1249, weight= 346148, color= 16
	 item 1250, weight= 346455, color= 13
	 item 1251, weight= 346938, color= 17
	 item 1252, weight= 346940, color= 7
	 item 1253, weight= 346943, color= 19
	 item 1254, weight= 347379, color= 12
	 item 1255, weight= 347911, color= 16
	 item 1256, weight= 347917, color= 6
	 item 1257, weight= 348010, color= 14
	 item 1258, weight= 348062, color= 0
	 item 1259, weight= 348066, color= 0
	 item 1260, weight= 348385, color= 14
	 item 1261, weight= 348506, color= 18
	 item 1262, weight= 348544, color= 17
	 item 1263, weight= 348576, color= 6
	 item 1264, weight= 348649, color= 15
	 item 1265, weight= 348668, color= 3
	 item 1266, weight= 348813, color= 6
	 item 1267, weight= 348925, color= 8
	 item 1268, weight= 348937, color= 4
	 item 1269, weight= 349002, color= 15
	 item 1270, weight= 349045, color= 0
	 item 1271, weight= 349082, color= 14
	 item 1272, weight= 349163, color= 18
	 item 1273, weight= 349184, color= 1
	 item 1274, weight= 349318, color= 2
	 item 1275, weight= 349418, color= 14
	 item 1276, weight= 349552, color= 19
	 item 1277, weight= 349820, color= 13
	 item 1278, weight= 349959, color= 7
	 item 1279, weight= 350084, color= 11
	 item 1280, weight= 350322, color= 16
	 item 1281, weight= 350463, color= 13
	 item 1282, weight= 350568, color= 11
	 item 1283, weight= 350617, color= 6
	 item 1284, weight= 350814, color= 5
	 item 1285, weight= 351051, color= 1
	 item 1286, weight= 351084, color= 16
	 item 1287, weight= 351131, color= 9
	 item 1288, weight= 351206, color= 12
	 item 1289, weight= 351328, color= 17
	 item 1290, weight= 351514, color= 3
	 item 1291, weight= 351573, color= 11
	 item 1292, weight= 351619, color= 5
	 item 1293, weight= 351638, color= 18
	 item 1294, weight= 351775, color= 12
	 item 1295, weight= 351822, color= 9
	 item 1296, weight= 351873, color= 12
	 item 1297, weight= 351889, color= 8
	 item 1298, weight= 351892, color= 15
	 item 1299, weight= 351988, color= 10
	 item 1300, weight= 352293, color= 6
	 item 1301, weight= 352337, color= 14
	 item 1302, weight= 352557, color= 3
	 item 1303, weight= 352560, color= 2
	 item 1304, weight= 352571, color= 14
	 item 1305, weight= 352613, color= 5
	 item 1306, weight= 352986, color= 4
	 item 1307, weight= 352986, color= 15
	 item 1308, weight= 353107, color= 3
	 item 1309, weight= 353164, color= 19
	 item 1310, weight= 353231, color= 7
	 item 1311, weight= 353332, color= 4
	 item 1312, weight= 354148, color= 14
	 item 1313, weight= 354381, color= 7
	 item 1314, weight= 354399, color= 10
	 item 1315, weight= 354742, color= 3
	 item 1316, weight= 354808, color= 18
	 item 1317, weight= 354964, color= 11
	 item 1318, weight= 355087, color= 17
	 item 1319, weight= 355343, color= 13
	 item 1320, weight= 355450, color= 14
	 item 1321, weight= 355644, color= 18
	 item 1322, weight= 355866, color= 4
	 item 1323, weight= 355915, color= 0
	 item 1324, weight= 356011, color= 8
	 item 1325, weight= 356076, color= 3
	 item 1326, weight= 356445, color= 6
	 item 1327, weight= 356988, color= 16
	 item 1328, weight= 357143, color= 3
	 item 1329, weight= 357368, color= 18
	 item 1330, weight= 357429, color= 14
	 item 1331, weight= 357767, color= 11
	 item 1332, weight= 357801, color= 8
	 item 1333, weight= 357802, color= 11
	 item 1334, weight= 357829, color= 11
	 item 1335, weight= 357872, color= 12
	 item 1336, weight= 357924, color= 4
	 item 1337, weight= 358196, color= 9
	 item 1338, weight= 358508, color= 7
	 item 1339, weight= 358529, color= 10
	 item 1340, weight= 358891, color= 17
	 item 1341, weight= 358911, color= 8
	 item 1342, weight= 359147, color= 7
	 item 1343, weight= 359160, color= 0
	 item 1344, weight= 359172, color= 5
	 item 1345, weight= 359286, color= 17
	 item 1346, weight= 359289, color= 10
	 item 1347, weight= 359333, color= 15
	 item 1348, weight= 359360, color= 16
	 item 1349, weight= 359486, color= 12
	 item 1350, weight= 359545, color= 10
	 item 1351, weight= 359701, color= 2
	 item 1352, weight= 359756, color= 2
	 item 1353, weight= 359917, color= 17
	 item 1354, weight= 359996, color= 1
	 item 1355, weight= 360251, color= 0
	 item 1356, weight= 360282, color= 9
	 item 1357, weight= 360374, color= 0
	 item 1358, weight= 360374, color= 10
	 item 1359, weight= 360391, color= 16
	 item 1360, weight= 360531, color= 5
	 item 1361, weight= 360651, color= 8
	 item 1362, weight= 360705, color= 3
	 item 1363, weight= 361009, color= 12
	 item 1364, weight= 361255, color= 17
	 item 1365, weight= 361336, color= 17
	 item 1366, weight= 361352, color= 5
	 item 1367, weight= 361503, color= 7
	 item 1368, weight= 361519, color= 18
	 item 1369, weight= 361560, color= 7
	 item 1370, weight= 361651, color= 13
	 item 1371, weight= 361658, color= 2
	 item 1372, weight= 361723, color= 17
	 item 1373, weight= 362306, color= 8
	 item 1374, weight= 362480, color= 5
	 item 1375, weight= 362661, color= 1
	 item 1376, weight= 362717, color= 7
	 item 1377, weight= 363232, color= 10
	 item 1378, weight= 363704, color= 10
	 item 1379, weight= 363787, color= 7
	 item 1380, weight= 363890, color= 17
	 item 1381, weight= 363906, color= 18
	 item 1382, weight= 363929, color= 5
	 item 1383, weight= 364141, color= 3
	 item 1384, weight= 364180, color= 16
	 item 1385, weight= 364557, color= 17
	 item 1386, weight= 364753, color= 8
	 item 1387, weight= 365076, color= 2
	 item 1388, weight= 365660, color= 10
	 item 1389, weight= 365703, color= 7
	 item 1390, weight= 365812, color= 8
	 item 1391, weight= 365959, color= 18
	 item 1392, weight= 366359, color= 3
	 item 1393, weight= 366362, color= 7
	 item 1394, weight= 366550, color= 16
	 item 1395, weight= 367219, color= 2
	 item 1396, weight= 367455, color= 6
	 item 1397, weight= 367644, color= 7
	 item 1398, weight= 367665, color= 10
	 item 1399, weight= 367675, color= 13
	 item 1400, weight= 367875, color= 8
	 item 1401, weight= 367899, color= 5
	 item 1402, weight= 367946, color= 8
	 item 1403, weight= 368541, color= 4
	 item 1404, weight= 368593, color= 7
	 item 1405, weight= 368615, color= 13
	 item 1406, weight= 368956, color= 6
	 item 1407, weight= 369134, color= 10
	 item 1408, weight= 369329, color= 9
	 item 1409, weight= 369403, color= 11
	 item 1410, weight= 369406, color= 9
	 item 1411, weight= 369443, color= 17
	 item 1412, weight= 369511, color= 15
	 item 1413, weight= 369523, color= 5
	 item 1414, weight= 369539, color= 3
	 item 1415, weight= 369545, color= 19
	 item 1416, weight= 369560, color= 6
	 item 1417, weight= 369953, color= 2
	 item 1418, weight= 369964, color= 3
	 item 1419, weight= 370079, color= 14
	 item 1420, weight= 370162, color= 18
	 item 1421, weight= 370180, color= 10
	 item 1422, weight= 370263, color= 2
	 item 1423, weight= 370334, color= 0
	 item 1424, weight= 370415, color= 15
	 item 1425, weight= 370484, color= 1
	 item 1426, weight= 370517, color= 9
	 item 1427, weight= 370570, color= 9
	 item 1428, weight= 370658, color= 19
	 item 1429, weight= 370693, color= 1
	 item 1430, weight= 370726, color= 6
	 item 1431, weight= 370785, color= 19
	 item 1432, weight= 370805, color= 7
	 item 1433, weight= 371099, color= 1
	 item 1434, weight= 371255, color= 16
	 item 1435, weight= 371279, color= 19
	 item 1436, weight= 371742, color= 4
	 item 1437, weight= 371778, color= 17
	 item 1438, weight= 371830, color= 13
	 item 1439, weight= 371837, color= 7
	 item 1440, weight= 371880, color= 11
	 item 1441, weight= 371969, color= 7
	 item 1442, weight= 372101, color= 13
	 item 1443, weight= 372135, color= 7
	 item 1444, weight= 372181, color= 18
	 item 1445, weight= 372234, color= 8
	 item 1446, weight= 372675, color= 19
	 item 1447, weight= 372819, color= 5
	 item 1448, weight= 372955, color= 13
	 item 1449, weight= 373242, color= 2
	 item 1450, weight= 373340, color= 2
	 item 1451, weight= 373455, color= 0
	 item 1452, weight= 373603, color= 5
	 item 1453, weight= 373621, color= 19
	 item 1454, weight= 373889, color= 3
	 item 1455, weight= 374110, color= 19
	 item 1456, weight= 374229, color= 2
	 item 1457, weight= 374306, color= 12
	 item 1458, weight= 374318, color= 19
	 item 1459, weight= 374470, color= 10
	 item 1460, weight= 374551, color= 14
	 item 1461, weight= 374561, color= 10
	 item 1462, weight= 374609, color= 11
	 item 1463, weight= 374922, color= 2
	 item 1464, weight= 375185, color= 18
	 item 1465, weight= 375201, color= 9
	 item 1466, weight= 375277, color= 3
	 item 1467, weight= 376052, color= 16
	 item 1468, weight= 376251, color= 17
	 item 1469, weight= 376295, color= 12
	 item 1470, weight= 376423, color= 13
	 item 1471, weight= 376535, color= 8
	 item 1472, weight= 376713, color= 2
	 item 1473, weight= 376741, color= 16
	 item 1474, weight= 377146, color= 9
	 item 1475, weight= 377214, color= 0
	 item 1476, weight= 377294, color= 10
	 item 1477, weight= 377350, color= 7
	 item 1478, weight= 377794, color= 13
	 item 1479, weight= 377982, color= 15
	 item 1480, weight= 378160, color= 4
	 item 1481, weight= 378836, color= 9
	 item 1482, weight= 379176, color= 9
	 item 1483, weight= 379225, color= 11
	 item 1484, weight= 379359, color= 10
	 item 1485, weight= 379425, color= 0
	 item 1486, weight= 379829, color= 6
	 item 1487, weight= 380164, color= 16
	 item 1488, weight= 380192, color= 4
	 item 1489, weight= 380343, color= 1
	 item 1490, weight= 380357, color= 14
	 item 1491, weight= 380396, color= 2
	 item 1492, weight= 380466, color= 10
	 item 1493, weight= 380487, color= 2
	 item 1494, weight= 380674, color= 5
	 item 1495, weight= 381150, color= 11
	 item 1496, weight= 381213, color= 2
	 item 1497, weight= 381512, color= 18
	 item 1498, weight= 381611, color= 6
	 item 1499, weight= 381727, color= 15
	 item 1500, weight= 381773, color= 18
	 item 1501, weight= 381833, color= 5
	 item 1502, weight= 381894, color= 10
	 item 1503, weight= 382046, color= 18
	 item 1504, weight= 382259, color= 4
	 item 1505, weight= 382302, color= 18
	 item 1506, weight= 382407, color= 15
	 item 1507, weight= 382435, color= 4
	 item 1508, weight= 382674, color= 3
	 item 1509, weight= 382941, color= 8
	 item 1510, weight= 382982, color= 2
	 item 1511, weight= 383167, color= 7
	 item 1512, weight= 383466, color= 7
	 item 1513, weight= 383506, color= 19
	 item 1514, weight= 383555, color= 6
	 item 1515, weight= 383587, color= 16
	 item 1516, weight= 383746, color= 8
	 item 1517, weight= 383841, color= 3
	 item 1518, weight= 384484, color= 16
	 item 1519, weight= 384655, color= 19
	 item 1520, weight= 384788, color= 1
	 item 1521, weight= 384906, color= 6
	 item 1522, weight= 384933, color= 14
	 item 1523, weight= 384991, color= 9
	 item 1524, weight= 385126, color= 17
	 item 1525, weight= 385379, color= 4
	 item 1526, weight= 385422, color= 12
	 item 1527, weight= 385703, color= 4
	 item 1528, weight= 385803, color= 1
	 item 1529, weight= 385878, color= 0
	 item 1530, weight= 386335, color= 4
	 item 1531, weight= 386338, color= 1
	 item 1532, weight= 386398, color= 4
	 item 1533, weight= 386445, color= 18
	 item 1534, weight= 386827, color= 16
	 item 1535, weight= 386935, color= 6
	 item 1536, weight= 387033, color= 2
	 item 1537, weight= 387184, color= 1
	 item 1538, weight= 387393, color= 15
	 item 1539, weight= 387984, color= 3
	 item 1540, weight= 388046, color= 19
	 item 1541, weight= 388278, color= 17
	 item 1542, weight= 388360, color= 7
	 item 1543, weight= 388418, color= 14
	 item 1544, weight= 388501, color= 7
	 item 1545, weight= 388594, color= 12
	 item 1546, weight= 388884, color= 3
	 item 1547, weight= 389000, color= 16
	 item 1548, weight= 389071, color= 9
	 item 1549, weight= 389078, color= 17
	 item 1550, weight= 389185, color= 2
	 item 1551, weight= 389259, color= 4
	 item 1552, weight= 389704, color= 15
	 item 1553, weight= 389894, color= 12
	 item 1554, weight= 390036, color= 3
	 item 1555, weight= 390044, color= 10
	 item 1556, weight= 390062, color= 12
	 item 1557, weight= 390114, color= 17
	 item 1558, weight= 390179, color= 4
	 item 1559, weight= 390431, color= 15
	 item 1560, weight= 390439, color= 1
	 item 1561, weight= 390592, color= 7
	 item 1562, weight= 390953, color= 11
	 item 1563, weight= 391259, color= 8
	 item 1564, weight= 391709, color= 15
	 item 1565, weight= 392039, color= 0
	 item 1566, weight= 392289, color= 17
	 item 1567, weight= 392815, color= 16
	 item 1568, weight= 392817, color= 6
	 item 1569, weight= 393232, color= 1
	 item 1570, weight= 393425, color= 11
	 item 1571, weight= 393553, color= 17
	 item 1572, weight= 393827, color= 1
	 item 1573, weight= 393893, color= 19
	 item 1574, weight= 394548, color= 18
	 item 1575, weight= 394557, color= 7
	 item 1576, weight= 394910, color= 18
	 item 1577, weight= 394965, color= 14
	 item 1578, weight= 395217, color= 17
	 item 1579, weight= 395275, color= 6
	 item 1580, weight= 395289, color= 16
	 item 1581, weight= 395353, color= 1
	 item 1582, weight= 395865, color= 9
	 item 1583, weight= 395987, color= 6
	 item 1584, weight= 396048, color= 2
	 item 1585, weight= 396234, color= 12
	 item 1586, weight= 396339, color= 16
	 item 1587, weight= 396359, color= 8
	 item 1588, weight= 396528, color= 7
	 item 1589, weight= 396860, color= 12
	 item 1590, weight= 396976, color= 9
	 item 1591, weight= 397210, color= 7
	 item 1592, weight= 397336, color= 1
	 item 1593, weight= 398051, color= 14
	 item 1594, weight= 398293, color= 13
	 item 1595, weight= 398520, color= 0
	 item 1596, weight= 399056, color= 12
	 item 1597, weight= 399255, color= 2
	 item 1598, weight= 399830, color= 16
	 item 1599, weight= 400051, color= 1
	 item 1600, weight= 400198, color= 15
	 item 1601, weight= 400427, color= 19
	 item 1602, weight= 400501, color= 2
	 item 1603, weight= 400831, color= 14
	 item 1604, weight= 400901, color= 0
	 item 1605, weight= 401169, color= 1
	 item 1606, weight= 401334, color= 12
	 item 1607, weight= 401605, color= 14
	 item 1608, weight= 401862, color= 12
	 item 1609, weight= 401961, color= 13
	 item 1610, weight= 402087, color= 2
	 item 1611, weight= 402227, color= 5
	 item 1612, weight= 402267, color= 8
	 item 1613, weight= 402305, color= 3
	 item 1614, weight= 402476, color= 3
	 item 1615, weight= 402558, color= 1
	 item 1616, weight= 402559, color= 17
	 item 1617, weight= 402622, color= 0
	 item 1618, weight= 402987, color= 15
	 item 1619, weight= 403962, color= 1
	 item 1620, weight= 404048, color= 10
	 item 1621, weight= 404323, color= 8
	 item 1622, weight= 404654, color= 13
	 item 1623, weight= 404802, color= 15
	 item 1624, weight= 405118, color= 7
	 item 1625, weight= 405226, color= 12
	 item 1626, weight= 405311, color= 14
	 item 1627, weight= 405720, color= 5
	 item 1628, weight= 405903, color= 18
	 item 1629, weight= 406010, color= 0
	 item 1630, weight= 406067, color= 18
	 item 1631, weight= 406122, color= 18
	 item 1632, weight= 406576, color= 10
	 item 1633, weight= 406796, color= 5
	 item 1634, weight= 407283, color= 12
	 item 1635, weight= 407307, color= 6
	 item 1636, weight= 407313, color= 4
	 item 1637, weight= 407392, color= 19
	 item 1638, weight= 407690, color= 16
	 item 1639, weight= 407945, color= 2
	 item 1640, weight= 408089, color= 10
	 item 1641, weight= 408715, color= 13
	 item 1642, weight= 408809, color= 17
	 item 1643, weight= 408986, color= 11
	 item 1644, weight= 409432, color= 16
	 item 1645, weight= 409610, color= 10
	 item 1646, weight= 409632, color= 3
	 item 1647, weight= 409688, color= 5
	 item 1648, weight= 409732, color= 8
	 item 1649, weight= 409974, color= 18
	 item 1650, weight= 410174, color= 14
	 item 1651, weight= 410522, color= 19
	 item 1652, weight= 411171, color= 6
	 item 1653, weight= 411241, color= 17
	 item 1654, weight= 411620, color= 4
	 item 1655, weight= 411976, color= 19
	 item 1656, weight= 412029, color= 13
	 item 1657, weight= 412182, color= 10
	 item 1658, weight= 412484, color= 8
	 item 1659, weight= 412769, color= 10
	 item 1660, weight= 412966, color= 6
	 item 1661, weight= 413052, color= 2
	 item 1662, weight= 413141, color= 9
	 item 1663, weight= 413596, color= 9
	 item 1664, weight= 414085, color= 13
	 item 1665, weight= 414339, color= 9
	 item 1666, weight= 414783, color= 18
	 item 1667, weight= 414976, color= 1
	 item 1668, weight= 415164, color= 3
	 item 1669, weight= 415428, color= 15
	 item 1670, weight= 415573, color= 6
	 item 1671, weight= 415643, color= 13
	 item 1672, weight= 415878, color= 12
	 item 1673, weight= 415936, color= 9
	 item 1674, weight= 415945, color= 6
	 item 1675, weight= 416197, color= 17
	 item 1676, weight= 416278, color= 5
	 item 1677, weight= 416425, color= 2
	 item 1678, weight= 416699, color= 18
	 item 1679, weight= 416753, color= 14
	 item 1680, weight= 416777, color= 9
	 item 1681, weight= 416944, color= 19
	 item 1682, weight= 416985, color= 10
	 item 1683, weight= 417181, color= 1
	 item 1684, weight= 417272, color= 16
	 item 1685, weight= 417341, color= 0
	 item 1686, weight= 417652, color= 12
	 item 1687, weight= 417725, color= 9
	 item 1688, weight= 418251, color= 16
	 item 1689, weight= 418535, color= 13
	 item 1690, weight= 418683, color= 17
	 item 1691, weight= 418811, color= 7
	 item 1692, weight= 419154, color= 9
	 item 1693, weight= 419292, color= 19
	 item 1694, weight= 419399, color= 14
	 item 1695, weight= 419464, color= 13
	 item 1696, weight= 420122, color= 12
	 item 1697, weight= 420422, color= 12
	 item 1698, weight= 420696, color= 0
	 item 1699, weight= 420725, color= 12
	 item 1700, weight= 421098, color= 10
	 item 1701, weight= 421304, color= 9
	 item 1702, weight= 421551, color= 0
	 item 1703, weight= 421617, color= 0
	 item 1704, weight= 421914, color= 6
	 item 1705, weight= 422041, color= 1
	 item 1706, weight= 422188, color= 0
	 item 1707, weight= 422372, color= 16
	 item 1708, weight= 422393, color= 8
	 item 1709, weight= 422603, color= 4
	 item 1710, weight= 422708, color= 6
	 item 1711, weight= 422708, color= 13
	 item 1712, weight= 423387, color= 4
	 item 1713, weight= 423742, color= 11
	 item 1714, weight= 423829, color= 5
	 item 1715, weight= 424452, color= 3
	 item 1716, weight= 424744, color= 7
	 item 1717, weight= 424787, color= 5
	 item 1718, weight= 425089, color= 0
	 item 1719, weight= 425310, color= 12
	 item 1720, weight= 425333, color= 19
	 item 1721, weight= 425339, color= 2
	 item 1722, weight= 425382, color= 3
	 item 1723, weight= 425614, color= 9
	 item 1724, weight= 425774, color= 14
	 item 1725, weight= 425962, color= 18
	 item 1726, weight= 426721, color= 10
	 item 1727, weight= 426762, color= 10
	 item 1728, weight= 426851, color= 19
	 item 1729, weight= 426966, color= 1
	 item 1730, weight= 427022, color= 4
	 item 1731, weight= 427055, color= 6
	 item 1732, weight= 427115, color= 17
	 item 1733, weight= 427194, color= 7
	 item 1734, weight= 427541, color= 0
	 item 1735, weight= 427607, color= 9
	 item 1736, weight= 428037, color= 12
	 item 1737, weight= 428144, color= 12
	 item 1738, weight= 428381, color= 4
	 item 1739, weight= 428515, color= 3
	 item 1740, weight= 428585, color= 10
	 item 1741, weight= 428860, color= 14
	 item 1742, weight= 429279, color= 15
	 item 1743, weight= 429848, color= 13
	 item 1744, weight= 430230, color= 13
	 item 1745, weight= 430255, color= 6
	 item 1746, weight= 431088, color= 16
	 item 1747, weight= 431415, color= 4
	 item 1748, weight= 431469, color= 2
	 item 1749, weight= 431860, color= 10
	 item 1750, weight= 431927, color= 1
	 item 1751, weight= 432019, color= 13
	 item 1752, weight= 432420, color= 1
	 item 1753, weight= 433360, color= 19
	 item 1754, weight= 433372, color= 11
	 item 1755, weight= 433548, color= 2
	 item 1756, weight= 433575, color= 12
	 item 1757, weight= 433742, color= 12
	 item 1758, weight= 434647, color= 19
	 item 1759, weight= 434661, color= 15
	 item 1760, weight= 434835, color= 10
	 item 1761, weight= 434872, color= 16
	 item 1762, weight= 434939, color= 17
	 item 1763, weight= 434982, color= 0
	 item 1764, weight= 435035, color= 13
	 item 1765, weight= 435046, color= 17
	 item 1766, weight= 435071, color= 10
	 item 1767, weight= 435200, color= 10
	 item 1768, weight= 435414, color= 5
	 item 1769, weight= 435792, color= 10
	 item 1770, weight= 436165, color= 3
	 item 1771, weight= 436354, color= 13
	 item 1772, weight= 436815, color= 8
	 item 1773, weight= 436898, color= 10
	 item 1774, weight= 437079, color= 18
	 item 1775, weight= 437151, color= 14
	 item 1776, weight= 437204, color= 17
	 item 1777, weight= 437414, color= 7
	 item 1778, weight= 437421, color= 6
	 item 1779, weight= 437764, color= 8
	 item 1780, weight= 437953, color= 18
	 item 1781, weight= 438519, color= 17
	 item 1782, weight= 438746, color= 15
	 item 1783, weight= 438851, color= 4
	 item 1784, weight= 438957, color= 13
	 item 1785, weight= 438981, color= 5
	 item 1786, weight= 439019, color= 18
	 item 1787, weight= 439135, color= 5
	 item 1788, weight= 439365, color= 1
	 item 1789, weight= 439433, color= 11
	 item 1790, weight= 439537, color= 4
	 item 1791, weight= 439547, color= 6
	 item 1792, weight= 439671, color= 5
	 item 1793, weight= 439673, color= 1
	 item 1794, weight= 440702, color= 16
	 item 1795, weight= 440814, color= 13
	 item 1796, weight= 440916, color= 3
	 item 1797, weight= 440950, color= 0
	 item 1798, weight= 441132, color= 11
	 item 1799, weight= 441683, color= 3
	 item 1800, weight= 441738, color= 19
	 item 1801, weight= 441984, color= 17
	 item 1802, weight= 442068, color= 11
	 item 1803, weight= 442103, color= 15
	 item 1804, weight= 442172, color= 11
	 item 1805, weight= 442389, color= 7
	 item 1806, weight= 442413, color= 11
	 item 1807, weight= 442426, color= 12
	 item 1808, weight= 442438, color= 6
	 item 1809, weight= 442934, color= 4
	 item 1810, weight= 443268, color= 13
	 item 1811, weight= 443323, color= 17
	 item 1812, weight= 443341, color= 11
	 item 1813, weight= 443480, color= 8
	 item 1814, weight= 443611, color= 6
	 item 1815, weight= 443872, color= 14
	 item 1816, weight= 443914, color= 14
	 item 1817, weight= 444013, color= 8
	 item 1818, weight= 444063, color= 17
	 item 1819, weight= 444312, color= 2
	 item 1820, weight= 444314, color= 12
	 item 1821, weight= 444972, color= 19
	 item 1822, weight= 445251, color= 14
	 item 1823, weight= 445947, color= 12
	 item 1824, weight= 446514, color= 5
	 item 1825, weight= 446698, color= 16
	 item 1826, weight= 446964, color= 17
	 item 1827, weight= 447793, color= 10
	 item 1828, weight= 448164, color= 2
	 item 1829, weight= 448563, color= 7
	 item 1830, weight= 448794, color= 2
	 item 1831, weight= 448944, color= 6
	 item 1832, weight= 448949, color= 5
	 item 1833, weight= 449290, color= 11
	 item 1834, weight= 449725, color= 7
	 item 1835, weight= 450005, color= 6
	 item 1836, weight= 450009, color= 6
	 item 1837, weight= 450219, color= 12
	 item 1838, weight= 450362, color= 17
	 item 1839, weight= 450489, color= 6
	 item 1840, weight= 450719, color= 10
	 item 1841, weight= 451608, color= 2
	 item 1842, weight= 451668, color= 5
	 item 1843, weight= 451712, color= 10
	 item 1844, weight= 451981, color= 14
	 item 1845, weight= 452358, color= 12
	 item 1846, weight= 452883, color= 12
	 item 1847, weight= 452946, color= 9
	 item 1848, weight= 453085, color= 7
	 item 1849, weight= 453325, color= 5
	 item 1850, weight= 453639, color= 9
	 item 1851, weight= 453676, color= 19
	 item 1852, weight= 453839, color= 16
	 item 1853, weight= 453891, color= 2
	 item 1854, weight= 453988, color= 8
	 item 1855, weight= 454099, color= 3
	 item 1856, weight= 454243, color= 9
	 item 1857, weight= 454272, color= 4
	 item 1858, weight= 454410, color= 13
	 item 1859, weight= 454558, color= 13
	 item 1860, weight= 454734, color= 15
	 item 1861, weight= 454756, color= 11
	 item 1862, weight= 455200, color= 10
	 item 1863, weight= 455335, color= 19
	 item 1864, weight= 455343, color= 6
	 item 1865, weight= 456310, color= 13
	 item 1866, weight= 456311, color= 11
	 item 1867, weight= 456785, color= 8
	 item 1868, weight= 456980, color= 5
	 item 1869, weight= 457058, color= 1
	 item 1870, weight= 457065, color= 18
	 item 1871, weight= 457084, color= 17
	 item 1872, weight= 457557, color= 1
	 item 1873, weight= 457886, color= 8
	 item 1874, weight= 458555, color= 14
	 item 1875, weight= 458860, color= 15
	 item 1876, weight= 459185, color= 1
	 item 1877, weight= 459499, color= 19
	 item 1878, weight= 459639, color= 11
	 item 1879, weight= 459667, color= 0
	 item 1880, weight= 460222, color= 3
	 item 1881, weight= 460264, color= 18
	 item 1882, weight= 460280, color= 11
	 item 1883, weight= 461410, color= 10
	 item 1884, weight= 461471, color= 14
	 item 1885, weight= 461784, color= 15
	 item 1886, weight= 461862, color= 6
	 item 1887, weight= 461886, color= 14
	 item 1888, weight= 462068, color= 13
	 item 1889, weight= 462552, color= 7
	 item 1890, weight= 462576, color= 18
	 item 1891, weight= 462770, color= 14
	 item 1892, weight= 462876, color= 4
	 item 1893, weight= 463052, color= 3
	 item 1894, weight= 463842, color= 2
	 item 1895, weight= 463863, color= 18
	 item 1896, weight= 464607, color= 1
	 item 1897, weight= 464929, color= 9
	 item 1898, weight= 465171, color= 1
	 item 1899, weight= 465761, color= 17
	 item 1900, weight= 466529, color= 10
	 item 1901, weight= 466855, color= 12
	 item 1902, weight= 466866, color= 9
	 item 1903, weight= 467285, color= 3
	 item 1904, weight= 467338, color= 3
	 item 1905, weight= 467455, color= 15
	 item 1906, weight= 467992, color= 4
	 item 1907, weight= 469258, color= 4
	 item 1908, weight= 469424, color= 14
	 item 1909, weight= 469617, color= 17
	 item 1910, weight= 470057, color= 17
	 item 1911, weight= 470135, color= 10
	 item 1912, weight= 470589, color= 13
	 item 1913, weight= 470616, color= 1
	 item 1914, weight= 470982, color= 2
	 item 1915, weight= 471206, color= 14
	 item 1916, weight= 471323, color= 3
	 item 1917, weight= 471504, color= 10
	 item 1918, weight= 472310, color= 3
	 item 1919, weight= 472415, color= 5
	 item 1920, weight= 473619, color= 11
	 item 1921, weight= 473895, color= 9
	 item 1922, weight= 473924, color= 6
	 item 1923, weight= 474354, color= 17
	 item 1924, weight= 474483, color= 15
	 item 1925, weight= 474555, color= 2
	 item 1926, weight= 474729, color= 0
	 item 1927, weight= 474970, color= 10
	 item 1928, weight= 475333, color= 14
	 item 1929, weight= 475370, color= 4
	 item 1930, weight= 475630, color= 18
	 item 1931, weight= 475699, color= 19
	 item 1932, weight= 476657, color= 16
	 item 1933, weight= 476673, color= 2
	 item 1934, weight= 476835, color= 3
	 item 1935, weight= 477241, color= 15
	 item 1936, weight= 477640, color= 15
	 item 1937, weight= 477989, color= 16
	 item 1938, weight= 478153, color= 18
	 item 1939, weight= 478903, color= 11
	 item 1940, weight= 479069, color= 9
	 item 1941, weight= 479584, color= 15
	 item 1942, weight= 479964, color= 4
	 item 1943, weight= 480395, color= 9
	 item 1944, weight= 480754, color= 2
	 item 1945, weight= 481086, color= 10
	 item 1946, weight= 481431, color= 6
	 item 1947, weight= 481452, color= 3
	 item 1948, weight= 482345, color= 9
	 item 1949, weight= 482390, color= 12
	 item 1950, weight= 482669, color= 3
	 item 1951, weight= 483117, color= 2
	 item 1952, weight= 483551, color= 2
	 item 1953, weight= 483775, color= 6
	 item 1954, weight= 484095, color= 7
	 item 1955, weight= 484501, color= 19
	 item 1956, weight= 485312, color= 4
	 item 1957, weight= 485355, color= 11
	 item 1958, weight= 485501, color= 6
	 item 1959, weight= 485811, color= 10
	 item 1960, weight= 485914, color= 2
	 item 1961, weight= 486662, color= 4
	 item 1962, weight= 486892, color= 15
	 item 1963, weight= 487085, color= 15
	 item 1964, weight= 487114, color= 13
	 item 1965, weight= 487122, color= 11
	 item 1966, weight= 487160, color= 17
	 item 1967, weight= 488022, color= 9
	 item 1968, weight= 488526, color= 4
	 item 1969, weight= 488686, color= 3
	 item 1970, weight= 489553, color= 0
	 item 1971, weight= 489612, color= 2
	 item 1972, weight= 489633, color= 0
	 item 1973, weight= 489657, color= 3
	 item 1974, weight= 490511, color= 17
	 item 1975, weight= 490647, color= 17
	 item 1976, weight= 491635, color= 12
	 item 1977, weight= 491683, color= 5
	 item 1978, weight= 491686, color= 0
	 item 1979, weight= 491892, color= 16
	 item 1980, weight= 492553, color= 15
	 item 1981, weight= 492915, color= 19
	 item 1982, weight= 493397, color= 0
	 item 1983, weight= 493541, color= 4
	 item 1984, weight= 493626, color= 4
	 item 1985, weight= 493713, color= 4
	 item 1986, weight= 493871, color= 3
	 item 1987, weight= 493986, color= 13
	 item 1988, weight= 494283, color= 15
	 item 1989, weight= 494536, color= 4
	 item 1990, weight= 494576, color= 2
	 item 1991, weight= 494735, color= 17
	 item 1992, weight= 494965, color= 6
	 item 1993, weight= 495590, color= 15
	 item 1994, weight= 496277, color= 15
	 item 1995, weight= 496690, color= 8
	 item 1996, weight= 496794, color= 14
	 item 1997, weight= 497046, color= 12
	 item 1998, weight= 497434, color= 0
	 item 1999, weight= 498951, color= 1
	 item 2000, weight= 499184, color= 19
	 item 2001, weight= 499369, color= 14

VRPSolver warning: Interval set for resource 1 on source node (when source != sink) is ignored (by definition is [0.0,0.0])
VRPSolver warning: Interval set for resource 2 on source node (when source != sink) is ignored (by definition is [0.0,0.0])
VRPSolver warning: Interval set for resource 3 on source node (when source != sink) is ignored (by definition is [0.0,0.0])
VRPSolver warning: Interval set for resource 4 on source node (when source != sink) is ignored (by definition is [0.0,0.0])
VRPSolver warning: Interval set for resource 5 on source node (when source != sink) is ignored (by definition is [0.0,0.0])
VRPSolver warning: Interval set for resource 6 on source node (when source != sink) is ignored (by definition is [0.0,0.0])
VRPSolver warning: Interval set for resource 7 on source node (when source != sink) is ignored (by definition is [0.0,0.0])
VRPSolver warning: Interval set for resource 8 on source node (when source != sink) is ignored (by definition is [0.0,0.0])
VRPSolver warning: Interval set for resource 9 on source node (when source != sink) is ignored (by definition is [0.0,0.0])
VRPSolver warning: Interval set for resource 10 on source node (when source != sink) is ignored (by definition is [0.0,0.0])
VRPSolver warning: Interval set for resource 11 on source node (when source != sink) is ignored (by definition is [0.0,0.0])
VRPSolver warning: Interval set for resource 12 on source node (when source != sink) is ignored (by definition is [0.0,0.0])
VRPSolver warning: Interval set for resource 13 on source node (when source != sink) is ignored (by definition is [0.0,0.0])
VRPSolver warning: Interval set for resource 14 on source node (when source != sink) is ignored (by definition is [0.0,0.0])
VRPSolver warning: Interval set for resource 15 on source node (when source != sink) is ignored (by definition is [0.0,0.0])
VRPSolver warning: Interval set for resource 16 on source node (when source != sink) is ignored (by definition is [0.0,0.0])
VRPSolver warning: Interval set for resource 17 on source node (when source != sink) is ignored (by definition is [0.0,0.0])
VRPSolver warning: Interval set for resource 18 on source node (when source != sink) is ignored (by definition is [0.0,0.0])
VRPSolver warning: Interval set for resource 19 on source node (when source != sink) is ignored (by definition is [0.0,0.0])
VRPSolver warning: Interval set for resource 20 on source node (when source != sink) is ignored (by definition is [0.0,0.0])
VRPSolver warning: Interval set for resource 21 on source node (when source != sink) is ignored (by definition is [0.0,0.0])
[41m solve [00m
~~~~~~~~~~~~~~~~~~~~~~~~~~~~~~~~~~~~~~~~~~~~~~~~~~~~~~~~~~~~~~~~~~~~~~~~~~~~~~
VRPSolver v0.4.1, 24/03/2021. Web: vrpsolver.math.u-bordeaux.fr
Corresponds to the solver by Pessoa, Sadykov, Uchoa and Vanderbeck (2020)
Paper: dx.doi.org/10.1007/s10107-020-01523-z
USE THIS CODE ONLY FOR ACADEMIC PURPOSES AT YOUR OWN RISK
~~~~~~~~~~~~~~~~~~~~~~~~~~~~~~~~~~~~~~~~~~~~~~~~~~~~~~~~~~~~~~~~~~~~~~~~~~~~~~
BaPCod v053, 24/03/2021, © Inria Bordeaux, France
~~~~~~~~~~~~~~~~~~~~~~~~~~~~~~~~~~~~~~~~~~~~~~~~~~~~~~~~~~~~~~~~~~~~~~~~~~~~~~
VRPSolver parameters:
GlobalTimeLimit = 60
MaxNbOfBBtreeNodeTreated = 100000
treeSearchStrategy = 1
RCSPstopCutGenTimeThresholdInPricing = 10
RCSPhardTimeThresholdInPricing = 20
RCSPnumberOfBucketsPerVertex = 2000
RCSPdynamicBucketSteps = 0
RCSPuseBidirectionalSearch = 1
RCSPapplyReducedCostFixing = 1
RCSPredCostFixingFalseGap = 0
RCSPmaxNumOfColsPerIteration = 100
RCSPmaxNumOfColsPerExactIteration = 100
RCSPheurLabelingStrategy = 4
StabilizationMinPhaseOfStage = 1
RCSPmaxNumOfLabelsInEnumeration = 100000
RCSPmaxNumOfEnumeratedSolutions = 1000000
RCSPmaxNumOfEnumSolutionsForMIP = 100000
RCSPinitNGneighbourhoodSize = 0
RCSPmaxNGneighbourhoodSize = 0
RCSPrankOneCutsMaxNumPerRound = 100
RCSPrankOneCutsMaxNumRows = -1
RCSPrankOneCutsMemoryType = 2
CutTailingOffThreshold = 0.02
CutTailingOffCounterThreshold = 3
SafeDualBoundScaleFactor = -1
StrongBranchingPhaseOneCandidatesNumber = 100
StrongBranchingPhaseOneTreeSizeEstimRatio = 0.3
StrongBranchingPhaseTwoCandidatesNumber = 1
StrongBranchingPhaseTwoTreeSizeEstimRatio = 0.1
MaxTimeForRestrictedMasterIpHeur = -1
DivingHeurUseDepthLimit = 0
MaxLDSbreadth = 3
MaxLDSdepth = 2
New model incumbent solution 1e+06, TIME = 0h0m0s3t = 3
