Application parameters:
  batch  =>  nothing
  instance  =>  "/IN/N501W1001R2550Q20-004"
  ub  =>  1.0e6
  cfg  =>  "/CFG/BPP.cfg"
data = Colored Bin Packing dataset.
number of items = 501
number of colors = 20
capacity = 1001
Items : 
	 item 1, weight= 250, color= 0
	 item 2, weight= 250, color= 0
	 item 3, weight= 250, color= 1
	 item 4, weight= 250, color= 3
	 item 5, weight= 250, color= 7
	 item 6, weight= 250, color= 7
	 item 7, weight= 250, color= 8
	 item 8, weight= 250, color= 10
	 item 9, weight= 250, color= 11
	 item 10, weight= 250, color= 13
	 item 11, weight= 250, color= 19
	 item 12, weight= 250, color= 19
	 item 13, weight= 251, color= 3
	 item 14, weight= 251, color= 3
	 item 15, weight= 251, color= 5
	 item 16, weight= 251, color= 5
	 item 17, weight= 252, color= 5
	 item 18, weight= 252, color= 13
	 item 19, weight= 252, color= 14
	 item 20, weight= 252, color= 16
	 item 21, weight= 252, color= 18
	 item 22, weight= 253, color= 2
	 item 23, weight= 253, color= 3
	 item 24, weight= 253, color= 3
	 item 25, weight= 253, color= 3
	 item 26, weight= 253, color= 6
	 item 27, weight= 253, color= 10
	 item 28, weight= 253, color= 14
	 item 29, weight= 253, color= 17
	 item 30, weight= 253, color= 19
	 item 31, weight= 254, color= 2
	 item 32, weight= 254, color= 3
	 item 33, weight= 254, color= 3
	 item 34, weight= 254, color= 3
	 item 35, weight= 254, color= 4
	 item 36, weight= 254, color= 10
	 item 37, weight= 254, color= 11
	 item 38, weight= 254, color= 12
	 item 39, weight= 254, color= 12
	 item 40, weight= 254, color= 17
	 item 41, weight= 255, color= 3
	 item 42, weight= 255, color= 10
	 item 43, weight= 255, color= 12
	 item 44, weight= 255, color= 17
	 item 45, weight= 256, color= 0
	 item 46, weight= 256, color= 4
	 item 47, weight= 256, color= 9
	 item 48, weight= 256, color= 11
	 item 49, weight= 256, color= 14
	 item 50, weight= 257, color= 8
	 item 51, weight= 257, color= 12
	 item 52, weight= 257, color= 14
	 item 53, weight= 258, color= 9
	 item 54, weight= 258, color= 9
	 item 55, weight= 259, color= 4
	 item 56, weight= 259, color= 12
	 item 57, weight= 259, color= 12
	 item 58, weight= 259, color= 14
	 item 59, weight= 259, color= 17
	 item 60, weight= 259, color= 17
	 item 61, weight= 260, color= 4
	 item 62, weight= 260, color= 10
	 item 63, weight= 260, color= 13
	 item 64, weight= 260, color= 14
	 item 65, weight= 260, color= 14
	 item 66, weight= 260, color= 18
	 item 67, weight= 261, color= 2
	 item 68, weight= 261, color= 4
	 item 69, weight= 261, color= 5
	 item 70, weight= 261, color= 9
	 item 71, weight= 261, color= 15
	 item 72, weight= 262, color= 1
	 item 73, weight= 262, color= 2
	 item 74, weight= 262, color= 11
	 item 75, weight= 262, color= 11
	 item 76, weight= 262, color= 18
	 item 77, weight= 263, color= 2
	 item 78, weight= 263, color= 19
	 item 79, weight= 264, color= 4
	 item 80, weight= 264, color= 15
	 item 81, weight= 265, color= 2
	 item 82, weight= 266, color= 3
	 item 83, weight= 266, color= 4
	 item 84, weight= 266, color= 4
	 item 85, weight= 266, color= 13
	 item 86, weight= 266, color= 17
	 item 87, weight= 267, color= 1
	 item 88, weight= 267, color= 1
	 item 89, weight= 267, color= 5
	 item 90, weight= 267, color= 6
	 item 91, weight= 267, color= 14
	 item 92, weight= 267, color= 18
	 item 93, weight= 268, color= 9
	 item 94, weight= 268, color= 18
	 item 95, weight= 269, color= 0
	 item 96, weight= 269, color= 3
	 item 97, weight= 269, color= 4
	 item 98, weight= 269, color= 6
	 item 99, weight= 269, color= 6
	 item 100, weight= 269, color= 13
	 item 101, weight= 270, color= 0
	 item 102, weight= 270, color= 10
	 item 103, weight= 270, color= 11
	 item 104, weight= 270, color= 16
	 item 105, weight= 270, color= 19
	 item 106, weight= 271, color= 0
	 item 107, weight= 271, color= 3
	 item 108, weight= 271, color= 11
	 item 109, weight= 271, color= 15
	 item 110, weight= 272, color= 13
	 item 111, weight= 272, color= 18
	 item 112, weight= 273, color= 4
	 item 113, weight= 273, color= 11
	 item 114, weight= 273, color= 13
	 item 115, weight= 274, color= 4
	 item 116, weight= 274, color= 8
	 item 117, weight= 274, color= 13
	 item 118, weight= 274, color= 15
	 item 119, weight= 274, color= 17
	 item 120, weight= 275, color= 4
	 item 121, weight= 275, color= 7
	 item 122, weight= 276, color= 5
	 item 123, weight= 277, color= 0
	 item 124, weight= 277, color= 0
	 item 125, weight= 277, color= 1
	 item 126, weight= 277, color= 7
	 item 127, weight= 277, color= 19
	 item 128, weight= 278, color= 3
	 item 129, weight= 278, color= 9
	 item 130, weight= 278, color= 18
	 item 131, weight= 279, color= 7
	 item 132, weight= 279, color= 8
	 item 133, weight= 279, color= 13
	 item 134, weight= 280, color= 2
	 item 135, weight= 280, color= 3
	 item 136, weight= 280, color= 5
	 item 137, weight= 280, color= 5
	 item 138, weight= 280, color= 10
	 item 139, weight= 280, color= 12
	 item 140, weight= 280, color= 16
	 item 141, weight= 280, color= 17
	 item 142, weight= 281, color= 1
	 item 143, weight= 281, color= 7
	 item 144, weight= 281, color= 9
	 item 145, weight= 281, color= 11
	 item 146, weight= 281, color= 17
	 item 147, weight= 281, color= 18
	 item 148, weight= 281, color= 18
	 item 149, weight= 282, color= 4
	 item 150, weight= 282, color= 5
	 item 151, weight= 282, color= 8
	 item 152, weight= 283, color= 5
	 item 153, weight= 283, color= 10
	 item 154, weight= 283, color= 15
	 item 155, weight= 285, color= 2
	 item 156, weight= 285, color= 2
	 item 157, weight= 286, color= 0
	 item 158, weight= 286, color= 2
	 item 159, weight= 286, color= 4
	 item 160, weight= 286, color= 6
	 item 161, weight= 286, color= 9
	 item 162, weight= 286, color= 13
	 item 163, weight= 286, color= 15
	 item 164, weight= 287, color= 5
	 item 165, weight= 287, color= 11
	 item 166, weight= 288, color= 0
	 item 167, weight= 288, color= 6
	 item 168, weight= 288, color= 18
	 item 169, weight= 289, color= 1
	 item 170, weight= 289, color= 8
	 item 171, weight= 289, color= 16
	 item 172, weight= 289, color= 18
	 item 173, weight= 289, color= 19
	 item 174, weight= 290, color= 6
	 item 175, weight= 290, color= 7
	 item 176, weight= 290, color= 16
	 item 177, weight= 291, color= 7
	 item 178, weight= 291, color= 8
	 item 179, weight= 291, color= 15
	 item 180, weight= 292, color= 1
	 item 181, weight= 292, color= 5
	 item 182, weight= 292, color= 9
	 item 183, weight= 292, color= 14
	 item 184, weight= 293, color= 2
	 item 185, weight= 293, color= 9
	 item 186, weight= 294, color= 2
	 item 187, weight= 294, color= 8
	 item 188, weight= 294, color= 10
	 item 189, weight= 295, color= 4
	 item 190, weight= 295, color= 6
	 item 191, weight= 295, color= 10
	 item 192, weight= 295, color= 14
	 item 193, weight= 296, color= 0
	 item 194, weight= 296, color= 5
	 item 195, weight= 296, color= 17
	 item 196, weight= 297, color= 18
	 item 197, weight= 298, color= 2
	 item 198, weight= 298, color= 5
	 item 199, weight= 298, color= 8
	 item 200, weight= 298, color= 14
	 item 201, weight= 298, color= 17
	 item 202, weight= 299, color= 8
	 item 203, weight= 299, color= 9
	 item 204, weight= 299, color= 14
	 item 205, weight= 300, color= 7
	 item 206, weight= 300, color= 17
	 item 207, weight= 301, color= 4
	 item 208, weight= 301, color= 6
	 item 209, weight= 301, color= 11
	 item 210, weight= 302, color= 0
	 item 211, weight= 302, color= 1
	 item 212, weight= 302, color= 12
	 item 213, weight= 302, color= 15
	 item 214, weight= 303, color= 14
	 item 215, weight= 303, color= 14
	 item 216, weight= 304, color= 3
	 item 217, weight= 304, color= 9
	 item 218, weight= 304, color= 17
	 item 219, weight= 304, color= 18
	 item 220, weight= 306, color= 15
	 item 221, weight= 306, color= 19
	 item 222, weight= 307, color= 5
	 item 223, weight= 307, color= 6
	 item 224, weight= 307, color= 6
	 item 225, weight= 307, color= 6
	 item 226, weight= 307, color= 8
	 item 227, weight= 307, color= 11
	 item 228, weight= 307, color= 12
	 item 229, weight= 307, color= 12
	 item 230, weight= 309, color= 13
	 item 231, weight= 310, color= 4
	 item 232, weight= 310, color= 6
	 item 233, weight= 310, color= 17
	 item 234, weight= 311, color= 0
	 item 235, weight= 311, color= 1
	 item 236, weight= 311, color= 2
	 item 237, weight= 311, color= 14
	 item 238, weight= 312, color= 3
	 item 239, weight= 312, color= 4
	 item 240, weight= 312, color= 12
	 item 241, weight= 313, color= 1
	 item 242, weight= 313, color= 8
	 item 243, weight= 313, color= 17
	 item 244, weight= 314, color= 3
	 item 245, weight= 314, color= 12
	 item 246, weight= 314, color= 16
	 item 247, weight= 314, color= 17
	 item 248, weight= 315, color= 13
	 item 249, weight= 316, color= 2
	 item 250, weight= 316, color= 15
	 item 251, weight= 316, color= 16
	 item 252, weight= 318, color= 14
	 item 253, weight= 319, color= 3
	 item 254, weight= 319, color= 12
	 item 255, weight= 320, color= 14
	 item 256, weight= 321, color= 10
	 item 257, weight= 321, color= 12
	 item 258, weight= 321, color= 15
	 item 259, weight= 321, color= 17
	 item 260, weight= 322, color= 15
	 item 261, weight= 323, color= 0
	 item 262, weight= 323, color= 3
	 item 263, weight= 323, color= 8
	 item 264, weight= 323, color= 15
	 item 265, weight= 323, color= 15
	 item 266, weight= 324, color= 9
	 item 267, weight= 324, color= 13
	 item 268, weight= 325, color= 1
	 item 269, weight= 326, color= 1
	 item 270, weight= 326, color= 10
	 item 271, weight= 326, color= 11
	 item 272, weight= 327, color= 0
	 item 273, weight= 327, color= 4
	 item 274, weight= 327, color= 8
	 item 275, weight= 327, color= 9
	 item 276, weight= 327, color= 11
	 item 277, weight= 327, color= 11
	 item 278, weight= 328, color= 2
	 item 279, weight= 328, color= 14
	 item 280, weight= 329, color= 10
	 item 281, weight= 329, color= 17
	 item 282, weight= 330, color= 12
	 item 283, weight= 331, color= 17
	 item 284, weight= 332, color= 4
	 item 285, weight= 332, color= 5
	 item 286, weight= 332, color= 7
	 item 287, weight= 332, color= 18
	 item 288, weight= 333, color= 2
	 item 289, weight= 335, color= 9
	 item 290, weight= 335, color= 16
	 item 291, weight= 335, color= 17
	 item 292, weight= 336, color= 0
	 item 293, weight= 336, color= 3
	 item 294, weight= 336, color= 6
	 item 295, weight= 336, color= 18
	 item 296, weight= 337, color= 13
	 item 297, weight= 338, color= 8
	 item 298, weight= 338, color= 17
	 item 299, weight= 339, color= 11
	 item 300, weight= 340, color= 17
	 item 301, weight= 342, color= 4
	 item 302, weight= 342, color= 5
	 item 303, weight= 342, color= 12
	 item 304, weight= 342, color= 19
	 item 305, weight= 343, color= 7
	 item 306, weight= 343, color= 15
	 item 307, weight= 345, color= 1
	 item 308, weight= 345, color= 13
	 item 309, weight= 345, color= 17
	 item 310, weight= 345, color= 18
	 item 311, weight= 347, color= 6
	 item 312, weight= 348, color= 5
	 item 313, weight= 348, color= 19
	 item 314, weight= 349, color= 0
	 item 315, weight= 349, color= 3
	 item 316, weight= 350, color= 7
	 item 317, weight= 350, color= 14
	 item 318, weight= 350, color= 15
	 item 319, weight= 350, color= 15
	 item 320, weight= 350, color= 15
	 item 321, weight= 351, color= 13
	 item 322, weight= 352, color= 12
	 item 323, weight= 353, color= 8
	 item 324, weight= 354, color= 17
	 item 325, weight= 355, color= 4
	 item 326, weight= 355, color= 11
	 item 327, weight= 355, color= 12
	 item 328, weight= 355, color= 18
	 item 329, weight= 356, color= 9
	 item 330, weight= 356, color= 14
	 item 331, weight= 356, color= 19
	 item 332, weight= 357, color= 1
	 item 333, weight= 357, color= 7
	 item 334, weight= 357, color= 18
	 item 335, weight= 358, color= 0
	 item 336, weight= 358, color= 6
	 item 337, weight= 359, color= 0
	 item 338, weight= 359, color= 7
	 item 339, weight= 360, color= 4
	 item 340, weight= 360, color= 11
	 item 341, weight= 361, color= 14
	 item 342, weight= 363, color= 0
	 item 343, weight= 363, color= 7
	 item 344, weight= 363, color= 12
	 item 345, weight= 364, color= 4
	 item 346, weight= 365, color= 0
	 item 347, weight= 365, color= 11
	 item 348, weight= 366, color= 5
	 item 349, weight= 367, color= 15
	 item 350, weight= 368, color= 5
	 item 351, weight= 370, color= 15
	 item 352, weight= 371, color= 5
	 item 353, weight= 371, color= 10
	 item 354, weight= 371, color= 14
	 item 355, weight= 372, color= 7
	 item 356, weight= 372, color= 13
	 item 357, weight= 373, color= 18
	 item 358, weight= 373, color= 19
	 item 359, weight= 374, color= 5
	 item 360, weight= 374, color= 7
	 item 361, weight= 374, color= 13
	 item 362, weight= 375, color= 1
	 item 363, weight= 375, color= 8
	 item 364, weight= 375, color= 13
	 item 365, weight= 376, color= 4
	 item 366, weight= 376, color= 5
	 item 367, weight= 376, color= 6
	 item 368, weight= 377, color= 1
	 item 369, weight= 379, color= 3
	 item 370, weight= 379, color= 7
	 item 371, weight= 379, color= 7
	 item 372, weight= 379, color= 19
	 item 373, weight= 379, color= 19
	 item 374, weight= 380, color= 16
	 item 375, weight= 380, color= 19
	 item 376, weight= 381, color= 7
	 item 377, weight= 381, color= 9
	 item 378, weight= 381, color= 11
	 item 379, weight= 382, color= 4
	 item 380, weight= 383, color= 3
	 item 381, weight= 383, color= 9
	 item 382, weight= 383, color= 14
	 item 383, weight= 383, color= 19
	 item 384, weight= 385, color= 10
	 item 385, weight= 386, color= 2
	 item 386, weight= 386, color= 18
	 item 387, weight= 387, color= 5
	 item 388, weight= 388, color= 8
	 item 389, weight= 389, color= 18
	 item 390, weight= 390, color= 0
	 item 391, weight= 390, color= 14
	 item 392, weight= 391, color= 2
	 item 393, weight= 392, color= 17
	 item 394, weight= 392, color= 18
	 item 395, weight= 392, color= 19
	 item 396, weight= 393, color= 4
	 item 397, weight= 395, color= 0
	 item 398, weight= 395, color= 4
	 item 399, weight= 395, color= 10
	 item 400, weight= 396, color= 7
	 item 401, weight= 396, color= 8
	 item 402, weight= 396, color= 18
	 item 403, weight= 397, color= 1
	 item 404, weight= 397, color= 14
	 item 405, weight= 398, color= 0
	 item 406, weight= 398, color= 12
	 item 407, weight= 400, color= 4
	 item 408, weight= 401, color= 1
	 item 409, weight= 401, color= 9
	 item 410, weight= 402, color= 4
	 item 411, weight= 402, color= 18
	 item 412, weight= 404, color= 7
	 item 413, weight= 404, color= 12
	 item 414, weight= 405, color= 13
	 item 415, weight= 405, color= 16
	 item 416, weight= 406, color= 8
	 item 417, weight= 407, color= 10
	 item 418, weight= 407, color= 10
	 item 419, weight= 408, color= 9
	 item 420, weight= 410, color= 5
	 item 421, weight= 411, color= 13
	 item 422, weight= 411, color= 19
	 item 423, weight= 416, color= 1
	 item 424, weight= 416, color= 5
	 item 425, weight= 418, color= 0
	 item 426, weight= 419, color= 3
	 item 427, weight= 419, color= 6
	 item 428, weight= 420, color= 4
	 item 429, weight= 420, color= 7
	 item 430, weight= 420, color= 10
	 item 431, weight= 420, color= 12
	 item 432, weight= 421, color= 6
	 item 433, weight= 422, color= 1
	 item 434, weight= 422, color= 18
	 item 435, weight= 425, color= 10
	 item 436, weight= 426, color= 16
	 item 437, weight= 429, color= 0
	 item 438, weight= 429, color= 7
	 item 439, weight= 430, color= 2
	 item 440, weight= 430, color= 9
	 item 441, weight= 430, color= 10
	 item 442, weight= 432, color= 14
	 item 443, weight= 433, color= 1
	 item 444, weight= 434, color= 0
	 item 445, weight= 434, color= 3
	 item 446, weight= 434, color= 3
	 item 447, weight= 434, color= 5
	 item 448, weight= 435, color= 13
	 item 449, weight= 435, color= 17
	 item 450, weight= 436, color= 5
	 item 451, weight= 436, color= 14
	 item 452, weight= 438, color= 8
	 item 453, weight= 440, color= 14
	 item 454, weight= 442, color= 4
	 item 455, weight= 444, color= 5
	 item 456, weight= 445, color= 1
	 item 457, weight= 445, color= 4
	 item 458, weight= 445, color= 11
	 item 459, weight= 445, color= 17
	 item 460, weight= 447, color= 13
	 item 461, weight= 448, color= 14
	 item 462, weight= 449, color= 2
	 item 463, weight= 449, color= 4
	 item 464, weight= 449, color= 15
	 item 465, weight= 451, color= 4
	 item 466, weight= 452, color= 7
	 item 467, weight= 453, color= 4
	 item 468, weight= 453, color= 8
	 item 469, weight= 454, color= 10
	 item 470, weight= 455, color= 12
	 item 471, weight= 456, color= 14
	 item 472, weight= 456, color= 14
	 item 473, weight= 458, color= 12
	 item 474, weight= 458, color= 13
	 item 475, weight= 459, color= 16
	 item 476, weight= 460, color= 1
	 item 477, weight= 460, color= 3
	 item 478, weight= 462, color= 5
	 item 479, weight= 464, color= 14
	 item 480, weight= 464, color= 19
	 item 481, weight= 465, color= 4
	 item 482, weight= 469, color= 14
	 item 483, weight= 474, color= 1
	 item 484, weight= 476, color= 0
	 item 485, weight= 476, color= 13
	 item 486, weight= 477, color= 16
	 item 487, weight= 479, color= 17
	 item 488, weight= 481, color= 9
	 item 489, weight= 481, color= 12
	 item 490, weight= 482, color= 4
	 item 491, weight= 482, color= 7
	 item 492, weight= 482, color= 14
	 item 493, weight= 485, color= 14
	 item 494, weight= 485, color= 16
	 item 495, weight= 487, color= 5
	 item 496, weight= 491, color= 9
	 item 497, weight= 491, color= 10
	 item 498, weight= 496, color= 0
	 item 499, weight= 497, color= 19
	 item 500, weight= 498, color= 1
	 item 501, weight= 499, color= 0

VRPSolver warning: Interval set for resource 1 on source node (when source != sink) is ignored (by definition is [0.0,0.0])
VRPSolver warning: Interval set for resource 2 on source node (when source != sink) is ignored (by definition is [0.0,0.0])
VRPSolver warning: Interval set for resource 3 on source node (when source != sink) is ignored (by definition is [0.0,0.0])
VRPSolver warning: Interval set for resource 4 on source node (when source != sink) is ignored (by definition is [0.0,0.0])
VRPSolver warning: Interval set for resource 5 on source node (when source != sink) is ignored (by definition is [0.0,0.0])
VRPSolver warning: Interval set for resource 6 on source node (when source != sink) is ignored (by definition is [0.0,0.0])
VRPSolver warning: Interval set for resource 7 on source node (when source != sink) is ignored (by definition is [0.0,0.0])
VRPSolver warning: Interval set for resource 8 on source node (when source != sink) is ignored (by definition is [0.0,0.0])
VRPSolver warning: Interval set for resource 9 on source node (when source != sink) is ignored (by definition is [0.0,0.0])
VRPSolver warning: Interval set for resource 10 on source node (when source != sink) is ignored (by definition is [0.0,0.0])
VRPSolver warning: Interval set for resource 11 on source node (when source != sink) is ignored (by definition is [0.0,0.0])
VRPSolver warning: Interval set for resource 12 on source node (when source != sink) is ignored (by definition is [0.0,0.0])
VRPSolver warning: Interval set for resource 13 on source node (when source != sink) is ignored (by definition is [0.0,0.0])
VRPSolver warning: Interval set for resource 14 on source node (when source != sink) is ignored (by definition is [0.0,0.0])
VRPSolver warning: Interval set for resource 15 on source node (when source != sink) is ignored (by definition is [0.0,0.0])
VRPSolver warning: Interval set for resource 16 on source node (when source != sink) is ignored (by definition is [0.0,0.0])
VRPSolver warning: Interval set for resource 17 on source node (when source != sink) is ignored (by definition is [0.0,0.0])
VRPSolver warning: Interval set for resource 18 on source node (when source != sink) is ignored (by definition is [0.0,0.0])
VRPSolver warning: Interval set for resource 19 on source node (when source != sink) is ignored (by definition is [0.0,0.0])
VRPSolver warning: Interval set for resource 20 on source node (when source != sink) is ignored (by definition is [0.0,0.0])
VRPSolver warning: Interval set for resource 21 on source node (when source != sink) is ignored (by definition is [0.0,0.0])
[41m solve [00m
~~~~~~~~~~~~~~~~~~~~~~~~~~~~~~~~~~~~~~~~~~~~~~~~~~~~~~~~~~~~~~~~~~~~~~~~~~~~~~
VRPSolver v0.4.1, 24/03/2021. Web: vrpsolver.math.u-bordeaux.fr
Corresponds to the solver by Pessoa, Sadykov, Uchoa and Vanderbeck (2020)
Paper: dx.doi.org/10.1007/s10107-020-01523-z
USE THIS CODE ONLY FOR ACADEMIC PURPOSES AT YOUR OWN RISK
~~~~~~~~~~~~~~~~~~~~~~~~~~~~~~~~~~~~~~~~~~~~~~~~~~~~~~~~~~~~~~~~~~~~~~~~~~~~~~
BaPCod v053, 24/03/2021, © Inria Bordeaux, France
~~~~~~~~~~~~~~~~~~~~~~~~~~~~~~~~~~~~~~~~~~~~~~~~~~~~~~~~~~~~~~~~~~~~~~~~~~~~~~
VRPSolver parameters:
GlobalTimeLimit = 60
MaxNbOfBBtreeNodeTreated = 100000
treeSearchStrategy = 1
RCSPstopCutGenTimeThresholdInPricing = 10
RCSPhardTimeThresholdInPricing = 20
RCSPnumberOfBucketsPerVertex = 2000
RCSPdynamicBucketSteps = 0
RCSPuseBidirectionalSearch = 1
RCSPapplyReducedCostFixing = 1
RCSPredCostFixingFalseGap = 0
RCSPmaxNumOfColsPerIteration = 100
RCSPmaxNumOfColsPerExactIteration = 100
RCSPheurLabelingStrategy = 4
StabilizationMinPhaseOfStage = 1
RCSPmaxNumOfLabelsInEnumeration = 100000
RCSPmaxNumOfEnumeratedSolutions = 1000000
RCSPmaxNumOfEnumSolutionsForMIP = 100000
RCSPinitNGneighbourhoodSize = 0
RCSPmaxNGneighbourhoodSize = 0
RCSPrankOneCutsMaxNumPerRound = 100
RCSPrankOneCutsMaxNumRows = -1
RCSPrankOneCutsMemoryType = 2
CutTailingOffThreshold = 0.02
CutTailingOffCounterThreshold = 3
SafeDualBoundScaleFactor = -1
StrongBranchingPhaseOneCandidatesNumber = 100
StrongBranchingPhaseOneTreeSizeEstimRatio = 0.3
StrongBranchingPhaseTwoCandidatesNumber = 1
StrongBranchingPhaseTwoTreeSizeEstimRatio = 0.1
MaxTimeForRestrictedMasterIpHeur = -1
DivingHeurUseDepthLimit = 0
MaxLDSbreadth = 3
MaxLDSdepth = 2
New model incumbent solution 1e+06, TIME = 0h0m0s5t = 5
