Academic license - for non-commercial use only - expires 2025-02-09
Gurobi Optimizer version 9.1.2 build v9.1.2rc0 (linux64)
Thread count: 20 physical cores, 40 logical processors, using up to 1 threads
Optimize a model with 12087 rows, 4194924 columns and 19816047 nonzeros
Model fingerprint: 0x441a503e
Variable types: 0 continuous, 4194924 integer (0 binary)
Coefficient statistics:
  Matrix range     [1e+00, 1e+00]
  Objective range  [1e+00, 1e+00]
  Bounds range     [1e+04, 1e+04]
  RHS range        [1e+00, 1e+00]

Warning: Completing partial solution with 4184598 unfixed non-continuous variables out of 4194924
User MIP start produced solution with objective 6579 (9.12s)
Loaded user MIP start with objective 6579
Processed MIP start in 9.93 seconds

Presolve time: 1.87s

Explored 0 nodes (0 simplex iterations) in 12.16 seconds
Thread count was 1 (of 40 available processors)

Solution count 1: 6579 

Time limit reached
Best objective 6.579000000000e+03, best bound -, gap -
0	4194924	12087	0	-1e+100	6579	63.773
