Academic license - for non-commercial use only - expires 2025-02-09
Gurobi Optimizer version 9.1.2 build v9.1.2rc0 (linux64)
Thread count: 20 physical cores, 40 logical processors, using up to 1 threads
Optimize a model with 1766 rows, 25642 columns and 122450 nonzeros
Model fingerprint: 0xf412afd9
Variable types: 0 continuous, 25642 integer (0 binary)
Coefficient statistics:
  Matrix range     [1e+00, 1e+00]
  Objective range  [1e+00, 1e+00]
  Bounds range     [1e+02, 1e+02]
  RHS range        [1e+00, 1e+00]

Warning: Completing partial solution with 25477 unfixed non-continuous variables out of 25642
User MIP start produced solution with objective 67 (0.03s)
Loaded user MIP start with objective 67

Presolve removed 880 rows and 4690 columns
Presolve time: 0.20s
Presolved: 886 rows, 20952 columns, 66517 nonzeros
Variable types: 0 continuous, 20952 integer (20701 binary)

Root relaxation: objective 3.400000e+01, 4453 iterations, 0.41 seconds

    Nodes    |    Current Node    |     Objective Bounds      |     Work
 Expl Unexpl |  Obj  Depth IntInf | Incumbent    BestBd   Gap | It/Node Time

     0     0   34.00000    0   69   67.00000   34.00000  49.3%     -    0s
H    0     0                      37.0000000   34.00000  8.11%     -    0s
H    0     0                      35.0000000   34.00000  2.86%     -    0s
     0     0   34.00000    0   24   35.00000   34.00000  2.86%     -    1s
*    0     0               0      34.0000000   34.00000  0.00%     -    1s

Explored 1 nodes (12839 simplex iterations) in 1.13 seconds
Thread count was 1 (of 40 available processors)

Solution count 4: 34 35 37 67 

Optimal solution found (tolerance 1.00e-04)
Best objective 3.400000000000e+01, best bound 3.400000000000e+01, gap 0.0000%
1	25642	1766	1	34	34	1.205
