Academic license - for non-commercial use only - expires 2025-02-09
Gurobi Optimizer version 9.1.2 build v9.1.2rc0 (linux64)
Thread count: 20 physical cores, 40 logical processors, using up to 1 threads
Optimize a model with 215771 rows, 354281 columns and 1550058 nonzeros
Model fingerprint: 0x2fd8f39e
Variable types: 0 continuous, 354281 integer (0 binary)
Coefficient statistics:
  Matrix range     [1e+00, 1e+00]
  Objective range  [1e+00, 1e+00]
  Bounds range     [1e+02, 1e+02]
  RHS range        [1e+00, 1e+00]

Warning: Completing partial solution with 354112 unfixed non-continuous variables out of 354281
User MIP start produced solution with objective 67 (0.84s)
Loaded user MIP start with objective 67

Presolve removed 209103 rows and 201052 columns
Presolve time: 3.37s
Presolved: 6668 rows, 153229 columns, 463768 nonzeros
Variable types: 0 continuous, 153229 integer (153218 binary)

Root simplex log...

Iteration    Objective       Primal Inf.    Dual Inf.      Time
    4815    3.4000035e+01   1.843158e+02   0.000000e+00      5s
   15574    3.4000389e+01   2.132857e+02   0.000000e+00     10s
   20432    3.4000000e+01   0.000000e+00   0.000000e+00     14s

Root relaxation: objective 3.400000e+01, 20432 iterations, 9.57 seconds

    Nodes    |    Current Node    |     Objective Bounds      |     Work
 Expl Unexpl |  Obj  Depth IntInf | Incumbent    BestBd   Gap | It/Node Time

*    0     0               0      34.0000000   34.00000  0.00%     -   13s

Explored 0 nodes (20432 simplex iterations) in 13.91 seconds
Thread count was 1 (of 40 available processors)

Solution count 2: 34 67 

Optimal solution found (tolerance 1.00e-04)
Best objective 3.400000000000e+01, best bound 3.400000000000e+01, gap 0.0000%
1	354281	215771	0	34	34	20.156
