Academic license - for non-commercial use only - expires 2025-02-09
Gurobi Optimizer version 9.1.2 build v9.1.2rc0 (linux64)
Thread count: 20 physical cores, 40 logical processors, using up to 1 threads
Optimize a model with 996 rows, 62250 columns and 248253 nonzeros
Model fingerprint: 0xb361ca55
Variable types: 0 continuous, 62250 integer (62250 binary)
Coefficient statistics:
  Matrix range     [1e+00, 1e+03]
  Objective range  [1e+00, 1e+00]
  Bounds range     [1e+00, 1e+00]
  RHS range        [1e+00, 1e+00]

Loaded user MIP start with objective 98

Presolve added 498 rows and 498 columns
Presolve time: 0.24s
Presolved: 1494 rows, 62748 columns, 187746 nonzeros
Variable types: 0 continuous, 62748 integer (62250 binary)

Root relaxation: objective 8.300000e+01, 2165 iterations, 0.23 seconds

    Nodes    |    Current Node    |     Objective Bounds      |     Work
 Expl Unexpl |  Obj  Depth IntInf | Incumbent    BestBd   Gap | It/Node Time

     0     0   83.00000    0  293   98.00000   83.00000  15.3%     -    1s
H    0     0                      90.0000000   83.00000  7.78%     -    1s
     0     0   83.00000    0  407   90.00000   83.00000  7.78%     -    4s
H    0     0                      86.0000000   83.00000  3.49%     -   10s
     0     0   83.00000    0  433   86.00000   83.00000  3.49%     -   10s
     0     0   83.00000    0  287   86.00000   83.00000  3.49%     -   12s
     0     0   83.00000    0  363   86.00000   83.00000  3.49%     -   13s
     0     0   83.00000    0  285   86.00000   83.00000  3.49%     -   14s
     0     0   83.00000    0  283   86.00000   83.00000  3.49%     -   15s
     0     2   83.00000    0  283   86.00000   83.00000  3.49%     -   21s
    95    97   83.00000   78  264   86.00000   83.00000  3.49%  86.6   25s
H  134   134                      85.0000000   83.00000  2.35%  88.1   29s
   162   160 infeasible  125        85.00000   83.00000  2.35%  79.0   30s
   243   231   83.15900  187  261   85.00000   83.00000  2.35%  59.7   37s
   373   359   84.00000  317  241   85.00000   83.00000  2.35%  41.8   40s
   622   608   84.00000  566  214   85.00000   83.00000  2.35%  27.4   48s
   663   649   84.00000  607  224   85.00000   83.00000  2.35%  26.4   50s
   988   974   84.00000  932  219   85.00000   83.00000  2.35%  19.5   55s
  1087  1073   84.00000 1031  226   85.00000   83.00000  2.35%  18.2   60s

Cutting planes:
  Cover: 35
  Clique: 14
  MIR: 23
  StrongCG: 13
  RLT: 7
  Relax-and-lift: 4

Explored 1088 nodes (56940 simplex iterations) in 60.01 seconds
Thread count was 1 (of 40 available processors)

Solution count 4: 85 86 90 98 

Time limit reached
Best objective 8.500000000000e+01, best bound 8.300000000000e+01, gap 2.3529%
0	62250	996	1088	83	85	60.156
