Academic license - for non-commercial use only - expires 2025-02-09
Gurobi Optimizer version 9.1.2 build v9.1.2rc0 (linux64)
Thread count: 20 physical cores, 40 logical processors, using up to 1 threads
Optimize a model with 240 rows, 3660 columns and 14460 nonzeros
Model fingerprint: 0xbd344a74
Variable types: 0 continuous, 3660 integer (3660 binary)
Coefficient statistics:
  Matrix range     [1e+00, 1e+03]
  Objective range  [1e+00, 1e+00]
  Bounds range     [1e+00, 1e+00]
  RHS range        [1e+00, 1e+00]

Loaded user MIP start with objective 25

Presolve time: 0.02s
Presolved: 240 rows, 3660 columns, 14460 nonzeros
Variable types: 0 continuous, 3660 integer (3660 binary)

Root relaxation: objective 2.000000e+01, 357 iterations, 0.01 seconds

    Nodes    |    Current Node    |     Objective Bounds      |     Work
 Expl Unexpl |  Obj  Depth IntInf | Incumbent    BestBd   Gap | It/Node Time

     0     0   20.00000    0   26   25.00000   20.00000  20.0%     -    0s
H    0     0                      23.0000000   20.00000  13.0%     -    0s
H    0     0                      22.0000000   20.00000  9.09%     -    0s
     0     0   20.00000    0   70   22.00000   20.00000  9.09%     -    0s
H    0     0                      21.0000000   20.00000  4.76%     -    0s
     0     0   20.00000    0   62   21.00000   20.00000  4.76%     -    0s
     0     0   20.00000    0   41   21.00000   20.00000  4.76%     -    0s
     0     0   20.00000    0   39   21.00000   20.00000  4.76%     -    0s
     0     0   20.00000    0   35   21.00000   20.00000  4.76%     -    0s
     0     0   20.00000    0   35   21.00000   20.00000  4.76%     -    0s
     0     2   20.00000    0   25   21.00000   20.00000  4.76%     -    0s
    47    22   20.00000   22   30   21.00000   20.00000  4.76%   304    5s
   105    36 infeasible   38        21.00000   20.00000  4.76%   156   10s
   210    60 infeasible   45        21.00000   20.00000  4.76%  97.8   15s
   318    72 infeasible   39        21.00000   20.00000  4.76%  79.0   20s
   385    73 infeasible   43        21.00000   20.00000  4.76%  74.6   25s
   451    69   20.00000   35   26   21.00000   20.00000  4.76%  70.4   31s
   527    65 infeasible   41        21.00000   20.00000  4.76%  67.8   35s
   625    66   20.00000   30   29   21.00000   20.00000  4.76%  64.1   40s
   695    52   20.00000   38   25   21.00000   20.00000  4.76%  61.4   45s
   839    70   20.00000   70   24   21.00000   20.00000  4.76%  55.9   50s
  1016    70 infeasible   47        21.00000   20.00000  4.76%  49.8   55s
  1120    78   20.00000   22   28   21.00000   20.00000  4.76%  48.8   60s

Cutting planes:
  Gomory: 11
  Cover: 32
  Clique: 10
  Flow cover: 1
  Zero half: 7
  RLT: 27

Explored 1121 nodes (61664 simplex iterations) in 60.00 seconds
Thread count was 1 (of 40 available processors)

Solution count 4: 21 22 23 25 

Time limit reached
Best objective 2.100000000000e+01, best bound 2.000000000000e+01, gap 4.7619%
0	3660	240	1121	20	21	60.043
