Academic license - for non-commercial use only - expires 2025-02-09
Gurobi Optimizer version 9.1.2 build v9.1.2rc0 (linux64)
Thread count: 20 physical cores, 40 logical processors, using up to 1 threads
Optimize a model with 480 rows, 14520 columns and 57720 nonzeros
Model fingerprint: 0x4c41b912
Variable types: 0 continuous, 14520 integer (14520 binary)
Coefficient statistics:
  Matrix range     [1e+00, 1e+03]
  Objective range  [1e+00, 1e+00]
  Bounds range     [1e+00, 1e+00]
  RHS range        [1e+00, 1e+00]

Loaded user MIP start with objective 47

Presolve added 240 rows and 240 columns
Presolve time: 0.09s
Presolved: 720 rows, 14760 columns, 44040 nonzeros
Variable types: 0 continuous, 14760 integer (14520 binary)

Root relaxation: objective 4.000000e+01, 887 iterations, 0.05 seconds

    Nodes    |    Current Node    |     Objective Bounds      |     Work
 Expl Unexpl |  Obj  Depth IntInf | Incumbent    BestBd   Gap | It/Node Time

     0     0   40.00000    0  128   47.00000   40.00000  14.9%     -    0s
H    0     0                      46.0000000   40.00000  13.0%     -    0s
H    0     0                      45.0000000   40.00000  11.1%     -    0s
H    0     0                      44.0000000   40.00000  9.09%     -    0s
     0     0   40.00000    0  229   44.00000   40.00000  9.09%     -    0s
H    0     0                      43.0000000   40.00000  6.98%     -    1s
     0     0   40.00000    0  221   43.00000   40.00000  6.98%     -    1s
     0     0   40.00000    0  170   43.00000   40.00000  6.98%     -    1s
     0     0   40.00000    0  156   43.00000   40.00000  6.98%     -    2s
H    0     0                      42.0000000   40.00000  4.76%     -    2s
     0     2   40.00000    0  151   42.00000   40.00000  4.76%     -    2s
    64    62   40.00000   51  138   42.00000   40.00000  4.76%  74.6    5s
   398   384   41.00000  374  112   42.00000   40.00000  4.76%  19.0   10s
   624   609   41.00000  600  121   42.00000   40.00000  4.76%  14.2   15s
   995   955   41.00000  455  153   42.00000   40.00000  4.76%  11.2   21s
  1005   962   41.00000  731  102   42.00000   40.00000  4.76%  11.1   25s
  1014   970   40.00000   10  140   42.00000   40.00000  4.76%  48.7   30s
  1040   963   40.00000   23  132   42.00000   40.00000  4.76%  48.4   36s
  1067   953   40.00000   36  132   42.00000   40.00000  4.76%  49.0   41s
  1092   948   40.00000   49  122   42.00000   40.00000  4.76%  49.9   45s
  1094   949   40.00000   50  124   42.00000   40.00000  4.76%  50.0   54s
  1096   950   40.07000   51  132   42.00000   40.00000  4.76%  50.0   55s
  1113   962   40.00000   59  136   42.00000   40.00000  4.76%  50.3   60s

Cutting planes:
  Gomory: 7
  Cover: 35
  Implied bound: 14
  Clique: 4
  MIR: 15
  StrongCG: 16
  Flow cover: 94
  RLT: 2
  Relax-and-lift: 5

Explored 1114 nodes (67158 simplex iterations) in 60.01 seconds
Thread count was 1 (of 40 available processors)

Solution count 6: 42 43 44 ... 47

Time limit reached
Best objective 4.200000000000e+01, best bound 4.000000000000e+01, gap 4.7619%
0	14520	480	1114	40	42	60.062
