Academic license - for non-commercial use only - expires 2025-02-09
Gurobi Optimizer version 9.1.2 build v9.1.2rc0 (linux64)
Thread count: 20 physical cores, 40 logical processors, using up to 1 threads
Optimize a model with 996 rows, 62250 columns and 248253 nonzeros
Model fingerprint: 0x35fa6e1b
Variable types: 0 continuous, 62250 integer (62250 binary)
Coefficient statistics:
  Matrix range     [1e+00, 1e+03]
  Objective range  [1e+00, 1e+00]
  Bounds range     [1e+00, 1e+00]
  RHS range        [1e+00, 1e+00]

Loaded user MIP start with objective 96

Presolve added 498 rows and 498 columns
Presolve time: 0.25s
Presolved: 1494 rows, 62748 columns, 187746 nonzeros
Variable types: 0 continuous, 62748 integer (62250 binary)

Root relaxation: objective 8.300000e+01, 2436 iterations, 0.24 seconds

    Nodes    |    Current Node    |     Objective Bounds      |     Work
 Expl Unexpl |  Obj  Depth IntInf | Incumbent    BestBd   Gap | It/Node Time

     0     0   83.00000    0  282   96.00000   83.00000  13.5%     -    1s
H    0     0                      92.0000000   83.00000  9.78%     -    1s
H    0     0                      90.0000000   83.00000  7.78%     -    2s
     0     0   83.00000    0  383   90.00000   83.00000  7.78%     -    2s
H    0     0                      88.0000000   83.00000  5.68%     -    6s
     0     0   83.00000    0  421   88.00000   83.00000  5.68%     -    6s
     0     0   83.00000    0  269   88.00000   83.00000  5.68%     -    7s
H    0     0                      87.0000000   83.00000  4.60%     -    7s
     0     0   83.00000    0  400   87.00000   83.00000  4.60%     -    8s
     0     0   83.00000    0  285   87.00000   83.00000  4.60%     -    9s
     0     0   83.00000    0  263   87.00000   83.00000  4.60%     -   10s
     0     2   83.00000    0  263   87.00000   83.00000  4.60%     -   15s
    26    28   83.00000   23  234   87.00000   83.00000  4.60%  86.4   20s
H   49    49                      86.0000000   83.00000  3.49%  64.6   30s
   134   136   83.00000  110  259   86.00000   83.00000  3.49%  81.8   35s
   271   258   83.01600  211  259   86.00000   83.00000  3.49%  65.6   40s
   624   598   84.00000  557  242   86.00000   83.00000  3.49%  37.2   45s
  1081  1054   84.00000 1014  225   86.00000   83.00000  3.49%  24.1   50s
  1556  1528   84.00000 1489  223   86.00000   83.00000  3.49%  18.2   55s
  1848  1819   84.00000 1781  222   86.00000   83.00000  3.49%  16.4   60s

Cutting planes:
  Cover: 61
  Clique: 16
  MIR: 26
  StrongCG: 20
  RLT: 24
  Relax-and-lift: 10

Explored 1849 nodes (66218 simplex iterations) in 60.01 seconds
Thread count was 1 (of 40 available processors)

Solution count 6: 86 87 88 ... 96

Time limit reached
Best objective 8.600000000000e+01, best bound 8.300000000000e+01, gap 3.4884%
0	62250	996	1849	83	86	60.157
