Academic license - for non-commercial use only - expires 2025-02-09
Gurobi Optimizer version 9.1.2 build v9.1.2rc0 (linux64)
Thread count: 20 physical cores, 40 logical processors, using up to 1 threads
Optimize a model with 480 rows, 14520 columns and 57720 nonzeros
Model fingerprint: 0x91f69689
Variable types: 0 continuous, 14520 integer (14520 binary)
Coefficient statistics:
  Matrix range     [1e+00, 1e+03]
  Objective range  [1e+00, 1e+00]
  Bounds range     [1e+00, 1e+00]
  RHS range        [1e+00, 1e+00]

Loaded user MIP start with objective 47

Presolve added 240 rows and 240 columns
Presolve time: 0.09s
Presolved: 720 rows, 14760 columns, 44040 nonzeros
Variable types: 0 continuous, 14760 integer (14520 binary)

Root relaxation: objective 4.000000e+01, 854 iterations, 0.04 seconds

    Nodes    |    Current Node    |     Objective Bounds      |     Work
 Expl Unexpl |  Obj  Depth IntInf | Incumbent    BestBd   Gap | It/Node Time

     0     0   40.00000    0  132   47.00000   40.00000  14.9%     -    0s
H    0     0                      45.0000000   40.00000  11.1%     -    0s
H    0     0                      43.0000000   40.00000  6.98%     -    0s
     0     0   40.00000    0  230   43.00000   40.00000  6.98%     -    0s
H    0     0                      42.0000000   40.00000  4.76%     -    2s
     0     0   40.00000    0  205   42.00000   40.00000  4.76%     -    2s
     0     0   40.00000    0  148   42.00000   40.00000  4.76%     -    2s
     0     0   40.00000    0  148   42.00000   40.00000  4.76%     -    2s
     0     2   40.00000    0  146   42.00000   40.00000  4.76%     -    3s
   102    92   40.00000   75  125   42.00000   40.00000  4.76%  72.4    6s
   441   415   41.00000  396   96   42.00000   40.00000  4.76%  23.0   11s
   809   783   41.00000  764   99   42.00000   40.00000  4.76%  14.9   16s
H 1036   111                      41.0000000   40.00000  2.44%  13.1   19s
  1038   110   40.00000   73  148   41.00000   40.00000  2.44%  13.1   20s
  1047   116   40.00000   48  131   41.00000   40.00000  2.44%  13.0   25s
  1057   125   40.00000   10  131   41.00000   40.00000  2.44%  36.5   30s
  1083   134   40.00000   23  113   41.00000   40.00000  2.44%  37.7   37s
  1099   139   40.00000   31  121   41.00000   40.00000  2.44%  38.5   40s
  1110   140   40.00000   36  132   41.00000   40.00000  2.44%  41.3   49s
  1114   141   40.00000   38  138   41.00000   40.00000  2.44%  41.5   50s
  1137   139   40.00000   50  142   41.00000   40.00000  2.44%  47.1   57s

Cutting planes:
  Gomory: 14
  Cover: 34
  Implied bound: 7
  Clique: 7
  MIR: 1
  Flow cover: 35
  RLT: 11

Explored 1151 nodes (78443 simplex iterations) in 60.01 seconds
Thread count was 1 (of 40 available processors)

Solution count 5: 41 42 43 ... 47

Time limit reached
Best objective 4.100000000000e+01, best bound 4.000000000000e+01, gap 2.4390%
0	14520	480	1151	40	41	60.063
