Academic license - for non-commercial use only - expires 2025-02-09
Gurobi Optimizer version 9.1.2 build v9.1.2rc0 (linux64)
Thread count: 20 physical cores, 40 logical processors, using up to 1 threads
Optimize a model with 155083 rows, 432880 columns and 988576 nonzeros
Model fingerprint: 0x8b098c29
Variable types: 0 continuous, 432880 integer (0 binary)
Coefficient statistics:
  Matrix range     [1e+00, 1e+00]
  Objective range  [1e+00, 1e+00]
  Bounds range     [1e+02, 1e+02]
  RHS range        [1e+00, 1e+00]

Warning: Completing partial solution with 432732 unfixed non-continuous variables out of 432880
User MIP start produced solution with objective 46 (0.53s)
Loaded user MIP start with objective 46

Presolve removed 150819 rows and 292748 columns
Presolve time: 2.37s
Presolved: 4264 rows, 140132 columns, 284448 nonzeros
Found heuristic solution: objective 42.0000000
Variable types: 0 continuous, 140132 integer (140132 binary)

Root simplex log...

Iteration    Objective       Primal Inf.    Dual Inf.      Time
   12972    3.4000062e+01   5.972941e+01   0.000000e+00      5s
   21425    3.4000212e+01   3.227083e+02   0.000000e+00     10s
   28116    3.4000361e+01   1.021800e+02   0.000000e+00     15s
   33012    3.4000000e+01   0.000000e+00   0.000000e+00     20s

Root relaxation: objective 3.400000e+01, 33012 iterations, 16.62 seconds

    Nodes    |    Current Node    |     Objective Bounds      |     Work
 Expl Unexpl |  Obj  Depth IntInf | Incumbent    BestBd   Gap | It/Node Time

*    0     0               0      34.0000000   34.00000  0.00%     -   19s

Explored 0 nodes (33012 simplex iterations) in 19.93 seconds
Thread count was 1 (of 40 available processors)

Solution count 3: 34 42 46 

Optimal solution found (tolerance 1.00e-04)
Best objective 3.400000000000e+01, best bound 3.400000000000e+01, gap 0.0000%
1	432880	155083	0	34	34	26.799
