Academic license - for non-commercial use only - expires 2025-02-09
Gurobi Optimizer version 9.1.2 build v9.1.2rc0 (linux64)
Thread count: 20 physical cores, 40 logical processors, using up to 1 threads
Optimize a model with 153351 rows, 429506 columns and 981918 nonzeros
Model fingerprint: 0xe14a395d
Variable types: 0 continuous, 429506 integer (0 binary)
Coefficient statistics:
  Matrix range     [1e+00, 1e+00]
  Objective range  [1e+00, 1e+00]
  Bounds range     [1e+02, 1e+02]
  RHS range        [1e+00, 1e+00]

Warning: Completing partial solution with 429355 unfixed non-continuous variables out of 429506
User MIP start produced solution with objective 49 (0.53s)
Loaded user MIP start with objective 49

Presolve removed 149020 rows and 290270 columns
Presolve time: 2.38s
Presolved: 4331 rows, 139236 columns, 282715 nonzeros
Found heuristic solution: objective 44.0000000
Variable types: 0 continuous, 139236 integer (139236 binary)

Root simplex log...

Iteration    Objective       Primal Inf.    Dual Inf.      Time
   17198    3.4000112e+01   1.512727e+02   0.000000e+00      5s
   23983    3.4000246e+01   5.668100e+01   0.000000e+00     10s
   29513    3.4000419e+01   2.719206e+02   0.000000e+00     15s
   30170    3.4000000e+01   0.000000e+00   0.000000e+00     16s

Root relaxation: objective 3.400000e+01, 30170 iterations, 12.55 seconds

    Nodes    |    Current Node    |     Objective Bounds      |     Work
 Expl Unexpl |  Obj  Depth IntInf | Incumbent    BestBd   Gap | It/Node Time

*    0     0               0      34.0000000   34.00000  0.00%     -   15s

Explored 0 nodes (30170 simplex iterations) in 15.87 seconds
Thread count was 1 (of 40 available processors)

Solution count 3: 34 44 49 

Optimal solution found (tolerance 1.00e-04)
Best objective 3.400000000000e+01, best bound 3.400000000000e+01, gap 0.0000%
1	429506	153351	0	34	34	22.792
