Academic license - for non-commercial use only - expires 2025-02-09
Gurobi Optimizer version 9.1.2 build v9.1.2rc0 (linux64)
Thread count: 20 physical cores, 40 logical processors, using up to 1 threads
Optimize a model with 156093 rows, 434366 columns and 991014 nonzeros
Model fingerprint: 0x59b22851
Variable types: 0 continuous, 434366 integer (0 binary)
Coefficient statistics:
  Matrix range     [1e+00, 1e+00]
  Objective range  [1e+00, 1e+00]
  Bounds range     [1e+02, 1e+02]
  RHS range        [1e+00, 1e+00]

Warning: Completing partial solution with 434221 unfixed non-continuous variables out of 434366
User MIP start produced solution with objective 43 (0.54s)
Loaded user MIP start with objective 43

Presolve removed 151872 rows and 294085 columns
Presolve time: 2.33s
Presolved: 4221 rows, 140281 columns, 284705 nonzeros
Found heuristic solution: objective 41.0000000
Variable types: 0 continuous, 140281 integer (140281 binary)

Root simplex log...

Iteration    Objective       Primal Inf.    Dual Inf.      Time
   11861    3.4000094e+01   7.350000e+01   0.000000e+00      5s
   20001    3.4000239e+01   1.227906e+02   0.000000e+00     10s
   25757    3.4000343e+01   1.448031e+02   0.000000e+00     15s
   30700    3.4000000e+01   0.000000e+00   0.000000e+00     20s

Root relaxation: objective 3.400000e+01, 30700 iterations, 16.74 seconds

    Nodes    |    Current Node    |     Objective Bounds      |     Work
 Expl Unexpl |  Obj  Depth IntInf | Incumbent    BestBd   Gap | It/Node Time

*    0     0               0      34.0000000   34.00000  0.00%     -   20s

Explored 0 nodes (30700 simplex iterations) in 20.10 seconds
Thread count was 1 (of 40 available processors)

Solution count 3: 34 41 43 

Optimal solution found (tolerance 1.00e-04)
Best objective 3.400000000000e+01, best bound 3.400000000000e+01, gap 0.0000%
1	434366	156093	0	34	34	26.991
