Academic license - for non-commercial use only - expires 2025-02-09
Gurobi Optimizer version 9.1.2 build v9.1.2rc0 (linux64)
Thread count: 20 physical cores, 40 logical processors, using up to 1 threads
Optimize a model with 3500 rows, 836574 columns and 2504723 nonzeros
Model fingerprint: 0xfc3a590e
Variable types: 0 continuous, 836574 integer (0 binary)
Coefficient statistics:
  Matrix range     [1e+00, 1e+00]
  Objective range  [1e+00, 1e+00]
  Bounds range     [2e+03, 2e+03]
  RHS range        [1e+00, 1e+00]

Warning: Completing partial solution with 834292 unfixed non-continuous variables out of 836574
User MIP start produced solution with objective 801 (0.95s)
Loaded user MIP start with objective 801

Presolve removed 601 rows and 35572 columns (presolve time = 6s) ...
Presolve removed 601 rows and 35572 columns
Presolve time: 5.53s
Presolved: 2899 rows, 801002 columns, 1923833 nonzeros
Variable types: 0 continuous, 801002 integer (801002 binary)

Root simplex log...

Iteration    Objective       Primal Inf.    Dual Inf.      Time
       0   -6.8000000e+01   2.137000e+03   0.000000e+00      7s
    4660    1.9766672e+02   3.272533e+03   0.000000e+00     10s
    6674    2.4850005e+02   4.807550e+03   0.000000e+00     15s
    7922    2.9950005e+02   7.744408e+03   0.000000e+00     20s
    8454    3.1700007e+02   3.115196e+03   0.000000e+00     25s
    9635    3.8987509e+02   3.234206e+03   0.000000e+00     30s
   10089    3.9637511e+02   4.953758e+03   0.000000e+00     36s
   12086    4.9637548e+02   7.501762e+03   0.000000e+00     40s
   14491    5.0237591e+02   7.804315e+03   0.000000e+00     45s
   16193    5.0237682e+02   4.766407e+04   0.000000e+00     50s
   17895    5.0237965e+02   6.186806e+04   0.000000e+00     55s

Root relaxation: time limit, 18680 iterations, 51.21 seconds

    Nodes    |    Current Node    |     Objective Bounds      |     Work
 Expl Unexpl |  Obj  Depth IntInf | Incumbent    BestBd   Gap | It/Node Time

     0     0          -    0       801.00000 -19943.000  2590%     -   58s

Explored 0 nodes (18680 simplex iterations) in 58.05 seconds
Thread count was 1 (of 40 available processors)

Solution count 1: 801 

Time limit reached
Best objective 8.010000000000e+02, best bound -1.994300000000e+04, gap 2589.7628%
0	836574	3500	0	-19943	801	61.083
