Academic license - for non-commercial use only - expires 2025-02-09
Gurobi Optimizer version 9.1.2 build v9.1.2rc0 (linux64)
Thread count: 20 physical cores, 40 logical processors, using up to 1 threads
Optimize a model with 283333 rows, 356358 columns and 1793416 nonzeros
Model fingerprint: 0x8fcdbe08
Variable types: 0 continuous, 356358 integer (0 binary)
Coefficient statistics:
  Matrix range     [1e+00, 1e+00]
  Objective range  [1e+00, 1e+00]
  Bounds range     [1e+02, 1e+02]
  RHS range        [1e+00, 1e+00]

Warning: Completing partial solution with 356215 unfixed non-continuous variables out of 356358
User MIP start produced solution with objective 41 (0.94s)
Loaded user MIP start with objective 41

Presolve removed 273403 rows and 131040 columns
Presolve time: 4.97s
Presolved: 9930 rows, 225318 columns, 810946 nonzeros
Variable types: 0 continuous, 225318 integer (225294 binary)

Root simplex log...

Iteration    Objective       Primal Inf.    Dual Inf.      Time
       0    0.0000000e+00   1.020000e+02   0.000000e+00      6s
   13947    3.4000103e+01   2.071176e+02   0.000000e+00     10s
   20224    3.4000204e+01   1.636641e+02   0.000000e+00     15s
   25646    3.4000327e+01   1.035000e+03   0.000000e+00     20s
   29719    3.4000524e+01   0.000000e+00   0.000000e+00     25s

Root relaxation: objective 3.400000e+01, 29719 iterations, 19.07 seconds

    Nodes    |    Current Node    |     Objective Bounds      |     Work
 Expl Unexpl |  Obj  Depth IntInf | Incumbent    BestBd   Gap | It/Node Time

*    0     0               0      34.0000000   34.00000  0.00%     -   25s

Explored 0 nodes (29719 simplex iterations) in 25.18 seconds
Thread count was 1 (of 40 available processors)

Solution count 2: 34 41 

Optimal solution found (tolerance 1.00e-04)
Best objective 3.400000000000e+01, best bound 3.400000000000e+01, gap 0.0000%
1	356358	283333	0	34	34	32.012
