Academic license - for non-commercial use only - expires 2025-02-09
Gurobi Optimizer version 9.1.2 build v9.1.2rc0 (linux64)
Thread count: 20 physical cores, 40 logical processors, using up to 1 threads
Optimize a model with 6162 rows, 835827 columns and 6136775 nonzeros
Model fingerprint: 0xd0191e0b
Variable types: 0 continuous, 835827 integer (0 binary)
Coefficient statistics:
  Matrix range     [1e+00, 1e+00]
  Objective range  [1e+00, 1e+00]
  Bounds range     [2e+03, 2e+03]
  RHS range        [1e+00, 1e+00]

Warning: Completing partial solution with 833556 unfixed non-continuous variables out of 835827
User MIP start produced solution with objective 799 (2.60s)
Loaded user MIP start with objective 799
Processed MIP start in 2.63 seconds

Presolve removed 1 rows and 1 columns (presolve time = 5s) ...
Presolve removed 1274 rows and 5442 columns (presolve time = 10s) ...
Presolve removed 1515 rows and 5478 columns (presolve time = 15s) ...
Presolve removed 1515 rows and 5478 columns (presolve time = 21s) ...
Presolve removed 1515 rows and 5478 columns
Presolve time: 21.07s
Presolved: 4647 rows, 830349 columns, 5107674 nonzeros
Variable types: 0 continuous, 830349 integer (829862 binary)

Root simplex log...

Iteration    Objective       Primal Inf.    Dual Inf.      Time
       0   -5.0300000e+02   2.841875e+03   0.000000e+00     25s
     329   -2.3500000e+02   5.505375e+03   0.000000e+00     25s
    6157    5.2829818e-04   1.516970e+04   0.000000e+00     31s
    7198    7.1226526e-04   1.869916e+04   0.000000e+00     36s
   10350    5.9483530e+02   8.912393e+03   0.000000e+00     40s
   15570    6.6355801e+02   5.544770e+03   0.000000e+00     45s
   20295    6.6411412e+02   2.633445e+04   0.000000e+00     50s
   24885    6.6411463e+02   7.867523e+04   0.000000e+00     55s

Root relaxation: time limit, 26773 iterations, 32.61 seconds

    Nodes    |    Current Node    |     Objective Bounds      |     Work
 Expl Unexpl |  Obj  Depth IntInf | Incumbent    BestBd   Gap | It/Node Time

     0     0          -    0       799.00000 -1920.0000   340%     -   57s

Explored 0 nodes (26773 simplex iterations) in 57.07 seconds
Thread count was 1 (of 40 available processors)

Solution count 1: 799 

Time limit reached
Best objective 7.990000000000e+02, best bound -1.920000000000e+03, gap 340.3004%
0	835827	6162	0	-1920	799	60.994
