Academic license - for non-commercial use only - expires 2025-02-09
Gurobi Optimizer version 9.1.2 build v9.1.2rc0 (linux64)
Thread count: 20 physical cores, 40 logical processors, using up to 1 threads
Optimize a model with 11656 rows, 183157 columns and 2550232 nonzeros
Model fingerprint: 0x1e47cdf6
Variable types: 0 continuous, 183157 integer (0 binary)
Coefficient statistics:
  Matrix range     [1e+00, 1e+00]
  Objective range  [1e+00, 1e+00]
  Bounds range     [5e+02, 5e+02]
  RHS range        [1e+00, 1e+00]

Warning: Completing partial solution with 182514 unfixed non-continuous variables out of 183157
User MIP start produced solution with objective 200 (0.99s)
Loaded user MIP start with objective 200
Processed MIP start in 1.00 seconds

Presolve removed 5400 rows and 2110 columns (presolve time = 5s) ...
Presolve removed 5400 rows and 3686 columns
Presolve time: 9.16s
Presolved: 6256 rows, 179471 columns, 2277614 nonzeros
Found heuristic solution: objective 200.0000000
Variable types: 0 continuous, 179471 integer (179097 binary)

Root simplex log...

Iteration    Objective       Primal Inf.    Dual Inf.      Time
       0   -8.1900000e+02   2.005250e+03   0.000000e+00     11s
    9553    1.6655643e+02   1.982768e+04   0.000000e+00     15s
   19641    1.6655748e+02   8.881070e+04   0.000000e+00     20s
   29521    1.6655878e+02   4.516393e+04   0.000000e+00     25s
   34773    1.6700110e+02   1.064614e-03   0.000000e+00     30s
   34774    1.6700000e+02   0.000000e+00   0.000000e+00     30s

Root relaxation: objective 1.670000e+02, 34774 iterations, 19.71 seconds
Total elapsed time = 35.66s

    Nodes    |    Current Node    |     Objective Bounds      |     Work
 Expl Unexpl |  Obj  Depth IntInf | Incumbent    BestBd   Gap | It/Node Time

     0     0  167.00000    0   68  200.00000  167.00000  16.5%     -   60s

Explored 0 nodes (245653 simplex iterations) in 60.02 seconds
Thread count was 1 (of 40 available processors)

Solution count 2: 200 200 

Time limit reached
Best objective 2.000000000000e+02, best bound 1.670000000000e+02, gap 16.5000%
0	183157	11656	0	167	200	60.944
