Academic license - for non-commercial use only - expires 2025-02-09
Gurobi Optimizer version 9.1.2 build v9.1.2rc0 (linux64)
Thread count: 20 physical cores, 40 logical processors, using up to 1 threads
Optimize a model with 408 rows, 10506 columns and 41718 nonzeros
Model fingerprint: 0x72cb1844
Variable types: 0 continuous, 10506 integer (10506 binary)
Coefficient statistics:
  Matrix range     [1e+00, 1e+03]
  Objective range  [1e+00, 1e+00]
  Bounds range     [1e+00, 1e+00]
  RHS range        [1e+00, 1e+00]

Loaded user MIP start with objective 61

Presolve time: 0.05s
Presolved: 408 rows, 10506 columns, 41718 nonzeros
Variable types: 0 continuous, 10506 integer (10506 binary)

Root relaxation: objective 3.400000e+01, 660 iterations, 0.03 seconds

    Nodes    |    Current Node    |     Objective Bounds      |     Work
 Expl Unexpl |  Obj  Depth IntInf | Incumbent    BestBd   Gap | It/Node Time

     0     0   34.00000    0   70   61.00000   34.00000  44.3%     -    0s
H    0     0                      53.0000000   34.00000  35.8%     -    0s
H    0     0                      52.0000000   34.00000  34.6%     -    0s
     0     0   34.00000    0  133   52.00000   34.00000  34.6%     -    0s
H    0     0                      40.0000000   34.00000  15.0%     -    2s
     0     0   34.00000    0  140   40.00000   34.00000  15.0%     -    2s
     0     0   34.00000    0   89   40.00000   34.00000  15.0%     -    2s
     0     0   34.00000    0   99   40.00000   34.00000  15.0%     -    2s
     0     0   34.00000    0   85   40.00000   34.00000  15.0%     -    2s
     0     0   34.00000    0   86   40.00000   34.00000  15.0%     -    2s
     0     2   34.00000    0   77   40.00000   34.00000  15.0%     -    3s
    17     3   34.00000    9   90   40.00000   34.00000  15.0%   103    5s
H   26     2                      39.0000000   34.00000  12.8%  72.5    6s
H   28     2                      38.0000000   34.00000  10.5%  70.2    9s
    32     4   34.00000   17   84   38.00000   34.00000  10.5%  64.4   10s
H   52     6                      37.0000000   34.00000  8.11%  66.1   14s
    53     7 infeasible   29        37.00000   34.00000  8.11%  65.3   15s
    74     6   34.71111   37  100   37.00000   34.00000  8.11%  73.3   20s
    92     6   34.00000   40  116   37.00000   34.00000  8.11%  68.8   25s
   110     4   34.49850   38  103   37.00000   34.00000  8.11%  63.9   30s
   132    13   34.02483   50  109   37.00000   34.00000  8.11%  58.5   35s
H  137    12                      36.0000000   34.00000  5.56%  57.0   38s
   147    10 infeasible   51        36.00000   34.00000  5.56%  56.9   40s
   179    14   34.00000   58  110   36.00000   34.00000  5.56%  57.2   45s
   216    12 infeasible   60        36.00000   34.00000  5.56%  52.3   50s
   242    14   34.00000   62  117   36.00000   34.00000  5.56%  50.8   56s

Cutting planes:
  Cover: 46
  Clique: 8
  MIR: 9
  StrongCG: 4
  Inf proof: 3
  RLT: 1

Explored 272 nodes (25255 simplex iterations) in 60.00 seconds
Thread count was 1 (of 40 available processors)

Solution count 8: 36 37 38 ... 61

Time limit reached
Best objective 3.600000000000e+01, best bound 3.400000000000e+01, gap 5.5556%
0	10506	408	272	34	36	60.053
