Academic license - for non-commercial use only - expires 2025-02-09
Gurobi Optimizer version 9.1.2 build v9.1.2rc0 (linux64)
Thread count: 20 physical cores, 40 logical processors, using up to 1 threads
Optimize a model with 408 rows, 10506 columns and 41718 nonzeros
Model fingerprint: 0xef1474f1
Variable types: 0 continuous, 10506 integer (10506 binary)
Coefficient statistics:
  Matrix range     [1e+00, 1e+03]
  Objective range  [1e+00, 1e+00]
  Bounds range     [1e+00, 1e+00]
  RHS range        [1e+00, 1e+00]

Loaded user MIP start with objective 61

Presolve time: 0.05s
Presolved: 408 rows, 10506 columns, 41718 nonzeros
Variable types: 0 continuous, 10506 integer (10506 binary)

Root relaxation: objective 3.400000e+01, 696 iterations, 0.03 seconds

    Nodes    |    Current Node    |     Objective Bounds      |     Work
 Expl Unexpl |  Obj  Depth IntInf | Incumbent    BestBd   Gap | It/Node Time

     0     0   34.00000    0   85   61.00000   34.00000  44.3%     -    0s
H    0     0                      60.0000000   34.00000  43.3%     -    0s
H    0     0                      51.0000000   34.00000  33.3%     -    0s
     0     0   34.00000    0  159   51.00000   34.00000  33.3%     -    0s
H    0     0                      40.0000000   34.00000  15.0%     -    1s
     0     0   34.00000    0  163   40.00000   34.00000  15.0%     -    1s
     0     0   34.00000    0   85   40.00000   34.00000  15.0%     -    2s
     0     0   34.00000    0   82   40.00000   34.00000  15.0%     -    2s
     0     0   34.00000    0  102   40.00000   34.00000  15.0%     -    2s
     0     0   34.00000    0  102   40.00000   34.00000  15.0%     -    2s
     0     2   34.00000    0   94   40.00000   34.00000  15.0%     -    2s
H   28     2                      39.0000000   34.00000  12.8%   202    6s
    57     9   34.00000   32  103   39.00000   34.00000  12.8%   186   10s
H   79    27                      38.0000000   34.00000  10.5%   166   14s
    85    31   34.55892   49  109   38.00000   34.00000  10.5%   164   15s
   122    24   34.13981   38   98   38.00000   34.00000  10.5%   133   20s
   146    47   34.14841   55  110   38.00000   34.00000  10.5%   136   27s
   171    64 infeasible   69        38.00000   34.00000  10.5%   140   30s
   208    57   36.47552   43  108   38.00000   34.00000  10.5%   127   35s
   251    50 infeasible   55        38.00000   34.00000  10.5%   117   40s
   289    48   34.00000   50  113   38.00000   34.00000  10.5%   111   45s
H  314    61                      37.0000000   34.00000  8.11%   107   52s
   337    54 infeasible   58        37.00000   34.00000  8.11%   102   55s

Cutting planes:
  Cover: 60
  Clique: 5
  MIR: 12
  StrongCG: 7
  Inf proof: 4
  RLT: 1

Explored 382 nodes (47902 simplex iterations) in 60.00 seconds
Thread count was 1 (of 40 available processors)

Solution count 7: 37 38 39 ... 61

Time limit reached
Best objective 3.700000000000e+01, best bound 3.400000000000e+01, gap 8.1081%
0	10506	408	382	34	37	60.054
