Application parameters:
  batch  =>  nothing
  instance  =>  "/IN/N2001W1000001R1080Q5-001"
  ub  =>  1.0e6
  cfg  =>  "/CFG/BPP.cfg"
data = Colored Bin Packing dataset.
number of items = 2001
number of colors = 5
capacity = 1000001
Items : 
	 item 1, weight= 100396, color= 0
	 item 2, weight= 100719, color= 2
	 item 3, weight= 100858, color= 2
	 item 4, weight= 101666, color= 0
	 item 5, weight= 101835, color= 1
	 item 6, weight= 102178, color= 3
	 item 7, weight= 103083, color= 0
	 item 8, weight= 103274, color= 2
	 item 9, weight= 103560, color= 4
	 item 10, weight= 103619, color= 4
	 item 11, weight= 103737, color= 4
	 item 12, weight= 104620, color= 2
	 item 13, weight= 106613, color= 1
	 item 14, weight= 106640, color= 2
	 item 15, weight= 106977, color= 4
	 item 16, weight= 107494, color= 0
	 item 17, weight= 108012, color= 2
	 item 18, weight= 108069, color= 0
	 item 19, weight= 108356, color= 4
	 item 20, weight= 108483, color= 0
	 item 21, weight= 109019, color= 4
	 item 22, weight= 109100, color= 2
	 item 23, weight= 109272, color= 3
	 item 24, weight= 109356, color= 4
	 item 25, weight= 109623, color= 4
	 item 26, weight= 110285, color= 2
	 item 27, weight= 110646, color= 4
	 item 28, weight= 110892, color= 4
	 item 29, weight= 111162, color= 0
	 item 30, weight= 111250, color= 0
	 item 31, weight= 111536, color= 2
	 item 32, weight= 111644, color= 3
	 item 33, weight= 111858, color= 2
	 item 34, weight= 111893, color= 1
	 item 35, weight= 112555, color= 4
	 item 36, weight= 112572, color= 1
	 item 37, weight= 113000, color= 3
	 item 38, weight= 113114, color= 4
	 item 39, weight= 113198, color= 0
	 item 40, weight= 113335, color= 1
	 item 41, weight= 114375, color= 0
	 item 42, weight= 114393, color= 1
	 item 43, weight= 114494, color= 1
	 item 44, weight= 114608, color= 4
	 item 45, weight= 114639, color= 2
	 item 46, weight= 114723, color= 2
	 item 47, weight= 116090, color= 1
	 item 48, weight= 116249, color= 4
	 item 49, weight= 116508, color= 3
	 item 50, weight= 117064, color= 3
	 item 51, weight= 117261, color= 3
	 item 52, weight= 117913, color= 1
	 item 53, weight= 118336, color= 0
	 item 54, weight= 119640, color= 0
	 item 55, weight= 119652, color= 1
	 item 56, weight= 120611, color= 0
	 item 57, weight= 121329, color= 3
	 item 58, weight= 121634, color= 0
	 item 59, weight= 121870, color= 1
	 item 60, weight= 122098, color= 0
	 item 61, weight= 122240, color= 2
	 item 62, weight= 122775, color= 1
	 item 63, weight= 123500, color= 2
	 item 64, weight= 125120, color= 2
	 item 65, weight= 125178, color= 4
	 item 66, weight= 125256, color= 3
	 item 67, weight= 125989, color= 0
	 item 68, weight= 126823, color= 4
	 item 69, weight= 127383, color= 4
	 item 70, weight= 127898, color= 3
	 item 71, weight= 128067, color= 3
	 item 72, weight= 128294, color= 2
	 item 73, weight= 128733, color= 3
	 item 74, weight= 128931, color= 4
	 item 75, weight= 129689, color= 2
	 item 76, weight= 129996, color= 0
	 item 77, weight= 130478, color= 3
	 item 78, weight= 131014, color= 0
	 item 79, weight= 131160, color= 3
	 item 80, weight= 131630, color= 1
	 item 81, weight= 131851, color= 2
	 item 82, weight= 132438, color= 2
	 item 83, weight= 132652, color= 0
	 item 84, weight= 133309, color= 4
	 item 85, weight= 133602, color= 2
	 item 86, weight= 133638, color= 2
	 item 87, weight= 134381, color= 4
	 item 88, weight= 134838, color= 3
	 item 89, weight= 135115, color= 3
	 item 90, weight= 135203, color= 2
	 item 91, weight= 135636, color= 1
	 item 92, weight= 135699, color= 2
	 item 93, weight= 135809, color= 4
	 item 94, weight= 136023, color= 2
	 item 95, weight= 136035, color= 3
	 item 96, weight= 136079, color= 1
	 item 97, weight= 136342, color= 4
	 item 98, weight= 136608, color= 1
	 item 99, weight= 136931, color= 4
	 item 100, weight= 137563, color= 2
	 item 101, weight= 137922, color= 4
	 item 102, weight= 138152, color= 0
	 item 103, weight= 140027, color= 3
	 item 104, weight= 140863, color= 2
	 item 105, weight= 140989, color= 3
	 item 106, weight= 141204, color= 3
	 item 107, weight= 142107, color= 1
	 item 108, weight= 142270, color= 3
	 item 109, weight= 142431, color= 3
	 item 110, weight= 143033, color= 1
	 item 111, weight= 143035, color= 1
	 item 112, weight= 143476, color= 4
	 item 113, weight= 143496, color= 1
	 item 114, weight= 143738, color= 4
	 item 115, weight= 143929, color= 2
	 item 116, weight= 144178, color= 0
	 item 117, weight= 144580, color= 1
	 item 118, weight= 144892, color= 0
	 item 119, weight= 145045, color= 0
	 item 120, weight= 145498, color= 0
	 item 121, weight= 145768, color= 2
	 item 122, weight= 145929, color= 3
	 item 123, weight= 146104, color= 2
	 item 124, weight= 146171, color= 3
	 item 125, weight= 146226, color= 1
	 item 126, weight= 146528, color= 4
	 item 127, weight= 147299, color= 1
	 item 128, weight= 147509, color= 1
	 item 129, weight= 148107, color= 0
	 item 130, weight= 148136, color= 2
	 item 131, weight= 148241, color= 2
	 item 132, weight= 148396, color= 1
	 item 133, weight= 149954, color= 4
	 item 134, weight= 150831, color= 2
	 item 135, weight= 151102, color= 3
	 item 136, weight= 151187, color= 0
	 item 137, weight= 151212, color= 1
	 item 138, weight= 151729, color= 4
	 item 139, weight= 151996, color= 4
	 item 140, weight= 152016, color= 3
	 item 141, weight= 152036, color= 1
	 item 142, weight= 152212, color= 2
	 item 143, weight= 152626, color= 4
	 item 144, weight= 152904, color= 1
	 item 145, weight= 152964, color= 3
	 item 146, weight= 153468, color= 2
	 item 147, weight= 154403, color= 4
	 item 148, weight= 155030, color= 0
	 item 149, weight= 156489, color= 3
	 item 150, weight= 156597, color= 4
	 item 151, weight= 156680, color= 0
	 item 152, weight= 157468, color= 2
	 item 153, weight= 157566, color= 3
	 item 154, weight= 157601, color= 0
	 item 155, weight= 158109, color= 3
	 item 156, weight= 158213, color= 2
	 item 157, weight= 158493, color= 2
	 item 158, weight= 158691, color= 3
	 item 159, weight= 158692, color= 2
	 item 160, weight= 159303, color= 4
	 item 161, weight= 159323, color= 0
	 item 162, weight= 159565, color= 4
	 item 163, weight= 159733, color= 3
	 item 164, weight= 160044, color= 3
	 item 165, weight= 160064, color= 1
	 item 166, weight= 160463, color= 0
	 item 167, weight= 160545, color= 1
	 item 168, weight= 160610, color= 3
	 item 169, weight= 161725, color= 2
	 item 170, weight= 162111, color= 3
	 item 171, weight= 162486, color= 4
	 item 172, weight= 162715, color= 0
	 item 173, weight= 163216, color= 1
	 item 174, weight= 163321, color= 4
	 item 175, weight= 163666, color= 1
	 item 176, weight= 163829, color= 1
	 item 177, weight= 164471, color= 3
	 item 178, weight= 164613, color= 4
	 item 179, weight= 165169, color= 4
	 item 180, weight= 165270, color= 0
	 item 181, weight= 165316, color= 1
	 item 182, weight= 165816, color= 1
	 item 183, weight= 166215, color= 4
	 item 184, weight= 166690, color= 2
	 item 185, weight= 167369, color= 0
	 item 186, weight= 167924, color= 1
	 item 187, weight= 168131, color= 4
	 item 188, weight= 168586, color= 1
	 item 189, weight= 169400, color= 4
	 item 190, weight= 169662, color= 0
	 item 191, weight= 170494, color= 1
	 item 192, weight= 170862, color= 0
	 item 193, weight= 171643, color= 3
	 item 194, weight= 171722, color= 4
	 item 195, weight= 171769, color= 1
	 item 196, weight= 171865, color= 3
	 item 197, weight= 172110, color= 0
	 item 198, weight= 172314, color= 4
	 item 199, weight= 173885, color= 1
	 item 200, weight= 174544, color= 3
	 item 201, weight= 175162, color= 0
	 item 202, weight= 175482, color= 3
	 item 203, weight= 176140, color= 4
	 item 204, weight= 176293, color= 0
	 item 205, weight= 177571, color= 4
	 item 206, weight= 178373, color= 0
	 item 207, weight= 178492, color= 3
	 item 208, weight= 178796, color= 2
	 item 209, weight= 178987, color= 2
	 item 210, weight= 179165, color= 0
	 item 211, weight= 179434, color= 0
	 item 212, weight= 179473, color= 2
	 item 213, weight= 179777, color= 4
	 item 214, weight= 180674, color= 0
	 item 215, weight= 180930, color= 4
	 item 216, weight= 181472, color= 1
	 item 217, weight= 181669, color= 0
	 item 218, weight= 182064, color= 4
	 item 219, weight= 182078, color= 4
	 item 220, weight= 182167, color= 0
	 item 221, weight= 182556, color= 2
	 item 222, weight= 182583, color= 3
	 item 223, weight= 183004, color= 0
	 item 224, weight= 183058, color= 1
	 item 225, weight= 183064, color= 3
	 item 226, weight= 183274, color= 2
	 item 227, weight= 183401, color= 3
	 item 228, weight= 183507, color= 3
	 item 229, weight= 183684, color= 4
	 item 230, weight= 183732, color= 4
	 item 231, weight= 183784, color= 0
	 item 232, weight= 183821, color= 1
	 item 233, weight= 183975, color= 1
	 item 234, weight= 184281, color= 3
	 item 235, weight= 184330, color= 0
	 item 236, weight= 185187, color= 3
	 item 237, weight= 185214, color= 4
	 item 238, weight= 186401, color= 3
	 item 239, weight= 186738, color= 4
	 item 240, weight= 186981, color= 2
	 item 241, weight= 187208, color= 1
	 item 242, weight= 187464, color= 4
	 item 243, weight= 187758, color= 1
	 item 244, weight= 187761, color= 2
	 item 245, weight= 187854, color= 1
	 item 246, weight= 188142, color= 3
	 item 247, weight= 188303, color= 3
	 item 248, weight= 188436, color= 2
	 item 249, weight= 189464, color= 2
	 item 250, weight= 189616, color= 1
	 item 251, weight= 189861, color= 2
	 item 252, weight= 190254, color= 4
	 item 253, weight= 190416, color= 2
	 item 254, weight= 190650, color= 4
	 item 255, weight= 190677, color= 2
	 item 256, weight= 190935, color= 4
	 item 257, weight= 191243, color= 3
	 item 258, weight= 191257, color= 1
	 item 259, weight= 191716, color= 2
	 item 260, weight= 192222, color= 1
	 item 261, weight= 192452, color= 4
	 item 262, weight= 192717, color= 1
	 item 263, weight= 192970, color= 4
	 item 264, weight= 193800, color= 4
	 item 265, weight= 193900, color= 3
	 item 266, weight= 194226, color= 4
	 item 267, weight= 194381, color= 4
	 item 268, weight= 194802, color= 0
	 item 269, weight= 195793, color= 0
	 item 270, weight= 195928, color= 3
	 item 271, weight= 196141, color= 2
	 item 272, weight= 196327, color= 4
	 item 273, weight= 196639, color= 3
	 item 274, weight= 196906, color= 2
	 item 275, weight= 197031, color= 1
	 item 276, weight= 197453, color= 0
	 item 277, weight= 197515, color= 0
	 item 278, weight= 197622, color= 3
	 item 279, weight= 198375, color= 4
	 item 280, weight= 199547, color= 4
	 item 281, weight= 199783, color= 4
	 item 282, weight= 200068, color= 0
	 item 283, weight= 200356, color= 4
	 item 284, weight= 200620, color= 1
	 item 285, weight= 201110, color= 4
	 item 286, weight= 201270, color= 4
	 item 287, weight= 201667, color= 4
	 item 288, weight= 201910, color= 2
	 item 289, weight= 202245, color= 0
	 item 290, weight= 202316, color= 2
	 item 291, weight= 202495, color= 2
	 item 292, weight= 202556, color= 2
	 item 293, weight= 202560, color= 1
	 item 294, weight= 202721, color= 2
	 item 295, weight= 203614, color= 2
	 item 296, weight= 203789, color= 4
	 item 297, weight= 205239, color= 4
	 item 298, weight= 206819, color= 0
	 item 299, weight= 207343, color= 4
	 item 300, weight= 207871, color= 3
	 item 301, weight= 208022, color= 3
	 item 302, weight= 208441, color= 3
	 item 303, weight= 209571, color= 1
	 item 304, weight= 210650, color= 4
	 item 305, weight= 211571, color= 1
	 item 306, weight= 211979, color= 4
	 item 307, weight= 212423, color= 1
	 item 308, weight= 212626, color= 3
	 item 309, weight= 212772, color= 0
	 item 310, weight= 212778, color= 3
	 item 311, weight= 212797, color= 2
	 item 312, weight= 213589, color= 2
	 item 313, weight= 213701, color= 4
	 item 314, weight= 213948, color= 1
	 item 315, weight= 214010, color= 3
	 item 316, weight= 214986, color= 0
	 item 317, weight= 215189, color= 4
	 item 318, weight= 215219, color= 2
	 item 319, weight= 215224, color= 0
	 item 320, weight= 215953, color= 1
	 item 321, weight= 216091, color= 3
	 item 322, weight= 216361, color= 0
	 item 323, weight= 216364, color= 1
	 item 324, weight= 216386, color= 1
	 item 325, weight= 216442, color= 0
	 item 326, weight= 216536, color= 0
	 item 327, weight= 217684, color= 1
	 item 328, weight= 217915, color= 1
	 item 329, weight= 218099, color= 1
	 item 330, weight= 218177, color= 2
	 item 331, weight= 218212, color= 4
	 item 332, weight= 218557, color= 3
	 item 333, weight= 219308, color= 0
	 item 334, weight= 219351, color= 0
	 item 335, weight= 219561, color= 2
	 item 336, weight= 220106, color= 3
	 item 337, weight= 220503, color= 2
	 item 338, weight= 220523, color= 0
	 item 339, weight= 220897, color= 3
	 item 340, weight= 221376, color= 4
	 item 341, weight= 221549, color= 2
	 item 342, weight= 221598, color= 4
	 item 343, weight= 221936, color= 2
	 item 344, weight= 222646, color= 3
	 item 345, weight= 222937, color= 2
	 item 346, weight= 223449, color= 4
	 item 347, weight= 223662, color= 3
	 item 348, weight= 223715, color= 0
	 item 349, weight= 224713, color= 1
	 item 350, weight= 225130, color= 1
	 item 351, weight= 225274, color= 0
	 item 352, weight= 225783, color= 4
	 item 353, weight= 226101, color= 3
	 item 354, weight= 226363, color= 0
	 item 355, weight= 226403, color= 0
	 item 356, weight= 226418, color= 1
	 item 357, weight= 227561, color= 1
	 item 358, weight= 228293, color= 3
	 item 359, weight= 229012, color= 1
	 item 360, weight= 230169, color= 2
	 item 361, weight= 230232, color= 3
	 item 362, weight= 230579, color= 0
	 item 363, weight= 231201, color= 0
	 item 364, weight= 231482, color= 0
	 item 365, weight= 231563, color= 2
	 item 366, weight= 232164, color= 2
	 item 367, weight= 232173, color= 3
	 item 368, weight= 232442, color= 3
	 item 369, weight= 232517, color= 0
	 item 370, weight= 232817, color= 2
	 item 371, weight= 233102, color= 0
	 item 372, weight= 233147, color= 3
	 item 373, weight= 233231, color= 0
	 item 374, weight= 233354, color= 3
	 item 375, weight= 233387, color= 3
	 item 376, weight= 234319, color= 3
	 item 377, weight= 234538, color= 4
	 item 378, weight= 234657, color= 1
	 item 379, weight= 234919, color= 0
	 item 380, weight= 234958, color= 1
	 item 381, weight= 235233, color= 3
	 item 382, weight= 235653, color= 1
	 item 383, weight= 235674, color= 3
	 item 384, weight= 235818, color= 3
	 item 385, weight= 236037, color= 2
	 item 386, weight= 236058, color= 4
	 item 387, weight= 236468, color= 4
	 item 388, weight= 236711, color= 3
	 item 389, weight= 236889, color= 0
	 item 390, weight= 237207, color= 0
	 item 391, weight= 237452, color= 1
	 item 392, weight= 237574, color= 3
	 item 393, weight= 237619, color= 0
	 item 394, weight= 237687, color= 4
	 item 395, weight= 238053, color= 4
	 item 396, weight= 238190, color= 1
	 item 397, weight= 238449, color= 4
	 item 398, weight= 239322, color= 4
	 item 399, weight= 239555, color= 0
	 item 400, weight= 239633, color= 1
	 item 401, weight= 239728, color= 2
	 item 402, weight= 240043, color= 0
	 item 403, weight= 240128, color= 0
	 item 404, weight= 240337, color= 4
	 item 405, weight= 240678, color= 1
	 item 406, weight= 240815, color= 2
	 item 407, weight= 241003, color= 1
	 item 408, weight= 241288, color= 2
	 item 409, weight= 241443, color= 0
	 item 410, weight= 241570, color= 4
	 item 411, weight= 241684, color= 0
	 item 412, weight= 241904, color= 2
	 item 413, weight= 242154, color= 4
	 item 414, weight= 242353, color= 1
	 item 415, weight= 242589, color= 1
	 item 416, weight= 242946, color= 1
	 item 417, weight= 243003, color= 1
	 item 418, weight= 243170, color= 2
	 item 419, weight= 243237, color= 3
	 item 420, weight= 243291, color= 0
	 item 421, weight= 243361, color= 4
	 item 422, weight= 244584, color= 4
	 item 423, weight= 244670, color= 1
	 item 424, weight= 245256, color= 4
	 item 425, weight= 245488, color= 2
	 item 426, weight= 246074, color= 4
	 item 427, weight= 246508, color= 3
	 item 428, weight= 246925, color= 0
	 item 429, weight= 248170, color= 2
	 item 430, weight= 248225, color= 4
	 item 431, weight= 248342, color= 2
	 item 432, weight= 248722, color= 3
	 item 433, weight= 248849, color= 4
	 item 434, weight= 248891, color= 1
	 item 435, weight= 248929, color= 3
	 item 436, weight= 248983, color= 4
	 item 437, weight= 250657, color= 1
	 item 438, weight= 250779, color= 1
	 item 439, weight= 251608, color= 2
	 item 440, weight= 252231, color= 2
	 item 441, weight= 252250, color= 3
	 item 442, weight= 252337, color= 2
	 item 443, weight= 252738, color= 4
	 item 444, weight= 252967, color= 1
	 item 445, weight= 253142, color= 1
	 item 446, weight= 253498, color= 3
	 item 447, weight= 253556, color= 0
	 item 448, weight= 253652, color= 4
	 item 449, weight= 253780, color= 3
	 item 450, weight= 254341, color= 4
	 item 451, weight= 254498, color= 0
	 item 452, weight= 254642, color= 4
	 item 453, weight= 254742, color= 4
	 item 454, weight= 255029, color= 3
	 item 455, weight= 255458, color= 2
	 item 456, weight= 255803, color= 2
	 item 457, weight= 256482, color= 2
	 item 458, weight= 258628, color= 1
	 item 459, weight= 258781, color= 0
	 item 460, weight= 258824, color= 0
	 item 461, weight= 259111, color= 3
	 item 462, weight= 259503, color= 2
	 item 463, weight= 259769, color= 2
	 item 464, weight= 260485, color= 2
	 item 465, weight= 260589, color= 3
	 item 466, weight= 261624, color= 3
	 item 467, weight= 262297, color= 0
	 item 468, weight= 262717, color= 3
	 item 469, weight= 263813, color= 3
	 item 470, weight= 264061, color= 0
	 item 471, weight= 264293, color= 4
	 item 472, weight= 265581, color= 3
	 item 473, weight= 265842, color= 4
	 item 474, weight= 266445, color= 3
	 item 475, weight= 266711, color= 0
	 item 476, weight= 267209, color= 2
	 item 477, weight= 267268, color= 1
	 item 478, weight= 267388, color= 3
	 item 479, weight= 268199, color= 0
	 item 480, weight= 268654, color= 1
	 item 481, weight= 268685, color= 4
	 item 482, weight= 269760, color= 3
	 item 483, weight= 270437, color= 2
	 item 484, weight= 270458, color= 2
	 item 485, weight= 270624, color= 1
	 item 486, weight= 270785, color= 4
	 item 487, weight= 271310, color= 2
	 item 488, weight= 271320, color= 4
	 item 489, weight= 271536, color= 3
	 item 490, weight= 271582, color= 3
	 item 491, weight= 272227, color= 2
	 item 492, weight= 272352, color= 4
	 item 493, weight= 272442, color= 3
	 item 494, weight= 272543, color= 1
	 item 495, weight= 273414, color= 2
	 item 496, weight= 273529, color= 2
	 item 497, weight= 274336, color= 2
	 item 498, weight= 274819, color= 1
	 item 499, weight= 275072, color= 0
	 item 500, weight= 275221, color= 4
	 item 501, weight= 275474, color= 0
	 item 502, weight= 276392, color= 4
	 item 503, weight= 276610, color= 1
	 item 504, weight= 276829, color= 0
	 item 505, weight= 276953, color= 4
	 item 506, weight= 277580, color= 3
	 item 507, weight= 277841, color= 4
	 item 508, weight= 278264, color= 3
	 item 509, weight= 278379, color= 3
	 item 510, weight= 278559, color= 3
	 item 511, weight= 278728, color= 2
	 item 512, weight= 279077, color= 2
	 item 513, weight= 280315, color= 2
	 item 514, weight= 281551, color= 0
	 item 515, weight= 282029, color= 3
	 item 516, weight= 282045, color= 0
	 item 517, weight= 282352, color= 2
	 item 518, weight= 282592, color= 4
	 item 519, weight= 283123, color= 2
	 item 520, weight= 283537, color= 2
	 item 521, weight= 283783, color= 1
	 item 522, weight= 284010, color= 4
	 item 523, weight= 284427, color= 4
	 item 524, weight= 284443, color= 4
	 item 525, weight= 284951, color= 4
	 item 526, weight= 285095, color= 4
	 item 527, weight= 286175, color= 2
	 item 528, weight= 286538, color= 2
	 item 529, weight= 286644, color= 0
	 item 530, weight= 286817, color= 0
	 item 531, weight= 288004, color= 0
	 item 532, weight= 288119, color= 4
	 item 533, weight= 288190, color= 2
	 item 534, weight= 288315, color= 0
	 item 535, weight= 288572, color= 0
	 item 536, weight= 288812, color= 2
	 item 537, weight= 288850, color= 0
	 item 538, weight= 288908, color= 0
	 item 539, weight= 289347, color= 4
	 item 540, weight= 289556, color= 0
	 item 541, weight= 289823, color= 3
	 item 542, weight= 290071, color= 0
	 item 543, weight= 290993, color= 2
	 item 544, weight= 291093, color= 0
	 item 545, weight= 291579, color= 1
	 item 546, weight= 291695, color= 4
	 item 547, weight= 292214, color= 3
	 item 548, weight= 292578, color= 3
	 item 549, weight= 292699, color= 3
	 item 550, weight= 293161, color= 4
	 item 551, weight= 293382, color= 2
	 item 552, weight= 294653, color= 0
	 item 553, weight= 294667, color= 2
	 item 554, weight= 294958, color= 4
	 item 555, weight= 295310, color= 1
	 item 556, weight= 295728, color= 4
	 item 557, weight= 296043, color= 4
	 item 558, weight= 296407, color= 1
	 item 559, weight= 296591, color= 3
	 item 560, weight= 296638, color= 0
	 item 561, weight= 296841, color= 0
	 item 562, weight= 297087, color= 1
	 item 563, weight= 297255, color= 2
	 item 564, weight= 297652, color= 3
	 item 565, weight= 297947, color= 2
	 item 566, weight= 299000, color= 1
	 item 567, weight= 299166, color= 1
	 item 568, weight= 299261, color= 0
	 item 569, weight= 300572, color= 4
	 item 570, weight= 301004, color= 0
	 item 571, weight= 302074, color= 2
	 item 572, weight= 302696, color= 2
	 item 573, weight= 302778, color= 4
	 item 574, weight= 302779, color= 1
	 item 575, weight= 302834, color= 1
	 item 576, weight= 303455, color= 3
	 item 577, weight= 303650, color= 4
	 item 578, weight= 304052, color= 3
	 item 579, weight= 304225, color= 3
	 item 580, weight= 304565, color= 2
	 item 581, weight= 305160, color= 0
	 item 582, weight= 305479, color= 0
	 item 583, weight= 305848, color= 4
	 item 584, weight= 305920, color= 2
	 item 585, weight= 305924, color= 0
	 item 586, weight= 306222, color= 3
	 item 587, weight= 307062, color= 0
	 item 588, weight= 307171, color= 1
	 item 589, weight= 307474, color= 3
	 item 590, weight= 307552, color= 4
	 item 591, weight= 309444, color= 2
	 item 592, weight= 310475, color= 4
	 item 593, weight= 310738, color= 1
	 item 594, weight= 311495, color= 2
	 item 595, weight= 312120, color= 1
	 item 596, weight= 312366, color= 4
	 item 597, weight= 313025, color= 4
	 item 598, weight= 314451, color= 1
	 item 599, weight= 314807, color= 3
	 item 600, weight= 315314, color= 4
	 item 601, weight= 315916, color= 4
	 item 602, weight= 316801, color= 4
	 item 603, weight= 317033, color= 2
	 item 604, weight= 317062, color= 2
	 item 605, weight= 317231, color= 4
	 item 606, weight= 317618, color= 2
	 item 607, weight= 317976, color= 4
	 item 608, weight= 318042, color= 1
	 item 609, weight= 318337, color= 3
	 item 610, weight= 318376, color= 0
	 item 611, weight= 318459, color= 2
	 item 612, weight= 318971, color= 0
	 item 613, weight= 319126, color= 0
	 item 614, weight= 319174, color= 4
	 item 615, weight= 319753, color= 0
	 item 616, weight= 320088, color= 4
	 item 617, weight= 320299, color= 4
	 item 618, weight= 320757, color= 1
	 item 619, weight= 320917, color= 0
	 item 620, weight= 320963, color= 1
	 item 621, weight= 321098, color= 4
	 item 622, weight= 321107, color= 0
	 item 623, weight= 321188, color= 2
	 item 624, weight= 321211, color= 1
	 item 625, weight= 321276, color= 4
	 item 626, weight= 321476, color= 1
	 item 627, weight= 322239, color= 2
	 item 628, weight= 322420, color= 4
	 item 629, weight= 323114, color= 1
	 item 630, weight= 323433, color= 1
	 item 631, weight= 326579, color= 4
	 item 632, weight= 326839, color= 1
	 item 633, weight= 326910, color= 1
	 item 634, weight= 327025, color= 2
	 item 635, weight= 327269, color= 4
	 item 636, weight= 328574, color= 2
	 item 637, weight= 328753, color= 4
	 item 638, weight= 328885, color= 2
	 item 639, weight= 330328, color= 3
	 item 640, weight= 330876, color= 0
	 item 641, weight= 330878, color= 4
	 item 642, weight= 332477, color= 4
	 item 643, weight= 332927, color= 0
	 item 644, weight= 332928, color= 2
	 item 645, weight= 333138, color= 4
	 item 646, weight= 333189, color= 4
	 item 647, weight= 334297, color= 1
	 item 648, weight= 334339, color= 1
	 item 649, weight= 334567, color= 1
	 item 650, weight= 335016, color= 1
	 item 651, weight= 335105, color= 1
	 item 652, weight= 336150, color= 4
	 item 653, weight= 336422, color= 4
	 item 654, weight= 336707, color= 2
	 item 655, weight= 336793, color= 0
	 item 656, weight= 338762, color= 2
	 item 657, weight= 339108, color= 1
	 item 658, weight= 339315, color= 3
	 item 659, weight= 339508, color= 3
	 item 660, weight= 341714, color= 1
	 item 661, weight= 341756, color= 0
	 item 662, weight= 341821, color= 4
	 item 663, weight= 342019, color= 0
	 item 664, weight= 342743, color= 3
	 item 665, weight= 342870, color= 3
	 item 666, weight= 343288, color= 2
	 item 667, weight= 343408, color= 4
	 item 668, weight= 343651, color= 0
	 item 669, weight= 344163, color= 4
	 item 670, weight= 344176, color= 3
	 item 671, weight= 344908, color= 3
	 item 672, weight= 345068, color= 4
	 item 673, weight= 345236, color= 4
	 item 674, weight= 345287, color= 3
	 item 675, weight= 345362, color= 2
	 item 676, weight= 345477, color= 4
	 item 677, weight= 345567, color= 4
	 item 678, weight= 346542, color= 1
	 item 679, weight= 346840, color= 0
	 item 680, weight= 346851, color= 0
	 item 681, weight= 346882, color= 2
	 item 682, weight= 347144, color= 3
	 item 683, weight= 347395, color= 2
	 item 684, weight= 348063, color= 1
	 item 685, weight= 348532, color= 1
	 item 686, weight= 348756, color= 0
	 item 687, weight= 349158, color= 3
	 item 688, weight= 349867, color= 4
	 item 689, weight= 349939, color= 3
	 item 690, weight= 350222, color= 0
	 item 691, weight= 351143, color= 4
	 item 692, weight= 351242, color= 2
	 item 693, weight= 351534, color= 4
	 item 694, weight= 351704, color= 1
	 item 695, weight= 351833, color= 1
	 item 696, weight= 351868, color= 0
	 item 697, weight= 352094, color= 3
	 item 698, weight= 352479, color= 3
	 item 699, weight= 352656, color= 3
	 item 700, weight= 352777, color= 2
	 item 701, weight= 352784, color= 4
	 item 702, weight= 352899, color= 2
	 item 703, weight= 353091, color= 4
	 item 704, weight= 353611, color= 3
	 item 705, weight= 354277, color= 1
	 item 706, weight= 354814, color= 0
	 item 707, weight= 354998, color= 4
	 item 708, weight= 355126, color= 2
	 item 709, weight= 355383, color= 2
	 item 710, weight= 355622, color= 3
	 item 711, weight= 355760, color= 3
	 item 712, weight= 356335, color= 3
	 item 713, weight= 356556, color= 3
	 item 714, weight= 356590, color= 2
	 item 715, weight= 356876, color= 2
	 item 716, weight= 357543, color= 1
	 item 717, weight= 357808, color= 0
	 item 718, weight= 357901, color= 1
	 item 719, weight= 358271, color= 0
	 item 720, weight= 359007, color= 1
	 item 721, weight= 359558, color= 1
	 item 722, weight= 359883, color= 2
	 item 723, weight= 360008, color= 0
	 item 724, weight= 360008, color= 1
	 item 725, weight= 360037, color= 4
	 item 726, weight= 360190, color= 2
	 item 727, weight= 360654, color= 3
	 item 728, weight= 360678, color= 3
	 item 729, weight= 362333, color= 3
	 item 730, weight= 362467, color= 4
	 item 731, weight= 362820, color= 2
	 item 732, weight= 362937, color= 4
	 item 733, weight= 363039, color= 3
	 item 734, weight= 363750, color= 1
	 item 735, weight= 363882, color= 1
	 item 736, weight= 363934, color= 3
	 item 737, weight= 363951, color= 1
	 item 738, weight= 364438, color= 3
	 item 739, weight= 364863, color= 0
	 item 740, weight= 365244, color= 1
	 item 741, weight= 365323, color= 0
	 item 742, weight= 365867, color= 1
	 item 743, weight= 365989, color= 4
	 item 744, weight= 365999, color= 4
	 item 745, weight= 366073, color= 2
	 item 746, weight= 366379, color= 3
	 item 747, weight= 366758, color= 1
	 item 748, weight= 367404, color= 1
	 item 749, weight= 367526, color= 1
	 item 750, weight= 368358, color= 0
	 item 751, weight= 368458, color= 0
	 item 752, weight= 368819, color= 4
	 item 753, weight= 369593, color= 4
	 item 754, weight= 369758, color= 4
	 item 755, weight= 370209, color= 2
	 item 756, weight= 370658, color= 3
	 item 757, weight= 371135, color= 3
	 item 758, weight= 371355, color= 0
	 item 759, weight= 371595, color= 0
	 item 760, weight= 371638, color= 4
	 item 761, weight= 371695, color= 3
	 item 762, weight= 371925, color= 3
	 item 763, weight= 371973, color= 3
	 item 764, weight= 372166, color= 1
	 item 765, weight= 372511, color= 0
	 item 766, weight= 372526, color= 3
	 item 767, weight= 372541, color= 0
	 item 768, weight= 373134, color= 2
	 item 769, weight= 373192, color= 4
	 item 770, weight= 373375, color= 2
	 item 771, weight= 373446, color= 0
	 item 772, weight= 373738, color= 0
	 item 773, weight= 374453, color= 2
	 item 774, weight= 374843, color= 3
	 item 775, weight= 376735, color= 1
	 item 776, weight= 376814, color= 2
	 item 777, weight= 377355, color= 2
	 item 778, weight= 377412, color= 3
	 item 779, weight= 377817, color= 4
	 item 780, weight= 378151, color= 4
	 item 781, weight= 378262, color= 4
	 item 782, weight= 379100, color= 2
	 item 783, weight= 379847, color= 2
	 item 784, weight= 379946, color= 3
	 item 785, weight= 381046, color= 4
	 item 786, weight= 381639, color= 2
	 item 787, weight= 382077, color= 3
	 item 788, weight= 382384, color= 2
	 item 789, weight= 382618, color= 0
	 item 790, weight= 382846, color= 1
	 item 791, weight= 382985, color= 3
	 item 792, weight= 383730, color= 1
	 item 793, weight= 383866, color= 3
	 item 794, weight= 383872, color= 4
	 item 795, weight= 385029, color= 2
	 item 796, weight= 385065, color= 1
	 item 797, weight= 385255, color= 0
	 item 798, weight= 385804, color= 0
	 item 799, weight= 385834, color= 2
	 item 800, weight= 385900, color= 0
	 item 801, weight= 386502, color= 0
	 item 802, weight= 386502, color= 4
	 item 803, weight= 387943, color= 0
	 item 804, weight= 388088, color= 1
	 item 805, weight= 388565, color= 4
	 item 806, weight= 389189, color= 2
	 item 807, weight= 389204, color= 2
	 item 808, weight= 389343, color= 0
	 item 809, weight= 389521, color= 2
	 item 810, weight= 389577, color= 2
	 item 811, weight= 389582, color= 1
	 item 812, weight= 389671, color= 3
	 item 813, weight= 389722, color= 3
	 item 814, weight= 390818, color= 3
	 item 815, weight= 391258, color= 4
	 item 816, weight= 392115, color= 4
	 item 817, weight= 392205, color= 0
	 item 818, weight= 393011, color= 1
	 item 819, weight= 394007, color= 2
	 item 820, weight= 394345, color= 2
	 item 821, weight= 394363, color= 3
	 item 822, weight= 394659, color= 3
	 item 823, weight= 394805, color= 2
	 item 824, weight= 395005, color= 2
	 item 825, weight= 395277, color= 0
	 item 826, weight= 395809, color= 4
	 item 827, weight= 396974, color= 3
	 item 828, weight= 397131, color= 1
	 item 829, weight= 397281, color= 2
	 item 830, weight= 397434, color= 3
	 item 831, weight= 397600, color= 1
	 item 832, weight= 397889, color= 0
	 item 833, weight= 398392, color= 4
	 item 834, weight= 400613, color= 4
	 item 835, weight= 400765, color= 4
	 item 836, weight= 401045, color= 4
	 item 837, weight= 401935, color= 4
	 item 838, weight= 403199, color= 1
	 item 839, weight= 403336, color= 3
	 item 840, weight= 403511, color= 1
	 item 841, weight= 404259, color= 2
	 item 842, weight= 404865, color= 2
	 item 843, weight= 405436, color= 3
	 item 844, weight= 405510, color= 1
	 item 845, weight= 406075, color= 0
	 item 846, weight= 407206, color= 4
	 item 847, weight= 407228, color= 4
	 item 848, weight= 407235, color= 3
	 item 849, weight= 407337, color= 3
	 item 850, weight= 407523, color= 0
	 item 851, weight= 407563, color= 3
	 item 852, weight= 407857, color= 1
	 item 853, weight= 407903, color= 4
	 item 854, weight= 408255, color= 3
	 item 855, weight= 408434, color= 3
	 item 856, weight= 408525, color= 3
	 item 857, weight= 408932, color= 0
	 item 858, weight= 409704, color= 1
	 item 859, weight= 409716, color= 0
	 item 860, weight= 409901, color= 4
	 item 861, weight= 409923, color= 1
	 item 862, weight= 410936, color= 4
	 item 863, weight= 411164, color= 2
	 item 864, weight= 411623, color= 4
	 item 865, weight= 412211, color= 3
	 item 866, weight= 412822, color= 3
	 item 867, weight= 412882, color= 1
	 item 868, weight= 413436, color= 1
	 item 869, weight= 413506, color= 2
	 item 870, weight= 413801, color= 3
	 item 871, weight= 413881, color= 3
	 item 872, weight= 414118, color= 3
	 item 873, weight= 414439, color= 4
	 item 874, weight= 415195, color= 4
	 item 875, weight= 415368, color= 2
	 item 876, weight= 415500, color= 0
	 item 877, weight= 415870, color= 0
	 item 878, weight= 416676, color= 0
	 item 879, weight= 416792, color= 3
	 item 880, weight= 416864, color= 2
	 item 881, weight= 417150, color= 1
	 item 882, weight= 417631, color= 4
	 item 883, weight= 418144, color= 4
	 item 884, weight= 419368, color= 1
	 item 885, weight= 419701, color= 2
	 item 886, weight= 419774, color= 3
	 item 887, weight= 419829, color= 3
	 item 888, weight= 420101, color= 3
	 item 889, weight= 420152, color= 2
	 item 890, weight= 420447, color= 0
	 item 891, weight= 420585, color= 2
	 item 892, weight= 420667, color= 2
	 item 893, weight= 420714, color= 0
	 item 894, weight= 420964, color= 3
	 item 895, weight= 421217, color= 4
	 item 896, weight= 421573, color= 0
	 item 897, weight= 422076, color= 1
	 item 898, weight= 422191, color= 0
	 item 899, weight= 422885, color= 3
	 item 900, weight= 423050, color= 1
	 item 901, weight= 423549, color= 3
	 item 902, weight= 423976, color= 0
	 item 903, weight= 424273, color= 4
	 item 904, weight= 424581, color= 3
	 item 905, weight= 424870, color= 3
	 item 906, weight= 425291, color= 4
	 item 907, weight= 425501, color= 3
	 item 908, weight= 425761, color= 0
	 item 909, weight= 426670, color= 2
	 item 910, weight= 426816, color= 1
	 item 911, weight= 426870, color= 2
	 item 912, weight= 427109, color= 2
	 item 913, weight= 427451, color= 4
	 item 914, weight= 427830, color= 4
	 item 915, weight= 427925, color= 0
	 item 916, weight= 427960, color= 4
	 item 917, weight= 429575, color= 3
	 item 918, weight= 430954, color= 2
	 item 919, weight= 431187, color= 0
	 item 920, weight= 431332, color= 3
	 item 921, weight= 431513, color= 1
	 item 922, weight= 431647, color= 3
	 item 923, weight= 432259, color= 2
	 item 924, weight= 432335, color= 0
	 item 925, weight= 432387, color= 3
	 item 926, weight= 433014, color= 4
	 item 927, weight= 433332, color= 1
	 item 928, weight= 434294, color= 4
	 item 929, weight= 434770, color= 2
	 item 930, weight= 434844, color= 0
	 item 931, weight= 435078, color= 1
	 item 932, weight= 435138, color= 2
	 item 933, weight= 435429, color= 4
	 item 934, weight= 435958, color= 4
	 item 935, weight= 435992, color= 3
	 item 936, weight= 436037, color= 4
	 item 937, weight= 436064, color= 0
	 item 938, weight= 436186, color= 4
	 item 939, weight= 436195, color= 1
	 item 940, weight= 436220, color= 0
	 item 941, weight= 436320, color= 2
	 item 942, weight= 436578, color= 2
	 item 943, weight= 436932, color= 0
	 item 944, weight= 437389, color= 3
	 item 945, weight= 437952, color= 3
	 item 946, weight= 438280, color= 4
	 item 947, weight= 438684, color= 4
	 item 948, weight= 439013, color= 1
	 item 949, weight= 439156, color= 4
	 item 950, weight= 439342, color= 0
	 item 951, weight= 439462, color= 0
	 item 952, weight= 439754, color= 2
	 item 953, weight= 440323, color= 1
	 item 954, weight= 440772, color= 1
	 item 955, weight= 441638, color= 3
	 item 956, weight= 442061, color= 0
	 item 957, weight= 442463, color= 4
	 item 958, weight= 442488, color= 1
	 item 959, weight= 442496, color= 4
	 item 960, weight= 442621, color= 4
	 item 961, weight= 443047, color= 3
	 item 962, weight= 443506, color= 4
	 item 963, weight= 443744, color= 0
	 item 964, weight= 443995, color= 4
	 item 965, weight= 443999, color= 0
	 item 966, weight= 444801, color= 0
	 item 967, weight= 445695, color= 3
	 item 968, weight= 446338, color= 3
	 item 969, weight= 446535, color= 0
	 item 970, weight= 447590, color= 2
	 item 971, weight= 447777, color= 2
	 item 972, weight= 447845, color= 1
	 item 973, weight= 449112, color= 0
	 item 974, weight= 449352, color= 3
	 item 975, weight= 449584, color= 2
	 item 976, weight= 449606, color= 2
	 item 977, weight= 449764, color= 0
	 item 978, weight= 449906, color= 1
	 item 979, weight= 450693, color= 0
	 item 980, weight= 450729, color= 4
	 item 981, weight= 451065, color= 0
	 item 982, weight= 451128, color= 3
	 item 983, weight= 451381, color= 2
	 item 984, weight= 451958, color= 4
	 item 985, weight= 452178, color= 4
	 item 986, weight= 452207, color= 4
	 item 987, weight= 452834, color= 1
	 item 988, weight= 452893, color= 3
	 item 989, weight= 453391, color= 2
	 item 990, weight= 453478, color= 4
	 item 991, weight= 453513, color= 3
	 item 992, weight= 454307, color= 2
	 item 993, weight= 454691, color= 0
	 item 994, weight= 454705, color= 0
	 item 995, weight= 454978, color= 2
	 item 996, weight= 455753, color= 1
	 item 997, weight= 455927, color= 4
	 item 998, weight= 456064, color= 2
	 item 999, weight= 456380, color= 1
	 item 1000, weight= 457301, color= 1
	 item 1001, weight= 457489, color= 2
	 item 1002, weight= 457568, color= 4
	 item 1003, weight= 457792, color= 2
	 item 1004, weight= 457940, color= 3
	 item 1005, weight= 458870, color= 2
	 item 1006, weight= 460084, color= 2
	 item 1007, weight= 460358, color= 1
	 item 1008, weight= 460462, color= 3
	 item 1009, weight= 460715, color= 0
	 item 1010, weight= 460857, color= 2
	 item 1011, weight= 461058, color= 0
	 item 1012, weight= 461231, color= 4
	 item 1013, weight= 461575, color= 3
	 item 1014, weight= 461740, color= 3
	 item 1015, weight= 461914, color= 4
	 item 1016, weight= 462078, color= 0
	 item 1017, weight= 462883, color= 4
	 item 1018, weight= 463243, color= 3
	 item 1019, weight= 463335, color= 1
	 item 1020, weight= 463340, color= 1
	 item 1021, weight= 463401, color= 1
	 item 1022, weight= 463438, color= 0
	 item 1023, weight= 463522, color= 4
	 item 1024, weight= 463996, color= 2
	 item 1025, weight= 464227, color= 4
	 item 1026, weight= 464627, color= 3
	 item 1027, weight= 465326, color= 2
	 item 1028, weight= 466073, color= 4
	 item 1029, weight= 466116, color= 2
	 item 1030, weight= 466267, color= 1
	 item 1031, weight= 466735, color= 3
	 item 1032, weight= 467797, color= 4
	 item 1033, weight= 468538, color= 3
	 item 1034, weight= 468714, color= 2
	 item 1035, weight= 468775, color= 0
	 item 1036, weight= 469510, color= 4
	 item 1037, weight= 470015, color= 3
	 item 1038, weight= 470261, color= 3
	 item 1039, weight= 470470, color= 4
	 item 1040, weight= 470708, color= 3
	 item 1041, weight= 470923, color= 3
	 item 1042, weight= 470943, color= 2
	 item 1043, weight= 471446, color= 4
	 item 1044, weight= 471673, color= 3
	 item 1045, weight= 471860, color= 1
	 item 1046, weight= 471904, color= 0
	 item 1047, weight= 472014, color= 3
	 item 1048, weight= 472313, color= 3
	 item 1049, weight= 473041, color= 2
	 item 1050, weight= 473129, color= 3
	 item 1051, weight= 473639, color= 2
	 item 1052, weight= 474086, color= 2
	 item 1053, weight= 474328, color= 0
	 item 1054, weight= 474759, color= 2
	 item 1055, weight= 475318, color= 4
	 item 1056, weight= 475725, color= 4
	 item 1057, weight= 476227, color= 1
	 item 1058, weight= 476903, color= 0
	 item 1059, weight= 476928, color= 2
	 item 1060, weight= 477126, color= 2
	 item 1061, weight= 477320, color= 4
	 item 1062, weight= 477740, color= 0
	 item 1063, weight= 477761, color= 3
	 item 1064, weight= 477848, color= 3
	 item 1065, weight= 477916, color= 1
	 item 1066, weight= 477938, color= 2
	 item 1067, weight= 478679, color= 3
	 item 1068, weight= 478733, color= 0
	 item 1069, weight= 479705, color= 3
	 item 1070, weight= 479763, color= 3
	 item 1071, weight= 479910, color= 2
	 item 1072, weight= 480114, color= 4
	 item 1073, weight= 480184, color= 0
	 item 1074, weight= 480396, color= 4
	 item 1075, weight= 480645, color= 1
	 item 1076, weight= 480888, color= 4
	 item 1077, weight= 481490, color= 1
	 item 1078, weight= 481850, color= 0
	 item 1079, weight= 482148, color= 1
	 item 1080, weight= 482290, color= 1
	 item 1081, weight= 482743, color= 1
	 item 1082, weight= 482836, color= 0
	 item 1083, weight= 483482, color= 3
	 item 1084, weight= 483693, color= 4
	 item 1085, weight= 483955, color= 4
	 item 1086, weight= 484208, color= 0
	 item 1087, weight= 484508, color= 4
	 item 1088, weight= 484838, color= 2
	 item 1089, weight= 484952, color= 0
	 item 1090, weight= 485165, color= 3
	 item 1091, weight= 485183, color= 0
	 item 1092, weight= 485227, color= 2
	 item 1093, weight= 485264, color= 1
	 item 1094, weight= 485286, color= 3
	 item 1095, weight= 485690, color= 4
	 item 1096, weight= 486001, color= 1
	 item 1097, weight= 486572, color= 4
	 item 1098, weight= 487485, color= 2
	 item 1099, weight= 487678, color= 0
	 item 1100, weight= 488965, color= 2
	 item 1101, weight= 489383, color= 3
	 item 1102, weight= 490978, color= 3
	 item 1103, weight= 491341, color= 1
	 item 1104, weight= 491388, color= 2
	 item 1105, weight= 491405, color= 0
	 item 1106, weight= 491465, color= 3
	 item 1107, weight= 491684, color= 0
	 item 1108, weight= 491905, color= 4
	 item 1109, weight= 493024, color= 0
	 item 1110, weight= 493173, color= 1
	 item 1111, weight= 493585, color= 2
	 item 1112, weight= 493859, color= 3
	 item 1113, weight= 494046, color= 3
	 item 1114, weight= 494594, color= 2
	 item 1115, weight= 495036, color= 4
	 item 1116, weight= 495065, color= 0
	 item 1117, weight= 495236, color= 1
	 item 1118, weight= 495299, color= 3
	 item 1119, weight= 495425, color= 3
	 item 1120, weight= 495479, color= 2
	 item 1121, weight= 495523, color= 2
	 item 1122, weight= 496084, color= 1
	 item 1123, weight= 496300, color= 3
	 item 1124, weight= 496412, color= 3
	 item 1125, weight= 496630, color= 0
	 item 1126, weight= 496893, color= 0
	 item 1127, weight= 496965, color= 2
	 item 1128, weight= 497155, color= 2
	 item 1129, weight= 497321, color= 1
	 item 1130, weight= 497402, color= 0
	 item 1131, weight= 497567, color= 0
	 item 1132, weight= 497990, color= 1
	 item 1133, weight= 498276, color= 4
	 item 1134, weight= 498458, color= 4
	 item 1135, weight= 498516, color= 0
	 item 1136, weight= 498580, color= 3
	 item 1137, weight= 499210, color= 2
	 item 1138, weight= 499967, color= 1
	 item 1139, weight= 500076, color= 0
	 item 1140, weight= 500222, color= 2
	 item 1141, weight= 500258, color= 0
	 item 1142, weight= 500773, color= 2
	 item 1143, weight= 500827, color= 2
	 item 1144, weight= 500832, color= 2
	 item 1145, weight= 501037, color= 2
	 item 1146, weight= 501471, color= 3
	 item 1147, weight= 501659, color= 3
	 item 1148, weight= 502339, color= 2
	 item 1149, weight= 502365, color= 4
	 item 1150, weight= 502538, color= 2
	 item 1151, weight= 502954, color= 2
	 item 1152, weight= 504189, color= 1
	 item 1153, weight= 504610, color= 3
	 item 1154, weight= 504975, color= 2
	 item 1155, weight= 505185, color= 4
	 item 1156, weight= 505328, color= 1
	 item 1157, weight= 505551, color= 3
	 item 1158, weight= 506592, color= 0
	 item 1159, weight= 506729, color= 3
	 item 1160, weight= 507441, color= 2
	 item 1161, weight= 507744, color= 4
	 item 1162, weight= 507858, color= 3
	 item 1163, weight= 508206, color= 4
	 item 1164, weight= 508556, color= 3
	 item 1165, weight= 509221, color= 1
	 item 1166, weight= 509406, color= 1
	 item 1167, weight= 510630, color= 3
	 item 1168, weight= 510653, color= 4
	 item 1169, weight= 510797, color= 4
	 item 1170, weight= 511037, color= 4
	 item 1171, weight= 511603, color= 4
	 item 1172, weight= 511634, color= 1
	 item 1173, weight= 512739, color= 3
	 item 1174, weight= 513967, color= 1
	 item 1175, weight= 514114, color= 4
	 item 1176, weight= 514598, color= 1
	 item 1177, weight= 515163, color= 1
	 item 1178, weight= 515435, color= 1
	 item 1179, weight= 515826, color= 3
	 item 1180, weight= 516415, color= 4
	 item 1181, weight= 516655, color= 3
	 item 1182, weight= 516675, color= 3
	 item 1183, weight= 516858, color= 2
	 item 1184, weight= 518274, color= 3
	 item 1185, weight= 518570, color= 2
	 item 1186, weight= 519147, color= 4
	 item 1187, weight= 519263, color= 1
	 item 1188, weight= 519314, color= 3
	 item 1189, weight= 519425, color= 1
	 item 1190, weight= 519650, color= 2
	 item 1191, weight= 519680, color= 1
	 item 1192, weight= 520122, color= 0
	 item 1193, weight= 520399, color= 4
	 item 1194, weight= 520825, color= 2
	 item 1195, weight= 521157, color= 0
	 item 1196, weight= 521362, color= 4
	 item 1197, weight= 521465, color= 2
	 item 1198, weight= 521764, color= 0
	 item 1199, weight= 521906, color= 4
	 item 1200, weight= 522226, color= 3
	 item 1201, weight= 522500, color= 3
	 item 1202, weight= 522591, color= 1
	 item 1203, weight= 524023, color= 4
	 item 1204, weight= 524344, color= 0
	 item 1205, weight= 524422, color= 2
	 item 1206, weight= 524802, color= 1
	 item 1207, weight= 525621, color= 0
	 item 1208, weight= 525840, color= 0
	 item 1209, weight= 526062, color= 2
	 item 1210, weight= 526310, color= 4
	 item 1211, weight= 526352, color= 1
	 item 1212, weight= 526481, color= 1
	 item 1213, weight= 526776, color= 1
	 item 1214, weight= 526877, color= 0
	 item 1215, weight= 527260, color= 3
	 item 1216, weight= 527326, color= 4
	 item 1217, weight= 528427, color= 2
	 item 1218, weight= 528560, color= 2
	 item 1219, weight= 528744, color= 1
	 item 1220, weight= 529417, color= 3
	 item 1221, weight= 529761, color= 2
	 item 1222, weight= 529848, color= 2
	 item 1223, weight= 530294, color= 0
	 item 1224, weight= 530440, color= 4
	 item 1225, weight= 531352, color= 4
	 item 1226, weight= 531475, color= 2
	 item 1227, weight= 531941, color= 1
	 item 1228, weight= 532492, color= 1
	 item 1229, weight= 533076, color= 4
	 item 1230, weight= 533409, color= 0
	 item 1231, weight= 534018, color= 2
	 item 1232, weight= 534152, color= 3
	 item 1233, weight= 534270, color= 0
	 item 1234, weight= 534272, color= 4
	 item 1235, weight= 534551, color= 1
	 item 1236, weight= 535027, color= 2
	 item 1237, weight= 535419, color= 0
	 item 1238, weight= 535610, color= 4
	 item 1239, weight= 535650, color= 0
	 item 1240, weight= 536486, color= 1
	 item 1241, weight= 536988, color= 4
	 item 1242, weight= 537167, color= 2
	 item 1243, weight= 537278, color= 2
	 item 1244, weight= 538049, color= 1
	 item 1245, weight= 538638, color= 0
	 item 1246, weight= 538689, color= 4
	 item 1247, weight= 538813, color= 3
	 item 1248, weight= 538900, color= 4
	 item 1249, weight= 539442, color= 4
	 item 1250, weight= 539452, color= 2
	 item 1251, weight= 539652, color= 4
	 item 1252, weight= 539971, color= 4
	 item 1253, weight= 540224, color= 2
	 item 1254, weight= 540500, color= 0
	 item 1255, weight= 540717, color= 1
	 item 1256, weight= 541216, color= 1
	 item 1257, weight= 542126, color= 2
	 item 1258, weight= 542556, color= 2
	 item 1259, weight= 543187, color= 3
	 item 1260, weight= 544759, color= 0
	 item 1261, weight= 544902, color= 3
	 item 1262, weight= 545387, color= 4
	 item 1263, weight= 545560, color= 2
	 item 1264, weight= 545701, color= 4
	 item 1265, weight= 545887, color= 1
	 item 1266, weight= 545908, color= 1
	 item 1267, weight= 546800, color= 4
	 item 1268, weight= 547458, color= 2
	 item 1269, weight= 547635, color= 0
	 item 1270, weight= 548446, color= 1
	 item 1271, weight= 548972, color= 2
	 item 1272, weight= 549220, color= 1
	 item 1273, weight= 549348, color= 1
	 item 1274, weight= 550088, color= 1
	 item 1275, weight= 550107, color= 4
	 item 1276, weight= 550309, color= 0
	 item 1277, weight= 550332, color= 4
	 item 1278, weight= 550336, color= 0
	 item 1279, weight= 550710, color= 2
	 item 1280, weight= 551523, color= 0
	 item 1281, weight= 551910, color= 3
	 item 1282, weight= 552104, color= 0
	 item 1283, weight= 552789, color= 0
	 item 1284, weight= 552852, color= 0
	 item 1285, weight= 554075, color= 3
	 item 1286, weight= 554381, color= 3
	 item 1287, weight= 555548, color= 0
	 item 1288, weight= 555739, color= 0
	 item 1289, weight= 556135, color= 3
	 item 1290, weight= 556353, color= 0
	 item 1291, weight= 556472, color= 1
	 item 1292, weight= 557277, color= 0
	 item 1293, weight= 557375, color= 4
	 item 1294, weight= 558461, color= 1
	 item 1295, weight= 558658, color= 4
	 item 1296, weight= 558681, color= 3
	 item 1297, weight= 558743, color= 3
	 item 1298, weight= 558791, color= 2
	 item 1299, weight= 559211, color= 1
	 item 1300, weight= 559326, color= 3
	 item 1301, weight= 559395, color= 1
	 item 1302, weight= 559752, color= 3
	 item 1303, weight= 560220, color= 1
	 item 1304, weight= 560654, color= 3
	 item 1305, weight= 560931, color= 2
	 item 1306, weight= 561197, color= 2
	 item 1307, weight= 561424, color= 4
	 item 1308, weight= 561780, color= 1
	 item 1309, weight= 562070, color= 1
	 item 1310, weight= 562079, color= 2
	 item 1311, weight= 562845, color= 4
	 item 1312, weight= 563314, color= 3
	 item 1313, weight= 563332, color= 2
	 item 1314, weight= 563508, color= 0
	 item 1315, weight= 563736, color= 2
	 item 1316, weight= 563743, color= 4
	 item 1317, weight= 563946, color= 3
	 item 1318, weight= 565627, color= 4
	 item 1319, weight= 565682, color= 1
	 item 1320, weight= 566298, color= 0
	 item 1321, weight= 566410, color= 2
	 item 1322, weight= 566455, color= 1
	 item 1323, weight= 567025, color= 4
	 item 1324, weight= 567805, color= 1
	 item 1325, weight= 567817, color= 1
	 item 1326, weight= 568312, color= 4
	 item 1327, weight= 568628, color= 2
	 item 1328, weight= 569250, color= 1
	 item 1329, weight= 569466, color= 3
	 item 1330, weight= 570037, color= 4
	 item 1331, weight= 570297, color= 1
	 item 1332, weight= 570560, color= 1
	 item 1333, weight= 570629, color= 3
	 item 1334, weight= 570744, color= 4
	 item 1335, weight= 570947, color= 1
	 item 1336, weight= 570966, color= 1
	 item 1337, weight= 571462, color= 3
	 item 1338, weight= 571739, color= 1
	 item 1339, weight= 571919, color= 2
	 item 1340, weight= 571926, color= 3
	 item 1341, weight= 572469, color= 3
	 item 1342, weight= 572626, color= 0
	 item 1343, weight= 572936, color= 2
	 item 1344, weight= 572948, color= 2
	 item 1345, weight= 573367, color= 0
	 item 1346, weight= 573948, color= 3
	 item 1347, weight= 574211, color= 3
	 item 1348, weight= 574220, color= 1
	 item 1349, weight= 574776, color= 3
	 item 1350, weight= 574968, color= 2
	 item 1351, weight= 575003, color= 4
	 item 1352, weight= 575576, color= 1
	 item 1353, weight= 575836, color= 2
	 item 1354, weight= 575974, color= 1
	 item 1355, weight= 576327, color= 4
	 item 1356, weight= 576739, color= 0
	 item 1357, weight= 577132, color= 3
	 item 1358, weight= 577637, color= 4
	 item 1359, weight= 578175, color= 3
	 item 1360, weight= 578223, color= 2
	 item 1361, weight= 578236, color= 0
	 item 1362, weight= 578416, color= 3
	 item 1363, weight= 578525, color= 3
	 item 1364, weight= 578545, color= 3
	 item 1365, weight= 578581, color= 0
	 item 1366, weight= 579101, color= 1
	 item 1367, weight= 579366, color= 2
	 item 1368, weight= 579475, color= 4
	 item 1369, weight= 579807, color= 3
	 item 1370, weight= 579829, color= 4
	 item 1371, weight= 581239, color= 1
	 item 1372, weight= 581803, color= 2
	 item 1373, weight= 581833, color= 3
	 item 1374, weight= 581862, color= 0
	 item 1375, weight= 582236, color= 0
	 item 1376, weight= 582400, color= 2
	 item 1377, weight= 582730, color= 3
	 item 1378, weight= 582761, color= 3
	 item 1379, weight= 583813, color= 4
	 item 1380, weight= 583897, color= 2
	 item 1381, weight= 584013, color= 4
	 item 1382, weight= 584527, color= 1
	 item 1383, weight= 584681, color= 3
	 item 1384, weight= 584955, color= 0
	 item 1385, weight= 585076, color= 3
	 item 1386, weight= 585092, color= 4
	 item 1387, weight= 585272, color= 3
	 item 1388, weight= 585389, color= 0
	 item 1389, weight= 585977, color= 3
	 item 1390, weight= 586671, color= 3
	 item 1391, weight= 586683, color= 0
	 item 1392, weight= 586746, color= 2
	 item 1393, weight= 586943, color= 4
	 item 1394, weight= 587704, color= 1
	 item 1395, weight= 587739, color= 0
	 item 1396, weight= 587922, color= 0
	 item 1397, weight= 588005, color= 4
	 item 1398, weight= 590661, color= 3
	 item 1399, weight= 590743, color= 0
	 item 1400, weight= 590820, color= 3
	 item 1401, weight= 591665, color= 2
	 item 1402, weight= 591949, color= 3
	 item 1403, weight= 592262, color= 2
	 item 1404, weight= 592416, color= 3
	 item 1405, weight= 592612, color= 1
	 item 1406, weight= 592622, color= 4
	 item 1407, weight= 593001, color= 1
	 item 1408, weight= 593833, color= 2
	 item 1409, weight= 593857, color= 1
	 item 1410, weight= 594766, color= 2
	 item 1411, weight= 594847, color= 0
	 item 1412, weight= 595095, color= 2
	 item 1413, weight= 595213, color= 2
	 item 1414, weight= 595892, color= 3
	 item 1415, weight= 596543, color= 3
	 item 1416, weight= 597365, color= 2
	 item 1417, weight= 597411, color= 2
	 item 1418, weight= 597547, color= 2
	 item 1419, weight= 597577, color= 0
	 item 1420, weight= 597652, color= 0
	 item 1421, weight= 597920, color= 4
	 item 1422, weight= 598741, color= 0
	 item 1423, weight= 599080, color= 0
	 item 1424, weight= 599837, color= 2
	 item 1425, weight= 599943, color= 4
	 item 1426, weight= 600104, color= 4
	 item 1427, weight= 600297, color= 4
	 item 1428, weight= 600845, color= 4
	 item 1429, weight= 601138, color= 0
	 item 1430, weight= 601335, color= 0
	 item 1431, weight= 601401, color= 0
	 item 1432, weight= 602057, color= 2
	 item 1433, weight= 602479, color= 2
	 item 1434, weight= 602494, color= 3
	 item 1435, weight= 602524, color= 0
	 item 1436, weight= 602557, color= 3
	 item 1437, weight= 602594, color= 0
	 item 1438, weight= 603479, color= 1
	 item 1439, weight= 603916, color= 1
	 item 1440, weight= 604152, color= 2
	 item 1441, weight= 604222, color= 4
	 item 1442, weight= 604258, color= 2
	 item 1443, weight= 604367, color= 3
	 item 1444, weight= 604451, color= 2
	 item 1445, weight= 605572, color= 4
	 item 1446, weight= 605687, color= 0
	 item 1447, weight= 605932, color= 2
	 item 1448, weight= 606013, color= 2
	 item 1449, weight= 606600, color= 0
	 item 1450, weight= 606794, color= 3
	 item 1451, weight= 607207, color= 3
	 item 1452, weight= 607211, color= 3
	 item 1453, weight= 608688, color= 2
	 item 1454, weight= 608969, color= 3
	 item 1455, weight= 609107, color= 4
	 item 1456, weight= 609227, color= 1
	 item 1457, weight= 609954, color= 4
	 item 1458, weight= 611104, color= 1
	 item 1459, weight= 612001, color= 4
	 item 1460, weight= 612622, color= 1
	 item 1461, weight= 612739, color= 0
	 item 1462, weight= 613145, color= 4
	 item 1463, weight= 613161, color= 3
	 item 1464, weight= 613842, color= 3
	 item 1465, weight= 613861, color= 1
	 item 1466, weight= 614013, color= 2
	 item 1467, weight= 614472, color= 3
	 item 1468, weight= 614656, color= 3
	 item 1469, weight= 615610, color= 1
	 item 1470, weight= 616402, color= 4
	 item 1471, weight= 617597, color= 2
	 item 1472, weight= 617770, color= 1
	 item 1473, weight= 617828, color= 2
	 item 1474, weight= 617926, color= 4
	 item 1475, weight= 618005, color= 3
	 item 1476, weight= 618189, color= 4
	 item 1477, weight= 618272, color= 3
	 item 1478, weight= 618453, color= 3
	 item 1479, weight= 618828, color= 2
	 item 1480, weight= 619535, color= 3
	 item 1481, weight= 619915, color= 1
	 item 1482, weight= 619972, color= 0
	 item 1483, weight= 620188, color= 2
	 item 1484, weight= 620339, color= 2
	 item 1485, weight= 620536, color= 0
	 item 1486, weight= 620781, color= 4
	 item 1487, weight= 621229, color= 2
	 item 1488, weight= 621687, color= 3
	 item 1489, weight= 621759, color= 1
	 item 1490, weight= 621937, color= 1
	 item 1491, weight= 622340, color= 3
	 item 1492, weight= 622574, color= 1
	 item 1493, weight= 622776, color= 0
	 item 1494, weight= 623346, color= 1
	 item 1495, weight= 623448, color= 2
	 item 1496, weight= 623483, color= 4
	 item 1497, weight= 623725, color= 3
	 item 1498, weight= 624243, color= 0
	 item 1499, weight= 624404, color= 3
	 item 1500, weight= 625080, color= 3
	 item 1501, weight= 625192, color= 0
	 item 1502, weight= 625469, color= 0
	 item 1503, weight= 625636, color= 0
	 item 1504, weight= 626028, color= 2
	 item 1505, weight= 626056, color= 0
	 item 1506, weight= 626317, color= 1
	 item 1507, weight= 626501, color= 2
	 item 1508, weight= 627275, color= 2
	 item 1509, weight= 627664, color= 4
	 item 1510, weight= 628481, color= 0
	 item 1511, weight= 628570, color= 1
	 item 1512, weight= 628679, color= 4
	 item 1513, weight= 628702, color= 3
	 item 1514, weight= 628709, color= 2
	 item 1515, weight= 629516, color= 1
	 item 1516, weight= 630509, color= 2
	 item 1517, weight= 630651, color= 2
	 item 1518, weight= 631698, color= 4
	 item 1519, weight= 632149, color= 1
	 item 1520, weight= 632922, color= 0
	 item 1521, weight= 632996, color= 0
	 item 1522, weight= 634296, color= 3
	 item 1523, weight= 634762, color= 0
	 item 1524, weight= 635300, color= 1
	 item 1525, weight= 635543, color= 3
	 item 1526, weight= 636323, color= 2
	 item 1527, weight= 636982, color= 0
	 item 1528, weight= 637210, color= 0
	 item 1529, weight= 637283, color= 2
	 item 1530, weight= 637331, color= 0
	 item 1531, weight= 637469, color= 2
	 item 1532, weight= 637929, color= 2
	 item 1533, weight= 638304, color= 1
	 item 1534, weight= 638543, color= 3
	 item 1535, weight= 638665, color= 0
	 item 1536, weight= 639068, color= 0
	 item 1537, weight= 639518, color= 1
	 item 1538, weight= 640301, color= 3
	 item 1539, weight= 640509, color= 4
	 item 1540, weight= 640577, color= 3
	 item 1541, weight= 640914, color= 3
	 item 1542, weight= 641334, color= 4
	 item 1543, weight= 641619, color= 0
	 item 1544, weight= 641619, color= 4
	 item 1545, weight= 641785, color= 2
	 item 1546, weight= 641900, color= 4
	 item 1547, weight= 642360, color= 4
	 item 1548, weight= 642479, color= 4
	 item 1549, weight= 642844, color= 1
	 item 1550, weight= 643487, color= 3
	 item 1551, weight= 643877, color= 3
	 item 1552, weight= 644496, color= 2
	 item 1553, weight= 644515, color= 1
	 item 1554, weight= 644816, color= 0
	 item 1555, weight= 645872, color= 0
	 item 1556, weight= 645937, color= 1
	 item 1557, weight= 646041, color= 0
	 item 1558, weight= 646142, color= 4
	 item 1559, weight= 646201, color= 3
	 item 1560, weight= 646626, color= 3
	 item 1561, weight= 646633, color= 1
	 item 1562, weight= 646800, color= 3
	 item 1563, weight= 646939, color= 3
	 item 1564, weight= 647577, color= 1
	 item 1565, weight= 648197, color= 3
	 item 1566, weight= 648816, color= 3
	 item 1567, weight= 649527, color= 4
	 item 1568, weight= 650589, color= 4
	 item 1569, weight= 650597, color= 1
	 item 1570, weight= 650944, color= 2
	 item 1571, weight= 651792, color= 1
	 item 1572, weight= 651801, color= 0
	 item 1573, weight= 652332, color= 2
	 item 1574, weight= 652627, color= 2
	 item 1575, weight= 653526, color= 3
	 item 1576, weight= 654610, color= 4
	 item 1577, weight= 655266, color= 3
	 item 1578, weight= 655309, color= 3
	 item 1579, weight= 656204, color= 2
	 item 1580, weight= 656669, color= 1
	 item 1581, weight= 657317, color= 2
	 item 1582, weight= 657521, color= 1
	 item 1583, weight= 657654, color= 2
	 item 1584, weight= 657810, color= 3
	 item 1585, weight= 658060, color= 2
	 item 1586, weight= 658097, color= 0
	 item 1587, weight= 658169, color= 2
	 item 1588, weight= 658276, color= 1
	 item 1589, weight= 658340, color= 2
	 item 1590, weight= 658394, color= 2
	 item 1591, weight= 659280, color= 0
	 item 1592, weight= 659358, color= 2
	 item 1593, weight= 659558, color= 3
	 item 1594, weight= 659636, color= 1
	 item 1595, weight= 659659, color= 2
	 item 1596, weight= 659972, color= 1
	 item 1597, weight= 660790, color= 0
	 item 1598, weight= 661007, color= 4
	 item 1599, weight= 661661, color= 1
	 item 1600, weight= 662034, color= 3
	 item 1601, weight= 662287, color= 3
	 item 1602, weight= 662325, color= 0
	 item 1603, weight= 662352, color= 3
	 item 1604, weight= 662381, color= 3
	 item 1605, weight= 662413, color= 0
	 item 1606, weight= 662605, color= 4
	 item 1607, weight= 662942, color= 2
	 item 1608, weight= 662964, color= 4
	 item 1609, weight= 663404, color= 3
	 item 1610, weight= 664058, color= 2
	 item 1611, weight= 664110, color= 4
	 item 1612, weight= 664667, color= 3
	 item 1613, weight= 664939, color= 2
	 item 1614, weight= 664955, color= 1
	 item 1615, weight= 665227, color= 0
	 item 1616, weight= 665286, color= 4
	 item 1617, weight= 665426, color= 3
	 item 1618, weight= 666535, color= 3
	 item 1619, weight= 667137, color= 1
	 item 1620, weight= 667994, color= 4
	 item 1621, weight= 668011, color= 2
	 item 1622, weight= 668019, color= 4
	 item 1623, weight= 668846, color= 3
	 item 1624, weight= 669621, color= 4
	 item 1625, weight= 669677, color= 3
	 item 1626, weight= 669809, color= 3
	 item 1627, weight= 669974, color= 4
	 item 1628, weight= 669994, color= 1
	 item 1629, weight= 670601, color= 1
	 item 1630, weight= 670618, color= 4
	 item 1631, weight= 670980, color= 0
	 item 1632, weight= 671670, color= 0
	 item 1633, weight= 672660, color= 2
	 item 1634, weight= 672873, color= 1
	 item 1635, weight= 673476, color= 2
	 item 1636, weight= 673816, color= 1
	 item 1637, weight= 674280, color= 1
	 item 1638, weight= 674505, color= 0
	 item 1639, weight= 674648, color= 1
	 item 1640, weight= 674900, color= 1
	 item 1641, weight= 675352, color= 4
	 item 1642, weight= 675411, color= 1
	 item 1643, weight= 676088, color= 0
	 item 1644, weight= 676392, color= 2
	 item 1645, weight= 676621, color= 3
	 item 1646, weight= 677419, color= 1
	 item 1647, weight= 677473, color= 4
	 item 1648, weight= 677563, color= 3
	 item 1649, weight= 677830, color= 2
	 item 1650, weight= 678012, color= 0
	 item 1651, weight= 678345, color= 0
	 item 1652, weight= 678517, color= 0
	 item 1653, weight= 679572, color= 4
	 item 1654, weight= 680106, color= 3
	 item 1655, weight= 681091, color= 1
	 item 1656, weight= 681192, color= 1
	 item 1657, weight= 681199, color= 1
	 item 1658, weight= 681251, color= 1
	 item 1659, weight= 681308, color= 0
	 item 1660, weight= 682162, color= 4
	 item 1661, weight= 682698, color= 3
	 item 1662, weight= 682796, color= 4
	 item 1663, weight= 682961, color= 3
	 item 1664, weight= 683546, color= 4
	 item 1665, weight= 683972, color= 4
	 item 1666, weight= 684575, color= 2
	 item 1667, weight= 685172, color= 1
	 item 1668, weight= 685466, color= 2
	 item 1669, weight= 685705, color= 1
	 item 1670, weight= 685825, color= 1
	 item 1671, weight= 686396, color= 0
	 item 1672, weight= 686761, color= 1
	 item 1673, weight= 686969, color= 4
	 item 1674, weight= 687985, color= 2
	 item 1675, weight= 688235, color= 2
	 item 1676, weight= 688300, color= 1
	 item 1677, weight= 688768, color= 4
	 item 1678, weight= 688912, color= 2
	 item 1679, weight= 688923, color= 4
	 item 1680, weight= 689014, color= 1
	 item 1681, weight= 689147, color= 0
	 item 1682, weight= 689344, color= 1
	 item 1683, weight= 689843, color= 4
	 item 1684, weight= 690478, color= 0
	 item 1685, weight= 690491, color= 3
	 item 1686, weight= 690494, color= 2
	 item 1687, weight= 690629, color= 1
	 item 1688, weight= 690763, color= 4
	 item 1689, weight= 690796, color= 0
	 item 1690, weight= 691025, color= 2
	 item 1691, weight= 691113, color= 3
	 item 1692, weight= 691483, color= 1
	 item 1693, weight= 692369, color= 2
	 item 1694, weight= 692425, color= 0
	 item 1695, weight= 692611, color= 0
	 item 1696, weight= 692961, color= 4
	 item 1697, weight= 693101, color= 1
	 item 1698, weight= 693222, color= 4
	 item 1699, weight= 693523, color= 1
	 item 1700, weight= 693608, color= 0
	 item 1701, weight= 693621, color= 3
	 item 1702, weight= 693958, color= 0
	 item 1703, weight= 694230, color= 1
	 item 1704, weight= 694267, color= 3
	 item 1705, weight= 694432, color= 4
	 item 1706, weight= 694449, color= 4
	 item 1707, weight= 694865, color= 2
	 item 1708, weight= 695482, color= 2
	 item 1709, weight= 695580, color= 0
	 item 1710, weight= 695714, color= 2
	 item 1711, weight= 696037, color= 4
	 item 1712, weight= 696395, color= 2
	 item 1713, weight= 696490, color= 3
	 item 1714, weight= 696545, color= 1
	 item 1715, weight= 696581, color= 4
	 item 1716, weight= 696933, color= 1
	 item 1717, weight= 697430, color= 0
	 item 1718, weight= 698065, color= 3
	 item 1719, weight= 698590, color= 3
	 item 1720, weight= 698893, color= 1
	 item 1721, weight= 699006, color= 1
	 item 1722, weight= 699051, color= 4
	 item 1723, weight= 699718, color= 2
	 item 1724, weight= 700006, color= 0
	 item 1725, weight= 700364, color= 1
	 item 1726, weight= 700658, color= 4
	 item 1727, weight= 701314, color= 3
	 item 1728, weight= 701404, color= 4
	 item 1729, weight= 701478, color= 4
	 item 1730, weight= 701842, color= 3
	 item 1731, weight= 702042, color= 0
	 item 1732, weight= 702248, color= 0
	 item 1733, weight= 702687, color= 1
	 item 1734, weight= 703378, color= 3
	 item 1735, weight= 703641, color= 2
	 item 1736, weight= 704157, color= 1
	 item 1737, weight= 704166, color= 4
	 item 1738, weight= 704175, color= 3
	 item 1739, weight= 704697, color= 3
	 item 1740, weight= 704812, color= 0
	 item 1741, weight= 705419, color= 3
	 item 1742, weight= 705638, color= 0
	 item 1743, weight= 706483, color= 4
	 item 1744, weight= 706941, color= 1
	 item 1745, weight= 707075, color= 4
	 item 1746, weight= 708251, color= 0
	 item 1747, weight= 708706, color= 0
	 item 1748, weight= 708816, color= 2
	 item 1749, weight= 708911, color= 1
	 item 1750, weight= 709370, color= 3
	 item 1751, weight= 709770, color= 3
	 item 1752, weight= 709959, color= 1
	 item 1753, weight= 710107, color= 1
	 item 1754, weight= 711592, color= 4
	 item 1755, weight= 712067, color= 4
	 item 1756, weight= 712438, color= 2
	 item 1757, weight= 712545, color= 1
	 item 1758, weight= 712609, color= 2
	 item 1759, weight= 713506, color= 3
	 item 1760, weight= 713878, color= 2
	 item 1761, weight= 714272, color= 4
	 item 1762, weight= 714306, color= 3
	 item 1763, weight= 714673, color= 1
	 item 1764, weight= 715231, color= 4
	 item 1765, weight= 715826, color= 0
	 item 1766, weight= 716504, color= 1
	 item 1767, weight= 716514, color= 2
	 item 1768, weight= 717089, color= 0
	 item 1769, weight= 717777, color= 0
	 item 1770, weight= 717789, color= 2
	 item 1771, weight= 718005, color= 4
	 item 1772, weight= 718066, color= 1
	 item 1773, weight= 718362, color= 2
	 item 1774, weight= 718681, color= 2
	 item 1775, weight= 718815, color= 0
	 item 1776, weight= 718952, color= 1
	 item 1777, weight= 719221, color= 3
	 item 1778, weight= 719356, color= 4
	 item 1779, weight= 719381, color= 1
	 item 1780, weight= 719381, color= 4
	 item 1781, weight= 719485, color= 4
	 item 1782, weight= 719526, color= 1
	 item 1783, weight= 720132, color= 2
	 item 1784, weight= 720353, color= 2
	 item 1785, weight= 720368, color= 0
	 item 1786, weight= 720865, color= 0
	 item 1787, weight= 721266, color= 0
	 item 1788, weight= 722111, color= 1
	 item 1789, weight= 722505, color= 4
	 item 1790, weight= 723137, color= 0
	 item 1791, weight= 723226, color= 0
	 item 1792, weight= 723758, color= 3
	 item 1793, weight= 723784, color= 3
	 item 1794, weight= 723836, color= 0
	 item 1795, weight= 724039, color= 0
	 item 1796, weight= 724150, color= 4
	 item 1797, weight= 724313, color= 1
	 item 1798, weight= 725071, color= 2
	 item 1799, weight= 725082, color= 3
	 item 1800, weight= 725199, color= 4
	 item 1801, weight= 725787, color= 4
	 item 1802, weight= 725903, color= 0
	 item 1803, weight= 726063, color= 4
	 item 1804, weight= 726196, color= 4
	 item 1805, weight= 726571, color= 0
	 item 1806, weight= 726630, color= 0
	 item 1807, weight= 727501, color= 1
	 item 1808, weight= 727942, color= 4
	 item 1809, weight= 728372, color= 1
	 item 1810, weight= 728671, color= 4
	 item 1811, weight= 728813, color= 2
	 item 1812, weight= 729003, color= 2
	 item 1813, weight= 729116, color= 4
	 item 1814, weight= 729192, color= 1
	 item 1815, weight= 729502, color= 0
	 item 1816, weight= 729836, color= 4
	 item 1817, weight= 729902, color= 4
	 item 1818, weight= 730687, color= 4
	 item 1819, weight= 730757, color= 4
	 item 1820, weight= 731391, color= 0
	 item 1821, weight= 731561, color= 2
	 item 1822, weight= 731672, color= 0
	 item 1823, weight= 732247, color= 2
	 item 1824, weight= 732514, color= 3
	 item 1825, weight= 732638, color= 2
	 item 1826, weight= 733585, color= 2
	 item 1827, weight= 733772, color= 0
	 item 1828, weight= 733787, color= 3
	 item 1829, weight= 733999, color= 4
	 item 1830, weight= 734090, color= 3
	 item 1831, weight= 734496, color= 0
	 item 1832, weight= 734909, color= 0
	 item 1833, weight= 734957, color= 4
	 item 1834, weight= 735088, color= 3
	 item 1835, weight= 735543, color= 2
	 item 1836, weight= 735793, color= 2
	 item 1837, weight= 735892, color= 1
	 item 1838, weight= 735949, color= 1
	 item 1839, weight= 736184, color= 3
	 item 1840, weight= 737010, color= 1
	 item 1841, weight= 737172, color= 0
	 item 1842, weight= 737271, color= 2
	 item 1843, weight= 737507, color= 4
	 item 1844, weight= 738051, color= 3
	 item 1845, weight= 738138, color= 4
	 item 1846, weight= 738199, color= 2
	 item 1847, weight= 738299, color= 3
	 item 1848, weight= 739665, color= 3
	 item 1849, weight= 740162, color= 3
	 item 1850, weight= 740515, color= 3
	 item 1851, weight= 741084, color= 0
	 item 1852, weight= 741210, color= 1
	 item 1853, weight= 741353, color= 2
	 item 1854, weight= 741421, color= 3
	 item 1855, weight= 741481, color= 3
	 item 1856, weight= 741946, color= 2
	 item 1857, weight= 742312, color= 0
	 item 1858, weight= 742418, color= 2
	 item 1859, weight= 742566, color= 3
	 item 1860, weight= 742856, color= 4
	 item 1861, weight= 743711, color= 3
	 item 1862, weight= 744716, color= 2
	 item 1863, weight= 744911, color= 2
	 item 1864, weight= 745354, color= 3
	 item 1865, weight= 745547, color= 1
	 item 1866, weight= 745732, color= 0
	 item 1867, weight= 745817, color= 0
	 item 1868, weight= 746224, color= 1
	 item 1869, weight= 746458, color= 0
	 item 1870, weight= 746810, color= 4
	 item 1871, weight= 747078, color= 2
	 item 1872, weight= 747256, color= 2
	 item 1873, weight= 747508, color= 1
	 item 1874, weight= 747678, color= 3
	 item 1875, weight= 747883, color= 3
	 item 1876, weight= 748017, color= 4
	 item 1877, weight= 748766, color= 2
	 item 1878, weight= 748941, color= 2
	 item 1879, weight= 749390, color= 3
	 item 1880, weight= 749522, color= 2
	 item 1881, weight= 749731, color= 3
	 item 1882, weight= 749845, color= 4
	 item 1883, weight= 750227, color= 1
	 item 1884, weight= 750634, color= 3
	 item 1885, weight= 750895, color= 0
	 item 1886, weight= 750997, color= 0
	 item 1887, weight= 751522, color= 0
	 item 1888, weight= 751648, color= 3
	 item 1889, weight= 751826, color= 1
	 item 1890, weight= 752129, color= 2
	 item 1891, weight= 753092, color= 1
	 item 1892, weight= 753703, color= 0
	 item 1893, weight= 754261, color= 1
	 item 1894, weight= 754273, color= 3
	 item 1895, weight= 754973, color= 1
	 item 1896, weight= 755308, color= 0
	 item 1897, weight= 755448, color= 4
	 item 1898, weight= 755565, color= 1
	 item 1899, weight= 755997, color= 4
	 item 1900, weight= 756096, color= 3
	 item 1901, weight= 757129, color= 4
	 item 1902, weight= 757293, color= 3
	 item 1903, weight= 757403, color= 2
	 item 1904, weight= 758504, color= 4
	 item 1905, weight= 758630, color= 1
	 item 1906, weight= 758654, color= 0
	 item 1907, weight= 758924, color= 1
	 item 1908, weight= 759430, color= 3
	 item 1909, weight= 759872, color= 4
	 item 1910, weight= 760136, color= 4
	 item 1911, weight= 760375, color= 1
	 item 1912, weight= 760565, color= 2
	 item 1913, weight= 760928, color= 4
	 item 1914, weight= 760984, color= 2
	 item 1915, weight= 761777, color= 2
	 item 1916, weight= 762073, color= 4
	 item 1917, weight= 762138, color= 0
	 item 1918, weight= 762309, color= 1
	 item 1919, weight= 762403, color= 2
	 item 1920, weight= 762516, color= 2
	 item 1921, weight= 762897, color= 3
	 item 1922, weight= 763004, color= 0
	 item 1923, weight= 763614, color= 0
	 item 1924, weight= 763956, color= 4
	 item 1925, weight= 764008, color= 4
	 item 1926, weight= 764251, color= 3
	 item 1927, weight= 765111, color= 1
	 item 1928, weight= 765325, color= 4
	 item 1929, weight= 765470, color= 1
	 item 1930, weight= 765529, color= 0
	 item 1931, weight= 765959, color= 1
	 item 1932, weight= 766386, color= 2
	 item 1933, weight= 766579, color= 2
	 item 1934, weight= 767549, color= 2
	 item 1935, weight= 768111, color= 1
	 item 1936, weight= 769509, color= 1
	 item 1937, weight= 770588, color= 0
	 item 1938, weight= 771079, color= 3
	 item 1939, weight= 771331, color= 2
	 item 1940, weight= 772484, color= 3
	 item 1941, weight= 772499, color= 3
	 item 1942, weight= 772591, color= 0
	 item 1943, weight= 773065, color= 3
	 item 1944, weight= 773289, color= 2
	 item 1945, weight= 773867, color= 2
	 item 1946, weight= 774801, color= 2
	 item 1947, weight= 775513, color= 1
	 item 1948, weight= 775780, color= 0
	 item 1949, weight= 775911, color= 1
	 item 1950, weight= 776338, color= 2
	 item 1951, weight= 777331, color= 1
	 item 1952, weight= 777714, color= 0
	 item 1953, weight= 779940, color= 4
	 item 1954, weight= 780164, color= 2
	 item 1955, weight= 780211, color= 3
	 item 1956, weight= 780885, color= 1
	 item 1957, weight= 781180, color= 0
	 item 1958, weight= 781521, color= 1
	 item 1959, weight= 781736, color= 3
	 item 1960, weight= 782058, color= 3
	 item 1961, weight= 782160, color= 2
	 item 1962, weight= 782595, color= 1
	 item 1963, weight= 783230, color= 4
	 item 1964, weight= 783289, color= 2
	 item 1965, weight= 783834, color= 3
	 item 1966, weight= 784105, color= 4
	 item 1967, weight= 784467, color= 2
	 item 1968, weight= 785279, color= 1
	 item 1969, weight= 785363, color= 4
	 item 1970, weight= 785651, color= 2
	 item 1971, weight= 786826, color= 1
	 item 1972, weight= 787923, color= 2
	 item 1973, weight= 787994, color= 0
	 item 1974, weight= 788098, color= 0
	 item 1975, weight= 789138, color= 1
	 item 1976, weight= 789983, color= 3
	 item 1977, weight= 790376, color= 1
	 item 1978, weight= 790564, color= 4
	 item 1979, weight= 790780, color= 1
	 item 1980, weight= 790912, color= 3
	 item 1981, weight= 791214, color= 3
	 item 1982, weight= 792846, color= 1
	 item 1983, weight= 793120, color= 4
	 item 1984, weight= 794191, color= 4
	 item 1985, weight= 794294, color= 3
	 item 1986, weight= 794441, color= 0
	 item 1987, weight= 794651, color= 0
	 item 1988, weight= 795473, color= 0
	 item 1989, weight= 795618, color= 1
	 item 1990, weight= 795643, color= 4
	 item 1991, weight= 796099, color= 1
	 item 1992, weight= 796214, color= 0
	 item 1993, weight= 796492, color= 3
	 item 1994, weight= 796536, color= 2
	 item 1995, weight= 796879, color= 4
	 item 1996, weight= 797863, color= 4
	 item 1997, weight= 798186, color= 4
	 item 1998, weight= 798268, color= 1
	 item 1999, weight= 798707, color= 4
	 item 2000, weight= 799745, color= 1
	 item 2001, weight= 799826, color= 4

VRPSolver warning: Interval set for resource 1 on source node (when source != sink) is ignored (by definition is [0.0,0.0])
VRPSolver warning: Interval set for resource 2 on source node (when source != sink) is ignored (by definition is [0.0,0.0])
VRPSolver warning: Interval set for resource 3 on source node (when source != sink) is ignored (by definition is [0.0,0.0])
VRPSolver warning: Interval set for resource 4 on source node (when source != sink) is ignored (by definition is [0.0,0.0])
VRPSolver warning: Interval set for resource 5 on source node (when source != sink) is ignored (by definition is [0.0,0.0])
VRPSolver warning: Interval set for resource 6 on source node (when source != sink) is ignored (by definition is [0.0,0.0])
[41m solve [00m
~~~~~~~~~~~~~~~~~~~~~~~~~~~~~~~~~~~~~~~~~~~~~~~~~~~~~~~~~~~~~~~~~~~~~~~~~~~~~~
VRPSolver v0.4.1, 24/03/2021. Web: vrpsolver.math.u-bordeaux.fr
Corresponds to the solver by Pessoa, Sadykov, Uchoa and Vanderbeck (2020)
Paper: dx.doi.org/10.1007/s10107-020-01523-z
USE THIS CODE ONLY FOR ACADEMIC PURPOSES AT YOUR OWN RISK
~~~~~~~~~~~~~~~~~~~~~~~~~~~~~~~~~~~~~~~~~~~~~~~~~~~~~~~~~~~~~~~~~~~~~~~~~~~~~~
BaPCod v053, 24/03/2021, © Inria Bordeaux, France
~~~~~~~~~~~~~~~~~~~~~~~~~~~~~~~~~~~~~~~~~~~~~~~~~~~~~~~~~~~~~~~~~~~~~~~~~~~~~~
VRPSolver parameters:
GlobalTimeLimit = 60
MaxNbOfBBtreeNodeTreated = 100000
treeSearchStrategy = 1
RCSPstopCutGenTimeThresholdInPricing = 10
RCSPhardTimeThresholdInPricing = 20
RCSPnumberOfBucketsPerVertex = 2000
RCSPdynamicBucketSteps = 0
RCSPuseBidirectionalSearch = 1
RCSPapplyReducedCostFixing = 1
RCSPredCostFixingFalseGap = 0
RCSPmaxNumOfColsPerIteration = 100
RCSPmaxNumOfColsPerExactIteration = 100
RCSPheurLabelingStrategy = 4
StabilizationMinPhaseOfStage = 1
RCSPmaxNumOfLabelsInEnumeration = 100000
RCSPmaxNumOfEnumeratedSolutions = 1000000
RCSPmaxNumOfEnumSolutionsForMIP = 100000
RCSPinitNGneighbourhoodSize = 0
RCSPmaxNGneighbourhoodSize = 0
RCSPrankOneCutsMaxNumPerRound = 100
RCSPrankOneCutsMaxNumRows = -1
RCSPrankOneCutsMemoryType = 2
CutTailingOffThreshold = 0.02
CutTailingOffCounterThreshold = 3
SafeDualBoundScaleFactor = -1
StrongBranchingPhaseOneCandidatesNumber = 100
StrongBranchingPhaseOneTreeSizeEstimRatio = 0.3
StrongBranchingPhaseTwoCandidatesNumber = 1
StrongBranchingPhaseTwoTreeSizeEstimRatio = 0.1
MaxTimeForRestrictedMasterIpHeur = -1
DivingHeurUseDepthLimit = 0
MaxLDSbreadth = 3
MaxLDSdepth = 2
New model incumbent solution 1e+06, TIME = 0h0m0s3t = 3
statistics_cols: instance & :Optimal & cutoff & :bcRecRootDb & :bcTimeRootEval & :bcCountNodeProc & :bcRecBestDb & :bcRecBestInc & :bcTimeMain \\
statistics: N2001W1000001R1080Q5-001 & 0 & 1.0e6 & 0.00 & 0.00 & 0 & 0.00 & -- & 0.00 \\
########################################################
Solution not found
########################################################
