Application parameters:
  batch  =>  nothing
  instance  =>  "/IN/N2001W1000001R1080Q20-002"
  ub  =>  1.0e6
  cfg  =>  "/CFG/BPP.cfg"
data = Colored Bin Packing dataset.
number of items = 2001
number of colors = 20
capacity = 1000001
Items : 
	 item 1, weight= 100298, color= 3
	 item 2, weight= 101798, color= 7
	 item 3, weight= 102113, color= 6
	 item 4, weight= 102459, color= 18
	 item 5, weight= 102664, color= 7
	 item 6, weight= 102714, color= 15
	 item 7, weight= 102754, color= 9
	 item 8, weight= 102791, color= 11
	 item 9, weight= 103133, color= 2
	 item 10, weight= 103849, color= 14
	 item 11, weight= 104188, color= 15
	 item 12, weight= 105155, color= 3
	 item 13, weight= 105500, color= 11
	 item 14, weight= 105789, color= 13
	 item 15, weight= 105852, color= 4
	 item 16, weight= 106600, color= 6
	 item 17, weight= 107030, color= 12
	 item 18, weight= 107184, color= 15
	 item 19, weight= 107269, color= 5
	 item 20, weight= 108300, color= 19
	 item 21, weight= 108818, color= 12
	 item 22, weight= 109022, color= 15
	 item 23, weight= 109247, color= 4
	 item 24, weight= 109958, color= 0
	 item 25, weight= 110093, color= 2
	 item 26, weight= 110200, color= 7
	 item 27, weight= 110693, color= 0
	 item 28, weight= 111032, color= 19
	 item 29, weight= 111755, color= 7
	 item 30, weight= 112250, color= 17
	 item 31, weight= 112313, color= 18
	 item 32, weight= 112639, color= 8
	 item 33, weight= 112833, color= 11
	 item 34, weight= 113193, color= 2
	 item 35, weight= 113680, color= 13
	 item 36, weight= 113689, color= 5
	 item 37, weight= 113928, color= 12
	 item 38, weight= 113941, color= 17
	 item 39, weight= 114654, color= 15
	 item 40, weight= 114910, color= 12
	 item 41, weight= 115019, color= 1
	 item 42, weight= 115169, color= 6
	 item 43, weight= 115436, color= 8
	 item 44, weight= 115799, color= 3
	 item 45, weight= 115866, color= 8
	 item 46, weight= 116392, color= 19
	 item 47, weight= 116589, color= 19
	 item 48, weight= 116676, color= 7
	 item 49, weight= 116694, color= 3
	 item 50, weight= 116720, color= 9
	 item 51, weight= 117051, color= 5
	 item 52, weight= 118139, color= 5
	 item 53, weight= 118147, color= 19
	 item 54, weight= 118182, color= 14
	 item 55, weight= 118235, color= 10
	 item 56, weight= 118504, color= 14
	 item 57, weight= 118639, color= 0
	 item 58, weight= 119246, color= 2
	 item 59, weight= 119604, color= 5
	 item 60, weight= 121074, color= 13
	 item 61, weight= 121907, color= 11
	 item 62, weight= 121955, color= 1
	 item 63, weight= 122574, color= 12
	 item 64, weight= 122932, color= 17
	 item 65, weight= 122952, color= 17
	 item 66, weight= 123545, color= 14
	 item 67, weight= 123586, color= 15
	 item 68, weight= 123611, color= 10
	 item 69, weight= 124022, color= 11
	 item 70, weight= 124739, color= 18
	 item 71, weight= 125016, color= 9
	 item 72, weight= 125150, color= 15
	 item 73, weight= 125248, color= 8
	 item 74, weight= 125698, color= 1
	 item 75, weight= 125841, color= 14
	 item 76, weight= 126035, color= 10
	 item 77, weight= 126215, color= 11
	 item 78, weight= 127218, color= 3
	 item 79, weight= 127576, color= 14
	 item 80, weight= 128978, color= 19
	 item 81, weight= 129117, color= 4
	 item 82, weight= 129202, color= 10
	 item 83, weight= 129739, color= 18
	 item 84, weight= 129762, color= 13
	 item 85, weight= 129813, color= 12
	 item 86, weight= 129969, color= 17
	 item 87, weight= 130351, color= 9
	 item 88, weight= 130488, color= 1
	 item 89, weight= 130658, color= 12
	 item 90, weight= 131286, color= 0
	 item 91, weight= 131358, color= 10
	 item 92, weight= 131720, color= 5
	 item 93, weight= 132613, color= 16
	 item 94, weight= 132989, color= 16
	 item 95, weight= 133831, color= 12
	 item 96, weight= 133835, color= 11
	 item 97, weight= 133959, color= 10
	 item 98, weight= 134139, color= 1
	 item 99, weight= 134583, color= 12
	 item 100, weight= 134917, color= 16
	 item 101, weight= 135296, color= 12
	 item 102, weight= 135709, color= 19
	 item 103, weight= 135919, color= 16
	 item 104, weight= 136240, color= 14
	 item 105, weight= 136416, color= 1
	 item 106, weight= 136416, color= 13
	 item 107, weight= 136419, color= 4
	 item 108, weight= 136740, color= 4
	 item 109, weight= 136796, color= 7
	 item 110, weight= 137608, color= 15
	 item 111, weight= 138096, color= 12
	 item 112, weight= 138297, color= 0
	 item 113, weight= 139372, color= 10
	 item 114, weight= 139376, color= 6
	 item 115, weight= 139694, color= 3
	 item 116, weight= 140061, color= 6
	 item 117, weight= 140180, color= 17
	 item 118, weight= 140213, color= 16
	 item 119, weight= 140821, color= 2
	 item 120, weight= 142156, color= 1
	 item 121, weight= 143199, color= 14
	 item 122, weight= 143958, color= 2
	 item 123, weight= 144284, color= 11
	 item 124, weight= 144467, color= 17
	 item 125, weight= 144471, color= 18
	 item 126, weight= 144980, color= 7
	 item 127, weight= 145953, color= 12
	 item 128, weight= 146103, color= 5
	 item 129, weight= 146907, color= 3
	 item 130, weight= 147419, color= 10
	 item 131, weight= 147510, color= 8
	 item 132, weight= 148087, color= 9
	 item 133, weight= 148143, color= 7
	 item 134, weight= 148287, color= 9
	 item 135, weight= 148333, color= 1
	 item 136, weight= 148435, color= 7
	 item 137, weight= 148437, color= 5
	 item 138, weight= 148566, color= 18
	 item 139, weight= 148676, color= 13
	 item 140, weight= 149133, color= 5
	 item 141, weight= 149170, color= 17
	 item 142, weight= 149505, color= 4
	 item 143, weight= 149545, color= 7
	 item 144, weight= 149753, color= 12
	 item 145, weight= 150371, color= 19
	 item 146, weight= 150386, color= 8
	 item 147, weight= 150387, color= 2
	 item 148, weight= 151131, color= 2
	 item 149, weight= 151194, color= 7
	 item 150, weight= 152391, color= 10
	 item 151, weight= 152933, color= 12
	 item 152, weight= 153732, color= 19
	 item 153, weight= 154081, color= 11
	 item 154, weight= 154301, color= 2
	 item 155, weight= 154505, color= 6
	 item 156, weight= 154563, color= 9
	 item 157, weight= 154999, color= 10
	 item 158, weight= 155158, color= 12
	 item 159, weight= 156090, color= 5
	 item 160, weight= 156155, color= 12
	 item 161, weight= 156712, color= 15
	 item 162, weight= 156717, color= 19
	 item 163, weight= 157204, color= 4
	 item 164, weight= 157335, color= 10
	 item 165, weight= 157636, color= 4
	 item 166, weight= 157796, color= 2
	 item 167, weight= 157871, color= 3
	 item 168, weight= 158325, color= 7
	 item 169, weight= 158465, color= 15
	 item 170, weight= 159494, color= 11
	 item 171, weight= 161139, color= 6
	 item 172, weight= 161172, color= 12
	 item 173, weight= 162619, color= 5
	 item 174, weight= 162996, color= 6
	 item 175, weight= 163382, color= 7
	 item 176, weight= 163961, color= 0
	 item 177, weight= 163962, color= 7
	 item 178, weight= 164640, color= 1
	 item 179, weight= 164911, color= 11
	 item 180, weight= 165127, color= 8
	 item 181, weight= 165251, color= 5
	 item 182, weight= 165650, color= 18
	 item 183, weight= 165733, color= 17
	 item 184, weight= 166191, color= 16
	 item 185, weight= 166228, color= 13
	 item 186, weight= 166291, color= 8
	 item 187, weight= 166373, color= 17
	 item 188, weight= 166835, color= 6
	 item 189, weight= 166899, color= 19
	 item 190, weight= 167158, color= 16
	 item 191, weight= 168098, color= 2
	 item 192, weight= 168444, color= 12
	 item 193, weight= 168549, color= 11
	 item 194, weight= 168635, color= 6
	 item 195, weight= 169143, color= 11
	 item 196, weight= 169915, color= 7
	 item 197, weight= 169948, color= 10
	 item 198, weight= 170669, color= 18
	 item 199, weight= 170759, color= 4
	 item 200, weight= 170941, color= 11
	 item 201, weight= 171357, color= 8
	 item 202, weight= 172636, color= 19
	 item 203, weight= 172924, color= 7
	 item 204, weight= 173698, color= 11
	 item 205, weight= 174715, color= 2
	 item 206, weight= 174948, color= 5
	 item 207, weight= 175032, color= 7
	 item 208, weight= 175221, color= 14
	 item 209, weight= 176806, color= 3
	 item 210, weight= 176909, color= 18
	 item 211, weight= 177247, color= 14
	 item 212, weight= 177309, color= 14
	 item 213, weight= 179088, color= 0
	 item 214, weight= 179267, color= 14
	 item 215, weight= 179291, color= 3
	 item 216, weight= 179569, color= 5
	 item 217, weight= 179774, color= 8
	 item 218, weight= 180520, color= 8
	 item 219, weight= 180570, color= 0
	 item 220, weight= 180660, color= 16
	 item 221, weight= 180871, color= 14
	 item 222, weight= 180907, color= 17
	 item 223, weight= 181537, color= 13
	 item 224, weight= 181971, color= 6
	 item 225, weight= 182010, color= 14
	 item 226, weight= 182041, color= 9
	 item 227, weight= 182298, color= 18
	 item 228, weight= 182489, color= 19
	 item 229, weight= 183107, color= 0
	 item 230, weight= 183549, color= 9
	 item 231, weight= 184895, color= 11
	 item 232, weight= 185449, color= 10
	 item 233, weight= 185879, color= 19
	 item 234, weight= 185977, color= 11
	 item 235, weight= 186229, color= 7
	 item 236, weight= 187025, color= 19
	 item 237, weight= 187517, color= 9
	 item 238, weight= 187634, color= 17
	 item 239, weight= 188776, color= 9
	 item 240, weight= 188789, color= 19
	 item 241, weight= 189053, color= 0
	 item 242, weight= 189086, color= 5
	 item 243, weight= 189430, color= 11
	 item 244, weight= 189864, color= 1
	 item 245, weight= 191209, color= 16
	 item 246, weight= 191264, color= 9
	 item 247, weight= 191476, color= 19
	 item 248, weight= 191565, color= 11
	 item 249, weight= 192196, color= 2
	 item 250, weight= 192548, color= 4
	 item 251, weight= 192556, color= 8
	 item 252, weight= 194458, color= 14
	 item 253, weight= 194525, color= 7
	 item 254, weight= 194838, color= 17
	 item 255, weight= 194853, color= 8
	 item 256, weight= 195266, color= 11
	 item 257, weight= 195288, color= 0
	 item 258, weight= 195317, color= 17
	 item 259, weight= 195651, color= 12
	 item 260, weight= 195840, color= 4
	 item 261, weight= 196031, color= 6
	 item 262, weight= 196031, color= 7
	 item 263, weight= 196371, color= 10
	 item 264, weight= 196994, color= 15
	 item 265, weight= 197318, color= 3
	 item 266, weight= 197598, color= 5
	 item 267, weight= 197906, color= 15
	 item 268, weight= 198001, color= 13
	 item 269, weight= 198379, color= 2
	 item 270, weight= 198436, color= 16
	 item 271, weight= 198569, color= 1
	 item 272, weight= 198601, color= 2
	 item 273, weight= 199782, color= 10
	 item 274, weight= 200136, color= 16
	 item 275, weight= 200158, color= 2
	 item 276, weight= 200191, color= 0
	 item 277, weight= 200741, color= 18
	 item 278, weight= 201233, color= 13
	 item 279, weight= 202213, color= 16
	 item 280, weight= 202222, color= 11
	 item 281, weight= 202243, color= 17
	 item 282, weight= 202309, color= 19
	 item 283, weight= 202948, color= 17
	 item 284, weight= 203795, color= 7
	 item 285, weight= 203884, color= 15
	 item 286, weight= 204080, color= 7
	 item 287, weight= 204220, color= 4
	 item 288, weight= 204744, color= 7
	 item 289, weight= 204849, color= 13
	 item 290, weight= 205048, color= 15
	 item 291, weight= 205578, color= 13
	 item 292, weight= 205591, color= 15
	 item 293, weight= 206296, color= 9
	 item 294, weight= 208741, color= 9
	 item 295, weight= 209369, color= 17
	 item 296, weight= 209390, color= 6
	 item 297, weight= 209523, color= 16
	 item 298, weight= 209846, color= 14
	 item 299, weight= 210079, color= 15
	 item 300, weight= 210093, color= 7
	 item 301, weight= 210683, color= 3
	 item 302, weight= 210861, color= 7
	 item 303, weight= 211385, color= 16
	 item 304, weight= 211407, color= 19
	 item 305, weight= 213801, color= 2
	 item 306, weight= 213900, color= 4
	 item 307, weight= 214186, color= 6
	 item 308, weight= 214610, color= 2
	 item 309, weight= 215185, color= 5
	 item 310, weight= 215625, color= 18
	 item 311, weight= 215922, color= 3
	 item 312, weight= 216259, color= 9
	 item 313, weight= 217002, color= 10
	 item 314, weight= 217063, color= 15
	 item 315, weight= 217192, color= 17
	 item 316, weight= 217358, color= 18
	 item 317, weight= 217384, color= 2
	 item 318, weight= 217598, color= 7
	 item 319, weight= 217752, color= 19
	 item 320, weight= 218041, color= 12
	 item 321, weight= 218094, color= 13
	 item 322, weight= 218423, color= 8
	 item 323, weight= 218531, color= 19
	 item 324, weight= 218573, color= 18
	 item 325, weight= 218744, color= 17
	 item 326, weight= 218920, color= 3
	 item 327, weight= 219016, color= 8
	 item 328, weight= 219079, color= 16
	 item 329, weight= 219348, color= 16
	 item 330, weight= 219360, color= 4
	 item 331, weight= 219755, color= 15
	 item 332, weight= 220175, color= 8
	 item 333, weight= 220528, color= 15
	 item 334, weight= 221412, color= 14
	 item 335, weight= 221582, color= 1
	 item 336, weight= 221688, color= 16
	 item 337, weight= 221916, color= 6
	 item 338, weight= 221995, color= 1
	 item 339, weight= 222812, color= 18
	 item 340, weight= 222863, color= 10
	 item 341, weight= 223041, color= 12
	 item 342, weight= 224214, color= 9
	 item 343, weight= 224486, color= 19
	 item 344, weight= 225291, color= 13
	 item 345, weight= 225377, color= 15
	 item 346, weight= 225740, color= 0
	 item 347, weight= 225962, color= 8
	 item 348, weight= 226980, color= 0
	 item 349, weight= 227264, color= 16
	 item 350, weight= 228088, color= 10
	 item 351, weight= 228526, color= 4
	 item 352, weight= 229101, color= 14
	 item 353, weight= 229320, color= 16
	 item 354, weight= 229788, color= 0
	 item 355, weight= 230286, color= 4
	 item 356, weight= 230355, color= 14
	 item 357, weight= 230537, color= 4
	 item 358, weight= 230567, color= 13
	 item 359, weight= 230620, color= 0
	 item 360, weight= 232133, color= 17
	 item 361, weight= 232551, color= 7
	 item 362, weight= 232876, color= 11
	 item 363, weight= 233160, color= 12
	 item 364, weight= 233213, color= 8
	 item 365, weight= 233785, color= 8
	 item 366, weight= 233799, color= 14
	 item 367, weight= 234230, color= 17
	 item 368, weight= 234272, color= 19
	 item 369, weight= 234514, color= 12
	 item 370, weight= 235217, color= 5
	 item 371, weight= 235553, color= 2
	 item 372, weight= 236632, color= 10
	 item 373, weight= 236643, color= 19
	 item 374, weight= 236840, color= 16
	 item 375, weight= 237598, color= 12
	 item 376, weight= 237606, color= 19
	 item 377, weight= 238059, color= 15
	 item 378, weight= 238348, color= 5
	 item 379, weight= 239122, color= 7
	 item 380, weight= 239283, color= 9
	 item 381, weight= 239430, color= 9
	 item 382, weight= 239479, color= 8
	 item 383, weight= 239672, color= 0
	 item 384, weight= 240404, color= 16
	 item 385, weight= 240510, color= 11
	 item 386, weight= 240796, color= 13
	 item 387, weight= 241078, color= 15
	 item 388, weight= 241289, color= 11
	 item 389, weight= 241345, color= 10
	 item 390, weight= 241618, color= 7
	 item 391, weight= 241940, color= 5
	 item 392, weight= 242178, color= 6
	 item 393, weight= 242359, color= 9
	 item 394, weight= 242515, color= 2
	 item 395, weight= 242805, color= 0
	 item 396, weight= 242987, color= 6
	 item 397, weight= 243202, color= 14
	 item 398, weight= 243321, color= 8
	 item 399, weight= 243548, color= 11
	 item 400, weight= 244117, color= 4
	 item 401, weight= 244488, color= 12
	 item 402, weight= 245117, color= 8
	 item 403, weight= 245251, color= 7
	 item 404, weight= 245783, color= 13
	 item 405, weight= 246074, color= 14
	 item 406, weight= 246465, color= 2
	 item 407, weight= 246706, color= 12
	 item 408, weight= 246984, color= 0
	 item 409, weight= 247319, color= 5
	 item 410, weight= 247672, color= 3
	 item 411, weight= 247806, color= 6
	 item 412, weight= 248069, color= 11
	 item 413, weight= 248447, color= 7
	 item 414, weight= 249146, color= 13
	 item 415, weight= 249577, color= 1
	 item 416, weight= 249652, color= 10
	 item 417, weight= 249986, color= 15
	 item 418, weight= 250648, color= 18
	 item 419, weight= 251129, color= 0
	 item 420, weight= 251201, color= 4
	 item 421, weight= 252032, color= 3
	 item 422, weight= 252078, color= 8
	 item 423, weight= 252246, color= 4
	 item 424, weight= 252286, color= 15
	 item 425, weight= 252328, color= 12
	 item 426, weight= 252381, color= 1
	 item 427, weight= 252945, color= 0
	 item 428, weight= 254514, color= 15
	 item 429, weight= 255040, color= 14
	 item 430, weight= 255073, color= 12
	 item 431, weight= 255127, color= 15
	 item 432, weight= 255243, color= 17
	 item 433, weight= 256442, color= 10
	 item 434, weight= 256604, color= 2
	 item 435, weight= 256995, color= 7
	 item 436, weight= 256999, color= 2
	 item 437, weight= 257503, color= 9
	 item 438, weight= 257710, color= 1
	 item 439, weight= 257802, color= 9
	 item 440, weight= 257875, color= 3
	 item 441, weight= 258025, color= 15
	 item 442, weight= 258341, color= 16
	 item 443, weight= 258761, color= 17
	 item 444, weight= 259196, color= 3
	 item 445, weight= 259372, color= 5
	 item 446, weight= 259591, color= 15
	 item 447, weight= 259671, color= 9
	 item 448, weight= 260134, color= 16
	 item 449, weight= 260235, color= 19
	 item 450, weight= 260417, color= 0
	 item 451, weight= 260680, color= 14
	 item 452, weight= 260698, color= 11
	 item 453, weight= 260805, color= 12
	 item 454, weight= 260835, color= 17
	 item 455, weight= 261050, color= 14
	 item 456, weight= 261254, color= 4
	 item 457, weight= 261418, color= 15
	 item 458, weight= 261811, color= 14
	 item 459, weight= 261880, color= 0
	 item 460, weight= 262379, color= 2
	 item 461, weight= 263088, color= 13
	 item 462, weight= 264840, color= 12
	 item 463, weight= 265194, color= 18
	 item 464, weight= 265502, color= 4
	 item 465, weight= 265994, color= 8
	 item 466, weight= 266125, color= 9
	 item 467, weight= 266303, color= 2
	 item 468, weight= 266580, color= 11
	 item 469, weight= 266603, color= 17
	 item 470, weight= 266686, color= 17
	 item 471, weight= 267026, color= 14
	 item 472, weight= 267433, color= 4
	 item 473, weight= 267464, color= 5
	 item 474, weight= 268615, color= 6
	 item 475, weight= 269099, color= 7
	 item 476, weight= 269619, color= 7
	 item 477, weight= 269796, color= 3
	 item 478, weight= 271197, color= 8
	 item 479, weight= 271264, color= 14
	 item 480, weight= 271558, color= 12
	 item 481, weight= 271620, color= 4
	 item 482, weight= 271738, color= 8
	 item 483, weight= 272134, color= 2
	 item 484, weight= 272366, color= 19
	 item 485, weight= 272953, color= 14
	 item 486, weight= 274624, color= 7
	 item 487, weight= 274822, color= 14
	 item 488, weight= 274850, color= 5
	 item 489, weight= 274980, color= 11
	 item 490, weight= 275049, color= 7
	 item 491, weight= 275052, color= 5
	 item 492, weight= 275375, color= 18
	 item 493, weight= 276345, color= 1
	 item 494, weight= 276345, color= 14
	 item 495, weight= 276643, color= 16
	 item 496, weight= 277399, color= 9
	 item 497, weight= 277739, color= 17
	 item 498, weight= 278029, color= 5
	 item 499, weight= 278451, color= 11
	 item 500, weight= 278626, color= 19
	 item 501, weight= 278781, color= 0
	 item 502, weight= 278905, color= 9
	 item 503, weight= 279119, color= 8
	 item 504, weight= 279613, color= 7
	 item 505, weight= 279989, color= 14
	 item 506, weight= 280192, color= 3
	 item 507, weight= 280280, color= 3
	 item 508, weight= 281222, color= 7
	 item 509, weight= 282023, color= 14
	 item 510, weight= 282189, color= 5
	 item 511, weight= 282327, color= 16
	 item 512, weight= 283250, color= 17
	 item 513, weight= 283721, color= 12
	 item 514, weight= 284132, color= 5
	 item 515, weight= 284165, color= 15
	 item 516, weight= 284773, color= 7
	 item 517, weight= 284822, color= 0
	 item 518, weight= 285088, color= 12
	 item 519, weight= 286176, color= 11
	 item 520, weight= 288309, color= 8
	 item 521, weight= 289170, color= 1
	 item 522, weight= 289273, color= 11
	 item 523, weight= 289698, color= 3
	 item 524, weight= 289712, color= 3
	 item 525, weight= 290004, color= 15
	 item 526, weight= 290376, color= 14
	 item 527, weight= 290786, color= 16
	 item 528, weight= 290888, color= 17
	 item 529, weight= 291164, color= 1
	 item 530, weight= 291381, color= 2
	 item 531, weight= 291844, color= 17
	 item 532, weight= 291950, color= 6
	 item 533, weight= 292389, color= 16
	 item 534, weight= 292554, color= 10
	 item 535, weight= 292796, color= 16
	 item 536, weight= 293229, color= 16
	 item 537, weight= 293409, color= 1
	 item 538, weight= 294334, color= 10
	 item 539, weight= 294637, color= 16
	 item 540, weight= 294894, color= 8
	 item 541, weight= 295147, color= 3
	 item 542, weight= 295244, color= 18
	 item 543, weight= 295589, color= 16
	 item 544, weight= 296240, color= 3
	 item 545, weight= 296472, color= 18
	 item 546, weight= 296569, color= 18
	 item 547, weight= 297011, color= 11
	 item 548, weight= 297933, color= 5
	 item 549, weight= 298005, color= 16
	 item 550, weight= 298820, color= 13
	 item 551, weight= 299280, color= 18
	 item 552, weight= 299393, color= 11
	 item 553, weight= 300110, color= 9
	 item 554, weight= 300700, color= 7
	 item 555, weight= 301808, color= 7
	 item 556, weight= 301863, color= 16
	 item 557, weight= 302988, color= 8
	 item 558, weight= 303350, color= 11
	 item 559, weight= 303492, color= 16
	 item 560, weight= 304274, color= 10
	 item 561, weight= 304508, color= 6
	 item 562, weight= 305491, color= 4
	 item 563, weight= 306296, color= 16
	 item 564, weight= 306421, color= 6
	 item 565, weight= 306656, color= 4
	 item 566, weight= 306778, color= 0
	 item 567, weight= 306818, color= 18
	 item 568, weight= 307269, color= 10
	 item 569, weight= 308364, color= 18
	 item 570, weight= 308625, color= 17
	 item 571, weight= 308639, color= 4
	 item 572, weight= 308790, color= 14
	 item 573, weight= 309038, color= 16
	 item 574, weight= 309232, color= 4
	 item 575, weight= 309808, color= 15
	 item 576, weight= 310204, color= 14
	 item 577, weight= 311019, color= 8
	 item 578, weight= 311283, color= 2
	 item 579, weight= 312095, color= 15
	 item 580, weight= 312761, color= 0
	 item 581, weight= 312779, color= 4
	 item 582, weight= 313106, color= 6
	 item 583, weight= 313202, color= 7
	 item 584, weight= 313912, color= 12
	 item 585, weight= 313970, color= 1
	 item 586, weight= 314312, color= 12
	 item 587, weight= 314650, color= 17
	 item 588, weight= 314685, color= 4
	 item 589, weight= 315206, color= 6
	 item 590, weight= 315460, color= 18
	 item 591, weight= 316124, color= 11
	 item 592, weight= 316484, color= 7
	 item 593, weight= 316497, color= 11
	 item 594, weight= 316539, color= 4
	 item 595, weight= 316594, color= 17
	 item 596, weight= 316687, color= 13
	 item 597, weight= 316920, color= 11
	 item 598, weight= 317115, color= 13
	 item 599, weight= 317475, color= 11
	 item 600, weight= 317672, color= 11
	 item 601, weight= 318097, color= 15
	 item 602, weight= 318275, color= 14
	 item 603, weight= 318452, color= 16
	 item 604, weight= 318892, color= 10
	 item 605, weight= 319250, color= 11
	 item 606, weight= 319657, color= 7
	 item 607, weight= 320086, color= 3
	 item 608, weight= 320322, color= 2
	 item 609, weight= 320378, color= 15
	 item 610, weight= 320440, color= 1
	 item 611, weight= 321005, color= 6
	 item 612, weight= 321035, color= 18
	 item 613, weight= 321696, color= 8
	 item 614, weight= 321953, color= 8
	 item 615, weight= 324623, color= 8
	 item 616, weight= 324691, color= 5
	 item 617, weight= 325031, color= 15
	 item 618, weight= 325246, color= 9
	 item 619, weight= 325549, color= 3
	 item 620, weight= 325690, color= 13
	 item 621, weight= 325780, color= 16
	 item 622, weight= 326280, color= 2
	 item 623, weight= 326639, color= 5
	 item 624, weight= 326859, color= 8
	 item 625, weight= 327156, color= 3
	 item 626, weight= 327216, color= 8
	 item 627, weight= 327283, color= 4
	 item 628, weight= 327781, color= 7
	 item 629, weight= 327805, color= 1
	 item 630, weight= 327866, color= 12
	 item 631, weight= 329483, color= 1
	 item 632, weight= 329948, color= 11
	 item 633, weight= 330487, color= 7
	 item 634, weight= 330697, color= 16
	 item 635, weight= 330832, color= 12
	 item 636, weight= 330945, color= 14
	 item 637, weight= 330946, color= 19
	 item 638, weight= 331245, color= 8
	 item 639, weight= 332106, color= 6
	 item 640, weight= 332201, color= 3
	 item 641, weight= 332312, color= 14
	 item 642, weight= 333268, color= 6
	 item 643, weight= 333350, color= 2
	 item 644, weight= 333477, color= 17
	 item 645, weight= 333767, color= 10
	 item 646, weight= 333782, color= 13
	 item 647, weight= 334000, color= 16
	 item 648, weight= 334067, color= 4
	 item 649, weight= 334679, color= 8
	 item 650, weight= 334757, color= 13
	 item 651, weight= 334761, color= 7
	 item 652, weight= 334849, color= 13
	 item 653, weight= 334915, color= 16
	 item 654, weight= 337058, color= 1
	 item 655, weight= 337268, color= 10
	 item 656, weight= 337351, color= 11
	 item 657, weight= 337736, color= 3
	 item 658, weight= 337878, color= 15
	 item 659, weight= 338001, color= 7
	 item 660, weight= 338089, color= 1
	 item 661, weight= 338524, color= 11
	 item 662, weight= 338655, color= 10
	 item 663, weight= 338907, color= 15
	 item 664, weight= 339547, color= 8
	 item 665, weight= 340011, color= 3
	 item 666, weight= 340454, color= 10
	 item 667, weight= 340583, color= 9
	 item 668, weight= 341044, color= 18
	 item 669, weight= 341336, color= 9
	 item 670, weight= 343045, color= 6
	 item 671, weight= 343434, color= 0
	 item 672, weight= 344445, color= 19
	 item 673, weight= 344893, color= 4
	 item 674, weight= 345558, color= 5
	 item 675, weight= 345800, color= 12
	 item 676, weight= 345989, color= 13
	 item 677, weight= 346645, color= 6
	 item 678, weight= 346862, color= 5
	 item 679, weight= 346871, color= 12
	 item 680, weight= 347091, color= 9
	 item 681, weight= 347111, color= 14
	 item 682, weight= 347151, color= 18
	 item 683, weight= 347959, color= 11
	 item 684, weight= 348019, color= 17
	 item 685, weight= 348568, color= 9
	 item 686, weight= 349129, color= 10
	 item 687, weight= 349417, color= 4
	 item 688, weight= 349582, color= 15
	 item 689, weight= 349706, color= 12
	 item 690, weight= 350206, color= 8
	 item 691, weight= 350837, color= 7
	 item 692, weight= 350881, color= 15
	 item 693, weight= 351746, color= 2
	 item 694, weight= 352379, color= 13
	 item 695, weight= 352473, color= 18
	 item 696, weight= 353044, color= 15
	 item 697, weight= 353967, color= 17
	 item 698, weight= 354183, color= 4
	 item 699, weight= 354378, color= 5
	 item 700, weight= 354445, color= 18
	 item 701, weight= 354850, color= 13
	 item 702, weight= 354888, color= 0
	 item 703, weight= 355143, color= 1
	 item 704, weight= 355273, color= 3
	 item 705, weight= 355406, color= 12
	 item 706, weight= 355411, color= 16
	 item 707, weight= 356206, color= 5
	 item 708, weight= 356619, color= 0
	 item 709, weight= 356676, color= 12
	 item 710, weight= 357722, color= 17
	 item 711, weight= 357890, color= 4
	 item 712, weight= 358193, color= 11
	 item 713, weight= 358473, color= 17
	 item 714, weight= 358703, color= 8
	 item 715, weight= 358770, color= 16
	 item 716, weight= 358856, color= 11
	 item 717, weight= 359104, color= 4
	 item 718, weight= 359152, color= 2
	 item 719, weight= 359285, color= 5
	 item 720, weight= 359535, color= 19
	 item 721, weight= 359556, color= 16
	 item 722, weight= 360107, color= 3
	 item 723, weight= 360973, color= 9
	 item 724, weight= 361036, color= 7
	 item 725, weight= 361561, color= 2
	 item 726, weight= 361612, color= 7
	 item 727, weight= 361681, color= 12
	 item 728, weight= 362097, color= 2
	 item 729, weight= 362108, color= 17
	 item 730, weight= 362356, color= 1
	 item 731, weight= 362520, color= 18
	 item 732, weight= 362832, color= 1
	 item 733, weight= 363013, color= 7
	 item 734, weight= 363830, color= 5
	 item 735, weight= 364060, color= 10
	 item 736, weight= 364074, color= 4
	 item 737, weight= 364101, color= 11
	 item 738, weight= 364142, color= 2
	 item 739, weight= 364277, color= 2
	 item 740, weight= 364994, color= 2
	 item 741, weight= 365128, color= 5
	 item 742, weight= 365529, color= 2
	 item 743, weight= 365747, color= 2
	 item 744, weight= 367132, color= 0
	 item 745, weight= 367490, color= 8
	 item 746, weight= 367520, color= 14
	 item 747, weight= 367608, color= 11
	 item 748, weight= 367800, color= 16
	 item 749, weight= 368239, color= 18
	 item 750, weight= 368542, color= 3
	 item 751, weight= 369453, color= 14
	 item 752, weight= 369490, color= 9
	 item 753, weight= 369688, color= 4
	 item 754, weight= 369991, color= 15
	 item 755, weight= 370038, color= 10
	 item 756, weight= 370584, color= 12
	 item 757, weight= 370918, color= 6
	 item 758, weight= 371070, color= 9
	 item 759, weight= 371455, color= 12
	 item 760, weight= 371750, color= 14
	 item 761, weight= 372300, color= 10
	 item 762, weight= 373093, color= 7
	 item 763, weight= 373588, color= 19
	 item 764, weight= 374078, color= 11
	 item 765, weight= 374467, color= 13
	 item 766, weight= 375037, color= 10
	 item 767, weight= 375909, color= 9
	 item 768, weight= 376289, color= 10
	 item 769, weight= 376371, color= 17
	 item 770, weight= 376627, color= 9
	 item 771, weight= 377079, color= 15
	 item 772, weight= 377319, color= 19
	 item 773, weight= 377880, color= 14
	 item 774, weight= 378269, color= 2
	 item 775, weight= 379233, color= 16
	 item 776, weight= 379624, color= 16
	 item 777, weight= 380282, color= 10
	 item 778, weight= 380429, color= 4
	 item 779, weight= 380681, color= 11
	 item 780, weight= 381192, color= 8
	 item 781, weight= 381298, color= 8
	 item 782, weight= 381462, color= 4
	 item 783, weight= 381602, color= 10
	 item 784, weight= 382069, color= 16
	 item 785, weight= 382212, color= 2
	 item 786, weight= 382423, color= 12
	 item 787, weight= 383040, color= 15
	 item 788, weight= 383088, color= 16
	 item 789, weight= 383252, color= 13
	 item 790, weight= 383489, color= 17
	 item 791, weight= 383868, color= 1
	 item 792, weight= 384263, color= 7
	 item 793, weight= 384801, color= 19
	 item 794, weight= 384974, color= 10
	 item 795, weight= 384993, color= 2
	 item 796, weight= 385309, color= 15
	 item 797, weight= 385767, color= 15
	 item 798, weight= 385901, color= 19
	 item 799, weight= 386003, color= 5
	 item 800, weight= 386385, color= 13
	 item 801, weight= 386523, color= 3
	 item 802, weight= 386685, color= 16
	 item 803, weight= 386961, color= 9
	 item 804, weight= 387072, color= 10
	 item 805, weight= 387272, color= 5
	 item 806, weight= 387536, color= 7
	 item 807, weight= 387944, color= 7
	 item 808, weight= 388930, color= 12
	 item 809, weight= 389288, color= 10
	 item 810, weight= 389638, color= 18
	 item 811, weight= 389809, color= 11
	 item 812, weight= 389876, color= 11
	 item 813, weight= 390121, color= 11
	 item 814, weight= 390421, color= 7
	 item 815, weight= 390560, color= 12
	 item 816, weight= 390595, color= 4
	 item 817, weight= 390670, color= 8
	 item 818, weight= 390909, color= 8
	 item 819, weight= 391201, color= 3
	 item 820, weight= 391344, color= 6
	 item 821, weight= 391930, color= 4
	 item 822, weight= 392225, color= 7
	 item 823, weight= 392299, color= 5
	 item 824, weight= 392380, color= 7
	 item 825, weight= 392442, color= 2
	 item 826, weight= 392828, color= 4
	 item 827, weight= 392977, color= 0
	 item 828, weight= 393146, color= 16
	 item 829, weight= 393564, color= 10
	 item 830, weight= 393914, color= 7
	 item 831, weight= 394600, color= 9
	 item 832, weight= 394900, color= 9
	 item 833, weight= 395435, color= 5
	 item 834, weight= 395444, color= 2
	 item 835, weight= 395626, color= 1
	 item 836, weight= 395644, color= 6
	 item 837, weight= 395838, color= 15
	 item 838, weight= 396246, color= 3
	 item 839, weight= 397299, color= 11
	 item 840, weight= 397846, color= 6
	 item 841, weight= 398113, color= 12
	 item 842, weight= 398204, color= 7
	 item 843, weight= 398507, color= 10
	 item 844, weight= 398676, color= 4
	 item 845, weight= 399078, color= 3
	 item 846, weight= 399248, color= 0
	 item 847, weight= 399372, color= 16
	 item 848, weight= 399820, color= 16
	 item 849, weight= 400170, color= 4
	 item 850, weight= 400655, color= 12
	 item 851, weight= 401021, color= 14
	 item 852, weight= 401379, color= 7
	 item 853, weight= 402103, color= 18
	 item 854, weight= 402148, color= 6
	 item 855, weight= 402453, color= 17
	 item 856, weight= 402757, color= 15
	 item 857, weight= 402769, color= 11
	 item 858, weight= 403426, color= 7
	 item 859, weight= 404280, color= 19
	 item 860, weight= 404737, color= 10
	 item 861, weight= 404896, color= 3
	 item 862, weight= 405253, color= 5
	 item 863, weight= 405678, color= 14
	 item 864, weight= 406182, color= 10
	 item 865, weight= 406217, color= 10
	 item 866, weight= 406363, color= 2
	 item 867, weight= 406637, color= 16
	 item 868, weight= 406862, color= 9
	 item 869, weight= 406889, color= 5
	 item 870, weight= 407482, color= 9
	 item 871, weight= 407898, color= 17
	 item 872, weight= 408098, color= 3
	 item 873, weight= 409146, color= 14
	 item 874, weight= 409652, color= 12
	 item 875, weight= 409845, color= 4
	 item 876, weight= 409851, color= 6
	 item 877, weight= 409951, color= 14
	 item 878, weight= 410104, color= 3
	 item 879, weight= 410152, color= 15
	 item 880, weight= 410496, color= 3
	 item 881, weight= 410622, color= 16
	 item 882, weight= 411579, color= 14
	 item 883, weight= 412046, color= 9
	 item 884, weight= 412201, color= 19
	 item 885, weight= 412774, color= 17
	 item 886, weight= 413343, color= 3
	 item 887, weight= 413760, color= 4
	 item 888, weight= 414220, color= 11
	 item 889, weight= 414959, color= 9
	 item 890, weight= 414987, color= 9
	 item 891, weight= 415732, color= 9
	 item 892, weight= 415817, color= 0
	 item 893, weight= 416233, color= 11
	 item 894, weight= 416637, color= 9
	 item 895, weight= 416761, color= 14
	 item 896, weight= 416905, color= 4
	 item 897, weight= 417366, color= 15
	 item 898, weight= 418318, color= 14
	 item 899, weight= 418508, color= 10
	 item 900, weight= 418679, color= 16
	 item 901, weight= 419401, color= 19
	 item 902, weight= 420780, color= 12
	 item 903, weight= 421080, color= 2
	 item 904, weight= 421496, color= 16
	 item 905, weight= 421563, color= 8
	 item 906, weight= 421662, color= 16
	 item 907, weight= 421910, color= 2
	 item 908, weight= 421977, color= 10
	 item 909, weight= 422015, color= 18
	 item 910, weight= 422090, color= 8
	 item 911, weight= 422867, color= 10
	 item 912, weight= 423805, color= 0
	 item 913, weight= 424477, color= 15
	 item 914, weight= 424549, color= 7
	 item 915, weight= 424816, color= 8
	 item 916, weight= 425455, color= 18
	 item 917, weight= 425550, color= 11
	 item 918, weight= 426343, color= 9
	 item 919, weight= 426869, color= 8
	 item 920, weight= 426899, color= 2
	 item 921, weight= 427085, color= 2
	 item 922, weight= 428699, color= 16
	 item 923, weight= 428890, color= 12
	 item 924, weight= 428912, color= 18
	 item 925, weight= 429581, color= 1
	 item 926, weight= 429668, color= 7
	 item 927, weight= 429696, color= 15
	 item 928, weight= 430024, color= 4
	 item 929, weight= 430286, color= 19
	 item 930, weight= 430426, color= 15
	 item 931, weight= 430822, color= 17
	 item 932, weight= 431459, color= 5
	 item 933, weight= 431925, color= 12
	 item 934, weight= 432173, color= 17
	 item 935, weight= 432585, color= 19
	 item 936, weight= 432654, color= 16
	 item 937, weight= 432788, color= 17
	 item 938, weight= 433206, color= 18
	 item 939, weight= 433652, color= 4
	 item 940, weight= 433812, color= 9
	 item 941, weight= 434167, color= 4
	 item 942, weight= 434219, color= 15
	 item 943, weight= 435360, color= 15
	 item 944, weight= 435387, color= 13
	 item 945, weight= 435420, color= 2
	 item 946, weight= 435765, color= 4
	 item 947, weight= 435791, color= 11
	 item 948, weight= 436557, color= 13
	 item 949, weight= 437482, color= 10
	 item 950, weight= 437572, color= 8
	 item 951, weight= 437762, color= 14
	 item 952, weight= 437965, color= 19
	 item 953, weight= 438425, color= 12
	 item 954, weight= 438591, color= 17
	 item 955, weight= 439800, color= 8
	 item 956, weight= 440615, color= 10
	 item 957, weight= 440673, color= 5
	 item 958, weight= 440930, color= 5
	 item 959, weight= 441086, color= 9
	 item 960, weight= 441240, color= 7
	 item 961, weight= 441714, color= 19
	 item 962, weight= 441792, color= 18
	 item 963, weight= 442099, color= 5
	 item 964, weight= 442432, color= 5
	 item 965, weight= 442478, color= 3
	 item 966, weight= 442676, color= 0
	 item 967, weight= 442821, color= 7
	 item 968, weight= 443016, color= 8
	 item 969, weight= 443650, color= 3
	 item 970, weight= 443757, color= 6
	 item 971, weight= 443879, color= 11
	 item 972, weight= 443889, color= 7
	 item 973, weight= 445275, color= 12
	 item 974, weight= 445674, color= 13
	 item 975, weight= 445810, color= 18
	 item 976, weight= 446208, color= 15
	 item 977, weight= 447149, color= 19
	 item 978, weight= 447982, color= 19
	 item 979, weight= 448228, color= 0
	 item 980, weight= 448665, color= 2
	 item 981, weight= 448922, color= 17
	 item 982, weight= 449277, color= 2
	 item 983, weight= 450379, color= 13
	 item 984, weight= 450450, color= 0
	 item 985, weight= 450609, color= 19
	 item 986, weight= 450744, color= 12
	 item 987, weight= 450864, color= 0
	 item 988, weight= 451169, color= 6
	 item 989, weight= 451572, color= 10
	 item 990, weight= 452422, color= 8
	 item 991, weight= 453383, color= 14
	 item 992, weight= 453940, color= 4
	 item 993, weight= 455145, color= 17
	 item 994, weight= 455222, color= 18
	 item 995, weight= 455434, color= 16
	 item 996, weight= 455704, color= 13
	 item 997, weight= 456056, color= 8
	 item 998, weight= 456729, color= 9
	 item 999, weight= 457488, color= 19
	 item 1000, weight= 457574, color= 5
	 item 1001, weight= 458055, color= 8
	 item 1002, weight= 458129, color= 16
	 item 1003, weight= 458158, color= 12
	 item 1004, weight= 458717, color= 11
	 item 1005, weight= 460460, color= 10
	 item 1006, weight= 460634, color= 14
	 item 1007, weight= 462729, color= 9
	 item 1008, weight= 462749, color= 7
	 item 1009, weight= 462923, color= 1
	 item 1010, weight= 462931, color= 18
	 item 1011, weight= 463313, color= 5
	 item 1012, weight= 464381, color= 8
	 item 1013, weight= 464806, color= 11
	 item 1014, weight= 464934, color= 1
	 item 1015, weight= 465217, color= 14
	 item 1016, weight= 465509, color= 12
	 item 1017, weight= 465732, color= 2
	 item 1018, weight= 465841, color= 0
	 item 1019, weight= 465841, color= 7
	 item 1020, weight= 465952, color= 9
	 item 1021, weight= 467575, color= 0
	 item 1022, weight= 467787, color= 15
	 item 1023, weight= 468176, color= 15
	 item 1024, weight= 469051, color= 10
	 item 1025, weight= 469669, color= 16
	 item 1026, weight= 470210, color= 0
	 item 1027, weight= 470387, color= 19
	 item 1028, weight= 470400, color= 13
	 item 1029, weight= 470734, color= 10
	 item 1030, weight= 471282, color= 2
	 item 1031, weight= 471305, color= 0
	 item 1032, weight= 471335, color= 4
	 item 1033, weight= 471511, color= 13
	 item 1034, weight= 471867, color= 1
	 item 1035, weight= 471945, color= 10
	 item 1036, weight= 472411, color= 19
	 item 1037, weight= 472605, color= 10
	 item 1038, weight= 472827, color= 10
	 item 1039, weight= 472875, color= 8
	 item 1040, weight= 473370, color= 4
	 item 1041, weight= 473762, color= 12
	 item 1042, weight= 474146, color= 5
	 item 1043, weight= 474360, color= 8
	 item 1044, weight= 474704, color= 13
	 item 1045, weight= 474870, color= 15
	 item 1046, weight= 475098, color= 16
	 item 1047, weight= 475213, color= 18
	 item 1048, weight= 476234, color= 13
	 item 1049, weight= 476342, color= 4
	 item 1050, weight= 477293, color= 9
	 item 1051, weight= 477459, color= 14
	 item 1052, weight= 477477, color= 7
	 item 1053, weight= 477679, color= 11
	 item 1054, weight= 477918, color= 11
	 item 1055, weight= 478299, color= 15
	 item 1056, weight= 478764, color= 18
	 item 1057, weight= 478774, color= 2
	 item 1058, weight= 478820, color= 5
	 item 1059, weight= 479007, color= 10
	 item 1060, weight= 479408, color= 6
	 item 1061, weight= 479478, color= 6
	 item 1062, weight= 479897, color= 5
	 item 1063, weight= 480410, color= 11
	 item 1064, weight= 480961, color= 13
	 item 1065, weight= 481771, color= 13
	 item 1066, weight= 482725, color= 15
	 item 1067, weight= 482941, color= 13
	 item 1068, weight= 483069, color= 0
	 item 1069, weight= 483269, color= 8
	 item 1070, weight= 483610, color= 12
	 item 1071, weight= 484440, color= 2
	 item 1072, weight= 484894, color= 9
	 item 1073, weight= 484956, color= 3
	 item 1074, weight= 485289, color= 0
	 item 1075, weight= 486418, color= 18
	 item 1076, weight= 486589, color= 3
	 item 1077, weight= 487280, color= 6
	 item 1078, weight= 487395, color= 11
	 item 1079, weight= 487443, color= 18
	 item 1080, weight= 487538, color= 16
	 item 1081, weight= 487630, color= 7
	 item 1082, weight= 487891, color= 4
	 item 1083, weight= 487989, color= 6
	 item 1084, weight= 488040, color= 15
	 item 1085, weight= 488774, color= 11
	 item 1086, weight= 489627, color= 16
	 item 1087, weight= 489676, color= 11
	 item 1088, weight= 490180, color= 8
	 item 1089, weight= 490268, color= 17
	 item 1090, weight= 490810, color= 19
	 item 1091, weight= 491116, color= 1
	 item 1092, weight= 491907, color= 0
	 item 1093, weight= 492026, color= 19
	 item 1094, weight= 492229, color= 9
	 item 1095, weight= 492593, color= 3
	 item 1096, weight= 492882, color= 14
	 item 1097, weight= 492915, color= 5
	 item 1098, weight= 493456, color= 4
	 item 1099, weight= 493498, color= 8
	 item 1100, weight= 493733, color= 14
	 item 1101, weight= 493793, color= 9
	 item 1102, weight= 493806, color= 15
	 item 1103, weight= 494458, color= 11
	 item 1104, weight= 494926, color= 19
	 item 1105, weight= 496276, color= 8
	 item 1106, weight= 496575, color= 14
	 item 1107, weight= 496961, color= 12
	 item 1108, weight= 497194, color= 12
	 item 1109, weight= 497997, color= 0
	 item 1110, weight= 498072, color= 15
	 item 1111, weight= 498423, color= 16
	 item 1112, weight= 498686, color= 8
	 item 1113, weight= 498833, color= 1
	 item 1114, weight= 498897, color= 17
	 item 1115, weight= 499081, color= 13
	 item 1116, weight= 499539, color= 0
	 item 1117, weight= 499607, color= 19
	 item 1118, weight= 499770, color= 16
	 item 1119, weight= 500105, color= 18
	 item 1120, weight= 500346, color= 13
	 item 1121, weight= 500677, color= 3
	 item 1122, weight= 500871, color= 7
	 item 1123, weight= 501361, color= 2
	 item 1124, weight= 501586, color= 2
	 item 1125, weight= 501681, color= 14
	 item 1126, weight= 501841, color= 3
	 item 1127, weight= 502102, color= 6
	 item 1128, weight= 502166, color= 7
	 item 1129, weight= 502269, color= 19
	 item 1130, weight= 502589, color= 0
	 item 1131, weight= 502793, color= 16
	 item 1132, weight= 502814, color= 7
	 item 1133, weight= 503689, color= 6
	 item 1134, weight= 503818, color= 9
	 item 1135, weight= 504064, color= 2
	 item 1136, weight= 504322, color= 0
	 item 1137, weight= 504438, color= 4
	 item 1138, weight= 504604, color= 12
	 item 1139, weight= 505736, color= 16
	 item 1140, weight= 505896, color= 1
	 item 1141, weight= 505962, color= 6
	 item 1142, weight= 506025, color= 18
	 item 1143, weight= 506150, color= 17
	 item 1144, weight= 506913, color= 2
	 item 1145, weight= 507689, color= 6
	 item 1146, weight= 507726, color= 3
	 item 1147, weight= 508040, color= 17
	 item 1148, weight= 508157, color= 12
	 item 1149, weight= 508381, color= 17
	 item 1150, weight= 508437, color= 15
	 item 1151, weight= 508697, color= 16
	 item 1152, weight= 508781, color= 5
	 item 1153, weight= 508921, color= 11
	 item 1154, weight= 509283, color= 11
	 item 1155, weight= 509303, color= 18
	 item 1156, weight= 509690, color= 9
	 item 1157, weight= 509861, color= 8
	 item 1158, weight= 510165, color= 9
	 item 1159, weight= 510231, color= 5
	 item 1160, weight= 510661, color= 18
	 item 1161, weight= 510696, color= 0
	 item 1162, weight= 510757, color= 3
	 item 1163, weight= 511162, color= 3
	 item 1164, weight= 511192, color= 4
	 item 1165, weight= 512038, color= 5
	 item 1166, weight= 512294, color= 17
	 item 1167, weight= 512650, color= 8
	 item 1168, weight= 512895, color= 9
	 item 1169, weight= 513025, color= 4
	 item 1170, weight= 513401, color= 15
	 item 1171, weight= 513923, color= 16
	 item 1172, weight= 514032, color= 5
	 item 1173, weight= 514461, color= 7
	 item 1174, weight= 514635, color= 7
	 item 1175, weight= 515148, color= 4
	 item 1176, weight= 515331, color= 5
	 item 1177, weight= 515358, color= 11
	 item 1178, weight= 515953, color= 15
	 item 1179, weight= 516264, color= 8
	 item 1180, weight= 516379, color= 3
	 item 1181, weight= 516383, color= 18
	 item 1182, weight= 516596, color= 18
	 item 1183, weight= 517036, color= 6
	 item 1184, weight= 517321, color= 19
	 item 1185, weight= 517814, color= 8
	 item 1186, weight= 518268, color= 14
	 item 1187, weight= 518391, color= 1
	 item 1188, weight= 519075, color= 19
	 item 1189, weight= 519737, color= 15
	 item 1190, weight= 520332, color= 11
	 item 1191, weight= 520489, color= 10
	 item 1192, weight= 520859, color= 19
	 item 1193, weight= 520948, color= 13
	 item 1194, weight= 521231, color= 9
	 item 1195, weight= 521310, color= 5
	 item 1196, weight= 521560, color= 3
	 item 1197, weight= 521635, color= 13
	 item 1198, weight= 521735, color= 3
	 item 1199, weight= 523005, color= 16
	 item 1200, weight= 523311, color= 8
	 item 1201, weight= 523592, color= 17
	 item 1202, weight= 523661, color= 2
	 item 1203, weight= 523829, color= 12
	 item 1204, weight= 524058, color= 13
	 item 1205, weight= 524076, color= 14
	 item 1206, weight= 525155, color= 8
	 item 1207, weight= 525742, color= 1
	 item 1208, weight= 526163, color= 5
	 item 1209, weight= 526199, color= 12
	 item 1210, weight= 526277, color= 8
	 item 1211, weight= 526490, color= 1
	 item 1212, weight= 526719, color= 18
	 item 1213, weight= 527851, color= 16
	 item 1214, weight= 527966, color= 19
	 item 1215, weight= 528116, color= 7
	 item 1216, weight= 528442, color= 9
	 item 1217, weight= 529301, color= 14
	 item 1218, weight= 529344, color= 12
	 item 1219, weight= 529395, color= 18
	 item 1220, weight= 529462, color= 18
	 item 1221, weight= 529709, color= 19
	 item 1222, weight= 530347, color= 5
	 item 1223, weight= 530428, color= 16
	 item 1224, weight= 530589, color= 11
	 item 1225, weight= 530916, color= 5
	 item 1226, weight= 530954, color= 19
	 item 1227, weight= 530970, color= 18
	 item 1228, weight= 531397, color= 13
	 item 1229, weight= 531882, color= 6
	 item 1230, weight= 532541, color= 5
	 item 1231, weight= 533044, color= 15
	 item 1232, weight= 533534, color= 19
	 item 1233, weight= 533744, color= 16
	 item 1234, weight= 533959, color= 5
	 item 1235, weight= 534804, color= 12
	 item 1236, weight= 534992, color= 10
	 item 1237, weight= 535176, color= 3
	 item 1238, weight= 535362, color= 9
	 item 1239, weight= 535495, color= 4
	 item 1240, weight= 535587, color= 16
	 item 1241, weight= 535602, color= 5
	 item 1242, weight= 535775, color= 10
	 item 1243, weight= 536367, color= 1
	 item 1244, weight= 536561, color= 16
	 item 1245, weight= 537176, color= 18
	 item 1246, weight= 537232, color= 1
	 item 1247, weight= 538156, color= 4
	 item 1248, weight= 538836, color= 0
	 item 1249, weight= 539498, color= 14
	 item 1250, weight= 540078, color= 9
	 item 1251, weight= 540088, color= 18
	 item 1252, weight= 540386, color= 9
	 item 1253, weight= 540899, color= 18
	 item 1254, weight= 541023, color= 8
	 item 1255, weight= 541193, color= 0
	 item 1256, weight= 541808, color= 7
	 item 1257, weight= 542130, color= 7
	 item 1258, weight= 542145, color= 16
	 item 1259, weight= 542275, color= 15
	 item 1260, weight= 542276, color= 14
	 item 1261, weight= 542544, color= 17
	 item 1262, weight= 542883, color= 14
	 item 1263, weight= 543454, color= 13
	 item 1264, weight= 543947, color= 14
	 item 1265, weight= 544137, color= 12
	 item 1266, weight= 544742, color= 13
	 item 1267, weight= 545226, color= 4
	 item 1268, weight= 545618, color= 15
	 item 1269, weight= 545684, color= 1
	 item 1270, weight= 546235, color= 8
	 item 1271, weight= 546427, color= 1
	 item 1272, weight= 546657, color= 13
	 item 1273, weight= 546881, color= 12
	 item 1274, weight= 546906, color= 16
	 item 1275, weight= 547204, color= 7
	 item 1276, weight= 547308, color= 4
	 item 1277, weight= 547608, color= 16
	 item 1278, weight= 547798, color= 11
	 item 1279, weight= 548181, color= 17
	 item 1280, weight= 548211, color= 5
	 item 1281, weight= 548642, color= 16
	 item 1282, weight= 548758, color= 16
	 item 1283, weight= 549198, color= 15
	 item 1284, weight= 549436, color= 10
	 item 1285, weight= 549615, color= 9
	 item 1286, weight= 549740, color= 6
	 item 1287, weight= 550098, color= 7
	 item 1288, weight= 550467, color= 19
	 item 1289, weight= 550633, color= 19
	 item 1290, weight= 550836, color= 1
	 item 1291, weight= 550904, color= 12
	 item 1292, weight= 551184, color= 18
	 item 1293, weight= 551681, color= 16
	 item 1294, weight= 552174, color= 17
	 item 1295, weight= 552759, color= 11
	 item 1296, weight= 553300, color= 12
	 item 1297, weight= 553387, color= 2
	 item 1298, weight= 553722, color= 5
	 item 1299, weight= 553884, color= 18
	 item 1300, weight= 553887, color= 5
	 item 1301, weight= 554399, color= 7
	 item 1302, weight= 554874, color= 11
	 item 1303, weight= 555091, color= 13
	 item 1304, weight= 555805, color= 5
	 item 1305, weight= 556028, color= 4
	 item 1306, weight= 556167, color= 17
	 item 1307, weight= 556178, color= 14
	 item 1308, weight= 556231, color= 19
	 item 1309, weight= 556441, color= 9
	 item 1310, weight= 557178, color= 3
	 item 1311, weight= 557180, color= 0
	 item 1312, weight= 557337, color= 9
	 item 1313, weight= 557368, color= 12
	 item 1314, weight= 557559, color= 6
	 item 1315, weight= 557582, color= 7
	 item 1316, weight= 557723, color= 6
	 item 1317, weight= 557951, color= 19
	 item 1318, weight= 558070, color= 9
	 item 1319, weight= 558491, color= 10
	 item 1320, weight= 559332, color= 3
	 item 1321, weight= 559831, color= 8
	 item 1322, weight= 559999, color= 6
	 item 1323, weight= 560160, color= 17
	 item 1324, weight= 560307, color= 4
	 item 1325, weight= 560469, color= 14
	 item 1326, weight= 560531, color= 12
	 item 1327, weight= 561263, color= 17
	 item 1328, weight= 561340, color= 4
	 item 1329, weight= 561661, color= 6
	 item 1330, weight= 562036, color= 7
	 item 1331, weight= 562245, color= 4
	 item 1332, weight= 562542, color= 0
	 item 1333, weight= 563195, color= 16
	 item 1334, weight= 563529, color= 12
	 item 1335, weight= 563812, color= 18
	 item 1336, weight= 564197, color= 8
	 item 1337, weight= 564203, color= 16
	 item 1338, weight= 564353, color= 7
	 item 1339, weight= 565047, color= 14
	 item 1340, weight= 565615, color= 9
	 item 1341, weight= 565817, color= 17
	 item 1342, weight= 565858, color= 15
	 item 1343, weight= 566159, color= 7
	 item 1344, weight= 566500, color= 15
	 item 1345, weight= 566840, color= 2
	 item 1346, weight= 568670, color= 1
	 item 1347, weight= 569327, color= 18
	 item 1348, weight= 569831, color= 9
	 item 1349, weight= 569936, color= 3
	 item 1350, weight= 570474, color= 13
	 item 1351, weight= 570524, color= 6
	 item 1352, weight= 570913, color= 0
	 item 1353, weight= 570988, color= 11
	 item 1354, weight= 571337, color= 5
	 item 1355, weight= 571553, color= 3
	 item 1356, weight= 571854, color= 15
	 item 1357, weight= 572174, color= 13
	 item 1358, weight= 572249, color= 5
	 item 1359, weight= 572484, color= 15
	 item 1360, weight= 572727, color= 4
	 item 1361, weight= 573014, color= 14
	 item 1362, weight= 573256, color= 15
	 item 1363, weight= 573436, color= 4
	 item 1364, weight= 573524, color= 17
	 item 1365, weight= 574013, color= 7
	 item 1366, weight= 575384, color= 10
	 item 1367, weight= 575486, color= 19
	 item 1368, weight= 576135, color= 12
	 item 1369, weight= 577840, color= 3
	 item 1370, weight= 577848, color= 0
	 item 1371, weight= 577981, color= 16
	 item 1372, weight= 578067, color= 16
	 item 1373, weight= 578262, color= 7
	 item 1374, weight= 578542, color= 8
	 item 1375, weight= 578919, color= 6
	 item 1376, weight= 579077, color= 8
	 item 1377, weight= 579202, color= 14
	 item 1378, weight= 580020, color= 11
	 item 1379, weight= 580474, color= 6
	 item 1380, weight= 580576, color= 6
	 item 1381, weight= 581274, color= 12
	 item 1382, weight= 582700, color= 19
	 item 1383, weight= 582790, color= 0
	 item 1384, weight= 583385, color= 13
	 item 1385, weight= 583447, color= 5
	 item 1386, weight= 583611, color= 4
	 item 1387, weight= 583676, color= 9
	 item 1388, weight= 583815, color= 17
	 item 1389, weight= 584039, color= 11
	 item 1390, weight= 584530, color= 18
	 item 1391, weight= 584625, color= 0
	 item 1392, weight= 584971, color= 7
	 item 1393, weight= 585325, color= 4
	 item 1394, weight= 585384, color= 11
	 item 1395, weight= 585625, color= 5
	 item 1396, weight= 585744, color= 3
	 item 1397, weight= 586536, color= 19
	 item 1398, weight= 586981, color= 10
	 item 1399, weight= 587157, color= 15
	 item 1400, weight= 587911, color= 9
	 item 1401, weight= 587937, color= 17
	 item 1402, weight= 588185, color= 0
	 item 1403, weight= 588255, color= 9
	 item 1404, weight= 588321, color= 18
	 item 1405, weight= 588834, color= 19
	 item 1406, weight= 588897, color= 16
	 item 1407, weight= 589053, color= 16
	 item 1408, weight= 589513, color= 16
	 item 1409, weight= 589636, color= 5
	 item 1410, weight= 589873, color= 16
	 item 1411, weight= 590017, color= 9
	 item 1412, weight= 590365, color= 17
	 item 1413, weight= 590581, color= 15
	 item 1414, weight= 590584, color= 18
	 item 1415, weight= 590743, color= 0
	 item 1416, weight= 590879, color= 10
	 item 1417, weight= 591098, color= 8
	 item 1418, weight= 591299, color= 8
	 item 1419, weight= 591356, color= 1
	 item 1420, weight= 591578, color= 4
	 item 1421, weight= 592768, color= 2
	 item 1422, weight= 592841, color= 17
	 item 1423, weight= 592899, color= 2
	 item 1424, weight= 593014, color= 11
	 item 1425, weight= 593940, color= 5
	 item 1426, weight= 594015, color= 8
	 item 1427, weight= 594025, color= 4
	 item 1428, weight= 594897, color= 1
	 item 1429, weight= 595266, color= 5
	 item 1430, weight= 595835, color= 9
	 item 1431, weight= 596859, color= 6
	 item 1432, weight= 597016, color= 12
	 item 1433, weight= 597180, color= 16
	 item 1434, weight= 597475, color= 19
	 item 1435, weight= 598047, color= 5
	 item 1436, weight= 598062, color= 14
	 item 1437, weight= 598989, color= 7
	 item 1438, weight= 599160, color= 3
	 item 1439, weight= 599195, color= 19
	 item 1440, weight= 599551, color= 9
	 item 1441, weight= 600794, color= 4
	 item 1442, weight= 601549, color= 13
	 item 1443, weight= 601636, color= 12
	 item 1444, weight= 601714, color= 9
	 item 1445, weight= 601755, color= 4
	 item 1446, weight= 602437, color= 13
	 item 1447, weight= 602466, color= 14
	 item 1448, weight= 602482, color= 12
	 item 1449, weight= 602777, color= 18
	 item 1450, weight= 602972, color= 6
	 item 1451, weight= 602976, color= 18
	 item 1452, weight= 603403, color= 10
	 item 1453, weight= 603618, color= 18
	 item 1454, weight= 603879, color= 16
	 item 1455, weight= 604008, color= 0
	 item 1456, weight= 604843, color= 6
	 item 1457, weight= 605545, color= 19
	 item 1458, weight= 605663, color= 7
	 item 1459, weight= 605753, color= 13
	 item 1460, weight= 605821, color= 1
	 item 1461, weight= 606121, color= 0
	 item 1462, weight= 606142, color= 12
	 item 1463, weight= 606253, color= 8
	 item 1464, weight= 606328, color= 5
	 item 1465, weight= 606537, color= 18
	 item 1466, weight= 606569, color= 19
	 item 1467, weight= 606589, color= 9
	 item 1468, weight= 606745, color= 0
	 item 1469, weight= 607320, color= 6
	 item 1470, weight= 607539, color= 5
	 item 1471, weight= 607920, color= 5
	 item 1472, weight= 608535, color= 19
	 item 1473, weight= 608893, color= 13
	 item 1474, weight= 609443, color= 14
	 item 1475, weight= 609587, color= 14
	 item 1476, weight= 610605, color= 5
	 item 1477, weight= 611298, color= 15
	 item 1478, weight= 612049, color= 4
	 item 1479, weight= 612510, color= 1
	 item 1480, weight= 612727, color= 15
	 item 1481, weight= 612862, color= 5
	 item 1482, weight= 612949, color= 10
	 item 1483, weight= 613298, color= 1
	 item 1484, weight= 613887, color= 7
	 item 1485, weight= 614303, color= 1
	 item 1486, weight= 614825, color= 7
	 item 1487, weight= 615486, color= 19
	 item 1488, weight= 616307, color= 16
	 item 1489, weight= 616361, color= 0
	 item 1490, weight= 616658, color= 2
	 item 1491, weight= 616820, color= 11
	 item 1492, weight= 617267, color= 17
	 item 1493, weight= 617570, color= 1
	 item 1494, weight= 618580, color= 1
	 item 1495, weight= 618623, color= 6
	 item 1496, weight= 618796, color= 2
	 item 1497, weight= 618923, color= 9
	 item 1498, weight= 619471, color= 5
	 item 1499, weight= 619478, color= 5
	 item 1500, weight= 619531, color= 17
	 item 1501, weight= 619851, color= 2
	 item 1502, weight= 620216, color= 1
	 item 1503, weight= 620408, color= 17
	 item 1504, weight= 620477, color= 15
	 item 1505, weight= 621882, color= 8
	 item 1506, weight= 622843, color= 5
	 item 1507, weight= 623361, color= 14
	 item 1508, weight= 623697, color= 19
	 item 1509, weight= 624036, color= 19
	 item 1510, weight= 624051, color= 7
	 item 1511, weight= 624228, color= 19
	 item 1512, weight= 624974, color= 15
	 item 1513, weight= 625120, color= 15
	 item 1514, weight= 625208, color= 13
	 item 1515, weight= 625408, color= 9
	 item 1516, weight= 625441, color= 3
	 item 1517, weight= 626333, color= 2
	 item 1518, weight= 627257, color= 9
	 item 1519, weight= 627779, color= 7
	 item 1520, weight= 628219, color= 16
	 item 1521, weight= 628503, color= 17
	 item 1522, weight= 628616, color= 1
	 item 1523, weight= 629270, color= 19
	 item 1524, weight= 629371, color= 11
	 item 1525, weight= 629445, color= 3
	 item 1526, weight= 629500, color= 11
	 item 1527, weight= 629525, color= 16
	 item 1528, weight= 629655, color= 3
	 item 1529, weight= 629777, color= 18
	 item 1530, weight= 629980, color= 8
	 item 1531, weight= 630370, color= 3
	 item 1532, weight= 630381, color= 10
	 item 1533, weight= 631463, color= 16
	 item 1534, weight= 632266, color= 4
	 item 1535, weight= 632274, color= 9
	 item 1536, weight= 632397, color= 15
	 item 1537, weight= 632976, color= 19
	 item 1538, weight= 633887, color= 8
	 item 1539, weight= 633961, color= 14
	 item 1540, weight= 634560, color= 9
	 item 1541, weight= 635116, color= 12
	 item 1542, weight= 635955, color= 15
	 item 1543, weight= 636063, color= 18
	 item 1544, weight= 636615, color= 7
	 item 1545, weight= 636647, color= 9
	 item 1546, weight= 636684, color= 18
	 item 1547, weight= 636842, color= 9
	 item 1548, weight= 636867, color= 17
	 item 1549, weight= 637547, color= 15
	 item 1550, weight= 637683, color= 3
	 item 1551, weight= 637722, color= 2
	 item 1552, weight= 637786, color= 7
	 item 1553, weight= 637906, color= 15
	 item 1554, weight= 637921, color= 9
	 item 1555, weight= 638117, color= 1
	 item 1556, weight= 638197, color= 2
	 item 1557, weight= 638213, color= 12
	 item 1558, weight= 638554, color= 17
	 item 1559, weight= 638832, color= 14
	 item 1560, weight= 638931, color= 3
	 item 1561, weight= 639037, color= 18
	 item 1562, weight= 639053, color= 19
	 item 1563, weight= 639397, color= 5
	 item 1564, weight= 639809, color= 16
	 item 1565, weight= 639997, color= 18
	 item 1566, weight= 640585, color= 7
	 item 1567, weight= 640676, color= 17
	 item 1568, weight= 640827, color= 19
	 item 1569, weight= 641988, color= 7
	 item 1570, weight= 641997, color= 9
	 item 1571, weight= 642117, color= 6
	 item 1572, weight= 642339, color= 10
	 item 1573, weight= 642452, color= 5
	 item 1574, weight= 643180, color= 5
	 item 1575, weight= 643222, color= 12
	 item 1576, weight= 643651, color= 12
	 item 1577, weight= 644071, color= 19
	 item 1578, weight= 644121, color= 5
	 item 1579, weight= 644136, color= 14
	 item 1580, weight= 644620, color= 3
	 item 1581, weight= 644768, color= 18
	 item 1582, weight= 644845, color= 16
	 item 1583, weight= 646402, color= 6
	 item 1584, weight= 646584, color= 15
	 item 1585, weight= 646769, color= 9
	 item 1586, weight= 647767, color= 19
	 item 1587, weight= 647914, color= 18
	 item 1588, weight= 647978, color= 7
	 item 1589, weight= 648184, color= 16
	 item 1590, weight= 649432, color= 0
	 item 1591, weight= 649693, color= 10
	 item 1592, weight= 649694, color= 1
	 item 1593, weight= 649914, color= 2
	 item 1594, weight= 649979, color= 2
	 item 1595, weight= 650209, color= 10
	 item 1596, weight= 650337, color= 16
	 item 1597, weight= 650520, color= 7
	 item 1598, weight= 650549, color= 16
	 item 1599, weight= 650560, color= 19
	 item 1600, weight= 650706, color= 2
	 item 1601, weight= 650813, color= 12
	 item 1602, weight= 650857, color= 11
	 item 1603, weight= 651191, color= 12
	 item 1604, weight= 651274, color= 16
	 item 1605, weight= 652023, color= 8
	 item 1606, weight= 652181, color= 11
	 item 1607, weight= 652264, color= 11
	 item 1608, weight= 652271, color= 1
	 item 1609, weight= 652724, color= 14
	 item 1610, weight= 653401, color= 4
	 item 1611, weight= 653603, color= 4
	 item 1612, weight= 653651, color= 3
	 item 1613, weight= 653869, color= 5
	 item 1614, weight= 653912, color= 17
	 item 1615, weight= 654287, color= 19
	 item 1616, weight= 654853, color= 5
	 item 1617, weight= 655056, color= 19
	 item 1618, weight= 655133, color= 3
	 item 1619, weight= 655249, color= 13
	 item 1620, weight= 655839, color= 11
	 item 1621, weight= 656018, color= 10
	 item 1622, weight= 656546, color= 9
	 item 1623, weight= 656595, color= 1
	 item 1624, weight= 656742, color= 17
	 item 1625, weight= 657279, color= 5
	 item 1626, weight= 657703, color= 7
	 item 1627, weight= 657949, color= 14
	 item 1628, weight= 658240, color= 13
	 item 1629, weight= 658533, color= 0
	 item 1630, weight= 659211, color= 19
	 item 1631, weight= 659533, color= 6
	 item 1632, weight= 659675, color= 7
	 item 1633, weight= 660155, color= 0
	 item 1634, weight= 660331, color= 17
	 item 1635, weight= 660645, color= 2
	 item 1636, weight= 660752, color= 2
	 item 1637, weight= 660882, color= 11
	 item 1638, weight= 662196, color= 18
	 item 1639, weight= 663301, color= 7
	 item 1640, weight= 664476, color= 5
	 item 1641, weight= 664549, color= 15
	 item 1642, weight= 664933, color= 18
	 item 1643, weight= 665493, color= 15
	 item 1644, weight= 665690, color= 1
	 item 1645, weight= 665752, color= 10
	 item 1646, weight= 665946, color= 10
	 item 1647, weight= 666013, color= 2
	 item 1648, weight= 666059, color= 17
	 item 1649, weight= 666735, color= 2
	 item 1650, weight= 667846, color= 2
	 item 1651, weight= 668387, color= 0
	 item 1652, weight= 668406, color= 6
	 item 1653, weight= 668939, color= 14
	 item 1654, weight= 668940, color= 16
	 item 1655, weight= 669085, color= 15
	 item 1656, weight= 669982, color= 12
	 item 1657, weight= 670312, color= 0
	 item 1658, weight= 670547, color= 5
	 item 1659, weight= 671925, color= 10
	 item 1660, weight= 673051, color= 7
	 item 1661, weight= 673396, color= 14
	 item 1662, weight= 673497, color= 5
	 item 1663, weight= 673759, color= 1
	 item 1664, weight= 674345, color= 19
	 item 1665, weight= 675810, color= 4
	 item 1666, weight= 676032, color= 12
	 item 1667, weight= 676042, color= 7
	 item 1668, weight= 677029, color= 15
	 item 1669, weight= 677416, color= 14
	 item 1670, weight= 677560, color= 7
	 item 1671, weight= 677659, color= 7
	 item 1672, weight= 678332, color= 8
	 item 1673, weight= 678388, color= 7
	 item 1674, weight= 679517, color= 13
	 item 1675, weight= 680008, color= 17
	 item 1676, weight= 680175, color= 17
	 item 1677, weight= 680886, color= 11
	 item 1678, weight= 681063, color= 15
	 item 1679, weight= 681217, color= 9
	 item 1680, weight= 681733, color= 4
	 item 1681, weight= 682409, color= 4
	 item 1682, weight= 682884, color= 9
	 item 1683, weight= 683165, color= 1
	 item 1684, weight= 683271, color= 15
	 item 1685, weight= 684693, color= 10
	 item 1686, weight= 685022, color= 2
	 item 1687, weight= 685400, color= 15
	 item 1688, weight= 685570, color= 12
	 item 1689, weight= 686363, color= 17
	 item 1690, weight= 686817, color= 2
	 item 1691, weight= 686827, color= 7
	 item 1692, weight= 687404, color= 1
	 item 1693, weight= 687819, color= 13
	 item 1694, weight= 687972, color= 15
	 item 1695, weight= 688231, color= 7
	 item 1696, weight= 688590, color= 0
	 item 1697, weight= 690366, color= 14
	 item 1698, weight= 690441, color= 1
	 item 1699, weight= 690681, color= 12
	 item 1700, weight= 691449, color= 4
	 item 1701, weight= 691997, color= 4
	 item 1702, weight= 692045, color= 18
	 item 1703, weight= 694115, color= 16
	 item 1704, weight= 694143, color= 13
	 item 1705, weight= 694147, color= 1
	 item 1706, weight= 694230, color= 16
	 item 1707, weight= 694554, color= 1
	 item 1708, weight= 694603, color= 0
	 item 1709, weight= 694679, color= 4
	 item 1710, weight= 694813, color= 12
	 item 1711, weight= 694823, color= 2
	 item 1712, weight= 695286, color= 9
	 item 1713, weight= 695304, color= 19
	 item 1714, weight= 695414, color= 5
	 item 1715, weight= 695503, color= 3
	 item 1716, weight= 695588, color= 2
	 item 1717, weight= 695785, color= 14
	 item 1718, weight= 696371, color= 17
	 item 1719, weight= 697025, color= 3
	 item 1720, weight= 698258, color= 15
	 item 1721, weight= 698308, color= 12
	 item 1722, weight= 699744, color= 0
	 item 1723, weight= 700058, color= 12
	 item 1724, weight= 700156, color= 6
	 item 1725, weight= 700505, color= 15
	 item 1726, weight= 700878, color= 13
	 item 1727, weight= 701474, color= 1
	 item 1728, weight= 702074, color= 13
	 item 1729, weight= 702862, color= 18
	 item 1730, weight= 703203, color= 7
	 item 1731, weight= 703291, color= 19
	 item 1732, weight= 703676, color= 0
	 item 1733, weight= 703911, color= 13
	 item 1734, weight= 704536, color= 18
	 item 1735, weight= 705400, color= 7
	 item 1736, weight= 706067, color= 11
	 item 1737, weight= 706289, color= 5
	 item 1738, weight= 706368, color= 4
	 item 1739, weight= 706409, color= 16
	 item 1740, weight= 706453, color= 11
	 item 1741, weight= 706769, color= 2
	 item 1742, weight= 706938, color= 16
	 item 1743, weight= 707095, color= 2
	 item 1744, weight= 707752, color= 15
	 item 1745, weight= 707761, color= 9
	 item 1746, weight= 708470, color= 13
	 item 1747, weight= 708569, color= 10
	 item 1748, weight= 708590, color= 13
	 item 1749, weight= 708617, color= 15
	 item 1750, weight= 708654, color= 2
	 item 1751, weight= 709054, color= 15
	 item 1752, weight= 709444, color= 13
	 item 1753, weight= 709505, color= 18
	 item 1754, weight= 710093, color= 12
	 item 1755, weight= 710113, color= 9
	 item 1756, weight= 710455, color= 17
	 item 1757, weight= 711068, color= 12
	 item 1758, weight= 711218, color= 6
	 item 1759, weight= 711259, color= 0
	 item 1760, weight= 711755, color= 5
	 item 1761, weight= 711904, color= 17
	 item 1762, weight= 712793, color= 17
	 item 1763, weight= 712802, color= 8
	 item 1764, weight= 713583, color= 4
	 item 1765, weight= 714025, color= 0
	 item 1766, weight= 714513, color= 18
	 item 1767, weight= 715037, color= 13
	 item 1768, weight= 715095, color= 1
	 item 1769, weight= 715284, color= 13
	 item 1770, weight= 715743, color= 7
	 item 1771, weight= 716222, color= 1
	 item 1772, weight= 716638, color= 9
	 item 1773, weight= 716858, color= 9
	 item 1774, weight= 717563, color= 7
	 item 1775, weight= 717631, color= 18
	 item 1776, weight= 717782, color= 17
	 item 1777, weight= 718127, color= 14
	 item 1778, weight= 718156, color= 15
	 item 1779, weight= 718638, color= 14
	 item 1780, weight= 718991, color= 17
	 item 1781, weight= 719607, color= 5
	 item 1782, weight= 719802, color= 15
	 item 1783, weight= 719869, color= 6
	 item 1784, weight= 720039, color= 0
	 item 1785, weight= 720358, color= 16
	 item 1786, weight= 720460, color= 13
	 item 1787, weight= 720468, color= 1
	 item 1788, weight= 721746, color= 6
	 item 1789, weight= 721759, color= 7
	 item 1790, weight= 722002, color= 19
	 item 1791, weight= 723410, color= 11
	 item 1792, weight= 724157, color= 5
	 item 1793, weight= 724327, color= 10
	 item 1794, weight= 724580, color= 2
	 item 1795, weight= 724874, color= 13
	 item 1796, weight= 725019, color= 8
	 item 1797, weight= 725138, color= 16
	 item 1798, weight= 725979, color= 9
	 item 1799, weight= 726796, color= 19
	 item 1800, weight= 727071, color= 0
	 item 1801, weight= 727161, color= 13
	 item 1802, weight= 727542, color= 14
	 item 1803, weight= 727582, color= 5
	 item 1804, weight= 728222, color= 14
	 item 1805, weight= 728621, color= 10
	 item 1806, weight= 728748, color= 16
	 item 1807, weight= 728887, color= 11
	 item 1808, weight= 729446, color= 8
	 item 1809, weight= 729982, color= 4
	 item 1810, weight= 730128, color= 0
	 item 1811, weight= 730206, color= 12
	 item 1812, weight= 730507, color= 15
	 item 1813, weight= 730552, color= 9
	 item 1814, weight= 730569, color= 13
	 item 1815, weight= 731330, color= 18
	 item 1816, weight= 731378, color= 5
	 item 1817, weight= 731875, color= 4
	 item 1818, weight= 732805, color= 15
	 item 1819, weight= 733337, color= 10
	 item 1820, weight= 733564, color= 3
	 item 1821, weight= 734626, color= 5
	 item 1822, weight= 734726, color= 9
	 item 1823, weight= 735013, color= 12
	 item 1824, weight= 735251, color= 5
	 item 1825, weight= 735767, color= 13
	 item 1826, weight= 735829, color= 16
	 item 1827, weight= 736124, color= 10
	 item 1828, weight= 736511, color= 18
	 item 1829, weight= 736695, color= 11
	 item 1830, weight= 736877, color= 17
	 item 1831, weight= 736950, color= 14
	 item 1832, weight= 737052, color= 15
	 item 1833, weight= 737139, color= 12
	 item 1834, weight= 737275, color= 17
	 item 1835, weight= 737920, color= 4
	 item 1836, weight= 738103, color= 13
	 item 1837, weight= 738558, color= 16
	 item 1838, weight= 739069, color= 1
	 item 1839, weight= 740404, color= 10
	 item 1840, weight= 740685, color= 10
	 item 1841, weight= 740693, color= 19
	 item 1842, weight= 741485, color= 15
	 item 1843, weight= 741607, color= 18
	 item 1844, weight= 742031, color= 12
	 item 1845, weight= 742466, color= 15
	 item 1846, weight= 743268, color= 11
	 item 1847, weight= 743393, color= 13
	 item 1848, weight= 744069, color= 13
	 item 1849, weight= 744161, color= 17
	 item 1850, weight= 744387, color= 17
	 item 1851, weight= 744493, color= 19
	 item 1852, weight= 744890, color= 17
	 item 1853, weight= 744926, color= 5
	 item 1854, weight= 745178, color= 3
	 item 1855, weight= 746416, color= 14
	 item 1856, weight= 746418, color= 17
	 item 1857, weight= 746614, color= 4
	 item 1858, weight= 746640, color= 10
	 item 1859, weight= 748359, color= 17
	 item 1860, weight= 748391, color= 7
	 item 1861, weight= 748556, color= 12
	 item 1862, weight= 749106, color= 2
	 item 1863, weight= 749402, color= 12
	 item 1864, weight= 749513, color= 15
	 item 1865, weight= 749889, color= 13
	 item 1866, weight= 749976, color= 7
	 item 1867, weight= 750214, color= 12
	 item 1868, weight= 750422, color= 18
	 item 1869, weight= 751075, color= 0
	 item 1870, weight= 751124, color= 18
	 item 1871, weight= 751153, color= 13
	 item 1872, weight= 751198, color= 0
	 item 1873, weight= 751358, color= 13
	 item 1874, weight= 752110, color= 19
	 item 1875, weight= 752231, color= 16
	 item 1876, weight= 752297, color= 12
	 item 1877, weight= 752423, color= 1
	 item 1878, weight= 752671, color= 18
	 item 1879, weight= 752997, color= 4
	 item 1880, weight= 753038, color= 18
	 item 1881, weight= 753053, color= 5
	 item 1882, weight= 754384, color= 9
	 item 1883, weight= 754793, color= 5
	 item 1884, weight= 754820, color= 5
	 item 1885, weight= 755247, color= 13
	 item 1886, weight= 756512, color= 18
	 item 1887, weight= 757167, color= 3
	 item 1888, weight= 757284, color= 5
	 item 1889, weight= 757819, color= 3
	 item 1890, weight= 757893, color= 10
	 item 1891, weight= 758253, color= 12
	 item 1892, weight= 758385, color= 2
	 item 1893, weight= 758602, color= 7
	 item 1894, weight= 758995, color= 14
	 item 1895, weight= 760025, color= 2
	 item 1896, weight= 760079, color= 11
	 item 1897, weight= 760535, color= 12
	 item 1898, weight= 760959, color= 3
	 item 1899, weight= 761083, color= 16
	 item 1900, weight= 761328, color= 13
	 item 1901, weight= 761445, color= 16
	 item 1902, weight= 761520, color= 0
	 item 1903, weight= 761824, color= 4
	 item 1904, weight= 761935, color= 17
	 item 1905, weight= 762081, color= 17
	 item 1906, weight= 762792, color= 15
	 item 1907, weight= 764003, color= 5
	 item 1908, weight= 764011, color= 15
	 item 1909, weight= 764192, color= 17
	 item 1910, weight= 765051, color= 16
	 item 1911, weight= 765135, color= 7
	 item 1912, weight= 765692, color= 5
	 item 1913, weight= 765729, color= 7
	 item 1914, weight= 765933, color= 12
	 item 1915, weight= 766411, color= 10
	 item 1916, weight= 767173, color= 6
	 item 1917, weight= 767215, color= 6
	 item 1918, weight= 767666, color= 8
	 item 1919, weight= 767752, color= 13
	 item 1920, weight= 768523, color= 8
	 item 1921, weight= 768667, color= 1
	 item 1922, weight= 768697, color= 9
	 item 1923, weight= 768825, color= 17
	 item 1924, weight= 769280, color= 0
	 item 1925, weight= 769561, color= 15
	 item 1926, weight= 769730, color= 19
	 item 1927, weight= 769991, color= 8
	 item 1928, weight= 770171, color= 15
	 item 1929, weight= 771291, color= 14
	 item 1930, weight= 771581, color= 17
	 item 1931, weight= 772379, color= 13
	 item 1932, weight= 772391, color= 1
	 item 1933, weight= 772852, color= 3
	 item 1934, weight= 773053, color= 4
	 item 1935, weight= 773092, color= 2
	 item 1936, weight= 773271, color= 8
	 item 1937, weight= 773754, color= 5
	 item 1938, weight= 774055, color= 3
	 item 1939, weight= 774261, color= 0
	 item 1940, weight= 774422, color= 10
	 item 1941, weight= 774964, color= 7
	 item 1942, weight= 776211, color= 16
	 item 1943, weight= 776911, color= 0
	 item 1944, weight= 777552, color= 10
	 item 1945, weight= 777833, color= 19
	 item 1946, weight= 778091, color= 14
	 item 1947, weight= 778886, color= 4
	 item 1948, weight= 780067, color= 0
	 item 1949, weight= 780259, color= 17
	 item 1950, weight= 780391, color= 14
	 item 1951, weight= 780823, color= 10
	 item 1952, weight= 780932, color= 13
	 item 1953, weight= 781656, color= 11
	 item 1954, weight= 782068, color= 2
	 item 1955, weight= 782137, color= 8
	 item 1956, weight= 782641, color= 4
	 item 1957, weight= 783000, color= 10
	 item 1958, weight= 783355, color= 2
	 item 1959, weight= 783461, color= 9
	 item 1960, weight= 783476, color= 19
	 item 1961, weight= 783485, color= 12
	 item 1962, weight= 783697, color= 9
	 item 1963, weight= 784194, color= 17
	 item 1964, weight= 784212, color= 12
	 item 1965, weight= 784571, color= 9
	 item 1966, weight= 785193, color= 7
	 item 1967, weight= 785356, color= 2
	 item 1968, weight= 785402, color= 0
	 item 1969, weight= 785775, color= 2
	 item 1970, weight= 786665, color= 7
	 item 1971, weight= 786770, color= 16
	 item 1972, weight= 787047, color= 16
	 item 1973, weight= 787253, color= 1
	 item 1974, weight= 787271, color= 6
	 item 1975, weight= 787725, color= 19
	 item 1976, weight= 788044, color= 13
	 item 1977, weight= 789484, color= 6
	 item 1978, weight= 789709, color= 0
	 item 1979, weight= 790808, color= 13
	 item 1980, weight= 792281, color= 8
	 item 1981, weight= 792288, color= 14
	 item 1982, weight= 793393, color= 9
	 item 1983, weight= 794122, color= 16
	 item 1984, weight= 794668, color= 10
	 item 1985, weight= 794752, color= 10
	 item 1986, weight= 795120, color= 17
	 item 1987, weight= 795339, color= 9
	 item 1988, weight= 795500, color= 14
	 item 1989, weight= 795732, color= 0
	 item 1990, weight= 796371, color= 4
	 item 1991, weight= 796773, color= 14
	 item 1992, weight= 796939, color= 4
	 item 1993, weight= 797160, color= 4
	 item 1994, weight= 797376, color= 8
	 item 1995, weight= 797418, color= 19
	 item 1996, weight= 797546, color= 11
	 item 1997, weight= 797684, color= 2
	 item 1998, weight= 797967, color= 13
	 item 1999, weight= 798253, color= 7
	 item 2000, weight= 799626, color= 7
	 item 2001, weight= 799709, color= 8

VRPSolver warning: Interval set for resource 1 on source node (when source != sink) is ignored (by definition is [0.0,0.0])
VRPSolver warning: Interval set for resource 2 on source node (when source != sink) is ignored (by definition is [0.0,0.0])
VRPSolver warning: Interval set for resource 3 on source node (when source != sink) is ignored (by definition is [0.0,0.0])
VRPSolver warning: Interval set for resource 4 on source node (when source != sink) is ignored (by definition is [0.0,0.0])
VRPSolver warning: Interval set for resource 5 on source node (when source != sink) is ignored (by definition is [0.0,0.0])
VRPSolver warning: Interval set for resource 6 on source node (when source != sink) is ignored (by definition is [0.0,0.0])
VRPSolver warning: Interval set for resource 7 on source node (when source != sink) is ignored (by definition is [0.0,0.0])
VRPSolver warning: Interval set for resource 8 on source node (when source != sink) is ignored (by definition is [0.0,0.0])
VRPSolver warning: Interval set for resource 9 on source node (when source != sink) is ignored (by definition is [0.0,0.0])
VRPSolver warning: Interval set for resource 10 on source node (when source != sink) is ignored (by definition is [0.0,0.0])
VRPSolver warning: Interval set for resource 11 on source node (when source != sink) is ignored (by definition is [0.0,0.0])
VRPSolver warning: Interval set for resource 12 on source node (when source != sink) is ignored (by definition is [0.0,0.0])
VRPSolver warning: Interval set for resource 13 on source node (when source != sink) is ignored (by definition is [0.0,0.0])
VRPSolver warning: Interval set for resource 14 on source node (when source != sink) is ignored (by definition is [0.0,0.0])
VRPSolver warning: Interval set for resource 15 on source node (when source != sink) is ignored (by definition is [0.0,0.0])
VRPSolver warning: Interval set for resource 16 on source node (when source != sink) is ignored (by definition is [0.0,0.0])
VRPSolver warning: Interval set for resource 17 on source node (when source != sink) is ignored (by definition is [0.0,0.0])
VRPSolver warning: Interval set for resource 18 on source node (when source != sink) is ignored (by definition is [0.0,0.0])
VRPSolver warning: Interval set for resource 19 on source node (when source != sink) is ignored (by definition is [0.0,0.0])
VRPSolver warning: Interval set for resource 20 on source node (when source != sink) is ignored (by definition is [0.0,0.0])
VRPSolver warning: Interval set for resource 21 on source node (when source != sink) is ignored (by definition is [0.0,0.0])
[41m solve [00m
~~~~~~~~~~~~~~~~~~~~~~~~~~~~~~~~~~~~~~~~~~~~~~~~~~~~~~~~~~~~~~~~~~~~~~~~~~~~~~
VRPSolver v0.4.1, 24/03/2021. Web: vrpsolver.math.u-bordeaux.fr
Corresponds to the solver by Pessoa, Sadykov, Uchoa and Vanderbeck (2020)
Paper: dx.doi.org/10.1007/s10107-020-01523-z
USE THIS CODE ONLY FOR ACADEMIC PURPOSES AT YOUR OWN RISK
~~~~~~~~~~~~~~~~~~~~~~~~~~~~~~~~~~~~~~~~~~~~~~~~~~~~~~~~~~~~~~~~~~~~~~~~~~~~~~
BaPCod v053, 24/03/2021, © Inria Bordeaux, France
~~~~~~~~~~~~~~~~~~~~~~~~~~~~~~~~~~~~~~~~~~~~~~~~~~~~~~~~~~~~~~~~~~~~~~~~~~~~~~
VRPSolver parameters:
GlobalTimeLimit = 60
MaxNbOfBBtreeNodeTreated = 100000
treeSearchStrategy = 1
RCSPstopCutGenTimeThresholdInPricing = 10
RCSPhardTimeThresholdInPricing = 20
RCSPnumberOfBucketsPerVertex = 2000
RCSPdynamicBucketSteps = 0
RCSPuseBidirectionalSearch = 1
RCSPapplyReducedCostFixing = 1
RCSPredCostFixingFalseGap = 0
RCSPmaxNumOfColsPerIteration = 100
RCSPmaxNumOfColsPerExactIteration = 100
RCSPheurLabelingStrategy = 4
StabilizationMinPhaseOfStage = 1
RCSPmaxNumOfLabelsInEnumeration = 100000
RCSPmaxNumOfEnumeratedSolutions = 1000000
RCSPmaxNumOfEnumSolutionsForMIP = 100000
RCSPinitNGneighbourhoodSize = 0
RCSPmaxNGneighbourhoodSize = 0
RCSPrankOneCutsMaxNumPerRound = 100
RCSPrankOneCutsMaxNumRows = -1
RCSPrankOneCutsMemoryType = 2
CutTailingOffThreshold = 0.02
CutTailingOffCounterThreshold = 3
SafeDualBoundScaleFactor = -1
StrongBranchingPhaseOneCandidatesNumber = 100
StrongBranchingPhaseOneTreeSizeEstimRatio = 0.3
StrongBranchingPhaseTwoCandidatesNumber = 1
StrongBranchingPhaseTwoTreeSizeEstimRatio = 0.1
MaxTimeForRestrictedMasterIpHeur = -1
DivingHeurUseDepthLimit = 0
MaxLDSbreadth = 3
MaxLDSdepth = 2
New model incumbent solution 1e+06, TIME = 0h0m0s3t = 3
