Application parameters:
  batch  =>  nothing
  instance  =>  "/IN/N501W1001R1080Q20-004"
  ub  =>  1.0e6
  cfg  =>  "/CFG/BPP.cfg"
data = Colored Bin Packing dataset.
number of items = 501
number of colors = 20
capacity = 1001
Items : 
	 item 1, weight= 101, color= 7
	 item 2, weight= 101, color= 11
	 item 3, weight= 101, color= 16
	 item 4, weight= 102, color= 14
	 item 5, weight= 103, color= 9
	 item 6, weight= 106, color= 3
	 item 7, weight= 108, color= 2
	 item 8, weight= 108, color= 10
	 item 9, weight= 108, color= 17
	 item 10, weight= 109, color= 6
	 item 11, weight= 111, color= 1
	 item 12, weight= 113, color= 4
	 item 13, weight= 113, color= 17
	 item 14, weight= 115, color= 15
	 item 15, weight= 117, color= 9
	 item 16, weight= 119, color= 6
	 item 17, weight= 123, color= 1
	 item 18, weight= 123, color= 16
	 item 19, weight= 125, color= 19
	 item 20, weight= 128, color= 16
	 item 21, weight= 130, color= 5
	 item 22, weight= 133, color= 16
	 item 23, weight= 135, color= 0
	 item 24, weight= 136, color= 2
	 item 25, weight= 138, color= 7
	 item 26, weight= 138, color= 13
	 item 27, weight= 139, color= 8
	 item 28, weight= 141, color= 18
	 item 29, weight= 143, color= 8
	 item 30, weight= 144, color= 16
	 item 31, weight= 147, color= 18
	 item 32, weight= 148, color= 10
	 item 33, weight= 149, color= 9
	 item 34, weight= 150, color= 8
	 item 35, weight= 151, color= 15
	 item 36, weight= 155, color= 7
	 item 37, weight= 156, color= 18
	 item 38, weight= 158, color= 7
	 item 39, weight= 158, color= 8
	 item 40, weight= 159, color= 11
	 item 41, weight= 160, color= 1
	 item 42, weight= 161, color= 13
	 item 43, weight= 161, color= 19
	 item 44, weight= 165, color= 17
	 item 45, weight= 169, color= 16
	 item 46, weight= 170, color= 5
	 item 47, weight= 170, color= 7
	 item 48, weight= 172, color= 9
	 item 49, weight= 174, color= 6
	 item 50, weight= 174, color= 7
	 item 51, weight= 175, color= 4
	 item 52, weight= 175, color= 14
	 item 53, weight= 175, color= 19
	 item 54, weight= 179, color= 19
	 item 55, weight= 185, color= 12
	 item 56, weight= 185, color= 17
	 item 57, weight= 188, color= 0
	 item 58, weight= 190, color= 7
	 item 59, weight= 190, color= 16
	 item 60, weight= 192, color= 8
	 item 61, weight= 192, color= 8
	 item 62, weight= 192, color= 17
	 item 63, weight= 193, color= 0
	 item 64, weight= 196, color= 19
	 item 65, weight= 197, color= 15
	 item 66, weight= 199, color= 6
	 item 67, weight= 200, color= 5
	 item 68, weight= 201, color= 11
	 item 69, weight= 202, color= 2
	 item 70, weight= 202, color= 11
	 item 71, weight= 204, color= 1
	 item 72, weight= 205, color= 3
	 item 73, weight= 205, color= 8
	 item 74, weight= 205, color= 10
	 item 75, weight= 205, color= 12
	 item 76, weight= 206, color= 1
	 item 77, weight= 208, color= 4
	 item 78, weight= 209, color= 0
	 item 79, weight= 209, color= 14
	 item 80, weight= 211, color= 6
	 item 81, weight= 211, color= 9
	 item 82, weight= 214, color= 11
	 item 83, weight= 215, color= 19
	 item 84, weight= 218, color= 1
	 item 85, weight= 219, color= 14
	 item 86, weight= 220, color= 8
	 item 87, weight= 223, color= 12
	 item 88, weight= 227, color= 10
	 item 89, weight= 229, color= 6
	 item 90, weight= 232, color= 5
	 item 91, weight= 234, color= 1
	 item 92, weight= 235, color= 11
	 item 93, weight= 235, color= 18
	 item 94, weight= 236, color= 10
	 item 95, weight= 236, color= 10
	 item 96, weight= 236, color= 13
	 item 97, weight= 237, color= 3
	 item 98, weight= 238, color= 11
	 item 99, weight= 241, color= 19
	 item 100, weight= 246, color= 4
	 item 101, weight= 249, color= 12
	 item 102, weight= 251, color= 0
	 item 103, weight= 252, color= 6
	 item 104, weight= 253, color= 4
	 item 105, weight= 254, color= 13
	 item 106, weight= 254, color= 19
	 item 107, weight= 255, color= 7
	 item 108, weight= 258, color= 3
	 item 109, weight= 258, color= 18
	 item 110, weight= 260, color= 2
	 item 111, weight= 260, color= 16
	 item 112, weight= 261, color= 16
	 item 113, weight= 264, color= 13
	 item 114, weight= 264, color= 15
	 item 115, weight= 265, color= 19
	 item 116, weight= 266, color= 16
	 item 117, weight= 267, color= 10
	 item 118, weight= 269, color= 3
	 item 119, weight= 271, color= 5
	 item 120, weight= 271, color= 13
	 item 121, weight= 271, color= 13
	 item 122, weight= 272, color= 14
	 item 123, weight= 274, color= 3
	 item 124, weight= 276, color= 18
	 item 125, weight= 278, color= 5
	 item 126, weight= 278, color= 6
	 item 127, weight= 278, color= 19
	 item 128, weight= 279, color= 15
	 item 129, weight= 282, color= 19
	 item 130, weight= 283, color= 2
	 item 131, weight= 283, color= 7
	 item 132, weight= 284, color= 14
	 item 133, weight= 285, color= 4
	 item 134, weight= 285, color= 15
	 item 135, weight= 285, color= 17
	 item 136, weight= 286, color= 18
	 item 137, weight= 288, color= 14
	 item 138, weight= 289, color= 3
	 item 139, weight= 291, color= 0
	 item 140, weight= 292, color= 15
	 item 141, weight= 292, color= 16
	 item 142, weight= 299, color= 11
	 item 143, weight= 300, color= 19
	 item 144, weight= 302, color= 13
	 item 145, weight= 305, color= 15
	 item 146, weight= 306, color= 0
	 item 147, weight= 306, color= 14
	 item 148, weight= 307, color= 9
	 item 149, weight= 308, color= 4
	 item 150, weight= 310, color= 5
	 item 151, weight= 310, color= 16
	 item 152, weight= 311, color= 3
	 item 153, weight= 313, color= 10
	 item 154, weight= 314, color= 0
	 item 155, weight= 314, color= 1
	 item 156, weight= 314, color= 16
	 item 157, weight= 316, color= 6
	 item 158, weight= 317, color= 1
	 item 159, weight= 317, color= 14
	 item 160, weight= 318, color= 5
	 item 161, weight= 319, color= 15
	 item 162, weight= 320, color= 17
	 item 163, weight= 322, color= 1
	 item 164, weight= 322, color= 5
	 item 165, weight= 323, color= 10
	 item 166, weight= 323, color= 16
	 item 167, weight= 324, color= 16
	 item 168, weight= 326, color= 1
	 item 169, weight= 326, color= 3
	 item 170, weight= 329, color= 6
	 item 171, weight= 331, color= 1
	 item 172, weight= 331, color= 18
	 item 173, weight= 334, color= 10
	 item 174, weight= 337, color= 12
	 item 175, weight= 338, color= 14
	 item 176, weight= 340, color= 10
	 item 177, weight= 340, color= 15
	 item 178, weight= 340, color= 16
	 item 179, weight= 341, color= 1
	 item 180, weight= 342, color= 6
	 item 181, weight= 343, color= 10
	 item 182, weight= 343, color= 12
	 item 183, weight= 346, color= 16
	 item 184, weight= 347, color= 16
	 item 185, weight= 351, color= 18
	 item 186, weight= 351, color= 18
	 item 187, weight= 352, color= 11
	 item 188, weight= 353, color= 1
	 item 189, weight= 356, color= 13
	 item 190, weight= 358, color= 14
	 item 191, weight= 358, color= 18
	 item 192, weight= 359, color= 6
	 item 193, weight= 359, color= 17
	 item 194, weight= 359, color= 18
	 item 195, weight= 360, color= 9
	 item 196, weight= 360, color= 11
	 item 197, weight= 360, color= 18
	 item 198, weight= 361, color= 1
	 item 199, weight= 363, color= 5
	 item 200, weight= 365, color= 3
	 item 201, weight= 365, color= 16
	 item 202, weight= 373, color= 17
	 item 203, weight= 375, color= 4
	 item 204, weight= 375, color= 10
	 item 205, weight= 379, color= 2
	 item 206, weight= 379, color= 14
	 item 207, weight= 381, color= 5
	 item 208, weight= 383, color= 2
	 item 209, weight= 384, color= 11
	 item 210, weight= 384, color= 12
	 item 211, weight= 386, color= 2
	 item 212, weight= 388, color= 0
	 item 213, weight= 389, color= 4
	 item 214, weight= 389, color= 18
	 item 215, weight= 390, color= 3
	 item 216, weight= 390, color= 13
	 item 217, weight= 390, color= 19
	 item 218, weight= 393, color= 0
	 item 219, weight= 393, color= 17
	 item 220, weight= 396, color= 15
	 item 221, weight= 397, color= 5
	 item 222, weight= 398, color= 5
	 item 223, weight= 398, color= 5
	 item 224, weight= 398, color= 14
	 item 225, weight= 399, color= 9
	 item 226, weight= 401, color= 11
	 item 227, weight= 403, color= 3
	 item 228, weight= 403, color= 5
	 item 229, weight= 404, color= 9
	 item 230, weight= 404, color= 12
	 item 231, weight= 406, color= 3
	 item 232, weight= 409, color= 0
	 item 233, weight= 409, color= 3
	 item 234, weight= 409, color= 9
	 item 235, weight= 410, color= 9
	 item 236, weight= 410, color= 10
	 item 237, weight= 412, color= 15
	 item 238, weight= 413, color= 13
	 item 239, weight= 414, color= 15
	 item 240, weight= 415, color= 1
	 item 241, weight= 417, color= 16
	 item 242, weight= 419, color= 11
	 item 243, weight= 421, color= 2
	 item 244, weight= 421, color= 7
	 item 245, weight= 421, color= 10
	 item 246, weight= 422, color= 19
	 item 247, weight= 423, color= 5
	 item 248, weight= 425, color= 6
	 item 249, weight= 426, color= 15
	 item 250, weight= 427, color= 19
	 item 251, weight= 430, color= 5
	 item 252, weight= 432, color= 9
	 item 253, weight= 432, color= 18
	 item 254, weight= 434, color= 11
	 item 255, weight= 435, color= 3
	 item 256, weight= 435, color= 7
	 item 257, weight= 436, color= 16
	 item 258, weight= 440, color= 13
	 item 259, weight= 445, color= 15
	 item 260, weight= 446, color= 1
	 item 261, weight= 447, color= 3
	 item 262, weight= 448, color= 6
	 item 263, weight= 449, color= 14
	 item 264, weight= 451, color= 1
	 item 265, weight= 453, color= 15
	 item 266, weight= 455, color= 8
	 item 267, weight= 456, color= 4
	 item 268, weight= 459, color= 5
	 item 269, weight= 460, color= 4
	 item 270, weight= 460, color= 9
	 item 271, weight= 460, color= 14
	 item 272, weight= 461, color= 0
	 item 273, weight= 462, color= 9
	 item 274, weight= 469, color= 11
	 item 275, weight= 472, color= 19
	 item 276, weight= 478, color= 12
	 item 277, weight= 479, color= 6
	 item 278, weight= 480, color= 0
	 item 279, weight= 482, color= 12
	 item 280, weight= 484, color= 6
	 item 281, weight= 485, color= 9
	 item 282, weight= 488, color= 5
	 item 283, weight= 489, color= 8
	 item 284, weight= 489, color= 12
	 item 285, weight= 491, color= 8
	 item 286, weight= 492, color= 1
	 item 287, weight= 492, color= 8
	 item 288, weight= 494, color= 0
	 item 289, weight= 494, color= 13
	 item 290, weight= 495, color= 3
	 item 291, weight= 495, color= 8
	 item 292, weight= 496, color= 12
	 item 293, weight= 496, color= 16
	 item 294, weight= 499, color= 3
	 item 295, weight= 499, color= 6
	 item 296, weight= 500, color= 8
	 item 297, weight= 502, color= 3
	 item 298, weight= 502, color= 14
	 item 299, weight= 505, color= 7
	 item 300, weight= 507, color= 12
	 item 301, weight= 508, color= 4
	 item 302, weight= 509, color= 5
	 item 303, weight= 511, color= 14
	 item 304, weight= 512, color= 5
	 item 305, weight= 518, color= 2
	 item 306, weight= 520, color= 6
	 item 307, weight= 520, color= 17
	 item 308, weight= 521, color= 10
	 item 309, weight= 522, color= 4
	 item 310, weight= 523, color= 2
	 item 311, weight= 523, color= 11
	 item 312, weight= 523, color= 13
	 item 313, weight= 523, color= 18
	 item 314, weight= 524, color= 14
	 item 315, weight= 525, color= 9
	 item 316, weight= 528, color= 12
	 item 317, weight= 528, color= 19
	 item 318, weight= 529, color= 17
	 item 319, weight= 529, color= 19
	 item 320, weight= 535, color= 13
	 item 321, weight= 536, color= 12
	 item 322, weight= 537, color= 1
	 item 323, weight= 538, color= 12
	 item 324, weight= 539, color= 7
	 item 325, weight= 541, color= 6
	 item 326, weight= 543, color= 3
	 item 327, weight= 546, color= 5
	 item 328, weight= 546, color= 6
	 item 329, weight= 547, color= 3
	 item 330, weight= 547, color= 11
	 item 331, weight= 549, color= 19
	 item 332, weight= 552, color= 2
	 item 333, weight= 553, color= 11
	 item 334, weight= 554, color= 5
	 item 335, weight= 555, color= 6
	 item 336, weight= 557, color= 5
	 item 337, weight= 560, color= 12
	 item 338, weight= 562, color= 1
	 item 339, weight= 562, color= 14
	 item 340, weight= 562, color= 15
	 item 341, weight= 563, color= 6
	 item 342, weight= 564, color= 8
	 item 343, weight= 564, color= 13
	 item 344, weight= 566, color= 7
	 item 345, weight= 566, color= 18
	 item 346, weight= 567, color= 0
	 item 347, weight= 567, color= 18
	 item 348, weight= 567, color= 19
	 item 349, weight= 568, color= 11
	 item 350, weight= 569, color= 7
	 item 351, weight= 573, color= 4
	 item 352, weight= 575, color= 1
	 item 353, weight= 576, color= 3
	 item 354, weight= 577, color= 16
	 item 355, weight= 583, color= 6
	 item 356, weight= 584, color= 3
	 item 357, weight= 587, color= 10
	 item 358, weight= 588, color= 5
	 item 359, weight= 589, color= 5
	 item 360, weight= 589, color= 16
	 item 361, weight= 594, color= 3
	 item 362, weight= 595, color= 15
	 item 363, weight= 596, color= 11
	 item 364, weight= 597, color= 6
	 item 365, weight= 598, color= 12
	 item 366, weight= 603, color= 12
	 item 367, weight= 611, color= 6
	 item 368, weight= 612, color= 5
	 item 369, weight= 612, color= 6
	 item 370, weight= 613, color= 7
	 item 371, weight= 613, color= 11
	 item 372, weight= 614, color= 1
	 item 373, weight= 614, color= 12
	 item 374, weight= 615, color= 1
	 item 375, weight= 615, color= 2
	 item 376, weight= 616, color= 6
	 item 377, weight= 616, color= 10
	 item 378, weight= 617, color= 1
	 item 379, weight= 617, color= 10
	 item 380, weight= 617, color= 16
	 item 381, weight= 617, color= 19
	 item 382, weight= 618, color= 14
	 item 383, weight= 620, color= 12
	 item 384, weight= 625, color= 15
	 item 385, weight= 627, color= 15
	 item 386, weight= 629, color= 14
	 item 387, weight= 630, color= 4
	 item 388, weight= 631, color= 14
	 item 389, weight= 634, color= 2
	 item 390, weight= 634, color= 5
	 item 391, weight= 637, color= 2
	 item 392, weight= 639, color= 7
	 item 393, weight= 640, color= 7
	 item 394, weight= 645, color= 8
	 item 395, weight= 645, color= 15
	 item 396, weight= 646, color= 4
	 item 397, weight= 647, color= 12
	 item 398, weight= 648, color= 3
	 item 399, weight= 648, color= 3
	 item 400, weight= 648, color= 12
	 item 401, weight= 650, color= 16
	 item 402, weight= 651, color= 10
	 item 403, weight= 653, color= 1
	 item 404, weight= 653, color= 2
	 item 405, weight= 654, color= 1
	 item 406, weight= 654, color= 16
	 item 407, weight= 657, color= 3
	 item 408, weight= 657, color= 9
	 item 409, weight= 658, color= 1
	 item 410, weight= 663, color= 4
	 item 411, weight= 663, color= 5
	 item 412, weight= 665, color= 13
	 item 413, weight= 666, color= 11
	 item 414, weight= 667, color= 5
	 item 415, weight= 667, color= 13
	 item 416, weight= 669, color= 3
	 item 417, weight= 670, color= 6
	 item 418, weight= 670, color= 19
	 item 419, weight= 672, color= 0
	 item 420, weight= 672, color= 8
	 item 421, weight= 674, color= 12
	 item 422, weight= 676, color= 8
	 item 423, weight= 676, color= 9
	 item 424, weight= 676, color= 13
	 item 425, weight= 676, color= 17
	 item 426, weight= 679, color= 13
	 item 427, weight= 682, color= 7
	 item 428, weight= 684, color= 18
	 item 429, weight= 685, color= 9
	 item 430, weight= 688, color= 17
	 item 431, weight= 692, color= 14
	 item 432, weight= 695, color= 2
	 item 433, weight= 695, color= 2
	 item 434, weight= 698, color= 16
	 item 435, weight= 701, color= 12
	 item 436, weight= 702, color= 11
	 item 437, weight= 703, color= 1
	 item 438, weight= 705, color= 18
	 item 439, weight= 707, color= 10
	 item 440, weight= 707, color= 13
	 item 441, weight= 711, color= 8
	 item 442, weight= 713, color= 11
	 item 443, weight= 716, color= 8
	 item 444, weight= 717, color= 5
	 item 445, weight= 717, color= 14
	 item 446, weight= 718, color= 5
	 item 447, weight= 719, color= 3
	 item 448, weight= 721, color= 2
	 item 449, weight= 726, color= 3
	 item 450, weight= 726, color= 13
	 item 451, weight= 727, color= 2
	 item 452, weight= 729, color= 1
	 item 453, weight= 729, color= 5
	 item 454, weight= 730, color= 3
	 item 455, weight= 730, color= 12
	 item 456, weight= 730, color= 18
	 item 457, weight= 731, color= 14
	 item 458, weight= 733, color= 14
	 item 459, weight= 734, color= 2
	 item 460, weight= 734, color= 3
	 item 461, weight= 738, color= 3
	 item 462, weight= 741, color= 1
	 item 463, weight= 742, color= 13
	 item 464, weight= 743, color= 14
	 item 465, weight= 743, color= 16
	 item 466, weight= 743, color= 17
	 item 467, weight= 744, color= 14
	 item 468, weight= 745, color= 4
	 item 469, weight= 746, color= 4
	 item 470, weight= 746, color= 19
	 item 471, weight= 747, color= 11
	 item 472, weight= 748, color= 4
	 item 473, weight= 749, color= 0
	 item 474, weight= 749, color= 0
	 item 475, weight= 749, color= 17
	 item 476, weight= 751, color= 9
	 item 477, weight= 754, color= 1
	 item 478, weight= 755, color= 2
	 item 479, weight= 755, color= 8
	 item 480, weight= 757, color= 9
	 item 481, weight= 758, color= 1
	 item 482, weight= 758, color= 5
	 item 483, weight= 762, color= 12
	 item 484, weight= 767, color= 10
	 item 485, weight= 767, color= 19
	 item 486, weight= 768, color= 5
	 item 487, weight= 777, color= 12
	 item 488, weight= 778, color= 16
	 item 489, weight= 780, color= 7
	 item 490, weight= 781, color= 10
	 item 491, weight= 781, color= 12
	 item 492, weight= 784, color= 3
	 item 493, weight= 786, color= 17
	 item 494, weight= 788, color= 15
	 item 495, weight= 788, color= 17
	 item 496, weight= 790, color= 8
	 item 497, weight= 793, color= 10
	 item 498, weight= 794, color= 6
	 item 499, weight= 798, color= 0
	 item 500, weight= 798, color= 1
	 item 501, weight= 801, color= 19

VRPSolver warning: Interval set for resource 1 on source node (when source != sink) is ignored (by definition is [0.0,0.0])
VRPSolver warning: Interval set for resource 2 on source node (when source != sink) is ignored (by definition is [0.0,0.0])
VRPSolver warning: Interval set for resource 3 on source node (when source != sink) is ignored (by definition is [0.0,0.0])
VRPSolver warning: Interval set for resource 4 on source node (when source != sink) is ignored (by definition is [0.0,0.0])
VRPSolver warning: Interval set for resource 5 on source node (when source != sink) is ignored (by definition is [0.0,0.0])
VRPSolver warning: Interval set for resource 6 on source node (when source != sink) is ignored (by definition is [0.0,0.0])
VRPSolver warning: Interval set for resource 7 on source node (when source != sink) is ignored (by definition is [0.0,0.0])
VRPSolver warning: Interval set for resource 8 on source node (when source != sink) is ignored (by definition is [0.0,0.0])
VRPSolver warning: Interval set for resource 9 on source node (when source != sink) is ignored (by definition is [0.0,0.0])
VRPSolver warning: Interval set for resource 10 on source node (when source != sink) is ignored (by definition is [0.0,0.0])
VRPSolver warning: Interval set for resource 11 on source node (when source != sink) is ignored (by definition is [0.0,0.0])
VRPSolver warning: Interval set for resource 12 on source node (when source != sink) is ignored (by definition is [0.0,0.0])
VRPSolver warning: Interval set for resource 13 on source node (when source != sink) is ignored (by definition is [0.0,0.0])
VRPSolver warning: Interval set for resource 14 on source node (when source != sink) is ignored (by definition is [0.0,0.0])
VRPSolver warning: Interval set for resource 15 on source node (when source != sink) is ignored (by definition is [0.0,0.0])
VRPSolver warning: Interval set for resource 16 on source node (when source != sink) is ignored (by definition is [0.0,0.0])
VRPSolver warning: Interval set for resource 17 on source node (when source != sink) is ignored (by definition is [0.0,0.0])
VRPSolver warning: Interval set for resource 18 on source node (when source != sink) is ignored (by definition is [0.0,0.0])
VRPSolver warning: Interval set for resource 19 on source node (when source != sink) is ignored (by definition is [0.0,0.0])
VRPSolver warning: Interval set for resource 20 on source node (when source != sink) is ignored (by definition is [0.0,0.0])
VRPSolver warning: Interval set for resource 21 on source node (when source != sink) is ignored (by definition is [0.0,0.0])
[41m solve [00m
~~~~~~~~~~~~~~~~~~~~~~~~~~~~~~~~~~~~~~~~~~~~~~~~~~~~~~~~~~~~~~~~~~~~~~~~~~~~~~
VRPSolver v0.4.1, 24/03/2021. Web: vrpsolver.math.u-bordeaux.fr
Corresponds to the solver by Pessoa, Sadykov, Uchoa and Vanderbeck (2020)
Paper: dx.doi.org/10.1007/s10107-020-01523-z
USE THIS CODE ONLY FOR ACADEMIC PURPOSES AT YOUR OWN RISK
~~~~~~~~~~~~~~~~~~~~~~~~~~~~~~~~~~~~~~~~~~~~~~~~~~~~~~~~~~~~~~~~~~~~~~~~~~~~~~
BaPCod v053, 24/03/2021, © Inria Bordeaux, France
~~~~~~~~~~~~~~~~~~~~~~~~~~~~~~~~~~~~~~~~~~~~~~~~~~~~~~~~~~~~~~~~~~~~~~~~~~~~~~
VRPSolver parameters:
GlobalTimeLimit = 60
MaxNbOfBBtreeNodeTreated = 100000
treeSearchStrategy = 1
RCSPstopCutGenTimeThresholdInPricing = 10
RCSPhardTimeThresholdInPricing = 20
RCSPnumberOfBucketsPerVertex = 2000
RCSPdynamicBucketSteps = 0
RCSPuseBidirectionalSearch = 1
RCSPapplyReducedCostFixing = 1
RCSPredCostFixingFalseGap = 0
RCSPmaxNumOfColsPerIteration = 100
RCSPmaxNumOfColsPerExactIteration = 100
RCSPheurLabelingStrategy = 4
StabilizationMinPhaseOfStage = 1
RCSPmaxNumOfLabelsInEnumeration = 100000
RCSPmaxNumOfEnumeratedSolutions = 1000000
RCSPmaxNumOfEnumSolutionsForMIP = 100000
RCSPinitNGneighbourhoodSize = 0
RCSPmaxNGneighbourhoodSize = 0
RCSPrankOneCutsMaxNumPerRound = 100
RCSPrankOneCutsMaxNumRows = -1
RCSPrankOneCutsMemoryType = 2
CutTailingOffThreshold = 0.02
CutTailingOffCounterThreshold = 3
SafeDualBoundScaleFactor = -1
StrongBranchingPhaseOneCandidatesNumber = 100
StrongBranchingPhaseOneTreeSizeEstimRatio = 0.3
StrongBranchingPhaseTwoCandidatesNumber = 1
StrongBranchingPhaseTwoTreeSizeEstimRatio = 0.1
MaxTimeForRestrictedMasterIpHeur = -1
DivingHeurUseDepthLimit = 0
MaxLDSbreadth = 3
MaxLDSdepth = 2
New model incumbent solution 1e+06, TIME = 0h0m0s5t = 5
