Academic license - for non-commercial use only - expires 2025-02-09
Gurobi Optimizer version 9.1.2 build v9.1.2rc0 (linux64)
Thread count: 20 physical cores, 40 logical processors, using up to 1 threads
Optimize a model with 11505 rows, 4195675 columns and 12574017 nonzeros
Model fingerprint: 0xca4159a9
Variable types: 0 continuous, 4195675 integer (0 binary)
Coefficient statistics:
  Matrix range     [1e+00, 1e+00]
  Objective range  [1e+00, 1e+00]
  Bounds range     [1e+04, 1e+04]
  RHS range        [1e+00, 1e+00]

Warning: Completing partial solution with 4185346 unfixed non-continuous variables out of 4195675
User MIP start produced solution with objective 6562 (4.91s)
Loaded user MIP start with objective 6562
Processed MIP start in 5.04 seconds

Presolve removed 665 rows and 1108391 columns (presolve time = 6s) ...
Presolve removed 665 rows and 1108391 columns
Presolve time: 6.86s

Explored 0 nodes (0 simplex iterations) in 12.20 seconds
Thread count was 1 (of 40 available processors)

Solution count 1: 6562 

Time limit reached
Best objective 6.562000000000e+03, best bound -, gap -
0	4195675	11505	0	-1e+100	6562	61.405
