Academic license - for non-commercial use only - expires 2025-02-09
Gurobi Optimizer version 9.1.2 build v9.1.2rc0 (linux64)
Thread count: 20 physical cores, 40 logical processors, using up to 1 threads
Optimize a model with 3500 rows, 836580 columns and 2504741 nonzeros
Model fingerprint: 0xef42c94d
Variable types: 0 continuous, 836580 integer (0 binary)
Coefficient statistics:
  Matrix range     [1e+00, 1e+00]
  Objective range  [1e+00, 1e+00]
  Bounds range     [2e+03, 2e+03]
  RHS range        [1e+00, 1e+00]

Warning: Completing partial solution with 834276 unfixed non-continuous variables out of 836580
User MIP start produced solution with objective 1319 (0.94s)
Loaded user MIP start with objective 1319

Presolve removed 679 rows and 226969 columns
Presolve time: 4.03s
Presolved: 2821 rows, 609611 columns, 1465473 nonzeros
Variable types: 0 continuous, 609611 integer (609611 binary)

Root simplex log...

Iteration    Objective       Primal Inf.    Dual Inf.      Time
       0   -7.4000000e+01   2.149000e+03   0.000000e+00      5s
    7923    4.0300018e+02   1.758600e+04   0.000000e+00     10s
   11877    5.3750103e+02   6.041239e+03   0.000000e+00     15s
   15657    5.5250153e+02   4.836249e+03   0.000000e+00     20s
   19617    5.6400247e+02   2.386287e+04   0.000000e+00     25s
   22713    5.6400598e+02   9.474417e+04   0.000000e+00     30s
   27069    5.7720208e+02   1.803646e+04   0.000000e+00     35s
   30993    5.8471945e+02   9.591065e+03   0.000000e+00     40s
   34989    5.8847525e+02   2.452522e+04   0.000000e+00     45s
   39349    5.9158941e+02   8.788045e+07   0.000000e+00     50s
   42552    5.9690254e+02   8.810147e+03   0.000000e+00     55s

Root relaxation: time limit, 44668 iterations, 52.80 seconds

    Nodes    |    Current Node    |     Objective Bounds      |     Work
 Expl Unexpl |  Obj  Depth IntInf | Incumbent    BestBd   Gap | It/Node Time

     0     0          -    0      1319.00000 -3484.0000   364%     -   58s

Explored 0 nodes (44668 simplex iterations) in 58.05 seconds
Thread count was 1 (of 40 available processors)

Solution count 1: 1319 

Time limit reached
Best objective 1.319000000000e+03, best bound -3.484000000000e+03, gap 364.1395%
0	836580	3500	0	-3484	1319	61.072
