Academic license - for non-commercial use only - expires 2025-02-09
Gurobi Optimizer version 9.1.2 build v9.1.2rc0 (linux64)
Thread count: 20 physical cores, 40 logical processors, using up to 1 threads
Optimize a model with 3504 rows, 840577 columns and 2516724 nonzeros
Model fingerprint: 0x632407d0
Variable types: 0 continuous, 840577 integer (0 binary)
Coefficient statistics:
  Matrix range     [1e+00, 1e+00]
  Objective range  [1e+00, 1e+00]
  Bounds range     [2e+03, 2e+03]
  RHS range        [1e+00, 1e+00]

Warning: Completing partial solution with 838264 unfixed non-continuous variables out of 840577
User MIP start produced solution with objective 1312 (0.94s)
Loaded user MIP start with objective 1312

Presolve removed 694 rows and 228437 columns
Presolve time: 4.45s
Presolved: 2810 rows, 612140 columns, 1472374 nonzeros
Variable types: 0 continuous, 612140 integer (612140 binary)

Root simplex log...

Iteration    Objective       Primal Inf.    Dual Inf.      Time
       0   -5.4000000e+01   2.109000e+03   0.000000e+00      6s
    8538    5.4700132e+02   1.082914e+04   0.000000e+00     10s
   12570    5.4700279e+02   4.281772e+04   0.000000e+00     15s
   15594    5.4700639e+02   2.004674e+05   0.000000e+00     20s
   20094    5.6692193e+02   7.769013e+03   0.000000e+00     25s
   23874    5.7579181e+02   1.023257e+04   0.000000e+00     30s
   27402    5.8483837e+02   1.547008e+04   0.000000e+00     35s
   30394    5.8779945e+02   5.007683e+04   0.000000e+00     40s
   33634    5.8781896e+02   8.733315e+04   0.000000e+00     45s
   37527    5.9707647e+02   2.166179e+05   0.000000e+00     50s
   40493    5.9714257e+02   4.690718e+04   0.000000e+00     55s

Root relaxation: time limit, 42388 iterations, 52.38 seconds

    Nodes    |    Current Node    |     Objective Bounds      |     Work
 Expl Unexpl |  Obj  Depth IntInf | Incumbent    BestBd   Gap | It/Node Time

     0     0          -    0      1312.00000 -6553.0000   599%     -   58s

Explored 0 nodes (42388 simplex iterations) in 58.04 seconds
Thread count was 1 (of 40 available processors)

Solution count 1: 1312 

Time limit reached
Best objective 1.312000000000e+03, best bound -6.553000000000e+03, gap 599.4665%
0	840577	3504	0	-6553	1312	61.084
