Academic license - for non-commercial use only - expires 2025-02-09
Gurobi Optimizer version 9.1.2 build v9.1.2rc0 (linux64)
Thread count: 20 physical cores, 40 logical processors, using up to 1 threads
Optimize a model with 408 rows, 10506 columns and 41718 nonzeros
Model fingerprint: 0xf3b00516
Variable types: 0 continuous, 10506 integer (10506 binary)
Coefficient statistics:
  Matrix range     [1e+00, 1e+03]
  Objective range  [1e+00, 1e+00]
  Bounds range     [1e+00, 1e+00]
  RHS range        [1e+00, 1e+00]

Loaded user MIP start with objective 54

Presolve time: 0.07s
Presolved: 408 rows, 10506 columns, 41718 nonzeros
Variable types: 0 continuous, 10506 integer (10506 binary)

Root relaxation: objective 4.514585e+01, 586 iterations, 0.03 seconds

    Nodes    |    Current Node    |     Objective Bounds      |     Work
 Expl Unexpl |  Obj  Depth IntInf | Incumbent    BestBd   Gap | It/Node Time

     0     0   45.14585    0   76   54.00000   45.14585  16.4%     -    0s
H    0     0                      52.0000000   45.14585  13.2%     -    0s
     0     0   45.14585    0  167   52.00000   45.14585  13.2%     -    0s
     0     0   45.14585    0  131   52.00000   45.14585  13.2%     -    1s
     0     0   45.16184    0   99   52.00000   45.16184  13.2%     -    1s
     0     0   45.16184    0  108   52.00000   45.16184  13.2%     -    1s
     0     0   45.16184    0  173   52.00000   45.16184  13.2%     -    1s
     0     0   45.16184    0   87   52.00000   45.16184  13.2%     -    2s
     0     2   45.16184    0   87   52.00000   45.16184  13.2%     -    2s
H   26    10                      51.0000000   45.16184  11.4%  59.7    3s
H   27    11                      50.0000000   45.16184  9.68%  57.8    5s
    90    26   45.16184   45  108   50.00000   45.16184  9.68%  41.5   10s
   146    30   45.16184   38  106   50.00000   45.16184  9.68%  48.6   15s
   224    24 infeasible   18        50.00000   45.16184  9.68%  45.9   20s
H  226    24                      49.0000000   45.16184  7.83%  47.0   20s
   297    13   47.48452   45   71   49.00000   45.16184  7.83%  47.7   27s
   305    13   45.16184   50  106   49.00000   45.16184  7.83%  49.2   30s
   362    12 infeasible   45        49.00000   45.16184  7.83%  48.3   35s
   446    54   46.18272   89  104   49.00000   45.16184  7.83%  57.2   40s
   554    66 infeasible   76        49.00000   46.00000  6.12%  57.2   45s
   660    86   47.60639   86   65   49.00000   46.00000  6.12%  57.2   50s
   798   200   48.00000  206   46   49.00000   46.00000  6.12%  50.4   55s
   917   220 infeasible  129        49.00000   46.00000  6.12%  47.8   60s

Cutting planes:
  Cover: 371
  Clique: 56
  MIR: 84
  StrongCG: 82
  Inf proof: 6
  RLT: 7

Explored 918 nodes (56601 simplex iterations) in 60.00 seconds
Thread count was 1 (of 40 available processors)

Solution count 5: 49 50 51 ... 54

Time limit reached
Best objective 4.900000000000e+01, best bound 4.600000000000e+01, gap 6.1224%
0	10506	408	918	46	49	60.052
