Academic license - for non-commercial use only - expires 2025-02-09
Gurobi Optimizer version 9.1.2 build v9.1.2rc0 (linux64)
Thread count: 20 physical cores, 40 logical processors, using up to 1 threads
Optimize a model with 2004 rows, 251502 columns and 1004505 nonzeros
Model fingerprint: 0xb9132280
Variable types: 0 continuous, 251502 integer (251502 binary)
Coefficient statistics:
  Matrix range     [1e+00, 1e+03]
  Objective range  [1e+00, 1e+00]
  Bounds range     [1e+00, 1e+00]
  RHS range        [1e+00, 1e+00]

Loaded user MIP start with objective 254

Presolve added 1002 rows and 1002 columns
Presolve time: 1.39s
Presolved: 3006 rows, 252504 columns, 756510 nonzeros
Variable types: 0 continuous, 252504 integer (251502 binary)

Root relaxation: objective 2.267073e+02, 3795 iterations, 0.88 seconds
Total elapsed time = 9.18s
Total elapsed time = 10.00s
Total elapsed time = 15.33s

    Nodes    |    Current Node    |     Objective Bounds      |     Work
 Expl Unexpl |  Obj  Depth IntInf | Incumbent    BestBd   Gap | It/Node Time

     0     0  226.70729    0  750  254.00000  226.70729  10.7%     -   18s
H    0     0                     246.0000000  226.70729  7.84%     -   36s
     0     0  226.70729    0  935  246.00000  226.70729  7.84%     -   38s
H    0     0                     237.0000000  226.70729  4.34%     -   60s

Cutting planes:
  Cover: 59
  Clique: 7
  MIR: 31
  StrongCG: 33
  Relax-and-lift: 12

Explored 1 nodes (34266 simplex iterations) in 60.03 seconds
Thread count was 1 (of 40 available processors)

Solution count 3: 237 246 254 

Time limit reached
Best objective 2.370000000000e+02, best bound 2.270000000000e+02, gap 4.2194%
0	251502	2004	1	227	237	60.456
