Academic license - for non-commercial use only - expires 2025-02-09
Gurobi Optimizer version 9.1.2 build v9.1.2rc0 (linux64)
Thread count: 20 physical cores, 40 logical processors, using up to 1 threads
Optimize a model with 2004 rows, 251502 columns and 1004505 nonzeros
Model fingerprint: 0x0a86e51f
Variable types: 0 continuous, 251502 integer (251502 binary)
Coefficient statistics:
  Matrix range     [1e+00, 1e+06]
  Objective range  [1e+00, 1e+00]
  Bounds range     [1e+00, 1e+00]
  RHS range        [1e+00, 1e+00]

Loaded user MIP start with objective 243

Presolve added 1002 rows and 1002 columns
Presolve time: 1.38s
Presolved: 3006 rows, 252504 columns, 756510 nonzeros
Variable types: 0 continuous, 252504 integer (251502 binary)

Root relaxation: objective 2.256009e+02, 3892 iterations, 1.05 seconds
Total elapsed time = 7.54s
Total elapsed time = 11.89s

    Nodes    |    Current Node    |     Objective Bounds      |     Work
 Expl Unexpl |  Obj  Depth IntInf | Incumbent    BestBd   Gap | It/Node Time

     0     0  225.60094    0  736  243.00000  225.60094  7.16%     -   16s
H    0     0                     236.0000000  225.60094  4.41%     -   33s
     0     0  225.60094    0  961  236.00000  225.60094  4.41%     -   34s
H    0     0                     235.0000000  225.60094  4.00%     -   59s
     0     0          -    0       235.00000  225.60094  4.00%     -   60s

Cutting planes:
  Cover: 143
  Clique: 61
  MIR: 13
  StrongCG: 11
  RLT: 8
  Relax-and-lift: 12

Explored 1 nodes (27344 simplex iterations) in 60.03 seconds
Thread count was 1 (of 40 available processors)

Solution count 3: 235 236 243 

Time limit reached
Best objective 2.350000000000e+02, best bound 2.260000000000e+02, gap 3.8298%
0	251502	2004	1	226	235	60.455
