Academic license - for non-commercial use only - expires 2025-02-09
Gurobi Optimizer version 9.1.2 build v9.1.2rc0 (linux64)
Thread count: 20 physical cores, 40 logical processors, using up to 1 threads
Optimize a model with 2004 rows, 251502 columns and 1004505 nonzeros
Model fingerprint: 0x724ebbfd
Variable types: 0 continuous, 251502 integer (251502 binary)
Coefficient statistics:
  Matrix range     [1e+00, 1e+03]
  Objective range  [1e+00, 1e+00]
  Bounds range     [1e+00, 1e+00]
  RHS range        [1e+00, 1e+00]

Loaded user MIP start with objective 239

Presolve added 1002 rows and 1002 columns
Presolve time: 1.38s
Presolved: 3006 rows, 252504 columns, 756510 nonzeros
Variable types: 0 continuous, 252504 integer (251502 binary)

Root relaxation: objective 2.311858e+02, 5182 iterations, 1.51 seconds
Total elapsed time = 8.98s
Total elapsed time = 12.59s
Total elapsed time = 15.97s

    Nodes    |    Current Node    |     Objective Bounds      |     Work
 Expl Unexpl |  Obj  Depth IntInf | Incumbent    BestBd   Gap | It/Node Time

     0     0  231.18581    0  767  239.00000  231.18581  3.27%     -   19s
H    0     0                     238.0000000  231.18581  2.86%     -   39s
     0     0  231.18581    0  902  238.00000  231.18581  2.86%     -   41s
H    0     0                     237.0000000  231.18581  2.45%     -   60s

Cutting planes:
  Cover: 61
  Clique: 5
  MIR: 33
  StrongCG: 30
  RLT: 5
  Relax-and-lift: 8

Explored 1 nodes (38973 simplex iterations) in 60.10 seconds
Thread count was 1 (of 40 available processors)

Solution count 3: 237 238 239 

Time limit reached
Best objective 2.370000000000e+02, best bound 2.320000000000e+02, gap 2.1097%
0	251502	2004	1	232	237	60.545
