Academic license - for non-commercial use only - expires 2025-02-09
Gurobi Optimizer version 9.1.2 build v9.1.2rc0 (linux64)
Thread count: 20 physical cores, 40 logical processors, using up to 1 threads
Optimize a model with 1619 rows, 13244 columns and 63060 nonzeros
Model fingerprint: 0xbabe594c
Variable types: 0 continuous, 13244 integer (0 binary)
Coefficient statistics:
  Matrix range     [1e+00, 1e+00]
  Objective range  [1e+00, 1e+00]
  Bounds range     [6e+01, 6e+01]
  RHS range        [1e+00, 1e+00]

Warning: Completing partial solution with 13145 unfixed non-continuous variables out of 13244
User MIP start produced solution with objective 40 (0.02s)
Loaded user MIP start with objective 40

Presolve removed 885 rows and 2827 columns
Presolve time: 0.12s
Presolved: 734 rows, 10417 columns, 32632 nonzeros
Variable types: 0 continuous, 10417 integer (10245 binary)

Root relaxation: objective 2.000000e+01, 2208 iterations, 0.15 seconds

    Nodes    |    Current Node    |     Objective Bounds      |     Work
 Expl Unexpl |  Obj  Depth IntInf | Incumbent    BestBd   Gap | It/Node Time

*    0     0               0      20.0000000   20.00000  0.00%     -    0s

Explored 0 nodes (2208 simplex iterations) in 0.29 seconds
Thread count was 1 (of 40 available processors)

Solution count 2: 20 40 

Optimal solution found (tolerance 1.00e-04)
Best objective 2.000000000000e+01, best bound 2.000000000000e+01, gap 0.0000%
1	13244	1619	0	20	20	0.327
