Academic license - for non-commercial use only - expires 2025-02-09
Gurobi Optimizer version 9.1.2 build v9.1.2rc0 (linux64)
Thread count: 20 physical cores, 40 logical processors, using up to 1 threads
Optimize a model with 1813 rows, 31801 columns and 151605 nonzeros
Model fingerprint: 0x14395cb2
Variable types: 0 continuous, 31801 integer (0 binary)
Coefficient statistics:
  Matrix range     [1e+00, 1e+00]
  Objective range  [1e+00, 1e+00]
  Bounds range     [1e+02, 1e+02]
  RHS range        [1e+00, 1e+00]

Warning: Completing partial solution with 31609 unfixed non-continuous variables out of 31801
User MIP start produced solution with objective 80 (0.04s)
Loaded user MIP start with objective 80

Presolve removed 907 rows and 6306 columns
Presolve time: 0.27s
Presolved: 906 rows, 25495 columns, 81871 nonzeros
Variable types: 0 continuous, 25495 integer (25237 binary)

Root relaxation: objective 4.000000e+01, 5373 iterations, 0.80 seconds

    Nodes    |    Current Node    |     Objective Bounds      |     Work
 Expl Unexpl |  Obj  Depth IntInf | Incumbent    BestBd   Gap | It/Node Time

     0     0   40.00000    0   49   80.00000   40.00000  50.0%     -    1s
H    0     0                      45.0000000   40.00000  11.1%     -    1s
H    0     0                      42.0000000   40.00000  4.76%     -    1s
     0     0   40.00000    0  104   42.00000   40.00000  4.76%     -    2s
H    0     0                      41.0000000   40.00000  2.44%     -    2s
*    0     0               0      40.0000000   40.00000  0.00%     -    3s

Cutting planes:
  Zero half: 7

Explored 1 nodes (17624 simplex iterations) in 3.31 seconds
Thread count was 1 (of 40 available processors)

Solution count 5: 40 41 42 ... 80

Optimal solution found (tolerance 1.00e-04)
Best objective 4.000000000000e+01, best bound 4.000000000000e+01, gap 0.0000%
1	31801	1813	1	40	40	3.413
