Academic license - for non-commercial use only - expires 2025-02-09
Gurobi Optimizer version 9.1.2 build v9.1.2rc0 (linux64)
Thread count: 20 physical cores, 40 logical processors, using up to 1 threads
Optimize a model with 2055 rows, 78668 columns and 371911 nonzeros
Model fingerprint: 0x7669ed74
Variable types: 0 continuous, 78668 integer (0 binary)
Coefficient statistics:
  Matrix range     [1e+00, 1e+00]
  Objective range  [1e+00, 1e+00]
  Bounds range     [2e+02, 2e+02]
  RHS range        [1e+00, 1e+00]

Warning: Completing partial solution with 78293 unfixed non-continuous variables out of 78668
User MIP start produced solution with objective 165 (0.08s)
Loaded user MIP start with objective 165

Presolve removed 960 rows and 19918 columns
Presolve time: 0.67s
Presolved: 1095 rows, 58750 columns, 194891 nonzeros
Variable types: 0 continuous, 58750 integer (58485 binary)

Root simplex log...

Iteration    Objective       Primal Inf.    Dual Inf.      Time
   13910    8.3000714e+01   1.066880e+01   0.000000e+00      5s
   14133    8.3000000e+01   0.000000e+00   0.000000e+00      5s

Root relaxation: objective 8.300000e+01, 14133 iterations, 4.42 seconds

    Nodes    |    Current Node    |     Objective Bounds      |     Work
 Expl Unexpl |  Obj  Depth IntInf | Incumbent    BestBd   Gap | It/Node Time

     0     0   83.00000    0   15  165.00000   83.00000  49.7%     -    8s
H    0     0                      84.0000000   83.00000  1.19%     -    8s
     0     0   83.00000    0  129   84.00000   83.00000  1.19%     -    9s
H    0     0                      83.0000000   83.00000  0.00%     -   13s
     0     0   83.00000    0  129   83.00000   83.00000  0.00%     -   13s

Cutting planes:
  Zero half: 1

Explored 1 nodes (40080 simplex iterations) in 13.10 seconds
Thread count was 1 (of 40 available processors)

Solution count 3: 83 84 165 

Optimal solution found (tolerance 1.00e-04)
Best objective 8.300000000000e+01, best bound 8.300000000000e+01, gap 0.0000%
1	78668	2055	1	83	83	13.319
