Academic license - for non-commercial use only - expires 2025-02-09
Gurobi Optimizer version 9.1.2 build v9.1.2rc0 (linux64)
Thread count: 20 physical cores, 40 logical processors, using up to 1 threads
Optimize a model with 1789 rows, 30726 columns and 146557 nonzeros
Model fingerprint: 0xc0119048
Variable types: 0 continuous, 30726 integer (0 binary)
Coefficient statistics:
  Matrix range     [1e+00, 1e+00]
  Objective range  [1e+00, 1e+00]
  Bounds range     [1e+02, 1e+02]
  RHS range        [1e+00, 1e+00]

Warning: Completing partial solution with 30538 unfixed non-continuous variables out of 30726
User MIP start produced solution with objective 80 (0.04s)
Loaded user MIP start with objective 80

Presolve removed 894 rows and 6098 columns
Presolve time: 0.25s
Presolved: 895 rows, 24628 columns, 78252 nonzeros
Variable types: 0 continuous, 24628 integer (24379 binary)

Root relaxation: objective 4.000000e+01, 4994 iterations, 0.78 seconds

    Nodes    |    Current Node    |     Objective Bounds      |     Work
 Expl Unexpl |  Obj  Depth IntInf | Incumbent    BestBd   Gap | It/Node Time

     0     0   40.00000    0   62   80.00000   40.00000  50.0%     -    1s
H    0     0                      42.0000000   40.00000  4.76%     -    1s
     0     0   40.00000    0   72   42.00000   40.00000  4.76%     -    1s
H    0     0                      41.0000000   40.00000  2.44%     -    1s
     0     0   40.00000    0   75   41.00000   40.00000  2.44%     -    1s
     0     0   40.00000    0   57   41.00000   40.00000  2.44%     -    2s
     0     0   40.00000    0   60   41.00000   40.00000  2.44%     -    2s
     0     0   40.00000    0   42   41.00000   40.00000  2.44%     -    2s
     0     0   40.00000    0   42   41.00000   40.00000  2.44%     -    3s
H    0     0                      40.0000000   40.00000  0.00%     -    3s
     0     0   40.00000    0   42   40.00000   40.00000  0.00%     -    3s

Cutting planes:
  Zero half: 2
  RLT: 2

Explored 1 nodes (28634 simplex iterations) in 3.30 seconds
Thread count was 1 (of 40 available processors)

Solution count 4: 40 41 42 80 

Optimal solution found (tolerance 1.00e-04)
Best objective 4.000000000000e+01, best bound 4.000000000000e+01, gap 0.0000%
1	30726	1789	1	40	40	3.405
