Academic license - for non-commercial use only - expires 2025-02-09
Gurobi Optimizer version 9.1.2 build v9.1.2rc0 (linux64)
Thread count: 20 physical cores, 40 logical processors, using up to 1 threads
Optimize a model with 480 rows, 14520 columns and 57720 nonzeros
Model fingerprint: 0x70318089
Variable types: 0 continuous, 14520 integer (14520 binary)
Coefficient statistics:
  Matrix range     [1e+00, 1e+03]
  Objective range  [1e+00, 1e+00]
  Bounds range     [1e+00, 1e+00]
  RHS range        [1e+00, 1e+00]

Loaded user MIP start with objective 71

Presolve time: 0.06s
Presolved: 480 rows, 14520 columns, 57720 nonzeros
Variable types: 0 continuous, 14520 integer (14520 binary)

Root relaxation: objective 4.000000e+01, 900 iterations, 0.05 seconds

    Nodes    |    Current Node    |     Objective Bounds      |     Work
 Expl Unexpl |  Obj  Depth IntInf | Incumbent    BestBd   Gap | It/Node Time

     0     0   40.00000    0   93   71.00000   40.00000  43.7%     -    0s
H    0     0                      66.0000000   40.00000  39.4%     -    0s
H    0     0                      59.0000000   40.00000  32.2%     -    0s
     0     0   40.00000    0  184   59.00000   40.00000  32.2%     -    0s
H    0     0                      45.0000000   40.00000  11.1%     -    2s
     0     0   40.00000    0  170   45.00000   40.00000  11.1%     -    2s
     0     0   40.00000    0  103   45.00000   40.00000  11.1%     -    2s
     0     0   40.00000    0  122   45.00000   40.00000  11.1%     -    2s
     0     0   40.00000    0  104   45.00000   40.00000  11.1%     -    3s
     0     0   40.00000    0   95   45.00000   40.00000  11.1%     -    3s
     0     2   40.00000    0   97   45.00000   40.00000  11.1%     -    4s
     9     3   40.00000    5  105   45.00000   40.00000  11.1%   427    5s
    23     9   40.00000   15  116   45.00000   40.00000  11.1%   227   10s
H   26     6                      44.0000000   40.00000  9.09%   235   12s
    28     8 infeasible   17        44.00000   40.00000  9.09%   220   15s
    42    10   40.00000   25  107   44.00000   40.00000  9.09%   206   20s
H   53     9                      43.0000000   40.00000  6.98%   204   25s
    60    14   40.00000   36  135   43.00000   40.00000  6.98%   216   30s
    70    14     cutoff   42        43.00000   40.00000  6.98%   208   35s
    84     2   40.00000   40  132   43.00000   40.00000  6.98%   267   41s
   100     1 infeasible   43        43.00000   40.00000  6.98%   239   45s
   113     2   40.00000   44  145   43.00000   40.00000  6.98%   230   51s
   123     2 infeasible   48        43.00000   40.00000  6.98%   217   55s
   141     3   41.49100   50  115   43.00000   40.00000  6.98%   208   60s

Cutting planes:
  Cover: 42
  Clique: 10
  MIR: 19
  StrongCG: 9
  RLT: 1

Explored 142 nodes (44711 simplex iterations) in 60.00 seconds
Thread count was 1 (of 40 available processors)

Solution count 6: 43 44 45 ... 71

Time limit reached
Best objective 4.300000000000e+01, best bound 4.000000000000e+01, gap 6.9767%
0	14520	480	142	40	43	60.058
