Academic license - for non-commercial use only - expires 2025-02-09
Gurobi Optimizer version 9.1.2 build v9.1.2rc0 (linux64)
Thread count: 20 physical cores, 40 logical processors, using up to 1 threads
Optimize a model with 996 rows, 62250 columns and 248253 nonzeros
Model fingerprint: 0x6022e828
Variable types: 0 continuous, 62250 integer (62250 binary)
Coefficient statistics:
  Matrix range     [1e+00, 1e+03]
  Objective range  [1e+00, 1e+00]
  Bounds range     [1e+00, 1e+00]
  RHS range        [1e+00, 1e+00]

Loaded user MIP start with objective 153

Presolve added 498 rows and 498 columns
Presolve time: 0.25s
Presolved: 1494 rows, 62748 columns, 187746 nonzeros
Variable types: 0 continuous, 62748 integer (62250 binary)

Root relaxation: objective 8.300000e+01, 2655 iterations, 0.31 seconds

    Nodes    |    Current Node    |     Objective Bounds      |     Work
 Expl Unexpl |  Obj  Depth IntInf | Incumbent    BestBd   Gap | It/Node Time

     0     0   83.00000    0  347  153.00000   83.00000  45.8%     -    2s
H    0     0                     110.0000000   83.00000  24.5%     -    4s
H    0     0                     104.0000000   83.00000  20.2%     -    8s
     0     0   83.00000    0  491  104.00000   83.00000  20.2%     -    8s
H    0     0                      89.0000000   83.00000  6.74%     -   23s
     0     0   83.00000    0  485   89.00000   83.00000  6.74%     -   23s
     0     0   83.00000    0  365   89.00000   83.00000  6.74%     -   26s
     0     0   83.00000    0  437   89.00000   83.00000  6.74%     -   26s
     0     0   83.00000    0  402   89.00000   83.00000  6.74%     -   29s
     0     0   83.00000    0  379   89.00000   83.00000  6.74%     -   31s
     0     2   83.00000    0  350   89.00000   83.00000  6.74%     -   42s
    16    18   83.00000    9  303   89.00000   83.00000  6.74%  1240   45s
    78    80   83.00000   49  395   89.00000   83.00000  6.74%   814   50s
H   84    84                      88.0000000   83.00000  5.68%   771   50s
H  137   137                      87.0000000   83.00000  4.60%   732   58s
   162   164   83.00000  104  438   87.00000   83.00000  4.60%   686   60s

Cutting planes:
  Cover: 49
  Clique: 16
  MIR: 23
  StrongCG: 23
  RLT: 5
  Relax-and-lift: 41

Explored 163 nodes (170743 simplex iterations) in 60.01 seconds
Thread count was 1 (of 40 available processors)

Solution count 6: 87 88 89 ... 153

Time limit reached
Best objective 8.700000000000e+01, best bound 8.300000000000e+01, gap 4.5977%
0	62250	996	163	83	87	60.154
