Academic license - for non-commercial use only - expires 2025-02-09
Gurobi Optimizer version 9.1.2 build v9.1.2rc0 (linux64)
Thread count: 20 physical cores, 40 logical processors, using up to 1 threads
Optimize a model with 2004 rows, 251502 columns and 1004505 nonzeros
Model fingerprint: 0xc208068c
Variable types: 0 continuous, 251502 integer (251502 binary)
Coefficient statistics:
  Matrix range     [1e+00, 1e+03]
  Objective range  [1e+00, 1e+00]
  Bounds range     [1e+00, 1e+00]
  RHS range        [1e+00, 1e+00]

Loaded user MIP start with objective 302

Presolve added 1002 rows and 1002 columns
Presolve time: 1.20s
Presolved: 3006 rows, 252504 columns, 756510 nonzeros
Variable types: 0 continuous, 252504 integer (251502 binary)

Root relaxation: objective 1.670000e+02, 4373 iterations, 1.43 seconds
Total elapsed time = 15.58s

    Nodes    |    Current Node    |     Objective Bounds      |     Work
 Expl Unexpl |  Obj  Depth IntInf | Incumbent    BestBd   Gap | It/Node Time

     0     0  167.00000    0  783  302.00000  167.00000  44.7%     -   20s
H    0     0                     245.0000000  167.00000  31.8%     -   25s
H    0     0                     229.0000000  167.00000  27.1%     -   45s
     0     0  167.00000    0  898  229.00000  167.00000  27.1%     -   48s
H    0     0                     228.0000000  167.00000  26.8%     -   58s

Cutting planes:
  Cover: 21
  Clique: 2
  MIR: 34
  StrongCG: 22
  RLT: 28
  Relax-and-lift: 22

Explored 1 nodes (48599 simplex iterations) in 60.01 seconds
Thread count was 1 (of 40 available processors)

Solution count 4: 228 229 245 302 

Time limit reached
Best objective 2.280000000000e+02, best bound 1.670000000000e+02, gap 26.7544%
0	251502	2004	1	167	228	60.437
