Academic license - for non-commercial use only - expires 2025-02-09
Gurobi Optimizer version 9.1.2 build v9.1.2rc0 (linux64)
Thread count: 20 physical cores, 40 logical processors, using up to 1 threads
Optimize a model with 996 rows, 62250 columns and 248253 nonzeros
Model fingerprint: 0x3f0c5e77
Variable types: 0 continuous, 62250 integer (62250 binary)
Coefficient statistics:
  Matrix range     [1e+00, 1e+03]
  Objective range  [1e+00, 1e+00]
  Bounds range     [1e+00, 1e+00]
  RHS range        [1e+00, 1e+00]

Loaded user MIP start with objective 145

Presolve added 498 rows and 498 columns
Presolve time: 0.25s
Presolved: 1494 rows, 62748 columns, 187746 nonzeros
Variable types: 0 continuous, 62748 integer (62250 binary)

Root relaxation: objective 8.300000e+01, 2483 iterations, 0.32 seconds

    Nodes    |    Current Node    |     Objective Bounds      |     Work
 Expl Unexpl |  Obj  Depth IntInf | Incumbent    BestBd   Gap | It/Node Time

     0     0   83.00000    0  348  145.00000   83.00000  42.8%     -    2s
H    0     0                     119.0000000   83.00000  30.3%     -    3s
H    0     0                     111.0000000   83.00000  25.2%     -    4s
     0     0   83.00000    0  478  111.00000   83.00000  25.2%     -    4s
H    0     0                      92.0000000   83.00000  9.78%     -   13s
     0     0   83.00000    0  479   92.00000   83.00000  9.78%     -   13s
     0     0   83.00000    0  366   92.00000   83.00000  9.78%     -   16s
H    0     0                      89.0000000   83.00000  6.74%     -   18s
     0     0   83.00000    0  444   89.00000   83.00000  6.74%     -   18s
     0     0   83.00000    0  370   89.00000   83.00000  6.74%     -   22s
     0     0   83.00000    0  370   89.00000   83.00000  6.74%     -   24s
     0     2   83.00000    0  370   89.00000   83.00000  6.74%     -   33s
     2     4   83.00000    1  365   89.00000   83.00000  6.74%  1975   35s
H   27    27                      88.0000000   83.00000  5.68%   991   56s
    52    54   83.00000   33  295   88.00000   83.00000  5.68%   794   60s

Cutting planes:
  Cover: 58
  Clique: 14
  MIR: 36
  StrongCG: 19
  RLT: 12
  Relax-and-lift: 40

Explored 53 nodes (96344 simplex iterations) in 60.01 seconds
Thread count was 1 (of 40 available processors)

Solution count 6: 88 89 92 ... 145

Time limit reached
Best objective 8.800000000000e+01, best bound 8.300000000000e+01, gap 5.6818%
0	62250	996	53	83	88	60.153
