Academic license - for non-commercial use only - expires 2025-02-09
Gurobi Optimizer version 9.1.2 build v9.1.2rc0 (linux64)
Thread count: 20 physical cores, 40 logical processors, using up to 1 threads
Optimize a model with 996 rows, 62250 columns and 248253 nonzeros
Model fingerprint: 0x44a41458
Variable types: 0 continuous, 62250 integer (62250 binary)
Coefficient statistics:
  Matrix range     [1e+00, 1e+03]
  Objective range  [1e+00, 1e+00]
  Bounds range     [1e+00, 1e+00]
  RHS range        [1e+00, 1e+00]

Loaded user MIP start with objective 147

Presolve added 498 rows and 498 columns
Presolve time: 0.25s
Presolved: 1494 rows, 62748 columns, 187746 nonzeros
Variable types: 0 continuous, 62748 integer (62250 binary)

Root relaxation: objective 8.300000e+01, 2527 iterations, 0.28 seconds

    Nodes    |    Current Node    |     Objective Bounds      |     Work
 Expl Unexpl |  Obj  Depth IntInf | Incumbent    BestBd   Gap | It/Node Time

     0     0   83.00000    0  384  147.00000   83.00000  43.5%     -    1s
H    0     0                     111.0000000   83.00000  25.2%     -    2s
H    0     0                     107.0000000   83.00000  22.4%     -    5s
     0     0   83.00000    0  505  107.00000   83.00000  22.4%     -    6s
H    0     0                      93.0000000   83.00000  10.8%     -   17s
     0     0   83.00000    0  508   93.00000   83.00000  10.8%     -   17s
     0     0   83.00000    0  377   93.00000   83.00000  10.8%     -   20s
     0     0   83.00000    0  462   93.00000   83.00000  10.8%     -   20s
     0     0   83.00000    0  376   93.00000   83.00000  10.8%     -   24s
     0     0   83.00000    0  376   93.00000   83.00000  10.8%     -   25s
     0     2   83.00000    0  376   93.00000   83.00000  10.8%     -   34s
     2     4   83.00000    1  401   93.00000   83.00000  10.8%  2471   35s
H   26    26                      92.0000000   83.00000  9.78%   694   38s
    47    49   83.00000   30  352   92.00000   83.00000  9.78%   675   40s
H   52    52                      91.0000000   83.00000  8.79%   669   41s
H   53    53                      88.0000000   83.00000  5.68%   700   60s

Cutting planes:
  Cover: 46
  Clique: 16
  MIR: 30
  StrongCG: 16
  RLT: 11
  Relax-and-lift: 36

Explored 54 nodes (94269 simplex iterations) in 60.01 seconds
Thread count was 1 (of 40 available processors)

Solution count 7: 88 91 92 ... 147

Time limit reached
Best objective 8.800000000000e+01, best bound 8.300000000000e+01, gap 5.6818%
0	62250	996	54	83	88	60.155
