Application parameters:
  batch  =>  nothing
  instance  =>  "/IN/N2001W1000001R2550Q2Half-002"
  ub  =>  1.0e6
  cfg  =>  "/CFG/BPP.cfg"
data = Colored Bin Packing dataset.
number of items = 2001
number of colors = 2
capacity = 1000001
Items : 
	 item 1, weight= 250020, color= 0
	 item 2, weight= 250039, color= 0
	 item 3, weight= 250044, color= 0
	 item 4, weight= 250052, color= 0
	 item 5, weight= 250103, color= 0
	 item 6, weight= 250105, color= 0
	 item 7, weight= 250134, color= 1
	 item 8, weight= 250230, color= 0
	 item 9, weight= 250232, color= 0
	 item 10, weight= 250274, color= 0
	 item 11, weight= 250288, color= 0
	 item 12, weight= 250289, color= 0
	 item 13, weight= 250300, color= 0
	 item 14, weight= 250316, color= 0
	 item 15, weight= 250358, color= 1
	 item 16, weight= 250419, color= 0
	 item 17, weight= 250422, color= 1
	 item 18, weight= 250531, color= 0
	 item 19, weight= 250539, color= 0
	 item 20, weight= 250564, color= 0
	 item 21, weight= 250623, color= 0
	 item 22, weight= 250631, color= 0
	 item 23, weight= 250632, color= 0
	 item 24, weight= 250750, color= 0
	 item 25, weight= 250754, color= 0
	 item 26, weight= 250770, color= 0
	 item 27, weight= 250771, color= 1
	 item 28, weight= 250804, color= 0
	 item 29, weight= 250881, color= 0
	 item 30, weight= 250899, color= 0
	 item 31, weight= 250903, color= 1
	 item 32, weight= 250942, color= 0
	 item 33, weight= 250973, color= 1
	 item 34, weight= 251044, color= 0
	 item 35, weight= 251058, color= 0
	 item 36, weight= 251078, color= 0
	 item 37, weight= 251089, color= 0
	 item 38, weight= 251091, color= 0
	 item 39, weight= 251102, color= 0
	 item 40, weight= 251123, color= 0
	 item 41, weight= 251141, color= 0
	 item 42, weight= 251169, color= 0
	 item 43, weight= 251217, color= 0
	 item 44, weight= 251282, color= 0
	 item 45, weight= 251341, color= 0
	 item 46, weight= 251343, color= 0
	 item 47, weight= 251485, color= 0
	 item 48, weight= 251541, color= 1
	 item 49, weight= 251581, color= 0
	 item 50, weight= 251583, color= 1
	 item 51, weight= 251588, color= 0
	 item 52, weight= 251595, color= 0
	 item 53, weight= 251605, color= 0
	 item 54, weight= 251672, color= 0
	 item 55, weight= 251672, color= 0
	 item 56, weight= 251705, color= 1
	 item 57, weight= 251741, color= 0
	 item 58, weight= 251788, color= 0
	 item 59, weight= 251820, color= 0
	 item 60, weight= 251859, color= 0
	 item 61, weight= 251882, color= 0
	 item 62, weight= 251913, color= 0
	 item 63, weight= 252030, color= 0
	 item 64, weight= 252031, color= 0
	 item 65, weight= 252061, color= 0
	 item 66, weight= 252073, color= 0
	 item 67, weight= 252098, color= 0
	 item 68, weight= 252106, color= 0
	 item 69, weight= 252210, color= 0
	 item 70, weight= 252320, color= 1
	 item 71, weight= 252351, color= 0
	 item 72, weight= 252371, color= 0
	 item 73, weight= 252385, color= 0
	 item 74, weight= 252404, color= 0
	 item 75, weight= 252416, color= 0
	 item 76, weight= 252424, color= 0
	 item 77, weight= 252554, color= 0
	 item 78, weight= 252568, color= 1
	 item 79, weight= 252576, color= 0
	 item 80, weight= 252582, color= 0
	 item 81, weight= 252595, color= 0
	 item 82, weight= 252612, color= 0
	 item 83, weight= 252625, color= 0
	 item 84, weight= 252632, color= 0
	 item 85, weight= 252702, color= 0
	 item 86, weight= 252710, color= 0
	 item 87, weight= 252715, color= 0
	 item 88, weight= 252733, color= 0
	 item 89, weight= 252736, color= 0
	 item 90, weight= 252840, color= 1
	 item 91, weight= 252887, color= 0
	 item 92, weight= 252937, color= 0
	 item 93, weight= 253004, color= 0
	 item 94, weight= 253027, color= 1
	 item 95, weight= 253200, color= 0
	 item 96, weight= 253252, color= 0
	 item 97, weight= 253263, color= 1
	 item 98, weight= 253302, color= 0
	 item 99, weight= 253313, color= 0
	 item 100, weight= 253347, color= 0
	 item 101, weight= 253358, color= 0
	 item 102, weight= 253384, color= 1
	 item 103, weight= 253388, color= 0
	 item 104, weight= 253399, color= 0
	 item 105, weight= 253415, color= 0
	 item 106, weight= 253441, color= 0
	 item 107, weight= 253447, color= 0
	 item 108, weight= 253448, color= 0
	 item 109, weight= 253496, color= 0
	 item 110, weight= 253521, color= 0
	 item 111, weight= 253574, color= 1
	 item 112, weight= 253577, color= 0
	 item 113, weight= 253632, color= 0
	 item 114, weight= 253635, color= 0
	 item 115, weight= 253641, color= 0
	 item 116, weight= 253648, color= 0
	 item 117, weight= 253650, color= 0
	 item 118, weight= 253725, color= 0
	 item 119, weight= 253893, color= 0
	 item 120, weight= 253986, color= 0
	 item 121, weight= 254022, color= 0
	 item 122, weight= 254069, color= 0
	 item 123, weight= 254341, color= 0
	 item 124, weight= 254351, color= 0
	 item 125, weight= 254351, color= 1
	 item 126, weight= 254379, color= 0
	 item 127, weight= 254413, color= 0
	 item 128, weight= 254427, color= 0
	 item 129, weight= 254510, color= 0
	 item 130, weight= 254588, color= 0
	 item 131, weight= 254599, color= 0
	 item 132, weight= 254604, color= 1
	 item 133, weight= 254613, color= 0
	 item 134, weight= 254635, color= 1
	 item 135, weight= 254683, color= 1
	 item 136, weight= 254695, color= 0
	 item 137, weight= 254714, color= 0
	 item 138, weight= 254731, color= 0
	 item 139, weight= 254743, color= 0
	 item 140, weight= 254755, color= 0
	 item 141, weight= 254874, color= 0
	 item 142, weight= 254878, color= 0
	 item 143, weight= 254965, color= 0
	 item 144, weight= 254970, color= 0
	 item 145, weight= 255013, color= 0
	 item 146, weight= 255111, color= 0
	 item 147, weight= 255308, color= 0
	 item 148, weight= 255330, color= 0
	 item 149, weight= 255352, color= 0
	 item 150, weight= 255387, color= 0
	 item 151, weight= 255413, color= 0
	 item 152, weight= 255451, color= 0
	 item 153, weight= 255519, color= 0
	 item 154, weight= 255555, color= 0
	 item 155, weight= 255573, color= 1
	 item 156, weight= 255620, color= 0
	 item 157, weight= 255631, color= 0
	 item 158, weight= 255720, color= 0
	 item 159, weight= 255729, color= 0
	 item 160, weight= 255749, color= 1
	 item 161, weight= 255833, color= 0
	 item 162, weight= 255880, color= 0
	 item 163, weight= 255884, color= 0
	 item 164, weight= 255946, color= 0
	 item 165, weight= 256106, color= 0
	 item 166, weight= 256154, color= 0
	 item 167, weight= 256294, color= 0
	 item 168, weight= 256329, color= 0
	 item 169, weight= 256344, color= 0
	 item 170, weight= 256514, color= 0
	 item 171, weight= 256534, color= 0
	 item 172, weight= 256651, color= 0
	 item 173, weight= 256669, color= 0
	 item 174, weight= 256734, color= 0
	 item 175, weight= 256764, color= 0
	 item 176, weight= 256771, color= 0
	 item 177, weight= 256798, color= 1
	 item 178, weight= 256858, color= 0
	 item 179, weight= 256956, color= 0
	 item 180, weight= 257015, color= 0
	 item 181, weight= 257016, color= 1
	 item 182, weight= 257034, color= 0
	 item 183, weight= 257274, color= 1
	 item 184, weight= 257387, color= 0
	 item 185, weight= 257393, color= 0
	 item 186, weight= 257433, color= 0
	 item 187, weight= 257438, color= 0
	 item 188, weight= 257632, color= 0
	 item 189, weight= 257645, color= 0
	 item 190, weight= 257700, color= 1
	 item 191, weight= 257725, color= 0
	 item 192, weight= 257729, color= 1
	 item 193, weight= 257790, color= 1
	 item 194, weight= 257794, color= 0
	 item 195, weight= 257815, color= 0
	 item 196, weight= 257842, color= 0
	 item 197, weight= 257905, color= 0
	 item 198, weight= 257946, color= 0
	 item 199, weight= 257963, color= 1
	 item 200, weight= 258025, color= 0
	 item 201, weight= 258049, color= 0
	 item 202, weight= 258058, color= 0
	 item 203, weight= 258096, color= 0
	 item 204, weight= 258096, color= 1
	 item 205, weight= 258111, color= 0
	 item 206, weight= 258146, color= 0
	 item 207, weight= 258146, color= 0
	 item 208, weight= 258185, color= 0
	 item 209, weight= 258192, color= 0
	 item 210, weight= 258269, color= 0
	 item 211, weight= 258402, color= 0
	 item 212, weight= 258447, color= 1
	 item 213, weight= 258537, color= 0
	 item 214, weight= 258540, color= 0
	 item 215, weight= 258545, color= 0
	 item 216, weight= 258607, color= 0
	 item 217, weight= 258748, color= 1
	 item 218, weight= 258848, color= 1
	 item 219, weight= 258923, color= 1
	 item 220, weight= 258931, color= 0
	 item 221, weight= 259008, color= 0
	 item 222, weight= 259027, color= 0
	 item 223, weight= 259044, color= 1
	 item 224, weight= 259056, color= 1
	 item 225, weight= 259248, color= 0
	 item 226, weight= 259269, color= 1
	 item 227, weight= 259289, color= 0
	 item 228, weight= 259295, color= 0
	 item 229, weight= 259327, color= 0
	 item 230, weight= 259334, color= 1
	 item 231, weight= 259340, color= 1
	 item 232, weight= 259343, color= 1
	 item 233, weight= 259406, color= 0
	 item 234, weight= 259407, color= 1
	 item 235, weight= 259492, color= 0
	 item 236, weight= 259572, color= 0
	 item 237, weight= 259576, color= 1
	 item 238, weight= 259581, color= 1
	 item 239, weight= 259603, color= 0
	 item 240, weight= 259660, color= 0
	 item 241, weight= 259783, color= 0
	 item 242, weight= 259786, color= 1
	 item 243, weight= 259855, color= 0
	 item 244, weight= 259857, color= 0
	 item 245, weight= 259884, color= 1
	 item 246, weight= 259924, color= 0
	 item 247, weight= 259983, color= 0
	 item 248, weight= 260013, color= 0
	 item 249, weight= 260016, color= 0
	 item 250, weight= 260023, color= 0
	 item 251, weight= 260037, color= 1
	 item 252, weight= 260147, color= 0
	 item 253, weight= 260172, color= 0
	 item 254, weight= 260282, color= 0
	 item 255, weight= 260284, color= 1
	 item 256, weight= 260328, color= 0
	 item 257, weight= 260340, color= 0
	 item 258, weight= 260386, color= 1
	 item 259, weight= 260481, color= 0
	 item 260, weight= 260575, color= 0
	 item 261, weight= 260589, color= 0
	 item 262, weight= 260675, color= 0
	 item 263, weight= 260723, color= 0
	 item 264, weight= 260769, color= 1
	 item 265, weight= 260769, color= 1
	 item 266, weight= 260774, color= 0
	 item 267, weight= 260795, color= 0
	 item 268, weight= 260833, color= 0
	 item 269, weight= 260883, color= 0
	 item 270, weight= 260914, color= 0
	 item 271, weight= 260947, color= 0
	 item 272, weight= 260964, color= 0
	 item 273, weight= 261058, color= 0
	 item 274, weight= 261115, color= 0
	 item 275, weight= 261149, color= 0
	 item 276, weight= 261219, color= 0
	 item 277, weight= 261232, color= 0
	 item 278, weight= 261270, color= 0
	 item 279, weight= 261276, color= 0
	 item 280, weight= 261277, color= 0
	 item 281, weight= 261315, color= 0
	 item 282, weight= 261415, color= 0
	 item 283, weight= 261445, color= 0
	 item 284, weight= 261445, color= 0
	 item 285, weight= 261486, color= 1
	 item 286, weight= 261487, color= 0
	 item 287, weight= 261567, color= 0
	 item 288, weight= 261568, color= 0
	 item 289, weight= 261624, color= 0
	 item 290, weight= 261755, color= 0
	 item 291, weight= 261895, color= 1
	 item 292, weight= 261926, color= 1
	 item 293, weight= 261965, color= 0
	 item 294, weight= 262051, color= 0
	 item 295, weight= 262056, color= 0
	 item 296, weight= 262129, color= 0
	 item 297, weight= 262163, color= 0
	 item 298, weight= 262222, color= 0
	 item 299, weight= 262227, color= 0
	 item 300, weight= 262343, color= 0
	 item 301, weight= 262365, color= 0
	 item 302, weight= 262457, color= 1
	 item 303, weight= 262462, color= 0
	 item 304, weight= 262503, color= 1
	 item 305, weight= 262606, color= 0
	 item 306, weight= 262612, color= 0
	 item 307, weight= 262661, color= 0
	 item 308, weight= 262704, color= 0
	 item 309, weight= 262708, color= 0
	 item 310, weight= 262811, color= 0
	 item 311, weight= 262882, color= 1
	 item 312, weight= 262908, color= 1
	 item 313, weight= 262918, color= 0
	 item 314, weight= 262969, color= 0
	 item 315, weight= 263004, color= 0
	 item 316, weight= 263032, color= 0
	 item 317, weight= 263085, color= 0
	 item 318, weight= 263107, color= 0
	 item 319, weight= 263190, color= 0
	 item 320, weight= 263206, color= 0
	 item 321, weight= 263218, color= 0
	 item 322, weight= 263308, color= 1
	 item 323, weight= 263446, color= 0
	 item 324, weight= 263520, color= 0
	 item 325, weight= 263525, color= 0
	 item 326, weight= 263766, color= 0
	 item 327, weight= 263817, color= 0
	 item 328, weight= 263895, color= 1
	 item 329, weight= 263960, color= 0
	 item 330, weight= 264202, color= 1
	 item 331, weight= 264309, color= 1
	 item 332, weight= 264331, color= 0
	 item 333, weight= 264353, color= 1
	 item 334, weight= 264465, color= 0
	 item 335, weight= 264531, color= 0
	 item 336, weight= 264563, color= 0
	 item 337, weight= 264589, color= 0
	 item 338, weight= 264636, color= 1
	 item 339, weight= 264653, color= 1
	 item 340, weight= 264743, color= 0
	 item 341, weight= 264816, color= 0
	 item 342, weight= 264922, color= 1
	 item 343, weight= 264990, color= 0
	 item 344, weight= 264991, color= 0
	 item 345, weight= 264991, color= 1
	 item 346, weight= 264999, color= 1
	 item 347, weight= 265003, color= 0
	 item 348, weight= 265205, color= 0
	 item 349, weight= 265218, color= 0
	 item 350, weight= 265398, color= 0
	 item 351, weight= 265411, color= 0
	 item 352, weight= 265578, color= 0
	 item 353, weight= 265609, color= 0
	 item 354, weight= 265722, color= 0
	 item 355, weight= 265783, color= 0
	 item 356, weight= 265921, color= 0
	 item 357, weight= 265922, color= 0
	 item 358, weight= 265924, color= 0
	 item 359, weight= 265986, color= 0
	 item 360, weight= 266164, color= 0
	 item 361, weight= 266219, color= 0
	 item 362, weight= 266282, color= 1
	 item 363, weight= 266440, color= 0
	 item 364, weight= 266477, color= 0
	 item 365, weight= 266601, color= 1
	 item 366, weight= 266629, color= 1
	 item 367, weight= 266738, color= 0
	 item 368, weight= 266796, color= 0
	 item 369, weight= 266805, color= 1
	 item 370, weight= 266816, color= 1
	 item 371, weight= 266903, color= 1
	 item 372, weight= 266961, color= 0
	 item 373, weight= 267014, color= 0
	 item 374, weight= 267061, color= 0
	 item 375, weight= 267073, color= 1
	 item 376, weight= 267193, color= 0
	 item 377, weight= 267297, color= 0
	 item 378, weight= 267305, color= 0
	 item 379, weight= 267316, color= 0
	 item 380, weight= 267343, color= 0
	 item 381, weight= 267349, color= 0
	 item 382, weight= 267357, color= 0
	 item 383, weight= 267376, color= 1
	 item 384, weight= 267407, color= 0
	 item 385, weight= 267408, color= 0
	 item 386, weight= 267412, color= 0
	 item 387, weight= 267512, color= 0
	 item 388, weight= 267536, color= 1
	 item 389, weight= 267609, color= 0
	 item 390, weight= 267659, color= 0
	 item 391, weight= 267660, color= 0
	 item 392, weight= 267695, color= 0
	 item 393, weight= 267745, color= 0
	 item 394, weight= 267749, color= 0
	 item 395, weight= 267861, color= 0
	 item 396, weight= 267869, color= 0
	 item 397, weight= 267933, color= 1
	 item 398, weight= 267990, color= 0
	 item 399, weight= 268087, color= 0
	 item 400, weight= 268179, color= 0
	 item 401, weight= 268182, color= 0
	 item 402, weight= 268190, color= 1
	 item 403, weight= 268302, color= 0
	 item 404, weight= 268332, color= 0
	 item 405, weight= 268403, color= 1
	 item 406, weight= 268418, color= 0
	 item 407, weight= 268468, color= 0
	 item 408, weight= 268545, color= 1
	 item 409, weight= 268624, color= 0
	 item 410, weight= 268765, color= 1
	 item 411, weight= 268813, color= 0
	 item 412, weight= 268835, color= 0
	 item 413, weight= 268894, color= 0
	 item 414, weight= 268909, color= 0
	 item 415, weight= 269025, color= 1
	 item 416, weight= 269050, color= 1
	 item 417, weight= 269107, color= 1
	 item 418, weight= 269150, color= 0
	 item 419, weight= 269202, color= 0
	 item 420, weight= 269310, color= 0
	 item 421, weight= 269324, color= 0
	 item 422, weight= 269480, color= 1
	 item 423, weight= 269557, color= 0
	 item 424, weight= 269589, color= 0
	 item 425, weight= 269764, color= 1
	 item 426, weight= 269804, color= 0
	 item 427, weight= 269870, color= 0
	 item 428, weight= 270104, color= 0
	 item 429, weight= 270136, color= 0
	 item 430, weight= 270142, color= 0
	 item 431, weight= 270261, color= 0
	 item 432, weight= 270261, color= 1
	 item 433, weight= 270348, color= 0
	 item 434, weight= 270443, color= 0
	 item 435, weight= 270445, color= 0
	 item 436, weight= 270626, color= 1
	 item 437, weight= 270640, color= 0
	 item 438, weight= 270673, color= 0
	 item 439, weight= 270775, color= 0
	 item 440, weight= 270808, color= 0
	 item 441, weight= 270838, color= 1
	 item 442, weight= 270915, color= 0
	 item 443, weight= 270916, color= 0
	 item 444, weight= 270961, color= 0
	 item 445, weight= 271021, color= 1
	 item 446, weight= 271055, color= 0
	 item 447, weight= 271341, color= 0
	 item 448, weight= 271415, color= 0
	 item 449, weight= 271454, color= 0
	 item 450, weight= 271559, color= 0
	 item 451, weight= 271641, color= 0
	 item 452, weight= 271776, color= 0
	 item 453, weight= 271786, color= 1
	 item 454, weight= 271825, color= 0
	 item 455, weight= 271938, color= 0
	 item 456, weight= 271941, color= 1
	 item 457, weight= 271946, color= 0
	 item 458, weight= 272071, color= 1
	 item 459, weight= 272088, color= 1
	 item 460, weight= 272154, color= 1
	 item 461, weight= 272156, color= 0
	 item 462, weight= 272205, color= 1
	 item 463, weight= 272416, color= 0
	 item 464, weight= 272562, color= 0
	 item 465, weight= 272730, color= 0
	 item 466, weight= 272776, color= 0
	 item 467, weight= 272783, color= 0
	 item 468, weight= 272897, color= 1
	 item 469, weight= 272977, color= 1
	 item 470, weight= 273024, color= 0
	 item 471, weight= 273119, color= 0
	 item 472, weight= 273231, color= 0
	 item 473, weight= 273238, color= 0
	 item 474, weight= 273333, color= 0
	 item 475, weight= 273364, color= 1
	 item 476, weight= 273382, color= 0
	 item 477, weight= 273561, color= 1
	 item 478, weight= 273776, color= 0
	 item 479, weight= 273999, color= 1
	 item 480, weight= 274001, color= 0
	 item 481, weight= 274193, color= 0
	 item 482, weight= 274204, color= 0
	 item 483, weight= 274227, color= 0
	 item 484, weight= 274269, color= 1
	 item 485, weight= 274318, color= 0
	 item 486, weight= 274336, color= 1
	 item 487, weight= 274427, color= 1
	 item 488, weight= 274467, color= 0
	 item 489, weight= 274534, color= 1
	 item 490, weight= 274619, color= 0
	 item 491, weight= 274660, color= 1
	 item 492, weight= 274700, color= 1
	 item 493, weight= 274878, color= 1
	 item 494, weight= 274969, color= 1
	 item 495, weight= 275276, color= 0
	 item 496, weight= 275392, color= 0
	 item 497, weight= 275473, color= 0
	 item 498, weight= 275500, color= 0
	 item 499, weight= 275551, color= 0
	 item 500, weight= 275589, color= 1
	 item 501, weight= 275856, color= 0
	 item 502, weight= 276016, color= 0
	 item 503, weight= 276088, color= 0
	 item 504, weight= 276092, color= 1
	 item 505, weight= 276168, color= 1
	 item 506, weight= 276229, color= 1
	 item 507, weight= 276267, color= 0
	 item 508, weight= 276338, color= 1
	 item 509, weight= 276346, color= 0
	 item 510, weight= 276395, color= 1
	 item 511, weight= 276599, color= 1
	 item 512, weight= 276667, color= 1
	 item 513, weight= 276828, color= 1
	 item 514, weight= 276843, color= 0
	 item 515, weight= 276860, color= 0
	 item 516, weight= 276975, color= 0
	 item 517, weight= 276976, color= 0
	 item 518, weight= 276982, color= 0
	 item 519, weight= 277020, color= 1
	 item 520, weight= 277111, color= 0
	 item 521, weight= 277285, color= 0
	 item 522, weight= 277289, color= 0
	 item 523, weight= 277315, color= 0
	 item 524, weight= 277328, color= 1
	 item 525, weight= 277437, color= 0
	 item 526, weight= 277506, color= 0
	 item 527, weight= 277510, color= 1
	 item 528, weight= 277628, color= 0
	 item 529, weight= 277655, color= 1
	 item 530, weight= 277707, color= 1
	 item 531, weight= 277709, color= 0
	 item 532, weight= 277773, color= 0
	 item 533, weight= 278101, color= 0
	 item 534, weight= 278115, color= 1
	 item 535, weight= 278152, color= 0
	 item 536, weight= 278245, color= 0
	 item 537, weight= 278399, color= 0
	 item 538, weight= 278442, color= 0
	 item 539, weight= 278552, color= 1
	 item 540, weight= 278595, color= 0
	 item 541, weight= 278641, color= 0
	 item 542, weight= 278690, color= 0
	 item 543, weight= 278692, color= 0
	 item 544, weight= 278693, color= 1
	 item 545, weight= 278932, color= 0
	 item 546, weight= 278936, color= 0
	 item 547, weight= 278961, color= 1
	 item 548, weight= 279047, color= 0
	 item 549, weight= 279099, color= 1
	 item 550, weight= 279104, color= 0
	 item 551, weight= 279173, color= 1
	 item 552, weight= 279354, color= 1
	 item 553, weight= 279444, color= 0
	 item 554, weight= 279583, color= 1
	 item 555, weight= 279698, color= 0
	 item 556, weight= 279733, color= 0
	 item 557, weight= 279779, color= 0
	 item 558, weight= 279781, color= 1
	 item 559, weight= 279833, color= 0
	 item 560, weight= 279836, color= 0
	 item 561, weight= 279855, color= 0
	 item 562, weight= 279860, color= 0
	 item 563, weight= 279917, color= 1
	 item 564, weight= 279949, color= 1
	 item 565, weight= 279996, color= 0
	 item 566, weight= 280045, color= 0
	 item 567, weight= 280130, color= 0
	 item 568, weight= 280272, color= 1
	 item 569, weight= 280297, color= 1
	 item 570, weight= 280313, color= 1
	 item 571, weight= 280364, color= 1
	 item 572, weight= 280364, color= 1
	 item 573, weight= 280532, color= 0
	 item 574, weight= 280675, color= 1
	 item 575, weight= 280705, color= 1
	 item 576, weight= 280823, color= 0
	 item 577, weight= 280873, color= 0
	 item 578, weight= 280918, color= 0
	 item 579, weight= 281162, color= 0
	 item 580, weight= 281262, color= 1
	 item 581, weight= 281273, color= 1
	 item 582, weight= 281292, color= 0
	 item 583, weight= 281441, color= 1
	 item 584, weight= 281522, color= 0
	 item 585, weight= 281612, color= 0
	 item 586, weight= 281617, color= 0
	 item 587, weight= 281722, color= 0
	 item 588, weight= 281734, color= 1
	 item 589, weight= 281866, color= 0
	 item 590, weight= 282052, color= 0
	 item 591, weight= 282237, color= 1
	 item 592, weight= 282445, color= 0
	 item 593, weight= 282468, color= 0
	 item 594, weight= 282510, color= 1
	 item 595, weight= 282533, color= 0
	 item 596, weight= 282553, color= 0
	 item 597, weight= 282591, color= 1
	 item 598, weight= 282667, color= 1
	 item 599, weight= 282667, color= 1
	 item 600, weight= 282681, color= 1
	 item 601, weight= 282772, color= 0
	 item 602, weight= 282778, color= 0
	 item 603, weight= 282821, color= 1
	 item 604, weight= 282838, color= 0
	 item 605, weight= 283027, color= 1
	 item 606, weight= 283177, color= 0
	 item 607, weight= 283256, color= 0
	 item 608, weight= 283320, color= 0
	 item 609, weight= 283435, color= 0
	 item 610, weight= 283446, color= 0
	 item 611, weight= 283495, color= 0
	 item 612, weight= 283508, color= 0
	 item 613, weight= 283547, color= 0
	 item 614, weight= 283621, color= 0
	 item 615, weight= 283652, color= 1
	 item 616, weight= 283682, color= 0
	 item 617, weight= 283714, color= 0
	 item 618, weight= 283765, color= 1
	 item 619, weight= 283848, color= 1
	 item 620, weight= 283933, color= 1
	 item 621, weight= 283940, color= 1
	 item 622, weight= 284008, color= 0
	 item 623, weight= 284036, color= 0
	 item 624, weight= 284167, color= 1
	 item 625, weight= 284177, color= 0
	 item 626, weight= 284209, color= 0
	 item 627, weight= 284303, color= 0
	 item 628, weight= 284377, color= 0
	 item 629, weight= 284395, color= 1
	 item 630, weight= 284408, color= 1
	 item 631, weight= 284428, color= 0
	 item 632, weight= 284479, color= 0
	 item 633, weight= 284508, color= 1
	 item 634, weight= 284596, color= 0
	 item 635, weight= 284662, color= 1
	 item 636, weight= 284697, color= 1
	 item 637, weight= 284837, color= 0
	 item 638, weight= 284881, color= 1
	 item 639, weight= 284926, color= 0
	 item 640, weight= 284928, color= 0
	 item 641, weight= 284987, color= 1
	 item 642, weight= 285148, color= 1
	 item 643, weight= 285176, color= 0
	 item 644, weight= 285219, color= 1
	 item 645, weight= 285291, color= 0
	 item 646, weight= 285307, color= 0
	 item 647, weight= 285329, color= 1
	 item 648, weight= 285501, color= 1
	 item 649, weight= 285527, color= 1
	 item 650, weight= 285558, color= 1
	 item 651, weight= 285588, color= 1
	 item 652, weight= 285687, color= 0
	 item 653, weight= 285876, color= 1
	 item 654, weight= 285903, color= 0
	 item 655, weight= 285997, color= 0
	 item 656, weight= 286000, color= 0
	 item 657, weight= 286049, color= 0
	 item 658, weight= 286108, color= 0
	 item 659, weight= 286115, color= 1
	 item 660, weight= 286242, color= 1
	 item 661, weight= 286308, color= 0
	 item 662, weight= 286313, color= 1
	 item 663, weight= 286369, color= 1
	 item 664, weight= 286468, color= 1
	 item 665, weight= 286479, color= 0
	 item 666, weight= 286490, color= 0
	 item 667, weight= 286549, color= 0
	 item 668, weight= 286706, color= 0
	 item 669, weight= 286812, color= 1
	 item 670, weight= 287019, color= 0
	 item 671, weight= 287210, color= 1
	 item 672, weight= 287245, color= 1
	 item 673, weight= 287265, color= 0
	 item 674, weight= 287332, color= 1
	 item 675, weight= 287334, color= 0
	 item 676, weight= 287381, color= 1
	 item 677, weight= 287481, color= 1
	 item 678, weight= 287539, color= 0
	 item 679, weight= 287542, color= 0
	 item 680, weight= 287608, color= 1
	 item 681, weight= 287782, color= 1
	 item 682, weight= 288027, color= 0
	 item 683, weight= 288119, color= 1
	 item 684, weight= 288206, color= 1
	 item 685, weight= 288229, color= 0
	 item 686, weight= 288504, color= 1
	 item 687, weight= 288597, color= 1
	 item 688, weight= 288630, color= 0
	 item 689, weight= 288739, color= 1
	 item 690, weight= 288912, color= 1
	 item 691, weight= 289018, color= 1
	 item 692, weight= 289019, color= 0
	 item 693, weight= 289104, color= 1
	 item 694, weight= 289139, color= 1
	 item 695, weight= 289150, color= 0
	 item 696, weight= 289219, color= 0
	 item 697, weight= 289228, color= 1
	 item 698, weight= 289240, color= 0
	 item 699, weight= 289290, color= 1
	 item 700, weight= 289347, color= 1
	 item 701, weight= 289368, color= 0
	 item 702, weight= 289456, color= 0
	 item 703, weight= 289562, color= 1
	 item 704, weight= 289567, color= 1
	 item 705, weight= 289743, color= 0
	 item 706, weight= 289886, color= 0
	 item 707, weight= 289956, color= 1
	 item 708, weight= 289968, color= 0
	 item 709, weight= 290013, color= 1
	 item 710, weight= 290016, color= 0
	 item 711, weight= 290073, color= 1
	 item 712, weight= 290163, color= 1
	 item 713, weight= 290296, color= 0
	 item 714, weight= 290411, color= 1
	 item 715, weight= 290421, color= 1
	 item 716, weight= 290564, color= 0
	 item 717, weight= 290590, color= 0
	 item 718, weight= 290594, color= 1
	 item 719, weight= 290690, color= 0
	 item 720, weight= 290784, color= 1
	 item 721, weight= 290786, color= 1
	 item 722, weight= 290851, color= 0
	 item 723, weight= 290861, color= 0
	 item 724, weight= 291004, color= 0
	 item 725, weight= 291164, color= 0
	 item 726, weight= 291172, color= 0
	 item 727, weight= 291284, color= 0
	 item 728, weight= 291323, color= 0
	 item 729, weight= 291342, color= 1
	 item 730, weight= 291352, color= 0
	 item 731, weight= 291365, color= 0
	 item 732, weight= 291375, color= 1
	 item 733, weight= 291560, color= 1
	 item 734, weight= 291632, color= 0
	 item 735, weight= 291643, color= 1
	 item 736, weight= 291679, color= 0
	 item 737, weight= 291791, color= 1
	 item 738, weight= 291848, color= 0
	 item 739, weight= 291856, color= 0
	 item 740, weight= 291958, color= 0
	 item 741, weight= 291960, color= 0
	 item 742, weight= 291991, color= 0
	 item 743, weight= 292267, color= 0
	 item 744, weight= 292357, color= 1
	 item 745, weight= 292435, color= 0
	 item 746, weight= 292473, color= 0
	 item 747, weight= 292478, color= 0
	 item 748, weight= 292506, color= 0
	 item 749, weight= 292547, color= 0
	 item 750, weight= 292553, color= 1
	 item 751, weight= 292619, color= 0
	 item 752, weight= 292651, color= 0
	 item 753, weight= 292928, color= 0
	 item 754, weight= 292988, color= 0
	 item 755, weight= 293061, color= 0
	 item 756, weight= 293093, color= 0
	 item 757, weight= 293262, color= 0
	 item 758, weight= 293271, color= 1
	 item 759, weight= 293314, color= 1
	 item 760, weight= 293397, color= 0
	 item 761, weight= 293436, color= 0
	 item 762, weight= 293444, color= 1
	 item 763, weight= 293452, color= 0
	 item 764, weight= 293546, color= 1
	 item 765, weight= 293689, color= 0
	 item 766, weight= 293743, color= 0
	 item 767, weight= 293768, color= 0
	 item 768, weight= 293769, color= 0
	 item 769, weight= 293809, color= 1
	 item 770, weight= 293824, color= 1
	 item 771, weight= 293964, color= 0
	 item 772, weight= 294136, color= 1
	 item 773, weight= 294141, color= 0
	 item 774, weight= 294167, color= 0
	 item 775, weight= 294230, color= 0
	 item 776, weight= 294318, color= 0
	 item 777, weight= 294387, color= 1
	 item 778, weight= 294835, color= 1
	 item 779, weight= 294906, color= 0
	 item 780, weight= 294920, color= 1
	 item 781, weight= 294928, color= 0
	 item 782, weight= 294976, color= 0
	 item 783, weight= 294994, color= 1
	 item 784, weight= 295021, color= 0
	 item 785, weight= 295033, color= 1
	 item 786, weight= 295055, color= 0
	 item 787, weight= 295310, color= 0
	 item 788, weight= 295345, color= 1
	 item 789, weight= 295472, color= 0
	 item 790, weight= 295617, color= 0
	 item 791, weight= 295862, color= 0
	 item 792, weight= 295900, color= 0
	 item 793, weight= 296044, color= 1
	 item 794, weight= 296055, color= 1
	 item 795, weight= 296096, color= 1
	 item 796, weight= 296114, color= 1
	 item 797, weight= 296129, color= 0
	 item 798, weight= 296465, color= 1
	 item 799, weight= 296478, color= 0
	 item 800, weight= 296494, color= 0
	 item 801, weight= 296576, color= 1
	 item 802, weight= 296623, color= 1
	 item 803, weight= 296723, color= 0
	 item 804, weight= 297042, color= 1
	 item 805, weight= 297121, color= 0
	 item 806, weight= 297222, color= 1
	 item 807, weight= 297240, color= 1
	 item 808, weight= 297336, color= 1
	 item 809, weight= 297369, color= 1
	 item 810, weight= 297373, color= 0
	 item 811, weight= 297452, color= 0
	 item 812, weight= 297475, color= 1
	 item 813, weight= 297503, color= 0
	 item 814, weight= 297544, color= 0
	 item 815, weight= 297673, color= 0
	 item 816, weight= 297817, color= 1
	 item 817, weight= 297972, color= 1
	 item 818, weight= 298064, color= 0
	 item 819, weight= 298084, color= 1
	 item 820, weight= 298348, color= 1
	 item 821, weight= 298497, color= 1
	 item 822, weight= 298747, color= 0
	 item 823, weight= 298829, color= 1
	 item 824, weight= 298990, color= 1
	 item 825, weight= 298994, color= 0
	 item 826, weight= 299224, color= 0
	 item 827, weight= 299293, color= 0
	 item 828, weight= 299370, color= 1
	 item 829, weight= 299405, color= 0
	 item 830, weight= 299436, color= 0
	 item 831, weight= 299641, color= 0
	 item 832, weight= 299698, color= 0
	 item 833, weight= 299705, color= 0
	 item 834, weight= 299819, color= 1
	 item 835, weight= 299919, color= 1
	 item 836, weight= 299993, color= 0
	 item 837, weight= 300131, color= 0
	 item 838, weight= 300229, color= 0
	 item 839, weight= 300231, color= 1
	 item 840, weight= 300247, color= 0
	 item 841, weight= 300339, color= 0
	 item 842, weight= 300354, color= 0
	 item 843, weight= 300369, color= 0
	 item 844, weight= 300438, color= 1
	 item 845, weight= 300513, color= 1
	 item 846, weight= 300542, color= 1
	 item 847, weight= 300607, color= 1
	 item 848, weight= 300645, color= 1
	 item 849, weight= 300789, color= 1
	 item 850, weight= 301101, color= 1
	 item 851, weight= 301103, color= 1
	 item 852, weight= 301136, color= 1
	 item 853, weight= 301170, color= 1
	 item 854, weight= 301207, color= 0
	 item 855, weight= 301297, color= 1
	 item 856, weight= 301471, color= 1
	 item 857, weight= 301524, color= 1
	 item 858, weight= 301755, color= 0
	 item 859, weight= 301841, color= 1
	 item 860, weight= 301866, color= 1
	 item 861, weight= 301871, color= 1
	 item 862, weight= 301928, color= 1
	 item 863, weight= 301990, color= 0
	 item 864, weight= 302081, color= 1
	 item 865, weight= 302121, color= 0
	 item 866, weight= 302223, color= 1
	 item 867, weight= 302366, color= 0
	 item 868, weight= 302394, color= 1
	 item 869, weight= 302395, color= 1
	 item 870, weight= 302536, color= 0
	 item 871, weight= 302587, color= 1
	 item 872, weight= 302755, color= 0
	 item 873, weight= 302827, color= 0
	 item 874, weight= 302929, color= 1
	 item 875, weight= 302949, color= 0
	 item 876, weight= 303004, color= 1
	 item 877, weight= 303217, color= 1
	 item 878, weight= 303221, color= 0
	 item 879, weight= 303256, color= 1
	 item 880, weight= 303468, color= 1
	 item 881, weight= 303699, color= 0
	 item 882, weight= 303884, color= 0
	 item 883, weight= 303909, color= 1
	 item 884, weight= 304005, color= 1
	 item 885, weight= 304056, color= 1
	 item 886, weight= 304118, color= 0
	 item 887, weight= 304161, color= 1
	 item 888, weight= 304204, color= 0
	 item 889, weight= 304369, color= 0
	 item 890, weight= 304430, color= 1
	 item 891, weight= 304443, color= 1
	 item 892, weight= 304501, color= 1
	 item 893, weight= 304511, color= 1
	 item 894, weight= 304650, color= 1
	 item 895, weight= 304745, color= 1
	 item 896, weight= 304774, color= 0
	 item 897, weight= 304866, color= 0
	 item 898, weight= 304885, color= 0
	 item 899, weight= 305003, color= 0
	 item 900, weight= 305205, color= 1
	 item 901, weight= 305206, color= 1
	 item 902, weight= 305222, color= 1
	 item 903, weight= 305234, color= 0
	 item 904, weight= 305252, color= 0
	 item 905, weight= 305333, color= 0
	 item 906, weight= 305428, color= 1
	 item 907, weight= 305475, color= 1
	 item 908, weight= 305486, color= 0
	 item 909, weight= 305495, color= 1
	 item 910, weight= 305522, color= 0
	 item 911, weight= 305532, color= 0
	 item 912, weight= 305852, color= 0
	 item 913, weight= 305981, color= 1
	 item 914, weight= 306133, color= 1
	 item 915, weight= 306313, color= 1
	 item 916, weight= 306354, color= 1
	 item 917, weight= 306367, color= 0
	 item 918, weight= 306426, color= 0
	 item 919, weight= 306449, color= 0
	 item 920, weight= 306491, color= 1
	 item 921, weight= 306746, color= 1
	 item 922, weight= 306798, color= 0
	 item 923, weight= 306857, color= 1
	 item 924, weight= 306887, color= 1
	 item 925, weight= 307015, color= 0
	 item 926, weight= 307177, color= 1
	 item 927, weight= 307279, color= 1
	 item 928, weight= 307341, color= 1
	 item 929, weight= 307365, color= 1
	 item 930, weight= 307497, color= 0
	 item 931, weight= 307507, color= 1
	 item 932, weight= 307520, color= 1
	 item 933, weight= 307615, color= 1
	 item 934, weight= 307630, color= 0
	 item 935, weight= 307656, color= 1
	 item 936, weight= 307853, color= 1
	 item 937, weight= 307931, color= 0
	 item 938, weight= 307946, color= 0
	 item 939, weight= 307971, color= 0
	 item 940, weight= 308030, color= 0
	 item 941, weight= 308056, color= 0
	 item 942, weight= 308076, color= 1
	 item 943, weight= 308355, color= 1
	 item 944, weight= 308373, color= 1
	 item 945, weight= 308602, color= 1
	 item 946, weight= 309042, color= 0
	 item 947, weight= 309127, color= 1
	 item 948, weight= 309205, color= 1
	 item 949, weight= 309416, color= 1
	 item 950, weight= 309432, color= 1
	 item 951, weight= 309848, color= 1
	 item 952, weight= 309913, color= 1
	 item 953, weight= 310155, color= 1
	 item 954, weight= 310255, color= 1
	 item 955, weight= 310352, color= 1
	 item 956, weight= 310363, color= 1
	 item 957, weight= 310409, color= 0
	 item 958, weight= 310453, color= 0
	 item 959, weight= 310574, color= 1
	 item 960, weight= 310783, color= 0
	 item 961, weight= 310980, color= 1
	 item 962, weight= 311021, color= 1
	 item 963, weight= 311099, color= 0
	 item 964, weight= 311161, color= 1
	 item 965, weight= 311381, color= 1
	 item 966, weight= 311418, color= 0
	 item 967, weight= 311456, color= 0
	 item 968, weight= 311555, color= 1
	 item 969, weight= 311742, color= 0
	 item 970, weight= 311755, color= 1
	 item 971, weight= 311784, color= 1
	 item 972, weight= 311994, color= 1
	 item 973, weight= 312123, color= 0
	 item 974, weight= 312226, color= 0
	 item 975, weight= 312322, color= 1
	 item 976, weight= 312352, color= 1
	 item 977, weight= 312739, color= 1
	 item 978, weight= 312962, color= 1
	 item 979, weight= 313013, color= 0
	 item 980, weight= 313030, color= 0
	 item 981, weight= 313063, color= 1
	 item 982, weight= 313144, color= 1
	 item 983, weight= 313169, color= 0
	 item 984, weight= 313179, color= 0
	 item 985, weight= 313391, color= 1
	 item 986, weight= 313415, color= 1
	 item 987, weight= 313668, color= 1
	 item 988, weight= 313873, color= 0
	 item 989, weight= 313993, color= 1
	 item 990, weight= 314000, color= 0
	 item 991, weight= 314075, color= 0
	 item 992, weight= 314298, color= 1
	 item 993, weight= 314624, color= 0
	 item 994, weight= 314762, color= 1
	 item 995, weight= 314814, color= 1
	 item 996, weight= 314838, color= 1
	 item 997, weight= 315094, color= 0
	 item 998, weight= 315210, color= 1
	 item 999, weight= 315274, color= 0
	 item 1000, weight= 315275, color= 0
	 item 1001, weight= 315305, color= 0
	 item 1002, weight= 315400, color= 1
	 item 1003, weight= 315461, color= 0
	 item 1004, weight= 315519, color= 1
	 item 1005, weight= 315573, color= 1
	 item 1006, weight= 315725, color= 0
	 item 1007, weight= 315879, color= 1
	 item 1008, weight= 315914, color= 0
	 item 1009, weight= 316047, color= 1
	 item 1010, weight= 316118, color= 0
	 item 1011, weight= 316184, color= 1
	 item 1012, weight= 316441, color= 1
	 item 1013, weight= 316474, color= 0
	 item 1014, weight= 316659, color= 1
	 item 1015, weight= 316662, color= 1
	 item 1016, weight= 316772, color= 1
	 item 1017, weight= 316834, color= 1
	 item 1018, weight= 316843, color= 1
	 item 1019, weight= 316946, color= 1
	 item 1020, weight= 317321, color= 1
	 item 1021, weight= 317670, color= 1
	 item 1022, weight= 317687, color= 1
	 item 1023, weight= 317841, color= 1
	 item 1024, weight= 317880, color= 0
	 item 1025, weight= 318059, color= 1
	 item 1026, weight= 318306, color= 0
	 item 1027, weight= 318380, color= 1
	 item 1028, weight= 318415, color= 1
	 item 1029, weight= 318545, color= 1
	 item 1030, weight= 318623, color= 1
	 item 1031, weight= 318708, color= 1
	 item 1032, weight= 318860, color= 0
	 item 1033, weight= 318898, color= 1
	 item 1034, weight= 318915, color= 0
	 item 1035, weight= 319170, color= 1
	 item 1036, weight= 319174, color= 1
	 item 1037, weight= 319260, color= 0
	 item 1038, weight= 319267, color= 1
	 item 1039, weight= 319338, color= 1
	 item 1040, weight= 319364, color= 1
	 item 1041, weight= 319374, color= 1
	 item 1042, weight= 319709, color= 1
	 item 1043, weight= 320058, color= 1
	 item 1044, weight= 320568, color= 1
	 item 1045, weight= 320639, color= 1
	 item 1046, weight= 321042, color= 0
	 item 1047, weight= 321177, color= 1
	 item 1048, weight= 321360, color= 1
	 item 1049, weight= 321410, color= 0
	 item 1050, weight= 321509, color= 1
	 item 1051, weight= 321525, color= 1
	 item 1052, weight= 321571, color= 1
	 item 1053, weight= 321617, color= 1
	 item 1054, weight= 321692, color= 1
	 item 1055, weight= 321759, color= 0
	 item 1056, weight= 321918, color= 1
	 item 1057, weight= 321934, color= 0
	 item 1058, weight= 321982, color= 1
	 item 1059, weight= 322002, color= 1
	 item 1060, weight= 322039, color= 1
	 item 1061, weight= 322085, color= 1
	 item 1062, weight= 322198, color= 1
	 item 1063, weight= 322448, color= 1
	 item 1064, weight= 322458, color= 1
	 item 1065, weight= 322470, color= 0
	 item 1066, weight= 322520, color= 1
	 item 1067, weight= 322581, color= 1
	 item 1068, weight= 322610, color= 1
	 item 1069, weight= 322659, color= 1
	 item 1070, weight= 322677, color= 1
	 item 1071, weight= 323279, color= 1
	 item 1072, weight= 323465, color= 1
	 item 1073, weight= 323699, color= 1
	 item 1074, weight= 323867, color= 1
	 item 1075, weight= 323879, color= 1
	 item 1076, weight= 323944, color= 1
	 item 1077, weight= 323949, color= 1
	 item 1078, weight= 324071, color= 1
	 item 1079, weight= 324096, color= 1
	 item 1080, weight= 324186, color= 1
	 item 1081, weight= 324356, color= 1
	 item 1082, weight= 324371, color= 0
	 item 1083, weight= 324541, color= 1
	 item 1084, weight= 324599, color= 1
	 item 1085, weight= 324782, color= 1
	 item 1086, weight= 324869, color= 1
	 item 1087, weight= 324938, color= 1
	 item 1088, weight= 324949, color= 1
	 item 1089, weight= 324950, color= 1
	 item 1090, weight= 325068, color= 0
	 item 1091, weight= 325134, color= 1
	 item 1092, weight= 325170, color= 1
	 item 1093, weight= 325221, color= 1
	 item 1094, weight= 325261, color= 1
	 item 1095, weight= 325391, color= 1
	 item 1096, weight= 325393, color= 1
	 item 1097, weight= 325413, color= 1
	 item 1098, weight= 325419, color= 1
	 item 1099, weight= 325476, color= 1
	 item 1100, weight= 325585, color= 1
	 item 1101, weight= 325636, color= 1
	 item 1102, weight= 325733, color= 1
	 item 1103, weight= 325801, color= 1
	 item 1104, weight= 325829, color= 1
	 item 1105, weight= 325885, color= 1
	 item 1106, weight= 325892, color= 1
	 item 1107, weight= 326119, color= 1
	 item 1108, weight= 326370, color= 1
	 item 1109, weight= 326539, color= 1
	 item 1110, weight= 326649, color= 1
	 item 1111, weight= 326777, color= 1
	 item 1112, weight= 327028, color= 1
	 item 1113, weight= 327040, color= 1
	 item 1114, weight= 327040, color= 1
	 item 1115, weight= 327324, color= 0
	 item 1116, weight= 327367, color= 1
	 item 1117, weight= 327496, color= 1
	 item 1118, weight= 327509, color= 1
	 item 1119, weight= 327655, color= 1
	 item 1120, weight= 327696, color= 1
	 item 1121, weight= 328106, color= 1
	 item 1122, weight= 328375, color= 1
	 item 1123, weight= 328446, color= 1
	 item 1124, weight= 328500, color= 1
	 item 1125, weight= 328753, color= 1
	 item 1126, weight= 328936, color= 1
	 item 1127, weight= 328943, color= 1
	 item 1128, weight= 328991, color= 1
	 item 1129, weight= 329355, color= 1
	 item 1130, weight= 329413, color= 1
	 item 1131, weight= 329490, color= 1
	 item 1132, weight= 329607, color= 1
	 item 1133, weight= 329767, color= 1
	 item 1134, weight= 329773, color= 1
	 item 1135, weight= 329839, color= 1
	 item 1136, weight= 329902, color= 1
	 item 1137, weight= 329968, color= 1
	 item 1138, weight= 330179, color= 1
	 item 1139, weight= 330269, color= 1
	 item 1140, weight= 330318, color= 1
	 item 1141, weight= 330381, color= 1
	 item 1142, weight= 330461, color= 1
	 item 1143, weight= 330955, color= 1
	 item 1144, weight= 331124, color= 1
	 item 1145, weight= 331294, color= 1
	 item 1146, weight= 331573, color= 1
	 item 1147, weight= 331615, color= 1
	 item 1148, weight= 331625, color= 1
	 item 1149, weight= 331819, color= 1
	 item 1150, weight= 331877, color= 1
	 item 1151, weight= 331950, color= 1
	 item 1152, weight= 332073, color= 1
	 item 1153, weight= 332243, color= 1
	 item 1154, weight= 332335, color= 1
	 item 1155, weight= 332388, color= 1
	 item 1156, weight= 332745, color= 1
	 item 1157, weight= 332760, color= 1
	 item 1158, weight= 332821, color= 1
	 item 1159, weight= 333037, color= 1
	 item 1160, weight= 333095, color= 1
	 item 1161, weight= 333103, color= 1
	 item 1162, weight= 333393, color= 1
	 item 1163, weight= 333521, color= 1
	 item 1164, weight= 333629, color= 1
	 item 1165, weight= 333933, color= 1
	 item 1166, weight= 334085, color= 1
	 item 1167, weight= 334187, color= 1
	 item 1168, weight= 334458, color= 1
	 item 1169, weight= 334553, color= 1
	 item 1170, weight= 335014, color= 1
	 item 1171, weight= 335054, color= 1
	 item 1172, weight= 335078, color= 1
	 item 1173, weight= 335280, color= 1
	 item 1174, weight= 335322, color= 1
	 item 1175, weight= 335779, color= 1
	 item 1176, weight= 335864, color= 1
	 item 1177, weight= 335955, color= 1
	 item 1178, weight= 336034, color= 1
	 item 1179, weight= 336110, color= 1
	 item 1180, weight= 336156, color= 1
	 item 1181, weight= 336462, color= 1
	 item 1182, weight= 336558, color= 1
	 item 1183, weight= 336671, color= 1
	 item 1184, weight= 336830, color= 1
	 item 1185, weight= 336921, color= 1
	 item 1186, weight= 336926, color= 1
	 item 1187, weight= 336998, color= 1
	 item 1188, weight= 337074, color= 1
	 item 1189, weight= 337187, color= 1
	 item 1190, weight= 337260, color= 1
	 item 1191, weight= 337357, color= 1
	 item 1192, weight= 337445, color= 1
	 item 1193, weight= 337477, color= 1
	 item 1194, weight= 337493, color= 1
	 item 1195, weight= 337499, color= 1
	 item 1196, weight= 337560, color= 1
	 item 1197, weight= 337799, color= 1
	 item 1198, weight= 337915, color= 1
	 item 1199, weight= 338017, color= 1
	 item 1200, weight= 338208, color= 1
	 item 1201, weight= 338295, color= 1
	 item 1202, weight= 338663, color= 1
	 item 1203, weight= 338708, color= 1
	 item 1204, weight= 338725, color= 1
	 item 1205, weight= 338768, color= 1
	 item 1206, weight= 338799, color= 1
	 item 1207, weight= 338948, color= 1
	 item 1208, weight= 339292, color= 1
	 item 1209, weight= 339376, color= 1
	 item 1210, weight= 339491, color= 1
	 item 1211, weight= 339538, color= 1
	 item 1212, weight= 339558, color= 1
	 item 1213, weight= 339799, color= 1
	 item 1214, weight= 339853, color= 1
	 item 1215, weight= 340113, color= 1
	 item 1216, weight= 340382, color= 1
	 item 1217, weight= 340385, color= 1
	 item 1218, weight= 340516, color= 1
	 item 1219, weight= 340578, color= 1
	 item 1220, weight= 340741, color= 1
	 item 1221, weight= 340917, color= 1
	 item 1222, weight= 340953, color= 1
	 item 1223, weight= 341402, color= 1
	 item 1224, weight= 341415, color= 1
	 item 1225, weight= 341418, color= 1
	 item 1226, weight= 341466, color= 1
	 item 1227, weight= 341520, color= 1
	 item 1228, weight= 341537, color= 1
	 item 1229, weight= 341616, color= 1
	 item 1230, weight= 342026, color= 1
	 item 1231, weight= 342034, color= 1
	 item 1232, weight= 342116, color= 1
	 item 1233, weight= 342168, color= 1
	 item 1234, weight= 342206, color= 1
	 item 1235, weight= 342331, color= 1
	 item 1236, weight= 342583, color= 1
	 item 1237, weight= 342810, color= 1
	 item 1238, weight= 342943, color= 1
	 item 1239, weight= 343084, color= 1
	 item 1240, weight= 343090, color= 1
	 item 1241, weight= 343181, color= 1
	 item 1242, weight= 343245, color= 1
	 item 1243, weight= 343255, color= 1
	 item 1244, weight= 343258, color= 1
	 item 1245, weight= 343428, color= 1
	 item 1246, weight= 343463, color= 1
	 item 1247, weight= 343482, color= 1
	 item 1248, weight= 343506, color= 1
	 item 1249, weight= 343686, color= 1
	 item 1250, weight= 343795, color= 1
	 item 1251, weight= 344311, color= 1
	 item 1252, weight= 344411, color= 1
	 item 1253, weight= 344732, color= 1
	 item 1254, weight= 344734, color= 1
	 item 1255, weight= 344857, color= 1
	 item 1256, weight= 344890, color= 1
	 item 1257, weight= 344970, color= 1
	 item 1258, weight= 345029, color= 1
	 item 1259, weight= 345049, color= 1
	 item 1260, weight= 345083, color= 1
	 item 1261, weight= 345094, color= 1
	 item 1262, weight= 345264, color= 1
	 item 1263, weight= 345334, color= 1
	 item 1264, weight= 345372, color= 1
	 item 1265, weight= 345439, color= 1
	 item 1266, weight= 345516, color= 1
	 item 1267, weight= 345738, color= 1
	 item 1268, weight= 345806, color= 1
	 item 1269, weight= 345958, color= 1
	 item 1270, weight= 346077, color= 1
	 item 1271, weight= 346166, color= 1
	 item 1272, weight= 346182, color= 1
	 item 1273, weight= 346298, color= 1
	 item 1274, weight= 346333, color= 1
	 item 1275, weight= 346519, color= 1
	 item 1276, weight= 346541, color= 1
	 item 1277, weight= 346590, color= 1
	 item 1278, weight= 346659, color= 1
	 item 1279, weight= 346751, color= 1
	 item 1280, weight= 347038, color= 1
	 item 1281, weight= 347247, color= 1
	 item 1282, weight= 347350, color= 1
	 item 1283, weight= 347595, color= 1
	 item 1284, weight= 347648, color= 1
	 item 1285, weight= 347653, color= 1
	 item 1286, weight= 347749, color= 1
	 item 1287, weight= 347817, color= 1
	 item 1288, weight= 347863, color= 1
	 item 1289, weight= 347944, color= 1
	 item 1290, weight= 348132, color= 1
	 item 1291, weight= 348381, color= 1
	 item 1292, weight= 348670, color= 1
	 item 1293, weight= 348689, color= 1
	 item 1294, weight= 348835, color= 1
	 item 1295, weight= 348855, color= 1
	 item 1296, weight= 348890, color= 1
	 item 1297, weight= 348933, color= 1
	 item 1298, weight= 348965, color= 1
	 item 1299, weight= 349011, color= 1
	 item 1300, weight= 349028, color= 1
	 item 1301, weight= 349091, color= 1
	 item 1302, weight= 349236, color= 1
	 item 1303, weight= 349304, color= 1
	 item 1304, weight= 349404, color= 1
	 item 1305, weight= 349472, color= 1
	 item 1306, weight= 349482, color= 1
	 item 1307, weight= 349561, color= 1
	 item 1308, weight= 349709, color= 1
	 item 1309, weight= 349738, color= 1
	 item 1310, weight= 350074, color= 1
	 item 1311, weight= 350336, color= 1
	 item 1312, weight= 350749, color= 1
	 item 1313, weight= 350766, color= 1
	 item 1314, weight= 351054, color= 1
	 item 1315, weight= 351077, color= 1
	 item 1316, weight= 351104, color= 1
	 item 1317, weight= 351234, color= 1
	 item 1318, weight= 351275, color= 1
	 item 1319, weight= 351284, color= 1
	 item 1320, weight= 351341, color= 1
	 item 1321, weight= 351386, color= 1
	 item 1322, weight= 351412, color= 1
	 item 1323, weight= 351440, color= 1
	 item 1324, weight= 351463, color= 1
	 item 1325, weight= 351675, color= 1
	 item 1326, weight= 351791, color= 1
	 item 1327, weight= 351816, color= 1
	 item 1328, weight= 351922, color= 1
	 item 1329, weight= 351982, color= 1
	 item 1330, weight= 352099, color= 1
	 item 1331, weight= 352145, color= 1
	 item 1332, weight= 352541, color= 1
	 item 1333, weight= 352611, color= 1
	 item 1334, weight= 352709, color= 1
	 item 1335, weight= 352985, color= 1
	 item 1336, weight= 353063, color= 1
	 item 1337, weight= 353086, color= 1
	 item 1338, weight= 353171, color= 1
	 item 1339, weight= 353205, color= 1
	 item 1340, weight= 353352, color= 1
	 item 1341, weight= 353421, color= 1
	 item 1342, weight= 353522, color= 1
	 item 1343, weight= 354007, color= 1
	 item 1344, weight= 354015, color= 1
	 item 1345, weight= 354082, color= 1
	 item 1346, weight= 354177, color= 1
	 item 1347, weight= 354283, color= 1
	 item 1348, weight= 354350, color= 1
	 item 1349, weight= 354367, color= 1
	 item 1350, weight= 354730, color= 1
	 item 1351, weight= 354802, color= 1
	 item 1352, weight= 354921, color= 1
	 item 1353, weight= 354993, color= 1
	 item 1354, weight= 355082, color= 1
	 item 1355, weight= 355217, color= 1
	 item 1356, weight= 355661, color= 1
	 item 1357, weight= 355669, color= 1
	 item 1358, weight= 356064, color= 1
	 item 1359, weight= 356324, color= 1
	 item 1360, weight= 356747, color= 1
	 item 1361, weight= 357054, color= 1
	 item 1362, weight= 357127, color= 1
	 item 1363, weight= 357441, color= 1
	 item 1364, weight= 357612, color= 1
	 item 1365, weight= 357727, color= 1
	 item 1366, weight= 358427, color= 1
	 item 1367, weight= 359073, color= 1
	 item 1368, weight= 359104, color= 1
	 item 1369, weight= 359231, color= 1
	 item 1370, weight= 359257, color= 1
	 item 1371, weight= 359268, color= 1
	 item 1372, weight= 359406, color= 1
	 item 1373, weight= 359442, color= 1
	 item 1374, weight= 359760, color= 1
	 item 1375, weight= 360016, color= 1
	 item 1376, weight= 360111, color= 1
	 item 1377, weight= 360249, color= 1
	 item 1378, weight= 360752, color= 1
	 item 1379, weight= 360834, color= 1
	 item 1380, weight= 360839, color= 1
	 item 1381, weight= 360939, color= 1
	 item 1382, weight= 361077, color= 1
	 item 1383, weight= 361270, color= 1
	 item 1384, weight= 361371, color= 1
	 item 1385, weight= 361400, color= 1
	 item 1386, weight= 361592, color= 1
	 item 1387, weight= 361755, color= 1
	 item 1388, weight= 361902, color= 1
	 item 1389, weight= 361907, color= 1
	 item 1390, weight= 362525, color= 1
	 item 1391, weight= 362851, color= 1
	 item 1392, weight= 362933, color= 1
	 item 1393, weight= 363381, color= 1
	 item 1394, weight= 363915, color= 1
	 item 1395, weight= 363921, color= 1
	 item 1396, weight= 364134, color= 1
	 item 1397, weight= 364184, color= 1
	 item 1398, weight= 364327, color= 1
	 item 1399, weight= 364333, color= 1
	 item 1400, weight= 364413, color= 1
	 item 1401, weight= 364645, color= 1
	 item 1402, weight= 364760, color= 1
	 item 1403, weight= 364855, color= 1
	 item 1404, weight= 365113, color= 1
	 item 1405, weight= 365188, color= 1
	 item 1406, weight= 365900, color= 1
	 item 1407, weight= 365904, color= 1
	 item 1408, weight= 365999, color= 1
	 item 1409, weight= 366027, color= 1
	 item 1410, weight= 366369, color= 1
	 item 1411, weight= 366634, color= 1
	 item 1412, weight= 366712, color= 1
	 item 1413, weight= 366750, color= 1
	 item 1414, weight= 366839, color= 1
	 item 1415, weight= 366863, color= 1
	 item 1416, weight= 366925, color= 1
	 item 1417, weight= 367067, color= 1
	 item 1418, weight= 367303, color= 1
	 item 1419, weight= 367562, color= 1
	 item 1420, weight= 367603, color= 1
	 item 1421, weight= 367835, color= 1
	 item 1422, weight= 367939, color= 1
	 item 1423, weight= 367963, color= 1
	 item 1424, weight= 368074, color= 1
	 item 1425, weight= 368159, color= 1
	 item 1426, weight= 368236, color= 1
	 item 1427, weight= 368265, color= 1
	 item 1428, weight= 368630, color= 1
	 item 1429, weight= 368668, color= 1
	 item 1430, weight= 368750, color= 1
	 item 1431, weight= 368850, color= 1
	 item 1432, weight= 369152, color= 1
	 item 1433, weight= 369199, color= 1
	 item 1434, weight= 369234, color= 1
	 item 1435, weight= 369346, color= 1
	 item 1436, weight= 369622, color= 1
	 item 1437, weight= 369719, color= 1
	 item 1438, weight= 369740, color= 1
	 item 1439, weight= 369855, color= 1
	 item 1440, weight= 369969, color= 1
	 item 1441, weight= 370002, color= 1
	 item 1442, weight= 370075, color= 1
	 item 1443, weight= 370123, color= 1
	 item 1444, weight= 370253, color= 1
	 item 1445, weight= 370528, color= 1
	 item 1446, weight= 370609, color= 1
	 item 1447, weight= 371647, color= 1
	 item 1448, weight= 371719, color= 1
	 item 1449, weight= 372127, color= 1
	 item 1450, weight= 372226, color= 1
	 item 1451, weight= 372272, color= 1
	 item 1452, weight= 372365, color= 1
	 item 1453, weight= 372431, color= 1
	 item 1454, weight= 372968, color= 1
	 item 1455, weight= 373048, color= 1
	 item 1456, weight= 373145, color= 1
	 item 1457, weight= 373394, color= 1
	 item 1458, weight= 373721, color= 1
	 item 1459, weight= 373895, color= 1
	 item 1460, weight= 374031, color= 1
	 item 1461, weight= 374078, color= 1
	 item 1462, weight= 374349, color= 1
	 item 1463, weight= 374528, color= 1
	 item 1464, weight= 374693, color= 1
	 item 1465, weight= 374963, color= 1
	 item 1466, weight= 375003, color= 1
	 item 1467, weight= 375057, color= 1
	 item 1468, weight= 375357, color= 1
	 item 1469, weight= 375609, color= 1
	 item 1470, weight= 376207, color= 1
	 item 1471, weight= 376231, color= 1
	 item 1472, weight= 376465, color= 1
	 item 1473, weight= 376552, color= 1
	 item 1474, weight= 376580, color= 1
	 item 1475, weight= 376598, color= 1
	 item 1476, weight= 376754, color= 1
	 item 1477, weight= 376869, color= 1
	 item 1478, weight= 377068, color= 1
	 item 1479, weight= 377102, color= 1
	 item 1480, weight= 377293, color= 1
	 item 1481, weight= 377466, color= 1
	 item 1482, weight= 377512, color= 1
	 item 1483, weight= 377558, color= 1
	 item 1484, weight= 377808, color= 1
	 item 1485, weight= 377859, color= 1
	 item 1486, weight= 378055, color= 1
	 item 1487, weight= 378225, color= 1
	 item 1488, weight= 378441, color= 1
	 item 1489, weight= 378532, color= 1
	 item 1490, weight= 378618, color= 1
	 item 1491, weight= 378960, color= 1
	 item 1492, weight= 378974, color= 1
	 item 1493, weight= 379103, color= 1
	 item 1494, weight= 379288, color= 1
	 item 1495, weight= 379737, color= 1
	 item 1496, weight= 379877, color= 1
	 item 1497, weight= 379923, color= 1
	 item 1498, weight= 379923, color= 1
	 item 1499, weight= 380408, color= 1
	 item 1500, weight= 380450, color= 1
	 item 1501, weight= 380484, color= 1
	 item 1502, weight= 380746, color= 1
	 item 1503, weight= 380794, color= 1
	 item 1504, weight= 381117, color= 1
	 item 1505, weight= 381244, color= 1
	 item 1506, weight= 381489, color= 1
	 item 1507, weight= 382026, color= 1
	 item 1508, weight= 382102, color= 1
	 item 1509, weight= 383135, color= 1
	 item 1510, weight= 383218, color= 1
	 item 1511, weight= 383351, color= 1
	 item 1512, weight= 383388, color= 1
	 item 1513, weight= 383474, color= 1
	 item 1514, weight= 383914, color= 1
	 item 1515, weight= 384003, color= 1
	 item 1516, weight= 384004, color= 1
	 item 1517, weight= 384080, color= 1
	 item 1518, weight= 384116, color= 1
	 item 1519, weight= 384344, color= 1
	 item 1520, weight= 384635, color= 1
	 item 1521, weight= 384880, color= 1
	 item 1522, weight= 385422, color= 1
	 item 1523, weight= 385577, color= 1
	 item 1524, weight= 385577, color= 1
	 item 1525, weight= 385901, color= 1
	 item 1526, weight= 385974, color= 1
	 item 1527, weight= 386171, color= 1
	 item 1528, weight= 386272, color= 1
	 item 1529, weight= 386859, color= 1
	 item 1530, weight= 387257, color= 1
	 item 1531, weight= 387316, color= 1
	 item 1532, weight= 387555, color= 1
	 item 1533, weight= 387780, color= 1
	 item 1534, weight= 387908, color= 1
	 item 1535, weight= 387927, color= 1
	 item 1536, weight= 387939, color= 1
	 item 1537, weight= 388086, color= 1
	 item 1538, weight= 388098, color= 1
	 item 1539, weight= 388107, color= 1
	 item 1540, weight= 388231, color= 1
	 item 1541, weight= 388549, color= 1
	 item 1542, weight= 388756, color= 1
	 item 1543, weight= 388776, color= 1
	 item 1544, weight= 389080, color= 1
	 item 1545, weight= 389412, color= 1
	 item 1546, weight= 389494, color= 1
	 item 1547, weight= 389499, color= 1
	 item 1548, weight= 389731, color= 1
	 item 1549, weight= 389889, color= 1
	 item 1550, weight= 389930, color= 1
	 item 1551, weight= 390353, color= 1
	 item 1552, weight= 390518, color= 1
	 item 1553, weight= 390850, color= 1
	 item 1554, weight= 391295, color= 1
	 item 1555, weight= 391332, color= 1
	 item 1556, weight= 391496, color= 1
	 item 1557, weight= 391921, color= 1
	 item 1558, weight= 391963, color= 1
	 item 1559, weight= 392892, color= 1
	 item 1560, weight= 393166, color= 1
	 item 1561, weight= 393241, color= 1
	 item 1562, weight= 393265, color= 1
	 item 1563, weight= 393445, color= 1
	 item 1564, weight= 393468, color= 1
	 item 1565, weight= 393486, color= 1
	 item 1566, weight= 393692, color= 1
	 item 1567, weight= 393710, color= 1
	 item 1568, weight= 393752, color= 1
	 item 1569, weight= 393942, color= 1
	 item 1570, weight= 394203, color= 1
	 item 1571, weight= 394330, color= 1
	 item 1572, weight= 394372, color= 1
	 item 1573, weight= 394395, color= 1
	 item 1574, weight= 394436, color= 1
	 item 1575, weight= 394460, color= 1
	 item 1576, weight= 394626, color= 1
	 item 1577, weight= 394635, color= 1
	 item 1578, weight= 394636, color= 1
	 item 1579, weight= 394848, color= 1
	 item 1580, weight= 395173, color= 1
	 item 1581, weight= 395301, color= 1
	 item 1582, weight= 395531, color= 1
	 item 1583, weight= 395735, color= 1
	 item 1584, weight= 395757, color= 1
	 item 1585, weight= 396398, color= 1
	 item 1586, weight= 396424, color= 1
	 item 1587, weight= 396656, color= 1
	 item 1588, weight= 396866, color= 1
	 item 1589, weight= 396890, color= 1
	 item 1590, weight= 397178, color= 1
	 item 1591, weight= 397439, color= 1
	 item 1592, weight= 397542, color= 1
	 item 1593, weight= 397613, color= 1
	 item 1594, weight= 397923, color= 1
	 item 1595, weight= 397939, color= 1
	 item 1596, weight= 398037, color= 1
	 item 1597, weight= 398143, color= 1
	 item 1598, weight= 398193, color= 1
	 item 1599, weight= 398431, color= 1
	 item 1600, weight= 398593, color= 1
	 item 1601, weight= 399249, color= 1
	 item 1602, weight= 399607, color= 1
	 item 1603, weight= 399622, color= 1
	 item 1604, weight= 399652, color= 1
	 item 1605, weight= 399661, color= 1
	 item 1606, weight= 399721, color= 1
	 item 1607, weight= 400020, color= 1
	 item 1608, weight= 400255, color= 1
	 item 1609, weight= 400288, color= 1
	 item 1610, weight= 400435, color= 1
	 item 1611, weight= 400565, color= 1
	 item 1612, weight= 401026, color= 1
	 item 1613, weight= 401097, color= 1
	 item 1614, weight= 401292, color= 1
	 item 1615, weight= 401349, color= 1
	 item 1616, weight= 401529, color= 1
	 item 1617, weight= 401548, color= 1
	 item 1618, weight= 401839, color= 1
	 item 1619, weight= 401963, color= 1
	 item 1620, weight= 402065, color= 1
	 item 1621, weight= 402346, color= 1
	 item 1622, weight= 402511, color= 1
	 item 1623, weight= 402518, color= 1
	 item 1624, weight= 402630, color= 1
	 item 1625, weight= 402838, color= 1
	 item 1626, weight= 403016, color= 1
	 item 1627, weight= 403494, color= 1
	 item 1628, weight= 403495, color= 1
	 item 1629, weight= 403563, color= 1
	 item 1630, weight= 403588, color= 1
	 item 1631, weight= 403813, color= 1
	 item 1632, weight= 403904, color= 1
	 item 1633, weight= 403908, color= 1
	 item 1634, weight= 404208, color= 1
	 item 1635, weight= 404256, color= 1
	 item 1636, weight= 404416, color= 1
	 item 1637, weight= 404466, color= 1
	 item 1638, weight= 404936, color= 1
	 item 1639, weight= 405361, color= 1
	 item 1640, weight= 405371, color= 1
	 item 1641, weight= 405487, color= 1
	 item 1642, weight= 405625, color= 1
	 item 1643, weight= 405990, color= 1
	 item 1644, weight= 406061, color= 1
	 item 1645, weight= 406751, color= 1
	 item 1646, weight= 407198, color= 1
	 item 1647, weight= 407558, color= 1
	 item 1648, weight= 407631, color= 1
	 item 1649, weight= 407639, color= 1
	 item 1650, weight= 407914, color= 1
	 item 1651, weight= 407922, color= 1
	 item 1652, weight= 408016, color= 1
	 item 1653, weight= 408033, color= 1
	 item 1654, weight= 408263, color= 1
	 item 1655, weight= 408472, color= 1
	 item 1656, weight= 408516, color= 1
	 item 1657, weight= 409214, color= 1
	 item 1658, weight= 409270, color= 1
	 item 1659, weight= 409273, color= 1
	 item 1660, weight= 409463, color= 1
	 item 1661, weight= 409571, color= 1
	 item 1662, weight= 409649, color= 1
	 item 1663, weight= 409805, color= 1
	 item 1664, weight= 410203, color= 1
	 item 1665, weight= 410238, color= 1
	 item 1666, weight= 410867, color= 1
	 item 1667, weight= 411175, color= 1
	 item 1668, weight= 411634, color= 1
	 item 1669, weight= 411949, color= 1
	 item 1670, weight= 411953, color= 1
	 item 1671, weight= 411977, color= 1
	 item 1672, weight= 412058, color= 1
	 item 1673, weight= 412170, color= 1
	 item 1674, weight= 412209, color= 1
	 item 1675, weight= 413009, color= 1
	 item 1676, weight= 413415, color= 1
	 item 1677, weight= 413899, color= 1
	 item 1678, weight= 413929, color= 1
	 item 1679, weight= 413996, color= 1
	 item 1680, weight= 414430, color= 1
	 item 1681, weight= 414430, color= 1
	 item 1682, weight= 414785, color= 1
	 item 1683, weight= 415382, color= 1
	 item 1684, weight= 415875, color= 1
	 item 1685, weight= 416005, color= 1
	 item 1686, weight= 416146, color= 1
	 item 1687, weight= 416201, color= 1
	 item 1688, weight= 416298, color= 1
	 item 1689, weight= 416368, color= 1
	 item 1690, weight= 416583, color= 1
	 item 1691, weight= 417054, color= 1
	 item 1692, weight= 417578, color= 1
	 item 1693, weight= 417903, color= 1
	 item 1694, weight= 418070, color= 1
	 item 1695, weight= 418349, color= 1
	 item 1696, weight= 418451, color= 1
	 item 1697, weight= 419224, color= 1
	 item 1698, weight= 419433, color= 1
	 item 1699, weight= 419503, color= 1
	 item 1700, weight= 419555, color= 1
	 item 1701, weight= 419566, color= 1
	 item 1702, weight= 419810, color= 1
	 item 1703, weight= 419906, color= 1
	 item 1704, weight= 420447, color= 1
	 item 1705, weight= 420579, color= 1
	 item 1706, weight= 420975, color= 1
	 item 1707, weight= 421018, color= 1
	 item 1708, weight= 421191, color= 1
	 item 1709, weight= 421206, color= 1
	 item 1710, weight= 421386, color= 1
	 item 1711, weight= 421431, color= 1
	 item 1712, weight= 421470, color= 1
	 item 1713, weight= 421677, color= 1
	 item 1714, weight= 421759, color= 1
	 item 1715, weight= 422005, color= 1
	 item 1716, weight= 422044, color= 1
	 item 1717, weight= 422118, color= 1
	 item 1718, weight= 422307, color= 1
	 item 1719, weight= 422369, color= 1
	 item 1720, weight= 422520, color= 1
	 item 1721, weight= 422588, color= 1
	 item 1722, weight= 422785, color= 1
	 item 1723, weight= 422897, color= 1
	 item 1724, weight= 423775, color= 1
	 item 1725, weight= 423849, color= 1
	 item 1726, weight= 423869, color= 1
	 item 1727, weight= 424042, color= 1
	 item 1728, weight= 424282, color= 1
	 item 1729, weight= 424854, color= 1
	 item 1730, weight= 425175, color= 1
	 item 1731, weight= 425656, color= 1
	 item 1732, weight= 426356, color= 1
	 item 1733, weight= 427505, color= 1
	 item 1734, weight= 427538, color= 1
	 item 1735, weight= 427565, color= 1
	 item 1736, weight= 427811, color= 1
	 item 1737, weight= 428278, color= 1
	 item 1738, weight= 428472, color= 1
	 item 1739, weight= 428555, color= 1
	 item 1740, weight= 428662, color= 1
	 item 1741, weight= 428740, color= 1
	 item 1742, weight= 428838, color= 1
	 item 1743, weight= 429526, color= 1
	 item 1744, weight= 429821, color= 1
	 item 1745, weight= 429948, color= 1
	 item 1746, weight= 430103, color= 1
	 item 1747, weight= 430455, color= 1
	 item 1748, weight= 430854, color= 1
	 item 1749, weight= 430992, color= 1
	 item 1750, weight= 431247, color= 1
	 item 1751, weight= 431309, color= 1
	 item 1752, weight= 431506, color= 1
	 item 1753, weight= 431627, color= 1
	 item 1754, weight= 431864, color= 1
	 item 1755, weight= 432032, color= 1
	 item 1756, weight= 432082, color= 1
	 item 1757, weight= 432192, color= 1
	 item 1758, weight= 432357, color= 1
	 item 1759, weight= 432639, color= 1
	 item 1760, weight= 432672, color= 1
	 item 1761, weight= 432778, color= 1
	 item 1762, weight= 433144, color= 1
	 item 1763, weight= 433293, color= 1
	 item 1764, weight= 434292, color= 1
	 item 1765, weight= 434504, color= 1
	 item 1766, weight= 435123, color= 1
	 item 1767, weight= 435332, color= 1
	 item 1768, weight= 435573, color= 1
	 item 1769, weight= 435589, color= 1
	 item 1770, weight= 435868, color= 1
	 item 1771, weight= 435876, color= 1
	 item 1772, weight= 435888, color= 1
	 item 1773, weight= 436324, color= 1
	 item 1774, weight= 436752, color= 1
	 item 1775, weight= 437067, color= 1
	 item 1776, weight= 437657, color= 1
	 item 1777, weight= 438527, color= 1
	 item 1778, weight= 438546, color= 1
	 item 1779, weight= 439021, color= 1
	 item 1780, weight= 439356, color= 1
	 item 1781, weight= 439443, color= 1
	 item 1782, weight= 439659, color= 1
	 item 1783, weight= 439715, color= 1
	 item 1784, weight= 439734, color= 1
	 item 1785, weight= 439753, color= 1
	 item 1786, weight= 439849, color= 1
	 item 1787, weight= 440449, color= 1
	 item 1788, weight= 440616, color= 1
	 item 1789, weight= 440710, color= 1
	 item 1790, weight= 441117, color= 1
	 item 1791, weight= 441151, color= 1
	 item 1792, weight= 441332, color= 1
	 item 1793, weight= 441503, color= 1
	 item 1794, weight= 441776, color= 1
	 item 1795, weight= 441859, color= 1
	 item 1796, weight= 442495, color= 1
	 item 1797, weight= 442669, color= 1
	 item 1798, weight= 442712, color= 1
	 item 1799, weight= 443176, color= 1
	 item 1800, weight= 443473, color= 1
	 item 1801, weight= 443965, color= 1
	 item 1802, weight= 444088, color= 1
	 item 1803, weight= 444178, color= 1
	 item 1804, weight= 444401, color= 1
	 item 1805, weight= 444440, color= 1
	 item 1806, weight= 444783, color= 1
	 item 1807, weight= 444983, color= 1
	 item 1808, weight= 445388, color= 1
	 item 1809, weight= 445560, color= 1
	 item 1810, weight= 445618, color= 1
	 item 1811, weight= 445912, color= 1
	 item 1812, weight= 446049, color= 1
	 item 1813, weight= 446421, color= 1
	 item 1814, weight= 446510, color= 1
	 item 1815, weight= 446684, color= 1
	 item 1816, weight= 447021, color= 1
	 item 1817, weight= 447435, color= 1
	 item 1818, weight= 447727, color= 1
	 item 1819, weight= 448057, color= 1
	 item 1820, weight= 448241, color= 1
	 item 1821, weight= 448348, color= 1
	 item 1822, weight= 448478, color= 1
	 item 1823, weight= 448522, color= 1
	 item 1824, weight= 448875, color= 1
	 item 1825, weight= 448889, color= 1
	 item 1826, weight= 449442, color= 1
	 item 1827, weight= 449579, color= 1
	 item 1828, weight= 449675, color= 1
	 item 1829, weight= 449699, color= 1
	 item 1830, weight= 449904, color= 1
	 item 1831, weight= 450221, color= 1
	 item 1832, weight= 450599, color= 1
	 item 1833, weight= 451024, color= 1
	 item 1834, weight= 451137, color= 1
	 item 1835, weight= 451443, color= 1
	 item 1836, weight= 451674, color= 1
	 item 1837, weight= 451919, color= 1
	 item 1838, weight= 452016, color= 1
	 item 1839, weight= 452158, color= 1
	 item 1840, weight= 452183, color= 1
	 item 1841, weight= 452524, color= 1
	 item 1842, weight= 452624, color= 1
	 item 1843, weight= 452634, color= 1
	 item 1844, weight= 452748, color= 1
	 item 1845, weight= 453153, color= 1
	 item 1846, weight= 453563, color= 1
	 item 1847, weight= 453567, color= 1
	 item 1848, weight= 453610, color= 1
	 item 1849, weight= 453628, color= 1
	 item 1850, weight= 453679, color= 1
	 item 1851, weight= 453736, color= 1
	 item 1852, weight= 454134, color= 1
	 item 1853, weight= 454695, color= 1
	 item 1854, weight= 455024, color= 1
	 item 1855, weight= 455059, color= 1
	 item 1856, weight= 455411, color= 1
	 item 1857, weight= 455829, color= 1
	 item 1858, weight= 455835, color= 1
	 item 1859, weight= 455889, color= 1
	 item 1860, weight= 456230, color= 1
	 item 1861, weight= 456262, color= 1
	 item 1862, weight= 456725, color= 1
	 item 1863, weight= 457192, color= 1
	 item 1864, weight= 457587, color= 1
	 item 1865, weight= 457758, color= 1
	 item 1866, weight= 457791, color= 1
	 item 1867, weight= 458046, color= 1
	 item 1868, weight= 458069, color= 1
	 item 1869, weight= 458219, color= 1
	 item 1870, weight= 458344, color= 1
	 item 1871, weight= 458594, color= 1
	 item 1872, weight= 458971, color= 1
	 item 1873, weight= 459156, color= 1
	 item 1874, weight= 459391, color= 1
	 item 1875, weight= 459481, color= 1
	 item 1876, weight= 459923, color= 1
	 item 1877, weight= 460022, color= 1
	 item 1878, weight= 460190, color= 1
	 item 1879, weight= 460790, color= 1
	 item 1880, weight= 460999, color= 1
	 item 1881, weight= 461167, color= 1
	 item 1882, weight= 461335, color= 1
	 item 1883, weight= 461587, color= 1
	 item 1884, weight= 461900, color= 1
	 item 1885, weight= 462785, color= 1
	 item 1886, weight= 462919, color= 1
	 item 1887, weight= 462998, color= 1
	 item 1888, weight= 463350, color= 1
	 item 1889, weight= 463880, color= 1
	 item 1890, weight= 463917, color= 1
	 item 1891, weight= 464200, color= 1
	 item 1892, weight= 464448, color= 1
	 item 1893, weight= 464550, color= 1
	 item 1894, weight= 464986, color= 1
	 item 1895, weight= 465745, color= 1
	 item 1896, weight= 465809, color= 1
	 item 1897, weight= 466052, color= 1
	 item 1898, weight= 466209, color= 1
	 item 1899, weight= 466922, color= 1
	 item 1900, weight= 467135, color= 1
	 item 1901, weight= 468268, color= 1
	 item 1902, weight= 468418, color= 1
	 item 1903, weight= 468457, color= 1
	 item 1904, weight= 468482, color= 1
	 item 1905, weight= 468975, color= 1
	 item 1906, weight= 468986, color= 1
	 item 1907, weight= 469868, color= 1
	 item 1908, weight= 469932, color= 1
	 item 1909, weight= 470166, color= 1
	 item 1910, weight= 470259, color= 1
	 item 1911, weight= 470353, color= 1
	 item 1912, weight= 470768, color= 1
	 item 1913, weight= 471011, color= 1
	 item 1914, weight= 471178, color= 1
	 item 1915, weight= 471255, color= 1
	 item 1916, weight= 471694, color= 1
	 item 1917, weight= 471821, color= 1
	 item 1918, weight= 471879, color= 1
	 item 1919, weight= 471915, color= 1
	 item 1920, weight= 471964, color= 1
	 item 1921, weight= 472616, color= 1
	 item 1922, weight= 472642, color= 1
	 item 1923, weight= 473023, color= 1
	 item 1924, weight= 473463, color= 1
	 item 1925, weight= 473741, color= 1
	 item 1926, weight= 473806, color= 1
	 item 1927, weight= 474036, color= 1
	 item 1928, weight= 474319, color= 1
	 item 1929, weight= 474863, color= 1
	 item 1930, weight= 474929, color= 1
	 item 1931, weight= 475114, color= 1
	 item 1932, weight= 475134, color= 1
	 item 1933, weight= 475206, color= 1
	 item 1934, weight= 476172, color= 1
	 item 1935, weight= 476461, color= 1
	 item 1936, weight= 478397, color= 1
	 item 1937, weight= 479387, color= 1
	 item 1938, weight= 479456, color= 1
	 item 1939, weight= 479835, color= 1
	 item 1940, weight= 480892, color= 1
	 item 1941, weight= 481341, color= 1
	 item 1942, weight= 481727, color= 1
	 item 1943, weight= 482046, color= 1
	 item 1944, weight= 482825, color= 1
	 item 1945, weight= 483344, color= 1
	 item 1946, weight= 483446, color= 1
	 item 1947, weight= 483466, color= 1
	 item 1948, weight= 483701, color= 1
	 item 1949, weight= 483819, color= 1
	 item 1950, weight= 483924, color= 1
	 item 1951, weight= 484344, color= 1
	 item 1952, weight= 484388, color= 1
	 item 1953, weight= 484493, color= 1
	 item 1954, weight= 484511, color= 1
	 item 1955, weight= 484555, color= 1
	 item 1956, weight= 485129, color= 1
	 item 1957, weight= 485260, color= 1
	 item 1958, weight= 485339, color= 1
	 item 1959, weight= 485350, color= 1
	 item 1960, weight= 485734, color= 1
	 item 1961, weight= 485751, color= 1
	 item 1962, weight= 485755, color= 1
	 item 1963, weight= 485801, color= 1
	 item 1964, weight= 486327, color= 1
	 item 1965, weight= 487017, color= 1
	 item 1966, weight= 487020, color= 1
	 item 1967, weight= 487112, color= 1
	 item 1968, weight= 487268, color= 1
	 item 1969, weight= 487558, color= 1
	 item 1970, weight= 488107, color= 1
	 item 1971, weight= 488872, color= 1
	 item 1972, weight= 489183, color= 1
	 item 1973, weight= 489788, color= 1
	 item 1974, weight= 490120, color= 1
	 item 1975, weight= 490195, color= 1
	 item 1976, weight= 490241, color= 1
	 item 1977, weight= 490433, color= 1
	 item 1978, weight= 490623, color= 1
	 item 1979, weight= 492104, color= 1
	 item 1980, weight= 492772, color= 1
	 item 1981, weight= 492902, color= 1
	 item 1982, weight= 493371, color= 1
	 item 1983, weight= 493694, color= 1
	 item 1984, weight= 493985, color= 1
	 item 1985, weight= 494139, color= 1
	 item 1986, weight= 494259, color= 1
	 item 1987, weight= 494856, color= 1
	 item 1988, weight= 495418, color= 1
	 item 1989, weight= 495471, color= 1
	 item 1990, weight= 495566, color= 1
	 item 1991, weight= 495796, color= 1
	 item 1992, weight= 496933, color= 1
	 item 1993, weight= 497389, color= 1
	 item 1994, weight= 497690, color= 1
	 item 1995, weight= 498086, color= 1
	 item 1996, weight= 498244, color= 1
	 item 1997, weight= 498699, color= 1
	 item 1998, weight= 499059, color= 1
	 item 1999, weight= 499291, color= 1
	 item 2000, weight= 499327, color= 1
	 item 2001, weight= 499847, color= 1

VRPSolver warning: Interval set for resource 1 on source node (when source != sink) is ignored (by definition is [0.0,0.0])
[41m solve [00m
~~~~~~~~~~~~~~~~~~~~~~~~~~~~~~~~~~~~~~~~~~~~~~~~~~~~~~~~~~~~~~~~~~~~~~~~~~~~~~
VRPSolver v0.4.1, 24/03/2021. Web: vrpsolver.math.u-bordeaux.fr
Corresponds to the solver by Pessoa, Sadykov, Uchoa and Vanderbeck (2020)
Paper: dx.doi.org/10.1007/s10107-020-01523-z
USE THIS CODE ONLY FOR ACADEMIC PURPOSES AT YOUR OWN RISK
~~~~~~~~~~~~~~~~~~~~~~~~~~~~~~~~~~~~~~~~~~~~~~~~~~~~~~~~~~~~~~~~~~~~~~~~~~~~~~
BaPCod v053, 24/03/2021, © Inria Bordeaux, France
~~~~~~~~~~~~~~~~~~~~~~~~~~~~~~~~~~~~~~~~~~~~~~~~~~~~~~~~~~~~~~~~~~~~~~~~~~~~~~
VRPSolver parameters:
GlobalTimeLimit = 1800
MaxNbOfBBtreeNodeTreated = 100000
treeSearchStrategy = 1
RCSPstopCutGenTimeThresholdInPricing = 10
RCSPhardTimeThresholdInPricing = 20
RCSPnumberOfBucketsPerVertex = 2000
RCSPdynamicBucketSteps = 0
RCSPuseBidirectionalSearch = 1
RCSPapplyReducedCostFixing = 1
RCSPredCostFixingFalseGap = 0
RCSPmaxNumOfColsPerIteration = 100
RCSPmaxNumOfColsPerExactIteration = 100
RCSPheurLabelingStrategy = 4
StabilizationMinPhaseOfStage = 1
RCSPmaxNumOfLabelsInEnumeration = 100000
RCSPmaxNumOfEnumeratedSolutions = 1000000
RCSPmaxNumOfEnumSolutionsForMIP = 100000
RCSPinitNGneighbourhoodSize = 0
RCSPmaxNGneighbourhoodSize = 0
RCSPrankOneCutsMaxNumPerRound = 100
RCSPrankOneCutsMaxNumRows = -1
RCSPrankOneCutsMemoryType = 2
CutTailingOffThreshold = 0.02
CutTailingOffCounterThreshold = 3
SafeDualBoundScaleFactor = -1
StrongBranchingPhaseOneCandidatesNumber = 100
StrongBranchingPhaseOneTreeSizeEstimRatio = 0.3
StrongBranchingPhaseTwoCandidatesNumber = 1
StrongBranchingPhaseTwoTreeSizeEstimRatio = 0.1
MaxTimeForRestrictedMasterIpHeur = -1
DivingHeurUseDepthLimit = 0
MaxLDSbreadth = 3
MaxLDSdepth = 2
New model incumbent solution 1e+06, TIME = 0h0m0s3t = 3
statistics_cols: instance & :Optimal & cutoff & :bcRecRootDb & :bcTimeRootEval & :bcCountNodeProc & :bcRecBestDb & :bcRecBestInc & :bcTimeMain \\
statistics: N2001W1000001R2550Q2Half-002 & 0 & 1.0e6 & 0.00 & 0.00 & 0 & 0.00 & -- & 0.00 \\
########################################################
Solution not found
########################################################
