Application parameters:
  batch  =>  nothing
  instance  =>  "/IN/N2001W1000001R2550Q2Half-003"
  ub  =>  1.0e6
  cfg  =>  "/CFG/BPP.cfg"
data = Colored Bin Packing dataset.
number of items = 2001
number of colors = 2
capacity = 1000001
Items : 
	 item 1, weight= 250068, color= 0
	 item 2, weight= 250124, color= 0
	 item 3, weight= 250133, color= 0
	 item 4, weight= 250151, color= 0
	 item 5, weight= 250157, color= 0
	 item 6, weight= 250169, color= 1
	 item 7, weight= 250198, color= 0
	 item 8, weight= 250245, color= 0
	 item 9, weight= 250501, color= 0
	 item 10, weight= 250511, color= 0
	 item 11, weight= 250511, color= 0
	 item 12, weight= 250523, color= 0
	 item 13, weight= 250540, color= 0
	 item 14, weight= 250570, color= 0
	 item 15, weight= 250594, color= 0
	 item 16, weight= 250595, color= 1
	 item 17, weight= 250601, color= 0
	 item 18, weight= 250615, color= 0
	 item 19, weight= 250625, color= 0
	 item 20, weight= 250665, color= 1
	 item 21, weight= 250669, color= 0
	 item 22, weight= 250711, color= 0
	 item 23, weight= 250718, color= 1
	 item 24, weight= 250747, color= 0
	 item 25, weight= 250800, color= 0
	 item 26, weight= 250832, color= 0
	 item 27, weight= 250835, color= 0
	 item 28, weight= 250837, color= 0
	 item 29, weight= 250859, color= 0
	 item 30, weight= 250869, color= 0
	 item 31, weight= 250871, color= 1
	 item 32, weight= 250902, color= 0
	 item 33, weight= 250977, color= 0
	 item 34, weight= 250983, color= 0
	 item 35, weight= 250995, color= 0
	 item 36, weight= 251046, color= 0
	 item 37, weight= 251062, color= 0
	 item 38, weight= 251079, color= 1
	 item 39, weight= 251113, color= 0
	 item 40, weight= 251138, color= 0
	 item 41, weight= 251197, color= 0
	 item 42, weight= 251208, color= 0
	 item 43, weight= 251301, color= 0
	 item 44, weight= 251334, color= 1
	 item 45, weight= 251381, color= 0
	 item 46, weight= 251388, color= 0
	 item 47, weight= 251401, color= 0
	 item 48, weight= 251430, color= 0
	 item 49, weight= 251462, color= 0
	 item 50, weight= 251472, color= 0
	 item 51, weight= 251478, color= 0
	 item 52, weight= 251482, color= 0
	 item 53, weight= 251516, color= 0
	 item 54, weight= 251520, color= 1
	 item 55, weight= 251552, color= 0
	 item 56, weight= 251607, color= 0
	 item 57, weight= 251811, color= 0
	 item 58, weight= 251818, color= 0
	 item 59, weight= 251842, color= 0
	 item 60, weight= 251849, color= 0
	 item 61, weight= 251894, color= 0
	 item 62, weight= 252015, color= 0
	 item 63, weight= 252046, color= 0
	 item 64, weight= 252054, color= 0
	 item 65, weight= 252063, color= 0
	 item 66, weight= 252085, color= 0
	 item 67, weight= 252095, color= 1
	 item 68, weight= 252161, color= 0
	 item 69, weight= 252170, color= 0
	 item 70, weight= 252208, color= 0
	 item 71, weight= 252294, color= 0
	 item 72, weight= 252371, color= 0
	 item 73, weight= 252443, color= 0
	 item 74, weight= 252508, color= 0
	 item 75, weight= 252521, color= 1
	 item 76, weight= 252542, color= 0
	 item 77, weight= 252744, color= 0
	 item 78, weight= 252748, color= 0
	 item 79, weight= 252782, color= 0
	 item 80, weight= 252864, color= 0
	 item 81, weight= 252932, color= 0
	 item 82, weight= 253038, color= 1
	 item 83, weight= 253047, color= 0
	 item 84, weight= 253048, color= 0
	 item 85, weight= 253150, color= 0
	 item 86, weight= 253205, color= 0
	 item 87, weight= 253206, color= 1
	 item 88, weight= 253209, color= 0
	 item 89, weight= 253254, color= 0
	 item 90, weight= 253268, color= 1
	 item 91, weight= 253285, color= 0
	 item 92, weight= 253288, color= 0
	 item 93, weight= 253365, color= 0
	 item 94, weight= 253475, color= 1
	 item 95, weight= 253528, color= 0
	 item 96, weight= 253552, color= 0
	 item 97, weight= 253570, color= 0
	 item 98, weight= 253581, color= 0
	 item 99, weight= 253590, color= 0
	 item 100, weight= 253591, color= 0
	 item 101, weight= 253598, color= 0
	 item 102, weight= 253612, color= 0
	 item 103, weight= 253622, color= 0
	 item 104, weight= 253721, color= 0
	 item 105, weight= 253761, color= 0
	 item 106, weight= 253861, color= 0
	 item 107, weight= 253941, color= 0
	 item 108, weight= 253942, color= 0
	 item 109, weight= 253948, color= 0
	 item 110, weight= 253978, color= 0
	 item 111, weight= 254018, color= 1
	 item 112, weight= 254034, color= 0
	 item 113, weight= 254079, color= 0
	 item 114, weight= 254116, color= 0
	 item 115, weight= 254223, color= 0
	 item 116, weight= 254228, color= 0
	 item 117, weight= 254229, color= 0
	 item 118, weight= 254238, color= 0
	 item 119, weight= 254255, color= 0
	 item 120, weight= 254257, color= 1
	 item 121, weight= 254269, color= 1
	 item 122, weight= 254301, color= 0
	 item 123, weight= 254308, color= 0
	 item 124, weight= 254361, color= 0
	 item 125, weight= 254463, color= 0
	 item 126, weight= 254473, color= 0
	 item 127, weight= 254524, color= 0
	 item 128, weight= 254531, color= 0
	 item 129, weight= 254550, color= 0
	 item 130, weight= 254634, color= 0
	 item 131, weight= 254638, color= 0
	 item 132, weight= 254666, color= 0
	 item 133, weight= 254672, color= 0
	 item 134, weight= 254762, color= 0
	 item 135, weight= 254786, color= 0
	 item 136, weight= 254793, color= 0
	 item 137, weight= 254874, color= 0
	 item 138, weight= 254920, color= 0
	 item 139, weight= 254926, color= 0
	 item 140, weight= 255064, color= 0
	 item 141, weight= 255079, color= 0
	 item 142, weight= 255098, color= 1
	 item 143, weight= 255158, color= 1
	 item 144, weight= 255273, color= 0
	 item 145, weight= 255296, color= 0
	 item 146, weight= 255297, color= 0
	 item 147, weight= 255322, color= 1
	 item 148, weight= 255341, color= 0
	 item 149, weight= 255374, color= 0
	 item 150, weight= 255451, color= 0
	 item 151, weight= 255483, color= 0
	 item 152, weight= 255487, color= 0
	 item 153, weight= 255533, color= 0
	 item 154, weight= 255573, color= 0
	 item 155, weight= 255594, color= 0
	 item 156, weight= 255603, color= 0
	 item 157, weight= 255617, color= 0
	 item 158, weight= 255690, color= 0
	 item 159, weight= 255722, color= 0
	 item 160, weight= 255886, color= 0
	 item 161, weight= 255886, color= 0
	 item 162, weight= 255919, color= 0
	 item 163, weight= 255926, color= 0
	 item 164, weight= 255968, color= 0
	 item 165, weight= 255993, color= 0
	 item 166, weight= 256026, color= 0
	 item 167, weight= 256047, color= 0
	 item 168, weight= 256159, color= 0
	 item 169, weight= 256276, color= 0
	 item 170, weight= 256291, color= 0
	 item 171, weight= 256325, color= 0
	 item 172, weight= 256332, color= 1
	 item 173, weight= 256345, color= 0
	 item 174, weight= 256357, color= 0
	 item 175, weight= 256477, color= 0
	 item 176, weight= 256501, color= 0
	 item 177, weight= 256510, color= 0
	 item 178, weight= 256539, color= 0
	 item 179, weight= 256614, color= 0
	 item 180, weight= 256626, color= 1
	 item 181, weight= 256653, color= 0
	 item 182, weight= 256701, color= 1
	 item 183, weight= 256762, color= 0
	 item 184, weight= 256764, color= 1
	 item 185, weight= 256803, color= 0
	 item 186, weight= 256806, color= 0
	 item 187, weight= 256835, color= 0
	 item 188, weight= 256847, color= 1
	 item 189, weight= 256858, color= 0
	 item 190, weight= 256860, color= 0
	 item 191, weight= 256900, color= 1
	 item 192, weight= 257071, color= 1
	 item 193, weight= 257101, color= 1
	 item 194, weight= 257103, color= 0
	 item 195, weight= 257146, color= 0
	 item 196, weight= 257238, color= 0
	 item 197, weight= 257251, color= 0
	 item 198, weight= 257266, color= 0
	 item 199, weight= 257375, color= 0
	 item 200, weight= 257381, color= 0
	 item 201, weight= 257385, color= 0
	 item 202, weight= 257398, color= 0
	 item 203, weight= 257428, color= 0
	 item 204, weight= 257470, color= 0
	 item 205, weight= 257513, color= 0
	 item 206, weight= 257641, color= 0
	 item 207, weight= 257745, color= 0
	 item 208, weight= 257755, color= 0
	 item 209, weight= 257780, color= 1
	 item 210, weight= 257811, color= 0
	 item 211, weight= 257899, color= 0
	 item 212, weight= 257971, color= 0
	 item 213, weight= 258061, color= 0
	 item 214, weight= 258078, color= 1
	 item 215, weight= 258079, color= 0
	 item 216, weight= 258079, color= 0
	 item 217, weight= 258143, color= 1
	 item 218, weight= 258147, color= 0
	 item 219, weight= 258268, color= 0
	 item 220, weight= 258293, color= 0
	 item 221, weight= 258322, color= 0
	 item 222, weight= 258415, color= 1
	 item 223, weight= 258437, color= 0
	 item 224, weight= 258450, color= 1
	 item 225, weight= 258572, color= 0
	 item 226, weight= 258616, color= 0
	 item 227, weight= 258635, color= 0
	 item 228, weight= 258803, color= 0
	 item 229, weight= 258807, color= 0
	 item 230, weight= 258861, color= 0
	 item 231, weight= 258874, color= 0
	 item 232, weight= 258882, color= 0
	 item 233, weight= 258984, color= 0
	 item 234, weight= 259014, color= 0
	 item 235, weight= 259058, color= 0
	 item 236, weight= 259081, color= 0
	 item 237, weight= 259206, color= 0
	 item 238, weight= 259255, color= 0
	 item 239, weight= 259300, color= 0
	 item 240, weight= 259304, color= 0
	 item 241, weight= 259313, color= 0
	 item 242, weight= 259362, color= 0
	 item 243, weight= 259417, color= 0
	 item 244, weight= 259439, color= 0
	 item 245, weight= 259547, color= 1
	 item 246, weight= 259578, color= 1
	 item 247, weight= 259640, color= 0
	 item 248, weight= 259729, color= 0
	 item 249, weight= 259776, color= 0
	 item 250, weight= 259835, color= 0
	 item 251, weight= 259873, color= 1
	 item 252, weight= 259878, color= 0
	 item 253, weight= 259982, color= 0
	 item 254, weight= 259987, color= 0
	 item 255, weight= 260048, color= 0
	 item 256, weight= 260049, color= 0
	 item 257, weight= 260075, color= 0
	 item 258, weight= 260081, color= 0
	 item 259, weight= 260133, color= 0
	 item 260, weight= 260137, color= 0
	 item 261, weight= 260262, color= 0
	 item 262, weight= 260280, color= 0
	 item 263, weight= 260330, color= 0
	 item 264, weight= 260332, color= 0
	 item 265, weight= 260338, color= 0
	 item 266, weight= 260464, color= 0
	 item 267, weight= 260488, color= 1
	 item 268, weight= 260523, color= 0
	 item 269, weight= 260557, color= 1
	 item 270, weight= 260670, color= 0
	 item 271, weight= 260772, color= 0
	 item 272, weight= 260789, color= 0
	 item 273, weight= 260793, color= 0
	 item 274, weight= 260839, color= 0
	 item 275, weight= 260862, color= 0
	 item 276, weight= 260955, color= 1
	 item 277, weight= 261026, color= 0
	 item 278, weight= 261037, color= 0
	 item 279, weight= 261038, color= 0
	 item 280, weight= 261070, color= 0
	 item 281, weight= 261110, color= 0
	 item 282, weight= 261157, color= 0
	 item 283, weight= 261173, color= 1
	 item 284, weight= 261231, color= 0
	 item 285, weight= 261242, color= 1
	 item 286, weight= 261297, color= 1
	 item 287, weight= 261331, color= 0
	 item 288, weight= 261348, color= 0
	 item 289, weight= 261449, color= 1
	 item 290, weight= 261540, color= 0
	 item 291, weight= 261552, color= 0
	 item 292, weight= 261657, color= 0
	 item 293, weight= 261736, color= 1
	 item 294, weight= 261949, color= 0
	 item 295, weight= 262081, color= 0
	 item 296, weight= 262151, color= 0
	 item 297, weight= 262219, color= 0
	 item 298, weight= 262231, color= 0
	 item 299, weight= 262335, color= 0
	 item 300, weight= 262361, color= 1
	 item 301, weight= 262419, color= 1
	 item 302, weight= 262466, color= 0
	 item 303, weight= 262476, color= 1
	 item 304, weight= 262610, color= 0
	 item 305, weight= 262618, color= 0
	 item 306, weight= 262621, color= 0
	 item 307, weight= 262667, color= 0
	 item 308, weight= 262671, color= 0
	 item 309, weight= 262703, color= 0
	 item 310, weight= 262773, color= 0
	 item 311, weight= 262802, color= 0
	 item 312, weight= 262879, color= 0
	 item 313, weight= 262940, color= 0
	 item 314, weight= 262966, color= 0
	 item 315, weight= 263025, color= 0
	 item 316, weight= 263034, color= 0
	 item 317, weight= 263148, color= 1
	 item 318, weight= 263149, color= 0
	 item 319, weight= 263236, color= 0
	 item 320, weight= 263320, color= 0
	 item 321, weight= 263374, color= 0
	 item 322, weight= 263471, color= 0
	 item 323, weight= 263524, color= 0
	 item 324, weight= 263598, color= 0
	 item 325, weight= 263621, color= 0
	 item 326, weight= 263653, color= 0
	 item 327, weight= 263841, color= 0
	 item 328, weight= 263858, color= 1
	 item 329, weight= 263870, color= 0
	 item 330, weight= 263972, color= 0
	 item 331, weight= 264202, color= 0
	 item 332, weight= 264257, color= 1
	 item 333, weight= 264335, color= 1
	 item 334, weight= 264379, color= 1
	 item 335, weight= 264425, color= 0
	 item 336, weight= 264487, color= 1
	 item 337, weight= 264519, color= 0
	 item 338, weight= 264530, color= 1
	 item 339, weight= 264576, color= 0
	 item 340, weight= 264704, color= 0
	 item 341, weight= 264737, color= 1
	 item 342, weight= 264835, color= 1
	 item 343, weight= 264841, color= 0
	 item 344, weight= 264867, color= 1
	 item 345, weight= 264870, color= 0
	 item 346, weight= 264872, color= 0
	 item 347, weight= 264942, color= 1
	 item 348, weight= 264973, color= 0
	 item 349, weight= 265145, color= 1
	 item 350, weight= 265195, color= 1
	 item 351, weight= 265275, color= 0
	 item 352, weight= 265301, color= 0
	 item 353, weight= 265384, color= 0
	 item 354, weight= 265399, color= 1
	 item 355, weight= 265419, color= 0
	 item 356, weight= 265503, color= 0
	 item 357, weight= 265575, color= 0
	 item 358, weight= 265730, color= 0
	 item 359, weight= 265739, color= 0
	 item 360, weight= 265790, color= 0
	 item 361, weight= 265862, color= 0
	 item 362, weight= 265879, color= 0
	 item 363, weight= 265904, color= 0
	 item 364, weight= 265932, color= 1
	 item 365, weight= 265955, color= 0
	 item 366, weight= 266292, color= 0
	 item 367, weight= 266314, color= 0
	 item 368, weight= 266346, color= 0
	 item 369, weight= 266390, color= 0
	 item 370, weight= 266602, color= 0
	 item 371, weight= 266771, color= 1
	 item 372, weight= 266849, color= 0
	 item 373, weight= 266970, color= 0
	 item 374, weight= 267001, color= 0
	 item 375, weight= 267006, color= 1
	 item 376, weight= 267037, color= 0
	 item 377, weight= 267107, color= 1
	 item 378, weight= 267135, color= 1
	 item 379, weight= 267145, color= 0
	 item 380, weight= 267201, color= 0
	 item 381, weight= 267309, color= 1
	 item 382, weight= 267331, color= 1
	 item 383, weight= 267384, color= 0
	 item 384, weight= 267553, color= 1
	 item 385, weight= 267567, color= 0
	 item 386, weight= 267653, color= 0
	 item 387, weight= 267718, color= 0
	 item 388, weight= 267747, color= 0
	 item 389, weight= 267755, color= 0
	 item 390, weight= 267837, color= 0
	 item 391, weight= 267840, color= 1
	 item 392, weight= 267867, color= 0
	 item 393, weight= 267917, color= 0
	 item 394, weight= 267934, color= 0
	 item 395, weight= 267972, color= 1
	 item 396, weight= 268024, color= 0
	 item 397, weight= 268140, color= 0
	 item 398, weight= 268206, color= 0
	 item 399, weight= 268223, color= 1
	 item 400, weight= 268511, color= 1
	 item 401, weight= 268542, color= 0
	 item 402, weight= 268569, color= 0
	 item 403, weight= 268590, color= 0
	 item 404, weight= 268682, color= 0
	 item 405, weight= 268683, color= 0
	 item 406, weight= 268711, color= 0
	 item 407, weight= 268768, color= 0
	 item 408, weight= 268778, color= 0
	 item 409, weight= 268787, color= 0
	 item 410, weight= 268825, color= 1
	 item 411, weight= 268869, color= 1
	 item 412, weight= 268926, color= 0
	 item 413, weight= 269097, color= 0
	 item 414, weight= 269135, color= 0
	 item 415, weight= 269140, color= 1
	 item 416, weight= 269156, color= 0
	 item 417, weight= 269184, color= 0
	 item 418, weight= 269337, color= 1
	 item 419, weight= 269555, color= 0
	 item 420, weight= 269664, color= 0
	 item 421, weight= 269684, color= 0
	 item 422, weight= 269707, color= 1
	 item 423, weight= 269729, color= 0
	 item 424, weight= 269831, color= 0
	 item 425, weight= 269862, color= 0
	 item 426, weight= 269953, color= 0
	 item 427, weight= 270045, color= 1
	 item 428, weight= 270151, color= 0
	 item 429, weight= 270215, color= 1
	 item 430, weight= 270260, color= 1
	 item 431, weight= 270294, color= 0
	 item 432, weight= 270374, color= 0
	 item 433, weight= 270418, color= 1
	 item 434, weight= 270565, color= 0
	 item 435, weight= 270570, color= 0
	 item 436, weight= 270632, color= 0
	 item 437, weight= 270649, color= 0
	 item 438, weight= 270731, color= 1
	 item 439, weight= 270779, color= 0
	 item 440, weight= 270900, color= 0
	 item 441, weight= 270990, color= 0
	 item 442, weight= 271049, color= 0
	 item 443, weight= 271077, color= 0
	 item 444, weight= 271149, color= 0
	 item 445, weight= 271149, color= 0
	 item 446, weight= 271208, color= 1
	 item 447, weight= 271215, color= 0
	 item 448, weight= 271341, color= 0
	 item 449, weight= 271368, color= 1
	 item 450, weight= 271435, color= 1
	 item 451, weight= 271499, color= 0
	 item 452, weight= 271525, color= 0
	 item 453, weight= 271589, color= 0
	 item 454, weight= 271639, color= 0
	 item 455, weight= 271754, color= 0
	 item 456, weight= 271786, color= 0
	 item 457, weight= 271793, color= 0
	 item 458, weight= 271896, color= 1
	 item 459, weight= 271919, color= 0
	 item 460, weight= 272000, color= 1
	 item 461, weight= 272072, color= 1
	 item 462, weight= 272154, color= 0
	 item 463, weight= 272281, color= 0
	 item 464, weight= 272404, color= 0
	 item 465, weight= 272678, color= 0
	 item 466, weight= 272693, color= 1
	 item 467, weight= 272717, color= 1
	 item 468, weight= 272720, color= 1
	 item 469, weight= 273070, color= 0
	 item 470, weight= 273086, color= 0
	 item 471, weight= 273104, color= 0
	 item 472, weight= 273208, color= 0
	 item 473, weight= 273361, color= 1
	 item 474, weight= 273387, color= 0
	 item 475, weight= 273418, color= 1
	 item 476, weight= 273473, color= 1
	 item 477, weight= 273568, color= 1
	 item 478, weight= 273585, color= 0
	 item 479, weight= 273713, color= 0
	 item 480, weight= 273772, color= 1
	 item 481, weight= 273827, color= 0
	 item 482, weight= 273851, color= 0
	 item 483, weight= 273854, color= 0
	 item 484, weight= 273954, color= 1
	 item 485, weight= 274034, color= 1
	 item 486, weight= 274039, color= 1
	 item 487, weight= 274225, color= 1
	 item 488, weight= 274260, color= 0
	 item 489, weight= 274419, color= 0
	 item 490, weight= 274435, color= 0
	 item 491, weight= 274458, color= 0
	 item 492, weight= 274507, color= 0
	 item 493, weight= 274534, color= 0
	 item 494, weight= 274536, color= 0
	 item 495, weight= 274622, color= 0
	 item 496, weight= 274795, color= 0
	 item 497, weight= 274850, color= 1
	 item 498, weight= 274858, color= 0
	 item 499, weight= 274890, color= 0
	 item 500, weight= 275040, color= 0
	 item 501, weight= 275071, color= 0
	 item 502, weight= 275147, color= 1
	 item 503, weight= 275148, color= 0
	 item 504, weight= 275178, color= 1
	 item 505, weight= 275331, color= 0
	 item 506, weight= 275341, color= 0
	 item 507, weight= 275410, color= 0
	 item 508, weight= 275464, color= 0
	 item 509, weight= 275486, color= 0
	 item 510, weight= 275526, color= 0
	 item 511, weight= 275671, color= 1
	 item 512, weight= 275757, color= 1
	 item 513, weight= 275773, color= 0
	 item 514, weight= 275814, color= 1
	 item 515, weight= 275834, color= 0
	 item 516, weight= 275867, color= 1
	 item 517, weight= 275909, color= 0
	 item 518, weight= 275989, color= 0
	 item 519, weight= 276011, color= 1
	 item 520, weight= 276220, color= 0
	 item 521, weight= 276235, color= 0
	 item 522, weight= 276276, color= 0
	 item 523, weight= 276324, color= 0
	 item 524, weight= 276414, color= 0
	 item 525, weight= 276421, color= 0
	 item 526, weight= 276434, color= 1
	 item 527, weight= 276465, color= 0
	 item 528, weight= 276551, color= 1
	 item 529, weight= 276605, color= 1
	 item 530, weight= 276685, color= 1
	 item 531, weight= 276715, color= 1
	 item 532, weight= 276724, color= 0
	 item 533, weight= 276756, color= 1
	 item 534, weight= 277022, color= 1
	 item 535, weight= 277073, color= 1
	 item 536, weight= 277082, color= 1
	 item 537, weight= 277083, color= 0
	 item 538, weight= 277204, color= 0
	 item 539, weight= 277233, color= 0
	 item 540, weight= 277256, color= 0
	 item 541, weight= 277302, color= 1
	 item 542, weight= 277558, color= 1
	 item 543, weight= 277621, color= 0
	 item 544, weight= 277674, color= 0
	 item 545, weight= 277719, color= 1
	 item 546, weight= 277765, color= 0
	 item 547, weight= 277840, color= 0
	 item 548, weight= 277893, color= 0
	 item 549, weight= 277928, color= 0
	 item 550, weight= 278007, color= 0
	 item 551, weight= 278104, color= 0
	 item 552, weight= 278123, color= 0
	 item 553, weight= 278132, color= 0
	 item 554, weight= 278213, color= 0
	 item 555, weight= 278286, color= 0
	 item 556, weight= 278355, color= 1
	 item 557, weight= 278357, color= 0
	 item 558, weight= 278359, color= 0
	 item 559, weight= 278456, color= 0
	 item 560, weight= 278481, color= 1
	 item 561, weight= 278588, color= 0
	 item 562, weight= 278711, color= 1
	 item 563, weight= 278745, color= 0
	 item 564, weight= 278765, color= 0
	 item 565, weight= 278821, color= 0
	 item 566, weight= 279066, color= 1
	 item 567, weight= 279132, color= 0
	 item 568, weight= 279168, color= 1
	 item 569, weight= 279255, color= 1
	 item 570, weight= 279260, color= 1
	 item 571, weight= 279268, color= 1
	 item 572, weight= 279291, color= 1
	 item 573, weight= 279444, color= 0
	 item 574, weight= 279467, color= 0
	 item 575, weight= 279540, color= 1
	 item 576, weight= 279546, color= 1
	 item 577, weight= 279551, color= 0
	 item 578, weight= 279590, color= 0
	 item 579, weight= 279788, color= 0
	 item 580, weight= 279835, color= 1
	 item 581, weight= 280051, color= 0
	 item 582, weight= 280126, color= 0
	 item 583, weight= 280188, color= 0
	 item 584, weight= 280211, color= 0
	 item 585, weight= 280213, color= 0
	 item 586, weight= 280298, color= 1
	 item 587, weight= 280351, color= 0
	 item 588, weight= 280433, color= 0
	 item 589, weight= 280440, color= 1
	 item 590, weight= 280455, color= 0
	 item 591, weight= 280543, color= 1
	 item 592, weight= 280550, color= 0
	 item 593, weight= 280555, color= 1
	 item 594, weight= 280708, color= 0
	 item 595, weight= 280737, color= 0
	 item 596, weight= 280753, color= 1
	 item 597, weight= 281066, color= 0
	 item 598, weight= 281137, color= 1
	 item 599, weight= 281282, color= 0
	 item 600, weight= 281331, color= 1
	 item 601, weight= 281392, color= 0
	 item 602, weight= 281438, color= 0
	 item 603, weight= 281592, color= 0
	 item 604, weight= 281672, color= 0
	 item 605, weight= 281697, color= 1
	 item 606, weight= 281859, color= 0
	 item 607, weight= 281886, color= 0
	 item 608, weight= 281905, color= 1
	 item 609, weight= 281977, color= 0
	 item 610, weight= 282005, color= 1
	 item 611, weight= 282016, color= 0
	 item 612, weight= 282054, color= 0
	 item 613, weight= 282098, color= 1
	 item 614, weight= 282103, color= 0
	 item 615, weight= 282141, color= 1
	 item 616, weight= 282146, color= 0
	 item 617, weight= 282263, color= 0
	 item 618, weight= 282332, color= 0
	 item 619, weight= 282363, color= 0
	 item 620, weight= 282385, color= 1
	 item 621, weight= 282534, color= 0
	 item 622, weight= 282538, color= 0
	 item 623, weight= 282697, color= 0
	 item 624, weight= 282703, color= 1
	 item 625, weight= 282760, color= 0
	 item 626, weight= 282868, color= 1
	 item 627, weight= 282892, color= 0
	 item 628, weight= 283040, color= 1
	 item 629, weight= 283113, color= 1
	 item 630, weight= 283292, color= 0
	 item 631, weight= 283384, color= 0
	 item 632, weight= 283430, color= 0
	 item 633, weight= 283446, color= 1
	 item 634, weight= 283472, color= 1
	 item 635, weight= 283551, color= 0
	 item 636, weight= 283621, color= 0
	 item 637, weight= 283625, color= 0
	 item 638, weight= 283708, color= 0
	 item 639, weight= 283753, color= 0
	 item 640, weight= 284102, color= 1
	 item 641, weight= 284131, color= 0
	 item 642, weight= 284201, color= 0
	 item 643, weight= 284254, color= 0
	 item 644, weight= 284267, color= 1
	 item 645, weight= 284352, color= 0
	 item 646, weight= 284410, color= 1
	 item 647, weight= 284500, color= 1
	 item 648, weight= 284557, color= 1
	 item 649, weight= 284564, color= 1
	 item 650, weight= 284622, color= 0
	 item 651, weight= 284635, color= 1
	 item 652, weight= 284728, color= 0
	 item 653, weight= 284730, color= 1
	 item 654, weight= 284742, color= 1
	 item 655, weight= 284756, color= 1
	 item 656, weight= 284810, color= 0
	 item 657, weight= 284830, color= 0
	 item 658, weight= 284844, color= 1
	 item 659, weight= 284882, color= 0
	 item 660, weight= 284982, color= 0
	 item 661, weight= 285115, color= 0
	 item 662, weight= 285303, color= 0
	 item 663, weight= 285479, color= 1
	 item 664, weight= 285483, color= 1
	 item 665, weight= 285495, color= 1
	 item 666, weight= 285684, color= 1
	 item 667, weight= 285774, color= 0
	 item 668, weight= 286206, color= 1
	 item 669, weight= 286440, color= 0
	 item 670, weight= 286473, color= 0
	 item 671, weight= 286682, color= 0
	 item 672, weight= 286823, color= 0
	 item 673, weight= 286862, color= 1
	 item 674, weight= 287199, color= 0
	 item 675, weight= 287396, color= 1
	 item 676, weight= 287430, color= 1
	 item 677, weight= 287533, color= 0
	 item 678, weight= 287614, color= 1
	 item 679, weight= 287757, color= 1
	 item 680, weight= 287788, color= 0
	 item 681, weight= 287849, color= 0
	 item 682, weight= 287909, color= 1
	 item 683, weight= 288004, color= 0
	 item 684, weight= 288107, color= 0
	 item 685, weight= 288124, color= 0
	 item 686, weight= 288413, color= 1
	 item 687, weight= 288718, color= 0
	 item 688, weight= 289011, color= 1
	 item 689, weight= 289049, color= 0
	 item 690, weight= 289379, color= 0
	 item 691, weight= 289381, color= 0
	 item 692, weight= 289455, color= 1
	 item 693, weight= 289615, color= 1
	 item 694, weight= 289705, color= 0
	 item 695, weight= 289766, color= 1
	 item 696, weight= 289784, color= 1
	 item 697, weight= 289860, color= 0
	 item 698, weight= 289970, color= 1
	 item 699, weight= 289990, color= 0
	 item 700, weight= 290000, color= 1
	 item 701, weight= 290056, color= 1
	 item 702, weight= 290065, color= 0
	 item 703, weight= 290094, color= 0
	 item 704, weight= 290177, color= 0
	 item 705, weight= 290245, color= 1
	 item 706, weight= 290269, color= 0
	 item 707, weight= 290320, color= 0
	 item 708, weight= 290428, color= 1
	 item 709, weight= 290456, color= 0
	 item 710, weight= 290482, color= 1
	 item 711, weight= 290552, color= 1
	 item 712, weight= 290595, color= 0
	 item 713, weight= 290615, color= 0
	 item 714, weight= 290781, color= 1
	 item 715, weight= 290847, color= 0
	 item 716, weight= 290857, color= 1
	 item 717, weight= 290887, color= 0
	 item 718, weight= 290936, color= 1
	 item 719, weight= 290994, color= 1
	 item 720, weight= 291045, color= 0
	 item 721, weight= 291246, color= 0
	 item 722, weight= 291293, color= 0
	 item 723, weight= 291447, color= 0
	 item 724, weight= 291478, color= 0
	 item 725, weight= 291542, color= 0
	 item 726, weight= 291548, color= 0
	 item 727, weight= 291725, color= 0
	 item 728, weight= 291743, color= 0
	 item 729, weight= 291849, color= 0
	 item 730, weight= 291869, color= 0
	 item 731, weight= 291936, color= 1
	 item 732, weight= 292077, color= 1
	 item 733, weight= 292125, color= 0
	 item 734, weight= 292243, color= 1
	 item 735, weight= 292301, color= 1
	 item 736, weight= 292307, color= 1
	 item 737, weight= 292445, color= 0
	 item 738, weight= 292486, color= 1
	 item 739, weight= 292540, color= 0
	 item 740, weight= 292618, color= 0
	 item 741, weight= 292666, color= 1
	 item 742, weight= 292757, color= 0
	 item 743, weight= 292987, color= 0
	 item 744, weight= 293183, color= 0
	 item 745, weight= 293183, color= 1
	 item 746, weight= 293271, color= 0
	 item 747, weight= 293294, color= 0
	 item 748, weight= 293336, color= 1
	 item 749, weight= 293370, color= 1
	 item 750, weight= 293434, color= 0
	 item 751, weight= 293661, color= 0
	 item 752, weight= 294062, color= 1
	 item 753, weight= 294063, color= 1
	 item 754, weight= 294119, color= 1
	 item 755, weight= 294148, color= 0
	 item 756, weight= 294330, color= 0
	 item 757, weight= 294417, color= 0
	 item 758, weight= 294433, color= 1
	 item 759, weight= 294730, color= 1
	 item 760, weight= 294746, color= 0
	 item 761, weight= 294969, color= 1
	 item 762, weight= 294977, color= 1
	 item 763, weight= 295205, color= 1
	 item 764, weight= 295211, color= 0
	 item 765, weight= 295313, color= 0
	 item 766, weight= 295373, color= 1
	 item 767, weight= 295515, color= 0
	 item 768, weight= 295536, color= 1
	 item 769, weight= 295597, color= 1
	 item 770, weight= 295667, color= 0
	 item 771, weight= 295698, color= 1
	 item 772, weight= 295711, color= 0
	 item 773, weight= 295715, color= 1
	 item 774, weight= 296143, color= 0
	 item 775, weight= 296301, color= 0
	 item 776, weight= 296343, color= 1
	 item 777, weight= 296374, color= 0
	 item 778, weight= 296421, color= 0
	 item 779, weight= 296485, color= 1
	 item 780, weight= 296635, color= 1
	 item 781, weight= 296636, color= 0
	 item 782, weight= 296682, color= 0
	 item 783, weight= 296850, color= 1
	 item 784, weight= 296961, color= 1
	 item 785, weight= 296992, color= 1
	 item 786, weight= 297094, color= 0
	 item 787, weight= 297274, color= 1
	 item 788, weight= 297424, color= 0
	 item 789, weight= 297473, color= 1
	 item 790, weight= 297537, color= 0
	 item 791, weight= 297641, color= 1
	 item 792, weight= 297779, color= 0
	 item 793, weight= 297820, color= 1
	 item 794, weight= 297984, color= 1
	 item 795, weight= 298103, color= 0
	 item 796, weight= 298137, color= 1
	 item 797, weight= 298161, color= 0
	 item 798, weight= 298168, color= 0
	 item 799, weight= 298213, color= 1
	 item 800, weight= 298301, color= 0
	 item 801, weight= 298364, color= 0
	 item 802, weight= 298503, color= 1
	 item 803, weight= 298607, color= 0
	 item 804, weight= 298651, color= 0
	 item 805, weight= 298697, color= 1
	 item 806, weight= 298810, color= 1
	 item 807, weight= 298869, color= 1
	 item 808, weight= 298976, color= 1
	 item 809, weight= 298982, color= 0
	 item 810, weight= 298987, color= 1
	 item 811, weight= 299071, color= 1
	 item 812, weight= 299082, color= 0
	 item 813, weight= 299223, color= 1
	 item 814, weight= 299238, color= 0
	 item 815, weight= 299354, color= 1
	 item 816, weight= 299413, color= 1
	 item 817, weight= 299436, color= 1
	 item 818, weight= 299483, color= 0
	 item 819, weight= 299504, color= 0
	 item 820, weight= 299532, color= 0
	 item 821, weight= 299652, color= 0
	 item 822, weight= 299654, color= 0
	 item 823, weight= 299736, color= 0
	 item 824, weight= 299784, color= 1
	 item 825, weight= 299856, color= 0
	 item 826, weight= 299873, color= 0
	 item 827, weight= 299958, color= 0
	 item 828, weight= 299975, color= 0
	 item 829, weight= 299976, color= 0
	 item 830, weight= 299999, color= 0
	 item 831, weight= 300017, color= 1
	 item 832, weight= 300114, color= 1
	 item 833, weight= 300296, color= 0
	 item 834, weight= 300320, color= 0
	 item 835, weight= 300379, color= 0
	 item 836, weight= 300536, color= 1
	 item 837, weight= 300697, color= 1
	 item 838, weight= 300783, color= 1
	 item 839, weight= 301184, color= 0
	 item 840, weight= 301850, color= 1
	 item 841, weight= 301917, color= 1
	 item 842, weight= 302002, color= 0
	 item 843, weight= 302128, color= 1
	 item 844, weight= 302256, color= 0
	 item 845, weight= 302299, color= 1
	 item 846, weight= 302487, color= 0
	 item 847, weight= 302648, color= 0
	 item 848, weight= 302712, color= 1
	 item 849, weight= 302850, color= 0
	 item 850, weight= 302882, color= 1
	 item 851, weight= 302899, color= 1
	 item 852, weight= 302945, color= 0
	 item 853, weight= 302992, color= 1
	 item 854, weight= 303037, color= 0
	 item 855, weight= 303040, color= 1
	 item 856, weight= 303074, color= 0
	 item 857, weight= 303091, color= 1
	 item 858, weight= 303129, color= 1
	 item 859, weight= 303328, color= 0
	 item 860, weight= 303512, color= 0
	 item 861, weight= 303556, color= 1
	 item 862, weight= 303616, color= 1
	 item 863, weight= 303813, color= 0
	 item 864, weight= 303921, color= 0
	 item 865, weight= 303980, color= 0
	 item 866, weight= 304130, color= 1
	 item 867, weight= 304135, color= 1
	 item 868, weight= 304219, color= 1
	 item 869, weight= 304265, color= 0
	 item 870, weight= 304473, color= 1
	 item 871, weight= 304516, color= 1
	 item 872, weight= 304588, color= 1
	 item 873, weight= 304676, color= 0
	 item 874, weight= 304744, color= 0
	 item 875, weight= 304787, color= 1
	 item 876, weight= 304826, color= 0
	 item 877, weight= 304870, color= 1
	 item 878, weight= 304896, color= 1
	 item 879, weight= 304940, color= 1
	 item 880, weight= 305243, color= 1
	 item 881, weight= 305261, color= 1
	 item 882, weight= 305281, color= 0
	 item 883, weight= 305306, color= 0
	 item 884, weight= 305416, color= 1
	 item 885, weight= 305489, color= 1
	 item 886, weight= 305630, color= 1
	 item 887, weight= 305930, color= 0
	 item 888, weight= 305989, color= 1
	 item 889, weight= 306020, color= 1
	 item 890, weight= 306218, color= 1
	 item 891, weight= 306300, color= 1
	 item 892, weight= 306383, color= 1
	 item 893, weight= 306432, color= 0
	 item 894, weight= 306813, color= 1
	 item 895, weight= 306962, color= 0
	 item 896, weight= 307050, color= 0
	 item 897, weight= 307145, color= 1
	 item 898, weight= 307250, color= 1
	 item 899, weight= 307287, color= 0
	 item 900, weight= 307487, color= 1
	 item 901, weight= 307490, color= 1
	 item 902, weight= 307589, color= 1
	 item 903, weight= 307658, color= 1
	 item 904, weight= 307807, color= 1
	 item 905, weight= 308014, color= 1
	 item 906, weight= 308026, color= 1
	 item 907, weight= 308033, color= 0
	 item 908, weight= 308092, color= 1
	 item 909, weight= 308114, color= 1
	 item 910, weight= 308227, color= 0
	 item 911, weight= 308267, color= 1
	 item 912, weight= 308371, color= 0
	 item 913, weight= 308378, color= 1
	 item 914, weight= 308389, color= 1
	 item 915, weight= 308450, color= 1
	 item 916, weight= 308482, color= 1
	 item 917, weight= 308539, color= 0
	 item 918, weight= 308585, color= 1
	 item 919, weight= 308627, color= 0
	 item 920, weight= 308673, color= 1
	 item 921, weight= 308725, color= 1
	 item 922, weight= 308862, color= 0
	 item 923, weight= 308872, color= 1
	 item 924, weight= 309007, color= 1
	 item 925, weight= 309103, color= 1
	 item 926, weight= 309107, color= 1
	 item 927, weight= 309168, color= 1
	 item 928, weight= 309232, color= 1
	 item 929, weight= 309564, color= 0
	 item 930, weight= 309742, color= 1
	 item 931, weight= 309786, color= 0
	 item 932, weight= 309796, color= 0
	 item 933, weight= 309912, color= 1
	 item 934, weight= 309955, color= 1
	 item 935, weight= 310033, color= 1
	 item 936, weight= 310125, color= 0
	 item 937, weight= 310135, color= 1
	 item 938, weight= 310228, color= 1
	 item 939, weight= 310255, color= 0
	 item 940, weight= 310257, color= 0
	 item 941, weight= 310279, color= 1
	 item 942, weight= 310289, color= 0
	 item 943, weight= 310305, color= 1
	 item 944, weight= 310453, color= 1
	 item 945, weight= 310492, color= 1
	 item 946, weight= 310605, color= 1
	 item 947, weight= 310681, color= 1
	 item 948, weight= 310771, color= 1
	 item 949, weight= 310885, color= 1
	 item 950, weight= 310981, color= 1
	 item 951, weight= 311069, color= 1
	 item 952, weight= 311131, color= 0
	 item 953, weight= 311160, color= 1
	 item 954, weight= 311470, color= 1
	 item 955, weight= 311473, color= 1
	 item 956, weight= 311561, color= 1
	 item 957, weight= 311589, color= 1
	 item 958, weight= 311644, color= 1
	 item 959, weight= 311660, color= 0
	 item 960, weight= 311716, color= 1
	 item 961, weight= 311760, color= 1
	 item 962, weight= 311975, color= 1
	 item 963, weight= 311999, color= 1
	 item 964, weight= 312028, color= 0
	 item 965, weight= 312139, color= 1
	 item 966, weight= 312227, color= 1
	 item 967, weight= 312334, color= 1
	 item 968, weight= 312366, color= 1
	 item 969, weight= 312528, color= 1
	 item 970, weight= 312541, color= 0
	 item 971, weight= 312849, color= 1
	 item 972, weight= 312899, color= 1
	 item 973, weight= 312924, color= 0
	 item 974, weight= 313107, color= 1
	 item 975, weight= 313205, color= 1
	 item 976, weight= 313277, color= 0
	 item 977, weight= 313582, color= 0
	 item 978, weight= 313618, color= 1
	 item 979, weight= 313656, color= 0
	 item 980, weight= 314096, color= 1
	 item 981, weight= 314100, color= 1
	 item 982, weight= 314119, color= 1
	 item 983, weight= 314224, color= 1
	 item 984, weight= 314364, color= 0
	 item 985, weight= 314486, color= 0
	 item 986, weight= 314813, color= 0
	 item 987, weight= 314828, color= 0
	 item 988, weight= 314898, color= 1
	 item 989, weight= 314898, color= 1
	 item 990, weight= 315045, color= 1
	 item 991, weight= 315205, color= 1
	 item 992, weight= 315241, color= 0
	 item 993, weight= 315282, color= 1
	 item 994, weight= 315315, color= 1
	 item 995, weight= 315374, color= 1
	 item 996, weight= 315404, color= 1
	 item 997, weight= 315479, color= 1
	 item 998, weight= 315561, color= 1
	 item 999, weight= 315696, color= 1
	 item 1000, weight= 315862, color= 1
	 item 1001, weight= 315909, color= 1
	 item 1002, weight= 316009, color= 0
	 item 1003, weight= 316029, color= 1
	 item 1004, weight= 316049, color= 0
	 item 1005, weight= 316326, color= 0
	 item 1006, weight= 316469, color= 1
	 item 1007, weight= 316606, color= 1
	 item 1008, weight= 316631, color= 1
	 item 1009, weight= 316639, color= 1
	 item 1010, weight= 316686, color= 1
	 item 1011, weight= 316893, color= 1
	 item 1012, weight= 317088, color= 0
	 item 1013, weight= 317922, color= 0
	 item 1014, weight= 318034, color= 1
	 item 1015, weight= 318061, color= 1
	 item 1016, weight= 318071, color= 1
	 item 1017, weight= 318088, color= 0
	 item 1018, weight= 318128, color= 1
	 item 1019, weight= 318175, color= 0
	 item 1020, weight= 318222, color= 1
	 item 1021, weight= 318321, color= 1
	 item 1022, weight= 318708, color= 0
	 item 1023, weight= 318727, color= 1
	 item 1024, weight= 318748, color= 1
	 item 1025, weight= 318916, color= 1
	 item 1026, weight= 319284, color= 1
	 item 1027, weight= 319301, color= 1
	 item 1028, weight= 319350, color= 1
	 item 1029, weight= 319421, color= 1
	 item 1030, weight= 319794, color= 1
	 item 1031, weight= 319864, color= 0
	 item 1032, weight= 319886, color= 0
	 item 1033, weight= 320384, color= 1
	 item 1034, weight= 320475, color= 1
	 item 1035, weight= 320569, color= 0
	 item 1036, weight= 320782, color= 1
	 item 1037, weight= 320810, color= 1
	 item 1038, weight= 320844, color= 1
	 item 1039, weight= 321009, color= 1
	 item 1040, weight= 321472, color= 1
	 item 1041, weight= 321482, color= 1
	 item 1042, weight= 321653, color= 1
	 item 1043, weight= 321673, color= 1
	 item 1044, weight= 321761, color= 1
	 item 1045, weight= 321874, color= 1
	 item 1046, weight= 322007, color= 1
	 item 1047, weight= 322528, color= 0
	 item 1048, weight= 322552, color= 1
	 item 1049, weight= 322650, color= 1
	 item 1050, weight= 322727, color= 1
	 item 1051, weight= 322965, color= 1
	 item 1052, weight= 323108, color= 1
	 item 1053, weight= 323283, color= 1
	 item 1054, weight= 323285, color= 0
	 item 1055, weight= 323314, color= 1
	 item 1056, weight= 323318, color= 1
	 item 1057, weight= 323358, color= 1
	 item 1058, weight= 323431, color= 1
	 item 1059, weight= 323503, color= 1
	 item 1060, weight= 323534, color= 1
	 item 1061, weight= 323686, color= 1
	 item 1062, weight= 323754, color= 1
	 item 1063, weight= 323868, color= 1
	 item 1064, weight= 324240, color= 1
	 item 1065, weight= 324494, color= 1
	 item 1066, weight= 324510, color= 1
	 item 1067, weight= 324510, color= 1
	 item 1068, weight= 324554, color= 1
	 item 1069, weight= 324661, color= 1
	 item 1070, weight= 324716, color= 1
	 item 1071, weight= 324722, color= 1
	 item 1072, weight= 324763, color= 0
	 item 1073, weight= 324978, color= 0
	 item 1074, weight= 324996, color= 1
	 item 1075, weight= 325041, color= 1
	 item 1076, weight= 325170, color= 1
	 item 1077, weight= 325231, color= 1
	 item 1078, weight= 325260, color= 1
	 item 1079, weight= 325582, color= 1
	 item 1080, weight= 325668, color= 1
	 item 1081, weight= 325861, color= 1
	 item 1082, weight= 325867, color= 0
	 item 1083, weight= 325937, color= 1
	 item 1084, weight= 326012, color= 1
	 item 1085, weight= 326050, color= 0
	 item 1086, weight= 326086, color= 0
	 item 1087, weight= 326115, color= 1
	 item 1088, weight= 326248, color= 1
	 item 1089, weight= 326265, color= 1
	 item 1090, weight= 326455, color= 1
	 item 1091, weight= 326823, color= 1
	 item 1092, weight= 326827, color= 1
	 item 1093, weight= 326992, color= 1
	 item 1094, weight= 327068, color= 1
	 item 1095, weight= 327170, color= 1
	 item 1096, weight= 327567, color= 1
	 item 1097, weight= 327635, color= 0
	 item 1098, weight= 327699, color= 1
	 item 1099, weight= 327725, color= 1
	 item 1100, weight= 327761, color= 1
	 item 1101, weight= 327801, color= 1
	 item 1102, weight= 327860, color= 1
	 item 1103, weight= 328020, color= 1
	 item 1104, weight= 328083, color= 0
	 item 1105, weight= 328093, color= 1
	 item 1106, weight= 328193, color= 1
	 item 1107, weight= 328843, color= 1
	 item 1108, weight= 328967, color= 1
	 item 1109, weight= 329045, color= 1
	 item 1110, weight= 329291, color= 0
	 item 1111, weight= 329320, color= 1
	 item 1112, weight= 329332, color= 1
	 item 1113, weight= 329353, color= 0
	 item 1114, weight= 329417, color= 1
	 item 1115, weight= 329452, color= 1
	 item 1116, weight= 329612, color= 1
	 item 1117, weight= 329845, color= 1
	 item 1118, weight= 330182, color= 1
	 item 1119, weight= 330184, color= 1
	 item 1120, weight= 330496, color= 1
	 item 1121, weight= 330715, color= 1
	 item 1122, weight= 331062, color= 1
	 item 1123, weight= 331067, color= 1
	 item 1124, weight= 331130, color= 1
	 item 1125, weight= 331168, color= 1
	 item 1126, weight= 331185, color= 1
	 item 1127, weight= 331268, color= 1
	 item 1128, weight= 331282, color= 1
	 item 1129, weight= 331295, color= 1
	 item 1130, weight= 331709, color= 1
	 item 1131, weight= 331722, color= 1
	 item 1132, weight= 331753, color= 1
	 item 1133, weight= 331805, color= 1
	 item 1134, weight= 331889, color= 1
	 item 1135, weight= 331968, color= 1
	 item 1136, weight= 332278, color= 1
	 item 1137, weight= 332370, color= 1
	 item 1138, weight= 332499, color= 1
	 item 1139, weight= 332632, color= 1
	 item 1140, weight= 332670, color= 1
	 item 1141, weight= 332828, color= 1
	 item 1142, weight= 332945, color= 1
	 item 1143, weight= 333070, color= 1
	 item 1144, weight= 333150, color= 1
	 item 1145, weight= 333170, color= 1
	 item 1146, weight= 333377, color= 1
	 item 1147, weight= 333392, color= 1
	 item 1148, weight= 333429, color= 1
	 item 1149, weight= 333453, color= 1
	 item 1150, weight= 333456, color= 1
	 item 1151, weight= 333516, color= 1
	 item 1152, weight= 333596, color= 1
	 item 1153, weight= 333603, color= 1
	 item 1154, weight= 333688, color= 1
	 item 1155, weight= 333825, color= 1
	 item 1156, weight= 333914, color= 1
	 item 1157, weight= 333987, color= 1
	 item 1158, weight= 334046, color= 1
	 item 1159, weight= 334508, color= 1
	 item 1160, weight= 334964, color= 1
	 item 1161, weight= 335094, color= 1
	 item 1162, weight= 335293, color= 1
	 item 1163, weight= 335336, color= 1
	 item 1164, weight= 335633, color= 1
	 item 1165, weight= 335721, color= 1
	 item 1166, weight= 335744, color= 1
	 item 1167, weight= 335786, color= 1
	 item 1168, weight= 335822, color= 1
	 item 1169, weight= 336206, color= 1
	 item 1170, weight= 336425, color= 1
	 item 1171, weight= 336455, color= 1
	 item 1172, weight= 336518, color= 1
	 item 1173, weight= 336591, color= 1
	 item 1174, weight= 336659, color= 1
	 item 1175, weight= 336734, color= 1
	 item 1176, weight= 336805, color= 1
	 item 1177, weight= 336860, color= 1
	 item 1178, weight= 336860, color= 1
	 item 1179, weight= 336915, color= 1
	 item 1180, weight= 336927, color= 1
	 item 1181, weight= 336954, color= 1
	 item 1182, weight= 337052, color= 1
	 item 1183, weight= 337358, color= 1
	 item 1184, weight= 337381, color= 1
	 item 1185, weight= 337721, color= 1
	 item 1186, weight= 337726, color= 1
	 item 1187, weight= 337733, color= 1
	 item 1188, weight= 337845, color= 1
	 item 1189, weight= 337866, color= 1
	 item 1190, weight= 337877, color= 1
	 item 1191, weight= 337882, color= 1
	 item 1192, weight= 338313, color= 1
	 item 1193, weight= 338334, color= 1
	 item 1194, weight= 338377, color= 1
	 item 1195, weight= 338438, color= 1
	 item 1196, weight= 338530, color= 1
	 item 1197, weight= 338695, color= 1
	 item 1198, weight= 338709, color= 1
	 item 1199, weight= 338748, color= 1
	 item 1200, weight= 338969, color= 1
	 item 1201, weight= 339015, color= 1
	 item 1202, weight= 339094, color= 1
	 item 1203, weight= 339246, color= 1
	 item 1204, weight= 339355, color= 1
	 item 1205, weight= 339666, color= 1
	 item 1206, weight= 339818, color= 1
	 item 1207, weight= 340046, color= 1
	 item 1208, weight= 340212, color= 1
	 item 1209, weight= 340218, color= 1
	 item 1210, weight= 340311, color= 1
	 item 1211, weight= 340342, color= 1
	 item 1212, weight= 340644, color= 1
	 item 1213, weight= 340928, color= 1
	 item 1214, weight= 341055, color= 1
	 item 1215, weight= 341241, color= 1
	 item 1216, weight= 341485, color= 1
	 item 1217, weight= 341660, color= 1
	 item 1218, weight= 341810, color= 1
	 item 1219, weight= 342278, color= 1
	 item 1220, weight= 342391, color= 1
	 item 1221, weight= 342615, color= 1
	 item 1222, weight= 342783, color= 1
	 item 1223, weight= 342951, color= 1
	 item 1224, weight= 343082, color= 1
	 item 1225, weight= 343122, color= 1
	 item 1226, weight= 343244, color= 1
	 item 1227, weight= 343396, color= 1
	 item 1228, weight= 343396, color= 1
	 item 1229, weight= 343427, color= 1
	 item 1230, weight= 343556, color= 1
	 item 1231, weight= 343641, color= 1
	 item 1232, weight= 343748, color= 1
	 item 1233, weight= 343796, color= 1
	 item 1234, weight= 343829, color= 1
	 item 1235, weight= 343882, color= 1
	 item 1236, weight= 343883, color= 1
	 item 1237, weight= 343975, color= 1
	 item 1238, weight= 344011, color= 1
	 item 1239, weight= 344243, color= 1
	 item 1240, weight= 344278, color= 1
	 item 1241, weight= 344449, color= 1
	 item 1242, weight= 344669, color= 1
	 item 1243, weight= 344698, color= 1
	 item 1244, weight= 344828, color= 1
	 item 1245, weight= 345159, color= 1
	 item 1246, weight= 345286, color= 1
	 item 1247, weight= 345895, color= 1
	 item 1248, weight= 345941, color= 1
	 item 1249, weight= 346047, color= 1
	 item 1250, weight= 346180, color= 1
	 item 1251, weight= 346231, color= 1
	 item 1252, weight= 346404, color= 1
	 item 1253, weight= 346777, color= 1
	 item 1254, weight= 346900, color= 1
	 item 1255, weight= 347249, color= 1
	 item 1256, weight= 347396, color= 1
	 item 1257, weight= 347486, color= 1
	 item 1258, weight= 347970, color= 1
	 item 1259, weight= 348031, color= 1
	 item 1260, weight= 348068, color= 1
	 item 1261, weight= 348136, color= 1
	 item 1262, weight= 348279, color= 1
	 item 1263, weight= 348379, color= 1
	 item 1264, weight= 348471, color= 1
	 item 1265, weight= 348543, color= 1
	 item 1266, weight= 348868, color= 1
	 item 1267, weight= 348930, color= 1
	 item 1268, weight= 348937, color= 1
	 item 1269, weight= 349088, color= 1
	 item 1270, weight= 349264, color= 1
	 item 1271, weight= 349333, color= 1
	 item 1272, weight= 349466, color= 1
	 item 1273, weight= 349515, color= 1
	 item 1274, weight= 349560, color= 1
	 item 1275, weight= 349748, color= 1
	 item 1276, weight= 349800, color= 1
	 item 1277, weight= 349833, color= 1
	 item 1278, weight= 349855, color= 1
	 item 1279, weight= 350069, color= 1
	 item 1280, weight= 350151, color= 1
	 item 1281, weight= 350222, color= 1
	 item 1282, weight= 350287, color= 1
	 item 1283, weight= 350848, color= 1
	 item 1284, weight= 350989, color= 1
	 item 1285, weight= 351243, color= 1
	 item 1286, weight= 351443, color= 1
	 item 1287, weight= 351485, color= 1
	 item 1288, weight= 351618, color= 1
	 item 1289, weight= 351641, color= 1
	 item 1290, weight= 351764, color= 1
	 item 1291, weight= 351822, color= 1
	 item 1292, weight= 352023, color= 1
	 item 1293, weight= 352035, color= 1
	 item 1294, weight= 352103, color= 1
	 item 1295, weight= 352544, color= 1
	 item 1296, weight= 352567, color= 1
	 item 1297, weight= 352608, color= 1
	 item 1298, weight= 352628, color= 1
	 item 1299, weight= 352694, color= 1
	 item 1300, weight= 352729, color= 1
	 item 1301, weight= 352738, color= 1
	 item 1302, weight= 353456, color= 1
	 item 1303, weight= 353548, color= 1
	 item 1304, weight= 353872, color= 1
	 item 1305, weight= 353988, color= 1
	 item 1306, weight= 354000, color= 1
	 item 1307, weight= 354198, color= 1
	 item 1308, weight= 354247, color= 1
	 item 1309, weight= 354276, color= 1
	 item 1310, weight= 354470, color= 1
	 item 1311, weight= 354554, color= 1
	 item 1312, weight= 354644, color= 1
	 item 1313, weight= 354662, color= 1
	 item 1314, weight= 354684, color= 1
	 item 1315, weight= 354736, color= 1
	 item 1316, weight= 354748, color= 1
	 item 1317, weight= 354875, color= 1
	 item 1318, weight= 355003, color= 1
	 item 1319, weight= 355276, color= 1
	 item 1320, weight= 355348, color= 1
	 item 1321, weight= 355434, color= 1
	 item 1322, weight= 355445, color= 1
	 item 1323, weight= 355653, color= 1
	 item 1324, weight= 355666, color= 1
	 item 1325, weight= 355911, color= 1
	 item 1326, weight= 355943, color= 1
	 item 1327, weight= 356033, color= 1
	 item 1328, weight= 356044, color= 1
	 item 1329, weight= 356179, color= 1
	 item 1330, weight= 356196, color= 1
	 item 1331, weight= 356484, color= 1
	 item 1332, weight= 356552, color= 1
	 item 1333, weight= 356664, color= 1
	 item 1334, weight= 357265, color= 1
	 item 1335, weight= 357279, color= 1
	 item 1336, weight= 357367, color= 1
	 item 1337, weight= 357636, color= 1
	 item 1338, weight= 357687, color= 1
	 item 1339, weight= 357846, color= 1
	 item 1340, weight= 357857, color= 1
	 item 1341, weight= 357859, color= 1
	 item 1342, weight= 357862, color= 1
	 item 1343, weight= 358054, color= 1
	 item 1344, weight= 358316, color= 1
	 item 1345, weight= 358333, color= 1
	 item 1346, weight= 358352, color= 1
	 item 1347, weight= 358538, color= 1
	 item 1348, weight= 358593, color= 1
	 item 1349, weight= 358595, color= 1
	 item 1350, weight= 359177, color= 1
	 item 1351, weight= 359470, color= 1
	 item 1352, weight= 359642, color= 1
	 item 1353, weight= 359734, color= 1
	 item 1354, weight= 359776, color= 1
	 item 1355, weight= 359871, color= 1
	 item 1356, weight= 359872, color= 1
	 item 1357, weight= 359901, color= 1
	 item 1358, weight= 359904, color= 1
	 item 1359, weight= 359995, color= 1
	 item 1360, weight= 360065, color= 1
	 item 1361, weight= 360102, color= 1
	 item 1362, weight= 360189, color= 1
	 item 1363, weight= 360449, color= 1
	 item 1364, weight= 360466, color= 1
	 item 1365, weight= 360469, color= 1
	 item 1366, weight= 360615, color= 1
	 item 1367, weight= 360737, color= 1
	 item 1368, weight= 360851, color= 1
	 item 1369, weight= 360963, color= 1
	 item 1370, weight= 361114, color= 1
	 item 1371, weight= 361464, color= 1
	 item 1372, weight= 361496, color= 1
	 item 1373, weight= 361518, color= 1
	 item 1374, weight= 361668, color= 1
	 item 1375, weight= 361811, color= 1
	 item 1376, weight= 361955, color= 1
	 item 1377, weight= 362000, color= 1
	 item 1378, weight= 362031, color= 1
	 item 1379, weight= 362250, color= 1
	 item 1380, weight= 362358, color= 1
	 item 1381, weight= 362567, color= 1
	 item 1382, weight= 362659, color= 1
	 item 1383, weight= 362783, color= 1
	 item 1384, weight= 362900, color= 1
	 item 1385, weight= 363075, color= 1
	 item 1386, weight= 363136, color= 1
	 item 1387, weight= 363495, color= 1
	 item 1388, weight= 363527, color= 1
	 item 1389, weight= 363591, color= 1
	 item 1390, weight= 363600, color= 1
	 item 1391, weight= 364039, color= 1
	 item 1392, weight= 364309, color= 1
	 item 1393, weight= 364319, color= 1
	 item 1394, weight= 364463, color= 1
	 item 1395, weight= 364475, color= 1
	 item 1396, weight= 364517, color= 1
	 item 1397, weight= 364547, color= 1
	 item 1398, weight= 364777, color= 1
	 item 1399, weight= 364792, color= 1
	 item 1400, weight= 365151, color= 1
	 item 1401, weight= 365172, color= 1
	 item 1402, weight= 365258, color= 1
	 item 1403, weight= 365310, color= 1
	 item 1404, weight= 365400, color= 1
	 item 1405, weight= 365414, color= 1
	 item 1406, weight= 365457, color= 1
	 item 1407, weight= 365515, color= 1
	 item 1408, weight= 365682, color= 1
	 item 1409, weight= 365777, color= 1
	 item 1410, weight= 366033, color= 1
	 item 1411, weight= 366130, color= 1
	 item 1412, weight= 366728, color= 1
	 item 1413, weight= 366746, color= 1
	 item 1414, weight= 366811, color= 1
	 item 1415, weight= 367084, color= 1
	 item 1416, weight= 367406, color= 1
	 item 1417, weight= 367827, color= 1
	 item 1418, weight= 368160, color= 1
	 item 1419, weight= 368244, color= 1
	 item 1420, weight= 368340, color= 1
	 item 1421, weight= 368487, color= 1
	 item 1422, weight= 368542, color= 1
	 item 1423, weight= 368666, color= 1
	 item 1424, weight= 368677, color= 1
	 item 1425, weight= 368720, color= 1
	 item 1426, weight= 369003, color= 1
	 item 1427, weight= 369232, color= 1
	 item 1428, weight= 369399, color= 1
	 item 1429, weight= 369427, color= 1
	 item 1430, weight= 369473, color= 1
	 item 1431, weight= 369646, color= 1
	 item 1432, weight= 369772, color= 1
	 item 1433, weight= 370163, color= 1
	 item 1434, weight= 370185, color= 1
	 item 1435, weight= 370352, color= 1
	 item 1436, weight= 370422, color= 1
	 item 1437, weight= 370532, color= 1
	 item 1438, weight= 370670, color= 1
	 item 1439, weight= 371045, color= 1
	 item 1440, weight= 371056, color= 1
	 item 1441, weight= 371384, color= 1
	 item 1442, weight= 371406, color= 1
	 item 1443, weight= 371627, color= 1
	 item 1444, weight= 371680, color= 1
	 item 1445, weight= 371854, color= 1
	 item 1446, weight= 371874, color= 1
	 item 1447, weight= 372134, color= 1
	 item 1448, weight= 372307, color= 1
	 item 1449, weight= 372585, color= 1
	 item 1450, weight= 372605, color= 1
	 item 1451, weight= 372665, color= 1
	 item 1452, weight= 372774, color= 1
	 item 1453, weight= 373021, color= 1
	 item 1454, weight= 373098, color= 1
	 item 1455, weight= 373113, color= 1
	 item 1456, weight= 373214, color= 1
	 item 1457, weight= 373227, color= 1
	 item 1458, weight= 373385, color= 1
	 item 1459, weight= 373707, color= 1
	 item 1460, weight= 373717, color= 1
	 item 1461, weight= 373851, color= 1
	 item 1462, weight= 374132, color= 1
	 item 1463, weight= 374289, color= 1
	 item 1464, weight= 374314, color= 1
	 item 1465, weight= 374320, color= 1
	 item 1466, weight= 374340, color= 1
	 item 1467, weight= 374406, color= 1
	 item 1468, weight= 374650, color= 1
	 item 1469, weight= 374883, color= 1
	 item 1470, weight= 375080, color= 1
	 item 1471, weight= 375182, color= 1
	 item 1472, weight= 375235, color= 1
	 item 1473, weight= 375437, color= 1
	 item 1474, weight= 375696, color= 1
	 item 1475, weight= 376071, color= 1
	 item 1476, weight= 376150, color= 1
	 item 1477, weight= 376352, color= 1
	 item 1478, weight= 376467, color= 1
	 item 1479, weight= 376588, color= 1
	 item 1480, weight= 376602, color= 1
	 item 1481, weight= 376858, color= 1
	 item 1482, weight= 377015, color= 1
	 item 1483, weight= 377070, color= 1
	 item 1484, weight= 377233, color= 1
	 item 1485, weight= 377354, color= 1
	 item 1486, weight= 377489, color= 1
	 item 1487, weight= 377630, color= 1
	 item 1488, weight= 377677, color= 1
	 item 1489, weight= 377910, color= 1
	 item 1490, weight= 377925, color= 1
	 item 1491, weight= 378048, color= 1
	 item 1492, weight= 378111, color= 1
	 item 1493, weight= 378353, color= 1
	 item 1494, weight= 378508, color= 1
	 item 1495, weight= 378612, color= 1
	 item 1496, weight= 378866, color= 1
	 item 1497, weight= 378950, color= 1
	 item 1498, weight= 379026, color= 1
	 item 1499, weight= 379576, color= 1
	 item 1500, weight= 379737, color= 1
	 item 1501, weight= 380280, color= 1
	 item 1502, weight= 380458, color= 1
	 item 1503, weight= 380500, color= 1
	 item 1504, weight= 380521, color= 1
	 item 1505, weight= 381925, color= 1
	 item 1506, weight= 381985, color= 1
	 item 1507, weight= 382049, color= 1
	 item 1508, weight= 382313, color= 1
	 item 1509, weight= 382394, color= 1
	 item 1510, weight= 382481, color= 1
	 item 1511, weight= 382839, color= 1
	 item 1512, weight= 382882, color= 1
	 item 1513, weight= 382909, color= 1
	 item 1514, weight= 382933, color= 1
	 item 1515, weight= 383402, color= 1
	 item 1516, weight= 383451, color= 1
	 item 1517, weight= 383665, color= 1
	 item 1518, weight= 383721, color= 1
	 item 1519, weight= 383750, color= 1
	 item 1520, weight= 383931, color= 1
	 item 1521, weight= 384038, color= 1
	 item 1522, weight= 384088, color= 1
	 item 1523, weight= 384495, color= 1
	 item 1524, weight= 384577, color= 1
	 item 1525, weight= 384790, color= 1
	 item 1526, weight= 384940, color= 1
	 item 1527, weight= 384945, color= 1
	 item 1528, weight= 384971, color= 1
	 item 1529, weight= 385163, color= 1
	 item 1530, weight= 385259, color= 1
	 item 1531, weight= 385329, color= 1
	 item 1532, weight= 385581, color= 1
	 item 1533, weight= 385803, color= 1
	 item 1534, weight= 385906, color= 1
	 item 1535, weight= 385956, color= 1
	 item 1536, weight= 386007, color= 1
	 item 1537, weight= 386033, color= 1
	 item 1538, weight= 386082, color= 1
	 item 1539, weight= 386276, color= 1
	 item 1540, weight= 386387, color= 1
	 item 1541, weight= 386435, color= 1
	 item 1542, weight= 386697, color= 1
	 item 1543, weight= 386742, color= 1
	 item 1544, weight= 386828, color= 1
	 item 1545, weight= 386988, color= 1
	 item 1546, weight= 387113, color= 1
	 item 1547, weight= 387255, color= 1
	 item 1548, weight= 387386, color= 1
	 item 1549, weight= 387542, color= 1
	 item 1550, weight= 387579, color= 1
	 item 1551, weight= 387713, color= 1
	 item 1552, weight= 387804, color= 1
	 item 1553, weight= 387950, color= 1
	 item 1554, weight= 388238, color= 1
	 item 1555, weight= 388283, color= 1
	 item 1556, weight= 388338, color= 1
	 item 1557, weight= 388485, color= 1
	 item 1558, weight= 388671, color= 1
	 item 1559, weight= 388679, color= 1
	 item 1560, weight= 389254, color= 1
	 item 1561, weight= 389281, color= 1
	 item 1562, weight= 389464, color= 1
	 item 1563, weight= 389834, color= 1
	 item 1564, weight= 389977, color= 1
	 item 1565, weight= 389996, color= 1
	 item 1566, weight= 390289, color= 1
	 item 1567, weight= 390304, color= 1
	 item 1568, weight= 390429, color= 1
	 item 1569, weight= 390613, color= 1
	 item 1570, weight= 391162, color= 1
	 item 1571, weight= 391340, color= 1
	 item 1572, weight= 391437, color= 1
	 item 1573, weight= 391498, color= 1
	 item 1574, weight= 391687, color= 1
	 item 1575, weight= 391921, color= 1
	 item 1576, weight= 392047, color= 1
	 item 1577, weight= 392178, color= 1
	 item 1578, weight= 392434, color= 1
	 item 1579, weight= 392859, color= 1
	 item 1580, weight= 392906, color= 1
	 item 1581, weight= 393114, color= 1
	 item 1582, weight= 393230, color= 1
	 item 1583, weight= 393904, color= 1
	 item 1584, weight= 393974, color= 1
	 item 1585, weight= 394026, color= 1
	 item 1586, weight= 394225, color= 1
	 item 1587, weight= 394752, color= 1
	 item 1588, weight= 394779, color= 1
	 item 1589, weight= 394828, color= 1
	 item 1590, weight= 395234, color= 1
	 item 1591, weight= 395248, color= 1
	 item 1592, weight= 395322, color= 1
	 item 1593, weight= 395338, color= 1
	 item 1594, weight= 395683, color= 1
	 item 1595, weight= 395953, color= 1
	 item 1596, weight= 396104, color= 1
	 item 1597, weight= 396127, color= 1
	 item 1598, weight= 396214, color= 1
	 item 1599, weight= 396451, color= 1
	 item 1600, weight= 396455, color= 1
	 item 1601, weight= 396635, color= 1
	 item 1602, weight= 396800, color= 1
	 item 1603, weight= 396842, color= 1
	 item 1604, weight= 397017, color= 1
	 item 1605, weight= 397033, color= 1
	 item 1606, weight= 397059, color= 1
	 item 1607, weight= 397292, color= 1
	 item 1608, weight= 397310, color= 1
	 item 1609, weight= 397591, color= 1
	 item 1610, weight= 398108, color= 1
	 item 1611, weight= 398366, color= 1
	 item 1612, weight= 398660, color= 1
	 item 1613, weight= 398769, color= 1
	 item 1614, weight= 398954, color= 1
	 item 1615, weight= 399027, color= 1
	 item 1616, weight= 399429, color= 1
	 item 1617, weight= 399609, color= 1
	 item 1618, weight= 399631, color= 1
	 item 1619, weight= 399747, color= 1
	 item 1620, weight= 399912, color= 1
	 item 1621, weight= 400304, color= 1
	 item 1622, weight= 400728, color= 1
	 item 1623, weight= 400999, color= 1
	 item 1624, weight= 401034, color= 1
	 item 1625, weight= 401564, color= 1
	 item 1626, weight= 401585, color= 1
	 item 1627, weight= 401678, color= 1
	 item 1628, weight= 401901, color= 1
	 item 1629, weight= 401926, color= 1
	 item 1630, weight= 402225, color= 1
	 item 1631, weight= 402693, color= 1
	 item 1632, weight= 402710, color= 1
	 item 1633, weight= 402889, color= 1
	 item 1634, weight= 403007, color= 1
	 item 1635, weight= 403104, color= 1
	 item 1636, weight= 403142, color= 1
	 item 1637, weight= 403216, color= 1
	 item 1638, weight= 403339, color= 1
	 item 1639, weight= 403489, color= 1
	 item 1640, weight= 403631, color= 1
	 item 1641, weight= 403712, color= 1
	 item 1642, weight= 403845, color= 1
	 item 1643, weight= 404094, color= 1
	 item 1644, weight= 404860, color= 1
	 item 1645, weight= 404970, color= 1
	 item 1646, weight= 404980, color= 1
	 item 1647, weight= 405317, color= 1
	 item 1648, weight= 405335, color= 1
	 item 1649, weight= 405529, color= 1
	 item 1650, weight= 405743, color= 1
	 item 1651, weight= 406121, color= 1
	 item 1652, weight= 406716, color= 1
	 item 1653, weight= 406716, color= 1
	 item 1654, weight= 406739, color= 1
	 item 1655, weight= 406777, color= 1
	 item 1656, weight= 406901, color= 1
	 item 1657, weight= 406981, color= 1
	 item 1658, weight= 407164, color= 1
	 item 1659, weight= 407302, color= 1
	 item 1660, weight= 407534, color= 1
	 item 1661, weight= 407576, color= 1
	 item 1662, weight= 407670, color= 1
	 item 1663, weight= 407890, color= 1
	 item 1664, weight= 408190, color= 1
	 item 1665, weight= 408198, color= 1
	 item 1666, weight= 408199, color= 1
	 item 1667, weight= 408365, color= 1
	 item 1668, weight= 408470, color= 1
	 item 1669, weight= 408520, color= 1
	 item 1670, weight= 408702, color= 1
	 item 1671, weight= 408723, color= 1
	 item 1672, weight= 408776, color= 1
	 item 1673, weight= 408970, color= 1
	 item 1674, weight= 408985, color= 1
	 item 1675, weight= 409285, color= 1
	 item 1676, weight= 409551, color= 1
	 item 1677, weight= 410022, color= 1
	 item 1678, weight= 410181, color= 1
	 item 1679, weight= 410419, color= 1
	 item 1680, weight= 410630, color= 1
	 item 1681, weight= 410738, color= 1
	 item 1682, weight= 410887, color= 1
	 item 1683, weight= 410925, color= 1
	 item 1684, weight= 411118, color= 1
	 item 1685, weight= 411310, color= 1
	 item 1686, weight= 411325, color= 1
	 item 1687, weight= 411329, color= 1
	 item 1688, weight= 411377, color= 1
	 item 1689, weight= 411499, color= 1
	 item 1690, weight= 411517, color= 1
	 item 1691, weight= 411627, color= 1
	 item 1692, weight= 412271, color= 1
	 item 1693, weight= 412737, color= 1
	 item 1694, weight= 412825, color= 1
	 item 1695, weight= 412901, color= 1
	 item 1696, weight= 412969, color= 1
	 item 1697, weight= 413096, color= 1
	 item 1698, weight= 413313, color= 1
	 item 1699, weight= 413334, color= 1
	 item 1700, weight= 413458, color= 1
	 item 1701, weight= 413480, color= 1
	 item 1702, weight= 413487, color= 1
	 item 1703, weight= 414069, color= 1
	 item 1704, weight= 415598, color= 1
	 item 1705, weight= 415659, color= 1
	 item 1706, weight= 416053, color= 1
	 item 1707, weight= 416152, color= 1
	 item 1708, weight= 416203, color= 1
	 item 1709, weight= 416546, color= 1
	 item 1710, weight= 416691, color= 1
	 item 1711, weight= 417238, color= 1
	 item 1712, weight= 417964, color= 1
	 item 1713, weight= 418058, color= 1
	 item 1714, weight= 418457, color= 1
	 item 1715, weight= 418818, color= 1
	 item 1716, weight= 419136, color= 1
	 item 1717, weight= 419164, color= 1
	 item 1718, weight= 419249, color= 1
	 item 1719, weight= 419386, color= 1
	 item 1720, weight= 419425, color= 1
	 item 1721, weight= 419599, color= 1
	 item 1722, weight= 420274, color= 1
	 item 1723, weight= 420391, color= 1
	 item 1724, weight= 420439, color= 1
	 item 1725, weight= 420653, color= 1
	 item 1726, weight= 421947, color= 1
	 item 1727, weight= 421988, color= 1
	 item 1728, weight= 422040, color= 1
	 item 1729, weight= 422702, color= 1
	 item 1730, weight= 423144, color= 1
	 item 1731, weight= 423615, color= 1
	 item 1732, weight= 423984, color= 1
	 item 1733, weight= 424308, color= 1
	 item 1734, weight= 424322, color= 1
	 item 1735, weight= 424415, color= 1
	 item 1736, weight= 424771, color= 1
	 item 1737, weight= 424834, color= 1
	 item 1738, weight= 425236, color= 1
	 item 1739, weight= 425323, color= 1
	 item 1740, weight= 425660, color= 1
	 item 1741, weight= 426076, color= 1
	 item 1742, weight= 426172, color= 1
	 item 1743, weight= 426585, color= 1
	 item 1744, weight= 426805, color= 1
	 item 1745, weight= 426993, color= 1
	 item 1746, weight= 427514, color= 1
	 item 1747, weight= 427713, color= 1
	 item 1748, weight= 427924, color= 1
	 item 1749, weight= 428034, color= 1
	 item 1750, weight= 428393, color= 1
	 item 1751, weight= 428449, color= 1
	 item 1752, weight= 428631, color= 1
	 item 1753, weight= 428758, color= 1
	 item 1754, weight= 428806, color= 1
	 item 1755, weight= 428939, color= 1
	 item 1756, weight= 429172, color= 1
	 item 1757, weight= 429366, color= 1
	 item 1758, weight= 429790, color= 1
	 item 1759, weight= 430042, color= 1
	 item 1760, weight= 430817, color= 1
	 item 1761, weight= 431080, color= 1
	 item 1762, weight= 431662, color= 1
	 item 1763, weight= 431863, color= 1
	 item 1764, weight= 431880, color= 1
	 item 1765, weight= 432167, color= 1
	 item 1766, weight= 432270, color= 1
	 item 1767, weight= 432558, color= 1
	 item 1768, weight= 432593, color= 1
	 item 1769, weight= 433380, color= 1
	 item 1770, weight= 433561, color= 1
	 item 1771, weight= 434349, color= 1
	 item 1772, weight= 434620, color= 1
	 item 1773, weight= 434712, color= 1
	 item 1774, weight= 435636, color= 1
	 item 1775, weight= 435815, color= 1
	 item 1776, weight= 435914, color= 1
	 item 1777, weight= 436062, color= 1
	 item 1778, weight= 436091, color= 1
	 item 1779, weight= 437126, color= 1
	 item 1780, weight= 437147, color= 1
	 item 1781, weight= 437231, color= 1
	 item 1782, weight= 437320, color= 1
	 item 1783, weight= 437348, color= 1
	 item 1784, weight= 438406, color= 1
	 item 1785, weight= 438418, color= 1
	 item 1786, weight= 438521, color= 1
	 item 1787, weight= 439218, color= 1
	 item 1788, weight= 439431, color= 1
	 item 1789, weight= 439597, color= 1
	 item 1790, weight= 439670, color= 1
	 item 1791, weight= 440272, color= 1
	 item 1792, weight= 440466, color= 1
	 item 1793, weight= 440751, color= 1
	 item 1794, weight= 440862, color= 1
	 item 1795, weight= 440915, color= 1
	 item 1796, weight= 440999, color= 1
	 item 1797, weight= 441300, color= 1
	 item 1798, weight= 441362, color= 1
	 item 1799, weight= 441867, color= 1
	 item 1800, weight= 442056, color= 1
	 item 1801, weight= 442351, color= 1
	 item 1802, weight= 442578, color= 1
	 item 1803, weight= 442881, color= 1
	 item 1804, weight= 443352, color= 1
	 item 1805, weight= 443512, color= 1
	 item 1806, weight= 443619, color= 1
	 item 1807, weight= 443685, color= 1
	 item 1808, weight= 443961, color= 1
	 item 1809, weight= 444399, color= 1
	 item 1810, weight= 444400, color= 1
	 item 1811, weight= 444413, color= 1
	 item 1812, weight= 445023, color= 1
	 item 1813, weight= 445043, color= 1
	 item 1814, weight= 445103, color= 1
	 item 1815, weight= 445292, color= 1
	 item 1816, weight= 445434, color= 1
	 item 1817, weight= 445956, color= 1
	 item 1818, weight= 446056, color= 1
	 item 1819, weight= 446537, color= 1
	 item 1820, weight= 446788, color= 1
	 item 1821, weight= 446800, color= 1
	 item 1822, weight= 446827, color= 1
	 item 1823, weight= 446865, color= 1
	 item 1824, weight= 446947, color= 1
	 item 1825, weight= 447337, color= 1
	 item 1826, weight= 447837, color= 1
	 item 1827, weight= 448530, color= 1
	 item 1828, weight= 448750, color= 1
	 item 1829, weight= 448929, color= 1
	 item 1830, weight= 449134, color= 1
	 item 1831, weight= 449194, color= 1
	 item 1832, weight= 449321, color= 1
	 item 1833, weight= 449378, color= 1
	 item 1834, weight= 449493, color= 1
	 item 1835, weight= 449749, color= 1
	 item 1836, weight= 450153, color= 1
	 item 1837, weight= 450430, color= 1
	 item 1838, weight= 450586, color= 1
	 item 1839, weight= 450717, color= 1
	 item 1840, weight= 450726, color= 1
	 item 1841, weight= 451049, color= 1
	 item 1842, weight= 451311, color= 1
	 item 1843, weight= 451478, color= 1
	 item 1844, weight= 451633, color= 1
	 item 1845, weight= 451683, color= 1
	 item 1846, weight= 452081, color= 1
	 item 1847, weight= 452199, color= 1
	 item 1848, weight= 452309, color= 1
	 item 1849, weight= 452330, color= 1
	 item 1850, weight= 452382, color= 1
	 item 1851, weight= 452418, color= 1
	 item 1852, weight= 452683, color= 1
	 item 1853, weight= 452747, color= 1
	 item 1854, weight= 452763, color= 1
	 item 1855, weight= 452856, color= 1
	 item 1856, weight= 453046, color= 1
	 item 1857, weight= 453534, color= 1
	 item 1858, weight= 453750, color= 1
	 item 1859, weight= 453824, color= 1
	 item 1860, weight= 454627, color= 1
	 item 1861, weight= 454769, color= 1
	 item 1862, weight= 455130, color= 1
	 item 1863, weight= 455154, color= 1
	 item 1864, weight= 455192, color= 1
	 item 1865, weight= 455703, color= 1
	 item 1866, weight= 455722, color= 1
	 item 1867, weight= 456060, color= 1
	 item 1868, weight= 456283, color= 1
	 item 1869, weight= 456298, color= 1
	 item 1870, weight= 456687, color= 1
	 item 1871, weight= 456886, color= 1
	 item 1872, weight= 457015, color= 1
	 item 1873, weight= 457465, color= 1
	 item 1874, weight= 457873, color= 1
	 item 1875, weight= 458355, color= 1
	 item 1876, weight= 458551, color= 1
	 item 1877, weight= 458602, color= 1
	 item 1878, weight= 458632, color= 1
	 item 1879, weight= 458657, color= 1
	 item 1880, weight= 458731, color= 1
	 item 1881, weight= 458868, color= 1
	 item 1882, weight= 458886, color= 1
	 item 1883, weight= 458935, color= 1
	 item 1884, weight= 459055, color= 1
	 item 1885, weight= 460076, color= 1
	 item 1886, weight= 460717, color= 1
	 item 1887, weight= 460803, color= 1
	 item 1888, weight= 461030, color= 1
	 item 1889, weight= 461388, color= 1
	 item 1890, weight= 461583, color= 1
	 item 1891, weight= 461791, color= 1
	 item 1892, weight= 462194, color= 1
	 item 1893, weight= 462542, color= 1
	 item 1894, weight= 463195, color= 1
	 item 1895, weight= 463259, color= 1
	 item 1896, weight= 463518, color= 1
	 item 1897, weight= 463777, color= 1
	 item 1898, weight= 464169, color= 1
	 item 1899, weight= 464196, color= 1
	 item 1900, weight= 464513, color= 1
	 item 1901, weight= 464516, color= 1
	 item 1902, weight= 465697, color= 1
	 item 1903, weight= 465998, color= 1
	 item 1904, weight= 466500, color= 1
	 item 1905, weight= 466504, color= 1
	 item 1906, weight= 467111, color= 1
	 item 1907, weight= 467219, color= 1
	 item 1908, weight= 468431, color= 1
	 item 1909, weight= 468490, color= 1
	 item 1910, weight= 468524, color= 1
	 item 1911, weight= 468561, color= 1
	 item 1912, weight= 468709, color= 1
	 item 1913, weight= 469012, color= 1
	 item 1914, weight= 469016, color= 1
	 item 1915, weight= 469234, color= 1
	 item 1916, weight= 469624, color= 1
	 item 1917, weight= 469827, color= 1
	 item 1918, weight= 470522, color= 1
	 item 1919, weight= 471209, color= 1
	 item 1920, weight= 471227, color= 1
	 item 1921, weight= 471947, color= 1
	 item 1922, weight= 472290, color= 1
	 item 1923, weight= 472313, color= 1
	 item 1924, weight= 472520, color= 1
	 item 1925, weight= 472683, color= 1
	 item 1926, weight= 472780, color= 1
	 item 1927, weight= 472868, color= 1
	 item 1928, weight= 473569, color= 1
	 item 1929, weight= 473949, color= 1
	 item 1930, weight= 474003, color= 1
	 item 1931, weight= 474125, color= 1
	 item 1932, weight= 474477, color= 1
	 item 1933, weight= 475414, color= 1
	 item 1934, weight= 475852, color= 1
	 item 1935, weight= 477203, color= 1
	 item 1936, weight= 477204, color= 1
	 item 1937, weight= 477215, color= 1
	 item 1938, weight= 477344, color= 1
	 item 1939, weight= 477748, color= 1
	 item 1940, weight= 477933, color= 1
	 item 1941, weight= 478132, color= 1
	 item 1942, weight= 478323, color= 1
	 item 1943, weight= 479531, color= 1
	 item 1944, weight= 479533, color= 1
	 item 1945, weight= 479869, color= 1
	 item 1946, weight= 480133, color= 1
	 item 1947, weight= 480652, color= 1
	 item 1948, weight= 480820, color= 1
	 item 1949, weight= 480836, color= 1
	 item 1950, weight= 480876, color= 1
	 item 1951, weight= 481237, color= 1
	 item 1952, weight= 481319, color= 1
	 item 1953, weight= 481369, color= 1
	 item 1954, weight= 482109, color= 1
	 item 1955, weight= 482471, color= 1
	 item 1956, weight= 483232, color= 1
	 item 1957, weight= 483272, color= 1
	 item 1958, weight= 483328, color= 1
	 item 1959, weight= 483687, color= 1
	 item 1960, weight= 483960, color= 1
	 item 1961, weight= 485371, color= 1
	 item 1962, weight= 485865, color= 1
	 item 1963, weight= 485991, color= 1
	 item 1964, weight= 486530, color= 1
	 item 1965, weight= 486771, color= 1
	 item 1966, weight= 487135, color= 1
	 item 1967, weight= 487344, color= 1
	 item 1968, weight= 487435, color= 1
	 item 1969, weight= 487439, color= 1
	 item 1970, weight= 487941, color= 1
	 item 1971, weight= 488382, color= 1
	 item 1972, weight= 488523, color= 1
	 item 1973, weight= 488800, color= 1
	 item 1974, weight= 489332, color= 1
	 item 1975, weight= 489381, color= 1
	 item 1976, weight= 489584, color= 1
	 item 1977, weight= 489930, color= 1
	 item 1978, weight= 490818, color= 1
	 item 1979, weight= 491238, color= 1
	 item 1980, weight= 491971, color= 1
	 item 1981, weight= 492306, color= 1
	 item 1982, weight= 492441, color= 1
	 item 1983, weight= 492864, color= 1
	 item 1984, weight= 492949, color= 1
	 item 1985, weight= 493272, color= 1
	 item 1986, weight= 493351, color= 1
	 item 1987, weight= 493583, color= 1
	 item 1988, weight= 493659, color= 1
	 item 1989, weight= 494099, color= 1
	 item 1990, weight= 494424, color= 1
	 item 1991, weight= 494595, color= 1
	 item 1992, weight= 496929, color= 1
	 item 1993, weight= 497273, color= 1
	 item 1994, weight= 497329, color= 1
	 item 1995, weight= 497832, color= 1
	 item 1996, weight= 498529, color= 1
	 item 1997, weight= 498721, color= 1
	 item 1998, weight= 498772, color= 1
	 item 1999, weight= 498798, color= 1
	 item 2000, weight= 499273, color= 1
	 item 2001, weight= 499675, color= 1

VRPSolver warning: Interval set for resource 1 on source node (when source != sink) is ignored (by definition is [0.0,0.0])
[41m solve [00m
~~~~~~~~~~~~~~~~~~~~~~~~~~~~~~~~~~~~~~~~~~~~~~~~~~~~~~~~~~~~~~~~~~~~~~~~~~~~~~
VRPSolver v0.4.1, 24/03/2021. Web: vrpsolver.math.u-bordeaux.fr
Corresponds to the solver by Pessoa, Sadykov, Uchoa and Vanderbeck (2020)
Paper: dx.doi.org/10.1007/s10107-020-01523-z
USE THIS CODE ONLY FOR ACADEMIC PURPOSES AT YOUR OWN RISK
~~~~~~~~~~~~~~~~~~~~~~~~~~~~~~~~~~~~~~~~~~~~~~~~~~~~~~~~~~~~~~~~~~~~~~~~~~~~~~
BaPCod v053, 24/03/2021, © Inria Bordeaux, France
~~~~~~~~~~~~~~~~~~~~~~~~~~~~~~~~~~~~~~~~~~~~~~~~~~~~~~~~~~~~~~~~~~~~~~~~~~~~~~
VRPSolver parameters:
GlobalTimeLimit = 1800
MaxNbOfBBtreeNodeTreated = 100000
treeSearchStrategy = 1
RCSPstopCutGenTimeThresholdInPricing = 10
RCSPhardTimeThresholdInPricing = 20
RCSPnumberOfBucketsPerVertex = 2000
RCSPdynamicBucketSteps = 0
RCSPuseBidirectionalSearch = 1
RCSPapplyReducedCostFixing = 1
RCSPredCostFixingFalseGap = 0
RCSPmaxNumOfColsPerIteration = 100
RCSPmaxNumOfColsPerExactIteration = 100
RCSPheurLabelingStrategy = 4
StabilizationMinPhaseOfStage = 1
RCSPmaxNumOfLabelsInEnumeration = 100000
RCSPmaxNumOfEnumeratedSolutions = 1000000
RCSPmaxNumOfEnumSolutionsForMIP = 100000
RCSPinitNGneighbourhoodSize = 0
RCSPmaxNGneighbourhoodSize = 0
RCSPrankOneCutsMaxNumPerRound = 100
RCSPrankOneCutsMaxNumRows = -1
RCSPrankOneCutsMemoryType = 2
CutTailingOffThreshold = 0.02
CutTailingOffCounterThreshold = 3
SafeDualBoundScaleFactor = -1
StrongBranchingPhaseOneCandidatesNumber = 100
StrongBranchingPhaseOneTreeSizeEstimRatio = 0.3
StrongBranchingPhaseTwoCandidatesNumber = 1
StrongBranchingPhaseTwoTreeSizeEstimRatio = 0.1
MaxTimeForRestrictedMasterIpHeur = -1
DivingHeurUseDepthLimit = 0
MaxLDSbreadth = 3
MaxLDSdepth = 2
New model incumbent solution 1e+06, TIME = 0h0m0s3t = 3
statistics_cols: instance & :Optimal & cutoff & :bcRecRootDb & :bcTimeRootEval & :bcCountNodeProc & :bcRecBestDb & :bcRecBestInc & :bcTimeMain \\
statistics: N2001W1000001R2550Q2Half-003 & 0 & 1.0e6 & 0.00 & 0.00 & 0 & 0.00 & -- & 0.00 \\
########################################################
Solution not found
########################################################
