Academic license - for non-commercial use only - expires 2025-02-09
Gurobi Optimizer version 9.1.2 build v9.1.2rc0 (linux64)
Thread count: 20 physical cores, 40 logical processors, using up to 1 threads
Optimize a model with 1896 rows, 184521 columns and 550272 nonzeros
Model fingerprint: 0x56f5fbd4
Variable types: 0 continuous, 184521 integer (0 binary)
Coefficient statistics:
  Matrix range     [1e+00, 1e+00]
  Objective range  [1e+00, 1e+00]
  Bounds range     [5e+02, 5e+02]
  RHS range        [1e+00, 1e+00]

Warning: Completing partial solution with 183870 unfixed non-continuous variables out of 184521
User MIP start produced solution with objective 206 (0.16s)
Loaded user MIP start with objective 206

Presolve removed 770 rows and 32649 columns
Presolve time: 0.91s
Presolved: 1126 rows, 151872 columns, 355548 nonzeros
Found heuristic solution: objective 200.0000000
Variable types: 0 continuous, 151872 integer (151872 binary)

Root simplex log...

Iteration    Objective       Primal Inf.    Dual Inf.      Time
   10671    1.3663423e+02   3.789545e+05   0.000000e+00      5s
   19286    1.6700017e+02   2.608608e+02   0.000000e+00     10s
   19993    1.6700000e+02   0.000000e+00   0.000000e+00     11s

Root relaxation: objective 1.670000e+02, 19993 iterations, 9.78 seconds
Total elapsed time = 25.31s

    Nodes    |    Current Node    |     Objective Bounds      |     Work
 Expl Unexpl |  Obj  Depth IntInf | Incumbent    BestBd   Gap | It/Node Time

*    0     0               0     167.0000000  167.00000  0.00%     -   26s

Explored 0 nodes (204370 simplex iterations) in 26.82 seconds
Thread count was 1 (of 40 available processors)

Solution count 3: 167 200 206 

Optimal solution found (tolerance 1.00e-04)
Best objective 1.670000000000e+02, best bound 1.670000000000e+02, gap 0.0000%
1	184521	1896	0	167	167	27.257
