Academic license - for non-commercial use only - expires 2025-02-09
Gurobi Optimizer version 9.1.2 build v9.1.2rc0 (linux64)
Thread count: 20 physical cores, 40 logical processors, using up to 1 threads
Optimize a model with 1894 rows, 184010 columns and 548743 nonzeros
Model fingerprint: 0x9ccc53da
Variable types: 0 continuous, 184010 integer (0 binary)
Coefficient statistics:
  Matrix range     [1e+00, 1e+00]
  Objective range  [1e+00, 1e+00]
  Bounds range     [5e+02, 5e+02]
  RHS range        [1e+00, 1e+00]

Warning: Completing partial solution with 183363 unfixed non-continuous variables out of 184010
User MIP start produced solution with objective 208 (0.16s)
Loaded user MIP start with objective 208

Presolve removed 766 rows and 33071 columns
Presolve time: 0.90s
Presolved: 1128 rows, 150939 columns, 353107 nonzeros
Found heuristic solution: objective 204.0000000
Variable types: 0 continuous, 150939 integer (150939 binary)

Root simplex log...

Iteration    Objective       Primal Inf.    Dual Inf.      Time
   10146    1.4737933e+02   1.619996e+05   0.000000e+00      5s
   19804    1.6700018e+02   4.120689e+02   0.000000e+00     10s
   21226    1.6700000e+02   0.000000e+00   0.000000e+00     12s

Root relaxation: objective 1.670000e+02, 21226 iterations, 10.62 seconds
Total elapsed time = 15.45s
Total elapsed time = 22.34s

    Nodes    |    Current Node    |     Objective Bounds      |     Work
 Expl Unexpl |  Obj  Depth IntInf | Incumbent    BestBd   Gap | It/Node Time

*    0     0               0     167.0000000  167.00000  0.00%     -   23s

Explored 0 nodes (153718 simplex iterations) in 23.91 seconds
Thread count was 1 (of 40 available processors)

Solution count 3: 167 204 208 

Optimal solution found (tolerance 1.00e-04)
Best objective 1.670000000000e+02, best bound 1.670000000000e+02, gap 0.0000%
1	184010	1894	0	167	167	24.331
