Academic license - for non-commercial use only - expires 2025-02-09
Gurobi Optimizer version 9.1.2 build v9.1.2rc0 (linux64)
Thread count: 20 physical cores, 40 logical processors, using up to 1 threads
Optimize a model with 1293 rows, 31664 columns and 92526 nonzeros
Model fingerprint: 0x75a5f08f
Variable types: 0 continuous, 31664 integer (0 binary)
Coefficient statistics:
  Matrix range     [1e+00, 1e+00]
  Objective range  [1e+00, 1e+00]
  Bounds range     [1e+02, 1e+02]
  RHS range        [1e+00, 1e+00]

Warning: Completing partial solution with 31496 unfixed non-continuous variables out of 31664
User MIP start produced solution with objective 53 (0.03s)
Loaded user MIP start with objective 53

Presolve removed 657 rows and 6153 columns
Presolve time: 0.16s
Presolved: 636 rows, 25511 columns, 55718 nonzeros
Found heuristic solution: objective 52.0000000
Variable types: 0 continuous, 25511 integer (25511 binary)

Root relaxation: objective 4.000000e+01, 5926 iterations, 0.97 seconds

    Nodes    |    Current Node    |     Objective Bounds      |     Work
 Expl Unexpl |  Obj  Depth IntInf | Incumbent    BestBd   Gap | It/Node Time

     0     0   40.00000    0   45   52.00000   40.00000  23.1%     -    1s
H    0     0                      41.0000000   40.00000  2.44%     -    1s
     0     0   40.00000    0  140   41.00000   40.00000  2.44%     -    1s
*    0     0               0      40.0000000   40.00000  0.00%     -    2s

Cutting planes:
  Zero half: 12
  RLT: 1

Explored 1 nodes (12854 simplex iterations) in 2.28 seconds
Thread count was 1 (of 40 available processors)

Solution count 4: 40 41 52 53 

Optimal solution found (tolerance 1.00e-04)
Best objective 4.000000000000e+01, best bound 4.000000000000e+01, gap 0.0000%
1	31664	1293	1	40	40	2.354
