Academic license - for non-commercial use only - expires 2025-02-09
Gurobi Optimizer version 9.1.2 build v9.1.2rc0 (linux64)
Thread count: 20 physical cores, 40 logical processors, using up to 1 threads
Optimize a model with 1149 rows, 13799 columns and 39159 nonzeros
Model fingerprint: 0xc5049640
Variable types: 0 continuous, 13799 integer (0 binary)
Coefficient statistics:
  Matrix range     [1e+00, 1e+00]
  Objective range  [1e+00, 1e+00]
  Bounds range     [6e+01, 6e+01]
  RHS range        [1e+00, 1e+00]

Warning: Completing partial solution with 13714 unfixed non-continuous variables out of 13799
User MIP start produced solution with objective 26 (0.01s)
Loaded user MIP start with objective 26

Presolve removed 613 rows and 3048 columns
Presolve time: 0.14s
Presolved: 536 rows, 10751 columns, 22839 nonzeros
Found heuristic solution: objective 24.0000000
Variable types: 0 continuous, 10751 integer (10751 binary)

Root relaxation: objective 2.000000e+01, 3001 iterations, 0.11 seconds

    Nodes    |    Current Node    |     Objective Bounds      |     Work
 Expl Unexpl |  Obj  Depth IntInf | Incumbent    BestBd   Gap | It/Node Time

*    0     0               0      20.0000000   20.00000  0.00%     -    0s

Explored 0 nodes (3001 simplex iterations) in 0.30 seconds
Thread count was 1 (of 40 available processors)

Solution count 3: 20 24 26 

Optimal solution found (tolerance 1.00e-04)
Best objective 2.000000000000e+01, best bound 2.000000000000e+01, gap 0.0000%
1	13799	1149	0	20	20	0.336
