Academic license - for non-commercial use only - expires 2025-02-09
Gurobi Optimizer version 9.1.2 build v9.1.2rc0 (linux64)
Thread count: 20 physical cores, 40 logical processors, using up to 1 threads
Optimize a model with 1165 rows, 14322 columns and 40696 nonzeros
Model fingerprint: 0xfbd35350
Variable types: 0 continuous, 14322 integer (0 binary)
Coefficient statistics:
  Matrix range     [1e+00, 1e+00]
  Objective range  [1e+00, 1e+00]
  Bounds range     [6e+01, 6e+01]
  RHS range        [1e+00, 1e+00]

Warning: Completing partial solution with 14234 unfixed non-continuous variables out of 14322
User MIP start produced solution with objective 28 (0.01s)
Loaded user MIP start with objective 28

Presolve removed 628 rows and 3347 columns
Presolve time: 0.15s
Presolved: 537 rows, 10975 columns, 23361 nonzeros
Found heuristic solution: objective 28.0000000
Variable types: 0 continuous, 10975 integer (10975 binary)

Root relaxation: objective 2.000000e+01, 2500 iterations, 0.09 seconds

    Nodes    |    Current Node    |     Objective Bounds      |     Work
 Expl Unexpl |  Obj  Depth IntInf | Incumbent    BestBd   Gap | It/Node Time

     0     0   20.00000    0   68   28.00000   20.00000  28.6%     -    0s
H    0     0                      21.0000000   20.00000  4.76%     -    0s
     0     0   20.00000    0   86   21.00000   20.00000  4.76%     -    0s
     0     0   20.00000    0   40   21.00000   20.00000  4.76%     -    0s
     0     0   20.00000    0   46   21.00000   20.00000  4.76%     -    0s
     0     0   20.00000    0   46   21.00000   20.00000  4.76%     -    0s
*    0     0               0      20.0000000   20.00000  0.00%     -    0s

Cutting planes:
  Zero half: 6
  RLT: 1

Explored 1 nodes (17133 simplex iterations) in 0.79 seconds
Thread count was 1 (of 40 available processors)

Solution count 4: 20 21 28 28 

Optimal solution found (tolerance 1.00e-04)
Best objective 2.000000000000e+01, best bound 2.000000000000e+01, gap 0.0000%
1	14322	1165	1	20	20	0.825
