Academic license - for non-commercial use only - expires 2025-02-09
Gurobi Optimizer version 9.1.2 build v9.1.2rc0 (linux64)
Thread count: 20 physical cores, 40 logical processors, using up to 1 threads
Optimize a model with 1293 rows, 31668 columns and 92538 nonzeros
Model fingerprint: 0xd9077f76
Variable types: 0 continuous, 31668 integer (0 binary)
Coefficient statistics:
  Matrix range     [1e+00, 1e+00]
  Objective range  [1e+00, 1e+00]
  Bounds range     [1e+02, 1e+02]
  RHS range        [1e+00, 1e+00]

Warning: Completing partial solution with 31500 unfixed non-continuous variables out of 31668
User MIP start produced solution with objective 50 (0.03s)
Loaded user MIP start with objective 50

Presolve removed 653 rows and 6039 columns
Presolve time: 0.14s
Presolved: 640 rows, 25629 columns, 55848 nonzeros
Found heuristic solution: objective 50.0000000
Variable types: 0 continuous, 25629 integer (25629 binary)

Root relaxation: objective 4.000000e+01, 6199 iterations, 0.90 seconds

    Nodes    |    Current Node    |     Objective Bounds      |     Work
 Expl Unexpl |  Obj  Depth IntInf | Incumbent    BestBd   Gap | It/Node Time

*    0     0               0      40.0000000   40.00000  0.00%     -    1s

Explored 0 nodes (9950 simplex iterations) in 1.38 seconds
Thread count was 1 (of 40 available processors)

Solution count 3: 40 50 50 

Optimal solution found (tolerance 1.00e-04)
Best objective 4.000000000000e+01, best bound 4.000000000000e+01, gap 0.0000%
1	31668	1293	0	40	40	1.457
