Application parameters:
  batch  =>  nothing
  instance  =>  "/IN/Falkenauer_t120_04.txt-Q2"
  ub  =>  1.0e6
  cfg  =>  "/CFG/BPP.cfg"
data = Colored Bin Packing dataset.
number of items = 120
number of colors = 2
capacity = 1000
Items : 
	 item 1, weight= 250, color= 0
	 item 2, weight= 250, color= 0
	 item 3, weight= 250, color= 1
	 item 4, weight= 251, color= 0
	 item 5, weight= 251, color= 0
	 item 6, weight= 251, color= 1
	 item 7, weight= 251, color= 1
	 item 8, weight= 252, color= 0
	 item 9, weight= 252, color= 1
	 item 10, weight= 253, color= 1
	 item 11, weight= 254, color= 0
	 item 12, weight= 254, color= 1
	 item 13, weight= 255, color= 1
	 item 14, weight= 256, color= 0
	 item 15, weight= 256, color= 1
	 item 16, weight= 257, color= 0
	 item 17, weight= 258, color= 0
	 item 18, weight= 258, color= 0
	 item 19, weight= 259, color= 1
	 item 20, weight= 260, color= 0
	 item 21, weight= 261, color= 0
	 item 22, weight= 261, color= 1
	 item 23, weight= 262, color= 1
	 item 24, weight= 263, color= 1
	 item 25, weight= 263, color= 1
	 item 26, weight= 265, color= 0
	 item 27, weight= 265, color= 0
	 item 28, weight= 265, color= 1
	 item 29, weight= 266, color= 0
	 item 30, weight= 266, color= 1
	 item 31, weight= 266, color= 1
	 item 32, weight= 267, color= 0
	 item 33, weight= 267, color= 1
	 item 34, weight= 268, color= 0
	 item 35, weight= 268, color= 1
	 item 36, weight= 269, color= 0
	 item 37, weight= 269, color= 1
	 item 38, weight= 270, color= 1
	 item 39, weight= 272, color= 0
	 item 40, weight= 272, color= 1
	 item 41, weight= 273, color= 0
	 item 42, weight= 274, color= 1
	 item 43, weight= 275, color= 0
	 item 44, weight= 276, color= 0
	 item 45, weight= 278, color= 0
	 item 46, weight= 279, color= 0
	 item 47, weight= 279, color= 0
	 item 48, weight= 280, color= 1
	 item 49, weight= 283, color= 1
	 item 50, weight= 285, color= 1
	 item 51, weight= 286, color= 1
	 item 52, weight= 288, color= 0
	 item 53, weight= 289, color= 0
	 item 54, weight= 289, color= 0
	 item 55, weight= 289, color= 1
	 item 56, weight= 296, color= 1
	 item 57, weight= 298, color= 0
	 item 58, weight= 298, color= 0
	 item 59, weight= 298, color= 1
	 item 60, weight= 301, color= 1
	 item 61, weight= 303, color= 0
	 item 62, weight= 306, color= 1
	 item 63, weight= 308, color= 1
	 item 64, weight= 312, color= 1
	 item 65, weight= 314, color= 1
	 item 66, weight= 315, color= 0
	 item 67, weight= 317, color= 0
	 item 68, weight= 321, color= 1
	 item 69, weight= 322, color= 1
	 item 70, weight= 324, color= 1
	 item 71, weight= 325, color= 1
	 item 72, weight= 328, color= 1
	 item 73, weight= 333, color= 1
	 item 74, weight= 334, color= 1
	 item 75, weight= 335, color= 0
	 item 76, weight= 337, color= 0
	 item 77, weight= 350, color= 0
	 item 78, weight= 350, color= 1
	 item 79, weight= 350, color= 1
	 item 80, weight= 357, color= 1
	 item 81, weight= 359, color= 1
	 item 82, weight= 360, color= 0
	 item 83, weight= 368, color= 1
	 item 84, weight= 370, color= 0
	 item 85, weight= 373, color= 0
	 item 86, weight= 382, color= 0
	 item 87, weight= 384, color= 0
	 item 88, weight= 391, color= 1
	 item 89, weight= 396, color= 1
	 item 90, weight= 396, color= 1
	 item 91, weight= 401, color= 0
	 item 92, weight= 403, color= 1
	 item 93, weight= 409, color= 0
	 item 94, weight= 410, color= 1
	 item 95, weight= 414, color= 1
	 item 96, weight= 419, color= 1
	 item 97, weight= 424, color= 0
	 item 98, weight= 426, color= 1
	 item 99, weight= 430, color= 0
	 item 100, weight= 432, color= 1
	 item 101, weight= 434, color= 0
	 item 102, weight= 436, color= 1
	 item 103, weight= 446, color= 1
	 item 104, weight= 447, color= 0
	 item 105, weight= 452, color= 0
	 item 106, weight= 460, color= 0
	 item 107, weight= 462, color= 1
	 item 108, weight= 464, color= 0
	 item 109, weight= 465, color= 0
	 item 110, weight= 469, color= 0
	 item 111, weight= 473, color= 0
	 item 112, weight= 480, color= 1
	 item 113, weight= 481, color= 1
	 item 114, weight= 483, color= 0
	 item 115, weight= 484, color= 0
	 item 116, weight= 484, color= 1
	 item 117, weight= 488, color= 0
	 item 118, weight= 491, color= 0
	 item 119, weight= 497, color= 0
	 item 120, weight= 499, color= 0

VRPSolver warning: Interval set for resource 1 on source node (when source != sink) is ignored (by definition is [0.0,0.0])
[41m solve [00m
~~~~~~~~~~~~~~~~~~~~~~~~~~~~~~~~~~~~~~~~~~~~~~~~~~~~~~~~~~~~~~~~~~~~~~~~~~~~~~
VRPSolver v0.4.1, 24/03/2021. Web: vrpsolver.math.u-bordeaux.fr
Corresponds to the solver by Pessoa, Sadykov, Uchoa and Vanderbeck (2020)
Paper: dx.doi.org/10.1007/s10107-020-01523-z
USE THIS CODE ONLY FOR ACADEMIC PURPOSES AT YOUR OWN RISK
~~~~~~~~~~~~~~~~~~~~~~~~~~~~~~~~~~~~~~~~~~~~~~~~~~~~~~~~~~~~~~~~~~~~~~~~~~~~~~
BaPCod v053, 24/03/2021, © Inria Bordeaux, France
~~~~~~~~~~~~~~~~~~~~~~~~~~~~~~~~~~~~~~~~~~~~~~~~~~~~~~~~~~~~~~~~~~~~~~~~~~~~~~
VRPSolver parameters:
GlobalTimeLimit = 1800
MaxNbOfBBtreeNodeTreated = 100000
treeSearchStrategy = 1
RCSPstopCutGenTimeThresholdInPricing = 10
RCSPhardTimeThresholdInPricing = 20
RCSPnumberOfBucketsPerVertex = 2000
RCSPdynamicBucketSteps = 0
RCSPuseBidirectionalSearch = 1
RCSPapplyReducedCostFixing = 1
RCSPredCostFixingFalseGap = 0
RCSPmaxNumOfColsPerIteration = 100
RCSPmaxNumOfColsPerExactIteration = 100
RCSPheurLabelingStrategy = 4
StabilizationMinPhaseOfStage = 1
RCSPmaxNumOfLabelsInEnumeration = 100000
RCSPmaxNumOfEnumeratedSolutions = 1000000
RCSPmaxNumOfEnumSolutionsForMIP = 100000
RCSPinitNGneighbourhoodSize = 0
RCSPmaxNGneighbourhoodSize = 0
RCSPrankOneCutsMaxNumPerRound = 100
RCSPrankOneCutsMaxNumRows = -1
RCSPrankOneCutsMemoryType = 2
CutTailingOffThreshold = 0.02
CutTailingOffCounterThreshold = 3
SafeDualBoundScaleFactor = -1
StrongBranchingPhaseOneCandidatesNumber = 100
StrongBranchingPhaseOneTreeSizeEstimRatio = 0.3
StrongBranchingPhaseTwoCandidatesNumber = 1
StrongBranchingPhaseTwoTreeSizeEstimRatio = 0.1
MaxTimeForRestrictedMasterIpHeur = -1
DivingHeurUseDepthLimit = 0
MaxLDSbreadth = 3
MaxLDSdepth = 2
New model incumbent solution 1e+06, TIME = 0h0m0s3t = 3
Model is built TIME = 0h0m1s50t = 150
************************************************************************************************
**** BaB tree root node
**** Local DB = -1e+12, global bounds : [ -1e+12 , 1e+06 ], TIME = 0h0m1s50t = 150
**** 1 open nodes, 0 columns (0 active), 0 dyn. constrs. (0 active), 242 art. vars. (242 active)
************************************************************************************************
<DWph=2> <it= 10> <et=1.78> <Mt= 0.00> <Spt= 0.26> <nCl=1000> <DB=-317521252.7388> <Mlp=20820038.4500> <PB=1000000> 
<DWph=2> <it= 20> <et=2.07> <Mt= 0.02> <Spt= 0.28> <nCl=734> <DB=   11.4225> <Mlp=   40.3568> <PB=1000000> 
<DWph=2> <it= 30> <et=2.40> <Mt= 0.02> <Spt= 0.30> <nCl=734> <DB=   40.0000> <Mlp=   40.0000> <PB=1000000> 
<DWph=1> <it= 31> <et=2.45> <Mt= 0.00> <Spt= 0.05> <nCl=  0> <DB=   40.0000> <Mlp=   40.0000> <PB=1000000> 
<DWph=0> <it= 32> <et=2.48> <Mt= 0.01> <Spt= 0.03> <nCl=  0> <DB=   40.0000> <Mlp=   40.0000> <PB=1000000> 
Reduced cost fixing for graph G_1... took 0.19 sec., 59035 buck. arcs remain (48.7% from prev., 18.3% from max.)
Run enumeration... took 0.36 sec. and succeeded! Pricing will be done by inspection.
<DWph=2> <it= 33> <et=3.14> <Mt= 0.03> <Spt= 0.01> <nCl=  0> <DB=   40.0002> <Mlp=   40.0002> <PB=1000000> 
<DWph=1> <it= 34> <et=3.14> <Mt= 0.00> <Spt= 0.00> <nCl=  0> <DB=   40.0002> <Mlp=   40.0002> <PB=1000000> 
<DWph=0> <it= 36> <et=3.15> <Mt= 0.00> <Spt= 0.00> <nCl=100> <DB=   40.0000> <Mlp=   40.0000> <PB=1000000> 
ColGenEvalAlg final dual bound: 40 (rounded: 40)
----------- Diving heuristic started -----------
<DWph=2> <it=  1> <et=3.19> <Mt= 0.00> <Spt= 0.00> <nCl=  0> <DB=   40.0000> <Mlp=   40.0000> <PB=1000000> 
<DWph=1> <it=  2> <et=3.19> <Mt= 0.00> <Spt= 0.00> <nCl=  0> <DB=   40.0000> <Mlp=   40.0000> <PB=1000000> 
<DWph=0> <it=  3> <et=3.19> <Mt= 0.00> <Spt= 0.00> <nCl=  0> <DB=   40.0000> <Mlp=   40.0000> <PB=1000000> 
ColGenEvalAlg final dual bound: 40 (rounded: 40)
---- Diving heuristic node with dive number = 0, fix depth = 1 and tabu list size = 0
Fixed projected solution = [x_1_0_1_OspV=1, x_1_52_1_OspV=1, x_1_57_1_OspV=1, x_1_95_1_OspV=1]
<DWph=2> <it=  1> <et=3.23> <Mt= 0.00> <Spt= 0.00> <nCl=  0> <DB=   40.0000> <Mlp=   40.0000> <PB=1000000> 
<DWph=1> <it=  2> <et=3.23> <Mt= 0.00> <Spt= 0.00> <nCl=  0> <DB=   40.0000> <Mlp=   40.0000> <PB=1000000> 
<DWph=0> <it=  3> <et=3.23> <Mt= 0.01> <Spt= 0.00> <nCl=  0> <DB=   40.0000> <Mlp=   40.0000> <PB=1000000> 
ColGenEvalAlg final dual bound: 40 (rounded: 40)
---- Diving heuristic node with dive number = 0, fix depth = 2 and tabu list size = 0
Fixed projected solution = [x_1_0_1_OspV=1, x_1_8_1_OspV=1, x_1_56_1_OspV=1, x_1_105_1_OspV=1]
<DWph=2> <it=  1> <et=3.27> <Mt= 0.00> <Spt= 0.00> <nCl=  0> <DB=   40.0000> <Mlp=   40.0000> <PB=1000000> 
<DWph=1> <it=  2> <et=3.27> <Mt= 0.00> <Spt= 0.00> <nCl=  0> <DB=   40.0000> <Mlp=   40.0000> <PB=1000000> 
<DWph=0> <it=  3> <et=3.27> <Mt= 0.00> <Spt= 0.00> <nCl=  0> <DB=   40.0000> <Mlp=   40.0000> <PB=1000000> 
ColGenEvalAlg final dual bound: 40 (rounded: 40)
---- Diving heuristic node with dive number = 0, fix depth = 3 and tabu list size = 0
Fixed projected solution = [x_1_0_1_OspV=1, x_1_47_1_OspV=1, x_1_55_1_OspV=1, x_1_100_1_OspV=1]
<DWph=2> <it=  1> <et=3.27> <Mt= 0.00> <Spt= 0.00> <nCl=  0> <DB=   40.0000> <Mlp=   40.0000> <PB=1000000> 
<DWph=1> <it=  2> <et=3.27> <Mt= 0.00> <Spt= 0.00> <nCl=  0> <DB=   40.0000> <Mlp=   40.0000> <PB=1000000> 
<DWph=0> <it=  3> <et=3.27> <Mt= 0.00> <Spt= 0.00> <nCl=  0> <DB=   40.0000> <Mlp=   40.0000> <PB=1000000> 
ColGenEvalAlg final dual bound: 40 (rounded: 40)
---- Diving heuristic node with dive number = 0, fix depth = 3 and tabu list size = 0
Fixed projected solution = [x_1_0_1_OspV=1, x_1_26_1_OspV=1, x_1_41_1_OspV=1, x_1_107_1_OspV=1]
<DWph=2> <it=  1> <et=3.28> <Mt= 0.00> <Spt= 0.00> <nCl=  0> <DB=   40.0000> <Mlp=   40.0000> <PB=1000000> 
<DWph=1> <it=  2> <et=3.28> <Mt= 0.00> <Spt= 0.00> <nCl=  0> <DB=   40.0000> <Mlp=   40.0000> <PB=1000000> 
<DWph=0> <it=  3> <et=3.28> <Mt= 0.00> <Spt= 0.00> <nCl=  0> <DB=   40.0000> <Mlp=   40.0000> <PB=1000000> 
ColGenEvalAlg final dual bound: 40 (rounded: 40)
---- Diving heuristic node with dive number = 0, fix depth = 4 and tabu list size = 0
Fixed projected solution = [x_1_0_1_OspV=1, x_1_3_1_OspV=1, x_1_4_1_OspV=1, x_1_120_1_OspV=1]
<DWph=2> <it=  1> <et=3.28> <Mt= 0.00> <Spt= 0.00> <nCl=  0> <DB=   40.0000> <Mlp=   40.0000> <PB=1000000> 
<DWph=1> <it=  2> <et=3.28> <Mt= 0.00> <Spt= 0.00> <nCl=  0> <DB=   40.0000> <Mlp=   40.0000> <PB=1000000> 
<DWph=0> <it=  3> <et=3.28> <Mt= 0.00> <Spt= 0.00> <nCl=  0> <DB=   40.0000> <Mlp=   40.0000> <PB=1000000> 
ColGenEvalAlg final dual bound: 40 (rounded: 40)
---- Diving heuristic node with dive number = 0, fix depth = 5 and tabu list size = 0
Fixed projected solution = [x_1_0_1_OspV=1, x_1_11_1_OspV=1, x_1_79_1_OspV=1, x_1_89_1_OspV=1]
<DWph=2> <it=  1> <et=3.28> <Mt= 0.00> <Spt= 0.00> <nCl=  0> <DB=   40.0000> <Mlp=   40.0000> <PB=1000000> 
<DWph=1> <it=  2> <et=3.28> <Mt= 0.01> <Spt= 0.00> <nCl=  0> <DB=   40.0000> <Mlp=   40.0000> <PB=1000000> 
<DWph=0> <it=  3> <et=3.29> <Mt= 0.00> <Spt= 0.00> <nCl=  0> <DB=   40.0000> <Mlp=   40.0000> <PB=1000000> 
ColGenEvalAlg final dual bound: 40 (rounded: 40)
---- Diving heuristic node with dive number = 0, fix depth = 6 and tabu list size = 0
Fixed projected solution = [x_1_0_1_OspV=1, x_1_59_1_OspV=1, x_1_60_1_OspV=1, x_1_91_1_OspV=1]
<DWph=2> <it=  1> <et=3.29> <Mt= 0.00> <Spt= 0.00> <nCl=  0> <DB=   40.0000> <Mlp=   40.0000> <PB=1000000> 
<DWph=1> <it=  2> <et=3.29> <Mt= 0.00> <Spt= 0.00> <nCl=  0> <DB=   40.0000> <Mlp=   40.0000> <PB=1000000> 
<DWph=0> <it=  3> <et=3.29> <Mt= 0.00> <Spt= 0.00> <nCl=  0> <DB=   40.0000> <Mlp=   40.0000> <PB=1000000> 
ColGenEvalAlg final dual bound: 40 (rounded: 40)
---- Diving heuristic node with dive number = 0, fix depth = 7 and tabu list size = 0
Fixed projected solution = [x_1_0_1_OspV=1, x_1_54_1_OspV=1, x_1_66_1_OspV=1, x_1_90_1_OspV=1]
<DWph=2> <it=  1> <et=3.29> <Mt= 0.00> <Spt= 0.00> <nCl=  0> <DB=   40.0000> <Mlp=   40.0000> <PB=1000000> 
<DWph=1> <it=  2> <et=3.29> <Mt= 0.00> <Spt= 0.00> <nCl=  0> <DB=   40.0000> <Mlp=   40.0000> <PB=1000000> 
<DWph=0> <it=  3> <et=3.30> <Mt= 0.00> <Spt= 0.00> <nCl=  0> <DB=   40.0000> <Mlp=   40.0000> <PB=1000000> 
ColGenEvalAlg final dual bound: 40 (rounded: 40)
---- Diving heuristic node with dive number = 0, fix depth = 8 and tabu list size = 0
Fixed projected solution = [x_1_0_1_OspV=1, x_1_49_1_OspV=1, x_1_75_1_OspV=1, x_1_86_1_OspV=1]
<DWph=2> <it=  1> <et=3.30> <Mt= 0.00> <Spt= 0.00> <nCl=  0> <DB=   40.0000> <Mlp=   40.0000> <PB=1000000> 
<DWph=1> <it=  2> <et=3.30> <Mt= 0.00> <Spt= 0.00> <nCl=  0> <DB=   40.0000> <Mlp=   40.0000> <PB=1000000> 
<DWph=0> <it=  3> <et=3.30> <Mt= 0.00> <Spt= 0.00> <nCl=  0> <DB=   40.0000> <Mlp=   40.0000> <PB=1000000> 
ColGenEvalAlg final dual bound: 40 (rounded: 40)
---- Diving heuristic node with dive number = 0, fix depth = 9 and tabu list size = 0
Fixed projected solution = [x_1_0_1_OspV=1, x_1_39_1_OspV=1, x_1_76_1_OspV=1, x_1_88_1_OspV=1]
<DWph=2> <it=  1> <et=3.30> <Mt= 0.01> <Spt= 0.00> <nCl=  0> <DB=   40.0000> <Mlp=   40.0000> <PB=1000000> 
<DWph=1> <it=  2> <et=3.30> <Mt= 0.00> <Spt= 0.00> <nCl=  0> <DB=   40.0000> <Mlp=   40.0000> <PB=1000000> 
<DWph=0> <it=  3> <et=3.31> <Mt= 0.00> <Spt= 0.00> <nCl=  0> <DB=   40.0000> <Mlp=   40.0000> <PB=1000000> 
ColGenEvalAlg final dual bound: 40 (rounded: 40)
---- Diving heuristic node with dive number = 0, fix depth = 10 and tabu list size = 0
Fixed projected solution = [x_1_0_1_OspV=1, x_1_32_1_OspV=1, x_1_51_1_OspV=1, x_1_104_1_OspV=1]
<DWph=2> <it=  1> <et=3.31> <Mt= 0.00> <Spt= 0.00> <nCl=  0> <DB=   40.0000> <Mlp=   40.0000> <PB=1000000> 
<DWph=1> <it=  2> <et=3.31> <Mt= 0.00> <Spt= 0.00> <nCl=  0> <DB=   40.0000> <Mlp=   40.0000> <PB=1000000> 
<DWph=0> <it=  3> <et=3.31> <Mt= 0.00> <Spt= 0.00> <nCl=  0> <DB=   40.0000> <Mlp=   40.0000> <PB=1000000> 
ColGenEvalAlg final dual bound: 40 (rounded: 40)
---- Diving heuristic node with dive number = 0, fix depth = 11 and tabu list size = 0
Fixed projected solution = [x_1_0_1_OspV=1, x_1_46_1_OspV=1, x_1_50_1_OspV=1, x_1_102_1_OspV=1]
<DWph=2> <it=  1> <et=3.31> <Mt= 0.00> <Spt= 0.00> <nCl=  0> <DB=   40.0000> <Mlp=   40.0000> <PB=1000000> 
<DWph=1> <it=  2> <et=3.31> <Mt= 0.00> <Spt= 0.00> <nCl=  0> <DB=   40.0000> <Mlp=   40.0000> <PB=1000000> 
<DWph=0> <it=  3> <et=3.31> <Mt= 0.00> <Spt= 0.00> <nCl=  0> <DB=   40.0000> <Mlp=   40.0000> <PB=1000000> 
ColGenEvalAlg final dual bound: 40 (rounded: 40)
---- Diving heuristic node with dive number = 0, fix depth = 12 and tabu list size = 0
Fixed projected solution = [x_1_0_1_OspV=1, x_1_1_1_OspV=1, x_1_29_1_OspV=1, x_1_116_1_OspV=1]
<DWph=2> <it=  1> <et=3.32> <Mt= 0.00> <Spt= 0.00> <nCl=  0> <DB=   40.0000> <Mlp=   40.0000> <PB=1000000> 
<DWph=1> <it=  2> <et=3.32> <Mt= 0.00> <Spt= 0.00> <nCl=  0> <DB=   40.0000> <Mlp=   40.0000> <PB=1000000> 
<DWph=0> <it=  3> <et=3.32> <Mt= 0.00> <Spt= 0.00> <nCl=  0> <DB=   40.0000> <Mlp=   40.0000> <PB=1000000> 
ColGenEvalAlg final dual bound: 40 (rounded: 40)
---- Diving heuristic node with dive number = 0, fix depth = 13 and tabu list size = 0
Fixed projected solution = [x_1_0_1_OspV=1, x_1_5_1_OspV=1, x_1_36_1_OspV=1, x_1_112_1_OspV=1]
<DWph=2> <it=  1> <et=3.32> <Mt= 0.01> <Spt= 0.00> <nCl=  0> <DB=   40.0000> <Mlp=   40.0000> <PB=1000000> 
<DWph=1> <it=  2> <et=3.32> <Mt= 0.00> <Spt= 0.00> <nCl=  0> <DB=   40.0000> <Mlp=   40.0000> <PB=1000000> 
<DWph=0> <it=  3> <et=3.32> <Mt= 0.00> <Spt= 0.00> <nCl=  0> <DB=   40.0000> <Mlp=   40.0000> <PB=1000000> 
ColGenEvalAlg final dual bound: 40 (rounded: 40)
---- Diving heuristic node with dive number = 0, fix depth = 13 and tabu list size = 0
Fixed projected solution = [x_1_0_1_OspV=1, x_1_18_1_OspV=1, x_1_21_1_OspV=1, x_1_113_1_OspV=1]
<DWph=2> <it=  1> <et=3.33> <Mt= 0.00> <Spt= 0.00> <nCl=  0> <DB=   40.0000> <Mlp=   40.0000> <PB=1000000> 
<DWph=1> <it=  2> <et=3.33> <Mt= 0.00> <Spt= 0.00> <nCl=  0> <DB=   40.0000> <Mlp=   40.0000> <PB=1000000> 
<DWph=0> <it=  3> <et=3.33> <Mt= 0.00> <Spt= 0.00> <nCl=  0> <DB=   40.0000> <Mlp=   40.0000> <PB=1000000> 
ColGenEvalAlg final dual bound: 40 (rounded: 40)
---- Diving heuristic node with dive number = 0, fix depth = 14 and tabu list size = 0
Fixed projected solution = [x_1_0_1_OspV=1, x_1_16_1_OspV=1, x_1_81_1_OspV=1, x_1_87_1_OspV=1]
<DWph=2> <it=  1> <et=3.33> <Mt= 0.00> <Spt= 0.00> <nCl=  0> <DB=   40.0000> <Mlp=   40.0000> <PB=1000000> 
<DWph=1> <it=  2> <et=3.33> <Mt= 0.00> <Spt= 0.00> <nCl=  0> <DB=   40.0000> <Mlp=   40.0000> <PB=1000000> 
<DWph=0> <it=  3> <et=3.33> <Mt= 0.00> <Spt= 0.00> <nCl=  0> <DB=   40.0000> <Mlp=   40.0000> <PB=1000000> 
ColGenEvalAlg final dual bound: 40 (rounded: 40)
---- Diving heuristic node with dive number = 0, fix depth = 15 and tabu list size = 0
Fixed projected solution = [x_1_0_1_OspV=1, x_1_12_1_OspV=1, x_1_13_1_OspV=1, x_1_118_1_OspV=1]
<DWph=2> <it=  1> <et=3.34> <Mt= 0.00> <Spt= 0.00> <nCl=  0> <DB=   40.0000> <Mlp=   40.0000> <PB=1000000> 
<DWph=1> <it=  2> <et=3.34> <Mt= 0.00> <Spt= 0.00> <nCl=  0> <DB=   40.0000> <Mlp=   40.0000> <PB=1000000> 
<DWph=0> <it=  3> <et=3.34> <Mt= 0.01> <Spt= 0.00> <nCl=  0> <DB=   40.0000> <Mlp=   40.0000> <PB=1000000> 
ColGenEvalAlg final dual bound: 40 (rounded: 40)
---- Diving heuristic node with dive number = 0, fix depth = 16 and tabu list size = 0
Fixed projected solution = [x_1_0_1_OspV=1, x_1_24_1_OspV=1, x_1_35_1_OspV=1, x_1_110_1_OspV=1]
<DWph=2> <it=  1> <et=3.34> <Mt= 0.00> <Spt= 0.00> <nCl=  0> <DB=   40.0000> <Mlp=   40.0000> <PB=1000000> 
<DWph=1> <it=  2> <et=3.34> <Mt= 0.00> <Spt= 0.00> <nCl=  0> <DB=   40.0000> <Mlp=   40.0000> <PB=1000000> 
<DWph=0> <it=  3> <et=3.34> <Mt= 0.00> <Spt= 0.00> <nCl=  0> <DB=   40.0000> <Mlp=   40.0000> <PB=1000000> 
ColGenEvalAlg final dual bound: 40 (rounded: 40)
---- Diving heuristic node with dive number = 0, fix depth = 17 and tabu list size = 0
Fixed projected solution = [x_1_0_1_OspV=1, x_1_7_1_OspV=1, x_1_28_1_OspV=1, x_1_115_1_OspV=1]
<DWph=2> <it=  1> <et=3.35> <Mt= 0.00> <Spt= 0.00> <nCl=  0> <DB=   40.0000> <Mlp=   40.0000> <PB=1000000> 
<DWph=1> <it=  2> <et=3.35> <Mt= 0.00> <Spt= 0.00> <nCl=  0> <DB=   40.0000> <Mlp=   40.0000> <PB=1000000> 
<DWph=0> <it=  3> <et=3.35> <Mt= 0.00> <Spt= 0.00> <nCl=  0> <DB=   40.0000> <Mlp=   40.0000> <PB=1000000> 
ColGenEvalAlg final dual bound: 40 (rounded: 40)
---- Diving heuristic node with dive number = 0, fix depth = 17 and tabu list size = 0
Fixed projected solution = [x_1_0_1_OspV=1, x_1_22_1_OspV=1, x_1_30_1_OspV=1, x_1_111_1_OspV=1]
<DWph=2> <it=  1> <et=3.35> <Mt= 0.00> <Spt= 0.00> <nCl=  0> <DB=   40.0000> <Mlp=   40.0000> <PB=1000000> 
<DWph=1> <it=  2> <et=3.35> <Mt= 0.00> <Spt= 0.00> <nCl=  0> <DB=   40.0000> <Mlp=   40.0000> <PB=1000000> 
<DWph=0> <it=  3> <et=3.35> <Mt= 0.00> <Spt= 0.00> <nCl=  0> <DB=   40.0000> <Mlp=   40.0000> <PB=1000000> 
ColGenEvalAlg final dual bound: 40 (rounded: 40)
---- Diving heuristic node with dive number = 0, fix depth = 18 and tabu list size = 0
Fixed projected solution = [x_1_0_1_OspV=1, x_1_20_1_OspV=1, x_1_68_1_OspV=1, x_1_96_1_OspV=1]
<DWph=2> <it=  1> <et=3.37> <Mt= 0.01> <Spt= 0.00> <nCl=  0> <DB=   40.0007> <Mlp=   40.0007> <PB=1000000> 
<DWph=1> <it=  2> <et=3.37> <Mt= 0.00> <Spt= 0.00> <nCl=  0> <DB=   40.0007> <Mlp=   40.0007> <PB=1000000> 
<DWph=0> <it=  5> <et=3.38> <Mt= 0.01> <Spt= 0.01> <nCl=200> <DB=   40.0000> <Mlp=   40.0000> <PB=1000000> 
ColGenEvalAlg final dual bound: 40 (rounded: 40)
---- Diving heuristic node with dive number = 0, fix depth = 19 and tabu list size = 0
Fixed projected solution = [x_1_0_1_OspV=1, x_1_64_1_OspV=1, x_1_72_1_OspV=1, x_1_82_1_OspV=1]
<DWph=2> <it=  1> <et=3.39> <Mt= 0.00> <Spt= 0.00> <nCl=  0> <DB=   40.0000> <Mlp=   40.0000> <PB=1000000> 
<DWph=1> <it=  2> <et=3.39> <Mt= 0.00> <Spt= 0.00> <nCl=  0> <DB=   40.0000> <Mlp=   40.0000> <PB=1000000> 
<DWph=0> <it=  3> <et=3.39> <Mt= 0.00> <Spt= 0.00> <nCl=  0> <DB=   40.0000> <Mlp=   40.0000> <PB=1000000> 
ColGenEvalAlg final dual bound: 40 (rounded: 40)
---- Diving heuristic node with dive number = 0, fix depth = 19 and tabu list size = 0
Fixed projected solution = [x_1_0_1_OspV=1, x_1_44_1_OspV=1, x_1_45_1_OspV=1, x_1_103_1_OspV=1]
<DWph=2> <it=  1> <et=3.39> <Mt= 0.00> <Spt= 0.00> <nCl=  0> <DB=   40.0000> <Mlp=   40.0000> <PB=1000000> 
<DWph=1> <it=  2> <et=3.39> <Mt= 0.00> <Spt= 0.00> <nCl=  0> <DB=   40.0000> <Mlp=   40.0000> <PB=1000000> 
<DWph=0> <it=  3> <et=3.39> <Mt= 0.00> <Spt= 0.00> <nCl=  0> <DB=   40.0000> <Mlp=   40.0000> <PB=1000000> 
ColGenEvalAlg final dual bound: 40 (rounded: 40)
---- Diving heuristic node with dive number = 0, fix depth = 19 and tabu list size = 0
Fixed projected solution = [x_1_0_1_OspV=1, x_1_67_1_OspV=1, x_1_73_1_OspV=1, x_1_78_1_OspV=1]
<DWph=2> <it=  1> <et=3.39> <Mt= 0.00> <Spt= 0.00> <nCl=  0> <DB=   40.0000> <Mlp=   40.0000> <PB=1000000> 
<DWph=1> <it=  2> <et=3.39> <Mt= 0.01> <Spt= 0.00> <nCl=  0> <DB=   40.0000> <Mlp=   40.0000> <PB=1000000> 
<DWph=0> <it=  3> <et=3.40> <Mt= 0.00> <Spt= 0.00> <nCl=  0> <DB=   40.0000> <Mlp=   40.0000> <PB=1000000> 
ColGenEvalAlg final dual bound: 40 (rounded: 40)
---- Diving heuristic node with dive number = 0, fix depth = 19 and tabu list size = 0
Fixed projected solution = [x_1_0_1_OspV=1, x_1_48_1_OspV=1, x_1_77_1_OspV=1, x_1_84_1_OspV=1]
<DWph=2> <it=  1> <et=3.40> <Mt= 0.00> <Spt= 0.00> <nCl=  0> <DB=   40.0000> <Mlp=   40.0000> <PB=1000000> 
<DWph=1> <it=  2> <et=3.40> <Mt= 0.00> <Spt= 0.00> <nCl=  0> <DB=   40.0000> <Mlp=   40.0000> <PB=1000000> 
<DWph=0> <it=  3> <et=3.40> <Mt= 0.00> <Spt= 0.00> <nCl=  0> <DB=   40.0000> <Mlp=   40.0000> <PB=1000000> 
ColGenEvalAlg final dual bound: 40 (rounded: 40)
---- Diving heuristic node with dive number = 0, fix depth = 20 and tabu list size = 0
Fixed projected solution = [x_1_0_1_OspV=1, x_1_25_1_OspV=1, x_1_40_1_OspV=1, x_1_109_1_OspV=1]
<DWph=2> <it=  8> <et=3.42> <Mt= 0.01> <Spt= 0.00> <nCl=  0> <DB=1491302.1456> <Mlp=1491302.1456> <PB=1000000> 
<DWph=1> <it=  9> <et=3.42> <Mt= 0.00> <Spt= 0.00> <nCl=  0> <DB=1491302.1456> <Mlp=1491302.1456> <PB=1000000> 
<DWph=0> <it= 10> <et=3.42> <Mt= 0.00> <Spt= 0.01> <nCl=100> <DB=-21586019424.0097> <Mlp=1491302.1456> <PB=1000000> 
<DWph=0> <it= 14> <et=3.44> <Mt= 0.01> <Spt= 0.01> <nCl=134> <DB=   40.0016> <Mlp=   40.0016> <PB=1000000> 
ColGenEvalAlg final dual bound: 40.0016 (rounded: 41)
---- Diving heuristic node with dive number = 0, fix depth = 21 and tabu list size = 0
Fixed projected solution = [x_1_0_1_OspV=1, x_1_2_1_OspV=1, x_1_10_1_OspV=1, x_1_119_1_OspV=1]
<DWph=2> <it=  1> <et=3.45> <Mt= 0.00> <Spt= 0.00> <nCl=  0> <DB=   40.0023> <Mlp=   40.0023> <PB=1000000> 
<DWph=1> <it=  2> <et=3.45> <Mt= 0.00> <Spt= 0.00> <nCl=  0> <DB=   40.0023> <Mlp=   40.0023> <PB=1000000> 
<DWph=0> <it=  4> <et=3.46> <Mt= 0.00> <Spt= 0.01> <nCl=  6> <DB=   40.0023> <Mlp=   40.0023> <PB=1000000> 
ColGenEvalAlg final dual bound: 40.0023 (rounded: 41)
---- Diving heuristic node with dive number = 0, fix depth = 22 and tabu list size = 0
Fixed projected solution = [x_1_0_1_OspV=1, x_1_27_1_OspV=1, x_1_71_1_OspV=1, x_1_94_1_OspV=1]
<DWph=2> <it=  1> <et=3.47> <Mt= 0.00> <Spt= 0.00> <nCl=  0> <DB=   40.0023> <Mlp=   40.0023> <PB=1000000> 
<DWph=1> <it=  2> <et=3.47> <Mt= 0.01> <Spt= 0.00> <nCl=  0> <DB=   40.0023> <Mlp=   40.0023> <PB=1000000> 
<DWph=0> <it=  3> <et=3.47> <Mt= 0.00> <Spt= 0.00> <nCl=  0> <DB=   40.0023> <Mlp=   40.0023> <PB=1000000> 
ColGenEvalAlg final dual bound: 40.0023 (rounded: 41)
---- Diving heuristic node with dive number = 0, fix depth = 23 and tabu list size = 0
Fixed projected solution = [x_1_0_1_OspV=1, x_1_58_1_OspV=1, x_1_74_1_OspV=1, x_1_83_1_OspV=1]
<DWph=2> <it=  1> <et=3.48> <Mt= 0.00> <Spt= 0.00> <nCl=  0> <DB=   40.0033> <Mlp=   40.0033> <PB=1000000> 
<DWph=1> <it=  2> <et=3.48> <Mt= 0.00> <Spt= 0.00> <nCl=  0> <DB=   40.0033> <Mlp=   40.0033> <PB=1000000> 
<DWph=0> <it=  5> <et=3.49> <Mt= 0.00> <Spt= 0.01> <nCl= 47> <DB=   40.0032> <Mlp=   40.0032> <PB=1000000> 
ColGenEvalAlg final dual bound: 40.0032 (rounded: 41)
---- Diving heuristic node with dive number = 0, fix depth = 24 and tabu list size = 0
Fixed projected solution = [x_1_0_1_OspV=1, x_1_34_1_OspV=1, x_1_62_1_OspV=1, x_1_98_1_OspV=1]
<DWph=2> <it=  1> <et=3.50> <Mt= 0.01> <Spt= 0.00> <nCl=  0> <DB=   40.0049> <Mlp=   40.0049> <PB=1000000> 
<DWph=1> <it=  2> <et=3.50> <Mt= 0.00> <Spt= 0.00> <nCl=  0> <DB=   40.0049> <Mlp=   40.0049> <PB=1000000> 
<DWph=0> <it=  5> <et=3.52> <Mt= 0.00> <Spt= 0.02> <nCl= 53> <DB=   40.0035> <Mlp=   40.0035> <PB=1000000> 
ColGenEvalAlg final dual bound: 40.0035 (rounded: 41)
---- Diving heuristic node with dive number = 0, fix depth = 25 and tabu list size = 0
Fixed projected solution = [x_1_0_1_OspV=1, x_1_38_1_OspV=1, x_1_80_1_OspV=1, x_1_85_1_OspV=1]
<DWph=2> <it=  1> <et=3.52> <Mt= 0.00> <Spt= 0.00> <nCl=  0> <DB=3657182.8690> <Mlp=3657182.8690> <PB=1000000> 
<DWph=1> <it=  2> <et=3.52> <Mt= 0.00> <Spt= 0.00> <nCl=  0> <DB=3657182.8690> <Mlp=3657182.8690> <PB=1000000> 
<DWph=0> <it=  5> <et=3.54> <Mt= 0.01> <Spt= 0.01> <nCl=196> <DB=   40.0046> <Mlp=   40.0046> <PB=1000000> 
ColGenEvalAlg final dual bound: 40.0046 (rounded: 41)
---- Diving heuristic node with dive number = 0, fix depth = 26 and tabu list size = 0
Fixed projected solution = [x_1_0_1_OspV=1, x_1_9_1_OspV=1, x_1_70_1_OspV=1, x_1_97_1_OspV=1]
<DWph=2> <it=  1> <et=3.55> <Mt= 0.00> <Spt= 0.00> <nCl=  0> <DB=   40.0060> <Mlp=   40.0060> <PB=1000000> 
<DWph=1> <it=  2> <et=3.55> <Mt= 0.00> <Spt= 0.00> <nCl=  0> <DB=   40.0060> <Mlp=   40.0060> <PB=1000000> 
<DWph=0> <it=  5> <et=3.56> <Mt= 0.01> <Spt= 0.01> <nCl= 21> <DB=   40.0060> <Mlp=   40.0060> <PB=1000000> 
ColGenEvalAlg final dual bound: 40.006 (rounded: 41)
---- Diving heuristic node with dive number = 0, fix depth = 27 and tabu list size = 0
Fixed projected solution = [x_1_0_1_OspV=1, x_1_14_1_OspV=1, x_1_15_1_OspV=1, x_1_117_1_OspV=1]
<DWph=2> <it=  1> <et=3.57> <Mt= 0.00> <Spt= 0.00> <nCl=  0> <DB=   40.0064> <Mlp=   40.0064> <PB=1000000> 
<DWph=1> <it=  2> <et=3.57> <Mt= 0.00> <Spt= 0.00> <nCl=  0> <DB=   40.0064> <Mlp=   40.0064> <PB=1000000> 
<DWph=0> <it=  3> <et=3.58> <Mt= 0.00> <Spt= 0.00> <nCl=  0> <DB=   40.0064> <Mlp=   40.0064> <PB=1000000> 
ColGenEvalAlg final dual bound: 40.0064 (rounded: 41)
---- Diving heuristic node with dive number = 0, fix depth = 28 and tabu list size = 0
Fixed projected solution = [x_1_0_1_OspV=1, x_1_17_1_OspV=1, x_1_19_1_OspV=1, x_1_114_1_OspV=1]
<DWph=2> <it=  1> <et=3.59> <Mt= 0.01> <Spt= 0.00> <nCl=  0> <DB=25600040.0833> <Mlp=25600040.0833> <PB=1000000> 
<DWph=1> <it=  2> <et=3.59> <Mt= 0.00> <Spt= 0.00> <nCl=  0> <DB=25600040.0833> <Mlp=25600040.0833> <PB=1000000> 
<DWph=0> <it=  5> <et=3.61> <Mt= 0.00> <Spt= 0.02> <nCl=179> <DB=   40.0106> <Mlp=   40.0106> <PB=1000000> 
ColGenEvalAlg final dual bound: 40.0106 (rounded: 41)
---- Diving heuristic node with dive number = 0, fix depth = 29 and tabu list size = 0
Fixed projected solution = [x_1_0_1_OspV=1, x_1_33_1_OspV=1, x_1_61_1_OspV=1, x_1_99_1_OspV=1]
<DWph=2> <it=  1> <et=3.62> <Mt= 0.01> <Spt= 0.00> <nCl=  0> <DB=   40.0227> <Mlp=   40.0227> <PB=1000000> 
<DWph=1> <it=  2> <et=3.62> <Mt= 0.00> <Spt= 0.00> <nCl=  0> <DB=   40.0227> <Mlp=   40.0227> <PB=1000000> 
<DWph=0> <it=  4> <et=3.63> <Mt= 0.00> <Spt= 0.01> <nCl= 41> <DB=   40.0192> <Mlp=   40.0192> <PB=1000000> 
ColGenEvalAlg final dual bound: 40.0192 (rounded: 41)
---- Diving heuristic node with dive number = 0, fix depth = 30 and tabu list size = 0
Fixed projected solution = [x_1_0_1_OspV=1, x_1_6_1_OspV=1, x_1_65_1_OspV=1, x_1_101_1_OspV=1]
<DWph=2> <it=  1> <et=3.64> <Mt= 0.01> <Spt= 0.00> <nCl=  0> <DB=29538501.6538> <Mlp=29538501.6538> <PB=1000000> 
<DWph=1> <it=  2> <et=3.64> <Mt= 0.00> <Spt= 0.00> <nCl=  0> <DB=29538501.6538> <Mlp=29538501.6538> <PB=1000000> 
<DWph=0> <it=  7> <et=3.67> <Mt= 0.01> <Spt= 0.02> <nCl=252> <DB=   40.0370> <Mlp=   40.0370> <PB=1000000> 
ColGenEvalAlg final dual bound: 40.037 (rounded: 41)
---- Diving heuristic node with dive number = 0, fix depth = 31 and tabu list size = 0
Fixed projected solution = [x_1_0_1_OspV=1, x_1_53_1_OspV=1, x_1_63_1_OspV=1, x_1_92_1_OspV=1]
<DWph=2> <it=  1> <et=3.68> <Mt= 0.00> <Spt= 0.00> <nCl=  0> <DB=61440040.2000> <Mlp=61440040.2000> <PB=1000000> 
<DWph=1> <it=  2> <et=3.68> <Mt= 0.01> <Spt= 0.00> <nCl=  0> <DB=61440040.2000> <Mlp=61440040.2000> <PB=1000000> 
<DWph=0> <it=  8> <et=3.72> <Mt= 0.01> <Spt= 0.02> <nCl=320> <DB=   40.0667> <Mlp=   40.0667> <PB=1000000> 
ColGenEvalAlg final dual bound: 40.0667 (rounded: 41)
---- Diving heuristic node with dive number = 0, fix depth = 32 and tabu list size = 0
Fixed projected solution = [x_1_0_1_OspV=1, x_1_23_1_OspV=1, x_1_43_1_OspV=1, x_1_106_1_OspV=1]
<DWph=2> <it=  1> <et=3.74> <Mt= 0.01> <Spt= 0.00> <nCl=  0> <DB=153600040.0000> <Mlp=153600040.0000> <PB=1000000> 
<DWph=1> <it=  2> <et=3.74> <Mt= 0.00> <Spt= 0.00> <nCl=  0> <DB=153600040.0000> <Mlp=153600040.0000> <PB=1000000> 
<DWph=0> <it=  6> <et=3.77> <Mt= 0.01> <Spt= 0.02> <nCl=244> <DB=   40.5000> <Mlp=   40.5000> <PB=1000000> 
ColGenEvalAlg final dual bound: 40.5 (rounded: 41)
---- Diving heuristic node with dive number = 0, fix depth = 33 and tabu list size = 0
Fixed projected solution = [x_1_0_1_OspV=1, x_1_31_1_OspV=1, x_1_37_1_OspV=1, x_1_108_1_OspV=1]
<DWph=2> <it=  1> <et=3.78> <Mt= 0.00> <Spt= 0.00> <nCl=  0> <DB=   40.5000> <Mlp=   41.0000> <PB=41> 
---- Diving heuristic node with dive number = 1, fix depth = 2 and tabu list size = 1
Fixed projected solution = [x_1_0_1_OspV=1, x_1_26_1_OspV=1, x_1_41_1_OspV=1, x_1_107_1_OspV=1]
<DWph=2> <it=  1> <et=3.82> <Mt= 0.00> <Spt= 0.00> <nCl=  0> <DB=   40.0000> <Mlp=   40.0000> <PB=41> 
<DWph=1> <it=  2> <et=3.82> <Mt= 0.00> <Spt= 0.00> <nCl=  0> <DB=   40.0000> <Mlp=   40.0000> <PB=41> 
<DWph=0> <it=  3> <et=3.83> <Mt= 0.01> <Spt= 0.00> <nCl=  0> <DB=   40.0000> <Mlp=   40.0000> <PB=41> 
ColGenEvalAlg final dual bound: 40 (rounded: 40)
---- Diving heuristic node with dive number = 1, fix depth = 3 and tabu list size = 1
Fixed projected solution = [x_1_0_1_OspV=1, x_1_12_1_OspV=1, x_1_13_1_OspV=1, x_1_118_1_OspV=1]
<DWph=2> <it=  1> <et=3.83> <Mt= 0.00> <Spt= 0.00> <nCl=  0> <DB=   40.0000> <Mlp=   40.0000> <PB=41> 
<DWph=1> <it=  2> <et=3.83> <Mt= 0.00> <Spt= 0.00> <nCl=  0> <DB=   40.0000> <Mlp=   40.0000> <PB=41> 
<DWph=0> <it=  3> <et=3.83> <Mt= 0.00> <Spt= 0.00> <nCl=  0> <DB=   40.0000> <Mlp=   40.0000> <PB=41> 
ColGenEvalAlg final dual bound: 40 (rounded: 40)
---- Diving heuristic node with dive number = 1, fix depth = 4 and tabu list size = 1
Fixed projected solution = [x_1_0_1_OspV=1, x_1_15_1_OspV=1, x_1_22_1_OspV=1, x_1_114_1_OspV=1]
<DWph=2> <it=  1> <et=3.84> <Mt= 0.00> <Spt= 0.00> <nCl=  0> <DB=   40.0000> <Mlp=   40.0000> <PB=41> 
<DWph=1> <it=  2> <et=3.84> <Mt= 0.00> <Spt= 0.00> <nCl=  0> <DB=   40.0000> <Mlp=   40.0000> <PB=41> 
<DWph=0> <it=  3> <et=3.84> <Mt= 0.00> <Spt= 0.00> <nCl=  0> <DB=   40.0000> <Mlp=   40.0000> <PB=41> 
ColGenEvalAlg final dual bound: 40 (rounded: 40)
---- Diving heuristic node with dive number = 1, fix depth = 4 and tabu list size = 1
Fixed projected solution = [x_1_0_1_OspV=1, x_1_8_1_OspV=1, x_1_56_1_OspV=1, x_1_105_1_OspV=1]
<DWph=2> <it=  1> <et=3.84> <Mt= 0.00> <Spt= 0.00> <nCl=  0> <DB=   40.0000> <Mlp=   40.0000> <PB=41> 
<DWph=1> <it=  2> <et=3.84> <Mt= 0.00> <Spt= 0.00> <nCl=  0> <DB=   40.0000> <Mlp=   40.0000> <PB=41> 
<DWph=0> <it=  3> <et=3.84> <Mt= 0.00> <Spt= 0.00> <nCl=  0> <DB=   40.0000> <Mlp=   40.0000> <PB=41> 
ColGenEvalAlg final dual bound: 40 (rounded: 40)
---- Diving heuristic node with dive number = 1, fix depth = 5 and tabu list size = 1
Fixed projected solution = [x_1_0_1_OspV=1, x_1_39_1_OspV=1, x_1_76_1_OspV=1, x_1_88_1_OspV=1]
<DWph=2> <it=  1> <et=3.84> <Mt= 0.00> <Spt= 0.00> <nCl=  0> <DB=   40.0000> <Mlp=   40.0000> <PB=41> 
<DWph=1> <it=  2> <et=3.85> <Mt= 0.00> <Spt= 0.00> <nCl=  0> <DB=   40.0000> <Mlp=   40.0000> <PB=41> 
<DWph=0> <it=  3> <et=3.85> <Mt= 0.00> <Spt= 0.00> <nCl=  0> <DB=   40.0000> <Mlp=   40.0000> <PB=41> 
ColGenEvalAlg final dual bound: 40 (rounded: 40)
---- Diving heuristic node with dive number = 1, fix depth = 6 and tabu list size = 1
Fixed projected solution = [x_1_0_1_OspV=1, x_1_16_1_OspV=1, x_1_81_1_OspV=1, x_1_87_1_OspV=1]
<DWph=2> <it=  1> <et=3.85> <Mt= 0.01> <Spt= 0.00> <nCl=  0> <DB=   40.0000> <Mlp=   40.0000> <PB=41> 
<DWph=1> <it=  2> <et=3.85> <Mt= 0.00> <Spt= 0.00> <nCl=  0> <DB=   40.0000> <Mlp=   40.0000> <PB=41> 
<DWph=0> <it=  3> <et=3.85> <Mt= 0.00> <Spt= 0.00> <nCl=  0> <DB=   40.0000> <Mlp=   40.0000> <PB=41> 
ColGenEvalAlg final dual bound: 40 (rounded: 40)
---- Diving heuristic node with dive number = 1, fix depth = 7 and tabu list size = 1
Fixed projected solution = [x_1_0_1_OspV=1, x_1_11_1_OspV=1, x_1_79_1_OspV=1, x_1_89_1_OspV=1]
<DWph=2> <it=  1> <et=3.86> <Mt= 0.00> <Spt= 0.00> <nCl=  0> <DB=   40.0000> <Mlp=   40.0000> <PB=41> 
<DWph=1> <it=  2> <et=3.86> <Mt= 0.00> <Spt= 0.00> <nCl=  0> <DB=   40.0000> <Mlp=   40.0000> <PB=41> 
<DWph=0> <it=  3> <et=3.86> <Mt= 0.00> <Spt= 0.00> <nCl=  0> <DB=   40.0000> <Mlp=   40.0000> <PB=41> 
ColGenEvalAlg final dual bound: 40 (rounded: 40)
---- Diving heuristic node with dive number = 1, fix depth = 8 and tabu list size = 1
Fixed projected solution = [x_1_0_1_OspV=1, x_1_47_1_OspV=1, x_1_55_1_OspV=1, x_1_100_1_OspV=1]
<DWph=2> <it=  1> <et=3.86> <Mt= 0.00> <Spt= 0.00> <nCl=  0> <DB=   40.0000> <Mlp=   40.0000> <PB=41> 
<DWph=1> <it=  2> <et=3.86> <Mt= 0.00> <Spt= 0.00> <nCl=  0> <DB=   40.0000> <Mlp=   40.0000> <PB=41> 
<DWph=0> <it=  3> <et=3.86> <Mt= 0.00> <Spt= 0.00> <nCl=  0> <DB=   40.0000> <Mlp=   40.0000> <PB=41> 
ColGenEvalAlg final dual bound: 40 (rounded: 40)
---- Diving heuristic node with dive number = 1, fix depth = 9 and tabu list size = 1
Fixed projected solution = [x_1_0_1_OspV=1, x_1_46_1_OspV=1, x_1_50_1_OspV=1, x_1_102_1_OspV=1]
<DWph=2> <it=  1> <et=3.87> <Mt= 0.00> <Spt= 0.00> <nCl=  0> <DB=   40.0000> <Mlp=   40.0000> <PB=41> 
<DWph=1> <it=  2> <et=3.87> <Mt= 0.00> <Spt= 0.00> <nCl=  0> <DB=   40.0000> <Mlp=   40.0000> <PB=41> 
<DWph=0> <it=  3> <et=3.87> <Mt= 0.01> <Spt= 0.00> <nCl=  0> <DB=   40.0000> <Mlp=   40.0000> <PB=41> 
ColGenEvalAlg final dual bound: 40 (rounded: 40)
---- Diving heuristic node with dive number = 1, fix depth = 10 and tabu list size = 1
Fixed projected solution = [x_1_0_1_OspV=1, x_1_54_1_OspV=1, x_1_66_1_OspV=1, x_1_90_1_OspV=1]
<DWph=2> <it=  1> <et=3.87> <Mt= 0.00> <Spt= 0.00> <nCl=  0> <DB=   40.0000> <Mlp=   40.0000> <PB=41> 
<DWph=1> <it=  2> <et=3.87> <Mt= 0.00> <Spt= 0.00> <nCl=  0> <DB=   40.0000> <Mlp=   40.0000> <PB=41> 
<DWph=0> <it=  3> <et=3.87> <Mt= 0.00> <Spt= 0.00> <nCl=  0> <DB=   40.0000> <Mlp=   40.0000> <PB=41> 
ColGenEvalAlg final dual bound: 40 (rounded: 40)
---- Diving heuristic node with dive number = 1, fix depth = 11 and tabu list size = 1
Fixed projected solution = [x_1_0_1_OspV=1, x_1_32_1_OspV=1, x_1_51_1_OspV=1, x_1_104_1_OspV=1]
<DWph=2> <it=  1> <et=3.88> <Mt= 0.00> <Spt= 0.00> <nCl=  0> <DB=   40.0000> <Mlp=   40.0000> <PB=41> 
<DWph=1> <it=  2> <et=3.88> <Mt= 0.00> <Spt= 0.00> <nCl=  0> <DB=   40.0000> <Mlp=   40.0000> <PB=41> 
<DWph=0> <it=  3> <et=3.88> <Mt= 0.00> <Spt= 0.00> <nCl=  0> <DB=   40.0000> <Mlp=   40.0000> <PB=41> 
ColGenEvalAlg final dual bound: 40 (rounded: 40)
---- Diving heuristic node with dive number = 1, fix depth = 12 and tabu list size = 1
Fixed projected solution = [x_1_0_1_OspV=1, x_1_20_1_OspV=1, x_1_68_1_OspV=1, x_1_96_1_OspV=1]
<DWph=2> <it=  1> <et=3.88> <Mt= 0.00> <Spt= 0.00> <nCl=  0> <DB=   40.0000> <Mlp=   40.0000> <PB=41> 
<DWph=1> <it=  2> <et=3.88> <Mt= 0.00> <Spt= 0.00> <nCl=  0> <DB=   40.0000> <Mlp=   40.0000> <PB=41> 
<DWph=0> <it=  3> <et=3.89> <Mt= 0.00> <Spt= 0.00> <nCl=  0> <DB=   40.0000> <Mlp=   40.0000> <PB=41> 
ColGenEvalAlg final dual bound: 40 (rounded: 40)
---- Diving heuristic node with dive number = 1, fix depth = 12 and tabu list size = 1
Fixed projected solution = [x_1_0_1_OspV=1, x_1_14_1_OspV=1, x_1_65_1_OspV=1, x_1_99_1_OspV=1]
<DWph=2> <it=  1> <et=3.89> <Mt= 0.00> <Spt= 0.00> <nCl=  0> <DB=   40.0000> <Mlp=   40.0000> <PB=41> 
<DWph=1> <it=  2> <et=3.89> <Mt= 0.01> <Spt= 0.00> <nCl=  0> <DB=   40.0000> <Mlp=   40.0000> <PB=41> 
<DWph=0> <it=  3> <et=3.89> <Mt= 0.00> <Spt= 0.00> <nCl=  0> <DB=   40.0000> <Mlp=   40.0000> <PB=41> 
ColGenEvalAlg final dual bound: 40 (rounded: 40)
---- Diving heuristic node with dive number = 1, fix depth = 13 and tabu list size = 1
Fixed projected solution = [x_1_0_1_OspV=1, x_1_33_1_OspV=1, x_1_37_1_OspV=1, x_1_108_1_OspV=1]
<DWph=2> <it=  1> <et=3.90> <Mt= 0.00> <Spt= 0.00> <nCl=  0> <DB=   40.0000> <Mlp=   40.0000> <PB=41> 
<DWph=1> <it=  2> <et=3.90> <Mt= 0.00> <Spt= 0.00> <nCl=  0> <DB=   40.0000> <Mlp=   40.0000> <PB=41> 
<DWph=0> <it=  3> <et=3.90> <Mt= 0.00> <Spt= 0.00> <nCl=  0> <DB=   40.0000> <Mlp=   40.0000> <PB=41> 
ColGenEvalAlg final dual bound: 40 (rounded: 40)
---- Diving heuristic node with dive number = 1, fix depth = 14 and tabu list size = 1
Fixed projected solution = [x_1_0_1_OspV=1, x_1_25_1_OspV=1, x_1_40_1_OspV=1, x_1_109_1_OspV=1]
<DWph=2> <it=  1> <et=3.90> <Mt= 0.00> <Spt= 0.00> <nCl=  0> <DB=   40.0000> <Mlp=   40.0000> <PB=41> 
<DWph=1> <it=  2> <et=3.91> <Mt= 0.01> <Spt= 0.00> <nCl=  0> <DB=   40.0000> <Mlp=   40.0000> <PB=41> 
<DWph=0> <it=  3> <et=3.91> <Mt= 0.00> <Spt= 0.00> <nCl=  0> <DB=   40.0000> <Mlp=   40.0000> <PB=41> 
ColGenEvalAlg final dual bound: 40 (rounded: 40)
---- Diving heuristic node with dive number = 1, fix depth = 15 and tabu list size = 1
Fixed projected solution = [x_1_0_1_OspV=1, x_1_67_1_OspV=1, x_1_73_1_OspV=1, x_1_78_1_OspV=1]
<DWph=2> <it=  1> <et=3.91> <Mt= 0.00> <Spt= 0.00> <nCl=  0> <DB=   40.0000> <Mlp=   40.0000> <PB=41> 
<DWph=1> <it=  2> <et=3.91> <Mt= 0.00> <Spt= 0.00> <nCl=  0> <DB=   40.0000> <Mlp=   40.0000> <PB=41> 
<DWph=0> <it=  3> <et=3.91> <Mt= 0.00> <Spt= 0.00> <nCl=  0> <DB=   40.0000> <Mlp=   40.0000> <PB=41> 
ColGenEvalAlg final dual bound: 40 (rounded: 40)
---- Diving heuristic node with dive number = 1, fix depth = 16 and tabu list size = 1
Fixed projected solution = [x_1_0_1_OspV=1, x_1_48_1_OspV=1, x_1_77_1_OspV=1, x_1_84_1_OspV=1]
<DWph=2> <it=  1> <et=3.92> <Mt= 0.00> <Spt= 0.00> <nCl=  0> <DB=   40.0000> <Mlp=   40.0000> <PB=41> 
<DWph=1> <it=  2> <et=3.92> <Mt= 0.00> <Spt= 0.00> <nCl=  0> <DB=   40.0000> <Mlp=   40.0000> <PB=41> 
<DWph=0> <it=  3> <et=3.92> <Mt= 0.00> <Spt= 0.00> <nCl=  0> <DB=   40.0000> <Mlp=   40.0000> <PB=41> 
ColGenEvalAlg final dual bound: 40 (rounded: 40)
---- Diving heuristic node with dive number = 1, fix depth = 17 and tabu list size = 1
Fixed projected solution = [x_1_0_1_OspV=1, x_1_10_1_OspV=1, x_1_19_1_OspV=1, x_1_117_1_OspV=1]
<DWph=2> <it=  1> <et=3.93> <Mt= 0.01> <Spt= 0.00> <nCl=  0> <DB=   40.0000> <Mlp=   40.0000> <PB=41> 
<DWph=1> <it=  2> <et=3.93> <Mt= 0.00> <Spt= 0.00> <nCl=  0> <DB=   40.0000> <Mlp=   40.0000> <PB=41> 
<DWph=0> <it=  3> <et=3.93> <Mt= 0.00> <Spt= 0.00> <nCl=  0> <DB=   40.0000> <Mlp=   40.0000> <PB=41> 
ColGenEvalAlg final dual bound: 40 (rounded: 40)
---- Diving heuristic node with dive number = 1, fix depth = 18 and tabu list size = 1
Fixed projected solution = [x_1_0_1_OspV=1, x_1_24_1_OspV=1, x_1_35_1_OspV=1, x_1_110_1_OspV=1]
<DWph=2> <it=  1> <et=3.94> <Mt= 0.01> <Spt= 0.00> <nCl=  0> <DB=   40.0000> <Mlp=   40.0000> <PB=41> 
<DWph=1> <it=  2> <et=3.94> <Mt= 0.00> <Spt= 0.00> <nCl=  0> <DB=   40.0000> <Mlp=   40.0000> <PB=41> 
<DWph=0> <it=  3> <et=3.94> <Mt= 0.00> <Spt= 0.00> <nCl=  0> <DB=   40.0000> <Mlp=   40.0000> <PB=41> 
ColGenEvalAlg final dual bound: 40 (rounded: 40)
---- Diving heuristic node with dive number = 1, fix depth = 18 and tabu list size = 1
Fixed projected solution = [x_1_0_1_OspV=1, x_1_31_1_OspV=1, x_1_42_1_OspV=1, x_1_106_1_OspV=1]
<DWph=2> <it=  1> <et=3.94> <Mt= 0.00> <Spt= 0.00> <nCl=  0> <DB=   40.0000> <Mlp=   40.0000> <PB=41> 
<DWph=1> <it=  2> <et=3.94> <Mt= 0.00> <Spt= 0.00> <nCl=  0> <DB=   40.0000> <Mlp=   40.0000> <PB=41> 
<DWph=0> <it=  3> <et=3.94> <Mt= 0.00> <Spt= 0.00> <nCl=  0> <DB=   40.0000> <Mlp=   40.0000> <PB=41> 
ColGenEvalAlg final dual bound: 40 (rounded: 40)
---- Diving heuristic node with dive number = 1, fix depth = 19 and tabu list size = 1
Fixed projected solution = [x_1_0_1_OspV=1, x_1_61_1_OspV=1, x_1_70_1_OspV=1, x_1_85_1_OspV=1]
<DWph=2> <it=  1> <et=3.95> <Mt= 0.01> <Spt= 0.00> <nCl=  0> <DB=   40.0014> <Mlp=   40.0014> <PB=41> 
<DWph=1> <it=  2> <et=3.96> <Mt= 0.00> <Spt= 0.00> <nCl=  0> <DB=   40.0014> <Mlp=   40.0014> <PB=41> 
<DWph=0> <it=  5> <et=3.97> <Mt= 0.00> <Spt= 0.01> <nCl= 90> <DB=   40.0002> <Mlp=   40.0002> <PB=41> 
ColGenEvalAlg final dual bound: 40.0002 (rounded: 41)
---- Diving heuristic node with dive number = 2, fix depth = 2 and tabu list size = 2
Fixed projected solution = [x_1_0_1_OspV=1, x_1_12_1_OspV=1, x_1_13_1_OspV=1, x_1_118_1_OspV=1]
<DWph=2> <it=  1> <et=4.00> <Mt= 0.00> <Spt= 0.00> <nCl=  0> <DB=   40.0000> <Mlp=   40.0000> <PB=41> 
<DWph=1> <it=  2> <et=4.01> <Mt= 0.01> <Spt= 0.00> <nCl=  0> <DB=   40.0000> <Mlp=   40.0000> <PB=41> 
<DWph=0> <it=  3> <et=4.01> <Mt= 0.00> <Spt= 0.00> <nCl=  0> <DB=   40.0000> <Mlp=   40.0000> <PB=41> 
ColGenEvalAlg final dual bound: 40 (rounded: 40)
---- Diving heuristic node with dive number = 2, fix depth = 3 and tabu list size = 2
Fixed projected solution = [x_1_0_1_OspV=1, x_1_15_1_OspV=1, x_1_22_1_OspV=1, x_1_114_1_OspV=1]
<DWph=2> <it=  1> <et=4.01> <Mt= 0.00> <Spt= 0.00> <nCl=  0> <DB=   40.0000> <Mlp=   40.0000> <PB=41> 
<DWph=1> <it=  2> <et=4.01> <Mt= 0.00> <Spt= 0.00> <nCl=  0> <DB=   40.0000> <Mlp=   40.0000> <PB=41> 
<DWph=0> <it=  3> <et=4.01> <Mt= 0.00> <Spt= 0.00> <nCl=  0> <DB=   40.0000> <Mlp=   40.0000> <PB=41> 
ColGenEvalAlg final dual bound: 40 (rounded: 40)
---- Diving heuristic node with dive number = 2, fix depth = 3 and tabu list size = 2
Fixed projected solution = [x_1_0_1_OspV=1, x_1_26_1_OspV=1, x_1_41_1_OspV=1, x_1_107_1_OspV=1]
<DWph=2> <it=  1> <et=4.01> <Mt= 0.00> <Spt= 0.00> <nCl=  0> <DB=   40.0000> <Mlp=   40.0000> <PB=41> 
<DWph=1> <it=  2> <et=4.02> <Mt= 0.00> <Spt= 0.00> <nCl=  0> <DB=   40.0000> <Mlp=   40.0000> <PB=41> 
<DWph=0> <it=  3> <et=4.02> <Mt= 0.00> <Spt= 0.00> <nCl=  0> <DB=   40.0000> <Mlp=   40.0000> <PB=41> 
ColGenEvalAlg final dual bound: 40 (rounded: 40)
---- Diving heuristic node with dive number = 2, fix depth = 4 and tabu list size = 2
Fixed projected solution = [x_1_0_1_OspV=1, x_1_39_1_OspV=1, x_1_76_1_OspV=1, x_1_88_1_OspV=1]
<DWph=2> <it=  1> <et=4.02> <Mt= 0.00> <Spt= 0.00> <nCl=  0> <DB=   40.0000> <Mlp=   40.0000> <PB=41> 
<DWph=1> <it=  2> <et=4.02> <Mt= 0.00> <Spt= 0.00> <nCl=  0> <DB=   40.0000> <Mlp=   40.0000> <PB=41> 
<DWph=0> <it=  3> <et=4.02> <Mt= 0.00> <Spt= 0.00> <nCl=  0> <DB=   40.0000> <Mlp=   40.0000> <PB=41> 
ColGenEvalAlg final dual bound: 40 (rounded: 40)
---- Diving heuristic node with dive number = 2, fix depth = 5 and tabu list size = 2
Fixed projected solution = [x_1_0_1_OspV=1, x_1_16_1_OspV=1, x_1_81_1_OspV=1, x_1_87_1_OspV=1]
<DWph=2> <it=  1> <et=4.03> <Mt= 0.00> <Spt= 0.00> <nCl=  0> <DB=   40.0000> <Mlp=   40.0000> <PB=41> 
<DWph=1> <it=  2> <et=4.03> <Mt= 0.00> <Spt= 0.00> <nCl=  0> <DB=   40.0000> <Mlp=   40.0000> <PB=41> 
<DWph=0> <it=  3> <et=4.03> <Mt= 0.00> <Spt= 0.00> <nCl=  0> <DB=   40.0000> <Mlp=   40.0000> <PB=41> 
ColGenEvalAlg final dual bound: 40 (rounded: 40)
---- Diving heuristic node with dive number = 2, fix depth = 6 and tabu list size = 2
Fixed projected solution = [x_1_0_1_OspV=1, x_1_11_1_OspV=1, x_1_79_1_OspV=1, x_1_89_1_OspV=1]
<DWph=2> <it=  1> <et=4.03> <Mt= 0.01> <Spt= 0.00> <nCl=  0> <DB=   40.0000> <Mlp=   40.0000> <PB=41> 
<DWph=1> <it=  2> <et=4.03> <Mt= 0.00> <Spt= 0.00> <nCl=  0> <DB=   40.0000> <Mlp=   40.0000> <PB=41> 
<DWph=0> <it=  3> <et=4.03> <Mt= 0.00> <Spt= 0.00> <nCl=  0> <DB=   40.0000> <Mlp=   40.0000> <PB=41> 
ColGenEvalAlg final dual bound: 40 (rounded: 40)
---- Diving heuristic node with dive number = 2, fix depth = 7 and tabu list size = 2
Fixed projected solution = [x_1_0_1_OspV=1, x_1_47_1_OspV=1, x_1_55_1_OspV=1, x_1_100_1_OspV=1]
<DWph=2> <it=  1> <et=4.04> <Mt= 0.00> <Spt= 0.00> <nCl=  0> <DB=   40.0000> <Mlp=   40.0000> <PB=41> 
<DWph=1> <it=  2> <et=4.04> <Mt= 0.00> <Spt= 0.00> <nCl=  0> <DB=   40.0000> <Mlp=   40.0000> <PB=41> 
<DWph=0> <it=  3> <et=4.04> <Mt= 0.00> <Spt= 0.00> <nCl=  0> <DB=   40.0000> <Mlp=   40.0000> <PB=41> 
ColGenEvalAlg final dual bound: 40 (rounded: 40)
---- Diving heuristic node with dive number = 2, fix depth = 8 and tabu list size = 2
Fixed projected solution = [x_1_0_1_OspV=1, x_1_54_1_OspV=1, x_1_66_1_OspV=1, x_1_90_1_OspV=1]
<DWph=2> <it=  1> <et=4.04> <Mt= 0.00> <Spt= 0.00> <nCl=  0> <DB=   40.0000> <Mlp=   40.0000> <PB=41> 
<DWph=1> <it=  2> <et=4.04> <Mt= 0.00> <Spt= 0.00> <nCl=  0> <DB=   40.0000> <Mlp=   40.0000> <PB=41> 
<DWph=0> <it=  3> <et=4.04> <Mt= 0.00> <Spt= 0.00> <nCl=  0> <DB=   40.0000> <Mlp=   40.0000> <PB=41> 
ColGenEvalAlg final dual bound: 40 (rounded: 40)
---- Diving heuristic node with dive number = 2, fix depth = 9 and tabu list size = 2
Fixed projected solution = [x_1_0_1_OspV=1, x_1_67_1_OspV=1, x_1_73_1_OspV=1, x_1_78_1_OspV=1]
<DWph=2> <it=  1> <et=4.05> <Mt= 0.00> <Spt= 0.00> <nCl=  0> <DB=   40.0000> <Mlp=   40.0000> <PB=41> 
<DWph=1> <it=  2> <et=4.05> <Mt= 0.00> <Spt= 0.00> <nCl=  0> <DB=   40.0000> <Mlp=   40.0000> <PB=41> 
<DWph=0> <it=  3> <et=4.05> <Mt= 0.00> <Spt= 0.00> <nCl=  0> <DB=   40.0000> <Mlp=   40.0000> <PB=41> 
ColGenEvalAlg final dual bound: 40 (rounded: 40)
---- Diving heuristic node with dive number = 2, fix depth = 10 and tabu list size = 2
Fixed projected solution = [x_1_0_1_OspV=1, x_1_32_1_OspV=1, x_1_51_1_OspV=1, x_1_104_1_OspV=1]
<DWph=2> <it=  1> <et=4.05> <Mt= 0.01> <Spt= 0.00> <nCl=  0> <DB=   40.0000> <Mlp=   40.0000> <PB=41> 
<DWph=1> <it=  2> <et=4.05> <Mt= 0.00> <Spt= 0.00> <nCl=  0> <DB=   40.0000> <Mlp=   40.0000> <PB=41> 
<DWph=0> <it=  3> <et=4.05> <Mt= 0.00> <Spt= 0.00> <nCl=  0> <DB=   40.0000> <Mlp=   40.0000> <PB=41> 
ColGenEvalAlg final dual bound: 40 (rounded: 40)
---- Diving heuristic node with dive number = 2, fix depth = 11 and tabu list size = 2
Fixed projected solution = [x_1_0_1_OspV=1, x_1_64_1_OspV=1, x_1_72_1_OspV=1, x_1_82_1_OspV=1]
<DWph=2> <it=  1> <et=4.06> <Mt= 0.00> <Spt= 0.00> <nCl=  0> <DB=   40.0000> <Mlp=   40.0000> <PB=41> 
<DWph=1> <it=  2> <et=4.06> <Mt= 0.00> <Spt= 0.00> <nCl=  0> <DB=   40.0000> <Mlp=   40.0000> <PB=41> 
<DWph=0> <it=  3> <et=4.06> <Mt= 0.00> <Spt= 0.00> <nCl=  0> <DB=   40.0000> <Mlp=   40.0000> <PB=41> 
ColGenEvalAlg final dual bound: 40 (rounded: 40)
---- Diving heuristic node with dive number = 2, fix depth = 11 and tabu list size = 2
Fixed projected solution = [x_1_0_1_OspV=1, x_1_48_1_OspV=1, x_1_77_1_OspV=1, x_1_84_1_OspV=1]
<DWph=2> <it=  1> <et=4.06> <Mt= 0.00> <Spt= 0.00> <nCl=  0> <DB=   40.0000> <Mlp=   40.0000> <PB=41> 
<DWph=1> <it=  2> <et=4.06> <Mt= 0.00> <Spt= 0.00> <nCl=  0> <DB=   40.0000> <Mlp=   40.0000> <PB=41> 
<DWph=0> <it=  3> <et=4.06> <Mt= 0.00> <Spt= 0.00> <nCl=  0> <DB=   40.0000> <Mlp=   40.0000> <PB=41> 
ColGenEvalAlg final dual bound: 40 (rounded: 40)
---- Diving heuristic node with dive number = 2, fix depth = 12 and tabu list size = 2
Fixed projected solution = [x_1_0_1_OspV=1, x_1_46_1_OspV=1, x_1_50_1_OspV=1, x_1_102_1_OspV=1]
<DWph=2> <it=  1> <et=4.07> <Mt= 0.00> <Spt= 0.00> <nCl=  0> <DB=   40.0000> <Mlp=   40.0000> <PB=41> 
<DWph=1> <it=  2> <et=4.07> <Mt= 0.01> <Spt= 0.00> <nCl=  0> <DB=   40.0000> <Mlp=   40.0000> <PB=41> 
<DWph=0> <it=  3> <et=4.07> <Mt= 0.00> <Spt= 0.00> <nCl=  0> <DB=   40.0000> <Mlp=   40.0000> <PB=41> 
ColGenEvalAlg final dual bound: 40 (rounded: 40)
---- Diving heuristic node with dive number = 2, fix depth = 13 and tabu list size = 2
Fixed projected solution = [x_1_0_1_OspV=1, x_1_3_1_OspV=1, x_1_4_1_OspV=1, x_1_120_1_OspV=1]
<DWph=2> <it=  1> <et=4.08> <Mt= 0.00> <Spt= 0.00> <nCl=  0> <DB=   40.0000> <Mlp=   40.0000> <PB=41> 
<DWph=1> <it=  2> <et=4.08> <Mt= 0.00> <Spt= 0.00> <nCl=  0> <DB=   40.0000> <Mlp=   40.0000> <PB=41> 
<DWph=0> <it=  3> <et=4.08> <Mt= 0.00> <Spt= 0.00> <nCl=  0> <DB=   40.0000> <Mlp=   40.0000> <PB=41> 
ColGenEvalAlg final dual bound: 40 (rounded: 40)
---- Diving heuristic node with dive number = 2, fix depth = 14 and tabu list size = 2
Fixed projected solution = [x_1_0_1_OspV=1, x_1_10_1_OspV=1, x_1_19_1_OspV=1, x_1_117_1_OspV=1]
<DWph=2> <it=  1> <et=4.08> <Mt= 0.00> <Spt= 0.00> <nCl=  0> <DB=   40.0000> <Mlp=   40.0000> <PB=41> 
<DWph=1> <it=  2> <et=4.08> <Mt= 0.00> <Spt= 0.00> <nCl=  0> <DB=   40.0000> <Mlp=   40.0000> <PB=41> 
<DWph=0> <it=  3> <et=4.08> <Mt= 0.00> <Spt= 0.00> <nCl=  0> <DB=   40.0000> <Mlp=   40.0000> <PB=41> 
ColGenEvalAlg final dual bound: 40 (rounded: 40)
---- Diving heuristic node with dive number = 2, fix depth = 15 and tabu list size = 2
Fixed projected solution = [x_1_0_1_OspV=1, x_1_7_1_OspV=1, x_1_28_1_OspV=1, x_1_115_1_OspV=1]
<DWph=2> <it=  1> <et=4.09> <Mt= 0.01> <Spt= 0.00> <nCl=  0> <DB=   40.0000> <Mlp=   40.0000> <PB=41> 
<DWph=1> <it=  2> <et=4.09> <Mt= 0.00> <Spt= 0.00> <nCl=  0> <DB=   40.0000> <Mlp=   40.0000> <PB=41> 
<DWph=0> <it=  3> <et=4.09> <Mt= 0.00> <Spt= 0.00> <nCl=  0> <DB=   40.0000> <Mlp=   40.0000> <PB=41> 
ColGenEvalAlg final dual bound: 40 (rounded: 40)
---- Diving heuristic node with dive number = 2, fix depth = 15 and tabu list size = 2
Fixed projected solution = [x_1_0_1_OspV=1, x_1_6_1_OspV=1, x_1_9_1_OspV=1, x_1_119_1_OspV=1]
<DWph=2> <it=  1> <et=4.09> <Mt= 0.00> <Spt= 0.00> <nCl=  0> <DB=   40.0000> <Mlp=   40.0000> <PB=41> 
<DWph=1> <it=  2> <et=4.09> <Mt= 0.00> <Spt= 0.00> <nCl=  0> <DB=   40.0000> <Mlp=   40.0000> <PB=41> 
<DWph=0> <it=  3> <et=4.10> <Mt= 0.00> <Spt= 0.00> <nCl=  0> <DB=   40.0000> <Mlp=   40.0000> <PB=41> 
ColGenEvalAlg final dual bound: 40 (rounded: 40)
---- Diving heuristic node with dive number = 2, fix depth = 15 and tabu list size = 2
Fixed projected solution = [x_1_0_1_OspV=1, x_1_21_1_OspV=1, x_1_30_1_OspV=1, x_1_111_1_OspV=1]
<DWph=2> <it=  1> <et=4.10> <Mt= 0.00> <Spt= 0.00> <nCl=  0> <DB=   40.0000> <Mlp=   40.0000> <PB=41> 
<DWph=1> <it=  2> <et=4.10> <Mt= 0.00> <Spt= 0.00> <nCl=  0> <DB=   40.0000> <Mlp=   40.0000> <PB=41> 
<DWph=0> <it=  3> <et=4.10> <Mt= 0.00> <Spt= 0.00> <nCl=  0> <DB=   40.0000> <Mlp=   40.0000> <PB=41> 
ColGenEvalAlg final dual bound: 40 (rounded: 40)
---- Diving heuristic node with dive number = 2, fix depth = 16 and tabu list size = 2
Fixed projected solution = [x_1_0_1_OspV=1, x_1_31_1_OspV=1, x_1_42_1_OspV=1, x_1_106_1_OspV=1]
<DWph=2> <it=  1> <et=4.11> <Mt= 0.00> <Spt= 0.00> <nCl=  0> <DB=   40.0000> <Mlp=   40.0000> <PB=41> 
<DWph=1> <it=  2> <et=4.11> <Mt= 0.01> <Spt= 0.00> <nCl=  0> <DB=   40.0000> <Mlp=   40.0000> <PB=41> 
<DWph=0> <it=  3> <et=4.11> <Mt= 0.00> <Spt= 0.00> <nCl=  0> <DB=   40.0000> <Mlp=   40.0000> <PB=41> 
ColGenEvalAlg final dual bound: 40 (rounded: 40)
---- Diving heuristic node with dive number = 2, fix depth = 16 and tabu list size = 2
Fixed projected solution = [x_1_0_1_OspV=1, x_1_25_1_OspV=1, x_1_40_1_OspV=1, x_1_109_1_OspV=1]
<DWph=2> <it=  1> <et=4.11> <Mt= 0.00> <Spt= 0.00> <nCl=  0> <DB=   40.0000> <Mlp=   40.0000> <PB=41> 
<DWph=1> <it=  2> <et=4.11> <Mt= 0.00> <Spt= 0.00> <nCl=  0> <DB=   40.0000> <Mlp=   40.0000> <PB=41> 
<DWph=0> <it=  3> <et=4.11> <Mt= 0.00> <Spt= 0.00> <nCl=  0> <DB=   40.0000> <Mlp=   40.0000> <PB=41> 
ColGenEvalAlg final dual bound: 40 (rounded: 40)
---- Diving heuristic node with dive number = 2, fix depth = 16 and tabu list size = 2
Fixed projected solution = [x_1_0_1_OspV=1, x_1_14_1_OspV=1, x_1_65_1_OspV=1, x_1_99_1_OspV=1]
<DWph=2> <it=  1> <et=4.11> <Mt= 0.00> <Spt= 0.00> <nCl=  0> <DB=   40.0000> <Mlp=   40.0000> <PB=41> 
<DWph=1> <it=  2> <et=4.12> <Mt= 0.00> <Spt= 0.00> <nCl=  0> <DB=   40.0000> <Mlp=   40.0000> <PB=41> 
<DWph=0> <it=  3> <et=4.12> <Mt= 0.00> <Spt= 0.00> <nCl=  0> <DB=   40.0000> <Mlp=   40.0000> <PB=41> 
ColGenEvalAlg final dual bound: 40 (rounded: 40)
---- Diving heuristic node with dive number = 2, fix depth = 17 and tabu list size = 2
Fixed projected solution = [x_1_0_1_OspV=1, x_1_20_1_OspV=1, x_1_68_1_OspV=1, x_1_96_1_OspV=1]
<DWph=2> <it=  1> <et=4.13> <Mt= 0.01> <Spt= 0.00> <nCl=  0> <DB=   40.0045> <Mlp=   40.0045> <PB=41> 
<DWph=1> <it=  2> <et=4.13> <Mt= 0.00> <Spt= 0.00> <nCl=  0> <DB=   40.0045> <Mlp=   40.0045> <PB=41> 
<DWph=0> <it=  5> <et=4.14> <Mt= 0.00> <Spt= 0.01> <nCl=131> <DB=   40.0000> <Mlp=   40.0000> <PB=40> 
ColGenEvalAlg final dual bound: 40 (rounded: 40)
New model incumbent solution 40, TIME = 0h0m4s16t = 416
************************************************************************************************
Search is finished, global bounds : [ 40 , 40 ], TIME = 0h0m4s17t = 417
************************************************************************************************
[32mBaPCod : solution defined.[00m
statistics_cols: instance & :Optimal & cutoff & :bcRecRootDb & :bcTimeRootEval & :bcCountNodeProc & :bcRecBestDb & :bcRecBestInc & :bcTimeMain \\
statistics: Falkenauer_t120_04 & 1 & 1.0e6 & 40.00 & 3.19 & 1 & 40.00 & 40 & 4.17 \\
########################################################
bin_id=1: 250(1) 251(0) 499(0) 
bin_id=2: 251(1) 252(1) 497(0) 
bin_id=3: 254(1) 255(1) 491(0) 
bin_id=4: 253(1) 259(1) 488(0) 
bin_id=5: 251(1) 265(1) 484(0) 
bin_id=6: 256(1) 261(1) 483(0) 
bin_id=7: 250(0) 269(0) 481(1) 
bin_id=8: 263(1) 268(1) 469(0) 
bin_id=9: 263(1) 272(1) 465(0) 
bin_id=10: 267(1) 269(1) 464(0) 
bin_id=11: 265(0) 273(0) 462(1) 
bin_id=12: 266(1) 274(1) 460(0) 
bin_id=13: 276(0) 278(0) 446(1) 
bin_id=14: 288(0) 298(0) 414(1) 
bin_id=15: 289(0) 315(0) 396(1) 
bin_id=16: 312(1) 328(1) 360(0) 
bin_id=17: 270(1) 357(1) 373(0) 
bin_id=18: 317(0) 333(1) 350(1) 
bin_id=19: 260(0) 321(1) 419(1) 
bin_id=20: 250(0) 298(1) 452(0) 
bin_id=21: 275(0) 322(1) 403(1) 
bin_id=22: 254(0) 350(1) 396(1) 
bin_id=23: 257(0) 359(1) 384(0) 
bin_id=24: 258(0) 262(1) 480(1) 
bin_id=25: 298(0) 334(1) 368(1) 
bin_id=26: 266(0) 325(1) 409(0) 
bin_id=27: 267(0) 286(1) 447(0) 
bin_id=28: 289(0) 301(1) 410(1) 
bin_id=29: 279(0) 285(1) 436(1) 
bin_id=30: 268(0) 306(1) 426(1) 
bin_id=31: 272(0) 337(0) 391(1) 
bin_id=32: 256(0) 314(1) 430(0) 
bin_id=33: 279(0) 289(1) 432(1) 
bin_id=34: 283(1) 335(0) 382(0) 
bin_id=35: 261(0) 266(1) 473(0) 
bin_id=36: 280(1) 350(0) 370(0) 
bin_id=37: 251(0) 265(0) 484(1) 
bin_id=38: 258(0) 308(1) 434(0) 
bin_id=39: 252(0) 324(1) 424(0) 
bin_id=40: 296(1) 303(0) 401(0) 
Objective value: 40.0
########################################################
