Application parameters:
  batch  =>  nothing
  instance  =>  "/IN/Falkenauer_t60_05.txt-Q2"
  ub  =>  1.0e6
  cfg  =>  "/CFG/BPP.cfg"
data = Colored Bin Packing dataset.
number of items = 60
number of colors = 2
capacity = 1000
Items : 
	 item 1, weight= 250, color= 1
	 item 2, weight= 252, color= 0
	 item 3, weight= 252, color= 0
	 item 4, weight= 252, color= 0
	 item 5, weight= 252, color= 1
	 item 6, weight= 254, color= 0
	 item 7, weight= 259, color= 1
	 item 8, weight= 261, color= 1
	 item 9, weight= 262, color= 1
	 item 10, weight= 262, color= 1
	 item 11, weight= 264, color= 1
	 item 12, weight= 265, color= 0
	 item 13, weight= 268, color= 0
	 item 14, weight= 269, color= 1
	 item 15, weight= 270, color= 0
	 item 16, weight= 276, color= 0
	 item 17, weight= 276, color= 0
	 item 18, weight= 278, color= 1
	 item 19, weight= 281, color= 0
	 item 20, weight= 281, color= 0
	 item 21, weight= 281, color= 1
	 item 22, weight= 282, color= 0
	 item 23, weight= 282, color= 0
	 item 24, weight= 283, color= 1
	 item 25, weight= 285, color= 1
	 item 26, weight= 286, color= 0
	 item 27, weight= 290, color= 0
	 item 28, weight= 296, color= 1
	 item 29, weight= 301, color= 1
	 item 30, weight= 302, color= 1
	 item 31, weight= 305, color= 1
	 item 32, weight= 327, color= 0
	 item 33, weight= 328, color= 1
	 item 34, weight= 334, color= 0
	 item 35, weight= 335, color= 0
	 item 36, weight= 340, color= 0
	 item 37, weight= 347, color= 0
	 item 38, weight= 352, color= 0
	 item 39, weight= 355, color= 1
	 item 40, weight= 358, color= 0
	 item 41, weight= 360, color= 1
	 item 42, weight= 361, color= 1
	 item 43, weight= 372, color= 0
	 item 44, weight= 372, color= 0
	 item 45, weight= 380, color= 1
	 item 46, weight= 380, color= 1
	 item 47, weight= 388, color= 0
	 item 48, weight= 389, color= 0
	 item 49, weight= 396, color= 1
	 item 50, weight= 416, color= 1
	 item 51, weight= 422, color= 0
	 item 52, weight= 432, color= 0
	 item 53, weight= 433, color= 1
	 item 54, weight= 462, color= 1
	 item 55, weight= 463, color= 1
	 item 56, weight= 469, color= 0
	 item 57, weight= 483, color= 1
	 item 58, weight= 484, color= 1
	 item 59, weight= 489, color= 1
	 item 60, weight= 496, color= 1

VRPSolver warning: Interval set for resource 1 on source node (when source != sink) is ignored (by definition is [0.0,0.0])
[41m solve [00m
~~~~~~~~~~~~~~~~~~~~~~~~~~~~~~~~~~~~~~~~~~~~~~~~~~~~~~~~~~~~~~~~~~~~~~~~~~~~~~
VRPSolver v0.4.1, 24/03/2021. Web: vrpsolver.math.u-bordeaux.fr
Corresponds to the solver by Pessoa, Sadykov, Uchoa and Vanderbeck (2020)
Paper: dx.doi.org/10.1007/s10107-020-01523-z
USE THIS CODE ONLY FOR ACADEMIC PURPOSES AT YOUR OWN RISK
~~~~~~~~~~~~~~~~~~~~~~~~~~~~~~~~~~~~~~~~~~~~~~~~~~~~~~~~~~~~~~~~~~~~~~~~~~~~~~
BaPCod v053, 24/03/2021, © Inria Bordeaux, France
~~~~~~~~~~~~~~~~~~~~~~~~~~~~~~~~~~~~~~~~~~~~~~~~~~~~~~~~~~~~~~~~~~~~~~~~~~~~~~
VRPSolver parameters:
GlobalTimeLimit = 1800
MaxNbOfBBtreeNodeTreated = 100000
treeSearchStrategy = 1
RCSPstopCutGenTimeThresholdInPricing = 10
RCSPhardTimeThresholdInPricing = 20
RCSPnumberOfBucketsPerVertex = 2000
RCSPdynamicBucketSteps = 0
RCSPuseBidirectionalSearch = 1
RCSPapplyReducedCostFixing = 1
RCSPredCostFixingFalseGap = 0
RCSPmaxNumOfColsPerIteration = 100
RCSPmaxNumOfColsPerExactIteration = 100
RCSPheurLabelingStrategy = 4
StabilizationMinPhaseOfStage = 1
RCSPmaxNumOfLabelsInEnumeration = 100000
RCSPmaxNumOfEnumeratedSolutions = 1000000
RCSPmaxNumOfEnumSolutionsForMIP = 100000
RCSPinitNGneighbourhoodSize = 0
RCSPmaxNGneighbourhoodSize = 0
RCSPrankOneCutsMaxNumPerRound = 100
RCSPrankOneCutsMaxNumRows = -1
RCSPrankOneCutsMemoryType = 2
CutTailingOffThreshold = 0.02
CutTailingOffCounterThreshold = 3
SafeDualBoundScaleFactor = -1
StrongBranchingPhaseOneCandidatesNumber = 100
StrongBranchingPhaseOneTreeSizeEstimRatio = 0.3
StrongBranchingPhaseTwoCandidatesNumber = 1
StrongBranchingPhaseTwoTreeSizeEstimRatio = 0.1
MaxTimeForRestrictedMasterIpHeur = -1
DivingHeurUseDepthLimit = 0
MaxLDSbreadth = 3
MaxLDSdepth = 2
New model incumbent solution 1e+06, TIME = 0h0m0s3t = 3
Model is built TIME = 0h0m1s28t = 128
************************************************************************************************
**** BaB tree root node
**** Local DB = -1e+12, global bounds : [ -1e+12 , 1e+06 ], TIME = 0h0m1s29t = 129
**** 1 open nodes, 0 columns (0 active), 0 dyn. constrs. (0 active), 122 art. vars. (122 active)
************************************************************************************************
<DWph=2> <it= 10> <et=1.41> <Mt= 0.00> <Spt= 0.11> <nCl=954> <DB=-42687357.1396> <Mlp=   20.2667> <PB=1000000> 
<DWph=2> <it= 20> <et=1.55> <Mt= 0.01> <Spt= 0.13> <nCl=426> <DB=   19.8932> <Mlp=   20.0000> <PB=20> 
<DWph=2> <it= 21> <et=1.57> <Mt= 0.00> <Spt= 0.02> <nCl=  0> <DB=   20.0000> <Mlp=   20.0000> <PB=20> 
<DWph=1> <it= 22> <et=1.58> <Mt= 0.00> <Spt= 0.01> <nCl=  0> <DB=   20.0000> <Mlp=   20.0000> <PB=20> 
<DWph=0> <it= 23> <et=1.59> <Mt= 0.00> <Spt= 0.01> <nCl=  0> <DB=   20.0000> <Mlp=   20.0000> <PB=20> 
ColGenEvalAlg final dual bound: 20 (rounded: 20)
New model incumbent solution 20, TIME = 0h0m1s60t = 160
************************************************************************************************
Search is finished, global bounds : [ 20 , 20 ], TIME = 0h0m1s60t = 160
************************************************************************************************
[32mBaPCod : solution defined.[00m
statistics_cols: instance & :Optimal & cutoff & :bcRecRootDb & :bcTimeRootEval & :bcCountNodeProc & :bcRecBestDb & :bcRecBestInc & :bcTimeMain \\
statistics: Falkenauer_t60_05 & 1 & 1.0e6 & 20.00 & 1.60 & 1 & 20.00 & 20 & 1.60 \\
########################################################
bin_id=1: 252(0) 265(0) 483(1) 
bin_id=2: 262(1) 269(1) 469(0) 
bin_id=3: 281(0) 286(0) 433(1) 
bin_id=4: 281(1) 347(0) 372(0) 
bin_id=5: 252(0) 259(1) 489(1) 
bin_id=6: 261(1) 276(0) 463(1) 
bin_id=7: 262(1) 276(0) 462(1) 
bin_id=8: 281(0) 358(0) 361(1) 
bin_id=9: 301(1) 327(0) 372(0) 
bin_id=10: 278(1) 290(0) 432(0) 
bin_id=11: 285(1) 335(0) 380(1) 
bin_id=12: 270(0) 334(0) 396(1) 
bin_id=13: 252(0) 264(1) 484(1) 
bin_id=14: 282(0) 296(1) 422(0) 
bin_id=15: 283(1) 328(1) 389(0) 
bin_id=16: 268(0) 352(0) 380(1) 
bin_id=17: 282(0) 302(1) 416(1) 
bin_id=18: 250(1) 254(0) 496(1) 
bin_id=19: 305(1) 340(0) 355(1) 
bin_id=20: 252(1) 360(1) 388(0) 
Objective value: 20.0
########################################################
