Academic license - for non-commercial use only - expires 2025-02-09
Gurobi Optimizer version 9.1.2 build v9.1.2rc0 (linux64)
Thread count: 20 physical cores, 40 logical processors, using up to 1 threads
Optimize a model with 3061 rows, 125529 columns and 370225 nonzeros
Model fingerprint: 0x73b6f935
Variable types: 0 continuous, 125529 integer (0 binary)
Coefficient statistics:
  Matrix range     [1e+00, 1e+00]
  Objective range  [1e+00, 1e+00]
  Bounds range     [1e+02, 1e+02]
  RHS range        [1e+00, 1e+00]

Warning: Completing partial solution with 125361 unfixed non-continuous variables out of 125529
User MIP start produced solution with objective 49 (0.10s)
Loaded user MIP start with objective 49

Presolve removed 1689 rows and 36260 columns
Presolve time: 0.61s
Presolved: 1372 rows, 89269 columns, 186900 nonzeros
Found heuristic solution: objective 48.0000000
Variable types: 0 continuous, 89269 integer (89269 binary)

Root simplex log...

Iteration    Objective       Primal Inf.    Dual Inf.      Time
   15355    3.9835630e+01   2.050844e+04   0.000000e+00      5s
   16221    4.0000000e+01   0.000000e+00   0.000000e+00      5s

Root relaxation: objective 4.000000e+01, 16221 iterations, 4.55 seconds

    Nodes    |    Current Node    |     Objective Bounds      |     Work
 Expl Unexpl |  Obj  Depth IntInf | Incumbent    BestBd   Gap | It/Node Time

*    0     0               0      40.0000000   40.00000  0.00%     -    6s

Explored 0 nodes (35562 simplex iterations) in 6.26 seconds
Thread count was 1 (of 40 available processors)

Solution count 3: 40 48 49 

Optimal solution found (tolerance 1.00e-04)
Best objective 4.000000000000e+01, best bound 4.000000000000e+01, gap 0.0000%
1	125529	3061	0	40	40	6.507
