Academic license - for non-commercial use only - expires 2025-02-09
Gurobi Optimizer version 9.1.2 build v9.1.2rc0 (linux64)
Thread count: 20 physical cores, 40 logical processors, using up to 1 threads
Optimize a model with 11061 rows, 258859 columns and 753435 nonzeros
Model fingerprint: 0x0ba9a54c
Variable types: 0 continuous, 258859 integer (0 binary)
Coefficient statistics:
  Matrix range     [1e+00, 1e+00]
  Objective range  [1e+00, 1e+00]
  Bounds range     [6e+01, 6e+01]
  RHS range        [1e+00, 1e+00]

Warning: Completing partial solution with 258774 unfixed non-continuous variables out of 258859
User MIP start produced solution with objective 25 (0.27s)
Loaded user MIP start with objective 25

Presolve removed 9163 rows and 190235 columns
Presolve time: 3.68s
Presolved: 1898 rows, 68624 columns, 139914 nonzeros
Found heuristic solution: objective 25.0000000
Variable types: 0 continuous, 68624 integer (68624 binary)

Root simplex log...

Iteration    Objective       Primal Inf.    Dual Inf.      Time
    7938    2.0000682e+01   2.181429e+01   0.000000e+00      5s
   10015    2.0000000e+01   0.000000e+00   0.000000e+00      6s

Root relaxation: objective 2.000000e+01, 10015 iterations, 2.23 seconds

    Nodes    |    Current Node    |     Objective Bounds      |     Work
 Expl Unexpl |  Obj  Depth IntInf | Incumbent    BestBd   Gap | It/Node Time

     0     0   20.00000    0   57   25.00000   20.00000  20.0%     -    7s
H    0     0                      21.0000000   20.00000  4.76%     -    7s
     0     0   20.00000    0   69   21.00000   20.00000  4.76%     -    7s
H    0     0                      20.0000000   20.00000  0.00%     -    8s
     0     0   20.00000    0   69   20.00000   20.00000  0.00%     -    8s

Cutting planes:
  Zero half: 10

Explored 1 nodes (30774 simplex iterations) in 8.33 seconds
Thread count was 1 (of 40 available processors)

Solution count 4: 20 21 25 25 

Optimal solution found (tolerance 1.00e-04)
Best objective 2.000000000000e+01, best bound 2.000000000000e+01, gap 0.0000%
1	258859	11061	1	20	20	8.744
