Academic license - for non-commercial use only - expires 2025-02-09
Gurobi Optimizer version 9.1.2 build v9.1.2rc0 (linux64)
Thread count: 20 physical cores, 40 logical processors, using up to 1 threads
Optimize a model with 11821 rows, 586761 columns and 1734601 nonzeros
Model fingerprint: 0xdd20e51a
Variable types: 0 continuous, 586761 integer (0 binary)
Coefficient statistics:
  Matrix range     [1e+00, 1e+00]
  Objective range  [1e+00, 1e+00]
  Bounds range     [1e+02, 1e+02]
  RHS range        [1e+00, 1e+00]

Warning: Completing partial solution with 586593 unfixed non-continuous variables out of 586761
User MIP start produced solution with objective 48 (0.73s)
Loaded user MIP start with objective 48

Presolve removed 7919 rows and 292967 columns (presolve time = 7s) ...
Presolve removed 7919 rows and 292967 columns
Presolve time: 7.99s
Presolved: 3902 rows, 293794 columns, 598214 nonzeros
Found heuristic solution: objective 48.0000000
Variable types: 0 continuous, 293794 integer (293794 binary)

Root simplex log...

Iteration    Objective       Primal Inf.    Dual Inf.      Time
       0   -5.6763000e+04   1.130950e+05   0.000000e+00      9s
    5106    1.0020187e+00   4.230000e+02   0.000000e+00     10s
   22363    4.0002015e+01   9.116116e+01   0.000000e+00     15s
   22718    4.0000000e+01   0.000000e+00   0.000000e+00     16s

Root relaxation: objective 4.000000e+01, 22718 iterations, 6.98 seconds

    Nodes    |    Current Node    |     Objective Bounds      |     Work
 Expl Unexpl |  Obj  Depth IntInf | Incumbent    BestBd   Gap | It/Node Time

*    0     0               0      40.0000000   40.00000  0.00%     -   16s

Explored 0 nodes (25193 simplex iterations) in 16.92 seconds
Thread count was 1 (of 40 available processors)

Solution count 3: 40 48 48 

Optimal solution found (tolerance 1.00e-04)
Best objective 4.000000000000e+01, best bound 4.000000000000e+01, gap 0.0000%
1	586761	11821	0	40	40	17.78
