Academic license - for non-commercial use only - expires 2025-02-09
Gurobi Optimizer version 9.1.2 build v9.1.2rc0 (linux64)
Thread count: 20 physical cores, 40 logical processors, using up to 1 threads
Optimize a model with 3455 rows, 310551 columns and 924245 nonzeros
Model fingerprint: 0x1a6f26a5
Variable types: 0 continuous, 310551 integer (0 binary)
Coefficient statistics:
  Matrix range     [1e+00, 1e+00]
  Objective range  [1e+00, 1e+00]
  Bounds range     [2e+02, 2e+02]
  RHS range        [1e+00, 1e+00]

Warning: Completing partial solution with 310206 unfixed non-continuous variables out of 310551
User MIP start produced solution with objective 100 (0.33s)
Loaded user MIP start with objective 100

Presolve removed 1924 rows and 104309 columns
Presolve time: 1.55s
Presolved: 1531 rows, 206242 columns, 445864 nonzeros
Found heuristic solution: objective 100.0000000
Variable types: 0 continuous, 206242 integer (206242 binary)

Root simplex log...

Iteration    Objective       Primal Inf.    Dual Inf.      Time
    8583    8.2416886e+01   1.569166e+03   0.000000e+00      5s
   17179    8.2417159e+01   7.222683e+03   0.000000e+00     10s
   27203    8.2417837e+01   3.088817e+04   0.000000e+00     15s
   39887    8.2420395e+01   1.050934e+05   0.000000e+00     20s
   43616    8.3000000e+01   0.000000e+00   0.000000e+00     23s

Root relaxation: objective 8.300000e+01, 43616 iterations, 20.45 seconds
Total elapsed time = 27.78s

    Nodes    |    Current Node    |     Objective Bounds      |     Work
 Expl Unexpl |  Obj  Depth IntInf | Incumbent    BestBd   Gap | It/Node Time

H    0     0                      83.0000000 -146891.00      -     -   29s
     0     0          -    0        83.00000   83.00000  0.00%     -   30s

Explored 0 nodes (109997 simplex iterations) in 30.19 seconds
Thread count was 1 (of 40 available processors)

Solution count 3: 83 100 100 

Optimal solution found (tolerance 1.00e-04)
Best objective 8.300000000000e+01, best bound 8.300000000000e+01, gap 0.0000%
1	310551	3455	0	83	83	30.708
