Academic license - for non-commercial use only - expires 2025-02-09
Gurobi Optimizer version 9.1.2 build v9.1.2rc0 (linux64)
Thread count: 20 physical cores, 40 logical processors, using up to 1 threads
Optimize a model with 3450 rows, 309558 columns and 921276 nonzeros
Model fingerprint: 0x310d0eb1
Variable types: 0 continuous, 309558 integer (0 binary)
Coefficient statistics:
  Matrix range     [1e+00, 1e+00]
  Objective range  [1e+00, 1e+00]
  Bounds range     [2e+02, 2e+02]
  RHS range        [1e+00, 1e+00]

Warning: Completing partial solution with 309215 unfixed non-continuous variables out of 309558
User MIP start produced solution with objective 100 (0.33s)
Loaded user MIP start with objective 100

Presolve removed 1912 rows and 104113 columns
Presolve time: 1.54s
Presolved: 1538 rows, 205445 columns, 443312 nonzeros
Found heuristic solution: objective 100.0000000
Variable types: 0 continuous, 205445 integer (205445 binary)

Root simplex log...

Iteration    Objective       Primal Inf.    Dual Inf.      Time
    9566    8.2333569e+01   3.050507e+03   0.000000e+00      5s
   19226    8.2333986e+01   1.137697e+04   0.000000e+00     10s
   30314    8.2335211e+01   2.043147e+04   0.000000e+00     15s
   45406    8.2342870e+01   1.115652e+05   0.000000e+00     20s
   48767    8.3000000e+01   0.000000e+00   0.000000e+00     23s

Root relaxation: objective 8.300000e+01, 48767 iterations, 20.71 seconds

    Nodes    |    Current Node    |     Objective Bounds      |     Work
 Expl Unexpl |  Obj  Depth IntInf | Incumbent    BestBd   Gap | It/Node Time

*    0     0               0      83.0000000   83.00000  0.00%     -   30s

Explored 0 nodes (140283 simplex iterations) in 30.22 seconds
Thread count was 1 (of 40 available processors)

Solution count 3: 83 100 100 

Optimal solution found (tolerance 1.00e-04)
Best objective 8.300000000000e+01, best bound 8.300000000000e+01, gap 0.0000%
1	309558	3450	0	83	83	30.732
