0,0,1,65,66,9,9,9,6448,6448,0,0,40525,1,0,0,40524,213741,99658,65577,99658,49859,67777,11786,44720,0
Seed: 0 - Mask: 0
Sequence Neighboorhood: 1 2 3 4 5
tlGrasp: 1000 - intervalGrasp: 5000 - numPL: 1
maxCol: 60000 - alphaGrasp: 0.3000 - endGrasp: 1.0000
