0,0,1,65,66,9,9,4996,5638,5638,0,47328,47368,1,0,4166,47367,78717,160423,270932,160423,57425,91119,42341,64975,0
Seed: 0 - Mask: 0
Sequence Neighboorhood: 1 2 3 4 5
tlGrasp: 1000 - intervalGrasp: 5000 - numPL: 1
maxCol: 60000 - alphaGrasp: 0.3000 - endGrasp: 1.0000
