0,0,1,65,66,9,9,9,5594,5594,0,0,38776,1,0,0,38775,214907,98657,67926,98657,52975,66734,13545,43553,0
Seed: 0 - Mask: 0
Sequence Neighboorhood: 1 2 3 4 5
tlGrasp: 1000 - intervalGrasp: 5000 - numPL: 1
maxCol: 60000 - alphaGrasp: 0.3000 - endGrasp: 1.0000
