0,0,1,65,66,9,9,9,19258,19258,0,0,136727,1,0,0,136726,674444,352376,294584,352376,155230,228759,55639,159033,0
Seed: 0 - Mask: 0
Sequence Neighboorhood: 1 2 3 4 5
tlGrasp: 1000 - intervalGrasp: 5000 - numPL: 1
maxCol: 60000 - alphaGrasp: 0.3000 - endGrasp: 1.0000
