0,0,2,132,134,10,11,4765,5574,5574,1,17774,18682,1,0,784,18681,33248,67391,190326,67391,26428,37218,24519,25933,0
Seed: 0 - Mask: 0
Sequence Neighboorhood: 1 2 3 4 5
tlGrasp: 1000 - intervalGrasp: 5000 - numPL: 1
maxCol: 60000 - alphaGrasp: 0.3000 - endGrasp: 1.0000
