0,0,1,132,133,11,11,11,19959,19959,0,0,41127,1,0,0,41126,333257,126962,123497,126962,109770,84664,30992,48971,0
Seed: 0 - Mask: 0
Sequence Neighboorhood: 1 2 3 4 5
tlGrasp: 1000 - intervalGrasp: 5000 - numPL: 1
maxCol: 60000 - alphaGrasp: 0.3000 - endGrasp: 1.0000
