0,0,2,132,134,10,11,4880,5666,5666,1,18846,19303,1,0,1167,19302,35298,70998,202380,70998,27988,38682,24430,26969,0
Seed: 0 - Mask: 0
Sequence Neighboorhood: 1 2 3 4 5
tlGrasp: 1000 - intervalGrasp: 5000 - numPL: 1
maxCol: 60000 - alphaGrasp: 0.3000 - endGrasp: 1.0000
