1,1,1,133,133,10,10,10,60010,60010,0,0,107180,0,0,0,107179,1014164,371728,456805,371728,333419,240423,130159,140132,0
Seed: 0 - Mask: 0
Sequence Neighboorhood: 1 2 3 4 5
tlGrasp: 1000 - intervalGrasp: 5000 - numPL: 1
maxCol: 60000 - alphaGrasp: 0.3000 - endGrasp: 1.0000
