1,1,1,199,199,8,8,8,60000,60000,0,0,64410,0,0,0,64409,684164,221977,227924,221977,231009,142013,68829,78607,0
Seed: 0 - Mask: 0
Sequence Neighboorhood: 1 2 3 4 5
tlGrasp: 1000 - intervalGrasp: 5000 - numPL: 1
maxCol: 60000 - alphaGrasp: 0.3000 - endGrasp: 1.0000
