1,1,1,199,199,13,13,13,60000,60000,0,0,56389,0,0,0,56388,592705,205049,233235,205049,217354,126907,59448,69630,0
Seed: 0 - Mask: 0
Sequence Neighboorhood: 1 2 3 4 5
tlGrasp: 1000 - intervalGrasp: 5000 - numPL: 1
maxCol: 60000 - alphaGrasp: 0.3000 - endGrasp: 1.0000
