1,1,2,199,200,12,13,58553,60000,60000,1,124209,128406,0,0,476,128405,194775,491411,1577913,491411,206263,265576,218161,183222,0
Seed: 0 - Mask: 0
Sequence Neighboorhood: 1 2 3 4 5
tlGrasp: 1000 - intervalGrasp: 5000 - numPL: 1
maxCol: 60000 - alphaGrasp: 0.3000 - endGrasp: 1.0000
