1,1,1,199,199,12,12,12,60000,60000,0,0,52698,0,0,0,52697,578844,193017,210007,193017,221490,122539,65438,66594,0
Seed: 0 - Mask: 0
Sequence Neighboorhood: 1 2 3 4 5
tlGrasp: 1000 - intervalGrasp: 5000 - numPL: 1
maxCol: 60000 - alphaGrasp: 0.3000 - endGrasp: 1.0000
