0,0,1,40,41,8,88,88,88,88,1205,1205,1205,1,0,1,1204,1564,2411,2535,2411,117,1301,10,1214,0
Seed: 0 - Mask: 0
Sequence Neighboorhood: 1 2 3 4 5
tlGrasp: 1000 - intervalGrasp: 5000 - numPL: 1
maxCol: 60000 - alphaGrasp: 0.3000 - endGrasp: 1.0000
