3,3,6,3337,3340,830,13992,46527,60011,60011,233,1059,1141,0,0,380,1140,2350,2823,33005,2823,200,1405,248,1381,0
Seed: 0 - Mask: 0
Sequence Neighboorhood: 1 2 3 4 5
tlGrasp: 1000 - intervalGrasp: 5000 - numPL: 1
maxCol: 60000 - alphaGrasp: 0.3000 - endGrasp: 1.0000
