1,1,89,3335,3423,510,2954,16959,60000,60000,184,2327,5624,0,0,978,5623,4040,17049,111715,17049,4131,9112,4169,7878,0
Seed: 0 - Mask: 0
Sequence Neighboorhood: 1 2 3 4 5
tlGrasp: 1000 - intervalGrasp: 5000 - numPL: 1
maxCol: 60000 - alphaGrasp: 0.3000 - endGrasp: 1.0000
