Application parameters:
  batch  =>  nothing
  instance  =>  "/IN/N2001W1000001R1080Q20-003"
  ub  =>  1.0e6
  cfg  =>  "/CFG/BPP.cfg"
data = Colored Bin Packing dataset.
number of items = 2001
number of colors = 20
capacity = 1000001
Items : 
	 item 1, weight= 100757, color= 14
	 item 2, weight= 101204, color= 19
	 item 3, weight= 101721, color= 15
	 item 4, weight= 101887, color= 10
	 item 5, weight= 102593, color= 6
	 item 6, weight= 102963, color= 9
	 item 7, weight= 102968, color= 3
	 item 8, weight= 103774, color= 5
	 item 9, weight= 104547, color= 16
	 item 10, weight= 104841, color= 15
	 item 11, weight= 105647, color= 0
	 item 12, weight= 106001, color= 17
	 item 13, weight= 106601, color= 9
	 item 14, weight= 106945, color= 11
	 item 15, weight= 107115, color= 17
	 item 16, weight= 107180, color= 5
	 item 17, weight= 108026, color= 4
	 item 18, weight= 108591, color= 17
	 item 19, weight= 109302, color= 17
	 item 20, weight= 109707, color= 7
	 item 21, weight= 109741, color= 8
	 item 22, weight= 110074, color= 1
	 item 23, weight= 110282, color= 1
	 item 24, weight= 110819, color= 3
	 item 25, weight= 112014, color= 12
	 item 26, weight= 112108, color= 0
	 item 27, weight= 112509, color= 6
	 item 28, weight= 112852, color= 1
	 item 29, weight= 113344, color= 13
	 item 30, weight= 113456, color= 9
	 item 31, weight= 113957, color= 11
	 item 32, weight= 114195, color= 3
	 item 33, weight= 115040, color= 16
	 item 34, weight= 115456, color= 16
	 item 35, weight= 115581, color= 16
	 item 36, weight= 115742, color= 8
	 item 37, weight= 116073, color= 2
	 item 38, weight= 116195, color= 17
	 item 39, weight= 116691, color= 11
	 item 40, weight= 117155, color= 13
	 item 41, weight= 117155, color= 16
	 item 42, weight= 117268, color= 18
	 item 43, weight= 118064, color= 9
	 item 44, weight= 118099, color= 1
	 item 45, weight= 118671, color= 14
	 item 46, weight= 119457, color= 3
	 item 47, weight= 120217, color= 19
	 item 48, weight= 120349, color= 7
	 item 49, weight= 120413, color= 13
	 item 50, weight= 120427, color= 16
	 item 51, weight= 120959, color= 16
	 item 52, weight= 120971, color= 6
	 item 53, weight= 121321, color= 0
	 item 54, weight= 121847, color= 4
	 item 55, weight= 122346, color= 17
	 item 56, weight= 122507, color= 2
	 item 57, weight= 122519, color= 0
	 item 58, weight= 122582, color= 12
	 item 59, weight= 122703, color= 3
	 item 60, weight= 122929, color= 16
	 item 61, weight= 123593, color= 3
	 item 62, weight= 123596, color= 6
	 item 63, weight= 125295, color= 7
	 item 64, weight= 125368, color= 18
	 item 65, weight= 125825, color= 12
	 item 66, weight= 125974, color= 14
	 item 67, weight= 126228, color= 1
	 item 68, weight= 126813, color= 3
	 item 69, weight= 127148, color= 18
	 item 70, weight= 127608, color= 5
	 item 71, weight= 127671, color= 14
	 item 72, weight= 127773, color= 1
	 item 73, weight= 127967, color= 3
	 item 74, weight= 128160, color= 1
	 item 75, weight= 128852, color= 17
	 item 76, weight= 129646, color= 12
	 item 77, weight= 130342, color= 18
	 item 78, weight= 130384, color= 13
	 item 79, weight= 130539, color= 1
	 item 80, weight= 130833, color= 5
	 item 81, weight= 130987, color= 15
	 item 82, weight= 131185, color= 8
	 item 83, weight= 131390, color= 10
	 item 84, weight= 131494, color= 4
	 item 85, weight= 131913, color= 14
	 item 86, weight= 132137, color= 17
	 item 87, weight= 132961, color= 5
	 item 88, weight= 133812, color= 6
	 item 89, weight= 134127, color= 13
	 item 90, weight= 134942, color= 7
	 item 91, weight= 135122, color= 6
	 item 92, weight= 136224, color= 6
	 item 93, weight= 136669, color= 6
	 item 94, weight= 136733, color= 9
	 item 95, weight= 136842, color= 14
	 item 96, weight= 137100, color= 12
	 item 97, weight= 137750, color= 7
	 item 98, weight= 137851, color= 10
	 item 99, weight= 137881, color= 19
	 item 100, weight= 138429, color= 6
	 item 101, weight= 139320, color= 6
	 item 102, weight= 139567, color= 9
	 item 103, weight= 139897, color= 4
	 item 104, weight= 139909, color= 15
	 item 105, weight= 140022, color= 18
	 item 106, weight= 140271, color= 12
	 item 107, weight= 140621, color= 18
	 item 108, weight= 141335, color= 8
	 item 109, weight= 141730, color= 14
	 item 110, weight= 141986, color= 10
	 item 111, weight= 142620, color= 15
	 item 112, weight= 142750, color= 1
	 item 113, weight= 142823, color= 17
	 item 114, weight= 142869, color= 17
	 item 115, weight= 143605, color= 15
	 item 116, weight= 143642, color= 18
	 item 117, weight= 144030, color= 3
	 item 118, weight= 144048, color= 4
	 item 119, weight= 144185, color= 4
	 item 120, weight= 144289, color= 18
	 item 121, weight= 144536, color= 9
	 item 122, weight= 144538, color= 1
	 item 123, weight= 145106, color= 19
	 item 124, weight= 145505, color= 3
	 item 125, weight= 145751, color= 14
	 item 126, weight= 145864, color= 17
	 item 127, weight= 145973, color= 14
	 item 128, weight= 145974, color= 17
	 item 129, weight= 146243, color= 19
	 item 130, weight= 146734, color= 6
	 item 131, weight= 147360, color= 19
	 item 132, weight= 147763, color= 1
	 item 133, weight= 148150, color= 17
	 item 134, weight= 148229, color= 10
	 item 135, weight= 148549, color= 9
	 item 136, weight= 148650, color= 17
	 item 137, weight= 148710, color= 0
	 item 138, weight= 148915, color= 11
	 item 139, weight= 149352, color= 19
	 item 140, weight= 149609, color= 10
	 item 141, weight= 149971, color= 1
	 item 142, weight= 150193, color= 0
	 item 143, weight= 151667, color= 10
	 item 144, weight= 151807, color= 5
	 item 145, weight= 152024, color= 16
	 item 146, weight= 152237, color= 11
	 item 147, weight= 152450, color= 6
	 item 148, weight= 152531, color= 8
	 item 149, weight= 153261, color= 12
	 item 150, weight= 153438, color= 6
	 item 151, weight= 153567, color= 10
	 item 152, weight= 154192, color= 19
	 item 153, weight= 154702, color= 3
	 item 154, weight= 154933, color= 1
	 item 155, weight= 154955, color= 13
	 item 156, weight= 155022, color= 16
	 item 157, weight= 155063, color= 10
	 item 158, weight= 155429, color= 1
	 item 159, weight= 155605, color= 15
	 item 160, weight= 155633, color= 1
	 item 161, weight= 156198, color= 15
	 item 162, weight= 156352, color= 13
	 item 163, weight= 156593, color= 16
	 item 164, weight= 156747, color= 13
	 item 165, weight= 157185, color= 12
	 item 166, weight= 157797, color= 15
	 item 167, weight= 158029, color= 10
	 item 168, weight= 159196, color= 6
	 item 169, weight= 159287, color= 12
	 item 170, weight= 159293, color= 8
	 item 171, weight= 159294, color= 6
	 item 172, weight= 159346, color= 2
	 item 173, weight= 159596, color= 13
	 item 174, weight= 160574, color= 9
	 item 175, weight= 161076, color= 2
	 item 176, weight= 161533, color= 12
	 item 177, weight= 162506, color= 4
	 item 178, weight= 162595, color= 1
	 item 179, weight= 163376, color= 2
	 item 180, weight= 163776, color= 8
	 item 181, weight= 165097, color= 9
	 item 182, weight= 165139, color= 1
	 item 183, weight= 165774, color= 2
	 item 184, weight= 165882, color= 9
	 item 185, weight= 166080, color= 3
	 item 186, weight= 166194, color= 8
	 item 187, weight= 166570, color= 6
	 item 188, weight= 167207, color= 2
	 item 189, weight= 167213, color= 5
	 item 190, weight= 167418, color= 6
	 item 191, weight= 167952, color= 6
	 item 192, weight= 168404, color= 17
	 item 193, weight= 168526, color= 3
	 item 194, weight= 169138, color= 8
	 item 195, weight= 169456, color= 0
	 item 196, weight= 169512, color= 19
	 item 197, weight= 169583, color= 16
	 item 198, weight= 170206, color= 12
	 item 199, weight= 170451, color= 1
	 item 200, weight= 170720, color= 16
	 item 201, weight= 170813, color= 10
	 item 202, weight= 170886, color= 0
	 item 203, weight= 171125, color= 3
	 item 204, weight= 171832, color= 14
	 item 205, weight= 172004, color= 7
	 item 206, weight= 172526, color= 17
	 item 207, weight= 172641, color= 12
	 item 208, weight= 172740, color= 15
	 item 209, weight= 172979, color= 3
	 item 210, weight= 173480, color= 1
	 item 211, weight= 174171, color= 10
	 item 212, weight= 174593, color= 13
	 item 213, weight= 174977, color= 10
	 item 214, weight= 175000, color= 1
	 item 215, weight= 175387, color= 19
	 item 216, weight= 175812, color= 4
	 item 217, weight= 175960, color= 15
	 item 218, weight= 176015, color= 6
	 item 219, weight= 176158, color= 3
	 item 220, weight= 176309, color= 12
	 item 221, weight= 176404, color= 15
	 item 222, weight= 176599, color= 1
	 item 223, weight= 176705, color= 18
	 item 224, weight= 176844, color= 18
	 item 225, weight= 176932, color= 17
	 item 226, weight= 176967, color= 1
	 item 227, weight= 177006, color= 2
	 item 228, weight= 177474, color= 5
	 item 229, weight= 177568, color= 17
	 item 230, weight= 178255, color= 7
	 item 231, weight= 178263, color= 17
	 item 232, weight= 178505, color= 10
	 item 233, weight= 178704, color= 9
	 item 234, weight= 178829, color= 7
	 item 235, weight= 178885, color= 3
	 item 236, weight= 178981, color= 5
	 item 237, weight= 179097, color= 7
	 item 238, weight= 179497, color= 16
	 item 239, weight= 179666, color= 2
	 item 240, weight= 179742, color= 6
	 item 241, weight= 180086, color= 2
	 item 242, weight= 181225, color= 3
	 item 243, weight= 181292, color= 14
	 item 244, weight= 181398, color= 3
	 item 245, weight= 181564, color= 1
	 item 246, weight= 181631, color= 8
	 item 247, weight= 181778, color= 13
	 item 248, weight= 181960, color= 14
	 item 249, weight= 182102, color= 18
	 item 250, weight= 182706, color= 4
	 item 251, weight= 182790, color= 8
	 item 252, weight= 184073, color= 17
	 item 253, weight= 184278, color= 12
	 item 254, weight= 185182, color= 8
	 item 255, weight= 185302, color= 0
	 item 256, weight= 185450, color= 10
	 item 257, weight= 185535, color= 0
	 item 258, weight= 185641, color= 3
	 item 259, weight= 185771, color= 11
	 item 260, weight= 186157, color= 0
	 item 261, weight= 186180, color= 3
	 item 262, weight= 186520, color= 1
	 item 263, weight= 186837, color= 3
	 item 264, weight= 186936, color= 3
	 item 265, weight= 188042, color= 0
	 item 266, weight= 188719, color= 16
	 item 267, weight= 188907, color= 2
	 item 268, weight= 188992, color= 14
	 item 269, weight= 189233, color= 2
	 item 270, weight= 189237, color= 15
	 item 271, weight= 189313, color= 14
	 item 272, weight= 189841, color= 10
	 item 273, weight= 189877, color= 8
	 item 274, weight= 190539, color= 2
	 item 275, weight= 190552, color= 9
	 item 276, weight= 190626, color= 2
	 item 277, weight= 190842, color= 4
	 item 278, weight= 191461, color= 14
	 item 279, weight= 192395, color= 4
	 item 280, weight= 192595, color= 6
	 item 281, weight= 192693, color= 10
	 item 282, weight= 193452, color= 16
	 item 283, weight= 193531, color= 11
	 item 284, weight= 194084, color= 16
	 item 285, weight= 195006, color= 16
	 item 286, weight= 195093, color= 17
	 item 287, weight= 196408, color= 18
	 item 288, weight= 196425, color= 10
	 item 289, weight= 196718, color= 15
	 item 290, weight= 196888, color= 14
	 item 291, weight= 197101, color= 5
	 item 292, weight= 197509, color= 10
	 item 293, weight= 197634, color= 17
	 item 294, weight= 198203, color= 16
	 item 295, weight= 198436, color= 19
	 item 296, weight= 198955, color= 13
	 item 297, weight= 199492, color= 7
	 item 298, weight= 200037, color= 0
	 item 299, weight= 200299, color= 14
	 item 300, weight= 201476, color= 18
	 item 301, weight= 201627, color= 1
	 item 302, weight= 201726, color= 17
	 item 303, weight= 202133, color= 15
	 item 304, weight= 202367, color= 18
	 item 305, weight= 202682, color= 5
	 item 306, weight= 202784, color= 7
	 item 307, weight= 202846, color= 5
	 item 308, weight= 203213, color= 2
	 item 309, weight= 203321, color= 9
	 item 310, weight= 203482, color= 15
	 item 311, weight= 203512, color= 2
	 item 312, weight= 203567, color= 2
	 item 313, weight= 204053, color= 8
	 item 314, weight= 204126, color= 15
	 item 315, weight= 204183, color= 13
	 item 316, weight= 204346, color= 13
	 item 317, weight= 204483, color= 7
	 item 318, weight= 205013, color= 11
	 item 319, weight= 205660, color= 13
	 item 320, weight= 206154, color= 5
	 item 321, weight= 206233, color= 9
	 item 322, weight= 207116, color= 19
	 item 323, weight= 207183, color= 12
	 item 324, weight= 207228, color= 0
	 item 325, weight= 207886, color= 16
	 item 326, weight= 208073, color= 1
	 item 327, weight= 208394, color= 16
	 item 328, weight= 208744, color= 5
	 item 329, weight= 209327, color= 10
	 item 330, weight= 209400, color= 5
	 item 331, weight= 209578, color= 19
	 item 332, weight= 210491, color= 7
	 item 333, weight= 210880, color= 9
	 item 334, weight= 211246, color= 6
	 item 335, weight= 212542, color= 15
	 item 336, weight= 212849, color= 12
	 item 337, weight= 212988, color= 4
	 item 338, weight= 213347, color= 8
	 item 339, weight= 213680, color= 5
	 item 340, weight= 213929, color= 17
	 item 341, weight= 213962, color= 13
	 item 342, weight= 214737, color= 11
	 item 343, weight= 214935, color= 19
	 item 344, weight= 214999, color= 18
	 item 345, weight= 215398, color= 3
	 item 346, weight= 215434, color= 10
	 item 347, weight= 215512, color= 4
	 item 348, weight= 215734, color= 5
	 item 349, weight= 215833, color= 16
	 item 350, weight= 215946, color= 2
	 item 351, weight= 216221, color= 13
	 item 352, weight= 216835, color= 1
	 item 353, weight= 217641, color= 11
	 item 354, weight= 217694, color= 2
	 item 355, weight= 217772, color= 5
	 item 356, weight= 218707, color= 18
	 item 357, weight= 218887, color= 17
	 item 358, weight= 219896, color= 4
	 item 359, weight= 220918, color= 18
	 item 360, weight= 222730, color= 17
	 item 361, weight= 223757, color= 13
	 item 362, weight= 223940, color= 6
	 item 363, weight= 224620, color= 9
	 item 364, weight= 224912, color= 12
	 item 365, weight= 225056, color= 13
	 item 366, weight= 225298, color= 4
	 item 367, weight= 225324, color= 16
	 item 368, weight= 225508, color= 13
	 item 369, weight= 225666, color= 2
	 item 370, weight= 226080, color= 7
	 item 371, weight= 226086, color= 17
	 item 372, weight= 227178, color= 5
	 item 373, weight= 227880, color= 5
	 item 374, weight= 228566, color= 16
	 item 375, weight= 228572, color= 3
	 item 376, weight= 228673, color= 10
	 item 377, weight= 229123, color= 9
	 item 378, weight= 229353, color= 17
	 item 379, weight= 230089, color= 17
	 item 380, weight= 230674, color= 12
	 item 381, weight= 231102, color= 11
	 item 382, weight= 231177, color= 5
	 item 383, weight= 231275, color= 18
	 item 384, weight= 231884, color= 7
	 item 385, weight= 232607, color= 1
	 item 386, weight= 232883, color= 12
	 item 387, weight= 233109, color= 4
	 item 388, weight= 234469, color= 11
	 item 389, weight= 234584, color= 5
	 item 390, weight= 235430, color= 14
	 item 391, weight= 235527, color= 19
	 item 392, weight= 235973, color= 9
	 item 393, weight= 236042, color= 4
	 item 394, weight= 236100, color= 5
	 item 395, weight= 236102, color= 19
	 item 396, weight= 236469, color= 15
	 item 397, weight= 236509, color= 1
	 item 398, weight= 236731, color= 16
	 item 399, weight= 236829, color= 13
	 item 400, weight= 236949, color= 18
	 item 401, weight= 237148, color= 18
	 item 402, weight= 237607, color= 13
	 item 403, weight= 237876, color= 14
	 item 404, weight= 238325, color= 19
	 item 405, weight= 238783, color= 7
	 item 406, weight= 239296, color= 13
	 item 407, weight= 239516, color= 9
	 item 408, weight= 239651, color= 9
	 item 409, weight= 240699, color= 1
	 item 410, weight= 240788, color= 13
	 item 411, weight= 241265, color= 16
	 item 412, weight= 241339, color= 0
	 item 413, weight= 241362, color= 12
	 item 414, weight= 241402, color= 0
	 item 415, weight= 242059, color= 2
	 item 416, weight= 242413, color= 19
	 item 417, weight= 242544, color= 9
	 item 418, weight= 242978, color= 4
	 item 419, weight= 242987, color= 15
	 item 420, weight= 243736, color= 11
	 item 421, weight= 245687, color= 18
	 item 422, weight= 246140, color= 4
	 item 423, weight= 246453, color= 10
	 item 424, weight= 247216, color= 2
	 item 425, weight= 247724, color= 5
	 item 426, weight= 248466, color= 5
	 item 427, weight= 248502, color= 12
	 item 428, weight= 249078, color= 18
	 item 429, weight= 249695, color= 16
	 item 430, weight= 250226, color= 18
	 item 431, weight= 251033, color= 10
	 item 432, weight= 251205, color= 15
	 item 433, weight= 251383, color= 16
	 item 434, weight= 251748, color= 0
	 item 435, weight= 251814, color= 3
	 item 436, weight= 252029, color= 14
	 item 437, weight= 252159, color= 2
	 item 438, weight= 252177, color= 19
	 item 439, weight= 252332, color= 8
	 item 440, weight= 252974, color= 12
	 item 441, weight= 253003, color= 11
	 item 442, weight= 253120, color= 2
	 item 443, weight= 253139, color= 0
	 item 444, weight= 253273, color= 0
	 item 445, weight= 253845, color= 0
	 item 446, weight= 253917, color= 6
	 item 447, weight= 254333, color= 0
	 item 448, weight= 254578, color= 19
	 item 449, weight= 254592, color= 9
	 item 450, weight= 256035, color= 8
	 item 451, weight= 256923, color= 7
	 item 452, weight= 257854, color= 11
	 item 453, weight= 258240, color= 15
	 item 454, weight= 258263, color= 19
	 item 455, weight= 258648, color= 19
	 item 456, weight= 259897, color= 1
	 item 457, weight= 260006, color= 12
	 item 458, weight= 260032, color= 10
	 item 459, weight= 260261, color= 15
	 item 460, weight= 260359, color= 0
	 item 461, weight= 260937, color= 19
	 item 462, weight= 261263, color= 5
	 item 463, weight= 261914, color= 7
	 item 464, weight= 261966, color= 11
	 item 465, weight= 262111, color= 9
	 item 466, weight= 262121, color= 6
	 item 467, weight= 262169, color= 13
	 item 468, weight= 262331, color= 19
	 item 469, weight= 263092, color= 15
	 item 470, weight= 263107, color= 13
	 item 471, weight= 263244, color= 1
	 item 472, weight= 263327, color= 12
	 item 473, weight= 263450, color= 11
	 item 474, weight= 263655, color= 8
	 item 475, weight= 264343, color= 12
	 item 476, weight= 264402, color= 1
	 item 477, weight= 264572, color= 14
	 item 478, weight= 264633, color= 8
	 item 479, weight= 265167, color= 10
	 item 480, weight= 265872, color= 14
	 item 481, weight= 265979, color= 10
	 item 482, weight= 266586, color= 15
	 item 483, weight= 267175, color= 8
	 item 484, weight= 268450, color= 14
	 item 485, weight= 268509, color= 2
	 item 486, weight= 269059, color= 13
	 item 487, weight= 269356, color= 10
	 item 488, weight= 269417, color= 18
	 item 489, weight= 269961, color= 3
	 item 490, weight= 270767, color= 15
	 item 491, weight= 270808, color= 18
	 item 492, weight= 271124, color= 8
	 item 493, weight= 271188, color= 9
	 item 494, weight= 272648, color= 12
	 item 495, weight= 273390, color= 10
	 item 496, weight= 273757, color= 6
	 item 497, weight= 274383, color= 13
	 item 498, weight= 274384, color= 1
	 item 499, weight= 274714, color= 8
	 item 500, weight= 275184, color= 6
	 item 501, weight= 275570, color= 11
	 item 502, weight= 275850, color= 14
	 item 503, weight= 276089, color= 9
	 item 504, weight= 276531, color= 16
	 item 505, weight= 277043, color= 10
	 item 506, weight= 277327, color= 8
	 item 507, weight= 277374, color= 16
	 item 508, weight= 277627, color= 4
	 item 509, weight= 277967, color= 19
	 item 510, weight= 278416, color= 8
	 item 511, weight= 278661, color= 17
	 item 512, weight= 278938, color= 7
	 item 513, weight= 279839, color= 12
	 item 514, weight= 280072, color= 4
	 item 515, weight= 280111, color= 7
	 item 516, weight= 280577, color= 14
	 item 517, weight= 280613, color= 5
	 item 518, weight= 280643, color= 4
	 item 519, weight= 280749, color= 10
	 item 520, weight= 281048, color= 14
	 item 521, weight= 281673, color= 8
	 item 522, weight= 282472, color= 4
	 item 523, weight= 282662, color= 2
	 item 524, weight= 283398, color= 8
	 item 525, weight= 284983, color= 17
	 item 526, weight= 285780, color= 19
	 item 527, weight= 286008, color= 19
	 item 528, weight= 286262, color= 16
	 item 529, weight= 286277, color= 3
	 item 530, weight= 286380, color= 3
	 item 531, weight= 286567, color= 4
	 item 532, weight= 287879, color= 6
	 item 533, weight= 288256, color= 6
	 item 534, weight= 288522, color= 4
	 item 535, weight= 288855, color= 7
	 item 536, weight= 288987, color= 18
	 item 537, weight= 290389, color= 4
	 item 538, weight= 290560, color= 4
	 item 539, weight= 291203, color= 9
	 item 540, weight= 291374, color= 14
	 item 541, weight= 291698, color= 7
	 item 542, weight= 292197, color= 0
	 item 543, weight= 292356, color= 18
	 item 544, weight= 292704, color= 11
	 item 545, weight= 293365, color= 10
	 item 546, weight= 293983, color= 0
	 item 547, weight= 294342, color= 9
	 item 548, weight= 294446, color= 19
	 item 549, weight= 294544, color= 16
	 item 550, weight= 294751, color= 15
	 item 551, weight= 294858, color= 1
	 item 552, weight= 294882, color= 0
	 item 553, weight= 295376, color= 4
	 item 554, weight= 295582, color= 14
	 item 555, weight= 295754, color= 12
	 item 556, weight= 295990, color= 3
	 item 557, weight= 296667, color= 8
	 item 558, weight= 296876, color= 17
	 item 559, weight= 297359, color= 4
	 item 560, weight= 297527, color= 11
	 item 561, weight= 298016, color= 17
	 item 562, weight= 298029, color= 15
	 item 563, weight= 298142, color= 9
	 item 564, weight= 298847, color= 19
	 item 565, weight= 299502, color= 14
	 item 566, weight= 299618, color= 6
	 item 567, weight= 299946, color= 11
	 item 568, weight= 300003, color= 4
	 item 569, weight= 300051, color= 4
	 item 570, weight= 300345, color= 3
	 item 571, weight= 300436, color= 2
	 item 572, weight= 300509, color= 18
	 item 573, weight= 301275, color= 4
	 item 574, weight= 302268, color= 18
	 item 575, weight= 303353, color= 17
	 item 576, weight= 303453, color= 0
	 item 577, weight= 303488, color= 14
	 item 578, weight= 303582, color= 11
	 item 579, weight= 303848, color= 17
	 item 580, weight= 303889, color= 0
	 item 581, weight= 304073, color= 8
	 item 582, weight= 304235, color= 11
	 item 583, weight= 304572, color= 14
	 item 584, weight= 304985, color= 8
	 item 585, weight= 305007, color= 0
	 item 586, weight= 305076, color= 6
	 item 587, weight= 305399, color= 6
	 item 588, weight= 305906, color= 5
	 item 589, weight= 305969, color= 1
	 item 590, weight= 306081, color= 3
	 item 591, weight= 306182, color= 6
	 item 592, weight= 306200, color= 0
	 item 593, weight= 306535, color= 16
	 item 594, weight= 307120, color= 15
	 item 595, weight= 307785, color= 12
	 item 596, weight= 307984, color= 7
	 item 597, weight= 308908, color= 15
	 item 598, weight= 309373, color= 12
	 item 599, weight= 309968, color= 14
	 item 600, weight= 310422, color= 10
	 item 601, weight= 310489, color= 4
	 item 602, weight= 310553, color= 6
	 item 603, weight= 310605, color= 10
	 item 604, weight= 310895, color= 8
	 item 605, weight= 311090, color= 2
	 item 606, weight= 311104, color= 15
	 item 607, weight= 311197, color= 13
	 item 608, weight= 311529, color= 15
	 item 609, weight= 311781, color= 14
	 item 610, weight= 311897, color= 17
	 item 611, weight= 312328, color= 14
	 item 612, weight= 313021, color= 13
	 item 613, weight= 313702, color= 17
	 item 614, weight= 313828, color= 2
	 item 615, weight= 313926, color= 8
	 item 616, weight= 314264, color= 13
	 item 617, weight= 314333, color= 2
	 item 618, weight= 314899, color= 15
	 item 619, weight= 315168, color= 5
	 item 620, weight= 315568, color= 17
	 item 621, weight= 315601, color= 19
	 item 622, weight= 316087, color= 18
	 item 623, weight= 316165, color= 19
	 item 624, weight= 316171, color= 9
	 item 625, weight= 316905, color= 0
	 item 626, weight= 316962, color= 2
	 item 627, weight= 317068, color= 7
	 item 628, weight= 317084, color= 3
	 item 629, weight= 317738, color= 18
	 item 630, weight= 319112, color= 1
	 item 631, weight= 319585, color= 5
	 item 632, weight= 319808, color= 8
	 item 633, weight= 320127, color= 4
	 item 634, weight= 320173, color= 4
	 item 635, weight= 320403, color= 2
	 item 636, weight= 320477, color= 2
	 item 637, weight= 320637, color= 17
	 item 638, weight= 320757, color= 9
	 item 639, weight= 320959, color= 5
	 item 640, weight= 320982, color= 13
	 item 641, weight= 321156, color= 10
	 item 642, weight= 322757, color= 5
	 item 643, weight= 322891, color= 11
	 item 644, weight= 323032, color= 12
	 item 645, weight= 323037, color= 7
	 item 646, weight= 323058, color= 4
	 item 647, weight= 323102, color= 0
	 item 648, weight= 323170, color= 4
	 item 649, weight= 323737, color= 12
	 item 650, weight= 323804, color= 19
	 item 651, weight= 324103, color= 15
	 item 652, weight= 324526, color= 0
	 item 653, weight= 324573, color= 19
	 item 654, weight= 324691, color= 17
	 item 655, weight= 324702, color= 17
	 item 656, weight= 325216, color= 5
	 item 657, weight= 325455, color= 11
	 item 658, weight= 325598, color= 4
	 item 659, weight= 326148, color= 9
	 item 660, weight= 326707, color= 19
	 item 661, weight= 326838, color= 5
	 item 662, weight= 327658, color= 15
	 item 663, weight= 327832, color= 7
	 item 664, weight= 328452, color= 1
	 item 665, weight= 328465, color= 17
	 item 666, weight= 329775, color= 19
	 item 667, weight= 329799, color= 5
	 item 668, weight= 329835, color= 16
	 item 669, weight= 329988, color= 3
	 item 670, weight= 330212, color= 2
	 item 671, weight= 330370, color= 15
	 item 672, weight= 330632, color= 15
	 item 673, weight= 330648, color= 6
	 item 674, weight= 330661, color= 18
	 item 675, weight= 330844, color= 12
	 item 676, weight= 331807, color= 13
	 item 677, weight= 332179, color= 9
	 item 678, weight= 333066, color= 2
	 item 679, weight= 333099, color= 13
	 item 680, weight= 333154, color= 10
	 item 681, weight= 333398, color= 1
	 item 682, weight= 333961, color= 2
	 item 683, weight= 334926, color= 0
	 item 684, weight= 335277, color= 11
	 item 685, weight= 335643, color= 7
	 item 686, weight= 335900, color= 18
	 item 687, weight= 336158, color= 13
	 item 688, weight= 336188, color= 9
	 item 689, weight= 336716, color= 2
	 item 690, weight= 337159, color= 10
	 item 691, weight= 337858, color= 17
	 item 692, weight= 338101, color= 2
	 item 693, weight= 338286, color= 2
	 item 694, weight= 338292, color= 7
	 item 695, weight= 338823, color= 10
	 item 696, weight= 339075, color= 12
	 item 697, weight= 339116, color= 3
	 item 698, weight= 339386, color= 1
	 item 699, weight= 339499, color= 5
	 item 700, weight= 340213, color= 5
	 item 701, weight= 340365, color= 9
	 item 702, weight= 341171, color= 6
	 item 703, weight= 341225, color= 12
	 item 704, weight= 341373, color= 11
	 item 705, weight= 342057, color= 9
	 item 706, weight= 342118, color= 6
	 item 707, weight= 342767, color= 1
	 item 708, weight= 342771, color= 15
	 item 709, weight= 343170, color= 11
	 item 710, weight= 343178, color= 18
	 item 711, weight= 343235, color= 6
	 item 712, weight= 343350, color= 1
	 item 713, weight= 344198, color= 11
	 item 714, weight= 344229, color= 12
	 item 715, weight= 344237, color= 7
	 item 716, weight= 344501, color= 14
	 item 717, weight= 344554, color= 19
	 item 718, weight= 344596, color= 2
	 item 719, weight= 344777, color= 11
	 item 720, weight= 344825, color= 8
	 item 721, weight= 345904, color= 6
	 item 722, weight= 346521, color= 8
	 item 723, weight= 346531, color= 2
	 item 724, weight= 347028, color= 18
	 item 725, weight= 347393, color= 17
	 item 726, weight= 347763, color= 16
	 item 727, weight= 348287, color= 8
	 item 728, weight= 348939, color= 17
	 item 729, weight= 349121, color= 15
	 item 730, weight= 349159, color= 18
	 item 731, weight= 349720, color= 1
	 item 732, weight= 349803, color= 17
	 item 733, weight= 349932, color= 14
	 item 734, weight= 350170, color= 14
	 item 735, weight= 351249, color= 3
	 item 736, weight= 351634, color= 12
	 item 737, weight= 352103, color= 7
	 item 738, weight= 352973, color= 17
	 item 739, weight= 353061, color= 3
	 item 740, weight= 353119, color= 16
	 item 741, weight= 353273, color= 16
	 item 742, weight= 353617, color= 3
	 item 743, weight= 353670, color= 9
	 item 744, weight= 354557, color= 5
	 item 745, weight= 354985, color= 5
	 item 746, weight= 355306, color= 19
	 item 747, weight= 355468, color= 11
	 item 748, weight= 355906, color= 5
	 item 749, weight= 356072, color= 4
	 item 750, weight= 358035, color= 5
	 item 751, weight= 358082, color= 1
	 item 752, weight= 358103, color= 2
	 item 753, weight= 358518, color= 4
	 item 754, weight= 358925, color= 15
	 item 755, weight= 358996, color= 18
	 item 756, weight= 359075, color= 9
	 item 757, weight= 359169, color= 3
	 item 758, weight= 359411, color= 5
	 item 759, weight= 360001, color= 12
	 item 760, weight= 361348, color= 0
	 item 761, weight= 362281, color= 7
	 item 762, weight= 362398, color= 13
	 item 763, weight= 362831, color= 18
	 item 764, weight= 363581, color= 14
	 item 765, weight= 363733, color= 13
	 item 766, weight= 364026, color= 6
	 item 767, weight= 364074, color= 6
	 item 768, weight= 364282, color= 8
	 item 769, weight= 364814, color= 15
	 item 770, weight= 365030, color= 5
	 item 771, weight= 365042, color= 19
	 item 772, weight= 365197, color= 16
	 item 773, weight= 365458, color= 6
	 item 774, weight= 365473, color= 16
	 item 775, weight= 365724, color= 18
	 item 776, weight= 365778, color= 10
	 item 777, weight= 365879, color= 12
	 item 778, weight= 366349, color= 3
	 item 779, weight= 366585, color= 15
	 item 780, weight= 367264, color= 12
	 item 781, weight= 368267, color= 19
	 item 782, weight= 368365, color= 9
	 item 783, weight= 368505, color= 17
	 item 784, weight= 368774, color= 9
	 item 785, weight= 368964, color= 15
	 item 786, weight= 369503, color= 18
	 item 787, weight= 369526, color= 1
	 item 788, weight= 370829, color= 5
	 item 789, weight= 370859, color= 0
	 item 790, weight= 371189, color= 10
	 item 791, weight= 371395, color= 13
	 item 792, weight= 371516, color= 16
	 item 793, weight= 371587, color= 12
	 item 794, weight= 371617, color= 8
	 item 795, weight= 371744, color= 8
	 item 796, weight= 372042, color= 15
	 item 797, weight= 372545, color= 4
	 item 798, weight= 372586, color= 5
	 item 799, weight= 372854, color= 9
	 item 800, weight= 373464, color= 4
	 item 801, weight= 374551, color= 18
	 item 802, weight= 374689, color= 4
	 item 803, weight= 374728, color= 7
	 item 804, weight= 375220, color= 15
	 item 805, weight= 375295, color= 12
	 item 806, weight= 375461, color= 9
	 item 807, weight= 375465, color= 6
	 item 808, weight= 376866, color= 8
	 item 809, weight= 377065, color= 3
	 item 810, weight= 377964, color= 0
	 item 811, weight= 378494, color= 19
	 item 812, weight= 378815, color= 7
	 item 813, weight= 379274, color= 18
	 item 814, weight= 379549, color= 5
	 item 815, weight= 379575, color= 16
	 item 816, weight= 379696, color= 8
	 item 817, weight= 380293, color= 17
	 item 818, weight= 380348, color= 2
	 item 819, weight= 380435, color= 13
	 item 820, weight= 381597, color= 19
	 item 821, weight= 381713, color= 8
	 item 822, weight= 381911, color= 8
	 item 823, weight= 382029, color= 10
	 item 824, weight= 382175, color= 3
	 item 825, weight= 382599, color= 18
	 item 826, weight= 382777, color= 5
	 item 827, weight= 383266, color= 2
	 item 828, weight= 383656, color= 12
	 item 829, weight= 383739, color= 3
	 item 830, weight= 383896, color= 10
	 item 831, weight= 384888, color= 7
	 item 832, weight= 384918, color= 18
	 item 833, weight= 385064, color= 9
	 item 834, weight= 385318, color= 19
	 item 835, weight= 385390, color= 9
	 item 836, weight= 385807, color= 19
	 item 837, weight= 386315, color= 16
	 item 838, weight= 387144, color= 15
	 item 839, weight= 387499, color= 2
	 item 840, weight= 387528, color= 3
	 item 841, weight= 387570, color= 7
	 item 842, weight= 387880, color= 8
	 item 843, weight= 387941, color= 19
	 item 844, weight= 388571, color= 8
	 item 845, weight= 388611, color= 15
	 item 846, weight= 388707, color= 10
	 item 847, weight= 388756, color= 19
	 item 848, weight= 389010, color= 15
	 item 849, weight= 389244, color= 4
	 item 850, weight= 389430, color= 6
	 item 851, weight= 389691, color= 15
	 item 852, weight= 389804, color= 9
	 item 853, weight= 390234, color= 13
	 item 854, weight= 390513, color= 5
	 item 855, weight= 391991, color= 5
	 item 856, weight= 392834, color= 15
	 item 857, weight= 392971, color= 7
	 item 858, weight= 393136, color= 18
	 item 859, weight= 393411, color= 11
	 item 860, weight= 394274, color= 2
	 item 861, weight= 394548, color= 10
	 item 862, weight= 394557, color= 19
	 item 863, weight= 394641, color= 2
	 item 864, weight= 394863, color= 7
	 item 865, weight= 395053, color= 16
	 item 866, weight= 395166, color= 7
	 item 867, weight= 395225, color= 10
	 item 868, weight= 395524, color= 13
	 item 869, weight= 395805, color= 14
	 item 870, weight= 395816, color= 18
	 item 871, weight= 396995, color= 12
	 item 872, weight= 397209, color= 4
	 item 873, weight= 397414, color= 10
	 item 874, weight= 397967, color= 5
	 item 875, weight= 401113, color= 13
	 item 876, weight= 401311, color= 14
	 item 877, weight= 401465, color= 11
	 item 878, weight= 401794, color= 8
	 item 879, weight= 401954, color= 13
	 item 880, weight= 402159, color= 9
	 item 881, weight= 402206, color= 15
	 item 882, weight= 402551, color= 19
	 item 883, weight= 402942, color= 10
	 item 884, weight= 403681, color= 15
	 item 885, weight= 403691, color= 19
	 item 886, weight= 403867, color= 12
	 item 887, weight= 403984, color= 17
	 item 888, weight= 404184, color= 14
	 item 889, weight= 404660, color= 15
	 item 890, weight= 404755, color= 16
	 item 891, weight= 404906, color= 17
	 item 892, weight= 405282, color= 10
	 item 893, weight= 405364, color= 6
	 item 894, weight= 405778, color= 14
	 item 895, weight= 405976, color= 1
	 item 896, weight= 406205, color= 12
	 item 897, weight= 406310, color= 0
	 item 898, weight= 406350, color= 2
	 item 899, weight= 406502, color= 16
	 item 900, weight= 407014, color= 16
	 item 901, weight= 407042, color= 10
	 item 902, weight= 407808, color= 15
	 item 903, weight= 407863, color= 18
	 item 904, weight= 408111, color= 0
	 item 905, weight= 408274, color= 18
	 item 906, weight= 409469, color= 5
	 item 907, weight= 409674, color= 1
	 item 908, weight= 409708, color= 18
	 item 909, weight= 410337, color= 17
	 item 910, weight= 410487, color= 10
	 item 911, weight= 410546, color= 6
	 item 912, weight= 410716, color= 9
	 item 913, weight= 411069, color= 12
	 item 914, weight= 411884, color= 15
	 item 915, weight= 411922, color= 6
	 item 916, weight= 412013, color= 4
	 item 917, weight= 412488, color= 2
	 item 918, weight= 412774, color= 3
	 item 919, weight= 412817, color= 0
	 item 920, weight= 412935, color= 15
	 item 921, weight= 413336, color= 9
	 item 922, weight= 413819, color= 4
	 item 923, weight= 413886, color= 16
	 item 924, weight= 414125, color= 15
	 item 925, weight= 414177, color= 17
	 item 926, weight= 414741, color= 11
	 item 927, weight= 414762, color= 0
	 item 928, weight= 415153, color= 12
	 item 929, weight= 415155, color= 13
	 item 930, weight= 416197, color= 5
	 item 931, weight= 416470, color= 17
	 item 932, weight= 416729, color= 4
	 item 933, weight= 416985, color= 11
	 item 934, weight= 417380, color= 9
	 item 935, weight= 417780, color= 17
	 item 936, weight= 418460, color= 9
	 item 937, weight= 418647, color= 12
	 item 938, weight= 418926, color= 0
	 item 939, weight= 419076, color= 11
	 item 940, weight= 419490, color= 6
	 item 941, weight= 419668, color= 17
	 item 942, weight= 419836, color= 13
	 item 943, weight= 420304, color= 10
	 item 944, weight= 420514, color= 6
	 item 945, weight= 420606, color= 0
	 item 946, weight= 420754, color= 15
	 item 947, weight= 421872, color= 15
	 item 948, weight= 421883, color= 3
	 item 949, weight= 422173, color= 6
	 item 950, weight= 422183, color= 2
	 item 951, weight= 422262, color= 18
	 item 952, weight= 422412, color= 16
	 item 953, weight= 422621, color= 16
	 item 954, weight= 423527, color= 14
	 item 955, weight= 423797, color= 10
	 item 956, weight= 424083, color= 7
	 item 957, weight= 424089, color= 4
	 item 958, weight= 424379, color= 15
	 item 959, weight= 425374, color= 16
	 item 960, weight= 426958, color= 2
	 item 961, weight= 427648, color= 12
	 item 962, weight= 428720, color= 0
	 item 963, weight= 428951, color= 19
	 item 964, weight= 428979, color= 11
	 item 965, weight= 429448, color= 9
	 item 966, weight= 429571, color= 9
	 item 967, weight= 429881, color= 18
	 item 968, weight= 430195, color= 12
	 item 969, weight= 430436, color= 7
	 item 970, weight= 430468, color= 12
	 item 971, weight= 430710, color= 17
	 item 972, weight= 431144, color= 7
	 item 973, weight= 432265, color= 5
	 item 974, weight= 432578, color= 1
	 item 975, weight= 432727, color= 5
	 item 976, weight= 432860, color= 3
	 item 977, weight= 433022, color= 19
	 item 978, weight= 433468, color= 0
	 item 979, weight= 434064, color= 0
	 item 980, weight= 434177, color= 8
	 item 981, weight= 435085, color= 4
	 item 982, weight= 436119, color= 18
	 item 983, weight= 436258, color= 6
	 item 984, weight= 436913, color= 12
	 item 985, weight= 436958, color= 3
	 item 986, weight= 437872, color= 5
	 item 987, weight= 437968, color= 8
	 item 988, weight= 438640, color= 15
	 item 989, weight= 438826, color= 16
	 item 990, weight= 438887, color= 13
	 item 991, weight= 439066, color= 10
	 item 992, weight= 439134, color= 8
	 item 993, weight= 439377, color= 13
	 item 994, weight= 439550, color= 15
	 item 995, weight= 440140, color= 13
	 item 996, weight= 440986, color= 17
	 item 997, weight= 441022, color= 12
	 item 998, weight= 441188, color= 13
	 item 999, weight= 441291, color= 18
	 item 1000, weight= 441437, color= 17
	 item 1001, weight= 442569, color= 14
	 item 1002, weight= 442824, color= 1
	 item 1003, weight= 443190, color= 19
	 item 1004, weight= 443309, color= 8
	 item 1005, weight= 443559, color= 8
	 item 1006, weight= 443940, color= 10
	 item 1007, weight= 444120, color= 8
	 item 1008, weight= 445036, color= 19
	 item 1009, weight= 445845, color= 12
	 item 1010, weight= 446895, color= 11
	 item 1011, weight= 447056, color= 7
	 item 1012, weight= 447566, color= 14
	 item 1013, weight= 448601, color= 5
	 item 1014, weight= 448648, color= 16
	 item 1015, weight= 448905, color= 15
	 item 1016, weight= 448993, color= 7
	 item 1017, weight= 449193, color= 13
	 item 1018, weight= 449375, color= 14
	 item 1019, weight= 449757, color= 18
	 item 1020, weight= 449765, color= 0
	 item 1021, weight= 451291, color= 0
	 item 1022, weight= 451315, color= 10
	 item 1023, weight= 452142, color= 0
	 item 1024, weight= 452442, color= 9
	 item 1025, weight= 452992, color= 1
	 item 1026, weight= 453033, color= 7
	 item 1027, weight= 453045, color= 2
	 item 1028, weight= 453189, color= 16
	 item 1029, weight= 453625, color= 8
	 item 1030, weight= 453901, color= 11
	 item 1031, weight= 454452, color= 0
	 item 1032, weight= 454548, color= 6
	 item 1033, weight= 455365, color= 4
	 item 1034, weight= 455681, color= 3
	 item 1035, weight= 455737, color= 14
	 item 1036, weight= 456830, color= 14
	 item 1037, weight= 457437, color= 15
	 item 1038, weight= 457467, color= 6
	 item 1039, weight= 457512, color= 19
	 item 1040, weight= 457867, color= 13
	 item 1041, weight= 458028, color= 0
	 item 1042, weight= 458075, color= 8
	 item 1043, weight= 458326, color= 12
	 item 1044, weight= 458604, color= 6
	 item 1045, weight= 458821, color= 15
	 item 1046, weight= 458879, color= 3
	 item 1047, weight= 459588, color= 2
	 item 1048, weight= 459676, color= 18
	 item 1049, weight= 460364, color= 13
	 item 1050, weight= 460731, color= 6
	 item 1051, weight= 462051, color= 10
	 item 1052, weight= 462384, color= 6
	 item 1053, weight= 462494, color= 14
	 item 1054, weight= 462533, color= 17
	 item 1055, weight= 462577, color= 0
	 item 1056, weight= 462587, color= 0
	 item 1057, weight= 462680, color= 9
	 item 1058, weight= 462730, color= 1
	 item 1059, weight= 462797, color= 11
	 item 1060, weight= 462872, color= 3
	 item 1061, weight= 463145, color= 14
	 item 1062, weight= 463274, color= 14
	 item 1063, weight= 463328, color= 14
	 item 1064, weight= 463336, color= 3
	 item 1065, weight= 463484, color= 3
	 item 1066, weight= 463743, color= 6
	 item 1067, weight= 463900, color= 19
	 item 1068, weight= 463901, color= 5
	 item 1069, weight= 464463, color= 6
	 item 1070, weight= 464827, color= 12
	 item 1071, weight= 465215, color= 7
	 item 1072, weight= 465876, color= 9
	 item 1073, weight= 465909, color= 5
	 item 1074, weight= 465910, color= 8
	 item 1075, weight= 466196, color= 16
	 item 1076, weight= 466301, color= 17
	 item 1077, weight= 466402, color= 5
	 item 1078, weight= 466892, color= 4
	 item 1079, weight= 467130, color= 3
	 item 1080, weight= 467574, color= 2
	 item 1081, weight= 468452, color= 0
	 item 1082, weight= 468597, color= 9
	 item 1083, weight= 468635, color= 19
	 item 1084, weight= 468908, color= 15
	 item 1085, weight= 468980, color= 12
	 item 1086, weight= 469028, color= 14
	 item 1087, weight= 469113, color= 6
	 item 1088, weight= 469296, color= 10
	 item 1089, weight= 469509, color= 3
	 item 1090, weight= 469710, color= 12
	 item 1091, weight= 469824, color= 14
	 item 1092, weight= 470157, color= 3
	 item 1093, weight= 470446, color= 13
	 item 1094, weight= 470500, color= 7
	 item 1095, weight= 470542, color= 9
	 item 1096, weight= 470581, color= 5
	 item 1097, weight= 470726, color= 8
	 item 1098, weight= 470959, color= 1
	 item 1099, weight= 470993, color= 12
	 item 1100, weight= 471021, color= 5
	 item 1101, weight= 471701, color= 7
	 item 1102, weight= 472594, color= 14
	 item 1103, weight= 473012, color= 15
	 item 1104, weight= 473324, color= 6
	 item 1105, weight= 474374, color= 3
	 item 1106, weight= 474489, color= 17
	 item 1107, weight= 475283, color= 8
	 item 1108, weight= 475319, color= 18
	 item 1109, weight= 475731, color= 8
	 item 1110, weight= 476250, color= 4
	 item 1111, weight= 476745, color= 2
	 item 1112, weight= 476897, color= 19
	 item 1113, weight= 476949, color= 17
	 item 1114, weight= 477377, color= 16
	 item 1115, weight= 478089, color= 3
	 item 1116, weight= 478193, color= 2
	 item 1117, weight= 478511, color= 19
	 item 1118, weight= 479294, color= 15
	 item 1119, weight= 479685, color= 3
	 item 1120, weight= 480065, color= 7
	 item 1121, weight= 480877, color= 10
	 item 1122, weight= 481233, color= 4
	 item 1123, weight= 481305, color= 12
	 item 1124, weight= 482069, color= 9
	 item 1125, weight= 482316, color= 18
	 item 1126, weight= 482363, color= 3
	 item 1127, weight= 482822, color= 7
	 item 1128, weight= 483313, color= 18
	 item 1129, weight= 483471, color= 5
	 item 1130, weight= 483491, color= 3
	 item 1131, weight= 484417, color= 11
	 item 1132, weight= 484523, color= 11
	 item 1133, weight= 484580, color= 6
	 item 1134, weight= 484586, color= 1
	 item 1135, weight= 484795, color= 4
	 item 1136, weight= 485603, color= 15
	 item 1137, weight= 486151, color= 7
	 item 1138, weight= 486170, color= 6
	 item 1139, weight= 486535, color= 0
	 item 1140, weight= 486878, color= 17
	 item 1141, weight= 486998, color= 16
	 item 1142, weight= 487132, color= 5
	 item 1143, weight= 487317, color= 8
	 item 1144, weight= 487433, color= 4
	 item 1145, weight= 487445, color= 8
	 item 1146, weight= 488193, color= 16
	 item 1147, weight= 488293, color= 2
	 item 1148, weight= 488370, color= 12
	 item 1149, weight= 488554, color= 15
	 item 1150, weight= 489026, color= 17
	 item 1151, weight= 489761, color= 8
	 item 1152, weight= 490246, color= 4
	 item 1153, weight= 490568, color= 12
	 item 1154, weight= 490620, color= 16
	 item 1155, weight= 491605, color= 13
	 item 1156, weight= 492043, color= 9
	 item 1157, weight= 492060, color= 0
	 item 1158, weight= 492128, color= 0
	 item 1159, weight= 492181, color= 4
	 item 1160, weight= 492311, color= 18
	 item 1161, weight= 492817, color= 15
	 item 1162, weight= 493157, color= 3
	 item 1163, weight= 493848, color= 14
	 item 1164, weight= 494527, color= 19
	 item 1165, weight= 494733, color= 3
	 item 1166, weight= 494754, color= 1
	 item 1167, weight= 494837, color= 8
	 item 1168, weight= 495678, color= 7
	 item 1169, weight= 496031, color= 8
	 item 1170, weight= 496290, color= 15
	 item 1171, weight= 496520, color= 19
	 item 1172, weight= 496760, color= 15
	 item 1173, weight= 496799, color= 16
	 item 1174, weight= 497094, color= 10
	 item 1175, weight= 497188, color= 17
	 item 1176, weight= 497428, color= 17
	 item 1177, weight= 497547, color= 8
	 item 1178, weight= 499597, color= 1
	 item 1179, weight= 499839, color= 17
	 item 1180, weight= 500014, color= 6
	 item 1181, weight= 500576, color= 15
	 item 1182, weight= 500756, color= 6
	 item 1183, weight= 501002, color= 2
	 item 1184, weight= 501058, color= 15
	 item 1185, weight= 501207, color= 2
	 item 1186, weight= 501734, color= 5
	 item 1187, weight= 501997, color= 9
	 item 1188, weight= 502110, color= 5
	 item 1189, weight= 503577, color= 9
	 item 1190, weight= 503659, color= 7
	 item 1191, weight= 503858, color= 4
	 item 1192, weight= 504081, color= 4
	 item 1193, weight= 504431, color= 7
	 item 1194, weight= 504961, color= 12
	 item 1195, weight= 505049, color= 0
	 item 1196, weight= 505070, color= 8
	 item 1197, weight= 505853, color= 16
	 item 1198, weight= 506219, color= 13
	 item 1199, weight= 506260, color= 8
	 item 1200, weight= 506968, color= 6
	 item 1201, weight= 507054, color= 17
	 item 1202, weight= 507281, color= 4
	 item 1203, weight= 507486, color= 15
	 item 1204, weight= 507719, color= 14
	 item 1205, weight= 507909, color= 19
	 item 1206, weight= 508295, color= 5
	 item 1207, weight= 508699, color= 8
	 item 1208, weight= 508908, color= 1
	 item 1209, weight= 509383, color= 14
	 item 1210, weight= 509464, color= 1
	 item 1211, weight= 509562, color= 3
	 item 1212, weight= 509778, color= 8
	 item 1213, weight= 510270, color= 4
	 item 1214, weight= 511055, color= 17
	 item 1215, weight= 511493, color= 13
	 item 1216, weight= 512127, color= 7
	 item 1217, weight= 512457, color= 4
	 item 1218, weight= 513302, color= 18
	 item 1219, weight= 513359, color= 3
	 item 1220, weight= 513467, color= 16
	 item 1221, weight= 513676, color= 6
	 item 1222, weight= 514413, color= 7
	 item 1223, weight= 514531, color= 9
	 item 1224, weight= 514718, color= 10
	 item 1225, weight= 514882, color= 7
	 item 1226, weight= 515570, color= 1
	 item 1227, weight= 515752, color= 12
	 item 1228, weight= 516322, color= 17
	 item 1229, weight= 516352, color= 6
	 item 1230, weight= 516470, color= 18
	 item 1231, weight= 517604, color= 4
	 item 1232, weight= 518167, color= 18
	 item 1233, weight= 518207, color= 8
	 item 1234, weight= 518447, color= 7
	 item 1235, weight= 518642, color= 14
	 item 1236, weight= 518718, color= 8
	 item 1237, weight= 518918, color= 11
	 item 1238, weight= 520195, color= 2
	 item 1239, weight= 520904, color= 11
	 item 1240, weight= 520938, color= 6
	 item 1241, weight= 521172, color= 16
	 item 1242, weight= 521767, color= 2
	 item 1243, weight= 522194, color= 5
	 item 1244, weight= 522360, color= 15
	 item 1245, weight= 522463, color= 6
	 item 1246, weight= 522572, color= 9
	 item 1247, weight= 522735, color= 13
	 item 1248, weight= 522926, color= 2
	 item 1249, weight= 523145, color= 0
	 item 1250, weight= 523214, color= 3
	 item 1251, weight= 523957, color= 9
	 item 1252, weight= 523995, color= 8
	 item 1253, weight= 524062, color= 12
	 item 1254, weight= 524132, color= 6
	 item 1255, weight= 524517, color= 9
	 item 1256, weight= 525198, color= 6
	 item 1257, weight= 525237, color= 13
	 item 1258, weight= 525520, color= 6
	 item 1259, weight= 525858, color= 12
	 item 1260, weight= 525985, color= 3
	 item 1261, weight= 526499, color= 12
	 item 1262, weight= 527052, color= 8
	 item 1263, weight= 527060, color= 2
	 item 1264, weight= 527184, color= 13
	 item 1265, weight= 527434, color= 8
	 item 1266, weight= 527616, color= 7
	 item 1267, weight= 528853, color= 8
	 item 1268, weight= 529490, color= 19
	 item 1269, weight= 529905, color= 9
	 item 1270, weight= 531182, color= 3
	 item 1271, weight= 531482, color= 16
	 item 1272, weight= 531520, color= 7
	 item 1273, weight= 532075, color= 15
	 item 1274, weight= 532226, color= 14
	 item 1275, weight= 532676, color= 0
	 item 1276, weight= 532954, color= 9
	 item 1277, weight= 533768, color= 11
	 item 1278, weight= 534062, color= 6
	 item 1279, weight= 534497, color= 8
	 item 1280, weight= 534858, color= 19
	 item 1281, weight= 534986, color= 16
	 item 1282, weight= 536628, color= 18
	 item 1283, weight= 536928, color= 15
	 item 1284, weight= 536979, color= 16
	 item 1285, weight= 537474, color= 17
	 item 1286, weight= 537724, color= 6
	 item 1287, weight= 537864, color= 10
	 item 1288, weight= 538307, color= 18
	 item 1289, weight= 539048, color= 16
	 item 1290, weight= 539145, color= 9
	 item 1291, weight= 539223, color= 2
	 item 1292, weight= 539731, color= 19
	 item 1293, weight= 539795, color= 5
	 item 1294, weight= 540046, color= 9
	 item 1295, weight= 540174, color= 15
	 item 1296, weight= 540705, color= 10
	 item 1297, weight= 540781, color= 2
	 item 1298, weight= 541562, color= 10
	 item 1299, weight= 544230, color= 4
	 item 1300, weight= 544647, color= 7
	 item 1301, weight= 544656, color= 19
	 item 1302, weight= 546103, color= 7
	 item 1303, weight= 546128, color= 7
	 item 1304, weight= 546204, color= 0
	 item 1305, weight= 546566, color= 7
	 item 1306, weight= 547013, color= 6
	 item 1307, weight= 548242, color= 19
	 item 1308, weight= 548634, color= 14
	 item 1309, weight= 548857, color= 16
	 item 1310, weight= 548953, color= 8
	 item 1311, weight= 549249, color= 11
	 item 1312, weight= 549575, color= 14
	 item 1313, weight= 549829, color= 13
	 item 1314, weight= 549838, color= 8
	 item 1315, weight= 550162, color= 2
	 item 1316, weight= 550259, color= 12
	 item 1317, weight= 550675, color= 0
	 item 1318, weight= 551247, color= 3
	 item 1319, weight= 551715, color= 15
	 item 1320, weight= 552122, color= 3
	 item 1321, weight= 552965, color= 14
	 item 1322, weight= 553579, color= 18
	 item 1323, weight= 553743, color= 1
	 item 1324, weight= 554008, color= 1
	 item 1325, weight= 554652, color= 3
	 item 1326, weight= 554669, color= 15
	 item 1327, weight= 554702, color= 16
	 item 1328, weight= 554734, color= 14
	 item 1329, weight= 554941, color= 6
	 item 1330, weight= 554982, color= 9
	 item 1331, weight= 555215, color= 8
	 item 1332, weight= 555249, color= 11
	 item 1333, weight= 555451, color= 17
	 item 1334, weight= 555480, color= 2
	 item 1335, weight= 556204, color= 9
	 item 1336, weight= 556631, color= 19
	 item 1337, weight= 556754, color= 2
	 item 1338, weight= 556888, color= 15
	 item 1339, weight= 557247, color= 7
	 item 1340, weight= 557512, color= 15
	 item 1341, weight= 558082, color= 0
	 item 1342, weight= 558508, color= 19
	 item 1343, weight= 558550, color= 19
	 item 1344, weight= 558581, color= 12
	 item 1345, weight= 558607, color= 9
	 item 1346, weight= 558828, color= 9
	 item 1347, weight= 559091, color= 2
	 item 1348, weight= 559884, color= 9
	 item 1349, weight= 559977, color= 9
	 item 1350, weight= 560013, color= 14
	 item 1351, weight= 560034, color= 4
	 item 1352, weight= 560051, color= 2
	 item 1353, weight= 560648, color= 19
	 item 1354, weight= 561252, color= 8
	 item 1355, weight= 561527, color= 1
	 item 1356, weight= 562598, color= 7
	 item 1357, weight= 562645, color= 9
	 item 1358, weight= 562653, color= 5
	 item 1359, weight= 563536, color= 12
	 item 1360, weight= 563691, color= 13
	 item 1361, weight= 564170, color= 4
	 item 1362, weight= 564671, color= 2
	 item 1363, weight= 564775, color= 19
	 item 1364, weight= 564908, color= 9
	 item 1365, weight= 565002, color= 10
	 item 1366, weight= 565377, color= 2
	 item 1367, weight= 565784, color= 17
	 item 1368, weight= 566373, color= 11
	 item 1369, weight= 566844, color= 8
	 item 1370, weight= 567858, color= 10
	 item 1371, weight= 568323, color= 16
	 item 1372, weight= 568439, color= 10
	 item 1373, weight= 568958, color= 15
	 item 1374, weight= 569921, color= 6
	 item 1375, weight= 570565, color= 8
	 item 1376, weight= 571241, color= 19
	 item 1377, weight= 571333, color= 18
	 item 1378, weight= 571365, color= 5
	 item 1379, weight= 572189, color= 15
	 item 1380, weight= 572534, color= 16
	 item 1381, weight= 572938, color= 12
	 item 1382, weight= 573512, color= 19
	 item 1383, weight= 573535, color= 2
	 item 1384, weight= 573620, color= 8
	 item 1385, weight= 573669, color= 18
	 item 1386, weight= 574103, color= 6
	 item 1387, weight= 574141, color= 2
	 item 1388, weight= 576615, color= 12
	 item 1389, weight= 576697, color= 9
	 item 1390, weight= 577780, color= 10
	 item 1391, weight= 578056, color= 8
	 item 1392, weight= 578258, color= 0
	 item 1393, weight= 578345, color= 16
	 item 1394, weight= 578786, color= 15
	 item 1395, weight= 579142, color= 3
	 item 1396, weight= 580196, color= 3
	 item 1397, weight= 580825, color= 10
	 item 1398, weight= 581086, color= 11
	 item 1399, weight= 581198, color= 7
	 item 1400, weight= 581628, color= 14
	 item 1401, weight= 583217, color= 4
	 item 1402, weight= 583440, color= 10
	 item 1403, weight= 583467, color= 17
	 item 1404, weight= 583747, color= 2
	 item 1405, weight= 584239, color= 0
	 item 1406, weight= 584425, color= 5
	 item 1407, weight= 585965, color= 8
	 item 1408, weight= 586270, color= 12
	 item 1409, weight= 587030, color= 11
	 item 1410, weight= 587846, color= 3
	 item 1411, weight= 588079, color= 0
	 item 1412, weight= 588262, color= 10
	 item 1413, weight= 589992, color= 7
	 item 1414, weight= 590255, color= 17
	 item 1415, weight= 590281, color= 2
	 item 1416, weight= 590642, color= 12
	 item 1417, weight= 591997, color= 10
	 item 1418, weight= 592256, color= 0
	 item 1419, weight= 592459, color= 5
	 item 1420, weight= 592932, color= 1
	 item 1421, weight= 594200, color= 4
	 item 1422, weight= 594503, color= 2
	 item 1423, weight= 595046, color= 12
	 item 1424, weight= 595062, color= 14
	 item 1425, weight= 595081, color= 13
	 item 1426, weight= 595432, color= 14
	 item 1427, weight= 596097, color= 15
	 item 1428, weight= 596134, color= 19
	 item 1429, weight= 596427, color= 2
	 item 1430, weight= 596501, color= 8
	 item 1431, weight= 596510, color= 14
	 item 1432, weight= 596831, color= 8
	 item 1433, weight= 596963, color= 13
	 item 1434, weight= 597176, color= 13
	 item 1435, weight= 597186, color= 5
	 item 1436, weight= 599346, color= 8
	 item 1437, weight= 599627, color= 18
	 item 1438, weight= 601030, color= 16
	 item 1439, weight= 602032, color= 13
	 item 1440, weight= 602452, color= 8
	 item 1441, weight= 602479, color= 8
	 item 1442, weight= 602496, color= 4
	 item 1443, weight= 603053, color= 10
	 item 1444, weight= 603730, color= 17
	 item 1445, weight= 604105, color= 13
	 item 1446, weight= 604193, color= 8
	 item 1447, weight= 604464, color= 8
	 item 1448, weight= 605826, color= 18
	 item 1449, weight= 605947, color= 15
	 item 1450, weight= 605968, color= 3
	 item 1451, weight= 606398, color= 15
	 item 1452, weight= 606461, color= 13
	 item 1453, weight= 606877, color= 7
	 item 1454, weight= 607437, color= 6
	 item 1455, weight= 607612, color= 13
	 item 1456, weight= 607921, color= 1
	 item 1457, weight= 608058, color= 1
	 item 1458, weight= 608145, color= 0
	 item 1459, weight= 608862, color= 13
	 item 1460, weight= 609320, color= 6
	 item 1461, weight= 609680, color= 14
	 item 1462, weight= 609757, color= 18
	 item 1463, weight= 610461, color= 2
	 item 1464, weight= 610584, color= 9
	 item 1465, weight= 611059, color= 15
	 item 1466, weight= 611233, color= 15
	 item 1467, weight= 611378, color= 14
	 item 1468, weight= 611850, color= 9
	 item 1469, weight= 612243, color= 0
	 item 1470, weight= 612301, color= 15
	 item 1471, weight= 612698, color= 13
	 item 1472, weight= 612973, color= 4
	 item 1473, weight= 613291, color= 11
	 item 1474, weight= 613610, color= 1
	 item 1475, weight= 613735, color= 10
	 item 1476, weight= 614267, color= 3
	 item 1477, weight= 614312, color= 16
	 item 1478, weight= 614625, color= 11
	 item 1479, weight= 614631, color= 6
	 item 1480, weight= 615011, color= 0
	 item 1481, weight= 615112, color= 5
	 item 1482, weight= 616048, color= 17
	 item 1483, weight= 616354, color= 1
	 item 1484, weight= 616501, color= 15
	 item 1485, weight= 617094, color= 4
	 item 1486, weight= 619217, color= 17
	 item 1487, weight= 619425, color= 18
	 item 1488, weight= 619442, color= 5
	 item 1489, weight= 620096, color= 11
	 item 1490, weight= 620186, color= 5
	 item 1491, weight= 620361, color= 18
	 item 1492, weight= 620426, color= 9
	 item 1493, weight= 620828, color= 9
	 item 1494, weight= 621014, color= 15
	 item 1495, weight= 621022, color= 8
	 item 1496, weight= 622503, color= 12
	 item 1497, weight= 622913, color= 15
	 item 1498, weight= 622996, color= 15
	 item 1499, weight= 624288, color= 13
	 item 1500, weight= 624293, color= 11
	 item 1501, weight= 624380, color= 9
	 item 1502, weight= 624445, color= 5
	 item 1503, weight= 624918, color= 3
	 item 1504, weight= 625140, color= 0
	 item 1505, weight= 626143, color= 11
	 item 1506, weight= 626336, color= 0
	 item 1507, weight= 626528, color= 9
	 item 1508, weight= 627189, color= 7
	 item 1509, weight= 628932, color= 11
	 item 1510, weight= 629168, color= 3
	 item 1511, weight= 629468, color= 2
	 item 1512, weight= 630016, color= 14
	 item 1513, weight= 630878, color= 1
	 item 1514, weight= 631997, color= 15
	 item 1515, weight= 632496, color= 4
	 item 1516, weight= 633832, color= 18
	 item 1517, weight= 634014, color= 2
	 item 1518, weight= 634706, color= 17
	 item 1519, weight= 634713, color= 10
	 item 1520, weight= 634950, color= 10
	 item 1521, weight= 635197, color= 3
	 item 1522, weight= 635639, color= 5
	 item 1523, weight= 636262, color= 5
	 item 1524, weight= 636522, color= 18
	 item 1525, weight= 637042, color= 6
	 item 1526, weight= 637220, color= 3
	 item 1527, weight= 638213, color= 5
	 item 1528, weight= 638619, color= 10
	 item 1529, weight= 638733, color= 13
	 item 1530, weight= 638921, color= 14
	 item 1531, weight= 638926, color= 11
	 item 1532, weight= 639751, color= 10
	 item 1533, weight= 639962, color= 6
	 item 1534, weight= 640611, color= 3
	 item 1535, weight= 641172, color= 1
	 item 1536, weight= 641829, color= 19
	 item 1537, weight= 642333, color= 12
	 item 1538, weight= 642675, color= 13
	 item 1539, weight= 642907, color= 8
	 item 1540, weight= 643651, color= 9
	 item 1541, weight= 643692, color= 16
	 item 1542, weight= 643844, color= 3
	 item 1543, weight= 643877, color= 9
	 item 1544, weight= 644205, color= 5
	 item 1545, weight= 644439, color= 6
	 item 1546, weight= 644586, color= 10
	 item 1547, weight= 645766, color= 3
	 item 1548, weight= 645852, color= 4
	 item 1549, weight= 646859, color= 4
	 item 1550, weight= 646996, color= 6
	 item 1551, weight= 648076, color= 8
	 item 1552, weight= 649306, color= 10
	 item 1553, weight= 649424, color= 3
	 item 1554, weight= 649461, color= 4
	 item 1555, weight= 649567, color= 17
	 item 1556, weight= 649830, color= 16
	 item 1557, weight= 649890, color= 9
	 item 1558, weight= 649899, color= 18
	 item 1559, weight= 650009, color= 0
	 item 1560, weight= 650135, color= 17
	 item 1561, weight= 650253, color= 11
	 item 1562, weight= 650335, color= 11
	 item 1563, weight= 650339, color= 1
	 item 1564, weight= 650805, color= 11
	 item 1565, weight= 650924, color= 5
	 item 1566, weight= 652283, color= 10
	 item 1567, weight= 652470, color= 12
	 item 1568, weight= 653023, color= 9
	 item 1569, weight= 653037, color= 14
	 item 1570, weight= 653660, color= 8
	 item 1571, weight= 654561, color= 14
	 item 1572, weight= 655082, color= 2
	 item 1573, weight= 655185, color= 9
	 item 1574, weight= 655977, color= 19
	 item 1575, weight= 656363, color= 19
	 item 1576, weight= 656622, color= 12
	 item 1577, weight= 656623, color= 7
	 item 1578, weight= 656642, color= 3
	 item 1579, weight= 656962, color= 17
	 item 1580, weight= 657052, color= 9
	 item 1581, weight= 657569, color= 14
	 item 1582, weight= 657652, color= 2
	 item 1583, weight= 657958, color= 5
	 item 1584, weight= 658078, color= 10
	 item 1585, weight= 658263, color= 6
	 item 1586, weight= 658349, color= 19
	 item 1587, weight= 658484, color= 0
	 item 1588, weight= 659049, color= 5
	 item 1589, weight= 659625, color= 6
	 item 1590, weight= 659981, color= 6
	 item 1591, weight= 660002, color= 2
	 item 1592, weight= 660302, color= 4
	 item 1593, weight= 660324, color= 11
	 item 1594, weight= 660364, color= 16
	 item 1595, weight= 661286, color= 3
	 item 1596, weight= 661496, color= 8
	 item 1597, weight= 662274, color= 9
	 item 1598, weight= 662506, color= 0
	 item 1599, weight= 662812, color= 15
	 item 1600, weight= 663077, color= 10
	 item 1601, weight= 663260, color= 6
	 item 1602, weight= 663479, color= 10
	 item 1603, weight= 664151, color= 2
	 item 1604, weight= 665491, color= 14
	 item 1605, weight= 665831, color= 9
	 item 1606, weight= 666580, color= 8
	 item 1607, weight= 667297, color= 4
	 item 1608, weight= 667843, color= 2
	 item 1609, weight= 668230, color= 17
	 item 1610, weight= 669606, color= 19
	 item 1611, weight= 670228, color= 7
	 item 1612, weight= 670252, color= 3
	 item 1613, weight= 670353, color= 10
	 item 1614, weight= 670606, color= 10
	 item 1615, weight= 670717, color= 11
	 item 1616, weight= 670760, color= 16
	 item 1617, weight= 672046, color= 9
	 item 1618, weight= 672090, color= 1
	 item 1619, weight= 672221, color= 7
	 item 1620, weight= 672225, color= 13
	 item 1621, weight= 672398, color= 9
	 item 1622, weight= 672458, color= 18
	 item 1623, weight= 672770, color= 14
	 item 1624, weight= 672793, color= 14
	 item 1625, weight= 672828, color= 14
	 item 1626, weight= 673018, color= 2
	 item 1627, weight= 673341, color= 17
	 item 1628, weight= 675316, color= 17
	 item 1629, weight= 676106, color= 11
	 item 1630, weight= 676322, color= 1
	 item 1631, weight= 676738, color= 17
	 item 1632, weight= 676781, color= 7
	 item 1633, weight= 676794, color= 1
	 item 1634, weight= 677095, color= 12
	 item 1635, weight= 678218, color= 13
	 item 1636, weight= 678433, color= 14
	 item 1637, weight= 678508, color= 13
	 item 1638, weight= 678825, color= 17
	 item 1639, weight= 679268, color= 15
	 item 1640, weight= 679376, color= 9
	 item 1641, weight= 679381, color= 12
	 item 1642, weight= 681008, color= 16
	 item 1643, weight= 681329, color= 3
	 item 1644, weight= 681389, color= 1
	 item 1645, weight= 681794, color= 18
	 item 1646, weight= 681826, color= 4
	 item 1647, weight= 682059, color= 12
	 item 1648, weight= 682401, color= 11
	 item 1649, weight= 682542, color= 12
	 item 1650, weight= 682785, color= 14
	 item 1651, weight= 682994, color= 8
	 item 1652, weight= 683016, color= 15
	 item 1653, weight= 683133, color= 7
	 item 1654, weight= 683339, color= 12
	 item 1655, weight= 683647, color= 1
	 item 1656, weight= 684205, color= 4
	 item 1657, weight= 684667, color= 6
	 item 1658, weight= 684759, color= 2
	 item 1659, weight= 684855, color= 0
	 item 1660, weight= 685049, color= 15
	 item 1661, weight= 685070, color= 7
	 item 1662, weight= 685278, color= 16
	 item 1663, weight= 685391, color= 5
	 item 1664, weight= 685828, color= 11
	 item 1665, weight= 686180, color= 12
	 item 1666, weight= 686325, color= 18
	 item 1667, weight= 686522, color= 18
	 item 1668, weight= 686585, color= 7
	 item 1669, weight= 686727, color= 17
	 item 1670, weight= 687249, color= 16
	 item 1671, weight= 687338, color= 12
	 item 1672, weight= 687354, color= 19
	 item 1673, weight= 687534, color= 3
	 item 1674, weight= 687782, color= 8
	 item 1675, weight= 687979, color= 13
	 item 1676, weight= 688825, color= 17
	 item 1677, weight= 688921, color= 19
	 item 1678, weight= 688927, color= 7
	 item 1679, weight= 689023, color= 15
	 item 1680, weight= 690017, color= 1
	 item 1681, weight= 690452, color= 14
	 item 1682, weight= 690684, color= 8
	 item 1683, weight= 690929, color= 2
	 item 1684, weight= 691248, color= 18
	 item 1685, weight= 691314, color= 16
	 item 1686, weight= 692262, color= 6
	 item 1687, weight= 693208, color= 0
	 item 1688, weight= 693615, color= 17
	 item 1689, weight= 693620, color= 19
	 item 1690, weight= 693633, color= 1
	 item 1691, weight= 693675, color= 16
	 item 1692, weight= 693954, color= 19
	 item 1693, weight= 694789, color= 17
	 item 1694, weight= 695128, color= 1
	 item 1695, weight= 695360, color= 7
	 item 1696, weight= 695768, color= 11
	 item 1697, weight= 695772, color= 14
	 item 1698, weight= 695904, color= 6
	 item 1699, weight= 695959, color= 14
	 item 1700, weight= 696156, color= 15
	 item 1701, weight= 696988, color= 11
	 item 1702, weight= 697153, color= 0
	 item 1703, weight= 697726, color= 17
	 item 1704, weight= 698355, color= 18
	 item 1705, weight= 698530, color= 2
	 item 1706, weight= 698551, color= 1
	 item 1707, weight= 699204, color= 5
	 item 1708, weight= 699493, color= 19
	 item 1709, weight= 700143, color= 7
	 item 1710, weight= 700270, color= 1
	 item 1711, weight= 700499, color= 8
	 item 1712, weight= 700996, color= 19
	 item 1713, weight= 701005, color= 3
	 item 1714, weight= 701500, color= 15
	 item 1715, weight= 701540, color= 19
	 item 1716, weight= 702503, color= 6
	 item 1717, weight= 702578, color= 10
	 item 1718, weight= 703170, color= 11
	 item 1719, weight= 703317, color= 17
	 item 1720, weight= 704411, color= 11
	 item 1721, weight= 704589, color= 9
	 item 1722, weight= 705131, color= 8
	 item 1723, weight= 705360, color= 10
	 item 1724, weight= 705616, color= 15
	 item 1725, weight= 705755, color= 17
	 item 1726, weight= 706885, color= 4
	 item 1727, weight= 706903, color= 17
	 item 1728, weight= 707026, color= 9
	 item 1729, weight= 707201, color= 5
	 item 1730, weight= 708511, color= 6
	 item 1731, weight= 708650, color= 3
	 item 1732, weight= 708752, color= 11
	 item 1733, weight= 708763, color= 5
	 item 1734, weight= 709969, color= 4
	 item 1735, weight= 710080, color= 8
	 item 1736, weight= 710552, color= 16
	 item 1737, weight= 710594, color= 10
	 item 1738, weight= 710927, color= 18
	 item 1739, weight= 710963, color= 1
	 item 1740, weight= 711067, color= 3
	 item 1741, weight= 712241, color= 11
	 item 1742, weight= 712482, color= 1
	 item 1743, weight= 713230, color= 18
	 item 1744, weight= 713845, color= 12
	 item 1745, weight= 713867, color= 5
	 item 1746, weight= 714378, color= 2
	 item 1747, weight= 715235, color= 0
	 item 1748, weight= 715376, color= 1
	 item 1749, weight= 715749, color= 4
	 item 1750, weight= 715943, color= 9
	 item 1751, weight= 716187, color= 9
	 item 1752, weight= 716370, color= 2
	 item 1753, weight= 716672, color= 15
	 item 1754, weight= 717282, color= 19
	 item 1755, weight= 717502, color= 18
	 item 1756, weight= 718136, color= 13
	 item 1757, weight= 718380, color= 13
	 item 1758, weight= 718420, color= 8
	 item 1759, weight= 718499, color= 12
	 item 1760, weight= 718840, color= 11
	 item 1761, weight= 719167, color= 6
	 item 1762, weight= 719384, color= 15
	 item 1763, weight= 719424, color= 19
	 item 1764, weight= 719477, color= 15
	 item 1765, weight= 719534, color= 17
	 item 1766, weight= 720860, color= 10
	 item 1767, weight= 720895, color= 5
	 item 1768, weight= 720899, color= 4
	 item 1769, weight= 721743, color= 3
	 item 1770, weight= 724264, color= 15
	 item 1771, weight= 724434, color= 4
	 item 1772, weight= 724808, color= 8
	 item 1773, weight= 724978, color= 11
	 item 1774, weight= 725187, color= 12
	 item 1775, weight= 726903, color= 1
	 item 1776, weight= 727693, color= 10
	 item 1777, weight= 728342, color= 3
	 item 1778, weight= 728588, color= 0
	 item 1779, weight= 728836, color= 8
	 item 1780, weight= 729286, color= 19
	 item 1781, weight= 729581, color= 7
	 item 1782, weight= 729604, color= 14
	 item 1783, weight= 729732, color= 13
	 item 1784, weight= 730309, color= 6
	 item 1785, weight= 731026, color= 17
	 item 1786, weight= 731068, color= 10
	 item 1787, weight= 731675, color= 4
	 item 1788, weight= 731681, color= 11
	 item 1789, weight= 731810, color= 14
	 item 1790, weight= 731962, color= 4
	 item 1791, weight= 733103, color= 6
	 item 1792, weight= 733636, color= 9
	 item 1793, weight= 733891, color= 8
	 item 1794, weight= 734186, color= 11
	 item 1795, weight= 734267, color= 0
	 item 1796, weight= 734323, color= 1
	 item 1797, weight= 735288, color= 17
	 item 1798, weight= 735356, color= 11
	 item 1799, weight= 735617, color= 7
	 item 1800, weight= 736064, color= 12
	 item 1801, weight= 736140, color= 8
	 item 1802, weight= 736809, color= 6
	 item 1803, weight= 737562, color= 4
	 item 1804, weight= 737836, color= 7
	 item 1805, weight= 738527, color= 5
	 item 1806, weight= 738569, color= 3
	 item 1807, weight= 738647, color= 7
	 item 1808, weight= 738933, color= 0
	 item 1809, weight= 739198, color= 13
	 item 1810, weight= 739353, color= 14
	 item 1811, weight= 739623, color= 2
	 item 1812, weight= 739679, color= 4
	 item 1813, weight= 740121, color= 17
	 item 1814, weight= 740234, color= 9
	 item 1815, weight= 740301, color= 4
	 item 1816, weight= 740486, color= 17
	 item 1817, weight= 740702, color= 2
	 item 1818, weight= 741298, color= 8
	 item 1819, weight= 741411, color= 14
	 item 1820, weight= 741628, color= 3
	 item 1821, weight= 741719, color= 12
	 item 1822, weight= 741899, color= 9
	 item 1823, weight= 742370, color= 11
	 item 1824, weight= 742859, color= 2
	 item 1825, weight= 743244, color= 7
	 item 1826, weight= 743268, color= 6
	 item 1827, weight= 743291, color= 19
	 item 1828, weight= 744199, color= 9
	 item 1829, weight= 744939, color= 13
	 item 1830, weight= 745295, color= 5
	 item 1831, weight= 745506, color= 19
	 item 1832, weight= 745883, color= 5
	 item 1833, weight= 745955, color= 18
	 item 1834, weight= 746106, color= 2
	 item 1835, weight= 746686, color= 3
	 item 1836, weight= 746944, color= 0
	 item 1837, weight= 747300, color= 0
	 item 1838, weight= 747337, color= 13
	 item 1839, weight= 747754, color= 8
	 item 1840, weight= 747874, color= 8
	 item 1841, weight= 747995, color= 17
	 item 1842, weight= 749139, color= 8
	 item 1843, weight= 749175, color= 13
	 item 1844, weight= 750442, color= 7
	 item 1845, weight= 750556, color= 15
	 item 1846, weight= 750732, color= 19
	 item 1847, weight= 750886, color= 2
	 item 1848, weight= 750894, color= 18
	 item 1849, weight= 750943, color= 6
	 item 1850, weight= 751442, color= 7
	 item 1851, weight= 752320, color= 14
	 item 1852, weight= 753196, color= 5
	 item 1853, weight= 753475, color= 1
	 item 1854, weight= 753610, color= 19
	 item 1855, weight= 753977, color= 19
	 item 1856, weight= 754601, color= 6
	 item 1857, weight= 754956, color= 6
	 item 1858, weight= 755206, color= 8
	 item 1859, weight= 755555, color= 19
	 item 1860, weight= 756013, color= 9
	 item 1861, weight= 756160, color= 3
	 item 1862, weight= 756394, color= 6
	 item 1863, weight= 756648, color= 11
	 item 1864, weight= 756762, color= 13
	 item 1865, weight= 756876, color= 4
	 item 1866, weight= 757087, color= 3
	 item 1867, weight= 757105, color= 8
	 item 1868, weight= 757593, color= 0
	 item 1869, weight= 757815, color= 4
	 item 1870, weight= 758265, color= 5
	 item 1871, weight= 758459, color= 17
	 item 1872, weight= 758657, color= 5
	 item 1873, weight= 758740, color= 6
	 item 1874, weight= 759125, color= 9
	 item 1875, weight= 759381, color= 3
	 item 1876, weight= 759526, color= 7
	 item 1877, weight= 759616, color= 17
	 item 1878, weight= 759809, color= 12
	 item 1879, weight= 759838, color= 0
	 item 1880, weight= 759990, color= 0
	 item 1881, weight= 760058, color= 13
	 item 1882, weight= 760116, color= 7
	 item 1883, weight= 760519, color= 6
	 item 1884, weight= 761661, color= 6
	 item 1885, weight= 761962, color= 16
	 item 1886, weight= 762306, color= 2
	 item 1887, weight= 763576, color= 3
	 item 1888, weight= 763591, color= 10
	 item 1889, weight= 763934, color= 14
	 item 1890, weight= 764041, color= 15
	 item 1891, weight= 765599, color= 17
	 item 1892, weight= 766403, color= 7
	 item 1893, weight= 766486, color= 10
	 item 1894, weight= 766525, color= 9
	 item 1895, weight= 767051, color= 18
	 item 1896, weight= 767381, color= 14
	 item 1897, weight= 767546, color= 0
	 item 1898, weight= 768290, color= 11
	 item 1899, weight= 769462, color= 11
	 item 1900, weight= 769740, color= 5
	 item 1901, weight= 770402, color= 2
	 item 1902, weight= 770604, color= 5
	 item 1903, weight= 770692, color= 16
	 item 1904, weight= 771055, color= 13
	 item 1905, weight= 771472, color= 4
	 item 1906, weight= 771687, color= 9
	 item 1907, weight= 771955, color= 3
	 item 1908, weight= 772040, color= 5
	 item 1909, weight= 772632, color= 12
	 item 1910, weight= 772948, color= 12
	 item 1911, weight= 773040, color= 10
	 item 1912, weight= 773702, color= 0
	 item 1913, weight= 773949, color= 4
	 item 1914, weight= 774123, color= 7
	 item 1915, weight= 774548, color= 4
	 item 1916, weight= 774880, color= 1
	 item 1917, weight= 774889, color= 14
	 item 1918, weight= 775005, color= 12
	 item 1919, weight= 775360, color= 16
	 item 1920, weight= 775387, color= 7
	 item 1921, weight= 775940, color= 3
	 item 1922, weight= 776261, color= 12
	 item 1923, weight= 777289, color= 12
	 item 1924, weight= 777718, color= 14
	 item 1925, weight= 777773, color= 15
	 item 1926, weight= 777981, color= 2
	 item 1927, weight= 778135, color= 15
	 item 1928, weight= 778770, color= 7
	 item 1929, weight= 778825, color= 11
	 item 1930, weight= 778965, color= 1
	 item 1931, weight= 779578, color= 13
	 item 1932, weight= 779861, color= 7
	 item 1933, weight= 780106, color= 16
	 item 1934, weight= 780173, color= 2
	 item 1935, weight= 780193, color= 19
	 item 1936, weight= 780339, color= 19
	 item 1937, weight= 780353, color= 13
	 item 1938, weight= 780457, color= 9
	 item 1939, weight= 780644, color= 10
	 item 1940, weight= 781098, color= 5
	 item 1941, weight= 781303, color= 14
	 item 1942, weight= 781368, color= 3
	 item 1943, weight= 781447, color= 9
	 item 1944, weight= 782352, color= 7
	 item 1945, weight= 783051, color= 19
	 item 1946, weight= 783388, color= 10
	 item 1947, weight= 783395, color= 19
	 item 1948, weight= 783749, color= 7
	 item 1949, weight= 783852, color= 17
	 item 1950, weight= 784033, color= 17
	 item 1951, weight= 784149, color= 10
	 item 1952, weight= 784657, color= 16
	 item 1953, weight= 785791, color= 1
	 item 1954, weight= 785836, color= 1
	 item 1955, weight= 785907, color= 12
	 item 1956, weight= 786054, color= 6
	 item 1957, weight= 786261, color= 9
	 item 1958, weight= 786435, color= 11
	 item 1959, weight= 786726, color= 10
	 item 1960, weight= 786899, color= 5
	 item 1961, weight= 787043, color= 18
	 item 1962, weight= 787417, color= 1
	 item 1963, weight= 787785, color= 9
	 item 1964, weight= 788423, color= 19
	 item 1965, weight= 788670, color= 18
	 item 1966, weight= 789100, color= 10
	 item 1967, weight= 789282, color= 5
	 item 1968, weight= 789579, color= 0
	 item 1969, weight= 789783, color= 5
	 item 1970, weight= 790138, color= 14
	 item 1971, weight= 790758, color= 10
	 item 1972, weight= 790989, color= 12
	 item 1973, weight= 791266, color= 1
	 item 1974, weight= 791675, color= 5
	 item 1975, weight= 792488, color= 3
	 item 1976, weight= 792758, color= 15
	 item 1977, weight= 793036, color= 16
	 item 1978, weight= 793212, color= 9
	 item 1979, weight= 793237, color= 9
	 item 1980, weight= 793319, color= 16
	 item 1981, weight= 793442, color= 16
	 item 1982, weight= 793737, color= 7
	 item 1983, weight= 793788, color= 10
	 item 1984, weight= 793984, color= 3
	 item 1985, weight= 794734, color= 9
	 item 1986, weight= 794908, color= 6
	 item 1987, weight= 795401, color= 18
	 item 1988, weight= 796084, color= 5
	 item 1989, weight= 796317, color= 12
	 item 1990, weight= 796433, color= 3
	 item 1991, weight= 796442, color= 10
	 item 1992, weight= 797157, color= 13
	 item 1993, weight= 797178, color= 1
	 item 1994, weight= 797301, color= 16
	 item 1995, weight= 797588, color= 3
	 item 1996, weight= 797999, color= 2
	 item 1997, weight= 798017, color= 19
	 item 1998, weight= 798248, color= 13
	 item 1999, weight= 798571, color= 14
	 item 2000, weight= 798968, color= 7
	 item 2001, weight= 799413, color= 5

VRPSolver warning: Interval set for resource 1 on source node (when source != sink) is ignored (by definition is [0.0,0.0])
[41m solve [00m
~~~~~~~~~~~~~~~~~~~~~~~~~~~~~~~~~~~~~~~~~~~~~~~~~~~~~~~~~~~~~~~~~~~~~~~~~~~~~~
VRPSolver v0.4.1, 24/03/2021. Web: vrpsolver.math.u-bordeaux.fr
Corresponds to the solver by Pessoa, Sadykov, Uchoa and Vanderbeck (2020)
Paper: dx.doi.org/10.1007/s10107-020-01523-z
USE THIS CODE ONLY FOR ACADEMIC PURPOSES AT YOUR OWN RISK
~~~~~~~~~~~~~~~~~~~~~~~~~~~~~~~~~~~~~~~~~~~~~~~~~~~~~~~~~~~~~~~~~~~~~~~~~~~~~~
BaPCod v053, 24/03/2021, © Inria Bordeaux, France
~~~~~~~~~~~~~~~~~~~~~~~~~~~~~~~~~~~~~~~~~~~~~~~~~~~~~~~~~~~~~~~~~~~~~~~~~~~~~~
VRPSolver parameters:
GlobalTimeLimit = 1800
MaxNbOfBBtreeNodeTreated = 100000
treeSearchStrategy = 1
RCSPstopCutGenTimeThresholdInPricing = 10
RCSPhardTimeThresholdInPricing = 20
RCSPnumberOfBucketsPerVertex = 2000
RCSPdynamicBucketSteps = 0
RCSPuseBidirectionalSearch = 1
RCSPapplyReducedCostFixing = 1
RCSPredCostFixingFalseGap = 0
RCSPmaxNumOfColsPerIteration = 100
RCSPmaxNumOfColsPerExactIteration = 100
RCSPheurLabelingStrategy = 4
StabilizationMinPhaseOfStage = 1
RCSPmaxNumOfLabelsInEnumeration = 100000
RCSPmaxNumOfEnumeratedSolutions = 1000000
RCSPmaxNumOfEnumSolutionsForMIP = 100000
RCSPinitNGneighbourhoodSize = 0
RCSPmaxNGneighbourhoodSize = 0
RCSPrankOneCutsMaxNumPerRound = 100
RCSPrankOneCutsMaxNumRows = -1
RCSPrankOneCutsMemoryType = 2
CutTailingOffThreshold = 0.02
CutTailingOffCounterThreshold = 3
SafeDualBoundScaleFactor = -1
StrongBranchingPhaseOneCandidatesNumber = 100
StrongBranchingPhaseOneTreeSizeEstimRatio = 0.3
StrongBranchingPhaseTwoCandidatesNumber = 1
StrongBranchingPhaseTwoTreeSizeEstimRatio = 0.1
MaxTimeForRestrictedMasterIpHeur = -1
DivingHeurUseDepthLimit = 0
MaxLDSbreadth = 3
MaxLDSdepth = 2
New model incumbent solution 1e+06, TIME = 0h0m0s3t = 3
statistics_cols: instance & :Optimal & cutoff & :bcRecRootDb & :bcTimeRootEval & :bcCountNodeProc & :bcRecBestDb & :bcRecBestInc & :bcTimeMain \\
statistics: N2001W1000001R1080Q20-003 & 0 & 1.0e6 & 0.00 & 0.00 & 0 & 0.00 & -- & 0.00 \\
########################################################
Solution not found
########################################################
