Application parameters:
  batch  =>  nothing
  instance  =>  "/IN/N501W1000001R1080Q5-001"
  ub  =>  1.0e6
  cfg  =>  "/CFG/BPP.cfg"
data = Colored Bin Packing dataset.
number of items = 501
number of colors = 5
capacity = 1000001
Items : 
	 item 1, weight= 101686, color= 3
	 item 2, weight= 102147, color= 0
	 item 3, weight= 102299, color= 4
	 item 4, weight= 102919, color= 1
	 item 5, weight= 106791, color= 2
	 item 6, weight= 106946, color= 0
	 item 7, weight= 108376, color= 4
	 item 8, weight= 109972, color= 0
	 item 9, weight= 110256, color= 2
	 item 10, weight= 111615, color= 2
	 item 11, weight= 114139, color= 3
	 item 12, weight= 114149, color= 4
	 item 13, weight= 114933, color= 2
	 item 14, weight= 115370, color= 4
	 item 15, weight= 116240, color= 3
	 item 16, weight= 116954, color= 4
	 item 17, weight= 120179, color= 1
	 item 18, weight= 121933, color= 4
	 item 19, weight= 122233, color= 4
	 item 20, weight= 124866, color= 2
	 item 21, weight= 125228, color= 1
	 item 22, weight= 125397, color= 0
	 item 23, weight= 126983, color= 3
	 item 24, weight= 132180, color= 1
	 item 25, weight= 133512, color= 1
	 item 26, weight= 134665, color= 2
	 item 27, weight= 134976, color= 3
	 item 28, weight= 136312, color= 2
	 item 29, weight= 137625, color= 3
	 item 30, weight= 138220, color= 3
	 item 31, weight= 139955, color= 3
	 item 32, weight= 140664, color= 1
	 item 33, weight= 141068, color= 1
	 item 34, weight= 141315, color= 4
	 item 35, weight= 141480, color= 0
	 item 36, weight= 143570, color= 4
	 item 37, weight= 144277, color= 2
	 item 38, weight= 144384, color= 4
	 item 39, weight= 144472, color= 0
	 item 40, weight= 145072, color= 0
	 item 41, weight= 145280, color= 3
	 item 42, weight= 146960, color= 4
	 item 43, weight= 149190, color= 2
	 item 44, weight= 150647, color= 0
	 item 45, weight= 150804, color= 3
	 item 46, weight= 152913, color= 0
	 item 47, weight= 153856, color= 3
	 item 48, weight= 155156, color= 1
	 item 49, weight= 155606, color= 1
	 item 50, weight= 155682, color= 3
	 item 51, weight= 156025, color= 2
	 item 52, weight= 158009, color= 3
	 item 53, weight= 159847, color= 2
	 item 54, weight= 164157, color= 0
	 item 55, weight= 166605, color= 1
	 item 56, weight= 167278, color= 0
	 item 57, weight= 168337, color= 0
	 item 58, weight= 170001, color= 4
	 item 59, weight= 170515, color= 1
	 item 60, weight= 171247, color= 2
	 item 61, weight= 171598, color= 2
	 item 62, weight= 174122, color= 4
	 item 63, weight= 175921, color= 3
	 item 64, weight= 176472, color= 3
	 item 65, weight= 177155, color= 0
	 item 66, weight= 177233, color= 0
	 item 67, weight= 177528, color= 1
	 item 68, weight= 180316, color= 3
	 item 69, weight= 180563, color= 3
	 item 70, weight= 181754, color= 0
	 item 71, weight= 182437, color= 0
	 item 72, weight= 182601, color= 4
	 item 73, weight= 183737, color= 1
	 item 74, weight= 188857, color= 3
	 item 75, weight= 189462, color= 3
	 item 76, weight= 193161, color= 2
	 item 77, weight= 193816, color= 1
	 item 78, weight= 194055, color= 0
	 item 79, weight= 194370, color= 0
	 item 80, weight= 199211, color= 0
	 item 81, weight= 200666, color= 3
	 item 82, weight= 201044, color= 1
	 item 83, weight= 202792, color= 1
	 item 84, weight= 204593, color= 1
	 item 85, weight= 207055, color= 1
	 item 86, weight= 208594, color= 3
	 item 87, weight= 208942, color= 3
	 item 88, weight= 210682, color= 3
	 item 89, weight= 211491, color= 2
	 item 90, weight= 218748, color= 3
	 item 91, weight= 219823, color= 2
	 item 92, weight= 219914, color= 0
	 item 93, weight= 220918, color= 1
	 item 94, weight= 224311, color= 1
	 item 95, weight= 226884, color= 2
	 item 96, weight= 229117, color= 0
	 item 97, weight= 230138, color= 3
	 item 98, weight= 233041, color= 2
	 item 99, weight= 233630, color= 3
	 item 100, weight= 234340, color= 1
	 item 101, weight= 242173, color= 2
	 item 102, weight= 244140, color= 0
	 item 103, weight= 246924, color= 0
	 item 104, weight= 247060, color= 1
	 item 105, weight= 247954, color= 4
	 item 106, weight= 248409, color= 3
	 item 107, weight= 250223, color= 1
	 item 108, weight= 252874, color= 2
	 item 109, weight= 255214, color= 0
	 item 110, weight= 257571, color= 3
	 item 111, weight= 259668, color= 2
	 item 112, weight= 260148, color= 4
	 item 113, weight= 261491, color= 3
	 item 114, weight= 261727, color= 0
	 item 115, weight= 261754, color= 3
	 item 116, weight= 262998, color= 4
	 item 117, weight= 263969, color= 4
	 item 118, weight= 265845, color= 3
	 item 119, weight= 271369, color= 2
	 item 120, weight= 273654, color= 0
	 item 121, weight= 277064, color= 1
	 item 122, weight= 278795, color= 3
	 item 123, weight= 279324, color= 0
	 item 124, weight= 279702, color= 1
	 item 125, weight= 281010, color= 2
	 item 126, weight= 281554, color= 2
	 item 127, weight= 281583, color= 2
	 item 128, weight= 282194, color= 2
	 item 129, weight= 286372, color= 4
	 item 130, weight= 287578, color= 4
	 item 131, weight= 288067, color= 1
	 item 132, weight= 288595, color= 0
	 item 133, weight= 288619, color= 1
	 item 134, weight= 288682, color= 1
	 item 135, weight= 289851, color= 2
	 item 136, weight= 291832, color= 1
	 item 137, weight= 295045, color= 0
	 item 138, weight= 300330, color= 4
	 item 139, weight= 300702, color= 4
	 item 140, weight= 301172, color= 4
	 item 141, weight= 302158, color= 2
	 item 142, weight= 304011, color= 3
	 item 143, weight= 304390, color= 3
	 item 144, weight= 306276, color= 0
	 item 145, weight= 307063, color= 1
	 item 146, weight= 307790, color= 3
	 item 147, weight= 308970, color= 4
	 item 148, weight= 309230, color= 0
	 item 149, weight= 311459, color= 0
	 item 150, weight= 315987, color= 2
	 item 151, weight= 317449, color= 1
	 item 152, weight= 318304, color= 4
	 item 153, weight= 318416, color= 4
	 item 154, weight= 318747, color= 0
	 item 155, weight= 322671, color= 4
	 item 156, weight= 323104, color= 4
	 item 157, weight= 323211, color= 3
	 item 158, weight= 324833, color= 2
	 item 159, weight= 327510, color= 1
	 item 160, weight= 328444, color= 2
	 item 161, weight= 328854, color= 0
	 item 162, weight= 333289, color= 3
	 item 163, weight= 336635, color= 3
	 item 164, weight= 339990, color= 4
	 item 165, weight= 340284, color= 2
	 item 166, weight= 340360, color= 1
	 item 167, weight= 340655, color= 2
	 item 168, weight= 341908, color= 3
	 item 169, weight= 342502, color= 3
	 item 170, weight= 347613, color= 2
	 item 171, weight= 347974, color= 1
	 item 172, weight= 350550, color= 2
	 item 173, weight= 354372, color= 4
	 item 174, weight= 355121, color= 3
	 item 175, weight= 356061, color= 0
	 item 176, weight= 356240, color= 3
	 item 177, weight= 358210, color= 0
	 item 178, weight= 358919, color= 0
	 item 179, weight= 361258, color= 3
	 item 180, weight= 361856, color= 4
	 item 181, weight= 362599, color= 1
	 item 182, weight= 363265, color= 2
	 item 183, weight= 363940, color= 4
	 item 184, weight= 365302, color= 3
	 item 185, weight= 365454, color= 1
	 item 186, weight= 365935, color= 1
	 item 187, weight= 365946, color= 1
	 item 188, weight= 366067, color= 3
	 item 189, weight= 368130, color= 4
	 item 190, weight= 370513, color= 4
	 item 191, weight= 371327, color= 3
	 item 192, weight= 380428, color= 4
	 item 193, weight= 382940, color= 1
	 item 194, weight= 383260, color= 1
	 item 195, weight= 385917, color= 3
	 item 196, weight= 386044, color= 4
	 item 197, weight= 387051, color= 3
	 item 198, weight= 387151, color= 2
	 item 199, weight= 390483, color= 0
	 item 200, weight= 391212, color= 1
	 item 201, weight= 393235, color= 3
	 item 202, weight= 394943, color= 1
	 item 203, weight= 395668, color= 3
	 item 204, weight= 396610, color= 3
	 item 205, weight= 397462, color= 2
	 item 206, weight= 397490, color= 2
	 item 207, weight= 399520, color= 4
	 item 208, weight= 401834, color= 1
	 item 209, weight= 402820, color= 0
	 item 210, weight= 403345, color= 2
	 item 211, weight= 406516, color= 0
	 item 212, weight= 408593, color= 1
	 item 213, weight= 409420, color= 1
	 item 214, weight= 409753, color= 4
	 item 215, weight= 410050, color= 1
	 item 216, weight= 413910, color= 1
	 item 217, weight= 414896, color= 0
	 item 218, weight= 416596, color= 3
	 item 219, weight= 418187, color= 4
	 item 220, weight= 419632, color= 4
	 item 221, weight= 424294, color= 1
	 item 222, weight= 425192, color= 1
	 item 223, weight= 427154, color= 1
	 item 224, weight= 427476, color= 0
	 item 225, weight= 428566, color= 1
	 item 226, weight= 430176, color= 2
	 item 227, weight= 430650, color= 2
	 item 228, weight= 431485, color= 2
	 item 229, weight= 435726, color= 4
	 item 230, weight= 437165, color= 0
	 item 231, weight= 439823, color= 3
	 item 232, weight= 439853, color= 2
	 item 233, weight= 440470, color= 4
	 item 234, weight= 441236, color= 0
	 item 235, weight= 442219, color= 2
	 item 236, weight= 442900, color= 2
	 item 237, weight= 444944, color= 0
	 item 238, weight= 445120, color= 3
	 item 239, weight= 445496, color= 1
	 item 240, weight= 449245, color= 0
	 item 241, weight= 451532, color= 3
	 item 242, weight= 453071, color= 4
	 item 243, weight= 453315, color= 3
	 item 244, weight= 453961, color= 4
	 item 245, weight= 454424, color= 0
	 item 246, weight= 454564, color= 1
	 item 247, weight= 455210, color= 0
	 item 248, weight= 455727, color= 0
	 item 249, weight= 456485, color= 0
	 item 250, weight= 456723, color= 3
	 item 251, weight= 457101, color= 4
	 item 252, weight= 457161, color= 3
	 item 253, weight= 459105, color= 4
	 item 254, weight= 459389, color= 3
	 item 255, weight= 461213, color= 3
	 item 256, weight= 464438, color= 2
	 item 257, weight= 465010, color= 2
	 item 258, weight= 466173, color= 3
	 item 259, weight= 467546, color= 3
	 item 260, weight= 468986, color= 4
	 item 261, weight= 470045, color= 2
	 item 262, weight= 470858, color= 2
	 item 263, weight= 471675, color= 0
	 item 264, weight= 472358, color= 1
	 item 265, weight= 474031, color= 4
	 item 266, weight= 475094, color= 0
	 item 267, weight= 476164, color= 2
	 item 268, weight= 476349, color= 1
	 item 269, weight= 476891, color= 3
	 item 270, weight= 477473, color= 2
	 item 271, weight= 478120, color= 4
	 item 272, weight= 480347, color= 0
	 item 273, weight= 480628, color= 3
	 item 274, weight= 481289, color= 2
	 item 275, weight= 481505, color= 0
	 item 276, weight= 483044, color= 0
	 item 277, weight= 483950, color= 0
	 item 278, weight= 484692, color= 0
	 item 279, weight= 489907, color= 3
	 item 280, weight= 490352, color= 4
	 item 281, weight= 492366, color= 0
	 item 282, weight= 493660, color= 0
	 item 283, weight= 495025, color= 1
	 item 284, weight= 495562, color= 1
	 item 285, weight= 498759, color= 1
	 item 286, weight= 500259, color= 0
	 item 287, weight= 501428, color= 2
	 item 288, weight= 502007, color= 3
	 item 289, weight= 502207, color= 4
	 item 290, weight= 502891, color= 0
	 item 291, weight= 503014, color= 4
	 item 292, weight= 504472, color= 4
	 item 293, weight= 504542, color= 4
	 item 294, weight= 504985, color= 2
	 item 295, weight= 505159, color= 0
	 item 296, weight= 505255, color= 0
	 item 297, weight= 505916, color= 0
	 item 298, weight= 510164, color= 0
	 item 299, weight= 510800, color= 3
	 item 300, weight= 514721, color= 3
	 item 301, weight= 516057, color= 4
	 item 302, weight= 517672, color= 2
	 item 303, weight= 517954, color= 2
	 item 304, weight= 518443, color= 1
	 item 305, weight= 518629, color= 0
	 item 306, weight= 520459, color= 1
	 item 307, weight= 525106, color= 2
	 item 308, weight= 525672, color= 1
	 item 309, weight= 527464, color= 1
	 item 310, weight= 527825, color= 3
	 item 311, weight= 529442, color= 4
	 item 312, weight= 531177, color= 1
	 item 313, weight= 532279, color= 0
	 item 314, weight= 533738, color= 1
	 item 315, weight= 534429, color= 0
	 item 316, weight= 534881, color= 2
	 item 317, weight= 541030, color= 3
	 item 318, weight= 542059, color= 1
	 item 319, weight= 542353, color= 1
	 item 320, weight= 547530, color= 1
	 item 321, weight= 548452, color= 2
	 item 322, weight= 549051, color= 2
	 item 323, weight= 549687, color= 2
	 item 324, weight= 549844, color= 2
	 item 325, weight= 550412, color= 0
	 item 326, weight= 551423, color= 0
	 item 327, weight= 553653, color= 2
	 item 328, weight= 554445, color= 4
	 item 329, weight= 556820, color= 1
	 item 330, weight= 558564, color= 3
	 item 331, weight= 563213, color= 3
	 item 332, weight= 563545, color= 0
	 item 333, weight= 563710, color= 1
	 item 334, weight= 567034, color= 3
	 item 335, weight= 567076, color= 3
	 item 336, weight= 567707, color= 4
	 item 337, weight= 569423, color= 4
	 item 338, weight= 571639, color= 3
	 item 339, weight= 574365, color= 0
	 item 340, weight= 574593, color= 4
	 item 341, weight= 577073, color= 2
	 item 342, weight= 578152, color= 0
	 item 343, weight= 579272, color= 1
	 item 344, weight= 579318, color= 0
	 item 345, weight= 582606, color= 0
	 item 346, weight= 588117, color= 3
	 item 347, weight= 589368, color= 2
	 item 348, weight= 589839, color= 3
	 item 349, weight= 591427, color= 2
	 item 350, weight= 594494, color= 4
	 item 351, weight= 596659, color= 4
	 item 352, weight= 597672, color= 3
	 item 353, weight= 598804, color= 2
	 item 354, weight= 599582, color= 2
	 item 355, weight= 600508, color= 0
	 item 356, weight= 600680, color= 0
	 item 357, weight= 602587, color= 4
	 item 358, weight= 609153, color= 4
	 item 359, weight= 611715, color= 2
	 item 360, weight= 612608, color= 3
	 item 361, weight= 613289, color= 0
	 item 362, weight= 613474, color= 1
	 item 363, weight= 614416, color= 2
	 item 364, weight= 616226, color= 3
	 item 365, weight= 619674, color= 1
	 item 366, weight= 620598, color= 0
	 item 367, weight= 622204, color= 4
	 item 368, weight= 622574, color= 1
	 item 369, weight= 622950, color= 4
	 item 370, weight= 627036, color= 1
	 item 371, weight= 628750, color= 2
	 item 372, weight= 629773, color= 1
	 item 373, weight= 630303, color= 2
	 item 374, weight= 633347, color= 4
	 item 375, weight= 634001, color= 3
	 item 376, weight= 638146, color= 1
	 item 377, weight= 638962, color= 2
	 item 378, weight= 639139, color= 1
	 item 379, weight= 641166, color= 2
	 item 380, weight= 641411, color= 4
	 item 381, weight= 641699, color= 0
	 item 382, weight= 641881, color= 2
	 item 383, weight= 641912, color= 1
	 item 384, weight= 642655, color= 2
	 item 385, weight= 643500, color= 4
	 item 386, weight= 643670, color= 1
	 item 387, weight= 645616, color= 2
	 item 388, weight= 646120, color= 4
	 item 389, weight= 646519, color= 2
	 item 390, weight= 646993, color= 0
	 item 391, weight= 652481, color= 1
	 item 392, weight= 652688, color= 1
	 item 393, weight= 653125, color= 3
	 item 394, weight= 653164, color= 3
	 item 395, weight= 653165, color= 3
	 item 396, weight= 655322, color= 3
	 item 397, weight= 655379, color= 2
	 item 398, weight= 661188, color= 4
	 item 399, weight= 662008, color= 4
	 item 400, weight= 662865, color= 0
	 item 401, weight= 664596, color= 2
	 item 402, weight= 665993, color= 0
	 item 403, weight= 668727, color= 1
	 item 404, weight= 669534, color= 3
	 item 405, weight= 670079, color= 1
	 item 406, weight= 672694, color= 2
	 item 407, weight= 672948, color= 0
	 item 408, weight= 673246, color= 2
	 item 409, weight= 675189, color= 4
	 item 410, weight= 675704, color= 2
	 item 411, weight= 676900, color= 2
	 item 412, weight= 683461, color= 1
	 item 413, weight= 689424, color= 4
	 item 414, weight= 691333, color= 3
	 item 415, weight= 691725, color= 1
	 item 416, weight= 693465, color= 0
	 item 417, weight= 694745, color= 2
	 item 418, weight= 694995, color= 1
	 item 419, weight= 695039, color= 3
	 item 420, weight= 699147, color= 3
	 item 421, weight= 699174, color= 0
	 item 422, weight= 699276, color= 0
	 item 423, weight= 699458, color= 1
	 item 424, weight= 700659, color= 2
	 item 425, weight= 703017, color= 3
	 item 426, weight= 704202, color= 4
	 item 427, weight= 704371, color= 0
	 item 428, weight= 706136, color= 4
	 item 429, weight= 711706, color= 2
	 item 430, weight= 711778, color= 3
	 item 431, weight= 712678, color= 1
	 item 432, weight= 714098, color= 3
	 item 433, weight= 714898, color= 1
	 item 434, weight= 716987, color= 2
	 item 435, weight= 718527, color= 1
	 item 436, weight= 721417, color= 0
	 item 437, weight= 721572, color= 4
	 item 438, weight= 722143, color= 2
	 item 439, weight= 723138, color= 4
	 item 440, weight= 723645, color= 1
	 item 441, weight= 723980, color= 4
	 item 442, weight= 726100, color= 1
	 item 443, weight= 727124, color= 1
	 item 444, weight= 727943, color= 1
	 item 445, weight= 728101, color= 1
	 item 446, weight= 729323, color= 1
	 item 447, weight= 729405, color= 4
	 item 448, weight= 729699, color= 3
	 item 449, weight= 730120, color= 3
	 item 450, weight= 731705, color= 1
	 item 451, weight= 732920, color= 2
	 item 452, weight= 735444, color= 1
	 item 453, weight= 736748, color= 0
	 item 454, weight= 738388, color= 0
	 item 455, weight= 738407, color= 2
	 item 456, weight= 739061, color= 2
	 item 457, weight= 739414, color= 3
	 item 458, weight= 740866, color= 1
	 item 459, weight= 741393, color= 3
	 item 460, weight= 741402, color= 1
	 item 461, weight= 742651, color= 2
	 item 462, weight= 743954, color= 1
	 item 463, weight= 745921, color= 2
	 item 464, weight= 746824, color= 4
	 item 465, weight= 750724, color= 2
	 item 466, weight= 752736, color= 0
	 item 467, weight= 754663, color= 1
	 item 468, weight= 755056, color= 2
	 item 469, weight= 756106, color= 0
	 item 470, weight= 758011, color= 3
	 item 471, weight= 758627, color= 1
	 item 472, weight= 758888, color= 2
	 item 473, weight= 759145, color= 1
	 item 474, weight= 759329, color= 2
	 item 475, weight= 759847, color= 1
	 item 476, weight= 759929, color= 3
	 item 477, weight= 762913, color= 3
	 item 478, weight= 765011, color= 2
	 item 479, weight= 765931, color= 2
	 item 480, weight= 767390, color= 2
	 item 481, weight= 771555, color= 0
	 item 482, weight= 772547, color= 2
	 item 483, weight= 772597, color= 3
	 item 484, weight= 773357, color= 0
	 item 485, weight= 774705, color= 4
	 item 486, weight= 775329, color= 1
	 item 487, weight= 780658, color= 1
	 item 488, weight= 781933, color= 3
	 item 489, weight= 782133, color= 1
	 item 490, weight= 782863, color= 2
	 item 491, weight= 784352, color= 0
	 item 492, weight= 786684, color= 3
	 item 493, weight= 787701, color= 0
	 item 494, weight= 788733, color= 3
	 item 495, weight= 789719, color= 3
	 item 496, weight= 790427, color= 4
	 item 497, weight= 790502, color= 3
	 item 498, weight= 792718, color= 1
	 item 499, weight= 793478, color= 3
	 item 500, weight= 796859, color= 4
	 item 501, weight= 799777, color= 0

VRPSolver warning: Interval set for resource 1 on source node (when source != sink) is ignored (by definition is [0.0,0.0])
[41m solve [00m
~~~~~~~~~~~~~~~~~~~~~~~~~~~~~~~~~~~~~~~~~~~~~~~~~~~~~~~~~~~~~~~~~~~~~~~~~~~~~~
VRPSolver v0.4.1, 24/03/2021. Web: vrpsolver.math.u-bordeaux.fr
Corresponds to the solver by Pessoa, Sadykov, Uchoa and Vanderbeck (2020)
Paper: dx.doi.org/10.1007/s10107-020-01523-z
USE THIS CODE ONLY FOR ACADEMIC PURPOSES AT YOUR OWN RISK
~~~~~~~~~~~~~~~~~~~~~~~~~~~~~~~~~~~~~~~~~~~~~~~~~~~~~~~~~~~~~~~~~~~~~~~~~~~~~~
BaPCod v053, 24/03/2021, © Inria Bordeaux, France
~~~~~~~~~~~~~~~~~~~~~~~~~~~~~~~~~~~~~~~~~~~~~~~~~~~~~~~~~~~~~~~~~~~~~~~~~~~~~~
VRPSolver parameters:
GlobalTimeLimit = 1800
MaxNbOfBBtreeNodeTreated = 100000
treeSearchStrategy = 1
RCSPstopCutGenTimeThresholdInPricing = 10
RCSPhardTimeThresholdInPricing = 20
RCSPnumberOfBucketsPerVertex = 2000
RCSPdynamicBucketSteps = 0
RCSPuseBidirectionalSearch = 1
RCSPapplyReducedCostFixing = 1
RCSPredCostFixingFalseGap = 0
RCSPmaxNumOfColsPerIteration = 100
RCSPmaxNumOfColsPerExactIteration = 100
RCSPheurLabelingStrategy = 4
StabilizationMinPhaseOfStage = 1
RCSPmaxNumOfLabelsInEnumeration = 100000
RCSPmaxNumOfEnumeratedSolutions = 1000000
RCSPmaxNumOfEnumSolutionsForMIP = 100000
RCSPinitNGneighbourhoodSize = 0
RCSPmaxNGneighbourhoodSize = 0
RCSPrankOneCutsMaxNumPerRound = 100
RCSPrankOneCutsMaxNumRows = -1
RCSPrankOneCutsMemoryType = 2
CutTailingOffThreshold = 0.02
CutTailingOffCounterThreshold = 3
SafeDualBoundScaleFactor = -1
StrongBranchingPhaseOneCandidatesNumber = 100
StrongBranchingPhaseOneTreeSizeEstimRatio = 0.3
StrongBranchingPhaseTwoCandidatesNumber = 1
StrongBranchingPhaseTwoTreeSizeEstimRatio = 0.1
MaxTimeForRestrictedMasterIpHeur = -1
DivingHeurUseDepthLimit = 0
MaxLDSbreadth = 3
MaxLDSdepth = 2
New model incumbent solution 1e+06, TIME = 0h0m0s3t = 3
Model is built TIME = 0h0m4s12t = 412
************************************************************************************************
**** BaB tree root node
**** Local DB = -1e+12, global bounds : [ -1e+12 , 1e+06 ], TIME = 0h0m4s12t = 412
**** 1 open nodes, 0 columns (0 active), 0 dyn. constrs. (0 active), 1004 art. vars. (1004 active)
************************************************************************************************
<DWph=2> <it= 10> <et=8.14> <Mt= 0.01> <Spt= 4.00> <nCl=1000> <DB=-3633841036.3635> <Mlp=567912860.7521> <PB=1000000> 
<DWph=2> <it= 20> <et=12.00> <Mt= 0.02> <Spt= 3.83> <nCl=1000> <DB=-2533579141.7351> <Mlp=526488099.7627> <PB=1000000> 
<DWph=2> <it= 30> <et=15.58> <Mt= 0.04> <Spt= 3.53> <nCl=1000> <DB=-1918789930.7316> <Mlp=477782927.6402> <PB=1000000> 
<DWph=2> <it= 40> <et=18.98> <Mt= 0.05> <Spt= 3.34> <nCl=1000> <DB=-1366666825.7990> <Mlp=418131825.0895> <PB=1000000> 
<DWph=2> <it= 50> <et=22.32> <Mt= 0.08> <Spt= 3.27> <nCl=1000> <DB=-838220621.6574> <Mlp=331382981.4716> <PB=1000000> 
<DWph=2> <it= 60> <et=25.55> <Mt= 0.04> <Spt= 3.18> <nCl=1000> <DB=-724054522.3242> <Mlp=232717334.0305> <PB=1000000> 
<DWph=2> <it= 70> <et=28.83> <Mt= 0.08> <Spt= 3.20> <nCl=1000> <DB=-707465327.5751> <Mlp=175782840.8400> <PB=1000000> 
<DWph=2> <it= 80> <et=32.14> <Mt= 0.10> <Spt= 3.19> <nCl=1000> <DB=-655151587.9339> <Mlp=140750895.6561> <PB=1000000> 
<DWph=2> <it= 90> <et=35.59> <Mt= 0.12> <Spt= 3.33> <nCl=1000> <DB=-547940792.5041> <Mlp=121320173.6139> <PB=1000000> 
<DWph=2> <it=100> <et=38.92> <Mt= 0.11> <Spt= 3.21> <nCl=1000> <DB=-541331263.0895> <Mlp=107551123.4829> <PB=1000000> 
<DWph=2> <it=110> <et=42.28> <Mt= 0.09> <Spt= 3.24> <nCl=1000> <DB=-511726314.8879> <Mlp=97637110.4155> <PB=1000000> 
<DWph=2> <it=120> <et=45.60> <Mt= 0.07> <Spt= 3.23> <nCl=1000> <DB=-482914651.7413> <Mlp=75277265.8822> <PB=1000000> 
<DWph=2> <it=130> <et=48.80> <Mt= 0.08> <Spt= 3.12> <nCl=1000> <DB=-479876054.3236> <Mlp=54918728.7191> <PB=1000000> 
<DWph=2> <it=140> <et=52.97> <Mt= 0.05> <Spt= 4.08> <nCl=860> <DB=-378008232.6616> <Mlp=  237.6217> <PB=1000000> 
<DWph=2> <it=150> <et=57.11> <Mt= 0.04> <Spt= 4.09> <nCl=951> <DB= -105.4893> <Mlp=  236.6853> <PB=1000000> 
<DWph=2> <it=160> <et=60.35> <Mt= 0.07> <Spt= 3.17> <nCl=966> <DB=   91.5915> <Mlp=  232.6230> <PB=1000000> 
<DWph=2> <it=170> <et=63.61> <Mt= 0.08> <Spt= 3.16> <nCl=800> <DB=  171.2307> <Mlp=  228.7679> <PB=1000000> 
<DWph=2> <it=180> <et=67.11> <Mt= 0.10> <Spt= 3.36> <nCl=944> <DB=  207.0635> <Mlp=  227.9628> <PB=1000000> 
<DWph=2> <it=190> <et=70.85> <Mt= 0.09> <Spt= 3.64> <nCl=928> <DB=  220.0852> <Mlp=  227.6751> <PB=1000000> 
<DWph=2> <it=200> <et=74.52> <Mt= 0.10> <Spt= 3.56> <nCl=696> <DB=  224.5841> <Mlp=  227.5675> <PB=1000000> 
<DWph=2> <it=210> <et=78.33> <Mt= 0.10> <Spt= 3.71> <nCl=585> <DB=  226.9359> <Mlp=  227.5246> <PB=1000000> 
<DWph=2> <it=220> <et=82.31> <Mt= 0.06> <Spt= 3.92> <nCl=359> <DB=  227.4197> <Mlp=  227.5204> <PB=1000000> 
<DWph=2> <it=221> <et=82.99> <Mt= 0.00> <Spt= 0.67> <nCl=  0> <DB=  227.5204> <Mlp=  227.5204> <PB=1000000> 
<DWph=1> <it=225> <et=84.75> <Mt= 0.01> <Spt= 1.71> <nCl= 18> <DB=  227.5203> <Mlp=  227.5203> <PB=1000000> 
<DWph=0> <it=226> <et=85.09> <Mt= 0.01> <Spt= 0.33> <nCl=  0> <DB=  227.5203> <Mlp=  227.5203> <PB=1000000> 
Reduced cost fixing for graph G_1... took 13.36 sec., 1107672 buck. arcs remain (66.6% from prev., 26.3% from max.)
Run enumeration... took 0.42 sec. and not succeeded.
ColGenEvalAlg final dual bound: 227.52 (rounded: 228)
----------- Diving heuristic started -----------
<DWph=2> <it=  1> <et=99.01> <Mt= 0.00> <Spt= 0.00> <nCl=  0> <DB=  227.5203> <Mlp=  227.5203> <PB=1000000> 
<DWph=1> <it=  2> <et=99.01> <Mt= 0.00> <Spt= 0.00> <nCl=  0> <DB=  227.5203> <Mlp=  227.5203> <PB=1000000> 
---- Diving heuristic node with dive number = 0, fix depth = 0 and tabu list size = 0
Fixed projected solution = [x_1_0_1_OspV=1, x_1_237_1_OspV=1, x_1_328_1_OspV=1]
<DWph=2> <it=  1> <et=99.15> <Mt= 0.00> <Spt= 0.00> <nCl=  0> <DB=  227.5203> <Mlp=  227.5203> <PB=1000000> 
<DWph=1> <it=  2> <et=99.15> <Mt= 0.00> <Spt= 0.00> <nCl=  0> <DB=  227.5203> <Mlp=  227.5203> <PB=1000000> 
---- Diving heuristic node with dive number = 0, fix depth = 0 and tabu list size = 0
Fixed projected solution = [x_1_0_1_OspV=1, x_1_238_1_OspV=1, x_1_327_1_OspV=1]
<DWph=2> <it=  1> <et=99.29> <Mt= 0.00> <Spt= 0.00> <nCl=  0> <DB=  227.5203> <Mlp=  227.5203> <PB=1000000> 
<DWph=1> <it=  2> <et=99.29> <Mt= 0.01> <Spt= 0.00> <nCl=  0> <DB=  227.5203> <Mlp=  227.5203> <PB=1000000> 
---- Diving heuristic node with dive number = 0, fix depth = 0 and tabu list size = 0
Fixed projected solution = [x_1_0_1_OspV=1, x_1_240_1_OspV=1, x_1_324_1_OspV=1]
<DWph=2> <it=  1> <et=99.43> <Mt= 0.00> <Spt= 0.00> <nCl=  0> <DB=  227.5203> <Mlp=  227.5203> <PB=1000000> 
<DWph=1> <it=  2> <et=99.43> <Mt= 0.00> <Spt= 0.00> <nCl=  0> <DB=  227.5203> <Mlp=  227.5203> <PB=1000000> 
---- Diving heuristic node with dive number = 0, fix depth = 0 and tabu list size = 0
Fixed projected solution = [x_1_0_1_OspV=1, x_1_250_1_OspV=1, x_1_319_1_OspV=1]
<DWph=2> <it=  1> <et=99.57> <Mt= 0.00> <Spt= 0.00> <nCl=  0> <DB=  227.5203> <Mlp=  227.5203> <PB=1000000> 
<DWph=1> <it=  2> <et=99.57> <Mt= 0.00> <Spt= 0.00> <nCl=  0> <DB=  227.5203> <Mlp=  227.5203> <PB=1000000> 
---- Diving heuristic node with dive number = 0, fix depth = 0 and tabu list size = 0
Fixed projected solution = [x_1_0_1_OspV=1, x_1_251_1_OspV=1, x_1_317_1_OspV=1]
<DWph=2> <it=  1> <et=99.71> <Mt= 0.00> <Spt= 0.00> <nCl=  0> <DB=  227.5203> <Mlp=  227.5203> <PB=1000000> 
<DWph=1> <it=  2> <et=99.71> <Mt= 0.00> <Spt= 0.00> <nCl=  0> <DB=  227.5203> <Mlp=  227.5203> <PB=1000000> 
---- Diving heuristic node with dive number = 0, fix depth = 0 and tabu list size = 0
Fixed projected solution = [x_1_0_1_OspV=1, x_1_256_1_OspV=1, x_1_315_1_OspV=1]
<DWph=2> <it=  1> <et=99.85> <Mt= 0.01> <Spt= 0.00> <nCl=  0> <DB=  227.5203> <Mlp=  227.5203> <PB=1000000> 
<DWph=1> <it=  2> <et=99.85> <Mt= 0.00> <Spt= 0.00> <nCl=  0> <DB=  227.5203> <Mlp=  227.5203> <PB=1000000> 
---- Diving heuristic node with dive number = 0, fix depth = 0 and tabu list size = 0
Fixed projected solution = [x_1_0_1_OspV=1, x_1_258_1_OspV=1, x_1_314_1_OspV=1]
<DWph=2> <it=  1> <et=99.99> <Mt= 0.00> <Spt= 0.00> <nCl=  0> <DB=  227.5203> <Mlp=  227.5203> <PB=1000000> 
<DWph=1> <it=  2> <et=99.99> <Mt= 0.00> <Spt= 0.00> <nCl=  0> <DB=  227.5203> <Mlp=  227.5203> <PB=1000000> 
---- Diving heuristic node with dive number = 0, fix depth = 0 and tabu list size = 0
Fixed projected solution = [x_1_0_1_OspV=1, x_1_257_1_OspV=1, x_1_313_1_OspV=1]
<DWph=2> <it=  1> <et=100.13> <Mt= 0.00> <Spt= 0.00> <nCl=  0> <DB=  227.5203> <Mlp=  227.5203> <PB=1000000> 
<DWph=1> <it=  2> <et=100.13> <Mt= 0.00> <Spt= 0.00> <nCl=  0> <DB=  227.5203> <Mlp=  227.5203> <PB=1000000> 
---- Diving heuristic node with dive number = 0, fix depth = 0 and tabu list size = 0
Fixed projected solution = [x_1_0_1_OspV=1, x_1_259_1_OspV=1, x_1_312_1_OspV=1]
<DWph=2> <it=  1> <et=100.27> <Mt= 0.00> <Spt= 0.00> <nCl=  0> <DB=  227.5203> <Mlp=  227.5203> <PB=1000000> 
<DWph=1> <it=  2> <et=100.27> <Mt= 0.01> <Spt= 0.00> <nCl=  0> <DB=  227.5203> <Mlp=  227.5203> <PB=1000000> 
---- Diving heuristic node with dive number = 0, fix depth = 0 and tabu list size = 0
Fixed projected solution = [x_1_0_1_OspV=1, x_1_261_1_OspV=1, x_1_311_1_OspV=1]
<DWph=2> <it=  1> <et=100.41> <Mt= 0.00> <Spt= 0.00> <nCl=  0> <DB=  227.5203> <Mlp=  227.5203> <PB=1000000> 
<DWph=1> <it=  2> <et=100.41> <Mt= 0.00> <Spt= 0.00> <nCl=  0> <DB=  227.5203> <Mlp=  227.5203> <PB=1000000> 
---- Diving heuristic node with dive number = 0, fix depth = 0 and tabu list size = 0
Fixed projected solution = [x_1_0_1_OspV=1, x_1_263_1_OspV=1, x_1_310_1_OspV=1]
<DWph=2> <it=  1> <et=100.55> <Mt= 0.00> <Spt= 0.00> <nCl=  0> <DB=  227.5203> <Mlp=  227.5203> <PB=1000000> 
<DWph=1> <it=  2> <et=100.55> <Mt= 0.00> <Spt= 0.00> <nCl=  0> <DB=  227.5203> <Mlp=  227.5203> <PB=1000000> 
---- Diving heuristic node with dive number = 0, fix depth = 0 and tabu list size = 0
Fixed projected solution = [x_1_0_1_OspV=1, x_1_262_1_OspV=1, x_1_309_1_OspV=1]
<DWph=2> <it=  1> <et=100.69> <Mt= 0.00> <Spt= 0.00> <nCl=  0> <DB=  227.5203> <Mlp=  227.5203> <PB=1000000> 
<DWph=1> <it=  2> <et=100.69> <Mt= 0.00> <Spt= 0.00> <nCl=  0> <DB=  227.5203> <Mlp=  227.5203> <PB=1000000> 
---- Diving heuristic node with dive number = 0, fix depth = 0 and tabu list size = 0
Fixed projected solution = [x_1_0_1_OspV=1, x_1_264_1_OspV=1, x_1_307_1_OspV=1]
<DWph=2> <it=  1> <et=100.83> <Mt= 0.01> <Spt= 0.00> <nCl=  0> <DB=  227.5203> <Mlp=  227.5203> <PB=1000000> 
<DWph=1> <it=  2> <et=100.84> <Mt= 0.00> <Spt= 0.00> <nCl=  0> <DB=  227.5203> <Mlp=  227.5203> <PB=1000000> 
---- Diving heuristic node with dive number = 0, fix depth = 0 and tabu list size = 0
Fixed projected solution = [x_1_0_1_OspV=1, x_1_269_1_OspV=1, x_1_306_1_OspV=1]
<DWph=2> <it=  1> <et=100.98> <Mt= 0.00> <Spt= 0.00> <nCl=  0> <DB=  227.5203> <Mlp=  227.5203> <PB=1000000> 
<DWph=1> <it=  2> <et=100.98> <Mt= 0.00> <Spt= 0.00> <nCl=  0> <DB=  227.5203> <Mlp=  227.5203> <PB=1000000> 
---- Diving heuristic node with dive number = 0, fix depth = 0 and tabu list size = 0
Fixed projected solution = [x_1_0_1_OspV=1, x_1_274_1_OspV=1, x_1_305_1_OspV=1]
<DWph=2> <it=  1> <et=101.12> <Mt= 0.00> <Spt= 0.00> <nCl=  0> <DB=  227.5203> <Mlp=  227.5203> <PB=1000000> 
<DWph=1> <it=  2> <et=101.12> <Mt= 0.00> <Spt= 0.00> <nCl=  0> <DB=  227.5203> <Mlp=  227.5203> <PB=1000000> 
---- Diving heuristic node with dive number = 0, fix depth = 0 and tabu list size = 0
Fixed projected solution = [x_1_0_1_OspV=1, x_1_275_1_OspV=1, x_1_304_1_OspV=1]
<DWph=2> <it=  1> <et=101.26> <Mt= 0.01> <Spt= 0.00> <nCl=  0> <DB=  227.5203> <Mlp=  227.5203> <PB=1000000> 
<DWph=1> <it=  2> <et=101.26> <Mt= 0.00> <Spt= 0.00> <nCl=  0> <DB=  227.5203> <Mlp=  227.5203> <PB=1000000> 
---- Diving heuristic node with dive number = 0, fix depth = 0 and tabu list size = 0
Fixed projected solution = [x_1_0_1_OspV=1, x_1_273_1_OspV=1, x_1_303_1_OspV=1]
<DWph=2> <it=  1> <et=101.40> <Mt= 0.00> <Spt= 0.00> <nCl=  0> <DB=  227.5203> <Mlp=  227.5203> <PB=1000000> 
<DWph=1> <it=  2> <et=101.40> <Mt= 0.00> <Spt= 0.00> <nCl=  0> <DB=  227.5203> <Mlp=  227.5203> <PB=1000000> 
---- Diving heuristic node with dive number = 0, fix depth = 0 and tabu list size = 0
Fixed projected solution = [x_1_0_1_OspV=1, x_1_268_1_OspV=1, x_1_302_1_OspV=1]
<DWph=2> <it=  1> <et=101.56> <Mt= 0.00> <Spt= 0.00> <nCl=  0> <DB=  227.5203> <Mlp=  227.5203> <PB=1000000> 
<DWph=1> <it=  2> <et=101.56> <Mt= 0.00> <Spt= 0.00> <nCl=  0> <DB=  227.5203> <Mlp=  227.5203> <PB=1000000> 
---- Diving heuristic node with dive number = 0, fix depth = 0 and tabu list size = 0
Fixed projected solution = [x_1_0_1_OspV=1, x_1_276_1_OspV=1, x_1_301_1_OspV=1]
<DWph=2> <it=  1> <et=101.71> <Mt= 0.01> <Spt= 0.00> <nCl=  0> <DB=  227.5203> <Mlp=  227.5203> <PB=1000000> 
<DWph=1> <it=  2> <et=101.72> <Mt= 0.00> <Spt= 0.00> <nCl=  0> <DB=  227.5203> <Mlp=  227.5203> <PB=1000000> 
---- Diving heuristic node with dive number = 0, fix depth = 0 and tabu list size = 0
Fixed projected solution = [x_1_0_1_OspV=1, x_1_271_1_OspV=1, x_1_298_1_OspV=1]
<DWph=2> <it=  1> <et=101.87> <Mt= 0.00> <Spt= 0.00> <nCl=  0> <DB=  227.5203> <Mlp=  227.5203> <PB=1000000> 
<DWph=1> <it=  2> <et=101.87> <Mt= 0.00> <Spt= 0.00> <nCl=  0> <DB=  227.5203> <Mlp=  227.5203> <PB=1000000> 
---- Diving heuristic node with dive number = 0, fix depth = 0 and tabu list size = 0
Fixed projected solution = [x_1_0_1_OspV=1, x_1_270_1_OspV=1, x_1_295_1_OspV=1]
<DWph=2> <it=  1> <et=102.03> <Mt= 0.00> <Spt= 0.00> <nCl=  0> <DB=  227.5203> <Mlp=  227.5203> <PB=1000000> 
<DWph=1> <it=  2> <et=102.03> <Mt= 0.00> <Spt= 0.00> <nCl=  0> <DB=  227.5203> <Mlp=  227.5203> <PB=1000000> 
---- Diving heuristic node with dive number = 0, fix depth = 0 and tabu list size = 0
Fixed projected solution = [x_1_0_1_OspV=1, x_1_277_1_OspV=1, x_1_294_1_OspV=1]
<DWph=2> <it=  1> <et=102.18> <Mt= 0.01> <Spt= 0.00> <nCl=  0> <DB=  227.5203> <Mlp=  227.5203> <PB=1000000> 
<DWph=1> <it=  2> <et=102.18> <Mt= 0.00> <Spt= 0.00> <nCl=  0> <DB=  227.5203> <Mlp=  227.5203> <PB=1000000> 
---- Diving heuristic node with dive number = 0, fix depth = 0 and tabu list size = 0
Fixed projected solution = [x_1_0_1_OspV=1, x_1_282_1_OspV=1, x_1_293_1_OspV=1]
<DWph=2> <it=  1> <et=102.33> <Mt= 0.00> <Spt= 0.00> <nCl=  0> <DB=  227.5203> <Mlp=  227.5203> <PB=1000000> 
<DWph=1> <it=  2> <et=102.33> <Mt= 0.00> <Spt= 0.00> <nCl=  0> <DB=  227.5203> <Mlp=  227.5203> <PB=1000000> 
---- Diving heuristic node with dive number = 0, fix depth = 0 and tabu list size = 0
Fixed projected solution = [x_1_0_1_OspV=1, x_1_281_1_OspV=1, x_1_292_1_OspV=1]
<DWph=2> <it=  1> <et=102.48> <Mt= 0.00> <Spt= 0.00> <nCl=  0> <DB=  227.5203> <Mlp=  227.5203> <PB=1000000> 
<DWph=1> <it=  2> <et=102.49> <Mt= 0.00> <Spt= 0.00> <nCl=  0> <DB=  227.5203> <Mlp=  227.5203> <PB=1000000> 
---- Diving heuristic node with dive number = 0, fix depth = 0 and tabu list size = 0
Fixed projected solution = [x_1_0_1_OspV=1, x_1_278_1_OspV=1, x_1_291_1_OspV=1]
<DWph=2> <it=  1> <et=102.64> <Mt= 0.01> <Spt= 0.00> <nCl=  0> <DB=  227.5203> <Mlp=  227.5203> <PB=1000000> 
<DWph=1> <it=  2> <et=102.64> <Mt= 0.00> <Spt= 0.00> <nCl=  0> <DB=  227.5203> <Mlp=  227.5203> <PB=1000000> 
---- Diving heuristic node with dive number = 0, fix depth = 0 and tabu list size = 0
Fixed projected solution = [x_1_0_1_OspV=1, x_1_283_1_OspV=1, x_1_290_1_OspV=1]
<DWph=2> <it=  1> <et=102.80> <Mt= 0.00> <Spt= 0.00> <nCl=  0> <DB=  227.5203> <Mlp=  227.5203> <PB=1000000> 
<DWph=1> <it=  2> <et=102.80> <Mt= 0.00> <Spt= 0.00> <nCl=  0> <DB=  227.5203> <Mlp=  227.5203> <PB=1000000> 
---- Diving heuristic node with dive number = 0, fix depth = 0 and tabu list size = 0
Fixed projected solution = [x_1_0_1_OspV=1, x_1_272_1_OspV=1, x_1_289_1_OspV=1]
<DWph=2> <it=  1> <et=102.96> <Mt= 0.00> <Spt= 0.00> <nCl=  0> <DB=  227.5203> <Mlp=  227.5203> <PB=1000000> 
<DWph=1> <it=  2> <et=102.96> <Mt= 0.00> <Spt= 0.00> <nCl=  0> <DB=  227.5203> <Mlp=  227.5203> <PB=1000000> 
---- Diving heuristic node with dive number = 0, fix depth = 0 and tabu list size = 0
Fixed projected solution = [x_1_0_1_OspV=1, x_1_284_1_OspV=1, x_1_288_1_OspV=1]
<DWph=2> <it=  1> <et=103.11> <Mt= 0.01> <Spt= 0.00> <nCl=  0> <DB=  227.5203> <Mlp=  227.5203> <PB=1000000> 
<DWph=1> <it=  2> <et=103.11> <Mt= 0.00> <Spt= 0.00> <nCl=  0> <DB=  227.5203> <Mlp=  227.5203> <PB=1000000> 
---- Diving heuristic node with dive number = 0, fix depth = 0 and tabu list size = 0
Fixed projected solution = [x_1_0_1_OspV=1, x_1_285_1_OspV=1, x_1_286_1_OspV=1]
<DWph=2> <it=  1> <et=103.26> <Mt= 0.00> <Spt= 0.00> <nCl=  0> <DB=  227.5203> <Mlp=  227.5203> <PB=1000000> 
<DWph=1> <it=  2> <et=103.26> <Mt= 0.00> <Spt= 0.00> <nCl=  0> <DB=  227.5203> <Mlp=  227.5203> <PB=1000000> 
---- Diving heuristic node with dive number = 0, fix depth = 0 and tabu list size = 0
Fixed projected solution = [x_1_0_1_OspV=1, x_1_239_1_OspV=1, x_1_325_1_OspV=1]
<DWph=2> <it=  1> <et=103.41> <Mt= 0.00> <Spt= 0.00> <nCl=  0> <DB=  227.5203> <Mlp=  227.5203> <PB=1000000> 
<DWph=1> <it=  2> <et=103.41> <Mt= 0.00> <Spt= 0.00> <nCl=  0> <DB=  227.5203> <Mlp=  227.5203> <PB=1000000> 
---- Diving heuristic node with dive number = 0, fix depth = 0 and tabu list size = 0
Fixed projected solution = [x_1_0_1_OspV=1, x_1_255_1_OspV=1, x_1_316_1_OspV=1]
<DWph=2> <it=  1> <et=103.55> <Mt= 0.01> <Spt= 0.00> <nCl=  0> <DB=  227.5203> <Mlp=  227.5203> <PB=1000000> 
<DWph=1> <it=  2> <et=103.55> <Mt= 0.00> <Spt= 0.00> <nCl=  0> <DB=  227.5203> <Mlp=  227.5203> <PB=1000000> 
---- Diving heuristic node with dive number = 0, fix depth = 0 and tabu list size = 0
Fixed projected solution = [x_1_0_1_OspV=1, x_1_224_1_OspV=1, x_1_338_1_OspV=1]
<DWph=2> <it=  1> <et=103.70> <Mt= 0.00> <Spt= 0.00> <nCl=  0> <DB=  227.5203> <Mlp=  227.5203> <PB=1000000> 
<DWph=1> <it=  2> <et=103.70> <Mt= 0.00> <Spt= 0.00> <nCl=  0> <DB=  227.5203> <Mlp=  227.5203> <PB=1000000> 
---- Diving heuristic node with dive number = 0, fix depth = 0 and tabu list size = 0
Fixed projected solution = [x_1_0_1_OspV=1, x_1_219_1_OspV=1, x_1_343_1_OspV=1]
<DWph=2> <it=  1> <et=103.84> <Mt= 0.00> <Spt= 0.00> <nCl=  0> <DB=  227.5203> <Mlp=  227.5203> <PB=1000000> 
<DWph=1> <it=  2> <et=103.84> <Mt= 0.00> <Spt= 0.00> <nCl=  0> <DB=  227.5203> <Mlp=  227.5203> <PB=1000000> 
---- Diving heuristic node with dive number = 0, fix depth = 0 and tabu list size = 0
Fixed projected solution = [x_1_0_1_OspV=1, x_1_234_1_OspV=1, x_1_330_1_OspV=1]
<DWph=2> <it=  1> <et=103.98> <Mt= 0.00> <Spt= 0.00> <nCl=  0> <DB=  227.5203> <Mlp=  227.5203> <PB=1000000> 
<DWph=1> <it=  2> <et=103.98> <Mt= 0.01> <Spt= 0.00> <nCl=  0> <DB=  227.5203> <Mlp=  227.5203> <PB=1000000> 
---- Diving heuristic node with dive number = 0, fix depth = 0 and tabu list size = 0
Fixed projected solution = [x_1_0_1_OspV=1, x_1_236_1_OspV=1, x_1_326_1_OspV=1]
<DWph=2> <it=  1> <et=104.12> <Mt= 0.00> <Spt= 0.00> <nCl=  0> <DB=  227.5203> <Mlp=  227.5203> <PB=1000000> 
<DWph=1> <it=  2> <et=104.13> <Mt= 0.00> <Spt= 0.00> <nCl=  0> <DB=  227.5203> <Mlp=  227.5203> <PB=1000000> 
---- Diving heuristic node with dive number = 0, fix depth = 0 and tabu list size = 0
Fixed projected solution = [x_1_0_1_OspV=1, x_1_213_1_OspV=1, x_1_347_1_OspV=1]
<DWph=2> <it=  1> <et=104.27> <Mt= 0.00> <Spt= 0.00> <nCl=  0> <DB=  227.5203> <Mlp=  227.5203> <PB=1000000> 
<DWph=1> <it=  2> <et=104.27> <Mt= 0.00> <Spt= 0.00> <nCl=  0> <DB=  227.5203> <Mlp=  227.5203> <PB=1000000> 
---- Diving heuristic node with dive number = 0, fix depth = 0 and tabu list size = 0
Fixed projected solution = [x_1_0_1_OspV=1, x_1_215_1_OspV=1, x_1_346_1_OspV=1]
<DWph=2> <it=  1> <et=104.41> <Mt= 0.00> <Spt= 0.00> <nCl=  0> <DB=  227.5203> <Mlp=  227.5203> <PB=1000000> 
<DWph=1> <it=  2> <et=104.41> <Mt= 0.00> <Spt= 0.00> <nCl=  0> <DB=  227.5203> <Mlp=  227.5203> <PB=1000000> 
---- Diving heuristic node with dive number = 0, fix depth = 0 and tabu list size = 0
Fixed projected solution = [x_1_0_1_OspV=1, x_1_221_1_OspV=1, x_1_339_1_OspV=1]
<DWph=2> <it=  1> <et=104.55> <Mt= 0.01> <Spt= 0.00> <nCl=  0> <DB=  227.5203> <Mlp=  227.5203> <PB=1000000> 
<DWph=1> <it=  2> <et=104.56> <Mt= 0.00> <Spt= 0.00> <nCl=  0> <DB=  227.5203> <Mlp=  227.5203> <PB=1000000> 
---- Diving heuristic node with dive number = 0, fix depth = 0 and tabu list size = 0
Fixed projected solution = [x_1_0_1_OspV=1, x_1_191_1_OspV=1, x_1_368_1_OspV=1]
<DWph=2> <it=  1> <et=104.70> <Mt= 0.00> <Spt= 0.00> <nCl=  0> <DB=  227.5203> <Mlp=  227.5203> <PB=1000000> 
<DWph=1> <it=  2> <et=104.70> <Mt= 0.00> <Spt= 0.00> <nCl=  0> <DB=  227.5203> <Mlp=  227.5203> <PB=1000000> 
---- Diving heuristic node with dive number = 0, fix depth = 0 and tabu list size = 0
Fixed projected solution = [x_1_0_1_OspV=1, x_1_186_1_OspV=1, x_1_374_1_OspV=1]
<DWph=2> <it=  1> <et=104.84> <Mt= 0.00> <Spt= 0.00> <nCl=  0> <DB=  227.5203> <Mlp=  227.5203> <PB=1000000> 
<DWph=1> <it=  2> <et=104.84> <Mt= 0.00> <Spt= 0.00> <nCl=  0> <DB=  227.5203> <Mlp=  227.5203> <PB=1000000> 
---- Diving heuristic node with dive number = 0, fix depth = 0 and tabu list size = 0
Fixed projected solution = [x_1_0_1_OspV=1, x_1_216_1_OspV=1, x_1_345_1_OspV=1]
<DWph=2> <it=  1> <et=104.99> <Mt= 0.01> <Spt= 0.00> <nCl=  0> <DB=  227.5203> <Mlp=  227.5203> <PB=1000000> 
<DWph=1> <it=  2> <et=104.99> <Mt= 0.00> <Spt= 0.00> <nCl=  0> <DB=  227.5203> <Mlp=  227.5203> <PB=1000000> 
---- Diving heuristic node with dive number = 0, fix depth = 0 and tabu list size = 0
Fixed projected solution = [x_1_0_1_OspV=1, x_1_209_1_OspV=1, x_1_351_1_OspV=1]
<DWph=2> <it=  1> <et=105.13> <Mt= 0.00> <Spt= 0.00> <nCl=  0> <DB=  227.5203> <Mlp=  227.5203> <PB=1000000> 
<DWph=1> <it=  2> <et=105.13> <Mt= 0.00> <Spt= 0.00> <nCl=  0> <DB=  227.5203> <Mlp=  227.5203> <PB=1000000> 
---- Diving heuristic node with dive number = 0, fix depth = 0 and tabu list size = 0
Fixed projected solution = [x_1_0_1_OspV=1, x_1_222_1_OspV=1, x_1_340_1_OspV=1]
<DWph=2> <it=  1> <et=105.27> <Mt= 0.00> <Spt= 0.00> <nCl=  0> <DB=  227.5203> <Mlp=  227.5203> <PB=1000000> 
<DWph=1> <it=  2> <et=105.27> <Mt= 0.00> <Spt= 0.00> <nCl=  0> <DB=  227.5203> <Mlp=  227.5203> <PB=1000000> 
---- Diving heuristic node with dive number = 0, fix depth = 0 and tabu list size = 0
Fixed projected solution = [x_1_0_1_OspV=1, x_1_211_1_OspV=1, x_1_349_1_OspV=1]
<DWph=2> <it=  1> <et=105.42> <Mt= 0.00> <Spt= 0.00> <nCl=  0> <DB=  227.5203> <Mlp=  227.5203> <PB=1000000> 
<DWph=1> <it=  2> <et=105.42> <Mt= 0.01> <Spt= 0.00> <nCl=  0> <DB=  227.5203> <Mlp=  227.5203> <PB=1000000> 
---- Diving heuristic node with dive number = 0, fix depth = 0 and tabu list size = 0
Fixed projected solution = [x_1_0_1_OspV=1, x_1_203_1_OspV=1, x_1_354_1_OspV=1]
<DWph=2> <it=  1> <et=105.56> <Mt= 0.00> <Spt= 0.00> <nCl=  0> <DB=  227.5203> <Mlp=  227.5203> <PB=1000000> 
<DWph=1> <it=  2> <et=105.56> <Mt= 0.00> <Spt= 0.00> <nCl=  0> <DB=  227.5203> <Mlp=  227.5203> <PB=1000000> 
---- Diving heuristic node with dive number = 0, fix depth = 0 and tabu list size = 0
Fixed projected solution = [x_1_0_1_OspV=1, x_1_171_1_OspV=1, x_1_389_1_OspV=1]
<DWph=2> <it=  1> <et=105.71> <Mt= 0.00> <Spt= 0.00> <nCl=  0> <DB=  227.5203> <Mlp=  227.5203> <PB=1000000> 
<DWph=1> <it=  2> <et=105.71> <Mt= 0.00> <Spt= 0.00> <nCl=  0> <DB=  227.5203> <Mlp=  227.5203> <PB=1000000> 
---- Diving heuristic node with dive number = 0, fix depth = 0 and tabu list size = 0
Fixed projected solution = [x_1_0_1_OspV=1, x_1_168_1_OspV=1, x_1_397_1_OspV=1]
<DWph=2> <it=  1> <et=105.85> <Mt= 0.00> <Spt= 0.00> <nCl=  0> <DB=  227.5203> <Mlp=  227.5203> <PB=1000000> 
<DWph=1> <it=  2> <et=105.85> <Mt= 0.01> <Spt= 0.00> <nCl=  0> <DB=  227.5203> <Mlp=  227.5203> <PB=1000000> 
---- Diving heuristic node with dive number = 0, fix depth = 0 and tabu list size = 0
Fixed projected solution = [x_1_0_1_OspV=1, x_1_190_1_OspV=1, x_1_365_1_OspV=1]
<DWph=2> <it=  1> <et=106.00> <Mt= 0.00> <Spt= 0.00> <nCl=  0> <DB=  227.5203> <Mlp=  227.5203> <PB=1000000> 
<DWph=1> <it=  2> <et=106.00> <Mt= 0.00> <Spt= 0.00> <nCl=  0> <DB=  227.5203> <Mlp=  227.5203> <PB=1000000> 
---- Diving heuristic node with dive number = 0, fix depth = 0 and tabu list size = 0
Fixed projected solution = [x_1_0_1_OspV=1, x_1_189_1_OspV=1, x_1_366_1_OspV=1]
<DWph=2> <it=  1> <et=106.14> <Mt= 0.00> <Spt= 0.00> <nCl=  0> <DB=  227.5203> <Mlp=  227.5203> <PB=1000000> 
<DWph=1> <it=  2> <et=106.14> <Mt= 0.00> <Spt= 0.00> <nCl=  0> <DB=  227.5203> <Mlp=  227.5203> <PB=1000000> 
---- Diving heuristic node with dive number = 0, fix depth = 0 and tabu list size = 0
Fixed projected solution = [x_1_0_1_OspV=1, x_1_217_1_OspV=1, x_1_341_1_OspV=1]
<DWph=2> <it=  1> <et=106.28> <Mt= 0.00> <Spt= 0.00> <nCl=  0> <DB=  227.5203> <Mlp=  227.5203> <PB=1000000> 
<DWph=1> <it=  2> <et=106.28> <Mt= 0.00> <Spt= 0.00> <nCl=  0> <DB=  227.5203> <Mlp=  227.5203> <PB=1000000> 
---- Diving heuristic node with dive number = 0, fix depth = 0 and tabu list size = 0
Fixed projected solution = [x_1_0_1_OspV=1, x_1_195_1_OspV=1, x_1_362_1_OspV=1]
<DWph=2> <it=  1> <et=106.43> <Mt= 0.01> <Spt= 0.00> <nCl=  0> <DB=  227.5203> <Mlp=  227.5203> <PB=1000000> 
<DWph=1> <it=  2> <et=106.43> <Mt= 0.00> <Spt= 0.00> <nCl=  0> <DB=  227.5203> <Mlp=  227.5203> <PB=1000000> 
---- Diving heuristic node with dive number = 0, fix depth = 0 and tabu list size = 0
Fixed projected solution = [x_1_0_1_OspV=1, x_1_193_1_OspV=1, x_1_363_1_OspV=1]
<DWph=2> <it=  1> <et=106.57> <Mt= 0.00> <Spt= 0.00> <nCl=  0> <DB=  227.5203> <Mlp=  227.5203> <PB=1000000> 
<DWph=1> <it=  2> <et=106.57> <Mt= 0.00> <Spt= 0.00> <nCl=  0> <DB=  227.5203> <Mlp=  227.5203> <PB=1000000> 
---- Diving heuristic node with dive number = 0, fix depth = 0 and tabu list size = 0
Fixed projected solution = [x_1_0_1_OspV=1, x_1_207_1_OspV=1, x_1_353_1_OspV=1]
<DWph=2> <it=  1> <et=106.71> <Mt= 0.00> <Spt= 0.00> <nCl=  0> <DB=  227.5203> <Mlp=  227.5203> <PB=1000000> 
<DWph=1> <it=  2> <et=106.72> <Mt= 0.00> <Spt= 0.00> <nCl=  0> <DB=  227.5203> <Mlp=  227.5203> <PB=1000000> 
---- Diving heuristic node with dive number = 0, fix depth = 0 and tabu list size = 0
Fixed projected solution = [x_1_0_1_OspV=1, x_1_204_1_OspV=1, x_1_357_1_OspV=1]
<DWph=2> <it=  1> <et=106.86> <Mt= 0.01> <Spt= 0.00> <nCl=  0> <DB=  227.5203> <Mlp=  227.5203> <PB=1000000> 
<DWph=1> <it=  2> <et=106.86> <Mt= 0.00> <Spt= 0.00> <nCl=  0> <DB=  227.5203> <Mlp=  227.5203> <PB=1000000> 
---- Diving heuristic node with dive number = 0, fix depth = 0 and tabu list size = 0
Fixed projected solution = [x_1_0_1_OspV=1, x_1_199_1_OspV=1, x_1_358_1_OspV=1]
<DWph=2> <it=  1> <et=107.00> <Mt= 0.00> <Spt= 0.00> <nCl=  0> <DB=  227.5203> <Mlp=  227.5203> <PB=1000000> 
<DWph=1> <it=  2> <et=107.00> <Mt= 0.00> <Spt= 0.00> <nCl=  0> <DB=  227.5203> <Mlp=  227.5203> <PB=1000000> 
---- Diving heuristic node with dive number = 0, fix depth = 0 and tabu list size = 0
Fixed projected solution = [x_1_0_1_OspV=1, x_1_176_1_OspV=1, x_1_384_1_OspV=1]
<DWph=2> <it=  1> <et=107.15> <Mt= 0.00> <Spt= 0.00> <nCl=  0> <DB=  227.5203> <Mlp=  227.5203> <PB=1000000> 
<DWph=1> <it=  2> <et=107.15> <Mt= 0.00> <Spt= 0.00> <nCl=  0> <DB=  227.5203> <Mlp=  227.5203> <PB=1000000> 
---- Diving heuristic node with dive number = 0, fix depth = 0 and tabu list size = 0
Fixed projected solution = [x_1_0_1_OspV=1, x_1_174_1_OspV=1, x_1_386_1_OspV=1]
<DWph=2> <it=  1> <et=107.29> <Mt= 0.00> <Spt= 0.00> <nCl=  0> <DB=  227.5203> <Mlp=  227.5203> <PB=1000000> 
<DWph=1> <it=  2> <et=107.29> <Mt= 0.01> <Spt= 0.00> <nCl=  0> <DB=  227.5203> <Mlp=  227.5203> <PB=1000000> 
---- Diving heuristic node with dive number = 0, fix depth = 0 and tabu list size = 0
Fixed projected solution = [x_1_0_1_OspV=1, x_1_175_1_OspV=1, x_1_385_1_OspV=1]
<DWph=2> <it=  1> <et=107.44> <Mt= 0.00> <Spt= 0.00> <nCl=  0> <DB=  227.5203> <Mlp=  227.5203> <PB=1000000> 
<DWph=1> <it=  2> <et=107.44> <Mt= 0.00> <Spt= 0.00> <nCl=  0> <DB=  227.5203> <Mlp=  227.5203> <PB=1000000> 
---- Diving heuristic node with dive number = 0, fix depth = 0 and tabu list size = 0
Fixed projected solution = [x_1_0_1_OspV=1, x_1_172_1_OspV=1, x_1_390_1_OspV=1]
<DWph=2> <it=  1> <et=107.58> <Mt= 0.00> <Spt= 0.00> <nCl=  0> <DB=  227.5203> <Mlp=  227.5203> <PB=1000000> 
<DWph=1> <it=  2> <et=107.58> <Mt= 0.00> <Spt= 0.00> <nCl=  0> <DB=  227.5203> <Mlp=  227.5203> <PB=1000000> 
---- Diving heuristic node with dive number = 0, fix depth = 0 and tabu list size = 0
Fixed projected solution = [x_1_0_1_OspV=1, x_1_173_1_OspV=1, x_1_387_1_OspV=1]
<DWph=2> <it=  1> <et=107.72> <Mt= 0.00> <Spt= 0.00> <nCl=  0> <DB=  227.5203> <Mlp=  227.5203> <PB=1000000> 
<DWph=1> <it=  2> <et=107.73> <Mt= 0.00> <Spt= 0.00> <nCl=  0> <DB=  227.5203> <Mlp=  227.5203> <PB=1000000> 
---- Diving heuristic node with dive number = 0, fix depth = 0 and tabu list size = 0
Fixed projected solution = [x_1_0_1_OspV=1, x_1_227_1_OspV=1, x_1_334_1_OspV=1]
<DWph=2> <it=  1> <et=107.87> <Mt= 0.01> <Spt= 0.00> <nCl=  0> <DB=  227.5203> <Mlp=  227.5203> <PB=1000000> 
<DWph=1> <it=  2> <et=107.87> <Mt= 0.00> <Spt= 0.00> <nCl=  0> <DB=  227.5203> <Mlp=  227.5203> <PB=1000000> 
---- Diving heuristic node with dive number = 0, fix depth = 0 and tabu list size = 0
Fixed projected solution = [x_1_0_1_OspV=1, x_1_228_1_OspV=1, x_1_336_1_OspV=1]
<DWph=2> <it=  1> <et=108.01> <Mt= 0.00> <Spt= 0.00> <nCl=  0> <DB=  227.5203> <Mlp=  227.5203> <PB=1000000> 
<DWph=1> <it=  2> <et=108.02> <Mt= 0.00> <Spt= 0.00> <nCl=  0> <DB=  227.5203> <Mlp=  227.5203> <PB=1000000> 
---- Diving heuristic node with dive number = 0, fix depth = 0 and tabu list size = 0
Fixed projected solution = [x_1_0_1_OspV=1, x_1_229_1_OspV=1, x_1_332_1_OspV=1]
<DWph=2> <it=  1> <et=108.16> <Mt= 0.00> <Spt= 0.00> <nCl=  0> <DB=  227.5203> <Mlp=  227.5203> <PB=1000000> 
<DWph=1> <it=  2> <et=108.16> <Mt= 0.00> <Spt= 0.00> <nCl=  0> <DB=  227.5203> <Mlp=  227.5203> <PB=1000000> 
---- Diving heuristic node with dive number = 0, fix depth = 0 and tabu list size = 0
Fixed projected solution = [x_1_0_1_OspV=1, x_1_162_1_OspV=1, x_1_401_1_OspV=1]
<DWph=2> <it=  1> <et=108.30> <Mt= 0.00> <Spt= 0.00> <nCl=  0> <DB=  227.5203> <Mlp=  227.5203> <PB=1000000> 
<DWph=1> <it=  2> <et=108.30> <Mt= 0.01> <Spt= 0.00> <nCl=  0> <DB=  227.5203> <Mlp=  227.5203> <PB=1000000> 
---- Diving heuristic node with dive number = 0, fix depth = 0 and tabu list size = 0
Fixed projected solution = [x_1_0_1_OspV=1, x_1_125_1_OspV=1, x_1_435_1_OspV=1]
<DWph=2> <it=  1> <et=108.45> <Mt= 0.00> <Spt= 0.00> <nCl=  0> <DB=  227.5203> <Mlp=  227.5203> <PB=1000000> 
<DWph=1> <it=  2> <et=108.45> <Mt= 0.00> <Spt= 0.00> <nCl=  0> <DB=  227.5203> <Mlp=  227.5203> <PB=1000000> 
---- Diving heuristic node with dive number = 0, fix depth = 0 and tabu list size = 0
Fixed projected solution = [x_1_0_1_OspV=1, x_1_184_1_OspV=1, x_1_372_1_OspV=1]
<DWph=2> <it=  1> <et=108.59> <Mt= 0.00> <Spt= 0.00> <nCl=  0> <DB=  227.5203> <Mlp=  227.5203> <PB=1000000> 
<DWph=1> <it=  2> <et=108.59> <Mt= 0.00> <Spt= 0.00> <nCl=  0> <DB=  227.5203> <Mlp=  227.5203> <PB=1000000> 
---- Diving heuristic node with dive number = 0, fix depth = 0 and tabu list size = 0
Fixed projected solution = [x_1_0_1_OspV=1, x_1_127_1_OspV=1, x_1_432_1_OspV=1]
<DWph=2> <it=  1> <et=108.74> <Mt= 0.00> <Spt= 0.00> <nCl=  0> <DB=  227.5203> <Mlp=  227.5203> <PB=1000000> 
<DWph=1> <it=  2> <et=108.74> <Mt= 0.01> <Spt= 0.00> <nCl=  0> <DB=  227.5203> <Mlp=  227.5203> <PB=1000000> 
---- Diving heuristic node with dive number = 0, fix depth = 0 and tabu list size = 0
Fixed projected solution = [x_1_0_1_OspV=1, x_1_142_1_OspV=1, x_1_417_1_OspV=1]
<DWph=2> <it=  1> <et=108.88> <Mt= 0.00> <Spt= 0.00> <nCl=  0> <DB=  227.5203> <Mlp=  227.5203> <PB=1000000> 
<DWph=1> <it=  2> <et=108.88> <Mt= 0.00> <Spt= 0.00> <nCl=  0> <DB=  227.5203> <Mlp=  227.5203> <PB=1000000> 
---- Diving heuristic node with dive number = 0, fix depth = 0 and tabu list size = 0
Fixed projected solution = [x_1_0_1_OspV=1, x_1_156_1_OspV=1, x_1_410_1_OspV=1]
<DWph=2> <it=  1> <et=109.03> <Mt= 0.00> <Spt= 0.00> <nCl=  0> <DB=  227.5203> <Mlp=  227.5203> <PB=1000000> 
<DWph=1> <it=  2> <et=109.03> <Mt= 0.00> <Spt= 0.00> <nCl=  0> <DB=  227.5203> <Mlp=  227.5203> <PB=1000000> 
---- Diving heuristic node with dive number = 0, fix depth = 0 and tabu list size = 0
Fixed projected solution = [x_1_0_1_OspV=1, x_1_155_1_OspV=1, x_1_408_1_OspV=1]
<DWph=2> <it=  1> <et=109.17> <Mt= 0.00> <Spt= 0.00> <nCl=  0> <DB=  227.5203> <Mlp=  227.5203> <PB=1000000> 
<DWph=1> <it=  2> <et=109.17> <Mt= 0.00> <Spt= 0.00> <nCl=  0> <DB=  227.5203> <Mlp=  227.5203> <PB=1000000> 
---- Diving heuristic node with dive number = 0, fix depth = 0 and tabu list size = 0
Fixed projected solution = [x_1_0_1_OspV=1, x_1_120_1_OspV=1, x_1_442_1_OspV=1]
<DWph=2> <it=  1> <et=109.32> <Mt= 0.01> <Spt= 0.00> <nCl=  0> <DB=  227.5203> <Mlp=  227.5203> <PB=1000000> 
<DWph=1> <it=  2> <et=109.32> <Mt= 0.00> <Spt= 0.00> <nCl=  0> <DB=  227.5203> <Mlp=  227.5203> <PB=1000000> 
---- Diving heuristic node with dive number = 0, fix depth = 0 and tabu list size = 0
Fixed projected solution = [x_1_0_1_OspV=1, x_1_119_1_OspV=1, x_1_445_1_OspV=1]
<DWph=2> <it=  1> <et=109.46> <Mt= 0.00> <Spt= 0.00> <nCl=  0> <DB=  227.5203> <Mlp=  227.5203> <PB=1000000> 
<DWph=1> <it=  2> <et=109.46> <Mt= 0.00> <Spt= 0.00> <nCl=  0> <DB=  227.5203> <Mlp=  227.5203> <PB=1000000> 
---- Diving heuristic node with dive number = 0, fix depth = 0 and tabu list size = 0
Fixed projected solution = [x_1_0_1_OspV=1, x_1_141_1_OspV=1, x_1_419_1_OspV=1]
<DWph=2> <it=  1> <et=109.61> <Mt= 0.00> <Spt= 0.00> <nCl=  0> <DB=  227.5203> <Mlp=  227.5203> <PB=1000000> 
<DWph=1> <it=  2> <et=109.61> <Mt= 0.00> <Spt= 0.00> <nCl=  0> <DB=  227.5203> <Mlp=  227.5203> <PB=1000000> 
---- Diving heuristic node with dive number = 0, fix depth = 0 and tabu list size = 0
Fixed projected solution = [x_1_0_1_OspV=1, x_1_129_1_OspV=1, x_1_431_1_OspV=1]
<DWph=2> <it=  1> <et=109.75> <Mt= 0.00> <Spt= 0.00> <nCl=  0> <DB=  227.5203> <Mlp=  227.5203> <PB=1000000> 
<DWph=1> <it=  2> <et=109.75> <Mt= 0.01> <Spt= 0.00> <nCl=  0> <DB=  227.5203> <Mlp=  227.5203> <PB=1000000> 
---- Diving heuristic node with dive number = 0, fix depth = 0 and tabu list size = 0
Fixed projected solution = [x_1_0_1_OspV=1, x_1_130_1_OspV=1, x_1_429_1_OspV=1]
<DWph=2> <it=  1> <et=109.90> <Mt= 0.00> <Spt= 0.00> <nCl=  0> <DB=  227.5203> <Mlp=  227.5203> <PB=1000000> 
<DWph=1> <it=  2> <et=109.90> <Mt= 0.00> <Spt= 0.00> <nCl=  0> <DB=  227.5203> <Mlp=  227.5203> <PB=1000000> 
---- Diving heuristic node with dive number = 0, fix depth = 0 and tabu list size = 0
Fixed projected solution = [x_1_0_1_OspV=1, x_1_139_1_OspV=1, x_1_422_1_OspV=1]
<DWph=2> <it=  1> <et=110.04> <Mt= 0.00> <Spt= 0.00> <nCl=  0> <DB=  227.5203> <Mlp=  227.5203> <PB=1000000> 
<DWph=1> <it=  2> <et=110.04> <Mt= 0.00> <Spt= 0.00> <nCl=  0> <DB=  227.5203> <Mlp=  227.5203> <PB=1000000> 
---- Diving heuristic node with dive number = 0, fix depth = 0 and tabu list size = 0
Fixed projected solution = [x_1_0_1_OspV=1, x_1_161_1_OspV=1, x_1_403_1_OspV=1]
<DWph=2> <it=  1> <et=110.19> <Mt= 0.00> <Spt= 0.00> <nCl=  0> <DB=  227.5203> <Mlp=  227.5203> <PB=1000000> 
<DWph=1> <it=  2> <et=110.19> <Mt= 0.01> <Spt= 0.00> <nCl=  0> <DB=  227.5203> <Mlp=  227.5203> <PB=1000000> 
---- Diving heuristic node with dive number = 0, fix depth = 0 and tabu list size = 0
Fixed projected solution = [x_1_0_1_OspV=1, x_1_140_1_OspV=1, x_1_418_1_OspV=1]
<DWph=2> <it=  1> <et=110.34> <Mt= 0.00> <Spt= 0.00> <nCl=  0> <DB=  227.5203> <Mlp=  227.5203> <PB=1000000> 
<DWph=1> <it=  2> <et=110.34> <Mt= 0.00> <Spt= 0.00> <nCl=  0> <DB=  227.5203> <Mlp=  227.5203> <PB=1000000> 
---- Diving heuristic node with dive number = 0, fix depth = 0 and tabu list size = 0
Fixed projected solution = [x_1_0_1_OspV=1, x_1_118_1_OspV=1, x_1_450_1_OspV=1]
<DWph=2> <it=  1> <et=110.49> <Mt= 0.00> <Spt= 0.00> <nCl=  0> <DB=  227.5203> <Mlp=  227.5203> <PB=1000000> 
<DWph=1> <it=  2> <et=110.50> <Mt= 0.00> <Spt= 0.00> <nCl=  0> <DB=  227.5203> <Mlp=  227.5203> <PB=1000000> 
---- Diving heuristic node with dive number = 0, fix depth = 0 and tabu list size = 0
Fixed projected solution = [x_1_0_1_OspV=1, x_1_110_1_OspV=1, x_1_458_1_OspV=1]
<DWph=2> <it=  1> <et=110.65> <Mt= 0.00> <Spt= 0.00> <nCl=  0> <DB=  227.5203> <Mlp=  227.5203> <PB=1000000> 
<DWph=1> <it=  2> <et=110.65> <Mt= 0.01> <Spt= 0.00> <nCl=  0> <DB=  227.5203> <Mlp=  227.5203> <PB=1000000> 
---- Diving heuristic node with dive number = 0, fix depth = 0 and tabu list size = 0
Fixed projected solution = [x_1_0_1_OspV=1, x_1_131_1_OspV=1, x_1_430_1_OspV=1]
<DWph=2> <it=  1> <et=110.80> <Mt= 0.00> <Spt= 0.00> <nCl=  0> <DB=  227.5203> <Mlp=  227.5203> <PB=1000000> 
<DWph=1> <it=  2> <et=110.80> <Mt= 0.00> <Spt= 0.00> <nCl=  0> <DB=  227.5203> <Mlp=  227.5203> <PB=1000000> 
---- Diving heuristic node with dive number = 0, fix depth = 0 and tabu list size = 0
Fixed projected solution = [x_1_0_1_OspV=1, x_1_158_1_OspV=1, x_1_405_1_OspV=1]
<DWph=2> <it=  1> <et=110.96> <Mt= 0.00> <Spt= 0.00> <nCl=  0> <DB=  227.5203> <Mlp=  227.5203> <PB=1000000> 
<DWph=1> <it=  2> <et=110.96> <Mt= 0.00> <Spt= 0.00> <nCl=  0> <DB=  227.5203> <Mlp=  227.5203> <PB=1000000> 
---- Diving heuristic node with dive number = 0, fix depth = 0 and tabu list size = 0
Fixed projected solution = [x_1_0_1_OspV=1, x_1_148_1_OspV=1, x_1_413_1_OspV=1]
<DWph=2> <it=  1> <et=111.12> <Mt= 0.00> <Spt= 0.00> <nCl=  0> <DB=  227.5203> <Mlp=  227.5203> <PB=1000000> 
<DWph=1> <it=  2> <et=111.12> <Mt= 0.01> <Spt= 0.00> <nCl=  0> <DB=  227.5203> <Mlp=  227.5203> <PB=1000000> 
---- Diving heuristic node with dive number = 0, fix depth = 0 and tabu list size = 0
Fixed projected solution = [x_1_0_1_OspV=1, x_1_135_1_OspV=1, x_1_428_1_OspV=1]
<DWph=2> <it=  1> <et=111.28> <Mt= 0.00> <Spt= 0.00> <nCl=  0> <DB=  227.5203> <Mlp=  227.5203> <PB=1000000> 
<DWph=1> <it=  2> <et=111.28> <Mt= 0.00> <Spt= 0.00> <nCl=  0> <DB=  227.5203> <Mlp=  227.5203> <PB=1000000> 
---- Diving heuristic node with dive number = 0, fix depth = 0 and tabu list size = 0
Fixed projected solution = [x_1_0_1_OspV=1, x_1_137_1_OspV=1, x_1_425_1_OspV=1]
<DWph=2> <it=  1> <et=111.43> <Mt= 0.00> <Spt= 0.00> <nCl=  0> <DB=  227.5203> <Mlp=  227.5203> <PB=1000000> 
<DWph=1> <it=  2> <et=111.43> <Mt= 0.00> <Spt= 0.00> <nCl=  0> <DB=  227.5203> <Mlp=  227.5203> <PB=1000000> 
---- Diving heuristic node with dive number = 0, fix depth = 0 and tabu list size = 0
Fixed projected solution = [x_1_0_1_OspV=1, x_1_159_1_OspV=1, x_1_402_1_OspV=1]
<DWph=2> <it=  1> <et=111.57> <Mt= 0.00> <Spt= 0.00> <nCl=  0> <DB=  227.5203> <Mlp=  227.5203> <PB=1000000> 
<DWph=1> <it=  2> <et=111.57> <Mt= 0.00> <Spt= 0.00> <nCl=  0> <DB=  227.5203> <Mlp=  227.5203> <PB=1000000> 
---- Diving heuristic node with dive number = 0, fix depth = 0 and tabu list size = 0
Fixed projected solution = [x_1_0_1_OspV=1, x_1_157_1_OspV=1, x_1_407_1_OspV=1]
<DWph=2> <it=  1> <et=111.72> <Mt= 0.01> <Spt= 0.00> <nCl=  0> <DB=  227.5203> <Mlp=  227.5203> <PB=1000000> 
<DWph=1> <it=  2> <et=111.72> <Mt= 0.00> <Spt= 0.00> <nCl=  0> <DB=  227.5203> <Mlp=  227.5203> <PB=1000000> 
---- Diving heuristic node with dive number = 0, fix depth = 0 and tabu list size = 0
Fixed projected solution = [x_1_0_1_OspV=1, x_1_154_1_OspV=1, x_1_409_1_OspV=1]
<DWph=2> <it=  1> <et=111.86> <Mt= 0.00> <Spt= 0.00> <nCl=  0> <DB=  227.5203> <Mlp=  227.5203> <PB=1000000> 
<DWph=1> <it=  2> <et=111.87> <Mt= 0.00> <Spt= 0.00> <nCl=  0> <DB=  227.5203> <Mlp=  227.5203> <PB=1000000> 
---- Diving heuristic node with dive number = 0, fix depth = 0 and tabu list size = 0
Fixed projected solution = [x_1_0_1_OspV=1, x_1_116_1_OspV=1, x_1_453_1_OspV=1]
<DWph=2> <it=  1> <et=112.01> <Mt= 0.00> <Spt= 0.00> <nCl=  0> <DB=  227.5203> <Mlp=  227.5203> <PB=1000000> 
<DWph=1> <it=  2> <et=112.01> <Mt= 0.00> <Spt= 0.00> <nCl=  0> <DB=  227.5203> <Mlp=  227.5203> <PB=1000000> 
---- Diving heuristic node with dive number = 0, fix depth = 0 and tabu list size = 0
Fixed projected solution = [x_1_0_1_OspV=1, x_1_113_1_OspV=1, x_1_455_1_OspV=1]
<DWph=2> <it=  1> <et=112.15> <Mt= 0.01> <Spt= 0.00> <nCl=  0> <DB=  227.5203> <Mlp=  227.5203> <PB=1000000> 
<DWph=1> <it=  2> <et=112.16> <Mt= 0.00> <Spt= 0.00> <nCl=  0> <DB=  227.5203> <Mlp=  227.5203> <PB=1000000> 
---- Diving heuristic node with dive number = 0, fix depth = 0 and tabu list size = 0
Fixed projected solution = [x_1_0_1_OspV=1, x_1_117_1_OspV=1, x_1_452_1_OspV=1]
<DWph=2> <it=  1> <et=112.30> <Mt= 0.00> <Spt= 0.00> <nCl=  0> <DB=  227.5203> <Mlp=  227.5203> <PB=1000000> 
<DWph=1> <it=  2> <et=112.30> <Mt= 0.00> <Spt= 0.00> <nCl=  0> <DB=  227.5203> <Mlp=  227.5203> <PB=1000000> 
---- Diving heuristic node with dive number = 0, fix depth = 0 and tabu list size = 0
Fixed projected solution = [x_1_0_1_OspV=1, x_1_100_1_OspV=1, x_1_478_1_OspV=1]
<DWph=2> <it=  1> <et=112.45> <Mt= 0.00> <Spt= 0.00> <nCl=  0> <DB=  227.5203> <Mlp=  227.5203> <PB=1000000> 
<DWph=1> <it=  2> <et=112.45> <Mt= 0.00> <Spt= 0.00> <nCl=  0> <DB=  227.5203> <Mlp=  227.5203> <PB=1000000> 
---- Diving heuristic node with dive number = 0, fix depth = 0 and tabu list size = 0
Fixed projected solution = [x_1_0_1_OspV=1, x_1_75_1_OspV=1, x_1_500_1_OspV=1]
<DWph=2> <it=  1> <et=112.59> <Mt= 0.00> <Spt= 0.00> <nCl=  0> <DB=  227.5203> <Mlp=  227.5203> <PB=1000000> 
<DWph=1> <it=  2> <et=112.59> <Mt= 0.01> <Spt= 0.00> <nCl=  0> <DB=  227.5203> <Mlp=  227.5203> <PB=1000000> 
---- Diving heuristic node with dive number = 0, fix depth = 0 and tabu list size = 0
Fixed projected solution = [x_1_0_1_OspV=1, x_1_104_1_OspV=1, x_1_466_1_OspV=1]
<DWph=2> <it=  1> <et=112.74> <Mt= 0.00> <Spt= 0.00> <nCl=  0> <DB=  227.5203> <Mlp=  227.5203> <PB=1000000> 
<DWph=1> <it=  2> <et=112.74> <Mt= 0.00> <Spt= 0.00> <nCl=  0> <DB=  227.5203> <Mlp=  227.5203> <PB=1000000> 
---- Diving heuristic node with dive number = 0, fix depth = 0 and tabu list size = 0
Fixed projected solution = [x_1_0_1_OspV=1, x_1_103_1_OspV=1, x_1_465_1_OspV=1]
<DWph=2> <it=  1> <et=112.88> <Mt= 0.00> <Spt= 0.00> <nCl=  0> <DB=  227.5203> <Mlp=  227.5203> <PB=1000000> 
<DWph=1> <it=  2> <et=112.89> <Mt= 0.00> <Spt= 0.00> <nCl=  0> <DB=  227.5203> <Mlp=  227.5203> <PB=1000000> 
---- Diving heuristic node with dive number = 0, fix depth = 0 and tabu list size = 0
Fixed projected solution = [x_1_0_1_OspV=1, x_1_102_1_OspV=1, x_1_468_1_OspV=1]
<DWph=2> <it=  1> <et=113.03> <Mt= 0.00> <Spt= 0.00> <nCl=  0> <DB=  227.5203> <Mlp=  227.5203> <PB=1000000> 
<DWph=1> <it=  2> <et=113.03> <Mt= 0.00> <Spt= 0.00> <nCl=  0> <DB=  227.5203> <Mlp=  227.5203> <PB=1000000> 
---- Diving heuristic node with dive number = 0, fix depth = 0 and tabu list size = 0
Fixed projected solution = [x_1_0_1_OspV=1, x_1_112_1_OspV=1, x_1_456_1_OspV=1]
<DWph=2> <it=  1> <et=113.18> <Mt= 0.01> <Spt= 0.00> <nCl=  0> <DB=  227.5203> <Mlp=  227.5203> <PB=1000000> 
<DWph=1> <it=  2> <et=113.18> <Mt= 0.00> <Spt= 0.00> <nCl=  0> <DB=  227.5203> <Mlp=  227.5203> <PB=1000000> 
---- Diving heuristic node with dive number = 0, fix depth = 0 and tabu list size = 0
Fixed projected solution = [x_1_0_1_OspV=1, x_1_78_1_OspV=1, x_1_498_1_OspV=1]
<DWph=2> <it=  1> <et=113.32> <Mt= 0.00> <Spt= 0.00> <nCl=  0> <DB=  227.5203> <Mlp=  227.5203> <PB=1000000> 
<DWph=1> <it=  2> <et=113.32> <Mt= 0.00> <Spt= 0.00> <nCl=  0> <DB=  227.5203> <Mlp=  227.5203> <PB=1000000> 
---- Diving heuristic node with dive number = 0, fix depth = 0 and tabu list size = 0
Fixed projected solution = [x_1_0_1_OspV=1, x_1_95_1_OspV=1, x_1_483_1_OspV=1]
<DWph=2> <it=  1> <et=113.47> <Mt= 0.00> <Spt= 0.00> <nCl=  0> <DB=  227.5203> <Mlp=  227.5203> <PB=1000000> 
<DWph=1> <it=  2> <et=113.47> <Mt= 0.00> <Spt= 0.00> <nCl=  0> <DB=  227.5203> <Mlp=  227.5203> <PB=1000000> 
---- Diving heuristic node with dive number = 0, fix depth = 0 and tabu list size = 0
Fixed projected solution = [x_1_0_1_OspV=1, x_1_76_1_OspV=1, x_1_501_1_OspV=1]
<DWph=2> <it=  1> <et=113.61> <Mt= 0.01> <Spt= 0.00> <nCl=  0> <DB=  227.5203> <Mlp=  227.5203> <PB=1000000> 
<DWph=1> <it=  2> <et=113.61> <Mt= 0.00> <Spt= 0.00> <nCl=  0> <DB=  227.5203> <Mlp=  227.5203> <PB=1000000> 
---- Diving heuristic node with dive number = 0, fix depth = 0 and tabu list size = 0
Fixed projected solution = [x_1_0_1_OspV=1, x_1_83_1_OspV=1, x_1_494_1_OspV=1]
<DWph=2> <it=  1> <et=113.76> <Mt= 0.00> <Spt= 0.00> <nCl=  0> <DB=  227.5203> <Mlp=  227.5203> <PB=1000000> 
<DWph=1> <it=  2> <et=113.76> <Mt= 0.00> <Spt= 0.00> <nCl=  0> <DB=  227.5203> <Mlp=  227.5203> <PB=1000000> 
---- Diving heuristic node with dive number = 0, fix depth = 0 and tabu list size = 0
Fixed projected solution = [x_1_0_1_OspV=1, x_1_85_1_OspV=1, x_1_490_1_OspV=1]
<DWph=2> <it=  1> <et=113.90> <Mt= 0.00> <Spt= 0.00> <nCl=  0> <DB=  227.5203> <Mlp=  227.5203> <PB=1000000> 
<DWph=1> <it=  2> <et=113.91> <Mt= 0.00> <Spt= 0.00> <nCl=  0> <DB=  227.5203> <Mlp=  227.5203> <PB=1000000> 
---- Diving heuristic node with dive number = 0, fix depth = 0 and tabu list size = 0
Fixed projected solution = [x_1_0_1_OspV=1, x_1_82_1_OspV=1, x_1_492_1_OspV=1]
<DWph=2> <it=  1> <et=114.05> <Mt= 0.00> <Spt= 0.00> <nCl=  0> <DB=  227.5203> <Mlp=  227.5203> <PB=1000000> 
<DWph=1> <it=  2> <et=114.05> <Mt= 0.01> <Spt= 0.00> <nCl=  0> <DB=  227.5203> <Mlp=  227.5203> <PB=1000000> 
---- Diving heuristic node with dive number = 0, fix depth = 0 and tabu list size = 0
Fixed projected solution = [x_1_0_1_OspV=1, x_1_81_1_OspV=1, x_1_484_1_OspV=1]
<DWph=2> <it=  1> <et=114.20> <Mt= 0.00> <Spt= 0.00> <nCl=  0> <DB=  227.5203> <Mlp=  227.5203> <PB=1000000> 
<DWph=1> <it=  2> <et=114.20> <Mt= 0.00> <Spt= 0.00> <nCl=  0> <DB=  227.5203> <Mlp=  227.5203> <PB=1000000> 
---- Diving heuristic node with dive number = 0, fix depth = 0 and tabu list size = 0
Fixed projected solution = [x_1_0_1_OspV=1, x_1_101_1_OspV=1, x_1_469_1_OspV=1]
<DWph=2> <it=  1> <et=114.34> <Mt= 0.00> <Spt= 0.00> <nCl=  0> <DB=  227.5203> <Mlp=  227.5203> <PB=1000000> 
<DWph=1> <it=  2> <et=114.34> <Mt= 0.00> <Spt= 0.00> <nCl=  0> <DB=  227.5203> <Mlp=  227.5203> <PB=1000000> 
---- Diving heuristic node with dive number = 0, fix depth = 0 and tabu list size = 0
Fixed projected solution = [x_1_0_1_OspV=1, x_1_79_1_OspV=1, x_1_488_1_OspV=1]
<DWph=2> <it=  1> <et=114.49> <Mt= 0.00> <Spt= 0.00> <nCl=  0> <DB=  227.5203> <Mlp=  227.5203> <PB=1000000> 
<DWph=1> <it=  2> <et=114.49> <Mt= 0.00> <Spt= 0.00> <nCl=  0> <DB=  227.5203> <Mlp=  227.5203> <PB=1000000> 
---- Diving heuristic node with dive number = 0, fix depth = 0 and tabu list size = 0
Fixed projected solution = [x_1_0_1_OspV=1, x_1_91_1_OspV=1, x_1_486_1_OspV=1]
<DWph=2> <it=  1> <et=114.63> <Mt= 0.01> <Spt= 0.00> <nCl=  0> <DB=  227.5203> <Mlp=  227.5203> <PB=1000000> 
<DWph=1> <it=  2> <et=114.64> <Mt= 0.00> <Spt= 0.00> <nCl=  0> <DB=  227.5203> <Mlp=  227.5203> <PB=1000000> 
---- Diving heuristic node with dive number = 0, fix depth = 0 and tabu list size = 0
Fixed projected solution = [x_1_0_1_OspV=1, x_1_111_1_OspV=1, x_1_457_1_OspV=1]
