Application parameters:
  batch  =>  nothing
  instance  =>  "/IN/N501W1000001R1080Q20-001"
  ub  =>  1.0e6
  cfg  =>  "/CFG/BPP.cfg"
data = Colored Bin Packing dataset.
number of items = 501
number of colors = 20
capacity = 1000001
Items : 
	 item 1, weight= 100504, color= 8
	 item 2, weight= 100894, color= 19
	 item 3, weight= 102297, color= 14
	 item 4, weight= 102303, color= 2
	 item 5, weight= 103013, color= 2
	 item 6, weight= 104765, color= 17
	 item 7, weight= 107008, color= 6
	 item 8, weight= 109933, color= 16
	 item 9, weight= 112197, color= 14
	 item 10, weight= 114317, color= 6
	 item 11, weight= 116093, color= 12
	 item 12, weight= 116097, color= 8
	 item 13, weight= 116596, color= 13
	 item 14, weight= 117071, color= 17
	 item 15, weight= 117679, color= 9
	 item 16, weight= 118339, color= 1
	 item 17, weight= 118571, color= 1
	 item 18, weight= 122963, color= 14
	 item 19, weight= 124307, color= 18
	 item 20, weight= 127685, color= 1
	 item 21, weight= 131658, color= 14
	 item 22, weight= 132055, color= 1
	 item 23, weight= 132268, color= 0
	 item 24, weight= 132619, color= 2
	 item 25, weight= 134462, color= 14
	 item 26, weight= 136270, color= 9
	 item 27, weight= 138454, color= 5
	 item 28, weight= 139366, color= 4
	 item 29, weight= 139978, color= 4
	 item 30, weight= 140186, color= 2
	 item 31, weight= 140579, color= 5
	 item 32, weight= 141598, color= 18
	 item 33, weight= 144458, color= 15
	 item 34, weight= 144901, color= 10
	 item 35, weight= 145636, color= 6
	 item 36, weight= 146474, color= 0
	 item 37, weight= 148564, color= 9
	 item 38, weight= 149023, color= 5
	 item 39, weight= 153183, color= 10
	 item 40, weight= 153284, color= 7
	 item 41, weight= 158777, color= 12
	 item 42, weight= 159578, color= 8
	 item 43, weight= 162462, color= 16
	 item 44, weight= 162728, color= 13
	 item 45, weight= 163173, color= 1
	 item 46, weight= 164515, color= 8
	 item 47, weight= 165231, color= 4
	 item 48, weight= 165322, color= 18
	 item 49, weight= 165759, color= 15
	 item 50, weight= 165922, color= 3
	 item 51, weight= 166073, color= 11
	 item 52, weight= 167141, color= 10
	 item 53, weight= 170714, color= 8
	 item 54, weight= 171118, color= 7
	 item 55, weight= 172016, color= 13
	 item 56, weight= 173333, color= 16
	 item 57, weight= 173529, color= 4
	 item 58, weight= 175301, color= 14
	 item 59, weight= 175933, color= 19
	 item 60, weight= 178004, color= 18
	 item 61, weight= 178096, color= 9
	 item 62, weight= 179956, color= 2
	 item 63, weight= 181559, color= 11
	 item 64, weight= 182261, color= 7
	 item 65, weight= 182725, color= 13
	 item 66, weight= 182750, color= 16
	 item 67, weight= 182924, color= 15
	 item 68, weight= 183978, color= 9
	 item 69, weight= 184868, color= 10
	 item 70, weight= 184874, color= 11
	 item 71, weight= 185549, color= 8
	 item 72, weight= 187232, color= 7
	 item 73, weight= 187508, color= 0
	 item 74, weight= 188403, color= 15
	 item 75, weight= 189589, color= 10
	 item 76, weight= 194224, color= 1
	 item 77, weight= 194869, color= 1
	 item 78, weight= 195721, color= 19
	 item 79, weight= 196326, color= 5
	 item 80, weight= 197291, color= 11
	 item 81, weight= 199737, color= 15
	 item 82, weight= 200194, color= 7
	 item 83, weight= 201826, color= 11
	 item 84, weight= 202191, color= 17
	 item 85, weight= 203807, color= 13
	 item 86, weight= 209000, color= 7
	 item 87, weight= 209741, color= 14
	 item 88, weight= 217830, color= 14
	 item 89, weight= 219682, color= 5
	 item 90, weight= 219782, color= 6
	 item 91, weight= 221961, color= 14
	 item 92, weight= 222098, color= 17
	 item 93, weight= 223395, color= 9
	 item 94, weight= 225374, color= 18
	 item 95, weight= 226532, color= 11
	 item 96, weight= 226588, color= 1
	 item 97, weight= 227821, color= 4
	 item 98, weight= 228145, color= 3
	 item 99, weight= 230665, color= 6
	 item 100, weight= 230716, color= 17
	 item 101, weight= 232440, color= 1
	 item 102, weight= 234306, color= 10
	 item 103, weight= 234364, color= 7
	 item 104, weight= 234742, color= 13
	 item 105, weight= 234925, color= 9
	 item 106, weight= 235055, color= 0
	 item 107, weight= 240293, color= 9
	 item 108, weight= 240829, color= 0
	 item 109, weight= 241502, color= 0
	 item 110, weight= 243135, color= 5
	 item 111, weight= 246218, color= 6
	 item 112, weight= 250360, color= 1
	 item 113, weight= 251401, color= 12
	 item 114, weight= 252002, color= 19
	 item 115, weight= 254849, color= 0
	 item 116, weight= 255129, color= 19
	 item 117, weight= 256471, color= 7
	 item 118, weight= 256681, color= 6
	 item 119, weight= 260536, color= 17
	 item 120, weight= 263059, color= 19
	 item 121, weight= 263489, color= 15
	 item 122, weight= 264751, color= 2
	 item 123, weight= 264760, color= 5
	 item 124, weight= 264765, color= 17
	 item 125, weight= 265519, color= 15
	 item 126, weight= 266276, color= 19
	 item 127, weight= 267022, color= 2
	 item 128, weight= 269118, color= 10
	 item 129, weight= 275737, color= 18
	 item 130, weight= 275863, color= 18
	 item 131, weight= 276414, color= 16
	 item 132, weight= 277867, color= 8
	 item 133, weight= 277993, color= 14
	 item 134, weight= 279336, color= 2
	 item 135, weight= 284994, color= 19
	 item 136, weight= 285608, color= 11
	 item 137, weight= 289079, color= 16
	 item 138, weight= 290599, color= 1
	 item 139, weight= 291606, color= 0
	 item 140, weight= 291674, color= 4
	 item 141, weight= 296132, color= 6
	 item 142, weight= 297542, color= 18
	 item 143, weight= 298583, color= 1
	 item 144, weight= 298747, color= 1
	 item 145, weight= 299161, color= 16
	 item 146, weight= 302670, color= 3
	 item 147, weight= 302841, color= 7
	 item 148, weight= 303862, color= 11
	 item 149, weight= 305106, color= 13
	 item 150, weight= 306041, color= 5
	 item 151, weight= 311968, color= 2
	 item 152, weight= 314287, color= 0
	 item 153, weight= 315470, color= 5
	 item 154, weight= 315935, color= 2
	 item 155, weight= 322159, color= 19
	 item 156, weight= 324792, color= 3
	 item 157, weight= 329111, color= 16
	 item 158, weight= 329998, color= 7
	 item 159, weight= 330404, color= 1
	 item 160, weight= 331226, color= 8
	 item 161, weight= 332358, color= 13
	 item 162, weight= 332949, color= 5
	 item 163, weight= 333098, color= 11
	 item 164, weight= 333449, color= 19
	 item 165, weight= 336449, color= 0
	 item 166, weight= 337826, color= 15
	 item 167, weight= 338460, color= 13
	 item 168, weight= 340837, color= 7
	 item 169, weight= 341404, color= 10
	 item 170, weight= 343062, color= 3
	 item 171, weight= 343258, color= 8
	 item 172, weight= 344823, color= 8
	 item 173, weight= 346503, color= 1
	 item 174, weight= 349906, color= 1
	 item 175, weight= 353894, color= 16
	 item 176, weight= 357690, color= 4
	 item 177, weight= 358130, color= 3
	 item 178, weight= 358694, color= 19
	 item 179, weight= 359891, color= 5
	 item 180, weight= 361536, color= 3
	 item 181, weight= 361974, color= 8
	 item 182, weight= 363183, color= 2
	 item 183, weight= 364732, color= 2
	 item 184, weight= 365585, color= 0
	 item 185, weight= 367843, color= 10
	 item 186, weight= 367857, color= 13
	 item 187, weight= 368445, color= 19
	 item 188, weight= 368472, color= 9
	 item 189, weight= 369639, color= 15
	 item 190, weight= 370154, color= 13
	 item 191, weight= 371069, color= 0
	 item 192, weight= 372035, color= 18
	 item 193, weight= 378002, color= 4
	 item 194, weight= 379379, color= 2
	 item 195, weight= 379666, color= 9
	 item 196, weight= 380813, color= 6
	 item 197, weight= 382064, color= 7
	 item 198, weight= 382883, color= 13
	 item 199, weight= 384159, color= 15
	 item 200, weight= 384352, color= 11
	 item 201, weight= 384695, color= 7
	 item 202, weight= 385475, color= 19
	 item 203, weight= 389434, color= 12
	 item 204, weight= 389859, color= 18
	 item 205, weight= 391573, color= 9
	 item 206, weight= 391897, color= 12
	 item 207, weight= 396277, color= 10
	 item 208, weight= 397148, color= 12
	 item 209, weight= 397560, color= 9
	 item 210, weight= 398163, color= 16
	 item 211, weight= 398222, color= 17
	 item 212, weight= 399186, color= 18
	 item 213, weight= 399535, color= 12
	 item 214, weight= 400544, color= 0
	 item 215, weight= 400630, color= 11
	 item 216, weight= 401827, color= 17
	 item 217, weight= 404458, color= 16
	 item 218, weight= 405315, color= 13
	 item 219, weight= 409115, color= 19
	 item 220, weight= 412701, color= 8
	 item 221, weight= 413022, color= 0
	 item 222, weight= 413219, color= 0
	 item 223, weight= 416373, color= 0
	 item 224, weight= 416382, color= 3
	 item 225, weight= 417499, color= 19
	 item 226, weight= 418154, color= 12
	 item 227, weight= 421734, color= 12
	 item 228, weight= 422857, color= 17
	 item 229, weight= 424050, color= 1
	 item 230, weight= 426674, color= 4
	 item 231, weight= 428951, color= 16
	 item 232, weight= 430065, color= 14
	 item 233, weight= 432717, color= 6
	 item 234, weight= 433573, color= 9
	 item 235, weight= 435526, color= 13
	 item 236, weight= 436156, color= 16
	 item 237, weight= 436265, color= 17
	 item 238, weight= 440504, color= 15
	 item 239, weight= 441269, color= 2
	 item 240, weight= 442086, color= 0
	 item 241, weight= 443739, color= 1
	 item 242, weight= 444032, color= 12
	 item 243, weight= 444313, color= 12
	 item 244, weight= 445217, color= 8
	 item 245, weight= 445347, color= 18
	 item 246, weight= 445390, color= 7
	 item 247, weight= 448390, color= 1
	 item 248, weight= 449805, color= 12
	 item 249, weight= 451291, color= 1
	 item 250, weight= 451897, color= 2
	 item 251, weight= 453760, color= 15
	 item 252, weight= 454094, color= 7
	 item 253, weight= 456235, color= 14
	 item 254, weight= 457664, color= 8
	 item 255, weight= 458927, color= 5
	 item 256, weight= 459722, color= 16
	 item 257, weight= 465090, color= 1
	 item 258, weight= 466797, color= 18
	 item 259, weight= 467937, color= 11
	 item 260, weight= 468339, color= 10
	 item 261, weight= 470142, color= 13
	 item 262, weight= 472220, color= 10
	 item 263, weight= 472475, color= 3
	 item 264, weight= 472620, color= 12
	 item 265, weight= 474110, color= 3
	 item 266, weight= 476514, color= 8
	 item 267, weight= 476890, color= 8
	 item 268, weight= 479478, color= 10
	 item 269, weight= 480957, color= 4
	 item 270, weight= 484467, color= 6
	 item 271, weight= 484642, color= 1
	 item 272, weight= 485418, color= 19
	 item 273, weight= 485454, color= 8
	 item 274, weight= 485970, color= 15
	 item 275, weight= 486518, color= 8
	 item 276, weight= 487907, color= 16
	 item 277, weight= 489142, color= 7
	 item 278, weight= 493375, color= 5
	 item 279, weight= 496535, color= 14
	 item 280, weight= 498625, color= 2
	 item 281, weight= 499398, color= 10
	 item 282, weight= 499765, color= 8
	 item 283, weight= 501273, color= 15
	 item 284, weight= 501795, color= 4
	 item 285, weight= 502029, color= 2
	 item 286, weight= 502036, color= 11
	 item 287, weight= 502946, color= 12
	 item 288, weight= 503203, color= 1
	 item 289, weight= 503627, color= 15
	 item 290, weight= 504305, color= 6
	 item 291, weight= 511553, color= 10
	 item 292, weight= 512972, color= 5
	 item 293, weight= 513002, color= 17
	 item 294, weight= 514634, color= 14
	 item 295, weight= 515599, color= 9
	 item 296, weight= 519045, color= 10
	 item 297, weight= 520360, color= 14
	 item 298, weight= 520492, color= 0
	 item 299, weight= 520566, color= 12
	 item 300, weight= 523162, color= 3
	 item 301, weight= 523633, color= 12
	 item 302, weight= 524183, color= 17
	 item 303, weight= 525331, color= 18
	 item 304, weight= 525658, color= 6
	 item 305, weight= 527186, color= 14
	 item 306, weight= 527320, color= 16
	 item 307, weight= 528091, color= 1
	 item 308, weight= 528141, color= 12
	 item 309, weight= 528320, color= 16
	 item 310, weight= 528449, color= 19
	 item 311, weight= 528758, color= 1
	 item 312, weight= 529926, color= 3
	 item 313, weight= 530869, color= 6
	 item 314, weight= 531224, color= 3
	 item 315, weight= 534470, color= 0
	 item 316, weight= 535053, color= 3
	 item 317, weight= 536223, color= 17
	 item 318, weight= 536523, color= 13
	 item 319, weight= 537523, color= 8
	 item 320, weight= 537904, color= 7
	 item 321, weight= 539050, color= 5
	 item 322, weight= 543931, color= 6
	 item 323, weight= 546091, color= 7
	 item 324, weight= 550020, color= 16
	 item 325, weight= 550790, color= 7
	 item 326, weight= 551606, color= 0
	 item 327, weight= 553160, color= 13
	 item 328, weight= 553220, color= 10
	 item 329, weight= 553342, color= 9
	 item 330, weight= 555619, color= 5
	 item 331, weight= 558254, color= 15
	 item 332, weight= 558467, color= 4
	 item 333, weight= 559154, color= 17
	 item 334, weight= 559880, color= 10
	 item 335, weight= 560898, color= 0
	 item 336, weight= 560931, color= 9
	 item 337, weight= 561875, color= 15
	 item 338, weight= 562958, color= 17
	 item 339, weight= 563924, color= 3
	 item 340, weight= 564086, color= 5
	 item 341, weight= 565641, color= 2
	 item 342, weight= 567142, color= 19
	 item 343, weight= 568213, color= 17
	 item 344, weight= 568231, color= 6
	 item 345, weight= 569580, color= 12
	 item 346, weight= 569688, color= 15
	 item 347, weight= 570007, color= 9
	 item 348, weight= 571678, color= 16
	 item 349, weight= 574135, color= 8
	 item 350, weight= 585380, color= 1
	 item 351, weight= 585808, color= 17
	 item 352, weight= 591457, color= 5
	 item 353, weight= 591751, color= 0
	 item 354, weight= 593016, color= 8
	 item 355, weight= 594289, color= 2
	 item 356, weight= 596580, color= 17
	 item 357, weight= 597961, color= 18
	 item 358, weight= 599798, color= 14
	 item 359, weight= 600372, color= 15
	 item 360, weight= 601442, color= 13
	 item 361, weight= 602563, color= 15
	 item 362, weight= 603116, color= 5
	 item 363, weight= 604719, color= 2
	 item 364, weight= 605422, color= 2
	 item 365, weight= 606892, color= 5
	 item 366, weight= 608691, color= 0
	 item 367, weight= 613272, color= 2
	 item 368, weight= 614195, color= 5
	 item 369, weight= 614739, color= 5
	 item 370, weight= 617685, color= 14
	 item 371, weight= 617770, color= 16
	 item 372, weight= 618599, color= 10
	 item 373, weight= 618989, color= 15
	 item 374, weight= 619909, color= 16
	 item 375, weight= 621121, color= 3
	 item 376, weight= 624288, color= 0
	 item 377, weight= 624447, color= 1
	 item 378, weight= 624834, color= 11
	 item 379, weight= 625252, color= 11
	 item 380, weight= 626365, color= 5
	 item 381, weight= 627610, color= 12
	 item 382, weight= 629380, color= 16
	 item 383, weight= 634246, color= 14
	 item 384, weight= 634787, color= 8
	 item 385, weight= 636300, color= 2
	 item 386, weight= 638190, color= 8
	 item 387, weight= 643850, color= 5
	 item 388, weight= 644967, color= 1
	 item 389, weight= 645576, color= 8
	 item 390, weight= 646076, color= 16
	 item 391, weight= 648094, color= 6
	 item 392, weight= 653440, color= 5
	 item 393, weight= 653868, color= 1
	 item 394, weight= 656353, color= 14
	 item 395, weight= 658267, color= 1
	 item 396, weight= 658747, color= 19
	 item 397, weight= 658852, color= 8
	 item 398, weight= 659078, color= 15
	 item 399, weight= 660079, color= 18
	 item 400, weight= 661655, color= 10
	 item 401, weight= 662657, color= 14
	 item 402, weight= 663102, color= 9
	 item 403, weight= 663824, color= 0
	 item 404, weight= 664924, color= 2
	 item 405, weight= 670875, color= 15
	 item 406, weight= 671461, color= 10
	 item 407, weight= 671674, color= 3
	 item 408, weight= 675540, color= 14
	 item 409, weight= 681149, color= 5
	 item 410, weight= 681517, color= 17
	 item 411, weight= 683445, color= 4
	 item 412, weight= 686197, color= 9
	 item 413, weight= 686985, color= 14
	 item 414, weight= 687347, color= 15
	 item 415, weight= 688454, color= 0
	 item 416, weight= 689488, color= 0
	 item 417, weight= 690472, color= 12
	 item 418, weight= 691022, color= 6
	 item 419, weight= 693112, color= 7
	 item 420, weight= 693183, color= 10
	 item 421, weight= 694255, color= 6
	 item 422, weight= 696326, color= 9
	 item 423, weight= 697754, color= 11
	 item 424, weight= 698313, color= 19
	 item 425, weight= 699323, color= 18
	 item 426, weight= 699656, color= 15
	 item 427, weight= 700796, color= 1
	 item 428, weight= 701072, color= 8
	 item 429, weight= 701530, color= 13
	 item 430, weight= 705203, color= 16
	 item 431, weight= 707555, color= 9
	 item 432, weight= 707590, color= 7
	 item 433, weight= 707805, color= 9
	 item 434, weight= 707968, color= 9
	 item 435, weight= 709505, color= 14
	 item 436, weight= 710842, color= 5
	 item 437, weight= 711413, color= 5
	 item 438, weight= 717006, color= 8
	 item 439, weight= 717021, color= 18
	 item 440, weight= 717755, color= 13
	 item 441, weight= 720848, color= 5
	 item 442, weight= 723494, color= 1
	 item 443, weight= 725252, color= 14
	 item 444, weight= 725576, color= 13
	 item 445, weight= 727174, color= 16
	 item 446, weight= 727551, color= 9
	 item 447, weight= 727851, color= 5
	 item 448, weight= 729712, color= 18
	 item 449, weight= 731285, color= 0
	 item 450, weight= 731295, color= 11
	 item 451, weight= 732175, color= 8
	 item 452, weight= 732749, color= 8
	 item 453, weight= 733321, color= 14
	 item 454, weight= 733941, color= 18
	 item 455, weight= 734174, color= 18
	 item 456, weight= 735544, color= 17
	 item 457, weight= 738293, color= 10
	 item 458, weight= 742101, color= 2
	 item 459, weight= 742853, color= 11
	 item 460, weight= 743599, color= 19
	 item 461, weight= 746461, color= 17
	 item 462, weight= 746920, color= 13
	 item 463, weight= 747248, color= 3
	 item 464, weight= 751075, color= 7
	 item 465, weight= 753055, color= 18
	 item 466, weight= 753211, color= 2
	 item 467, weight= 755324, color= 15
	 item 468, weight= 756684, color= 8
	 item 469, weight= 756907, color= 2
	 item 470, weight= 757555, color= 12
	 item 471, weight= 759199, color= 10
	 item 472, weight= 759682, color= 14
	 item 473, weight= 759704, color= 12
	 item 474, weight= 762880, color= 1
	 item 475, weight= 763297, color= 13
	 item 476, weight= 764542, color= 18
	 item 477, weight= 766125, color= 1
	 item 478, weight= 766302, color= 2
	 item 479, weight= 767000, color= 8
	 item 480, weight= 767045, color= 14
	 item 481, weight= 768938, color= 19
	 item 482, weight= 771690, color= 18
	 item 483, weight= 771883, color= 0
	 item 484, weight= 772895, color= 1
	 item 485, weight= 773955, color= 5
	 item 486, weight= 774903, color= 0
	 item 487, weight= 775841, color= 15
	 item 488, weight= 777297, color= 0
	 item 489, weight= 778775, color= 4
	 item 490, weight= 782380, color= 9
	 item 491, weight= 784894, color= 4
	 item 492, weight= 785164, color= 18
	 item 493, weight= 785241, color= 8
	 item 494, weight= 786081, color= 2
	 item 495, weight= 787063, color= 19
	 item 496, weight= 788391, color= 16
	 item 497, weight= 789630, color= 4
	 item 498, weight= 790639, color= 3
	 item 499, weight= 792022, color= 16
	 item 500, weight= 792535, color= 11
	 item 501, weight= 794669, color= 15

VRPSolver warning: Interval set for resource 1 on source node (when source != sink) is ignored (by definition is [0.0,0.0])
[41m solve [00m
~~~~~~~~~~~~~~~~~~~~~~~~~~~~~~~~~~~~~~~~~~~~~~~~~~~~~~~~~~~~~~~~~~~~~~~~~~~~~~
VRPSolver v0.4.1, 24/03/2021. Web: vrpsolver.math.u-bordeaux.fr
Corresponds to the solver by Pessoa, Sadykov, Uchoa and Vanderbeck (2020)
Paper: dx.doi.org/10.1007/s10107-020-01523-z
USE THIS CODE ONLY FOR ACADEMIC PURPOSES AT YOUR OWN RISK
~~~~~~~~~~~~~~~~~~~~~~~~~~~~~~~~~~~~~~~~~~~~~~~~~~~~~~~~~~~~~~~~~~~~~~~~~~~~~~
BaPCod v053, 24/03/2021, © Inria Bordeaux, France
~~~~~~~~~~~~~~~~~~~~~~~~~~~~~~~~~~~~~~~~~~~~~~~~~~~~~~~~~~~~~~~~~~~~~~~~~~~~~~
VRPSolver parameters:
GlobalTimeLimit = 1800
MaxNbOfBBtreeNodeTreated = 100000
treeSearchStrategy = 1
RCSPstopCutGenTimeThresholdInPricing = 10
RCSPhardTimeThresholdInPricing = 20
RCSPnumberOfBucketsPerVertex = 2000
RCSPdynamicBucketSteps = 0
RCSPuseBidirectionalSearch = 1
RCSPapplyReducedCostFixing = 1
RCSPredCostFixingFalseGap = 0
RCSPmaxNumOfColsPerIteration = 100
RCSPmaxNumOfColsPerExactIteration = 100
RCSPheurLabelingStrategy = 4
StabilizationMinPhaseOfStage = 1
RCSPmaxNumOfLabelsInEnumeration = 100000
RCSPmaxNumOfEnumeratedSolutions = 1000000
RCSPmaxNumOfEnumSolutionsForMIP = 100000
RCSPinitNGneighbourhoodSize = 0
RCSPmaxNGneighbourhoodSize = 0
RCSPrankOneCutsMaxNumPerRound = 100
RCSPrankOneCutsMaxNumRows = -1
RCSPrankOneCutsMemoryType = 2
CutTailingOffThreshold = 0.02
CutTailingOffCounterThreshold = 3
SafeDualBoundScaleFactor = -1
StrongBranchingPhaseOneCandidatesNumber = 100
StrongBranchingPhaseOneTreeSizeEstimRatio = 0.3
StrongBranchingPhaseTwoCandidatesNumber = 1
StrongBranchingPhaseTwoTreeSizeEstimRatio = 0.1
MaxTimeForRestrictedMasterIpHeur = -1
DivingHeurUseDepthLimit = 0
MaxLDSbreadth = 3
MaxLDSdepth = 2
New model incumbent solution 1e+06, TIME = 0h0m0s3t = 3
Model is built TIME = 0h0m4s47t = 447
************************************************************************************************
**** BaB tree root node
**** Local DB = -1e+12, global bounds : [ -1e+12 , 1e+06 ], TIME = 0h0m4s47t = 447
**** 1 open nodes, 0 columns (0 active), 0 dyn. constrs. (0 active), 1004 art. vars. (1004 active)
************************************************************************************************
<DWph=2> <it= 10> <et=9.34> <Mt= 0.01> <Spt= 4.85> <nCl=1000> <DB=-3631564829.2811> <Mlp=567872044.2991> <PB=1000000> 
<DWph=2> <it= 20> <et=14.00> <Mt= 0.01> <Spt= 4.64> <nCl=1000> <DB=-2716005035.1018> <Mlp=530978350.4480> <PB=1000000> 
<DWph=2> <it= 30> <et=18.48> <Mt= 0.05> <Spt= 4.43> <nCl=1000> <DB=-1906320845.6895> <Mlp=479988808.7712> <PB=1000000> 
<DWph=2> <it= 40> <et=22.66> <Mt= 0.06> <Spt= 4.11> <nCl=1000> <DB=-1368167611.6486> <Mlp=430368998.8452> <PB=1000000> 
<DWph=2> <it= 50> <et=26.74> <Mt= 0.07> <Spt= 4.01> <nCl=1000> <DB=-979280336.0986> <Mlp=366729535.3502> <PB=1000000> 
<DWph=2> <it= 60> <et=30.85> <Mt= 0.07> <Spt= 4.03> <nCl=1000> <DB=-826876875.5729> <Mlp=315177229.0669> <PB=1000000> 
<DWph=2> <it= 70> <et=34.82> <Mt= 0.06> <Spt= 3.90> <nCl=1000> <DB=-773324279.5610> <Mlp=211905699.1586> <PB=1000000> 
<DWph=2> <it= 80> <et=38.99> <Mt= 0.08> <Spt= 4.09> <nCl=1000> <DB=-733887934.8923> <Mlp=180103228.1960> <PB=1000000> 
<DWph=2> <it= 90> <et=43.01> <Mt= 0.11> <Spt= 3.91> <nCl=1000> <DB=-643933149.8642> <Mlp=152074118.5433> <PB=1000000> 
<DWph=2> <it=100> <et=47.20> <Mt= 0.22> <Spt= 3.97> <nCl=1000> <DB=-479218668.3500> <Mlp=139200143.2972> <PB=1000000> 
<DWph=2> <it=110> <et=51.26> <Mt= 0.15> <Spt= 3.86> <nCl=1000> <DB=-1146574501.4894> <Mlp=123000152.5978> <PB=1000000> 
<DWph=2> <it=120> <et=55.26> <Mt= 0.12> <Spt= 3.87> <nCl=1000> <DB=-470478147.8374> <Mlp=102600164.1383> <PB=1000000> 
<DWph=2> <it=130> <et=59.27> <Mt= 0.14> <Spt= 3.87> <nCl=1000> <DB=-468104189.9176> <Mlp=91200171.1920> <PB=1000000> 
<DWph=2> <it=140> <et=63.30> <Mt= 0.10> <Spt= 3.88> <nCl=1000> <DB=-483004045.9993> <Mlp=79012987.7040> <PB=1000000> 
<DWph=2> <it=150> <et=67.28> <Mt= 0.06> <Spt= 3.92> <nCl=1000> <DB=-468767638.4224> <Mlp=62724559.0911> <PB=1000000> 
<DWph=2> <it=160> <et=71.55> <Mt= 0.07> <Spt= 4.19> <nCl=1000> <DB=-465118063.5232> <Mlp=49661070.1265> <PB=1000000> 
<DWph=2> <it=170> <et=75.69> <Mt= 0.05> <Spt= 4.05> <nCl=1000> <DB=-465104234.8188> <Mlp=35696455.7396> <PB=1000000> 
<DWph=2> <it=180> <et=81.47> <Mt= 0.03> <Spt= 5.75> <nCl=909> <DB=-729148464.9248> <Mlp=1200233.2398> <PB=1000000> 
<DWph=2> <it=190> <et=86.57> <Mt= 0.05> <Spt= 5.04> <nCl=1000> <DB=   76.8580> <Mlp=  232.1021> <PB=1000000> 
<DWph=2> <it=200> <et=90.77> <Mt= 0.07> <Spt= 4.12> <nCl=1000> <DB=   66.4954> <Mlp=  228.2179> <PB=1000000> 
<DWph=2> <it=210> <et=94.87> <Mt= 0.07> <Spt= 3.99> <nCl=1000> <DB=  175.4568> <Mlp=  227.0957> <PB=1000000> 
<DWph=2> <it=220> <et=98.90> <Mt= 0.06> <Spt= 3.96> <nCl=842> <DB=  209.5546> <Mlp=  226.6222> <PB=1000000> 
<DWph=2> <it=230> <et=103.22> <Mt= 0.11> <Spt= 4.20> <nCl=829> <DB=  219.2356> <Mlp=  226.2753> <PB=1000000> 
<DWph=2> <it=240> <et=107.67> <Mt= 0.12> <Spt= 4.32> <nCl=731> <DB=  223.8777> <Mlp=  226.0960> <PB=1000000> 
<DWph=2> <it=250> <et=112.12> <Mt= 0.10> <Spt= 4.31> <nCl=640> <DB=  225.1418> <Mlp=  226.0503> <PB=1000000> 
