Application parameters:
  batch  =>  nothing
  instance  =>  "/IN/N501W1001R1080Q20-005"
  ub  =>  1.0e6
  cfg  =>  "/CFG/BPP.cfg"
data = Colored Bin Packing dataset.
number of items = 501
number of colors = 20
capacity = 1001
Items : 
	 item 1, weight= 100, color= 2
	 item 2, weight= 101, color= 17
	 item 3, weight= 102, color= 1
	 item 4, weight= 105, color= 3
	 item 5, weight= 106, color= 6
	 item 6, weight= 107, color= 12
	 item 7, weight= 108, color= 15
	 item 8, weight= 111, color= 2
	 item 9, weight= 111, color= 19
	 item 10, weight= 112, color= 9
	 item 11, weight= 112, color= 14
	 item 12, weight= 112, color= 16
	 item 13, weight= 115, color= 3
	 item 14, weight= 117, color= 10
	 item 15, weight= 118, color= 15
	 item 16, weight= 119, color= 13
	 item 17, weight= 120, color= 16
	 item 18, weight= 122, color= 16
	 item 19, weight= 123, color= 8
	 item 20, weight= 125, color= 8
	 item 21, weight= 127, color= 9
	 item 22, weight= 127, color= 16
	 item 23, weight= 131, color= 1
	 item 24, weight= 131, color= 12
	 item 25, weight= 134, color= 0
	 item 26, weight= 134, color= 0
	 item 27, weight= 135, color= 3
	 item 28, weight= 137, color= 9
	 item 29, weight= 142, color= 5
	 item 30, weight= 143, color= 14
	 item 31, weight= 144, color= 8
	 item 32, weight= 146, color= 0
	 item 33, weight= 148, color= 19
	 item 34, weight= 149, color= 5
	 item 35, weight= 150, color= 19
	 item 36, weight= 158, color= 11
	 item 37, weight= 158, color= 19
	 item 38, weight= 160, color= 16
	 item 39, weight= 161, color= 6
	 item 40, weight= 162, color= 5
	 item 41, weight= 163, color= 3
	 item 42, weight= 163, color= 12
	 item 43, weight= 164, color= 15
	 item 44, weight= 166, color= 4
	 item 45, weight= 166, color= 6
	 item 46, weight= 167, color= 5
	 item 47, weight= 167, color= 14
	 item 48, weight= 169, color= 2
	 item 49, weight= 170, color= 7
	 item 50, weight= 171, color= 13
	 item 51, weight= 172, color= 3
	 item 52, weight= 172, color= 13
	 item 53, weight= 173, color= 17
	 item 54, weight= 174, color= 19
	 item 55, weight= 176, color= 2
	 item 56, weight= 180, color= 1
	 item 57, weight= 181, color= 4
	 item 58, weight= 183, color= 15
	 item 59, weight= 183, color= 17
	 item 60, weight= 187, color= 3
	 item 61, weight= 187, color= 10
	 item 62, weight= 187, color= 11
	 item 63, weight= 189, color= 3
	 item 64, weight= 189, color= 6
	 item 65, weight= 190, color= 17
	 item 66, weight= 190, color= 18
	 item 67, weight= 193, color= 5
	 item 68, weight= 194, color= 9
	 item 69, weight= 196, color= 15
	 item 70, weight= 197, color= 1
	 item 71, weight= 197, color= 17
	 item 72, weight= 199, color= 10
	 item 73, weight= 201, color= 3
	 item 74, weight= 202, color= 10
	 item 75, weight= 203, color= 1
	 item 76, weight= 206, color= 7
	 item 77, weight= 206, color= 8
	 item 78, weight= 206, color= 15
	 item 79, weight= 208, color= 0
	 item 80, weight= 211, color= 3
	 item 81, weight= 215, color= 1
	 item 82, weight= 216, color= 6
	 item 83, weight= 217, color= 3
	 item 84, weight= 217, color= 5
	 item 85, weight= 219, color= 19
	 item 86, weight= 220, color= 5
	 item 87, weight= 220, color= 6
	 item 88, weight= 220, color= 14
	 item 89, weight= 221, color= 2
	 item 90, weight= 223, color= 19
	 item 91, weight= 224, color= 3
	 item 92, weight= 226, color= 0
	 item 93, weight= 228, color= 1
	 item 94, weight= 228, color= 17
	 item 95, weight= 228, color= 19
	 item 96, weight= 231, color= 6
	 item 97, weight= 232, color= 8
	 item 98, weight= 232, color= 15
	 item 99, weight= 233, color= 7
	 item 100, weight= 234, color= 13
	 item 101, weight= 236, color= 13
	 item 102, weight= 239, color= 1
	 item 103, weight= 242, color= 5
	 item 104, weight= 242, color= 17
	 item 105, weight= 242, color= 18
	 item 106, weight= 245, color= 13
	 item 107, weight= 245, color= 17
	 item 108, weight= 248, color= 4
	 item 109, weight= 249, color= 15
	 item 110, weight= 252, color= 1
	 item 111, weight= 252, color= 6
	 item 112, weight= 253, color= 7
	 item 113, weight= 254, color= 3
	 item 114, weight= 255, color= 1
	 item 115, weight= 255, color= 4
	 item 116, weight= 258, color= 10
	 item 117, weight= 261, color= 9
	 item 118, weight= 261, color= 16
	 item 119, weight= 265, color= 7
	 item 120, weight= 268, color= 19
	 item 121, weight= 270, color= 8
	 item 122, weight= 270, color= 11
	 item 123, weight= 271, color= 12
	 item 124, weight= 271, color= 14
	 item 125, weight= 272, color= 6
	 item 126, weight= 276, color= 19
	 item 127, weight= 278, color= 4
	 item 128, weight= 278, color= 13
	 item 129, weight= 278, color= 14
	 item 130, weight= 279, color= 3
	 item 131, weight= 281, color= 3
	 item 132, weight= 283, color= 19
	 item 133, weight= 284, color= 3
	 item 134, weight= 284, color= 3
	 item 135, weight= 285, color= 1
	 item 136, weight= 286, color= 18
	 item 137, weight= 287, color= 5
	 item 138, weight= 288, color= 16
	 item 139, weight= 290, color= 3
	 item 140, weight= 290, color= 10
	 item 141, weight= 290, color= 13
	 item 142, weight= 291, color= 1
	 item 143, weight= 294, color= 8
	 item 144, weight= 296, color= 8
	 item 145, weight= 297, color= 9
	 item 146, weight= 298, color= 5
	 item 147, weight= 299, color= 5
	 item 148, weight= 301, color= 14
	 item 149, weight= 301, color= 15
	 item 150, weight= 301, color= 19
	 item 151, weight= 302, color= 1
	 item 152, weight= 302, color= 11
	 item 153, weight= 304, color= 5
	 item 154, weight= 306, color= 8
	 item 155, weight= 308, color= 0
	 item 156, weight= 310, color= 8
	 item 157, weight= 310, color= 15
	 item 158, weight= 312, color= 1
	 item 159, weight= 313, color= 5
	 item 160, weight= 313, color= 14
	 item 161, weight= 314, color= 1
	 item 162, weight= 314, color= 17
	 item 163, weight= 315, color= 12
	 item 164, weight= 315, color= 14
	 item 165, weight= 316, color= 7
	 item 166, weight= 316, color= 15
	 item 167, weight= 317, color= 11
	 item 168, weight= 320, color= 9
	 item 169, weight= 320, color= 15
	 item 170, weight= 321, color= 0
	 item 171, weight= 322, color= 2
	 item 172, weight= 322, color= 9
	 item 173, weight= 326, color= 17
	 item 174, weight= 330, color= 5
	 item 175, weight= 331, color= 19
	 item 176, weight= 334, color= 0
	 item 177, weight= 338, color= 3
	 item 178, weight= 339, color= 5
	 item 179, weight= 342, color= 8
	 item 180, weight= 344, color= 5
	 item 181, weight= 345, color= 2
	 item 182, weight= 346, color= 1
	 item 183, weight= 346, color= 9
	 item 184, weight= 346, color= 19
	 item 185, weight= 348, color= 6
	 item 186, weight= 353, color= 5
	 item 187, weight= 355, color= 5
	 item 188, weight= 358, color= 3
	 item 189, weight= 361, color= 1
	 item 190, weight= 362, color= 19
	 item 191, weight= 363, color= 7
	 item 192, weight= 363, color= 19
	 item 193, weight= 365, color= 0
	 item 194, weight= 365, color= 6
	 item 195, weight= 365, color= 10
	 item 196, weight= 365, color= 19
	 item 197, weight= 367, color= 0
	 item 198, weight= 370, color= 16
	 item 199, weight= 372, color= 18
	 item 200, weight= 373, color= 16
	 item 201, weight= 374, color= 11
	 item 202, weight= 374, color= 14
	 item 203, weight= 378, color= 13
	 item 204, weight= 379, color= 17
	 item 205, weight= 380, color= 17
	 item 206, weight= 381, color= 2
	 item 207, weight= 381, color= 7
	 item 208, weight= 382, color= 16
	 item 209, weight= 387, color= 5
	 item 210, weight= 388, color= 6
	 item 211, weight= 389, color= 0
	 item 212, weight= 389, color= 19
	 item 213, weight= 390, color= 18
	 item 214, weight= 390, color= 19
	 item 215, weight= 392, color= 15
	 item 216, weight= 392, color= 18
	 item 217, weight= 393, color= 11
	 item 218, weight= 393, color= 14
	 item 219, weight= 395, color= 0
	 item 220, weight= 395, color= 2
	 item 221, weight= 395, color= 7
	 item 222, weight= 395, color= 10
	 item 223, weight= 396, color= 17
	 item 224, weight= 396, color= 17
	 item 225, weight= 398, color= 0
	 item 226, weight= 398, color= 3
	 item 227, weight= 399, color= 8
	 item 228, weight= 401, color= 6
	 item 229, weight= 401, color= 10
	 item 230, weight= 401, color= 18
	 item 231, weight= 403, color= 13
	 item 232, weight= 404, color= 1
	 item 233, weight= 406, color= 6
	 item 234, weight= 407, color= 1
	 item 235, weight= 408, color= 1
	 item 236, weight= 408, color= 16
	 item 237, weight= 414, color= 18
	 item 238, weight= 419, color= 16
	 item 239, weight= 421, color= 19
	 item 240, weight= 424, color= 17
	 item 241, weight= 424, color= 19
	 item 242, weight= 428, color= 5
	 item 243, weight= 431, color= 1
	 item 244, weight= 435, color= 0
	 item 245, weight= 437, color= 16
	 item 246, weight= 437, color= 19
	 item 247, weight= 439, color= 15
	 item 248, weight= 443, color= 1
	 item 249, weight= 443, color= 9
	 item 250, weight= 443, color= 18
	 item 251, weight= 447, color= 8
	 item 252, weight= 447, color= 13
	 item 253, weight= 451, color= 6
	 item 254, weight= 452, color= 6
	 item 255, weight= 452, color= 10
	 item 256, weight= 453, color= 15
	 item 257, weight= 458, color= 0
	 item 258, weight= 461, color= 8
	 item 259, weight= 461, color= 16
	 item 260, weight= 462, color= 11
	 item 261, weight= 465, color= 1
	 item 262, weight= 465, color= 10
	 item 263, weight= 467, color= 3
	 item 264, weight= 467, color= 17
	 item 265, weight= 469, color= 18
	 item 266, weight= 470, color= 6
	 item 267, weight= 472, color= 15
	 item 268, weight= 474, color= 2
	 item 269, weight= 475, color= 3
	 item 270, weight= 476, color= 4
	 item 271, weight= 477, color= 1
	 item 272, weight= 478, color= 13
	 item 273, weight= 478, color= 17
	 item 274, weight= 478, color= 18
	 item 275, weight= 481, color= 4
	 item 276, weight= 482, color= 7
	 item 277, weight= 483, color= 0
	 item 278, weight= 486, color= 19
	 item 279, weight= 487, color= 6
	 item 280, weight= 489, color= 10
	 item 281, weight= 489, color= 14
	 item 282, weight= 489, color= 18
	 item 283, weight= 490, color= 2
	 item 284, weight= 493, color= 11
	 item 285, weight= 493, color= 12
	 item 286, weight= 494, color= 9
	 item 287, weight= 499, color= 0
	 item 288, weight= 502, color= 16
	 item 289, weight= 503, color= 15
	 item 290, weight= 505, color= 13
	 item 291, weight= 508, color= 2
	 item 292, weight= 508, color= 18
	 item 293, weight= 509, color= 1
	 item 294, weight= 509, color= 4
	 item 295, weight= 510, color= 9
	 item 296, weight= 510, color= 12
	 item 297, weight= 510, color= 12
	 item 298, weight= 511, color= 10
	 item 299, weight= 512, color= 1
	 item 300, weight= 512, color= 9
	 item 301, weight= 513, color= 0
	 item 302, weight= 514, color= 14
	 item 303, weight= 515, color= 14
	 item 304, weight= 515, color= 18
	 item 305, weight= 517, color= 2
	 item 306, weight= 517, color= 16
	 item 307, weight= 519, color= 2
	 item 308, weight= 520, color= 8
	 item 309, weight= 520, color= 10
	 item 310, weight= 522, color= 15
	 item 311, weight= 522, color= 16
	 item 312, weight= 523, color= 3
	 item 313, weight= 523, color= 3
	 item 314, weight= 523, color= 15
	 item 315, weight= 524, color= 7
	 item 316, weight= 525, color= 12
	 item 317, weight= 525, color= 12
	 item 318, weight= 525, color= 18
	 item 319, weight= 527, color= 1
	 item 320, weight= 527, color= 14
	 item 321, weight= 530, color= 3
	 item 322, weight= 531, color= 12
	 item 323, weight= 531, color= 14
	 item 324, weight= 532, color= 11
	 item 325, weight= 533, color= 7
	 item 326, weight= 533, color= 19
	 item 327, weight= 534, color= 8
	 item 328, weight= 534, color= 12
	 item 329, weight= 534, color= 18
	 item 330, weight= 535, color= 6
	 item 331, weight= 537, color= 1
	 item 332, weight= 540, color= 15
	 item 333, weight= 541, color= 16
	 item 334, weight= 545, color= 9
	 item 335, weight= 550, color= 7
	 item 336, weight= 551, color= 9
	 item 337, weight= 551, color= 11
	 item 338, weight= 551, color= 13
	 item 339, weight= 551, color= 15
	 item 340, weight= 562, color= 7
	 item 341, weight= 563, color= 19
	 item 342, weight= 565, color= 19
	 item 343, weight= 566, color= 9
	 item 344, weight= 568, color= 0
	 item 345, weight= 568, color= 10
	 item 346, weight= 568, color= 13
	 item 347, weight= 568, color= 17
	 item 348, weight= 572, color= 10
	 item 349, weight= 576, color= 19
	 item 350, weight= 578, color= 7
	 item 351, weight= 578, color= 18
	 item 352, weight= 583, color= 2
	 item 353, weight= 584, color= 4
	 item 354, weight= 586, color= 9
	 item 355, weight= 586, color= 17
	 item 356, weight= 587, color= 13
	 item 357, weight= 589, color= 1
	 item 358, weight= 591, color= 11
	 item 359, weight= 593, color= 19
	 item 360, weight= 595, color= 4
	 item 361, weight= 596, color= 14
	 item 362, weight= 598, color= 6
	 item 363, weight= 599, color= 1
	 item 364, weight= 600, color= 16
	 item 365, weight= 601, color= 14
	 item 366, weight= 601, color= 16
	 item 367, weight= 602, color= 11
	 item 368, weight= 604, color= 2
	 item 369, weight= 605, color= 3
	 item 370, weight= 606, color= 2
	 item 371, weight= 606, color= 4
	 item 372, weight= 611, color= 6
	 item 373, weight= 611, color= 9
	 item 374, weight= 612, color= 16
	 item 375, weight= 614, color= 8
	 item 376, weight= 615, color= 16
	 item 377, weight= 616, color= 8
	 item 378, weight= 617, color= 5
	 item 379, weight= 620, color= 14
	 item 380, weight= 621, color= 11
	 item 381, weight= 622, color= 18
	 item 382, weight= 623, color= 7
	 item 383, weight= 623, color= 7
	 item 384, weight= 623, color= 19
	 item 385, weight= 624, color= 13
	 item 386, weight= 627, color= 17
	 item 387, weight= 627, color= 19
	 item 388, weight= 629, color= 8
	 item 389, weight= 630, color= 16
	 item 390, weight= 631, color= 13
	 item 391, weight= 633, color= 2
	 item 392, weight= 633, color= 3
	 item 393, weight= 636, color= 16
	 item 394, weight= 639, color= 7
	 item 395, weight= 640, color= 3
	 item 396, weight= 640, color= 7
	 item 397, weight= 641, color= 13
	 item 398, weight= 645, color= 3
	 item 399, weight= 646, color= 10
	 item 400, weight= 651, color= 3
	 item 401, weight= 653, color= 15
	 item 402, weight= 656, color= 0
	 item 403, weight= 657, color= 2
	 item 404, weight= 657, color= 13
	 item 405, weight= 658, color= 16
	 item 406, weight= 660, color= 5
	 item 407, weight= 661, color= 0
	 item 408, weight= 662, color= 7
	 item 409, weight= 662, color= 9
	 item 410, weight= 663, color= 10
	 item 411, weight= 664, color= 13
	 item 412, weight= 664, color= 18
	 item 413, weight= 665, color= 1
	 item 414, weight= 667, color= 9
	 item 415, weight= 674, color= 6
	 item 416, weight= 676, color= 9
	 item 417, weight= 677, color= 3
	 item 418, weight= 678, color= 8
	 item 419, weight= 681, color= 5
	 item 420, weight= 682, color= 17
	 item 421, weight= 685, color= 0
	 item 422, weight= 685, color= 6
	 item 423, weight= 688, color= 12
	 item 424, weight= 688, color= 13
	 item 425, weight= 691, color= 3
	 item 426, weight= 691, color= 3
	 item 427, weight= 694, color= 16
	 item 428, weight= 695, color= 16
	 item 429, weight= 696, color= 14
	 item 430, weight= 697, color= 7
	 item 431, weight= 697, color= 16
	 item 432, weight= 698, color= 8
	 item 433, weight= 699, color= 10
	 item 434, weight= 700, color= 14
	 item 435, weight= 701, color= 9
	 item 436, weight= 703, color= 14
	 item 437, weight= 704, color= 1
	 item 438, weight= 704, color= 12
	 item 439, weight= 705, color= 18
	 item 440, weight= 706, color= 12
	 item 441, weight= 708, color= 3
	 item 442, weight= 711, color= 11
	 item 443, weight= 713, color= 2
	 item 444, weight= 719, color= 10
	 item 445, weight= 719, color= 10
	 item 446, weight= 719, color= 14
	 item 447, weight= 720, color= 1
	 item 448, weight= 720, color= 3
	 item 449, weight= 723, color= 12
	 item 450, weight= 726, color= 4
	 item 451, weight= 732, color= 11
	 item 452, weight= 734, color= 0
	 item 453, weight= 734, color= 10
	 item 454, weight= 735, color= 13
	 item 455, weight= 737, color= 14
	 item 456, weight= 737, color= 17
	 item 457, weight= 740, color= 13
	 item 458, weight= 741, color= 8
	 item 459, weight= 741, color= 18
	 item 460, weight= 742, color= 5
	 item 461, weight= 744, color= 1
	 item 462, weight= 744, color= 15
	 item 463, weight= 747, color= 17
	 item 464, weight= 750, color= 4
	 item 465, weight= 750, color= 5
	 item 466, weight= 750, color= 13
	 item 467, weight= 752, color= 4
	 item 468, weight= 752, color= 15
	 item 469, weight= 752, color= 19
	 item 470, weight= 753, color= 14
	 item 471, weight= 754, color= 4
	 item 472, weight= 756, color= 9
	 item 473, weight= 756, color= 10
	 item 474, weight= 756, color= 12
	 item 475, weight= 756, color= 15
	 item 476, weight= 756, color= 19
	 item 477, weight= 757, color= 18
	 item 478, weight= 761, color= 0
	 item 479, weight= 762, color= 14
	 item 480, weight= 765, color= 1
	 item 481, weight= 768, color= 8
	 item 482, weight= 769, color= 3
	 item 483, weight= 770, color= 15
	 item 484, weight= 770, color= 18
	 item 485, weight= 773, color= 5
	 item 486, weight= 777, color= 1
	 item 487, weight= 777, color= 18
	 item 488, weight= 779, color= 14
	 item 489, weight= 780, color= 10
	 item 490, weight= 782, color= 1
	 item 491, weight= 786, color= 2
	 item 492, weight= 786, color= 2
	 item 493, weight= 787, color= 10
	 item 494, weight= 788, color= 18
	 item 495, weight= 790, color= 3
	 item 496, weight= 793, color= 4
	 item 497, weight= 798, color= 11
	 item 498, weight= 800, color= 5
	 item 499, weight= 800, color= 16
	 item 500, weight= 800, color= 17
	 item 501, weight= 801, color= 10

VRPSolver warning: Interval set for resource 1 on source node (when source != sink) is ignored (by definition is [0.0,0.0])
[41m solve [00m
~~~~~~~~~~~~~~~~~~~~~~~~~~~~~~~~~~~~~~~~~~~~~~~~~~~~~~~~~~~~~~~~~~~~~~~~~~~~~~
VRPSolver v0.4.1, 24/03/2021. Web: vrpsolver.math.u-bordeaux.fr
Corresponds to the solver by Pessoa, Sadykov, Uchoa and Vanderbeck (2020)
Paper: dx.doi.org/10.1007/s10107-020-01523-z
USE THIS CODE ONLY FOR ACADEMIC PURPOSES AT YOUR OWN RISK
~~~~~~~~~~~~~~~~~~~~~~~~~~~~~~~~~~~~~~~~~~~~~~~~~~~~~~~~~~~~~~~~~~~~~~~~~~~~~~
BaPCod v053, 24/03/2021, © Inria Bordeaux, France
~~~~~~~~~~~~~~~~~~~~~~~~~~~~~~~~~~~~~~~~~~~~~~~~~~~~~~~~~~~~~~~~~~~~~~~~~~~~~~
VRPSolver parameters:
GlobalTimeLimit = 1800
MaxNbOfBBtreeNodeTreated = 100000
treeSearchStrategy = 1
RCSPstopCutGenTimeThresholdInPricing = 10
RCSPhardTimeThresholdInPricing = 20
RCSPnumberOfBucketsPerVertex = 2000
RCSPdynamicBucketSteps = 0
RCSPuseBidirectionalSearch = 1
RCSPapplyReducedCostFixing = 1
RCSPredCostFixingFalseGap = 0
RCSPmaxNumOfColsPerIteration = 100
RCSPmaxNumOfColsPerExactIteration = 100
RCSPheurLabelingStrategy = 4
StabilizationMinPhaseOfStage = 1
RCSPmaxNumOfLabelsInEnumeration = 100000
RCSPmaxNumOfEnumeratedSolutions = 1000000
RCSPmaxNumOfEnumSolutionsForMIP = 100000
RCSPinitNGneighbourhoodSize = 0
RCSPmaxNGneighbourhoodSize = 0
RCSPrankOneCutsMaxNumPerRound = 100
RCSPrankOneCutsMaxNumRows = -1
RCSPrankOneCutsMemoryType = 2
CutTailingOffThreshold = 0.02
CutTailingOffCounterThreshold = 3
SafeDualBoundScaleFactor = -1
StrongBranchingPhaseOneCandidatesNumber = 100
StrongBranchingPhaseOneTreeSizeEstimRatio = 0.3
StrongBranchingPhaseTwoCandidatesNumber = 1
StrongBranchingPhaseTwoTreeSizeEstimRatio = 0.1
MaxTimeForRestrictedMasterIpHeur = -1
DivingHeurUseDepthLimit = 0
MaxLDSbreadth = 3
MaxLDSdepth = 2
New model incumbent solution 1e+06, TIME = 0h0m0s3t = 3
Model is built TIME = 0h0m2s76t = 276
************************************************************************************************
**** BaB tree root node
**** Local DB = -1e+12, global bounds : [ -1e+12 , 1e+06 ], TIME = 0h0m2s76t = 276
**** 1 open nodes, 0 columns (0 active), 0 dyn. constrs. (0 active), 1004 art. vars. (1004 active)
************************************************************************************************
<DWph=2> <it= 10> <et=5.78> <Mt= 0.01> <Spt= 2.99> <nCl=1000> <DB=-3635329011.9703> <Mlp=568202731.5189> <PB=1000000> 
<DWph=2> <it= 20> <et=8.80> <Mt= 0.02> <Spt= 3.00> <nCl=1000> <DB=-2467513101.1774> <Mlp=531896707.7429> <PB=1000000> 
<DWph=2> <it= 30> <et=11.55> <Mt= 0.03> <Spt= 2.71> <nCl=1000> <DB=-1913471501.5360> <Mlp=470857534.5934> <PB=1000000> 
<DWph=2> <it= 40> <et=14.16> <Mt= 0.04> <Spt= 2.57> <nCl=1000> <DB=-1409230050.6365> <Mlp=435246275.0548> <PB=1000000> 
<DWph=2> <it= 50> <et=16.87> <Mt= 0.07> <Spt= 2.63> <nCl=1000> <DB=-1175005090.4375> <Mlp=356529504.3861> <PB=1000000> 
<DWph=2> <it= 60> <et=19.40> <Mt= 0.09> <Spt= 2.43> <nCl=1000> <DB=-877518358.5778> <Mlp=258259229.2631> <PB=1000000> 
<DWph=2> <it= 70> <et=21.88> <Mt= 0.07> <Spt= 2.41> <nCl=1000> <DB=-743798696.8300> <Mlp=211760161.1758> <PB=1000000> 
<DWph=2> <it= 80> <et=24.41> <Mt= 0.08> <Spt= 2.45> <nCl=1000> <DB=-682995552.0180> <Mlp=186413822.2981> <PB=1000000> 
<DWph=2> <it= 90> <et=26.99> <Mt= 0.11> <Spt= 2.46> <nCl=1000> <DB=-654216517.9083> <Mlp=162599858.3662> <PB=1000000> 
<DWph=2> <it=100> <et=30.15> <Mt= 0.20> <Spt= 2.96> <nCl=948> <DB=-574287081.6204> <Mlp=146905775.7054> <PB=1000000> 
<DWph=2> <it=110> <et=32.90> <Mt= 0.15> <Spt= 2.54> <nCl=1000> <DB=-497911531.6994> <Mlp=135600142.5677> <PB=1000000> 
<DWph=2> <it=120> <et=35.45> <Mt= 0.14> <Spt= 2.41> <nCl=1000> <DB=-578988578.9293> <Mlp=120455466.2660> <PB=1000000> 
<DWph=2> <it=130> <et=38.14> <Mt= 0.16> <Spt= 2.53> <nCl=1000> <DB=-508391250.2427> <Mlp=101449297.5555> <PB=1000000> 
<DWph=2> <it=140> <et=41.02> <Mt= 0.15> <Spt= 2.67> <nCl=1000> <DB=-501935074.0655> <Mlp=85651395.0624> <PB=1000000> 
<DWph=2> <it=150> <et=43.74> <Mt= 0.07> <Spt= 2.65> <nCl=1000> <DB=-486352826.6677> <Mlp=73132941.2469> <PB=1000000> 
<DWph=2> <it=160> <et=46.21> <Mt= 0.06> <Spt= 2.40> <nCl=1000> <DB=-524211988.6520> <Mlp=54883268.0591> <PB=1000000> 
<DWph=2> <it=170> <et=48.76> <Mt= 0.06> <Spt= 2.44> <nCl=1000> <DB=-490332332.0675> <Mlp=38221629.0075> <PB=1000000> 
<DWph=2> <it=180> <et=51.20> <Mt= 0.04> <Spt= 2.40> <nCl=1000> <DB=-474125946.6960> <Mlp=29269303.7720> <PB=1000000> 
<DWph=2> <it=190> <et=53.68> <Mt= 0.03> <Spt= 2.45> <nCl=1000> <DB=-472745098.4239> <Mlp=17085978.5549> <PB=1000000> 
<DWph=2> <it=200> <et=56.12> <Mt= 0.04> <Spt= 2.39> <nCl=1000> <DB=-471383010.3231> <Mlp=5529284.4303> <PB=1000000> 
<DWph=2> <it=210> <et=58.83> <Mt= 0.04> <Spt= 2.64> <nCl=952> <DB=-411629224.8111> <Mlp=300225.1476> <PB=1000000> 
<DWph=2> <it=220> <et=62.90> <Mt= 0.04> <Spt= 4.01> <nCl=1000> <DB=  131.2994> <Mlp=  224.9704> <PB=1000000> 
<DWph=2> <it=230> <et=65.80> <Mt= 0.10> <Spt= 2.79> <nCl=1000> <DB=  188.7638> <Mlp=  224.0465> <PB=1000000> 
<DWph=2> <it=240> <et=68.76> <Mt= 0.11> <Spt= 2.81> <nCl=870> <DB=  202.7086> <Mlp=  223.3692> <PB=1000000> 
<DWph=2> <it=250> <et=71.77> <Mt= 0.14> <Spt= 2.86> <nCl=832> <DB=  213.6980> <Mlp=  222.9659> <PB=1000000> 
<DWph=2> <it=260> <et=74.91> <Mt= 0.20> <Spt= 2.92> <nCl=851> <DB=  218.9237> <Mlp=  222.6803> <PB=1000000> 
<DWph=2> <it=270> <et=77.99> <Mt= 0.16> <Spt= 2.92> <nCl=857> <DB=  221.3793> <Mlp=  222.5999> <PB=1000000> 
<DWph=2> <it=280> <et=80.98> <Mt= 0.10> <Spt= 2.89> <nCl=591> <DB=  222.2569> <Mlp=  222.5827> <PB=1000000> 
<DWph=2> <it=282> <et=82.09> <Mt= 0.00> <Spt= 1.09> <nCl= 68> <DB=  222.5827> <Mlp=  222.5827> <PB=1000000> 
<DWph=1> <it=283> <et=82.95> <Mt= 0.01> <Spt= 0.82> <nCl=  0> <DB=  222.5827> <Mlp=  222.5827> <PB=1000000> 
<DWph=0> <it=284> <et=83.23> <Mt= 0.00> <Spt= 0.27> <nCl=  0> <DB=  222.5827> <Mlp=  222.5827> <PB=1000000> 
Reduced cost fixing for graph G_1... took 7.07 sec., 808728 buck. arcs remain (71.7% from prev., 30% from max.)
Run enumeration... took 0.4 sec. and not succeeded.
ColGenEvalAlg final dual bound: 222.583 (rounded: 223)
----------- Diving heuristic started -----------
<DWph=2> <it=  1> <et=90.81> <Mt= 0.00> <Spt= 0.00> <nCl=  0> <DB=  222.5827> <Mlp=  222.5827> <PB=1000000> 
<DWph=1> <it=  2> <et=90.81> <Mt= 0.00> <Spt= 0.00> <nCl=  0> <DB=  222.5827> <Mlp=  222.5827> <PB=1000000> 
---- Diving heuristic node with dive number = 0, fix depth = 0 and tabu list size = 0
Fixed projected solution = [x_1_0_1_OspV=1, x_1_253_1_OspV=1, x_1_335_1_OspV=1]
<DWph=2> <it=  1> <et=90.90> <Mt= 0.00> <Spt= 0.00> <nCl=  0> <DB=  222.5827> <Mlp=  222.5827> <PB=1000000> 
<DWph=1> <it=  2> <et=90.90> <Mt= 0.01> <Spt= 0.00> <nCl=  0> <DB=  222.5827> <Mlp=  222.5827> <PB=1000000> 
---- Diving heuristic node with dive number = 0, fix depth = 0 and tabu list size = 0
Fixed projected solution = [x_1_0_1_OspV=1, x_1_256_1_OspV=1, x_1_334_1_OspV=1]
<DWph=2> <it=  1> <et=90.99> <Mt= 0.00> <Spt= 0.00> <nCl=  0> <DB=  222.5827> <Mlp=  222.5827> <PB=1000000> 
<DWph=1> <it=  2> <et=90.99> <Mt= 0.00> <Spt= 0.00> <nCl=  0> <DB=  222.5827> <Mlp=  222.5827> <PB=1000000> 
---- Diving heuristic node with dive number = 0, fix depth = 0 and tabu list size = 0
Fixed projected solution = [x_1_0_1_OspV=1, x_1_257_1_OspV=1, x_1_333_1_OspV=1]
<DWph=2> <it=  1> <et=91.07> <Mt= 0.00> <Spt= 0.00> <nCl=  0> <DB=  222.5827> <Mlp=  222.5827> <PB=1000000> 
<DWph=1> <it=  2> <et=91.08> <Mt= 0.00> <Spt= 0.00> <nCl=  0> <DB=  222.5827> <Mlp=  222.5827> <PB=1000000> 
---- Diving heuristic node with dive number = 0, fix depth = 0 and tabu list size = 0
Fixed projected solution = [x_1_0_1_OspV=1, x_1_258_1_OspV=1, x_1_332_1_OspV=1]
<DWph=2> <it=  1> <et=91.16> <Mt= 0.00> <Spt= 0.00> <nCl=  0> <DB=  222.5827> <Mlp=  222.5827> <PB=1000000> 
<DWph=1> <it=  2> <et=91.16> <Mt= 0.00> <Spt= 0.00> <nCl=  0> <DB=  222.5827> <Mlp=  222.5827> <PB=1000000> 
---- Diving heuristic node with dive number = 0, fix depth = 0 and tabu list size = 0
Fixed projected solution = [x_1_0_1_OspV=1, x_1_260_1_OspV=1, x_1_331_1_OspV=1]
<DWph=2> <it=  1> <et=91.25> <Mt= 0.01> <Spt= 0.00> <nCl=  0> <DB=  222.5827> <Mlp=  222.5827> <PB=1000000> 
<DWph=1> <it=  2> <et=91.25> <Mt= 0.00> <Spt= 0.00> <nCl=  0> <DB=  222.5827> <Mlp=  222.5827> <PB=1000000> 
---- Diving heuristic node with dive number = 0, fix depth = 0 and tabu list size = 0
Fixed projected solution = [x_1_0_1_OspV=1, x_1_261_1_OspV=1, x_1_330_1_OspV=1]
<DWph=2> <it=  1> <et=91.34> <Mt= 0.00> <Spt= 0.00> <nCl=  0> <DB=  222.5827> <Mlp=  222.5827> <PB=1000000> 
<DWph=1> <it=  2> <et=91.34> <Mt= 0.00> <Spt= 0.00> <nCl=  0> <DB=  222.5827> <Mlp=  222.5827> <PB=1000000> 
---- Diving heuristic node with dive number = 0, fix depth = 0 and tabu list size = 0
Fixed projected solution = [x_1_0_1_OspV=1, x_1_263_1_OspV=1, x_1_328_1_OspV=1]
<DWph=2> <it=  1> <et=91.43> <Mt= 0.00> <Spt= 0.00> <nCl=  0> <DB=  222.5827> <Mlp=  222.5827> <PB=1000000> 
<DWph=1> <it=  2> <et=91.43> <Mt= 0.00> <Spt= 0.00> <nCl=  0> <DB=  222.5827> <Mlp=  222.5827> <PB=1000000> 
---- Diving heuristic node with dive number = 0, fix depth = 0 and tabu list size = 0
Fixed projected solution = [x_1_0_1_OspV=1, x_1_265_1_OspV=1, x_1_324_1_OspV=1]
<DWph=2> <it=  1> <et=91.52> <Mt= 0.00> <Spt= 0.00> <nCl=  0> <DB=  222.5827> <Mlp=  222.5827> <PB=1000000> 
<DWph=1> <it=  2> <et=91.52> <Mt= 0.01> <Spt= 0.00> <nCl=  0> <DB=  222.5827> <Mlp=  222.5827> <PB=1000000> 
---- Diving heuristic node with dive number = 0, fix depth = 0 and tabu list size = 0
Fixed projected solution = [x_1_0_1_OspV=1, x_1_267_1_OspV=1, x_1_320_1_OspV=1]
<DWph=2> <it=  1> <et=91.61> <Mt= 0.00> <Spt= 0.00> <nCl=  0> <DB=  222.5827> <Mlp=  222.5827> <PB=1000000> 
<DWph=1> <it=  2> <et=91.61> <Mt= 0.00> <Spt= 0.00> <nCl=  0> <DB=  222.5827> <Mlp=  222.5827> <PB=1000000> 
---- Diving heuristic node with dive number = 0, fix depth = 0 and tabu list size = 0
Fixed projected solution = [x_1_0_1_OspV=1, x_1_268_1_OspV=1, x_1_319_1_OspV=1]
<DWph=2> <it=  1> <et=91.70> <Mt= 0.00> <Spt= 0.00> <nCl=  0> <DB=  222.5827> <Mlp=  222.5827> <PB=1000000> 
<DWph=1> <it=  2> <et=91.70> <Mt= 0.00> <Spt= 0.00> <nCl=  0> <DB=  222.5827> <Mlp=  222.5827> <PB=1000000> 
---- Diving heuristic node with dive number = 0, fix depth = 0 and tabu list size = 0
Fixed projected solution = [x_1_0_1_OspV=1, x_1_269_1_OspV=1, x_1_316_1_OspV=1]
<DWph=2> <it=  1> <et=91.78> <Mt= 0.00> <Spt= 0.00> <nCl=  0> <DB=  222.5827> <Mlp=  222.5827> <PB=1000000> 
<DWph=1> <it=  2> <et=91.79> <Mt= 0.00> <Spt= 0.00> <nCl=  0> <DB=  222.5827> <Mlp=  222.5827> <PB=1000000> 
---- Diving heuristic node with dive number = 0, fix depth = 0 and tabu list size = 0
Fixed projected solution = [x_1_0_1_OspV=1, x_1_271_1_OspV=1, x_1_315_1_OspV=1]
<DWph=2> <it=  1> <et=91.87> <Mt= 0.01> <Spt= 0.00> <nCl=  0> <DB=  222.5827> <Mlp=  222.5827> <PB=1000000> 
<DWph=1> <it=  2> <et=91.88> <Mt= 0.00> <Spt= 0.00> <nCl=  0> <DB=  222.5827> <Mlp=  222.5827> <PB=1000000> 
---- Diving heuristic node with dive number = 0, fix depth = 0 and tabu list size = 0
Fixed projected solution = [x_1_0_1_OspV=1, x_1_272_1_OspV=1, x_1_313_1_OspV=1]
<DWph=2> <it=  1> <et=91.96> <Mt= 0.00> <Spt= 0.00> <nCl=  0> <DB=  222.5827> <Mlp=  222.5827> <PB=1000000> 
<DWph=1> <it=  2> <et=91.96> <Mt= 0.00> <Spt= 0.00> <nCl=  0> <DB=  222.5827> <Mlp=  222.5827> <PB=1000000> 
---- Diving heuristic node with dive number = 0, fix depth = 0 and tabu list size = 0
Fixed projected solution = [x_1_0_1_OspV=1, x_1_275_1_OspV=1, x_1_309_1_OspV=1]
<DWph=2> <it=  1> <et=92.05> <Mt= 0.00> <Spt= 0.00> <nCl=  0> <DB=  222.5827> <Mlp=  222.5827> <PB=1000000> 
<DWph=1> <it=  2> <et=92.05> <Mt= 0.00> <Spt= 0.00> <nCl=  0> <DB=  222.5827> <Mlp=  222.5827> <PB=1000000> 
---- Diving heuristic node with dive number = 0, fix depth = 0 and tabu list size = 0
Fixed projected solution = [x_1_0_1_OspV=1, x_1_276_1_OspV=1, x_1_307_1_OspV=1]
<DWph=2> <it=  1> <et=92.14> <Mt= 0.01> <Spt= 0.00> <nCl=  0> <DB=  222.5827> <Mlp=  222.5827> <PB=1000000> 
<DWph=1> <it=  2> <et=92.14> <Mt= 0.00> <Spt= 0.00> <nCl=  0> <DB=  222.5827> <Mlp=  222.5827> <PB=1000000> 
---- Diving heuristic node with dive number = 0, fix depth = 0 and tabu list size = 0
Fixed projected solution = [x_1_0_1_OspV=1, x_1_279_1_OspV=1, x_1_302_1_OspV=1]
<DWph=2> <it=  1> <et=92.25> <Mt= 0.00> <Spt= 0.00> <nCl=  0> <DB=  222.5827> <Mlp=  222.5827> <PB=1000000> 
<DWph=1> <it=  2> <et=92.25> <Mt= 0.00> <Spt= 0.00> <nCl=  0> <DB=  222.5827> <Mlp=  222.5827> <PB=1000000> 
---- Diving heuristic node with dive number = 0, fix depth = 0 and tabu list size = 0
Fixed projected solution = [x_1_0_1_OspV=1, x_1_280_1_OspV=1, x_1_300_1_OspV=1]
<DWph=2> <it=  1> <et=92.36> <Mt= 0.00> <Spt= 0.00> <nCl=  0> <DB=  222.5827> <Mlp=  222.5827> <PB=1000000> 
<DWph=1> <it=  2> <et=92.36> <Mt= 0.00> <Spt= 0.00> <nCl=  0> <DB=  222.5827> <Mlp=  222.5827> <PB=1000000> 
---- Diving heuristic node with dive number = 0, fix depth = 0 and tabu list size = 0
Fixed projected solution = [x_1_0_1_OspV=1, x_1_273_1_OspV=1, x_1_314_1_OspV=1]
<DWph=2> <it=  1> <et=92.45> <Mt= 0.00> <Spt= 0.00> <nCl=  0> <DB=  222.5827> <Mlp=  222.5827> <PB=1000000> 
<DWph=1> <it=  2> <et=92.45> <Mt= 0.01> <Spt= 0.00> <nCl=  0> <DB=  222.5827> <Mlp=  222.5827> <PB=1000000> 
---- Diving heuristic node with dive number = 0, fix depth = 0 and tabu list size = 0
Fixed projected solution = [x_1_0_1_OspV=1, x_1_284_1_OspV=1, x_1_291_1_OspV=1]
<DWph=2> <it=  1> <et=92.54> <Mt= 0.00> <Spt= 0.00> <nCl=  0> <DB=  222.5827> <Mlp=  222.5827> <PB=1000000> 
<DWph=1> <it=  2> <et=92.54> <Mt= 0.00> <Spt= 0.00> <nCl=  0> <DB=  222.5827> <Mlp=  222.5827> <PB=1000000> 
---- Diving heuristic node with dive number = 0, fix depth = 0 and tabu list size = 0
Fixed projected solution = [x_1_0_1_OspV=1, x_1_286_1_OspV=1, x_1_290_1_OspV=1]
<DWph=2> <it=  1> <et=92.62> <Mt= 0.00> <Spt= 0.00> <nCl=  0> <DB=  222.5827> <Mlp=  222.5827> <PB=1000000> 
<DWph=1> <it=  2> <et=92.63> <Mt= 0.00> <Spt= 0.00> <nCl=  0> <DB=  222.5827> <Mlp=  222.5827> <PB=1000000> 
---- Diving heuristic node with dive number = 0, fix depth = 0 and tabu list size = 0
Fixed projected solution = [x_1_0_1_OspV=1, x_1_287_1_OspV=1, x_1_288_1_OspV=1]
<DWph=2> <it=  1> <et=92.71> <Mt= 0.00> <Spt= 0.00> <nCl=  0> <DB=  222.5827> <Mlp=  222.5827> <PB=1000000> 
<DWph=1> <it=  2> <et=92.72> <Mt= 0.00> <Spt= 0.00> <nCl=  0> <DB=  222.5827> <Mlp=  222.5827> <PB=1000000> 
---- Diving heuristic node with dive number = 0, fix depth = 0 and tabu list size = 0
Fixed projected solution = [x_1_0_1_OspV=1, x_1_249_1_OspV=1, x_1_338_1_OspV=1]
<DWph=2> <it=  1> <et=92.80> <Mt= 0.01> <Spt= 0.00> <nCl=  0> <DB=  222.5827> <Mlp=  222.5827> <PB=1000000> 
<DWph=1> <it=  2> <et=92.80> <Mt= 0.00> <Spt= 0.00> <nCl=  0> <DB=  222.5827> <Mlp=  222.5827> <PB=1000000> 
---- Diving heuristic node with dive number = 0, fix depth = 0 and tabu list size = 0
Fixed projected solution = [x_1_0_1_OspV=1, x_1_250_1_OspV=1, x_1_336_1_OspV=1]
<DWph=2> <it=  1> <et=92.89> <Mt= 0.00> <Spt= 0.00> <nCl=  0> <DB=  222.5827> <Mlp=  222.5827> <PB=1000000> 
<DWph=1> <it=  2> <et=92.89> <Mt= 0.00> <Spt= 0.00> <nCl=  0> <DB=  222.5827> <Mlp=  222.5827> <PB=1000000> 
---- Diving heuristic node with dive number = 0, fix depth = 0 and tabu list size = 0
Fixed projected solution = [x_1_0_1_OspV=1, x_1_282_1_OspV=1, x_1_299_1_OspV=1]
<DWph=2> <it=  1> <et=92.98> <Mt= 0.00> <Spt= 0.00> <nCl=  0> <DB=  222.5827> <Mlp=  222.5827> <PB=1000000> 
<DWph=1> <it=  2> <et=92.98> <Mt= 0.00> <Spt= 0.00> <nCl=  0> <DB=  222.5827> <Mlp=  222.5827> <PB=1000000> 
---- Diving heuristic node with dive number = 0, fix depth = 0 and tabu list size = 0
Fixed projected solution = [x_1_0_1_OspV=1, x_1_285_1_OspV=1, x_1_292_1_OspV=1]
<DWph=2> <it=  1> <et=93.07> <Mt= 0.01> <Spt= 0.00> <nCl=  0> <DB=  222.5827> <Mlp=  222.5827> <PB=1000000> 
<DWph=1> <it=  2> <et=93.07> <Mt= 0.00> <Spt= 0.00> <nCl=  0> <DB=  222.5827> <Mlp=  222.5827> <PB=1000000> 
---- Diving heuristic node with dive number = 0, fix depth = 0 and tabu list size = 0
Fixed projected solution = [x_1_0_1_OspV=1, x_1_251_1_OspV=1, x_1_339_1_OspV=1]
<DWph=2> <it=  1> <et=93.16> <Mt= 0.00> <Spt= 0.00> <nCl=  0> <DB=  222.5827> <Mlp=  222.5827> <PB=1000000> 
<DWph=1> <it=  2> <et=93.16> <Mt= 0.00> <Spt= 0.00> <nCl=  0> <DB=  222.5827> <Mlp=  222.5827> <PB=1000000> 
---- Diving heuristic node with dive number = 0, fix depth = 0 and tabu list size = 0
Fixed projected solution = [x_1_0_1_OspV=1, x_1_236_1_OspV=1, x_1_357_1_OspV=1]
<DWph=2> <it=  1> <et=93.25> <Mt= 0.00> <Spt= 0.00> <nCl=  0> <DB=  222.5827> <Mlp=  222.5827> <PB=1000000> 
<DWph=1> <it=  2> <et=93.25> <Mt= 0.00> <Spt= 0.00> <nCl=  0> <DB=  222.5827> <Mlp=  222.5827> <PB=1000000> 
---- Diving heuristic node with dive number = 0, fix depth = 0 and tabu list size = 0
Fixed projected solution = [x_1_0_1_OspV=1, x_1_242_1_OspV=1, x_1_348_1_OspV=1]
<DWph=2> <it=  1> <et=93.33> <Mt= 0.00> <Spt= 0.00> <nCl=  0> <DB=  222.5827> <Mlp=  222.5827> <PB=1000000> 
<DWph=1> <it=  2> <et=93.34> <Mt= 0.01> <Spt= 0.00> <nCl=  0> <DB=  222.5827> <Mlp=  222.5827> <PB=1000000> 
---- Diving heuristic node with dive number = 0, fix depth = 0 and tabu list size = 0
Fixed projected solution = [x_1_0_1_OspV=1, x_1_245_1_OspV=1, x_1_341_1_OspV=1]
<DWph=2> <it=  1> <et=93.42> <Mt= 0.00> <Spt= 0.00> <nCl=  0> <DB=  222.5827> <Mlp=  222.5827> <PB=1000000> 
<DWph=1> <it=  2> <et=93.42> <Mt= 0.00> <Spt= 0.00> <nCl=  0> <DB=  222.5827> <Mlp=  222.5827> <PB=1000000> 
---- Diving heuristic node with dive number = 0, fix depth = 0 and tabu list size = 0
Fixed projected solution = [x_1_0_1_OspV=1, x_1_233_1_OspV=1, x_1_360_1_OspV=1]
<DWph=2> <it=  1> <et=93.51> <Mt= 0.00> <Spt= 0.00> <nCl=  0> <DB=  222.5827> <Mlp=  222.5827> <PB=1000000> 
<DWph=1> <it=  2> <et=93.51> <Mt= 0.00> <Spt= 0.00> <nCl=  0> <DB=  222.5827> <Mlp=  222.5827> <PB=1000000> 
---- Diving heuristic node with dive number = 0, fix depth = 0 and tabu list size = 0
Fixed projected solution = [x_1_0_1_OspV=1, x_1_234_1_OspV=1, x_1_358_1_OspV=1]
<DWph=2> <it=  1> <et=93.60> <Mt= 0.00> <Spt= 0.00> <nCl=  0> <DB=  222.5827> <Mlp=  222.5827> <PB=1000000> 
<DWph=1> <it=  2> <et=93.60> <Mt= 0.00> <Spt= 0.00> <nCl=  0> <DB=  222.5827> <Mlp=  222.5827> <PB=1000000> 
---- Diving heuristic node with dive number = 0, fix depth = 0 and tabu list size = 0
Fixed projected solution = [x_1_0_1_OspV=1, x_1_235_1_OspV=1, x_1_359_1_OspV=1]
<DWph=2> <it=  1> <et=93.69> <Mt= 0.01> <Spt= 0.00> <nCl=  0> <DB=  222.5827> <Mlp=  222.5827> <PB=1000000> 
<DWph=1> <it=  2> <et=93.69> <Mt= 0.00> <Spt= 0.00> <nCl=  0> <DB=  222.5827> <Mlp=  222.5827> <PB=1000000> 
---- Diving heuristic node with dive number = 0, fix depth = 0 and tabu list size = 0
Fixed projected solution = [x_1_0_1_OspV=1, x_1_239_1_OspV=1, x_1_351_1_OspV=1]
<DWph=2> <it=  1> <et=93.78> <Mt= 0.00> <Spt= 0.00> <nCl=  0> <DB=  222.5827> <Mlp=  222.5827> <PB=1000000> 
<DWph=1> <it=  2> <et=93.78> <Mt= 0.00> <Spt= 0.00> <nCl=  0> <DB=  222.5827> <Mlp=  222.5827> <PB=1000000> 
---- Diving heuristic node with dive number = 0, fix depth = 0 and tabu list size = 0
Fixed projected solution = [x_1_0_1_OspV=1, x_1_214_1_OspV=1, x_1_372_1_OspV=1]
<DWph=2> <it=  1> <et=93.87> <Mt= 0.00> <Spt= 0.00> <nCl=  0> <DB=  222.5827> <Mlp=  222.5827> <PB=1000000> 
<DWph=1> <it=  2> <et=93.87> <Mt= 0.00> <Spt= 0.00> <nCl=  0> <DB=  222.5827> <Mlp=  222.5827> <PB=1000000> 
---- Diving heuristic node with dive number = 0, fix depth = 0 and tabu list size = 0
Fixed projected solution = [x_1_0_1_OspV=1, x_1_213_1_OspV=1, x_1_373_1_OspV=1]
<DWph=2> <it=  1> <et=93.95> <Mt= 0.00> <Spt= 0.00> <nCl=  0> <DB=  222.5827> <Mlp=  222.5827> <PB=1000000> 
<DWph=1> <it=  2> <et=93.96> <Mt= 0.01> <Spt= 0.00> <nCl=  0> <DB=  222.5827> <Mlp=  222.5827> <PB=1000000> 
---- Diving heuristic node with dive number = 0, fix depth = 0 and tabu list size = 0
Fixed projected solution = [x_1_0_1_OspV=1, x_1_228_1_OspV=1, x_1_364_1_OspV=1]
<DWph=2> <it=  1> <et=94.04> <Mt= 0.00> <Spt= 0.00> <nCl=  0> <DB=  222.5827> <Mlp=  222.5827> <PB=1000000> 
<DWph=1> <it=  2> <et=94.04> <Mt= 0.00> <Spt= 0.00> <nCl=  0> <DB=  222.5827> <Mlp=  222.5827> <PB=1000000> 
---- Diving heuristic node with dive number = 0, fix depth = 0 and tabu list size = 0
Fixed projected solution = [x_1_0_1_OspV=1, x_1_225_1_OspV=1, x_1_365_1_OspV=1]
<DWph=2> <it=  1> <et=94.13> <Mt= 0.00> <Spt= 0.00> <nCl=  0> <DB=  222.5827> <Mlp=  222.5827> <PB=1000000> 
<DWph=1> <it=  2> <et=94.13> <Mt= 0.00> <Spt= 0.00> <nCl=  0> <DB=  222.5827> <Mlp=  222.5827> <PB=1000000> 
---- Diving heuristic node with dive number = 0, fix depth = 0 and tabu list size = 0
Fixed projected solution = [x_1_0_1_OspV=1, x_1_223_1_OspV=1, x_1_368_1_OspV=1]
<DWph=2> <it=  1> <et=94.22> <Mt= 0.00> <Spt= 0.00> <nCl=  0> <DB=  222.5827> <Mlp=  222.5827> <PB=1000000> 
<DWph=1> <it=  2> <et=94.22> <Mt= 0.00> <Spt= 0.00> <nCl=  0> <DB=  222.5827> <Mlp=  222.5827> <PB=1000000> 
---- Diving heuristic node with dive number = 0, fix depth = 0 and tabu list size = 0
Fixed projected solution = [x_1_0_1_OspV=1, x_1_209_1_OspV=1, x_1_375_1_OspV=1]
<DWph=2> <it=  1> <et=94.31> <Mt= 0.01> <Spt= 0.00> <nCl=  0> <DB=  222.5827> <Mlp=  222.5827> <PB=1000000> 
<DWph=1> <it=  2> <et=94.31> <Mt= 0.00> <Spt= 0.00> <nCl=  0> <DB=  222.5827> <Mlp=  222.5827> <PB=1000000> 
---- Diving heuristic node with dive number = 0, fix depth = 0 and tabu list size = 0
Fixed projected solution = [x_1_0_1_OspV=1, x_1_227_1_OspV=1, x_1_367_1_OspV=1]
<DWph=2> <it=  1> <et=94.40> <Mt= 0.00> <Spt= 0.00> <nCl=  0> <DB=  222.5827> <Mlp=  222.5827> <PB=1000000> 
<DWph=1> <it=  2> <et=94.40> <Mt= 0.00> <Spt= 0.00> <nCl=  0> <DB=  222.5827> <Mlp=  222.5827> <PB=1000000> 
---- Diving heuristic node with dive number = 0, fix depth = 0 and tabu list size = 0
Fixed projected solution = [x_1_0_1_OspV=1, x_1_232_1_OspV=1, x_1_361_1_OspV=1]
<DWph=2> <it=  1> <et=94.49> <Mt= 0.00> <Spt= 0.00> <nCl=  0> <DB=  222.5827> <Mlp=  222.5827> <PB=1000000> 
<DWph=1> <it=  2> <et=94.49> <Mt= 0.00> <Spt= 0.00> <nCl=  0> <DB=  222.5827> <Mlp=  222.5827> <PB=1000000> 
---- Diving heuristic node with dive number = 0, fix depth = 0 and tabu list size = 0
Fixed projected solution = [x_1_0_1_OspV=1, x_1_181_1_OspV=1, x_1_402_1_OspV=1]
<DWph=2> <it=  1> <et=94.57> <Mt= 0.01> <Spt= 0.00> <nCl=  0> <DB=  222.5827> <Mlp=  222.5827> <PB=1000000> 
<DWph=1> <it=  2> <et=94.58> <Mt= 0.00> <Spt= 0.00> <nCl=  0> <DB=  222.5827> <Mlp=  222.5827> <PB=1000000> 
---- Diving heuristic node with dive number = 0, fix depth = 0 and tabu list size = 0
Fixed projected solution = [x_1_0_1_OspV=1, x_1_247_1_OspV=1, x_1_340_1_OspV=1]
<DWph=2> <it=  1> <et=94.66> <Mt= 0.00> <Spt= 0.00> <nCl=  0> <DB=  222.5827> <Mlp=  222.5827> <PB=1000000> 
<DWph=1> <it=  2> <et=94.66> <Mt= 0.00> <Spt= 0.00> <nCl=  0> <DB=  222.5827> <Mlp=  222.5827> <PB=1000000> 
---- Diving heuristic node with dive number = 0, fix depth = 0 and tabu list size = 0
Fixed projected solution = [x_1_0_1_OspV=1, x_1_201_1_OspV=1, x_1_387_1_OspV=1]
<DWph=2> <it=  1> <et=94.75> <Mt= 0.00> <Spt= 0.00> <nCl=  0> <DB=  222.5827> <Mlp=  222.5827> <PB=1000000> 
<DWph=1> <it=  2> <et=94.75> <Mt= 0.00> <Spt= 0.00> <nCl=  0> <DB=  222.5827> <Mlp=  222.5827> <PB=1000000> 
---- Diving heuristic node with dive number = 0, fix depth = 0 and tabu list size = 0
Fixed projected solution = [x_1_0_1_OspV=1, x_1_230_1_OspV=1, x_1_363_1_OspV=1]
<DWph=2> <it=  1> <et=94.84> <Mt= 0.00> <Spt= 0.00> <nCl=  0> <DB=  222.5827> <Mlp=  222.5827> <PB=1000000> 
<DWph=1> <it=  2> <et=94.84> <Mt= 0.01> <Spt= 0.00> <nCl=  0> <DB=  222.5827> <Mlp=  222.5827> <PB=1000000> 
---- Diving heuristic node with dive number = 0, fix depth = 0 and tabu list size = 0
Fixed projected solution = [x_1_0_1_OspV=1, x_1_197_1_OspV=1, x_1_389_1_OspV=1]
<DWph=2> <it=  1> <et=94.93> <Mt= 0.00> <Spt= 0.00> <nCl=  0> <DB=  222.5827> <Mlp=  222.5827> <PB=1000000> 
<DWph=1> <it=  2> <et=94.93> <Mt= 0.00> <Spt= 0.00> <nCl=  0> <DB=  222.5827> <Mlp=  222.5827> <PB=1000000> 
---- Diving heuristic node with dive number = 0, fix depth = 0 and tabu list size = 0
Fixed projected solution = [x_1_0_1_OspV=1, x_1_237_1_OspV=1, x_1_356_1_OspV=1]
<DWph=2> <it=  1> <et=95.02> <Mt= 0.00> <Spt= 0.00> <nCl=  0> <DB=  222.5827> <Mlp=  222.5827> <PB=1000000> 
<DWph=1> <it=  2> <et=95.02> <Mt= 0.00> <Spt= 0.00> <nCl=  0> <DB=  222.5827> <Mlp=  222.5827> <PB=1000000> 
---- Diving heuristic node with dive number = 0, fix depth = 0 and tabu list size = 0
Fixed projected solution = [x_1_0_1_OspV=1, x_1_154_1_OspV=1, x_1_428_1_OspV=1]
<DWph=2> <it=  1> <et=95.10> <Mt= 0.00> <Spt= 0.00> <nCl=  0> <DB=  222.5827> <Mlp=  222.5827> <PB=1000000> 
<DWph=1> <it=  2> <et=95.11> <Mt= 0.00> <Spt= 0.00> <nCl=  0> <DB=  222.5827> <Mlp=  222.5827> <PB=1000000> 
---- Diving heuristic node with dive number = 0, fix depth = 0 and tabu list size = 0
Fixed projected solution = [x_1_0_1_OspV=1, x_1_160_1_OspV=1, x_1_423_1_OspV=1]
<DWph=2> <it=  1> <et=95.19> <Mt= 0.01> <Spt= 0.00> <nCl=  0> <DB=  222.5827> <Mlp=  222.5827> <PB=1000000> 
<DWph=1> <it=  2> <et=95.20> <Mt= 0.00> <Spt= 0.00> <nCl=  0> <DB=  222.5827> <Mlp=  222.5827> <PB=1000000> 
---- Diving heuristic node with dive number = 0, fix depth = 0 and tabu list size = 0
Fixed projected solution = [x_1_0_1_OspV=1, x_1_147_1_OspV=1, x_1_435_1_OspV=1]
<DWph=2> <it=  1> <et=95.28> <Mt= 0.00> <Spt= 0.00> <nCl=  0> <DB=  222.5827> <Mlp=  222.5827> <PB=1000000> 
<DWph=1> <it=  2> <et=95.28> <Mt= 0.00> <Spt= 0.00> <nCl=  0> <DB=  222.5827> <Mlp=  222.5827> <PB=1000000> 
---- Diving heuristic node with dive number = 0, fix depth = 0 and tabu list size = 0
Fixed projected solution = [x_1_0_1_OspV=1, x_1_138_1_OspV=1, x_1_443_1_OspV=1]
<DWph=2> <it=  1> <et=95.37> <Mt= 0.00> <Spt= 0.00> <nCl=  0> <DB=  222.5827> <Mlp=  222.5827> <PB=1000000> 
<DWph=1> <it=  2> <et=95.37> <Mt= 0.00> <Spt= 0.00> <nCl=  0> <DB=  222.5827> <Mlp=  222.5827> <PB=1000000> 
---- Diving heuristic node with dive number = 0, fix depth = 0 and tabu list size = 0
Fixed projected solution = [x_1_0_1_OspV=1, x_1_172_1_OspV=1, x_1_417_1_OspV=1]
<DWph=2> <it=  1> <et=95.46> <Mt= 0.00> <Spt= 0.00> <nCl=  0> <DB=  222.5827> <Mlp=  222.5827> <PB=1000000> 
<DWph=1> <it=  2> <et=95.46> <Mt= 0.01> <Spt= 0.00> <nCl=  0> <DB=  222.5827> <Mlp=  222.5827> <PB=1000000> 
---- Diving heuristic node with dive number = 0, fix depth = 0 and tabu list size = 0
Fixed projected solution = [x_1_0_1_OspV=1, x_1_169_1_OspV=1, x_1_419_1_OspV=1]
<DWph=2> <it=  1> <et=95.55> <Mt= 0.00> <Spt= 0.00> <nCl=  0> <DB=  222.5827> <Mlp=  222.5827> <PB=1000000> 
<DWph=1> <it=  2> <et=95.55> <Mt= 0.00> <Spt= 0.00> <nCl=  0> <DB=  222.5827> <Mlp=  222.5827> <PB=1000000> 
---- Diving heuristic node with dive number = 0, fix depth = 0 and tabu list size = 0
Fixed projected solution = [x_1_0_1_OspV=1, x_1_153_1_OspV=1, x_1_431_1_OspV=1]
<DWph=2> <it=  1> <et=95.64> <Mt= 0.00> <Spt= 0.00> <nCl=  0> <DB=  222.5827> <Mlp=  222.5827> <PB=1000000> 
<DWph=1> <it=  2> <et=95.64> <Mt= 0.00> <Spt= 0.00> <nCl=  0> <DB=  222.5827> <Mlp=  222.5827> <PB=1000000> 
---- Diving heuristic node with dive number = 0, fix depth = 0 and tabu list size = 0
Fixed projected solution = [x_1_0_1_OspV=1, x_1_196_1_OspV=1, x_1_393_1_OspV=1]
<DWph=2> <it=  1> <et=95.72> <Mt= 0.00> <Spt= 0.00> <nCl=  0> <DB=  222.5827> <Mlp=  222.5827> <PB=1000000> 
<DWph=1> <it=  2> <et=95.73> <Mt= 0.00> <Spt= 0.00> <nCl=  0> <DB=  222.5827> <Mlp=  222.5827> <PB=1000000> 
---- Diving heuristic node with dive number = 0, fix depth = 0 and tabu list size = 0
Fixed projected solution = [x_1_0_1_OspV=1, x_1_177_1_OspV=1, x_1_410_1_OspV=1]
<DWph=2> <it=  1> <et=95.81> <Mt= 0.01> <Spt= 0.00> <nCl=  0> <DB=  222.5827> <Mlp=  222.5827> <PB=1000000> 
<DWph=1> <it=  2> <et=95.81> <Mt= 0.00> <Spt= 0.00> <nCl=  0> <DB=  222.5827> <Mlp=  222.5827> <PB=1000000> 
---- Diving heuristic node with dive number = 0, fix depth = 0 and tabu list size = 0
Fixed projected solution = [x_1_0_1_OspV=1, x_1_129_1_OspV=1, x_1_444_1_OspV=1]
<DWph=2> <it=  1> <et=95.90> <Mt= 0.00> <Spt= 0.00> <nCl=  0> <DB=  222.5827> <Mlp=  222.5827> <PB=1000000> 
<DWph=1> <it=  2> <et=95.90> <Mt= 0.00> <Spt= 0.00> <nCl=  0> <DB=  222.5827> <Mlp=  222.5827> <PB=1000000> 
---- Diving heuristic node with dive number = 0, fix depth = 0 and tabu list size = 0
Fixed projected solution = [x_1_0_1_OspV=1, x_1_171_1_OspV=1, x_1_416_1_OspV=1]
<DWph=2> <it=  1> <et=95.99> <Mt= 0.00> <Spt= 0.00> <nCl=  0> <DB=  222.5827> <Mlp=  222.5827> <PB=1000000> 
<DWph=1> <it=  2> <et=95.99> <Mt= 0.00> <Spt= 0.00> <nCl=  0> <DB=  222.5827> <Mlp=  222.5827> <PB=1000000> 
---- Diving heuristic node with dive number = 0, fix depth = 0 and tabu list size = 0
Fixed projected solution = [x_1_0_1_OspV=1, x_1_170_1_OspV=1, x_1_418_1_OspV=1]
<DWph=2> <it=  1> <et=96.08> <Mt= 0.01> <Spt= 0.00> <nCl=  0> <DB=  222.5827> <Mlp=  222.5827> <PB=1000000> 
<DWph=1> <it=  2> <et=96.08> <Mt= 0.00> <Spt= 0.00> <nCl=  0> <DB=  222.5827> <Mlp=  222.5827> <PB=1000000> 
---- Diving heuristic node with dive number = 0, fix depth = 0 and tabu list size = 0
Fixed projected solution = [x_1_0_1_OspV=1, x_1_166_1_OspV=1, x_1_422_1_OspV=1]
<DWph=2> <it=  1> <et=96.17> <Mt= 0.00> <Spt= 0.00> <nCl=  0> <DB=  222.5827> <Mlp=  222.5827> <PB=1000000> 
<DWph=1> <it=  2> <et=96.17> <Mt= 0.00> <Spt= 0.00> <nCl=  0> <DB=  222.5827> <Mlp=  222.5827> <PB=1000000> 
---- Diving heuristic node with dive number = 0, fix depth = 0 and tabu list size = 0
Fixed projected solution = [x_1_0_1_OspV=1, x_1_193_1_OspV=1, x_1_392_1_OspV=1]
<DWph=2> <it=  1> <et=96.26> <Mt= 0.00> <Spt= 0.00> <nCl=  0> <DB=  222.5827> <Mlp=  222.5827> <PB=1000000> 
<DWph=1> <it=  2> <et=96.26> <Mt= 0.00> <Spt= 0.00> <nCl=  0> <DB=  222.5827> <Mlp=  222.5827> <PB=1000000> 
---- Diving heuristic node with dive number = 0, fix depth = 0 and tabu list size = 0
Fixed projected solution = [x_1_0_1_OspV=1, x_1_195_1_OspV=1, x_1_391_1_OspV=1]
<DWph=2> <it=  1> <et=96.34> <Mt= 0.00> <Spt= 0.00> <nCl=  0> <DB=  222.5827> <Mlp=  222.5827> <PB=1000000> 
<DWph=1> <it=  2> <et=96.35> <Mt= 0.00> <Spt= 0.00> <nCl=  0> <DB=  222.5827> <Mlp=  222.5827> <PB=1000000> 
---- Diving heuristic node with dive number = 0, fix depth = 0 and tabu list size = 0
Fixed projected solution = [x_1_0_1_OspV=1, x_1_190_1_OspV=1, x_1_394_1_OspV=1]
<DWph=2> <it=  1> <et=96.43> <Mt= 0.01> <Spt= 0.00> <nCl=  0> <DB=  222.5827> <Mlp=  222.5827> <PB=1000000> 
<DWph=1> <it=  2> <et=96.44> <Mt= 0.00> <Spt= 0.00> <nCl=  0> <DB=  222.5827> <Mlp=  222.5827> <PB=1000000> 
---- Diving heuristic node with dive number = 0, fix depth = 0 and tabu list size = 0
Fixed projected solution = [x_1_0_1_OspV=1, x_1_206_1_OspV=1, x_1_379_1_OspV=1]
<DWph=2> <it=  1> <et=96.52> <Mt= 0.00> <Spt= 0.00> <nCl=  0> <DB=  222.5827> <Mlp=  222.5827> <PB=1000000> 
<DWph=1> <it=  2> <et=96.52> <Mt= 0.00> <Spt= 0.00> <nCl=  0> <DB=  222.5827> <Mlp=  222.5827> <PB=1000000> 
---- Diving heuristic node with dive number = 0, fix depth = 0 and tabu list size = 0
Fixed projected solution = [x_1_0_1_OspV=1, x_1_144_1_OspV=1, x_1_439_1_OspV=1]
<DWph=2> <it=  1> <et=96.61> <Mt= 0.00> <Spt= 0.00> <nCl=  0> <DB=  222.5827> <Mlp=  222.5827> <PB=1000000> 
<DWph=1> <it=  2> <et=96.61> <Mt= 0.00> <Spt= 0.00> <nCl=  0> <DB=  222.5827> <Mlp=  222.5827> <PB=1000000> 
---- Diving heuristic node with dive number = 0, fix depth = 0 and tabu list size = 0
Fixed projected solution = [x_1_0_1_OspV=1, x_1_149_1_OspV=1, x_1_432_1_OspV=1]
<DWph=2> <it=  1> <et=96.70> <Mt= 0.01> <Spt= 0.00> <nCl=  0> <DB=  222.5827> <Mlp=  222.5827> <PB=1000000> 
<DWph=1> <it=  2> <et=96.70> <Mt= 0.00> <Spt= 0.00> <nCl=  0> <DB=  222.5827> <Mlp=  222.5827> <PB=1000000> 
---- Diving heuristic node with dive number = 0, fix depth = 0 and tabu list size = 0
Fixed projected solution = [x_1_0_1_OspV=1, x_1_140_1_OspV=1, x_1_442_1_OspV=1]
<DWph=2> <it=  1> <et=96.79> <Mt= 0.00> <Spt= 0.00> <nCl=  0> <DB=  222.5827> <Mlp=  222.5827> <PB=1000000> 
<DWph=1> <it=  2> <et=96.79> <Mt= 0.00> <Spt= 0.00> <nCl=  0> <DB=  222.5827> <Mlp=  222.5827> <PB=1000000> 
---- Diving heuristic node with dive number = 0, fix depth = 0 and tabu list size = 0
Fixed projected solution = [x_1_0_1_OspV=1, x_1_186_1_OspV=1, x_1_399_1_OspV=1]
<DWph=2> <it=  1> <et=96.88> <Mt= 0.00> <Spt= 0.00> <nCl=  0> <DB=  222.5827> <Mlp=  222.5827> <PB=1000000> 
<DWph=1> <it=  2> <et=96.88> <Mt= 0.00> <Spt= 0.00> <nCl=  0> <DB=  222.5827> <Mlp=  222.5827> <PB=1000000> 
---- Diving heuristic node with dive number = 0, fix depth = 0 and tabu list size = 0
Fixed projected solution = [x_1_0_1_OspV=1, x_1_127_1_OspV=1, x_1_449_1_OspV=1]
<DWph=2> <it=  1> <et=96.97> <Mt= 0.00> <Spt= 0.00> <nCl=  0> <DB=  222.5827> <Mlp=  222.5827> <PB=1000000> 
<DWph=1> <it=  2> <et=96.97> <Mt= 0.01> <Spt= 0.00> <nCl=  0> <DB=  222.5827> <Mlp=  222.5827> <PB=1000000> 
---- Diving heuristic node with dive number = 0, fix depth = 0 and tabu list size = 0
Fixed projected solution = [x_1_0_1_OspV=1, x_1_199_1_OspV=1, x_1_388_1_OspV=1]
<DWph=2> <it=  1> <et=97.05> <Mt= 0.00> <Spt= 0.00> <nCl=  0> <DB=  222.5827> <Mlp=  222.5827> <PB=1000000> 
<DWph=1> <it=  2> <et=97.06> <Mt= 0.00> <Spt= 0.00> <nCl=  0> <DB=  222.5827> <Mlp=  222.5827> <PB=1000000> 
---- Diving heuristic node with dive number = 0, fix depth = 0 and tabu list size = 0
Fixed projected solution = [x_1_0_1_OspV=1, x_1_198_1_OspV=1, x_1_390_1_OspV=1]
<DWph=2> <it=  1> <et=97.14> <Mt= 0.00> <Spt= 0.00> <nCl=  0> <DB=  222.5827> <Mlp=  222.5827> <PB=1000000> 
<DWph=1> <it=  2> <et=97.14> <Mt= 0.00> <Spt= 0.00> <nCl=  0> <DB=  222.5827> <Mlp=  222.5827> <PB=1000000> 
---- Diving heuristic node with dive number = 0, fix depth = 0 and tabu list size = 0
Fixed projected solution = [x_1_0_1_OspV=1, x_1_156_1_OspV=1, x_1_426_1_OspV=1]
<DWph=2> <it=  1> <et=97.23> <Mt= 0.00> <Spt= 0.00> <nCl=  0> <DB=  222.5827> <Mlp=  222.5827> <PB=1000000> 
<DWph=1> <it=  2> <et=97.23> <Mt= 0.00> <Spt= 0.00> <nCl=  0> <DB=  222.5827> <Mlp=  222.5827> <PB=1000000> 
---- Diving heuristic node with dive number = 0, fix depth = 0 and tabu list size = 0
Fixed projected solution = [x_1_0_1_OspV=1, x_1_130_1_OspV=1, x_1_447_1_OspV=1]
<DWph=2> <it=  1> <et=97.32> <Mt= 0.01> <Spt= 0.00> <nCl=  0> <DB=  222.5827> <Mlp=  222.5827> <PB=1000000> 
<DWph=1> <it=  2> <et=97.32> <Mt= 0.00> <Spt= 0.00> <nCl=  0> <DB=  222.5827> <Mlp=  222.5827> <PB=1000000> 
---- Diving heuristic node with dive number = 0, fix depth = 0 and tabu list size = 0
Fixed projected solution = [x_1_0_1_OspV=1, x_1_125_1_OspV=1, x_1_450_1_OspV=1]
<DWph=2> <it=  1> <et=97.41> <Mt= 0.00> <Spt= 0.00> <nCl=  0> <DB=  222.5827> <Mlp=  222.5827> <PB=1000000> 
<DWph=1> <it=  2> <et=97.41> <Mt= 0.00> <Spt= 0.00> <nCl=  0> <DB=  222.5827> <Mlp=  222.5827> <PB=1000000> 
---- Diving heuristic node with dive number = 0, fix depth = 0 and tabu list size = 0
Fixed projected solution = [x_1_0_1_OspV=1, x_1_119_1_OspV=1, x_1_454_1_OspV=1]
<DWph=2> <it=  1> <et=97.50> <Mt= 0.00> <Spt= 0.00> <nCl=  0> <DB=  222.5827> <Mlp=  222.5827> <PB=1000000> 
<DWph=1> <it=  2> <et=97.50> <Mt= 0.00> <Spt= 0.00> <nCl=  0> <DB=  222.5827> <Mlp=  222.5827> <PB=1000000> 
---- Diving heuristic node with dive number = 0, fix depth = 0 and tabu list size = 0
Fixed projected solution = [x_1_0_1_OspV=1, x_1_97_1_OspV=1, x_1_482_1_OspV=1]
<DWph=2> <it=  1> <et=97.59> <Mt= 0.00> <Spt= 0.00> <nCl=  0> <DB=  222.5827> <Mlp=  222.5827> <PB=1000000> 
<DWph=1> <it=  2> <et=97.59> <Mt= 0.01> <Spt= 0.00> <nCl=  0> <DB=  222.5827> <Mlp=  222.5827> <PB=1000000> 
---- Diving heuristic node with dive number = 0, fix depth = 0 and tabu list size = 0
Fixed projected solution = [x_1_0_1_OspV=1, x_1_115_1_OspV=1, x_1_461_1_OspV=1]
<DWph=2> <it=  1> <et=97.67> <Mt= 0.00> <Spt= 0.00> <nCl=  0> <DB=  222.5827> <Mlp=  222.5827> <PB=1000000> 
<DWph=1> <it=  2> <et=97.68> <Mt= 0.00> <Spt= 0.00> <nCl=  0> <DB=  222.5827> <Mlp=  222.5827> <PB=1000000> 
---- Diving heuristic node with dive number = 0, fix depth = 0 and tabu list size = 0
Fixed projected solution = [x_1_0_1_OspV=1, x_1_117_1_OspV=1, x_1_456_1_OspV=1]
<DWph=2> <it=  1> <et=97.76> <Mt= 0.00> <Spt= 0.00> <nCl=  0> <DB=  222.5827> <Mlp=  222.5827> <PB=1000000> 
<DWph=1> <it=  2> <et=97.76> <Mt= 0.00> <Spt= 0.00> <nCl=  0> <DB=  222.5827> <Mlp=  222.5827> <PB=1000000> 
---- Diving heuristic node with dive number = 0, fix depth = 0 and tabu list size = 0
Fixed projected solution = [x_1_0_1_OspV=1, x_1_99_1_OspV=1, x_1_481_1_OspV=1]
<DWph=2> <it=  1> <et=97.85> <Mt= 0.00> <Spt= 0.00> <nCl=  0> <DB=  222.5827> <Mlp=  222.5827> <PB=1000000> 
<DWph=1> <it=  2> <et=97.85> <Mt= 0.00> <Spt= 0.00> <nCl=  0> <DB=  222.5827> <Mlp=  222.5827> <PB=1000000> 
---- Diving heuristic node with dive number = 0, fix depth = 0 and tabu list size = 0
Fixed projected solution = [x_1_0_1_OspV=1, x_1_107_1_OspV=1, x_1_475_1_OspV=1]
<DWph=2> <it=  1> <et=97.94> <Mt= 0.01> <Spt= 0.00> <nCl=  0> <DB=  222.5827> <Mlp=  222.5827> <PB=1000000> 
<DWph=1> <it=  2> <et=97.94> <Mt= 0.00> <Spt= 0.00> <nCl=  0> <DB=  222.5827> <Mlp=  222.5827> <PB=1000000> 
---- Diving heuristic node with dive number = 0, fix depth = 0 and tabu list size = 0
Fixed projected solution = [x_1_0_1_OspV=1, x_1_72_1_OspV=1, x_1_500_1_OspV=1]
<DWph=2> <it=  1> <et=98.03> <Mt= 0.00> <Spt= 0.00> <nCl=  0> <DB=  222.5827> <Mlp=  222.5827> <PB=1000000> 
<DWph=1> <it=  2> <et=98.03> <Mt= 0.00> <Spt= 0.00> <nCl=  0> <DB=  222.5827> <Mlp=  222.5827> <PB=1000000> 
---- Diving heuristic node with dive number = 0, fix depth = 0 and tabu list size = 0
Fixed projected solution = [x_1_0_1_OspV=1, x_1_151_1_OspV=1, x_1_430_1_OspV=1]
<DWph=2> <it=  1> <et=98.12> <Mt= 0.00> <Spt= 0.00> <nCl=  0> <DB=  222.5827> <Mlp=  222.5827> <PB=1000000> 
<DWph=1> <it=  2> <et=98.12> <Mt= 0.00> <Spt= 0.00> <nCl=  0> <DB=  222.5827> <Mlp=  222.5827> <PB=1000000> 
---- Diving heuristic node with dive number = 0, fix depth = 0 and tabu list size = 0
Fixed projected solution = [x_1_0_1_OspV=1, x_1_131_1_OspV=1, x_1_446_1_OspV=1]
<DWph=2> <it=  1> <et=98.21> <Mt= 0.00> <Spt= 0.00> <nCl=  0> <DB=  222.5827> <Mlp=  222.5827> <PB=1000000> 
<DWph=1> <it=  2> <et=98.21> <Mt= 0.01> <Spt= 0.00> <nCl=  0> <DB=  222.5827> <Mlp=  222.5827> <PB=1000000> 
---- Diving heuristic node with dive number = 0, fix depth = 0 and tabu list size = 0
Fixed projected solution = [x_1_0_1_OspV=1, x_1_116_1_OspV=1, x_1_460_1_OspV=1]
<DWph=2> <it=  1> <et=98.30> <Mt= 0.00> <Spt= 0.00> <nCl=  0> <DB=  222.5827> <Mlp=  222.5827> <PB=1000000> 
<DWph=1> <it=  2> <et=98.30> <Mt= 0.00> <Spt= 0.00> <nCl=  0> <DB=  222.5827> <Mlp=  222.5827> <PB=1000000> 
---- Diving heuristic node with dive number = 0, fix depth = 0 and tabu list size = 0
Fixed projected solution = [x_1_0_1_OspV=1, x_1_167_1_OspV=1, x_1_420_1_OspV=1]
<DWph=2> <it=  1> <et=98.38> <Mt= 0.00> <Spt= 0.00> <nCl=  0> <DB=  222.5827> <Mlp=  222.5827> <PB=1000000> 
<DWph=1> <it=  2> <et=98.39> <Mt= 0.00> <Spt= 0.00> <nCl=  0> <DB=  222.5827> <Mlp=  222.5827> <PB=1000000> 
---- Diving heuristic node with dive number = 0, fix depth = 0 and tabu list size = 0
Fixed projected solution = [x_1_0_1_OspV=1, x_1_165_1_OspV=1, x_1_421_1_OspV=1]
<DWph=2> <it=  1> <et=98.47> <Mt= 0.00> <Spt= 0.00> <nCl=  0> <DB=  222.5827> <Mlp=  222.5827> <PB=1000000> 
<DWph=1> <it=  2> <et=98.47> <Mt= 0.00> <Spt= 0.00> <nCl=  0> <DB=  222.5827> <Mlp=  222.5827> <PB=1000000> 
---- Diving heuristic node with dive number = 0, fix depth = 0 and tabu list size = 0
Fixed projected solution = [x_1_0_1_OspV=1, x_1_159_1_OspV=1, x_1_424_1_OspV=1]
<DWph=2> <it=  1> <et=98.56> <Mt= 0.01> <Spt= 0.00> <nCl=  0> <DB=  222.5827> <Mlp=  222.5827> <PB=1000000> 
<DWph=1> <it=  2> <et=98.56> <Mt= 0.00> <Spt= 0.00> <nCl=  0> <DB=  222.5827> <Mlp=  222.5827> <PB=1000000> 
---- Diving heuristic node with dive number = 0, fix depth = 0 and tabu list size = 0
Fixed projected solution = [x_1_0_1_OspV=1, x_1_112_1_OspV=1, x_1_462_1_OspV=1]
<DWph=2> <it=  1> <et=98.65> <Mt= 0.00> <Spt= 0.00> <nCl=  0> <DB=  222.5827> <Mlp=  222.5827> <PB=1000000> 
<DWph=1> <it=  2> <et=98.65> <Mt= 0.00> <Spt= 0.00> <nCl=  0> <DB=  222.5827> <Mlp=  222.5827> <PB=1000000> 
---- Diving heuristic node with dive number = 0, fix depth = 0 and tabu list size = 0
Fixed projected solution = [x_1_0_1_OspV=1, x_1_86_1_OspV=1, x_1_488_1_OspV=1]
<DWph=2> <it=  1> <et=98.74> <Mt= 0.00> <Spt= 0.00> <nCl=  0> <DB=  222.5827> <Mlp=  222.5827> <PB=1000000> 
<DWph=1> <it=  2> <et=98.74> <Mt= 0.00> <Spt= 0.00> <nCl=  0> <DB=  222.5827> <Mlp=  222.5827> <PB=1000000> 
---- Diving heuristic node with dive number = 0, fix depth = 0 and tabu list size = 0
Fixed projected solution = [x_1_0_1_OspV=1, x_1_105_1_OspV=1, x_1_476_1_OspV=1]
<DWph=2> <it=  1> <et=98.83> <Mt= 0.00> <Spt= 0.00> <nCl=  0> <DB=  222.5827> <Mlp=  222.5827> <PB=1000000> 
<DWph=1> <it=  2> <et=98.83> <Mt= 0.01> <Spt= 0.00> <nCl=  0> <DB=  222.5827> <Mlp=  222.5827> <PB=1000000> 
---- Diving heuristic node with dive number = 0, fix depth = 0 and tabu list size = 0
Fixed projected solution = [x_1_0_1_OspV=1, x_1_100_1_OspV=1, x_1_480_1_OspV=1]
<DWph=2> <it=  1> <et=98.92> <Mt= 0.00> <Spt= 0.00> <nCl=  0> <DB=  222.5827> <Mlp=  222.5827> <PB=1000000> 
<DWph=1> <it=  2> <et=98.92> <Mt= 0.00> <Spt= 0.00> <nCl=  0> <DB=  222.5827> <Mlp=  222.5827> <PB=1000000> 
---- Diving heuristic node with dive number = 0, fix depth = 0 and tabu list size = 0
Fixed projected solution = [x_1_0_1_OspV=1, x_1_114_1_OspV=1, x_1_459_1_OspV=1]
<DWph=2> <it=  1> <et=99.00> <Mt= 0.00> <Spt= 0.00> <nCl=  0> <DB=  222.5827> <Mlp=  222.5827> <PB=1000000> 
<DWph=1> <it=  2> <et=99.01> <Mt= 0.00> <Spt= 0.00> <nCl=  0> <DB=  222.5827> <Mlp=  222.5827> <PB=1000000> 
---- Diving heuristic node with dive number = 0, fix depth = 0 and tabu list size = 0
Fixed projected solution = [x_1_0_1_OspV=1, x_1_113_1_OspV=1, x_1_463_1_OspV=1]
<DWph=2> <it=  1> <et=99.09> <Mt= 0.00> <Spt= 0.00> <nCl=  0> <DB=  222.5827> <Mlp=  222.5827> <PB=1000000> 
<DWph=1> <it=  2> <et=99.09> <Mt= 0.00> <Spt= 0.00> <nCl=  0> <DB=  222.5827> <Mlp=  222.5827> <PB=1000000> 
---- Diving heuristic node with dive number = 0, fix depth = 0 and tabu list size = 0
Fixed projected solution = [x_1_0_1_OspV=1, x_1_96_1_OspV=1, x_1_484_1_OspV=1]
<DWph=2> <it=  1> <et=99.18> <Mt= 0.01> <Spt= 0.00> <nCl=  0> <DB=  222.5827> <Mlp=  222.5827> <PB=1000000> 
<DWph=1> <it=  2> <et=99.18> <Mt= 0.00> <Spt= 0.00> <nCl=  0> <DB=  222.5827> <Mlp=  222.5827> <PB=1000000> 
---- Diving heuristic node with dive number = 0, fix depth = 0 and tabu list size = 0
Fixed projected solution = [x_1_0_1_OspV=1, x_1_103_1_OspV=1, x_1_473_1_OspV=1]
<DWph=2> <it=  1> <et=99.27> <Mt= 0.00> <Spt= 0.00> <nCl=  0> <DB=  222.5827> <Mlp=  222.5827> <PB=1000000> 
<DWph=1> <it=  2> <et=99.27> <Mt= 0.00> <Spt= 0.00> <nCl=  0> <DB=  222.5827> <Mlp=  222.5827> <PB=1000000> 
---- Diving heuristic node with dive number = 0, fix depth = 0 and tabu list size = 0
Fixed projected solution = [x_1_0_1_OspV=1, x_1_102_1_OspV=1, x_1_478_1_OspV=1]
<DWph=2> <it=  1> <et=99.36> <Mt= 0.00> <Spt= 0.00> <nCl=  0> <DB=  222.5827> <Mlp=  222.5827> <PB=1000000> 
<DWph=1> <it=  2> <et=99.36> <Mt= 0.00> <Spt= 0.00> <nCl=  0> <DB=  222.5827> <Mlp=  222.5827> <PB=1000000> 
---- Diving heuristic node with dive number = 0, fix depth = 0 and tabu list size = 0
Fixed projected solution = [x_1_0_1_OspV=1, x_1_176_1_OspV=1, x_1_414_1_OspV=1]
<DWph=2> <it=  1> <et=99.45> <Mt= 0.00> <Spt= 0.00> <nCl=  0> <DB=  222.5827> <Mlp=  222.5827> <PB=1000000> 
<DWph=1> <it=  2> <et=99.45> <Mt= 0.01> <Spt= 0.00> <nCl=  0> <DB=  222.5827> <Mlp=  222.5827> <PB=1000000> 
---- Diving heuristic node with dive number = 0, fix depth = 0 and tabu list size = 0
Fixed projected solution = [x_1_0_1_OspV=1, x_1_101_1_OspV=1, x_1_479_1_OspV=1]
<DWph=2> <it=  1> <et=99.53> <Mt= 0.00> <Spt= 0.00> <nCl=  0> <DB=  222.5827> <Mlp=  222.5827> <PB=1000000> 
<DWph=1> <it=  2> <et=99.54> <Mt= 0.00> <Spt= 0.00> <nCl=  0> <DB=  222.5827> <Mlp=  222.5827> <PB=1000000> 
---- Diving heuristic node with dive number = 0, fix depth = 0 and tabu list size = 0
Fixed projected solution = [x_1_0_1_OspV=1, x_1_79_1_OspV=1, x_1_495_1_OspV=1]
<DWph=2> <it=  1> <et=99.62> <Mt= 0.00> <Spt= 0.00> <nCl=  0> <DB=  222.5827> <Mlp=  222.5827> <PB=1000000> 
<DWph=1> <it=  2> <et=99.62> <Mt= 0.00> <Spt= 0.00> <nCl=  0> <DB=  222.5827> <Mlp=  222.5827> <PB=1000000> 
---- Diving heuristic node with dive number = 0, fix depth = 0 and tabu list size = 0
Fixed projected solution = [x_1_0_1_OspV=1, x_1_76_1_OspV=1, x_1_496_1_OspV=1]
<DWph=2> <it=  1> <et=99.71> <Mt= 0.00> <Spt= 0.00> <nCl=  0> <DB=  222.5827> <Mlp=  222.5827> <PB=1000000> 
<DWph=1> <it=  2> <et=99.71> <Mt= 0.00> <Spt= 0.00> <nCl=  0> <DB=  222.5827> <Mlp=  222.5827> <PB=1000000> 
---- Diving heuristic node with dive number = 0, fix depth = 0 and tabu list size = 0
Fixed projected solution = [x_1_0_1_OspV=1, x_1_212_1_OspV=1, x_1_374_1_OspV=1]
<DWph=2> <it=  1> <et=99.80> <Mt= 0.01> <Spt= 0.00> <nCl=  0> <DB=  222.5827> <Mlp=  222.5827> <PB=1000000> 
<DWph=1> <it=  2> <et=99.80> <Mt= 0.00> <Spt= 0.00> <nCl=  0> <DB=  222.5827> <Mlp=  222.5827> <PB=1000000> 
---- Diving heuristic node with dive number = 0, fix depth = 0 and tabu list size = 0
Fixed projected solution = [x_1_0_1_OspV=1, x_1_126_1_OspV=1, x_1_448_1_OspV=1]
<DWph=2> <it=  1> <et=99.89> <Mt= 0.00> <Spt= 0.00> <nCl=  0> <DB=  222.5827> <Mlp=  222.5827> <PB=1000000> 
<DWph=1> <it=  2> <et=99.89> <Mt= 0.00> <Spt= 0.00> <nCl=  0> <DB=  222.5827> <Mlp=  222.5827> <PB=1000000> 
---- Diving heuristic node with dive number = 0, fix depth = 0 and tabu list size = 0
Fixed projected solution = [x_1_0_1_OspV=1, x_1_104_1_OspV=1, x_1_477_1_OspV=1]
<DWph=2> <it=  1> <et=99.98> <Mt= 0.00> <Spt= 0.00> <nCl=  0> <DB=  222.5827> <Mlp=  222.5827> <PB=1000000> 
<DWph=1> <it=  2> <et=99.98> <Mt= 0.00> <Spt= 0.00> <nCl=  0> <DB=  222.5827> <Mlp=  222.5827> <PB=1000000> 
---- Diving heuristic node with dive number = 0, fix depth = 0 and tabu list size = 0
Fixed projected solution = [x_1_0_1_OspV=1, x_1_128_1_OspV=1, x_1_445_1_OspV=1]
<DWph=2> <it=  1> <et=100.07> <Mt= 0.00> <Spt= 0.00> <nCl=  0> <DB=  222.5827> <Mlp=  222.5827> <PB=1000000> 
<DWph=1> <it=  2> <et=100.07> <Mt= 0.01> <Spt= 0.00> <nCl=  0> <DB=  222.5827> <Mlp=  222.5827> <PB=1000000> 
---- Diving heuristic node with dive number = 0, fix depth = 0 and tabu list size = 0
Fixed projected solution = [x_1_0_1_OspV=1, x_1_224_1_OspV=1, x_1_369_1_OspV=1]
<DWph=2> <it=  1> <et=100.15> <Mt= 0.00> <Spt= 0.00> <nCl=  0> <DB=  222.5827> <Mlp=  222.5827> <PB=1000000> 
<DWph=1> <it=  2> <et=100.16> <Mt= 0.00> <Spt= 0.00> <nCl=  0> <DB=  222.5827> <Mlp=  222.5827> <PB=1000000> 
---- Diving heuristic node with dive number = 0, fix depth = 0 and tabu list size = 0
Fixed projected solution = [x_1_0_1_OspV=1, x_1_80_1_OspV=1, x_1_494_1_OspV=1]
<DWph=2> <it=  1> <et=100.24> <Mt= 0.00> <Spt= 0.00> <nCl=  0> <DB=  222.5827> <Mlp=  222.5827> <PB=1000000> 
<DWph=1> <it=  2> <et=100.24> <Mt= 0.00> <Spt= 0.00> <nCl=  0> <DB=  222.5827> <Mlp=  222.5827> <PB=1000000> 
---- Diving heuristic node with dive number = 0, fix depth = 0 and tabu list size = 0
Fixed projected solution = [x_1_0_1_OspV=1, x_1_85_1_OspV=1, x_1_490_1_OspV=1]
<DWph=2> <it=  1> <et=100.33> <Mt= 0.00> <Spt= 0.00> <nCl=  0> <DB=  222.5827> <Mlp=  222.5827> <PB=1000000> 
<DWph=1> <it=  2> <et=100.33> <Mt= 0.00> <Spt= 0.00> <nCl=  0> <DB=  222.5827> <Mlp=  222.5827> <PB=1000000> 
---- Diving heuristic node with dive number = 0, fix depth = 0 and tabu list size = 0
Fixed projected solution = [x_1_0_1_OspV=1, x_1_240_1_OspV=1, x_1_349_1_OspV=1]
<DWph=2> <it=  1> <et=100.42> <Mt= 0.01> <Spt= 0.00> <nCl=  0> <DB=  222.5827> <Mlp=  222.5827> <PB=1000000> 
<DWph=1> <it=  2> <et=100.42> <Mt= 0.00> <Spt= 0.00> <nCl=  0> <DB=  222.5827> <Mlp=  222.5827> <PB=1000000> 
---- Diving heuristic node with dive number = 0, fix depth = 0 and tabu list size = 0
Fixed projected solution = [x_1_0_1_OspV=1, x_1_89_1_OspV=1, x_1_489_1_OspV=1]
<DWph=2> <it=  1> <et=100.51> <Mt= 0.00> <Spt= 0.00> <nCl=  0> <DB=  222.5827> <Mlp=  222.5827> <PB=1000000> 
<DWph=1> <it=  2> <et=100.51> <Mt= 0.00> <Spt= 0.00> <nCl=  0> <DB=  222.5827> <Mlp=  222.5827> <PB=1000000> 
---- Diving heuristic node with dive number = 0, fix depth = 0 and tabu list size = 0
Fixed projected solution = [x_1_0_1_OspV=1, x_1_108_1_OspV=1, x_1_470_1_OspV=1]
<DWph=2> <it=  1> <et=100.60> <Mt= 0.00> <Spt= 0.00> <nCl=  0> <DB=  222.5827> <Mlp=  222.5827> <PB=1000000> 
<DWph=1> <it=  2> <et=100.60> <Mt= 0.00> <Spt= 0.00> <nCl=  0> <DB=  222.5827> <Mlp=  222.5827> <PB=1000000> 
---- Diving heuristic node with dive number = 0, fix depth = 0 and tabu list size = 0
Fixed projected solution = [x_1_0_1_OspV=1, x_1_90_1_OspV=1, x_1_487_1_OspV=1]
<DWph=2> <it=  1> <et=100.69> <Mt= 0.01> <Spt= 0.00> <nCl=  0> <DB=  222.5827> <Mlp=  222.5827> <PB=1000000> 
<DWph=1> <it=  2> <et=100.69> <Mt= 0.00> <Spt= 0.00> <nCl=  0> <DB=  222.5827> <Mlp=  222.5827> <PB=1000000> 
---- Diving heuristic node with dive number = 0, fix depth = 0 and tabu list size = 0
Fixed projected solution = [x_1_0_1_OspV=1, x_1_118_1_OspV=1, x_1_457_1_OspV=1]
<DWph=2> <it=  1> <et=100.78> <Mt= 0.00> <Spt= 0.00> <nCl=  0> <DB=  222.5827> <Mlp=  222.5827> <PB=1000000> 
<DWph=1> <it=  2> <et=100.78> <Mt= 0.00> <Spt= 0.00> <nCl=  0> <DB=  222.5827> <Mlp=  222.5827> <PB=1000000> 
---- Diving heuristic node with dive number = 0, fix depth = 0 and tabu list size = 0
Fixed projected solution = [x_1_0_1_OspV=1, x_1_179_1_OspV=1, x_1_405_1_OspV=1]
<DWph=2> <it=  1> <et=100.87> <Mt= 0.00> <Spt= 0.00> <nCl=  0> <DB=  222.5827> <Mlp=  222.5827> <PB=1000000> 
<DWph=1> <it=  2> <et=100.87> <Mt= 0.00> <Spt= 0.00> <nCl=  0> <DB=  222.5827> <Mlp=  222.5827> <PB=1000000> 
---- Diving heuristic node with dive number = 0, fix depth = 0 and tabu list size = 0
Fixed projected solution = [x_1_0_1_OspV=1, x_1_244_1_OspV=1, x_1_343_1_OspV=1]
<DWph=2> <it=  1> <et=100.96> <Mt= 0.00> <Spt= 0.00> <nCl=  0> <DB=  222.5827> <Mlp=  222.5827> <PB=1000000> 
<DWph=1> <it=  2> <et=100.96> <Mt= 0.00> <Spt= 0.00> <nCl=  0> <DB=  222.5827> <Mlp=  222.5827> <PB=1000000> 
---- Diving heuristic node with dive number = 0, fix depth = 0 and tabu list size = 0
Fixed projected solution = [x_1_0_1_OspV=1, x_1_75_1_OspV=1, x_1_497_1_OspV=1]
<DWph=2> <it=  1> <et=101.05> <Mt= 0.01> <Spt= 0.00> <nCl=  0> <DB=  222.5827> <Mlp=  222.5827> <PB=1000000> 
<DWph=1> <it=  2> <et=101.05> <Mt= 0.00> <Spt= 0.00> <nCl=  0> <DB=  222.5827> <Mlp=  222.5827> <PB=1000000> 
---- Diving heuristic node with dive number = 0, fix depth = 0 and tabu list size = 0
Fixed projected solution = [x_1_0_1_OspV=1, x_1_73_1_OspV=1, x_1_498_1_OspV=1]
<DWph=2> <it=  1> <et=101.14> <Mt= 0.00> <Spt= 0.00> <nCl=  0> <DB=  222.5827> <Mlp=  222.5827> <PB=1000000> 
<DWph=1> <it=  2> <et=101.14> <Mt= 0.00> <Spt= 0.00> <nCl=  0> <DB=  222.5827> <Mlp=  222.5827> <PB=1000000> 
---- Diving heuristic node with dive number = 0, fix depth = 0 and tabu list size = 0
Fixed projected solution = [x_1_0_1_OspV=1, x_1_207_1_OspV=1, x_1_378_1_OspV=1]
<DWph=2> <it=  1> <et=101.23> <Mt= 0.00> <Spt= 0.00> <nCl=  0> <DB=  222.5827> <Mlp=  222.5827> <PB=1000000> 
<DWph=1> <it=  2> <et=101.23> <Mt= 0.00> <Spt= 0.00> <nCl=  0> <DB=  222.5827> <Mlp=  222.5827> <PB=1000000> 
---- Diving heuristic node with dive number = 0, fix depth = 0 and tabu list size = 0
Fixed projected solution = [x_1_0_1_OspV=1, x_1_188_1_OspV=1, x_1_397_1_OspV=1]
<DWph=2> <it=  1> <et=101.31> <Mt= 0.01> <Spt= 0.00> <nCl=  0> <DB=  222.5827> <Mlp=  222.5827> <PB=1000000> 
<DWph=1> <it=  2> <et=101.32> <Mt= 0.00> <Spt= 0.00> <nCl=  0> <DB=  222.5827> <Mlp=  222.5827> <PB=1000000> 
---- Diving heuristic node with dive number = 0, fix depth = 0 and tabu list size = 0
Fixed projected solution = [x_1_0_1_OspV=1, x_1_150_1_OspV=1, x_1_434_1_OspV=1]
<DWph=2> <it=  1> <et=101.40> <Mt= 0.00> <Spt= 0.00> <nCl=  0> <DB=  222.5827> <Mlp=  222.5827> <PB=1000000> 
<DWph=1> <it=  2> <et=101.40> <Mt= 0.00> <Spt= 0.00> <nCl=  0> <DB=  222.5827> <Mlp=  222.5827> <PB=1000000> 
---- Diving heuristic node with dive number = 0, fix depth = 0 and tabu list size = 0
Fixed projected solution = [x_1_0_1_OspV=1, x_1_32_1_OspV=1, x_1_183_1_OspV=1, x_1_293_1_OspV=1]
<DWph=2> <it=  1> <et=101.49> <Mt= 0.00> <Spt= 0.00> <nCl=  0> <DB=  222.5827> <Mlp=  222.5827> <PB=1000000> 
<DWph=1> <it=  2> <et=101.49> <Mt= 0.00> <Spt= 0.00> <nCl=  0> <DB=  222.5827> <Mlp=  222.5827> <PB=1000000> 
---- Diving heuristic node with dive number = 0, fix depth = 0 and tabu list size = 0
Fixed projected solution = [x_1_0_1_OspV=1, x_1_252_1_OspV=1, x_1_337_1_OspV=1]
<DWph=2> <it=  1> <et=101.58> <Mt= 0.00> <Spt= 0.00> <nCl=  0> <DB=  222.5827> <Mlp=  222.5827> <PB=1000000> 
<DWph=1> <it=  2> <et=101.58> <Mt= 0.00> <Spt= 0.00> <nCl=  0> <DB=  222.5827> <Mlp=  222.5827> <PB=1000000> 
---- Diving heuristic node with dive number = 0, fix depth = 0 and tabu list size = 0
Fixed projected solution = [x_1_0_1_OspV=1, x_1_87_1_OspV=1, x_1_210_1_OspV=1, x_1_217_1_OspV=1]
<DWph=2> <it=  1> <et=101.67> <Mt= 0.01> <Spt= 0.00> <nCl=  0> <DB=  222.5827> <Mlp=  222.5827> <PB=1000000> 
<DWph=1> <it=  2> <et=101.67> <Mt= 0.00> <Spt= 0.00> <nCl=  0> <DB=  222.5827> <Mlp=  222.5827> <PB=1000000> 
---- Diving heuristic node with dive number = 0, fix depth = 0 and tabu list size = 0
Fixed projected solution = [x_1_0_1_OspV=1, x_1_204_1_OspV=1, x_1_381_1_OspV=1]
<DWph=2> <it=  1> <et=101.76> <Mt= 0.00> <Spt= 0.00> <nCl=  0> <DB=  222.5827> <Mlp=  222.5827> <PB=1000000> 
<DWph=1> <it=  2> <et=101.76> <Mt= 0.00> <Spt= 0.00> <nCl=  0> <DB=  222.5827> <Mlp=  222.5827> <PB=1000000> 
---- Diving heuristic node with dive number = 0, fix depth = 0 and tabu list size = 0
Fixed projected solution = [x_1_0_1_OspV=1, x_1_205_1_OspV=1, x_1_380_1_OspV=1]
<DWph=2> <it=  1> <et=101.85> <Mt= 0.00> <Spt= 0.00> <nCl=  0> <DB=  222.5827> <Mlp=  222.5827> <PB=1000000> 
<DWph=1> <it=  2> <et=101.85> <Mt= 0.00> <Spt= 0.00> <nCl=  0> <DB=  222.5827> <Mlp=  222.5827> <PB=1000000> 
---- Diving heuristic node with dive number = 0, fix depth = 0 and tabu list size = 0
Fixed projected solution = [x_1_0_1_OspV=1, x_1_91_1_OspV=1, x_1_486_1_OspV=1]
<DWph=2> <it=  1> <et=101.93> <Mt= 0.00> <Spt= 0.00> <nCl=  0> <DB=  222.5827> <Mlp=  222.5827> <PB=1000000> 
<DWph=1> <it=  2> <et=101.94> <Mt= 0.01> <Spt= 0.00> <nCl=  0> <DB=  222.5827> <Mlp=  222.5827> <PB=1000000> 
---- Diving heuristic node with dive number = 0, fix depth = 0 and tabu list size = 0
Fixed projected solution = [x_1_0_1_OspV=1, x_1_70_1_OspV=1, x_1_499_1_OspV=1]
<DWph=2> <it=  1> <et=102.02> <Mt= 0.00> <Spt= 0.00> <nCl=  0> <DB=  222.5827> <Mlp=  222.5827> <PB=1000000> 
<DWph=1> <it=  2> <et=102.02> <Mt= 0.00> <Spt= 0.00> <nCl=  0> <DB=  222.5827> <Mlp=  222.5827> <PB=1000000> 
---- Diving heuristic node with dive number = 0, fix depth = 0 and tabu list size = 0
Fixed projected solution = [x_1_0_1_OspV=1, x_1_120_1_OspV=1, x_1_451_1_OspV=1]
<DWph=2> <it=  1> <et=102.11> <Mt= 0.00> <Spt= 0.00> <nCl=  0> <DB=  222.5827> <Mlp=  222.5827> <PB=1000000> 
<DWph=1> <it=  2> <et=102.11> <Mt= 0.00> <Spt= 0.00> <nCl=  0> <DB=  222.5827> <Mlp=  222.5827> <PB=1000000> 
---- Diving heuristic node with dive number = 0, fix depth = 0 and tabu list size = 0
Fixed projected solution = [x_1_0_1_OspV=1, x_1_152_1_OspV=1, x_1_429_1_OspV=1]
<DWph=2> <it=  1> <et=102.20> <Mt= 0.00> <Spt= 0.00> <nCl=  0> <DB=  222.5827> <Mlp=  222.5827> <PB=1000000> 
<DWph=1> <it=  2> <et=102.20> <Mt= 0.00> <Spt= 0.00> <nCl=  0> <DB=  222.5827> <Mlp=  222.5827> <PB=1000000> 
---- Diving heuristic node with dive number = 0, fix depth = 0 and tabu list size = 0
Fixed projected solution = [x_1_0_1_OspV=1, x_1_146_1_OspV=1, x_1_436_1_OspV=1]
<DWph=2> <it=  1> <et=102.29> <Mt= 0.01> <Spt= 0.00> <nCl=  0> <DB=  222.5827> <Mlp=  222.5827> <PB=1000000> 
<DWph=1> <it=  2> <et=102.29> <Mt= 0.00> <Spt= 0.00> <nCl=  0> <DB=  222.5827> <Mlp=  222.5827> <PB=1000000> 
---- Diving heuristic node with dive number = 0, fix depth = 0 and tabu list size = 0
Fixed projected solution = [x_1_0_1_OspV=1, x_1_71_1_OspV=1, x_1_501_1_OspV=1]
<DWph=2> <it=  1> <et=102.38> <Mt= 0.00> <Spt= 0.00> <nCl=  0> <DB=  222.5827> <Mlp=  222.5827> <PB=1000000> 
<DWph=1> <it=  2> <et=102.38> <Mt= 0.00> <Spt= 0.00> <nCl=  0> <DB=  222.5827> <Mlp=  222.5827> <PB=1000000> 
---- Diving heuristic node with dive number = 0, fix depth = 0 and tabu list size = 0
Fixed projected solution = [x_1_0_1_OspV=1, x_1_238_1_OspV=1, x_1_350_1_OspV=1]
<DWph=2> <it=  1> <et=102.46> <Mt= 0.00> <Spt= 0.00> <nCl=  0> <DB=  222.5827> <Mlp=  222.5827> <PB=1000000> 
<DWph=1> <it=  2> <et=102.47> <Mt= 0.00> <Spt= 0.00> <nCl=  0> <DB=  222.5827> <Mlp=  222.5827> <PB=1000000> 
---- Diving heuristic node with dive number = 0, fix depth = 0 and tabu list size = 0
Fixed projected solution = [x_1_0_1_OspV=1, x_1_187_1_OspV=1, x_1_398_1_OspV=1]
<DWph=2> <it=  1> <et=102.55> <Mt= 0.00> <Spt= 0.00> <nCl=  0> <DB=  222.5827> <Mlp=  222.5827> <PB=1000000> 
<DWph=1> <it=  2> <et=102.55> <Mt= 0.01> <Spt= 0.00> <nCl=  0> <DB=  222.5827> <Mlp=  222.5827> <PB=1000000> 
---- Diving heuristic node with dive number = 0, fix depth = 0 and tabu list size = 0
Fixed projected solution = [x_1_0_1_OspV=1, x_1_208_1_OspV=1, x_1_377_1_OspV=1]
<DWph=2> <it=  1> <et=102.64> <Mt= 0.00> <Spt= 0.00> <nCl=  0> <DB=  222.5827> <Mlp=  222.5827> <PB=1000000> 
<DWph=1> <it=  2> <et=102.64> <Mt= 0.00> <Spt= 0.00> <nCl=  0> <DB=  222.5827> <Mlp=  222.5827> <PB=1000000> 
---- Diving heuristic node with dive number = 0, fix depth = 0 and tabu list size = 0
Fixed projected solution = [x_1_0_1_OspV=1, x_1_202_1_OspV=1, x_1_386_1_OspV=1]
<DWph=2> <it=  1> <et=102.73> <Mt= 0.00> <Spt= 0.00> <nCl=  0> <DB=  222.5827> <Mlp=  222.5827> <PB=1000000> 
<DWph=1> <it=  2> <et=102.73> <Mt= 0.00> <Spt= 0.00> <nCl=  0> <DB=  222.5827> <Mlp=  222.5827> <PB=1000000> 
---- Diving heuristic node with dive number = 0, fix depth = 0 and tabu list size = 0
Fixed projected solution = [x_1_0_1_OspV=1, x_1_173_1_OspV=1, x_1_415_1_OspV=1]
<DWph=2> <it=  1> <et=102.82> <Mt= 0.00> <Spt= 0.00> <nCl=  0> <DB=  222.5827> <Mlp=  222.5827> <PB=1000000> 
<DWph=1> <it=  2> <et=102.83> <Mt= 0.00> <Spt= 0.00> <nCl=  0> <DB=  222.5827> <Mlp=  222.5827> <PB=1000000> 
---- Diving heuristic node with dive number = 0, fix depth = 0 and tabu list size = 0
Fixed projected solution = [x_1_0_1_OspV=1, x_1_262_1_OspV=1, x_1_329_1_OspV=1]
<DWph=2> <it=  1> <et=102.92> <Mt= 0.01> <Spt= 0.00> <nCl=  0> <DB=  222.5827> <Mlp=  222.5827> <PB=1000000> 
<DWph=1> <it=  2> <et=102.92> <Mt= 0.00> <Spt= 0.00> <nCl=  0> <DB=  222.5827> <Mlp=  222.5827> <PB=1000000> 
---- Diving heuristic node with dive number = 0, fix depth = 0 and tabu list size = 0
Fixed projected solution = [x_1_0_1_OspV=1, x_1_231_1_OspV=1, x_1_362_1_OspV=1]
<DWph=2> <it=  1> <et=103.02> <Mt= 0.00> <Spt= 0.00> <nCl=  0> <DB=  222.5827> <Mlp=  222.5827> <PB=1000000> 
<DWph=1> <it=  2> <et=103.02> <Mt= 0.00> <Spt= 0.00> <nCl=  0> <DB=  222.5827> <Mlp=  222.5827> <PB=1000000> 
---- Diving heuristic node with dive number = 0, fix depth = 0 and tabu list size = 0
Fixed projected solution = [x_1_0_1_OspV=1, x_1_157_1_OspV=1, x_1_425_1_OspV=1]
<DWph=2> <it=  1> <et=103.11> <Mt= 0.00> <Spt= 0.00> <nCl=  0> <DB=  222.5827> <Mlp=  222.5827> <PB=1000000> 
<DWph=1> <it=  2> <et=103.12> <Mt= 0.00> <Spt= 0.00> <nCl=  0> <DB=  222.5827> <Mlp=  222.5827> <PB=1000000> 
---- Diving heuristic node with dive number = 0, fix depth = 0 and tabu list size = 0
Fixed projected solution = [x_1_0_1_OspV=1, x_1_148_1_OspV=1, x_1_433_1_OspV=1]
<DWph=2> <it=  1> <et=103.21> <Mt= 0.01> <Spt= 0.00> <nCl=  0> <DB=  222.5827> <Mlp=  222.5827> <PB=1000000> 
<DWph=1> <it=  2> <et=103.21> <Mt= 0.00> <Spt= 0.00> <nCl=  0> <DB=  222.5827> <Mlp=  222.5827> <PB=1000000> 
---- Diving heuristic node with dive number = 0, fix depth = 0 and tabu list size = 0
Fixed projected solution = [x_1_0_1_OspV=1, x_1_274_1_OspV=1, x_1_312_1_OspV=1]
<DWph=2> <it=  1> <et=103.31> <Mt= 0.00> <Spt= 0.00> <nCl=  0> <DB=  222.5827> <Mlp=  222.5827> <PB=1000000> 
<DWph=1> <it=  2> <et=103.31> <Mt= 0.00> <Spt= 0.00> <nCl=  0> <DB=  222.5827> <Mlp=  222.5827> <PB=1000000> 
---- Diving heuristic node with dive number = 0, fix depth = 0 and tabu list size = 0
Fixed projected solution = [x_1_0_1_OspV=1, x_1_200_1_OspV=1, x_1_385_1_OspV=1]
<DWph=2> <it=  1> <et=103.40> <Mt= 0.00> <Spt= 0.00> <nCl=  0> <DB=  222.5827> <Mlp=  222.5827> <PB=1000000> 
<DWph=1> <it=  2> <et=103.40> <Mt= 0.00> <Spt= 0.00> <nCl=  0> <DB=  222.5827> <Mlp=  222.5827> <PB=1000000> 
---- Diving heuristic node with dive number = 0, fix depth = 0 and tabu list size = 0
Fixed projected solution = [x_1_0_1_OspV=1, x_1_142_1_OspV=1, x_1_441_1_OspV=1]
<DWph=2> <it=  1> <et=103.50> <Mt= 0.01> <Spt= 0.00> <nCl=  0> <DB=  222.5827> <Mlp=  222.5827> <PB=1000000> 
<DWph=1> <it=  2> <et=103.50> <Mt= 0.00> <Spt= 0.00> <nCl=  0> <DB=  222.5827> <Mlp=  222.5827> <PB=1000000> 
---- Diving heuristic node with dive number = 0, fix depth = 0 and tabu list size = 0
Fixed projected solution = [x_1_0_1_OspV=1, x_1_226_1_OspV=1, x_1_366_1_OspV=1]
<DWph=2> <it=  1> <et=103.59> <Mt= 0.00> <Spt= 0.00> <nCl=  0> <DB=  222.5827> <Mlp=  222.5827> <PB=1000000> 
<DWph=1> <it=  2> <et=103.59> <Mt= 0.00> <Spt= 0.00> <nCl=  0> <DB=  222.5827> <Mlp=  222.5827> <PB=1000000> 
---- Diving heuristic node with dive number = 0, fix depth = 0 and tabu list size = 0
Fixed projected solution = [x_1_0_1_OspV=1, x_1_109_1_OspV=1, x_1_469_1_OspV=1]
<DWph=2> <it=  1> <et=103.69> <Mt= 0.00> <Spt= 0.00> <nCl=  0> <DB=  222.5827> <Mlp=  222.5827> <PB=1000000> 
<DWph=1> <it=  2> <et=103.69> <Mt= 0.00> <Spt= 0.00> <nCl=  0> <DB=  222.5827> <Mlp=  222.5827> <PB=1000000> 
---- Diving heuristic node with dive number = 0, fix depth = 1 and tabu list size = 0
Fixed projected solution = [x_1_0_1_OspV=1, x_1_62_1_OspV=1, x_1_134_1_OspV=1, x_1_321_1_OspV=1]
<DWph=2> <it=  1> <et=103.77> <Mt= 0.01> <Spt= 0.00> <nCl=  0> <DB=  222.5827> <Mlp=  222.5827> <PB=1000000> 
<DWph=1> <it=  2> <et=103.77> <Mt= 0.00> <Spt= 0.00> <nCl=  0> <DB=  222.5827> <Mlp=  222.5827> <PB=1000000> 
---- Diving heuristic node with dive number = 0, fix depth = 2 and tabu list size = 0
Fixed projected solution = [x_1_0_1_OspV=1, x_1_59_1_OspV=1, x_1_163_1_OspV=1, x_1_289_1_OspV=1]
<DWph=2> <it=  1> <et=103.87> <Mt= 0.01> <Spt= 0.00> <nCl=  0> <DB=  222.5827> <Mlp=  222.5827> <PB=1000000> 
<DWph=1> <it=  2> <et=103.87> <Mt= 0.00> <Spt= 0.00> <nCl=  0> <DB=  222.5827> <Mlp=  222.5827> <PB=1000000> 
---- Diving heuristic node with dive number = 0, fix depth = 3 and tabu list size = 0
Fixed projected solution = [x_1_0_1_OspV=1, x_1_44_1_OspV=1, x_1_122_1_OspV=1, x_1_342_1_OspV=1]
<DWph=2> <it=  1> <et=103.88> <Mt= 0.00> <Spt= 0.00> <nCl=  0> <DB=  222.5827> <Mlp=  222.5827> <PB=1000000> 
<DWph=1> <it=  2> <et=103.88> <Mt= 0.00> <Spt= 0.00> <nCl=  0> <DB=  222.5827> <Mlp=  222.5827> <PB=1000000> 
---- Diving heuristic node with dive number = 0, fix depth = 4 and tabu list size = 0
Fixed projected solution = [x_1_0_1_OspV=1, x_1_11_1_OspV=1, x_1_28_1_OspV=1, x_1_467_1_OspV=1]
<DWph=2> <it=  1> <et=103.89> <Mt= 0.01> <Spt= 0.00> <nCl=  0> <DB=  222.5827> <Mlp=  222.5827> <PB=1000000> 
<DWph=1> <it=  2> <et=103.89> <Mt= 0.00> <Spt= 0.00> <nCl=  0> <DB=  222.5827> <Mlp=  222.5827> <PB=1000000> 
---- Diving heuristic node with dive number = 0, fix depth = 5 and tabu list size = 0
Fixed projected solution = [x_1_0_1_OspV=1, x_1_14_1_OspV=1, x_1_25_1_OspV=1, x_1_465_1_OspV=1]
<DWph=2> <it=  1> <et=103.90> <Mt= 0.01> <Spt= 0.00> <nCl=  0> <DB=  222.5827> <Mlp=  222.5827> <PB=1000000> 
<DWph=1> <it=  2> <et=103.91> <Mt= 0.00> <Spt= 0.00> <nCl=  0> <DB=  222.5827> <Mlp=  222.5827> <PB=1000000> 
---- Diving heuristic node with dive number = 0, fix depth = 6 and tabu list size = 0
Fixed projected solution = [x_1_0_1_OspV=1, x_1_18_1_OspV=1, x_1_21_1_OspV=1, x_1_468_1_OspV=1]
<DWph=2> <it=  1> <et=103.92> <Mt= 0.00> <Spt= 0.00> <nCl=  0> <DB=  222.5827> <Mlp=  222.5827> <PB=1000000> 
<DWph=1> <it=  2> <et=103.92> <Mt= 0.00> <Spt= 0.00> <nCl=  0> <DB=  222.5827> <Mlp=  222.5827> <PB=1000000> 
---- Diving heuristic node with dive number = 0, fix depth = 7 and tabu list size = 0
Fixed projected solution = [x_1_0_1_OspV=1, x_1_46_1_OspV=1, x_1_53_1_OspV=1, x_1_407_1_OspV=1]
<DWph=2> <it=  1> <et=103.93> <Mt= 0.01> <Spt= 0.00> <nCl=  0> <DB=  222.5827> <Mlp=  222.5827> <PB=1000000> 
<DWph=1> <it=  2> <et=103.93> <Mt= 0.00> <Spt= 0.00> <nCl=  0> <DB=  222.5827> <Mlp=  222.5827> <PB=1000000> 
---- Diving heuristic node with dive number = 0, fix depth = 7 and tabu list size = 0
Fixed projected solution = [x_1_0_1_OspV=1, x_1_178_1_OspV=1, x_1_408_1_OspV=1]
<DWph=2> <it=  1> <et=103.94> <Mt= 0.00> <Spt= 0.00> <nCl=  0> <DB=  222.5827> <Mlp=  222.5827> <PB=1000000> 
<DWph=1> <it=  2> <et=103.94> <Mt= 0.00> <Spt= 0.00> <nCl=  0> <DB=  222.5827> <Mlp=  222.5827> <PB=1000000> 
---- Diving heuristic node with dive number = 0, fix depth = 8 and tabu list size = 0
Fixed projected solution = [x_1_0_1_OspV=1, x_1_220_1_OspV=1, x_1_371_1_OspV=1]
<DWph=2> <it=  1> <et=103.94> <Mt= 0.01> <Spt= 0.00> <nCl=  0> <DB=  222.5827> <Mlp=  222.5827> <PB=1000000> 
<DWph=1> <it=  2> <et=103.95> <Mt= 0.00> <Spt= 0.00> <nCl=  0> <DB=  222.5827> <Mlp=  222.5827> <PB=1000000> 
---- Diving heuristic node with dive number = 0, fix depth = 8 and tabu list size = 0
Fixed projected solution = [x_1_0_1_OspV=1, x_1_222_1_OspV=1, x_1_370_1_OspV=1]
<DWph=2> <it=  1> <et=103.95> <Mt= 0.00> <Spt= 0.00> <nCl=  0> <DB=  222.5827> <Mlp=  222.5827> <PB=1000000> 
<DWph=1> <it=  2> <et=103.95> <Mt= 0.00> <Spt= 0.00> <nCl=  0> <DB=  222.5827> <Mlp=  222.5827> <PB=1000000> 
---- Diving heuristic node with dive number = 0, fix depth = 9 and tabu list size = 0
Fixed projected solution = [x_1_0_1_OspV=1, x_1_270_1_OspV=1, x_1_317_1_OspV=1]
<DWph=2> <it=  1> <et=103.97> <Mt= 0.01> <Spt= 0.00> <nCl=  0> <DB=  222.5827> <Mlp=  222.5827> <PB=1000000> 
<DWph=1> <it=  2> <et=103.97> <Mt= 0.00> <Spt= 0.00> <nCl=  0> <DB=  222.5827> <Mlp=  222.5827> <PB=1000000> 
---- Diving heuristic node with dive number = 0, fix depth = 10 and tabu list size = 0
Fixed projected solution = [x_1_0_1_OspV=1, x_1_81_1_OspV=1, x_1_491_1_OspV=1]
<DWph=2> <it=  1> <et=103.97> <Mt= 0.00> <Spt= 0.00> <nCl=  0> <DB=  222.5827> <Mlp=  222.5827> <PB=1000000> 
<DWph=1> <it=  2> <et=103.98> <Mt= 0.00> <Spt= 0.00> <nCl=  0> <DB=  222.5827> <Mlp=  222.5827> <PB=1000000> 
---- Diving heuristic node with dive number = 0, fix depth = 11 and tabu list size = 0
Fixed projected solution = [x_1_0_1_OspV=1, x_1_1_1_OspV=1, x_1_13_1_OspV=1, x_1_492_1_OspV=1]
<DWph=2> <it=  2> <et=104.38> <Mt= 0.02> <Spt= 0.38> <nCl=100> <DB=  222.4612> <Mlp=  222.5827> <PB=1000000> 
<DWph=1> <it=  3> <et=104.38> <Mt= 0.00> <Spt= 0.00> <nCl=  0> <DB=  222.5827> <Mlp=  222.5827> <PB=1000000> 
---- Diving heuristic node with dive number = 0, fix depth = 12 and tabu list size = 0
Fixed projected solution = [x_1_0_1_OspV=1, x_1_95_1_OspV=1, x_1_483_1_OspV=1]
<DWph=2> <it=  1> <et=104.39> <Mt= 0.01> <Spt= 0.00> <nCl=  0> <DB=  222.5827> <Mlp=  222.5827> <PB=1000000> 
<DWph=1> <it=  2> <et=104.40> <Mt= 0.00> <Spt= 0.00> <nCl=  0> <DB=  222.5827> <Mlp=  222.5827> <PB=1000000> 
---- Diving heuristic node with dive number = 0, fix depth = 12 and tabu list size = 0
Fixed projected solution = [x_1_0_1_OspV=1, x_1_93_1_OspV=1, x_1_485_1_OspV=1]
<DWph=2> <it=  1> <et=104.40> <Mt= 0.00> <Spt= 0.00> <nCl=  0> <DB=  222.5827> <Mlp=  222.5827> <PB=1000000> 
<DWph=1> <it=  2> <et=104.40> <Mt= 0.00> <Spt= 0.00> <nCl=  0> <DB=  222.5827> <Mlp=  222.5827> <PB=1000000> 
---- Diving heuristic node with dive number = 0, fix depth = 13 and tabu list size = 0
Fixed projected solution = [x_1_0_1_OspV=1, x_1_2_1_OspV=1, x_1_45_1_OspV=1, x_1_452_1_OspV=1]
<DWph=2> <it=  1> <et=104.42> <Mt= 0.01> <Spt= 0.00> <nCl=  0> <DB=  222.5827> <Mlp=  222.5827> <PB=1000000> 
<DWph=1> <it=  2> <et=104.42> <Mt= 0.00> <Spt= 0.00> <nCl=  0> <DB=  222.5827> <Mlp=  222.5827> <PB=1000000> 
---- Diving heuristic node with dive number = 0, fix depth = 13 and tabu list size = 0
Fixed projected solution = [x_1_0_1_OspV=1, x_1_66_1_OspV=1, x_1_94_1_OspV=1, x_1_352_1_OspV=1]
<DWph=2> <it=  1> <et=104.42> <Mt= 0.00> <Spt= 0.00> <nCl=  0> <DB=  222.5827> <Mlp=  222.5827> <PB=1000000> 
<DWph=1> <it=  2> <et=104.43> <Mt= 0.00> <Spt= 0.00> <nCl=  0> <DB=  222.5827> <Mlp=  222.5827> <PB=1000000> 
---- Diving heuristic node with dive number = 0, fix depth = 14 and tabu list size = 0
Fixed projected solution = [x_1_0_1_OspV=1, x_1_7_1_OspV=1, x_1_30_1_OspV=1, x_1_466_1_OspV=1]
<DWph=2> <it=  1> <et=104.43> <Mt= 0.01> <Spt= 0.00> <nCl=  0> <DB=  222.5827> <Mlp=  222.5827> <PB=1000000> 
<DWph=1> <it=  2> <et=104.44> <Mt= 0.00> <Spt= 0.00> <nCl=  0> <DB=  222.5827> <Mlp=  222.5827> <PB=1000000> 
---- Diving heuristic node with dive number = 0, fix depth = 15 and tabu list size = 0
Fixed projected solution = [x_1_0_1_OspV=1, x_1_281_1_OspV=1, x_1_298_1_OspV=1]
<DWph=2> <it=  1> <et=104.45> <Mt= 0.00> <Spt= 0.00> <nCl=  0> <DB=  222.5827> <Mlp=  222.5827> <PB=1000000> 
<DWph=1> <it=  2> <et=104.45> <Mt= 0.01> <Spt= 0.00> <nCl=  0> <DB=  222.5827> <Mlp=  222.5827> <PB=1000000> 
---- Diving heuristic node with dive number = 0, fix depth = 16 and tabu list size = 0
Fixed projected solution = [x_1_0_1_OspV=1, x_1_283_1_OspV=1, x_1_296_1_OspV=1]
<DWph=2> <it=  1> <et=104.46> <Mt= 0.00> <Spt= 0.00> <nCl=  0> <DB=  222.5827> <Mlp=  222.5827> <PB=1000000> 
<DWph=1> <it=  2> <et=104.46> <Mt= 0.00> <Spt= 0.00> <nCl=  0> <DB=  222.5827> <Mlp=  222.5827> <PB=1000000> 
---- Diving heuristic node with dive number = 0, fix depth = 17 and tabu list size = 0
Fixed projected solution = [x_1_0_1_OspV=1, x_1_78_1_OspV=1, x_1_135_1_OspV=1, x_1_295_1_OspV=1]
<DWph=2> <it=  1> <et=104.47> <Mt= 0.00> <Spt= 0.00> <nCl=  0> <DB=  222.5827> <Mlp=  222.5827> <PB=1000000> 
<DWph=1> <it=  2> <et=104.47> <Mt= 0.00> <Spt= 0.00> <nCl=  0> <DB=  222.5827> <Mlp=  222.5827> <PB=1000000> 
---- Diving heuristic node with dive number = 0, fix depth = 18 and tabu list size = 0
Fixed projected solution = [x_1_0_1_OspV=1, x_1_278_1_OspV=1, x_1_303_1_OspV=1]
<DWph=2> <it=  1> <et=104.48> <Mt= 0.01> <Spt= 0.00> <nCl=  0> <DB=  222.5827> <Mlp=  222.5827> <PB=1000000> 
<DWph=1> <it=  2> <et=104.48> <Mt= 0.00> <Spt= 0.00> <nCl=  0> <DB=  222.5827> <Mlp=  222.5827> <PB=1000000> 
---- Diving heuristic node with dive number = 0, fix depth = 19 and tabu list size = 0
Fixed projected solution = [x_1_0_1_OspV=1, x_1_266_1_OspV=1, x_1_323_1_OspV=1]
<DWph=2> <it=  1> <et=104.49> <Mt= 0.01> <Spt= 0.00> <nCl=  0> <DB=  222.5827> <Mlp=  222.5827> <PB=1000000> 
<DWph=1> <it=  2> <et=104.49> <Mt= 0.00> <Spt= 0.00> <nCl=  0> <DB=  222.5827> <Mlp=  222.5827> <PB=1000000> 
---- Diving heuristic node with dive number = 0, fix depth = 20 and tabu list size = 0
Fixed projected solution = [x_1_0_1_OspV=1, x_1_88_1_OspV=1, x_1_123_1_OspV=1, x_1_297_1_OspV=1]
<DWph=2> <it=  2> <et=104.79> <Mt= 0.03> <Spt= 0.27> <nCl=100> <DB=  222.2985> <Mlp=  222.5827> <PB=1000000> 
<DWph=1> <it=  3> <et=104.80> <Mt= 0.00> <Spt= 0.00> <nCl=  0> <DB=  222.5827> <Mlp=  222.5827> <PB=1000000> 
---- Diving heuristic node with dive number = 0, fix depth = 21 and tabu list size = 0
Fixed projected solution = [x_1_0_1_OspV=1, x_1_20_1_OspV=1, x_1_241_1_OspV=1, x_1_255_1_OspV=1]
<DWph=2> <it=  2> <et=105.11> <Mt= 0.03> <Spt= 0.27> <nCl=100> <DB=  222.2587> <Mlp=  222.5827> <PB=1000000> 
<DWph=1> <it=  3> <et=105.11> <Mt= 0.00> <Spt= 0.00> <nCl=  0> <DB=  222.5827> <Mlp=  222.5827> <PB=1000000> 
---- Diving heuristic node with dive number = 0, fix depth = 21 and tabu list size = 0
Fixed projected solution = [x_1_0_1_OspV=1, x_1_203_1_OspV=1, x_1_382_1_OspV=1]
<DWph=2> <it=  1> <et=105.12> <Mt= 0.00> <Spt= 0.00> <nCl=  0> <DB=  222.5827> <Mlp=  222.5827> <PB=1000000> 
<DWph=1> <it=  2> <et=105.12> <Mt= 0.00> <Spt= 0.00> <nCl=  0> <DB=  222.5827> <Mlp=  222.5827> <PB=1000000> 
---- Diving heuristic node with dive number = 0, fix depth = 22 and tabu list size = 0
Fixed projected solution = [x_1_0_1_OspV=1, x_1_37_1_OspV=1, x_1_58_1_OspV=1, x_1_406_1_OspV=1]
<DWph=2> <it=  1> <et=105.15> <Mt= 0.03> <Spt= 0.00> <nCl=  0> <DB=  222.5827> <Mlp=  222.5827> <PB=1000000> 
<DWph=1> <it=  2> <et=105.15> <Mt= 0.00> <Spt= 0.00> <nCl=  0> <DB=  222.5827> <Mlp=  222.5827> <PB=1000000> 
---- Diving heuristic node with dive number = 0, fix depth = 23 and tabu list size = 0
Fixed projected solution = [x_1_0_1_OspV=1, x_1_17_1_OspV=1, x_1_24_1_OspV=1, x_1_464_1_OspV=1]
<DWph=2> <it=  1> <et=105.17> <Mt= 0.01> <Spt= 0.00> <nCl=  0> <DB=  222.5827> <Mlp=  222.5827> <PB=1000000> 
<DWph=1> <it=  2> <et=105.17> <Mt= 0.00> <Spt= 0.00> <nCl=  0> <DB=  222.5827> <Mlp=  222.5827> <PB=1000000> 
---- Diving heuristic node with dive number = 0, fix depth = 23 and tabu list size = 0
Fixed projected solution = [x_1_0_1_OspV=1, x_1_3_1_OspV=1, x_1_12_1_OspV=1, x_1_493_1_OspV=1]
<DWph=2> <it=  1> <et=105.18> <Mt= 0.00> <Spt= 0.00> <nCl=  0> <DB=  222.5827> <Mlp=  222.5827> <PB=1000000> 
<DWph=1> <it=  2> <et=105.18> <Mt= 0.00> <Spt= 0.00> <nCl=  0> <DB=  222.5827> <Mlp=  222.5827> <PB=1000000> 
---- Diving heuristic node with dive number = 0, fix depth = 23 and tabu list size = 0
Fixed projected solution = [x_1_0_1_OspV=1, x_1_5_1_OspV=1, x_1_36_1_OspV=1, x_1_455_1_OspV=1]
<DWph=2> <it=  1> <et=105.19> <Mt= 0.00> <Spt= 0.00> <nCl=  0> <DB=  222.5827> <Mlp=  222.5827> <PB=1000000> 
<DWph=1> <it=  2> <et=105.19> <Mt= 0.01> <Spt= 0.00> <nCl=  0> <DB=  222.5827> <Mlp=  222.5827> <PB=1000000> 
---- Diving heuristic node with dive number = 0, fix depth = 24 and tabu list size = 0
Fixed projected solution = [x_1_0_1_OspV=1, x_1_185_1_OspV=1, x_1_400_1_OspV=1]
<DWph=2> <it=  2> <et=105.50> <Mt= 0.03> <Spt= 0.27> <nCl=100> <DB=  222.3091> <Mlp=  222.5827> <PB=1000000> 
<DWph=1> <it=  3> <et=105.50> <Mt= 0.00> <Spt= 0.00> <nCl=  0> <DB=  222.5827> <Mlp=  222.5827> <PB=1000000> 
---- Diving heuristic node with dive number = 0, fix depth = 24 and tabu list size = 0
Fixed projected solution = [x_1_0_1_OspV=1, x_1_184_1_OspV=1, x_1_401_1_OspV=1]
<DWph=2> <it=  1> <et=105.51> <Mt= 0.00> <Spt= 0.00> <nCl=  0> <DB=  222.5827> <Mlp=  222.5827> <PB=1000000> 
<DWph=1> <it=  2> <et=105.51> <Mt= 0.00> <Spt= 0.00> <nCl=  0> <DB=  222.5827> <Mlp=  222.5827> <PB=1000000> 
---- Diving heuristic node with dive number = 0, fix depth = 25 and tabu list size = 0
Fixed projected solution = [x_1_0_1_OspV=1, x_1_63_1_OspV=1, x_1_141_1_OspV=1, x_1_311_1_OspV=1]
<DWph=2> <it=  2> <et=105.82> <Mt= 0.04> <Spt= 0.27> <nCl=100> <DB=  222.4116> <Mlp=  222.5827> <PB=1000000> 
<DWph=1> <it=  3> <et=105.82> <Mt= 0.00> <Spt= 0.00> <nCl=  0> <DB=  222.5827> <Mlp=  222.5827> <PB=1000000> 
---- Diving heuristic node with dive number = 0, fix depth = 26 and tabu list size = 0
Fixed projected solution = [x_1_0_1_OspV=1, x_1_51_1_OspV=1, x_1_168_1_OspV=1, x_1_294_1_OspV=1]
<DWph=2> <it=  2> <et=106.14> <Mt= 0.04> <Spt= 0.26> <nCl=100> <DB=  222.3553> <Mlp=  222.5827> <PB=1000000> 
<DWph=1> <it=  3> <et=106.14> <Mt= 0.00> <Spt= 0.00> <nCl=  0> <DB=  222.5827> <Mlp=  222.5827> <PB=1000000> 
---- Diving heuristic node with dive number = 0, fix depth = 27 and tabu list size = 0
Fixed projected solution = [x_1_0_1_OspV=1, x_1_64_1_OspV=1, x_1_92_1_OspV=1, x_1_355_1_OspV=1]
<DWph=2> <it=  1> <et=106.18> <Mt= 0.03> <Spt= 0.00> <nCl=  0> <DB=  222.5827> <Mlp=  222.5827> <PB=1000000> 
<DWph=1> <it=  2> <et=106.19> <Mt= 0.00> <Spt= 0.00> <nCl=  0> <DB=  222.5827> <Mlp=  222.5827> <PB=1000000> 
---- Diving heuristic node with dive number = 0, fix depth = 28 and tabu list size = 0
Fixed projected solution = [x_1_0_1_OspV=1, x_1_42_1_OspV=1, x_1_219_1_OspV=1, x_1_248_1_OspV=1]
<DWph=2> <it=  1> <et=106.21> <Mt= 0.02> <Spt= 0.00> <nCl=  0> <DB=  222.5827> <Mlp=  222.5827> <PB=1000000> 
<DWph=1> <it=  2> <et=106.21> <Mt= 0.00> <Spt= 0.00> <nCl=  0> <DB=  222.5827> <Mlp=  222.5827> <PB=1000000> 
---- Diving heuristic node with dive number = 0, fix depth = 29 and tabu list size = 0
Fixed projected solution = [x_1_0_1_OspV=1, x_1_41_1_OspV=1, x_1_121_1_OspV=1, x_1_344_1_OspV=1]
<DWph=2> <it=  2> <et=106.53> <Mt= 0.02> <Spt= 0.29> <nCl=100> <DB=  222.3980> <Mlp=  222.5827> <PB=1000000> 
<DWph=1> <it=  3> <et=106.53> <Mt= 0.00> <Spt= 0.00> <nCl=  0> <DB=  222.5827> <Mlp=  222.5827> <PB=1000000> 
---- Diving heuristic node with dive number = 0, fix depth = 30 and tabu list size = 0
Fixed projected solution = [x_1_0_1_OspV=1, x_1_106_1_OspV=1, x_1_472_1_OspV=1]
<DWph=2> <it=  1> <et=106.57> <Mt= 0.03> <Spt= 0.00> <nCl=  0> <DB=  222.5827> <Mlp=  222.5827> <PB=1000000> 
<DWph=1> <it=  2> <et=106.57> <Mt= 0.00> <Spt= 0.00> <nCl=  0> <DB=  222.5827> <Mlp=  222.5827> <PB=1000000> 
---- Diving heuristic node with dive number = 0, fix depth = 30 and tabu list size = 0
Fixed projected solution = [x_1_0_1_OspV=1, x_1_145_1_OspV=1, x_1_437_1_OspV=1]
<DWph=2> <it=  1> <et=106.57> <Mt= 0.00> <Spt= 0.00> <nCl=  0> <DB=  222.5827> <Mlp=  222.5827> <PB=1000000> 
<DWph=1> <it=  2> <et=106.58> <Mt= 0.00> <Spt= 0.00> <nCl=  0> <DB=  222.5827> <Mlp=  222.5827> <PB=1000000> 
---- Diving heuristic node with dive number = 0, fix depth = 31 and tabu list size = 0
Fixed projected solution = [x_1_0_1_OspV=1, x_1_23_1_OspV=1, x_1_133_1_OspV=1, x_1_354_1_OspV=1]
<DWph=2> <it=  2> <et=106.92> <Mt= 0.06> <Spt= 0.28> <nCl=100> <DB=  222.3962> <Mlp=  222.5827> <PB=1000000> 
<DWph=1> <it=  3> <et=106.92> <Mt= 0.00> <Spt= 0.00> <nCl=  0> <DB=  222.5827> <Mlp=  222.5827> <PB=1000000> 
---- Diving heuristic node with dive number = 0, fix depth = 32 and tabu list size = 0
Fixed projected solution = [x_1_0_1_OspV=1, x_1_19_1_OspV=1, x_1_31_1_OspV=1, x_1_453_1_OspV=1]
<DWph=2> <it=  5> <et=108.08> <Mt= 0.05> <Spt= 1.10> <nCl=400> <DB=  222.5423> <Mlp=  222.5827> <PB=1000000> 
<DWph=1> <it=  6> <et=108.08> <Mt= 0.00> <Spt= 0.00> <nCl=  0> <DB=  222.5827> <Mlp=  222.5827> <PB=1000000> 
---- Diving heuristic node with dive number = 0, fix depth = 33 and tabu list size = 0
Fixed projected solution = [x_1_0_1_OspV=1, x_1_82_1_OspV=1, x_1_216_1_OspV=1, x_1_218_1_OspV=1]
<DWph=2> <it=  8> <et=112.15> <Mt= 0.09> <Spt= 3.96> <nCl=344> <DB=  222.5827> <Mlp=  222.5827> <PB=1000000> 
<DWph=1> <it=  9> <et=113.00> <Mt= 0.00> <Spt= 0.85> <nCl=  0> <DB=  222.5827> <Mlp=  222.5827> <PB=1000000> 
---- Diving heuristic node with dive number = 0, fix depth = 34 and tabu list size = 0
Fixed projected solution = [x_1_0_1_OspV=1, x_1_55_1_OspV=1, x_1_74_1_OspV=1, x_1_383_1_OspV=1]
