Application parameters:
  batch  =>  nothing
  instance  =>  "/IN/N102W1000001R1080Q2-001"
  ub  =>  1.0e6
  cfg  =>  "/CFG/BPP.cfg"
data = Colored Bin Packing dataset.
number of items = 102
number of colors = 2
capacity = 1000001
Items : 
	 item 1, weight= 108417, color= 1
	 item 2, weight= 109653, color= 0
	 item 3, weight= 122196, color= 1
	 item 4, weight= 123115, color= 0
	 item 5, weight= 130294, color= 1
	 item 6, weight= 131074, color= 1
	 item 7, weight= 139694, color= 1
	 item 8, weight= 141521, color= 0
	 item 9, weight= 152687, color= 1
	 item 10, weight= 153873, color= 0
	 item 11, weight= 160476, color= 0
	 item 12, weight= 165108, color= 1
	 item 13, weight= 173976, color= 1
	 item 14, weight= 181117, color= 1
	 item 15, weight= 201953, color= 1
	 item 16, weight= 203367, color= 1
	 item 17, weight= 204568, color= 1
	 item 18, weight= 211082, color= 1
	 item 19, weight= 221094, color= 0
	 item 20, weight= 241121, color= 1
	 item 21, weight= 247789, color= 0
	 item 22, weight= 248303, color= 0
	 item 23, weight= 248579, color= 0
	 item 24, weight= 251075, color= 1
	 item 25, weight= 253584, color= 0
	 item 26, weight= 257559, color= 1
	 item 27, weight= 270068, color= 0
	 item 28, weight= 273359, color= 0
	 item 29, weight= 275766, color= 0
	 item 30, weight= 283728, color= 1
	 item 31, weight= 294045, color= 1
	 item 32, weight= 294332, color= 1
	 item 33, weight= 304612, color= 1
	 item 34, weight= 313989, color= 1
	 item 35, weight= 314872, color= 0
	 item 36, weight= 322561, color= 0
	 item 37, weight= 331081, color= 0
	 item 38, weight= 332035, color= 1
	 item 39, weight= 333370, color= 0
	 item 40, weight= 339698, color= 0
	 item 41, weight= 349126, color= 1
	 item 42, weight= 362468, color= 0
	 item 43, weight= 369800, color= 0
	 item 44, weight= 382783, color= 0
	 item 45, weight= 385051, color= 1
	 item 46, weight= 399263, color= 1
	 item 47, weight= 404560, color= 0
	 item 48, weight= 407198, color= 0
	 item 49, weight= 418800, color= 1
	 item 50, weight= 422393, color= 0
	 item 51, weight= 424265, color= 0
	 item 52, weight= 425164, color= 1
	 item 53, weight= 426976, color= 1
	 item 54, weight= 433771, color= 0
	 item 55, weight= 440481, color= 0
	 item 56, weight= 445570, color= 1
	 item 57, weight= 448330, color= 0
	 item 58, weight= 460018, color= 0
	 item 59, weight= 480352, color= 0
	 item 60, weight= 488857, color= 1
	 item 61, weight= 506925, color= 1
	 item 62, weight= 508848, color= 0
	 item 63, weight= 513795, color= 0
	 item 64, weight= 515846, color= 0
	 item 65, weight= 576875, color= 0
	 item 66, weight= 578054, color= 0
	 item 67, weight= 584334, color= 0
	 item 68, weight= 587494, color= 1
	 item 69, weight= 588052, color= 1
	 item 70, weight= 608460, color= 1
	 item 71, weight= 633121, color= 1
	 item 72, weight= 633416, color= 1
	 item 73, weight= 635335, color= 0
	 item 74, weight= 646869, color= 1
	 item 75, weight= 654054, color= 1
	 item 76, weight= 654848, color= 0
	 item 77, weight= 655450, color= 0
	 item 78, weight= 655772, color= 1
	 item 79, weight= 656393, color= 0
	 item 80, weight= 659874, color= 0
	 item 81, weight= 668617, color= 1
	 item 82, weight= 669420, color= 1
	 item 83, weight= 670122, color= 0
	 item 84, weight= 678135, color= 0
	 item 85, weight= 696490, color= 1
	 item 86, weight= 719187, color= 1
	 item 87, weight= 719610, color= 0
	 item 88, weight= 731809, color= 1
	 item 89, weight= 736635, color= 1
	 item 90, weight= 741205, color= 1
	 item 91, weight= 745119, color= 1
	 item 92, weight= 746539, color= 0
	 item 93, weight= 750604, color= 0
	 item 94, weight= 760359, color= 1
	 item 95, weight= 761516, color= 0
	 item 96, weight= 764712, color= 0
	 item 97, weight= 768346, color= 1
	 item 98, weight= 773661, color= 0
	 item 99, weight= 778226, color= 1
	 item 100, weight= 782021, color= 0
	 item 101, weight= 786747, color= 0
	 item 102, weight= 792913, color= 1

VRPSolver warning: Interval set for resource 1 on source node (when source != sink) is ignored (by definition is [0.0,0.0])
[41m solve [00m
~~~~~~~~~~~~~~~~~~~~~~~~~~~~~~~~~~~~~~~~~~~~~~~~~~~~~~~~~~~~~~~~~~~~~~~~~~~~~~
VRPSolver v0.4.1, 24/03/2021. Web: vrpsolver.math.u-bordeaux.fr
Corresponds to the solver by Pessoa, Sadykov, Uchoa and Vanderbeck (2020)
Paper: dx.doi.org/10.1007/s10107-020-01523-z
USE THIS CODE ONLY FOR ACADEMIC PURPOSES AT YOUR OWN RISK
~~~~~~~~~~~~~~~~~~~~~~~~~~~~~~~~~~~~~~~~~~~~~~~~~~~~~~~~~~~~~~~~~~~~~~~~~~~~~~
BaPCod v053, 24/03/2021, © Inria Bordeaux, France
~~~~~~~~~~~~~~~~~~~~~~~~~~~~~~~~~~~~~~~~~~~~~~~~~~~~~~~~~~~~~~~~~~~~~~~~~~~~~~
VRPSolver parameters:
GlobalTimeLimit = 1800
MaxNbOfBBtreeNodeTreated = 100000
treeSearchStrategy = 1
RCSPstopCutGenTimeThresholdInPricing = 10
RCSPhardTimeThresholdInPricing = 20
RCSPnumberOfBucketsPerVertex = 2000
RCSPdynamicBucketSteps = 0
RCSPuseBidirectionalSearch = 1
RCSPapplyReducedCostFixing = 1
RCSPredCostFixingFalseGap = 0
RCSPmaxNumOfColsPerIteration = 100
RCSPmaxNumOfColsPerExactIteration = 100
RCSPheurLabelingStrategy = 4
StabilizationMinPhaseOfStage = 1
RCSPmaxNumOfLabelsInEnumeration = 100000
RCSPmaxNumOfEnumeratedSolutions = 1000000
RCSPmaxNumOfEnumSolutionsForMIP = 100000
RCSPinitNGneighbourhoodSize = 0
RCSPmaxNGneighbourhoodSize = 0
RCSPrankOneCutsMaxNumPerRound = 100
RCSPrankOneCutsMaxNumRows = -1
RCSPrankOneCutsMemoryType = 2
CutTailingOffThreshold = 0.02
CutTailingOffCounterThreshold = 3
SafeDualBoundScaleFactor = -1
StrongBranchingPhaseOneCandidatesNumber = 100
StrongBranchingPhaseOneTreeSizeEstimRatio = 0.3
StrongBranchingPhaseTwoCandidatesNumber = 1
StrongBranchingPhaseTwoTreeSizeEstimRatio = 0.1
MaxTimeForRestrictedMasterIpHeur = -1
DivingHeurUseDepthLimit = 0
MaxLDSbreadth = 3
MaxLDSdepth = 2
New model incumbent solution 1e+06, TIME = 0h0m0s3t = 3
Model is built TIME = 0h0m1s77t = 177
************************************************************************************************
**** BaB tree root node
**** Local DB = -1e+12, global bounds : [ -1e+12 , 1e+06 ], TIME = 0h0m1s77t = 177
**** 1 open nodes, 0 columns (0 active), 0 dyn. constrs. (0 active), 206 art. vars. (206 active)
************************************************************************************************
<DWph=2> <it= 10> <et=2.26> <Mt= 0.00> <Spt= 0.48> <nCl=1000> <DB=-272573720.5365> <Mlp=84375006.4531> <PB=1000000> 
<DWph=2> <it= 20> <et=2.74> <Mt= 0.02> <Spt= 0.45> <nCl=914> <DB=-96244577.8429> <Mlp=25464107.2602> <PB=1000000> 
<DWph=2> <it= 30> <et=3.34> <Mt= 0.02> <Spt= 0.59> <nCl=708> <DB=   41.7088> <Mlp=   46.5833> <PB=1000000> 
<DWph=2> <it= 32> <et=3.49> <Mt= 0.00> <Spt= 0.14> <nCl=  6> <DB=   46.5625> <Mlp=   46.5625> <PB=1000000> 
<DWph=1> <it= 33> <et=3.58> <Mt= 0.00> <Spt= 0.09> <nCl=  0> <DB=   46.5625> <Mlp=   46.5625> <PB=1000000> 
<DWph=0> <it= 34> <et=3.63> <Mt= 0.00> <Spt= 0.05> <nCl=  0> <DB=   46.5625> <Mlp=   46.5625> <PB=1000000> 
Reduced cost fixing for graph G_1... took 0.76 sec., 162285 buck. arcs remain (60.1% from prev., 22.7% from max.)
Run enumeration... took 1.31 sec. and succeeded! Pricing will be done by inspection.
<DWph=2> <it= 35> <et=5.81> <Mt= 0.02> <Spt= 0.02> <nCl=  0> <DB=   46.6304> <Mlp=   46.6304> <PB=1000000> 
<DWph=1> <it= 36> <et=5.81> <Mt= 0.00> <Spt= 0.00> <nCl=  0> <DB=   46.6304> <Mlp=   46.6304> <PB=1000000> 
<DWph=0> <it= 40> <et=5.85> <Mt= 0.00> <Spt= 0.04> <nCl=237> <DB=   46.5652> <Mlp=   46.5652> <PB=1000000> 
Reduced cost fixing for graph G_1...  took 0 sec., done by inspection with 177724 solutions, remains 177724 (100%)
ColGenEvalAlg final dual bound: 46.5652 (rounded: 47)
----------- Diving heuristic started -----------
<DWph=2> <it=  1> <et=5.94> <Mt= 0.00> <Spt= 0.00> <nCl=  0> <DB=   46.5652> <Mlp=   46.5652> <PB=1000000> 
<DWph=1> <it=  2> <et=5.94> <Mt= 0.00> <Spt= 0.00> <nCl=  0> <DB=   46.5652> <Mlp=   46.5652> <PB=1000000> 
<DWph=0> <it=  3> <et=5.94> <Mt= 0.01> <Spt= 0.00> <nCl=  0> <DB=   46.5652> <Mlp=   46.5652> <PB=1000000> 
ColGenEvalAlg final dual bound: 46.5652 (rounded: 47)
---- Diving heuristic node with dive number = 0, fix depth = 0 and tabu list size = 0
Fixed projected solution = [x_1_0_1_OspV=1, x_1_60_1_OspV=1, x_1_62_1_OspV=1]
<DWph=2> <it=  1> <et=6.02> <Mt= 0.02> <Spt= 0.00> <nCl=  0> <DB=   46.5652> <Mlp=   46.5652> <PB=1000000> 
<DWph=1> <it=  2> <et=6.02> <Mt= 0.00> <Spt= 0.00> <nCl=  0> <DB=   46.5652> <Mlp=   46.5652> <PB=1000000> 
<DWph=0> <it=  3> <et=6.03> <Mt= 0.00> <Spt= 0.00> <nCl=  0> <DB=   46.5652> <Mlp=   46.5652> <PB=1000000> 
ColGenEvalAlg final dual bound: 46.5652 (rounded: 47)
---- Diving heuristic node with dive number = 0, fix depth = 0 and tabu list size = 0
Fixed projected solution = [x_1_0_1_OspV=1, x_1_47_1_OspV=1, x_1_68_1_OspV=1]
<DWph=2> <it=  1> <et=6.10> <Mt= 0.00> <Spt= 0.00> <nCl=  0> <DB=   46.5652> <Mlp=   46.5652> <PB=1000000> 
<DWph=1> <it=  2> <et=6.10> <Mt= 0.00> <Spt= 0.00> <nCl=  0> <DB=   46.5652> <Mlp=   46.5652> <PB=1000000> 
<DWph=0> <it=  3> <et=6.11> <Mt= 0.00> <Spt= 0.00> <nCl=  0> <DB=   46.5652> <Mlp=   46.5652> <PB=1000000> 
ColGenEvalAlg final dual bound: 46.5652 (rounded: 47)
---- Diving heuristic node with dive number = 0, fix depth = 0 and tabu list size = 0
Fixed projected solution = [x_1_0_1_OspV=1, x_1_46_1_OspV=1, x_1_67_1_OspV=1]
<DWph=2> <it=  1> <et=6.18> <Mt= 0.00> <Spt= 0.00> <nCl=  0> <DB=   46.5652> <Mlp=   46.5652> <PB=1000000> 
<DWph=1> <it=  2> <et=6.18> <Mt= 0.00> <Spt= 0.00> <nCl=  0> <DB=   46.5652> <Mlp=   46.5652> <PB=1000000> 
<DWph=0> <it=  3> <et=6.18> <Mt= 0.00> <Spt= 0.00> <nCl=  0> <DB=   46.5652> <Mlp=   46.5652> <PB=1000000> 
ColGenEvalAlg final dual bound: 46.5652 (rounded: 47)
---- Diving heuristic node with dive number = 0, fix depth = 0 and tabu list size = 0
Fixed projected solution = [x_1_0_1_OspV=1, x_1_44_1_OspV=1, x_1_70_1_OspV=1]
<DWph=2> <it=  1> <et=6.26> <Mt= 0.00> <Spt= 0.00> <nCl=  0> <DB=   46.5652> <Mlp=   46.5652> <PB=1000000> 
<DWph=1> <it=  2> <et=6.26> <Mt= 0.00> <Spt= 0.00> <nCl=  0> <DB=   46.5652> <Mlp=   46.5652> <PB=1000000> 
<DWph=0> <it=  3> <et=6.26> <Mt= 0.00> <Spt= 0.00> <nCl=  0> <DB=   46.5652> <Mlp=   46.5652> <PB=1000000> 
ColGenEvalAlg final dual bound: 46.5652 (rounded: 47)
---- Diving heuristic node with dive number = 0, fix depth = 0 and tabu list size = 0
Fixed projected solution = [x_1_0_1_OspV=1, x_1_42_1_OspV=1, x_1_71_1_OspV=1]
<DWph=2> <it=  1> <et=6.34> <Mt= 0.00> <Spt= 0.00> <nCl=  0> <DB=   46.5652> <Mlp=   46.5652> <PB=1000000> 
<DWph=1> <it=  2> <et=6.34> <Mt= 0.00> <Spt= 0.00> <nCl=  0> <DB=   46.5652> <Mlp=   46.5652> <PB=1000000> 
<DWph=0> <it=  3> <et=6.34> <Mt= 0.00> <Spt= 0.00> <nCl=  0> <DB=   46.5652> <Mlp=   46.5652> <PB=1000000> 
ColGenEvalAlg final dual bound: 46.5652 (rounded: 47)
---- Diving heuristic node with dive number = 0, fix depth = 0 and tabu list size = 0
Fixed projected solution = [x_1_0_1_OspV=1, x_1_41_1_OspV=1, x_1_73_1_OspV=1]
<DWph=2> <it=  1> <et=6.42> <Mt= 0.01> <Spt= 0.00> <nCl=  0> <DB=   46.5652> <Mlp=   46.5652> <PB=1000000> 
<DWph=1> <it=  2> <et=6.42> <Mt= 0.00> <Spt= 0.00> <nCl=  0> <DB=   46.5652> <Mlp=   46.5652> <PB=1000000> 
<DWph=0> <it=  3> <et=6.42> <Mt= 0.00> <Spt= 0.00> <nCl=  0> <DB=   46.5652> <Mlp=   46.5652> <PB=1000000> 
ColGenEvalAlg final dual bound: 46.5652 (rounded: 47)
---- Diving heuristic node with dive number = 0, fix depth = 0 and tabu list size = 0
Fixed projected solution = [x_1_0_1_OspV=1, x_1_48_1_OspV=1, x_1_69_1_OspV=1]
<DWph=2> <it=  1> <et=6.50> <Mt= 0.00> <Spt= 0.00> <nCl=  0> <DB=   46.5652> <Mlp=   46.5652> <PB=1000000> 
<DWph=1> <it=  2> <et=6.50> <Mt= 0.00> <Spt= 0.00> <nCl=  0> <DB=   46.5652> <Mlp=   46.5652> <PB=1000000> 
<DWph=0> <it=  3> <et=6.50> <Mt= 0.00> <Spt= 0.00> <nCl=  0> <DB=   46.5652> <Mlp=   46.5652> <PB=1000000> 
ColGenEvalAlg final dual bound: 46.5652 (rounded: 47)
---- Diving heuristic node with dive number = 0, fix depth = 0 and tabu list size = 0
Fixed projected solution = [x_1_0_1_OspV=1, x_1_39_1_OspV=1, x_1_78_1_OspV=1]
<DWph=2> <it=  1> <et=6.58> <Mt= 0.00> <Spt= 0.00> <nCl=  0> <DB=   46.5652> <Mlp=   46.5652> <PB=1000000> 
<DWph=1> <it=  2> <et=6.58> <Mt= 0.00> <Spt= 0.00> <nCl=  0> <DB=   46.5652> <Mlp=   46.5652> <PB=1000000> 
<DWph=0> <it=  3> <et=6.58> <Mt= 0.00> <Spt= 0.00> <nCl=  0> <DB=   46.5652> <Mlp=   46.5652> <PB=1000000> 
ColGenEvalAlg final dual bound: 46.5652 (rounded: 47)
---- Diving heuristic node with dive number = 0, fix depth = 0 and tabu list size = 0
Fixed projected solution = [x_1_0_1_OspV=1, x_1_33_1_OspV=1, x_1_77_1_OspV=1]
<DWph=2> <it=  1> <et=6.66> <Mt= 0.00> <Spt= 0.00> <nCl=  0> <DB=   46.5652> <Mlp=   46.5652> <PB=1000000> 
<DWph=1> <it=  2> <et=6.66> <Mt= 0.00> <Spt= 0.00> <nCl=  0> <DB=   46.5652> <Mlp=   46.5652> <PB=1000000> 
<DWph=0> <it=  3> <et=6.66> <Mt= 0.00> <Spt= 0.00> <nCl=  0> <DB=   46.5652> <Mlp=   46.5652> <PB=1000000> 
ColGenEvalAlg final dual bound: 46.5652 (rounded: 47)
---- Diving heuristic node with dive number = 0, fix depth = 0 and tabu list size = 0
Fixed projected solution = [x_1_0_1_OspV=1, x_1_22_1_OspV=1, x_1_89_1_OspV=1]
<DWph=2> <it=  1> <et=6.73> <Mt= 0.00> <Spt= 0.00> <nCl=  0> <DB=   46.5652> <Mlp=   46.5652> <PB=1000000> 
<DWph=1> <it=  2> <et=6.73> <Mt= 0.00> <Spt= 0.00> <nCl=  0> <DB=   46.5652> <Mlp=   46.5652> <PB=1000000> 
<DWph=0> <it=  3> <et=6.73> <Mt= 0.00> <Spt= 0.00> <nCl=  0> <DB=   46.5652> <Mlp=   46.5652> <PB=1000000> 
ColGenEvalAlg final dual bound: 46.5652 (rounded: 47)
---- Diving heuristic node with dive number = 0, fix depth = 0 and tabu list size = 0
Fixed projected solution = [x_1_0_1_OspV=1, x_1_17_1_OspV=1, x_1_95_1_OspV=1]
<DWph=2> <it=  1> <et=6.81> <Mt= 0.00> <Spt= 0.00> <nCl=  0> <DB=   46.5652> <Mlp=   46.5652> <PB=1000000> 
<DWph=1> <it=  2> <et=6.81> <Mt= 0.00> <Spt= 0.00> <nCl=  0> <DB=   46.5652> <Mlp=   46.5652> <PB=1000000> 
<DWph=0> <it=  3> <et=6.81> <Mt= 0.01> <Spt= 0.00> <nCl=  0> <DB=   46.5652> <Mlp=   46.5652> <PB=1000000> 
ColGenEvalAlg final dual bound: 46.5652 (rounded: 47)
---- Diving heuristic node with dive number = 0, fix depth = 0 and tabu list size = 0
Fixed projected solution = [x_1_0_1_OspV=1, x_1_16_1_OspV=1, x_1_96_1_OspV=1]
<DWph=2> <it=  1> <et=6.89> <Mt= 0.00> <Spt= 0.00> <nCl=  0> <DB=   46.5652> <Mlp=   46.5652> <PB=1000000> 
<DWph=1> <it=  2> <et=6.89> <Mt= 0.00> <Spt= 0.00> <nCl=  0> <DB=   46.5652> <Mlp=   46.5652> <PB=1000000> 
<DWph=0> <it=  3> <et=6.89> <Mt= 0.00> <Spt= 0.00> <nCl=  0> <DB=   46.5652> <Mlp=   46.5652> <PB=1000000> 
ColGenEvalAlg final dual bound: 46.5652 (rounded: 47)
---- Diving heuristic node with dive number = 0, fix depth = 0 and tabu list size = 0
Fixed projected solution = [x_1_0_1_OspV=1, x_1_15_1_OspV=1, x_1_98_1_OspV=1]
<DWph=2> <it=  1> <et=6.97> <Mt= 0.00> <Spt= 0.00> <nCl=  0> <DB=   46.5652> <Mlp=   46.5652> <PB=1000000> 
<DWph=1> <it=  2> <et=6.97> <Mt= 0.00> <Spt= 0.00> <nCl=  0> <DB=   46.5652> <Mlp=   46.5652> <PB=1000000> 
<DWph=0> <it=  3> <et=6.97> <Mt= 0.00> <Spt= 0.00> <nCl=  0> <DB=   46.5652> <Mlp=   46.5652> <PB=1000000> 
ColGenEvalAlg final dual bound: 46.5652 (rounded: 47)
---- Diving heuristic node with dive number = 0, fix depth = 0 and tabu list size = 0
Fixed projected solution = [x_1_0_1_OspV=1, x_1_29_1_OspV=1, x_1_85_1_OspV=1]
<DWph=2> <it=  1> <et=7.05> <Mt= 0.00> <Spt= 0.00> <nCl=  0> <DB=   46.5652> <Mlp=   46.5652> <PB=1000000> 
<DWph=1> <it=  2> <et=7.05> <Mt= 0.00> <Spt= 0.00> <nCl=  0> <DB=   46.5652> <Mlp=   46.5652> <PB=1000000> 
<DWph=0> <it=  3> <et=7.05> <Mt= 0.00> <Spt= 0.00> <nCl=  0> <DB=   46.5652> <Mlp=   46.5652> <PB=1000000> 
ColGenEvalAlg final dual bound: 46.5652 (rounded: 47)
---- Diving heuristic node with dive number = 0, fix depth = 0 and tabu list size = 0
Fixed projected solution = [x_1_0_1_OspV=1, x_1_23_1_OspV=1, x_1_90_1_OspV=1]
<DWph=2> <it=  1> <et=7.13> <Mt= 0.00> <Spt= 0.00> <nCl=  0> <DB=   46.5652> <Mlp=   46.5652> <PB=1000000> 
<DWph=1> <it=  2> <et=7.13> <Mt= 0.00> <Spt= 0.00> <nCl=  0> <DB=   46.5652> <Mlp=   46.5652> <PB=1000000> 
<DWph=0> <it=  3> <et=7.13> <Mt= 0.00> <Spt= 0.00> <nCl=  0> <DB=   46.5652> <Mlp=   46.5652> <PB=1000000> 
ColGenEvalAlg final dual bound: 46.5652 (rounded: 47)
---- Diving heuristic node with dive number = 0, fix depth = 0 and tabu list size = 0
Fixed projected solution = [x_1_0_1_OspV=1, x_1_20_1_OspV=1, x_1_93_1_OspV=1]
<DWph=2> <it=  1> <et=7.20> <Mt= 0.00> <Spt= 0.00> <nCl=  0> <DB=   46.5652> <Mlp=   46.5652> <PB=1000000> 
<DWph=1> <it=  2> <et=7.20> <Mt= 0.00> <Spt= 0.00> <nCl=  0> <DB=   46.5652> <Mlp=   46.5652> <PB=1000000> 
<DWph=0> <it=  3> <et=7.21> <Mt= 0.00> <Spt= 0.00> <nCl=  0> <DB=   46.5652> <Mlp=   46.5652> <PB=1000000> 
ColGenEvalAlg final dual bound: 46.5652 (rounded: 47)
---- Diving heuristic node with dive number = 0, fix depth = 0 and tabu list size = 0
Fixed projected solution = [x_1_0_1_OspV=1, x_1_24_1_OspV=1, x_1_92_1_OspV=1]
<DWph=2> <it=  1> <et=7.28> <Mt= 0.01> <Spt= 0.00> <nCl=  0> <DB=   46.5652> <Mlp=   46.5652> <PB=1000000> 
<DWph=1> <it=  2> <et=7.28> <Mt= 0.00> <Spt= 0.00> <nCl=  0> <DB=   46.5652> <Mlp=   46.5652> <PB=1000000> 
<DWph=0> <it=  3> <et=7.28> <Mt= 0.00> <Spt= 0.00> <nCl=  0> <DB=   46.5652> <Mlp=   46.5652> <PB=1000000> 
ColGenEvalAlg final dual bound: 46.5652 (rounded: 47)
---- Diving heuristic node with dive number = 0, fix depth = 0 and tabu list size = 0
Fixed projected solution = [x_1_0_1_OspV=1, x_1_18_1_OspV=1, x_1_100_1_OspV=1]
<DWph=2> <it=  1> <et=7.36> <Mt= 0.00> <Spt= 0.00> <nCl=  0> <DB=   46.5652> <Mlp=   46.5652> <PB=1000000> 
<DWph=1> <it=  2> <et=7.36> <Mt= 0.00> <Spt= 0.00> <nCl=  0> <DB=   46.5652> <Mlp=   46.5652> <PB=1000000> 
<DWph=0> <it=  3> <et=7.36> <Mt= 0.00> <Spt= 0.00> <nCl=  0> <DB=   46.5652> <Mlp=   46.5652> <PB=1000000> 
ColGenEvalAlg final dual bound: 46.5652 (rounded: 47)
---- Diving heuristic node with dive number = 0, fix depth = 0 and tabu list size = 0
Fixed projected solution = [x_1_0_1_OspV=1, x_1_11_1_OspV=1, x_1_102_1_OspV=1]
<DWph=2> <it=  1> <et=7.44> <Mt= 0.00> <Spt= 0.00> <nCl=  0> <DB=   46.5652> <Mlp=   46.5652> <PB=1000000> 
<DWph=1> <it=  2> <et=7.44> <Mt= 0.00> <Spt= 0.00> <nCl=  0> <DB=   46.5652> <Mlp=   46.5652> <PB=1000000> 
<DWph=0> <it=  3> <et=7.44> <Mt= 0.00> <Spt= 0.00> <nCl=  0> <DB=   46.5652> <Mlp=   46.5652> <PB=1000000> 
ColGenEvalAlg final dual bound: 46.5652 (rounded: 47)
---- Diving heuristic node with dive number = 0, fix depth = 0 and tabu list size = 0
Fixed projected solution = [x_1_0_1_OspV=1, x_1_14_1_OspV=1, x_1_101_1_OspV=1]
<DWph=2> <it=  1> <et=7.52> <Mt= 0.00> <Spt= 0.00> <nCl=  0> <DB=   46.5652> <Mlp=   46.5652> <PB=1000000> 
<DWph=1> <it=  2> <et=7.52> <Mt= 0.00> <Spt= 0.00> <nCl=  0> <DB=   46.5652> <Mlp=   46.5652> <PB=1000000> 
<DWph=0> <it=  3> <et=7.52> <Mt= 0.00> <Spt= 0.00> <nCl=  0> <DB=   46.5652> <Mlp=   46.5652> <PB=1000000> 
ColGenEvalAlg final dual bound: 46.5652 (rounded: 47)
---- Diving heuristic node with dive number = 0, fix depth = 0 and tabu list size = 0
Fixed projected solution = [x_1_0_1_OspV=1, x_1_21_1_OspV=1, x_1_91_1_OspV=1]
<DWph=2> <it=  1> <et=7.59> <Mt= 0.00> <Spt= 0.00> <nCl=  0> <DB=   46.5652> <Mlp=   46.5652> <PB=1000000> 
<DWph=1> <it=  2> <et=7.59> <Mt= 0.00> <Spt= 0.00> <nCl=  0> <DB=   46.5652> <Mlp=   46.5652> <PB=1000000> 
<DWph=0> <it=  3> <et=7.59> <Mt= 0.00> <Spt= 0.00> <nCl=  0> <DB=   46.5652> <Mlp=   46.5652> <PB=1000000> 
ColGenEvalAlg final dual bound: 46.5652 (rounded: 47)
---- Diving heuristic node with dive number = 0, fix depth = 0 and tabu list size = 0
Fixed projected solution = [x_1_0_1_OspV=1, x_1_2_1_OspV=1, x_1_3_1_OspV=1, x_1_94_1_OspV=1]
<DWph=2> <it=  1> <et=7.67> <Mt= 0.00> <Spt= 0.00> <nCl=  0> <DB=   46.5652> <Mlp=   46.5652> <PB=1000000> 
<DWph=1> <it=  2> <et=7.67> <Mt= 0.00> <Spt= 0.00> <nCl=  0> <DB=   46.5652> <Mlp=   46.5652> <PB=1000000> 
<DWph=0> <it=  3> <et=7.67> <Mt= 0.01> <Spt= 0.00> <nCl=  0> <DB=   46.5652> <Mlp=   46.5652> <PB=1000000> 
ColGenEvalAlg final dual bound: 46.5652 (rounded: 47)
---- Diving heuristic node with dive number = 0, fix depth = 1 and tabu list size = 0
Fixed projected solution = [x_1_0_1_OspV=1, x_1_59_1_OspV=1, x_1_61_1_OspV=1]
<DWph=2> <it=  1> <et=7.72> <Mt= 0.00> <Spt= 0.00> <nCl=  0> <DB=   46.5714> <Mlp=   46.5714> <PB=1000000> 
<DWph=1> <it=  2> <et=7.72> <Mt= 0.00> <Spt= 0.00> <nCl=  0> <DB=   46.5714> <Mlp=   46.5714> <PB=1000000> 
<DWph=0> <it=  3> <et=7.73> <Mt= 0.00> <Spt= 0.01> <nCl=  0> <DB=   46.5714> <Mlp=   46.5714> <PB=1000000> 
ColGenEvalAlg final dual bound: 46.5714 (rounded: 47)
---- Diving heuristic node with dive number = 0, fix depth = 2 and tabu list size = 0
Fixed projected solution = [x_1_0_1_OspV=1, x_1_49_1_OspV=1, x_1_66_1_OspV=1]
<DWph=2> <it=  1> <et=7.79> <Mt= 0.00> <Spt= 0.00> <nCl=  0> <DB=   46.5714> <Mlp=   46.5714> <PB=1000000> 
<DWph=1> <it=  2> <et=7.79> <Mt= 0.00> <Spt= 0.00> <nCl=  0> <DB=   46.5714> <Mlp=   46.5714> <PB=1000000> 
<DWph=0> <it=  3> <et=7.79> <Mt= 0.00> <Spt= 0.00> <nCl=  0> <DB=   46.5714> <Mlp=   46.5714> <PB=1000000> 
ColGenEvalAlg final dual bound: 46.5714 (rounded: 47)
---- Diving heuristic node with dive number = 0, fix depth = 3 and tabu list size = 0
Fixed projected solution = [x_1_0_1_OspV=1, x_1_28_1_OspV=1, x_1_86_1_OspV=1]
<DWph=2> <it=  1> <et=7.79> <Mt= 0.00> <Spt= 0.00> <nCl=  0> <DB=   46.5714> <Mlp=   46.5714> <PB=1000000> 
<DWph=1> <it=  2> <et=7.79> <Mt= 0.00> <Spt= 0.00> <nCl=  0> <DB=   46.5714> <Mlp=   46.5714> <PB=1000000> 
<DWph=0> <it=  3> <et=7.79> <Mt= 0.00> <Spt= 0.00> <nCl=  0> <DB=   46.5714> <Mlp=   46.5714> <PB=1000000> 
ColGenEvalAlg final dual bound: 46.5714 (rounded: 47)
---- Diving heuristic node with dive number = 0, fix depth = 4 and tabu list size = 0
Fixed projected solution = [x_1_0_1_OspV=1, x_1_36_1_OspV=1, x_1_82_1_OspV=1]
<DWph=2> <it=  1> <et=7.80> <Mt= 0.00> <Spt= 0.00> <nCl=  0> <DB=   46.5714> <Mlp=   46.5714> <PB=1000000> 
<DWph=1> <it=  2> <et=7.80> <Mt= 0.00> <Spt= 0.00> <nCl=  0> <DB=   46.5714> <Mlp=   46.5714> <PB=1000000> 
<DWph=0> <it=  3> <et=7.80> <Mt= 0.00> <Spt= 0.00> <nCl=  0> <DB=   46.5714> <Mlp=   46.5714> <PB=1000000> 
ColGenEvalAlg final dual bound: 46.5714 (rounded: 47)
---- Diving heuristic node with dive number = 0, fix depth = 5 and tabu list size = 0
Fixed projected solution = [x_1_0_1_OspV=1, x_1_9_1_OspV=1, x_1_27_1_OspV=1, x_1_65_1_OspV=1]
<DWph=2> <it=  1> <et=7.80> <Mt= 0.01> <Spt= 0.00> <nCl=  0> <DB=   46.5714> <Mlp=   46.5714> <PB=1000000> 
<DWph=1> <it=  2> <et=7.80> <Mt= 0.00> <Spt= 0.00> <nCl=  0> <DB=   46.5714> <Mlp=   46.5714> <PB=1000000> 
<DWph=0> <it=  3> <et=7.80> <Mt= 0.00> <Spt= 0.00> <nCl=  0> <DB=   46.5714> <Mlp=   46.5714> <PB=1000000> 
ColGenEvalAlg final dual bound: 46.5714 (rounded: 47)
---- Diving heuristic node with dive number = 0, fix depth = 5 and tabu list size = 0
Fixed projected solution = [x_1_0_1_OspV=1, x_1_38_1_OspV=1, x_1_80_1_OspV=1]
<DWph=2> <it=  1> <et=7.80> <Mt= 0.00> <Spt= 0.00> <nCl=  0> <DB=   46.5714> <Mlp=   46.5714> <PB=1000000> 
<DWph=1> <it=  2> <et=7.80> <Mt= 0.00> <Spt= 0.00> <nCl=  0> <DB=   46.5714> <Mlp=   46.5714> <PB=1000000> 
<DWph=0> <it=  3> <et=7.80> <Mt= 0.00> <Spt= 0.00> <nCl=  0> <DB=   46.5714> <Mlp=   46.5714> <PB=1000000> 
ColGenEvalAlg final dual bound: 46.5714 (rounded: 47)
---- Diving heuristic node with dive number = 0, fix depth = 5 and tabu list size = 0
Fixed projected solution = [x_1_0_1_OspV=1, x_1_34_1_OspV=1, x_1_79_1_OspV=1]
<DWph=2> <it=  1> <et=7.81> <Mt= 0.00> <Spt= 0.00> <nCl=  0> <DB=   46.5714> <Mlp=   46.5714> <PB=1000000> 
<DWph=1> <it=  2> <et=7.81> <Mt= 0.00> <Spt= 0.00> <nCl=  0> <DB=   46.5714> <Mlp=   46.5714> <PB=1000000> 
<DWph=0> <it=  3> <et=7.81> <Mt= 0.00> <Spt= 0.00> <nCl=  0> <DB=   46.5714> <Mlp=   46.5714> <PB=1000000> 
ColGenEvalAlg final dual bound: 46.5714 (rounded: 47)
---- Diving heuristic node with dive number = 0, fix depth = 5 and tabu list size = 0
Fixed projected solution = [x_1_0_1_OspV=1, x_1_31_1_OspV=1, x_1_76_1_OspV=1]
<DWph=2> <it=  1> <et=7.81> <Mt= 0.00> <Spt= 0.00> <nCl=  0> <DB=   46.5714> <Mlp=   46.5714> <PB=1000000> 
<DWph=1> <it=  2> <et=7.81> <Mt= 0.00> <Spt= 0.00> <nCl=  0> <DB=   46.5714> <Mlp=   46.5714> <PB=1000000> 
<DWph=0> <it=  3> <et=7.81> <Mt= 0.00> <Spt= 0.00> <nCl=  0> <DB=   46.5714> <Mlp=   46.5714> <PB=1000000> 
ColGenEvalAlg final dual bound: 46.5714 (rounded: 47)
---- Diving heuristic node with dive number = 0, fix depth = 5 and tabu list size = 0
Fixed projected solution = [x_1_0_1_OspV=1, x_1_32_1_OspV=1, x_1_83_1_OspV=1]
<DWph=2> <it=  1> <et=7.81> <Mt= 0.00> <Spt= 0.00> <nCl=  0> <DB=   46.5714> <Mlp=   46.5714> <PB=1000000> 
<DWph=1> <it=  2> <et=7.81> <Mt= 0.00> <Spt= 0.00> <nCl=  0> <DB=   46.5714> <Mlp=   46.5714> <PB=1000000> 
<DWph=0> <it=  3> <et=7.81> <Mt= 0.00> <Spt= 0.00> <nCl=  0> <DB=   46.5714> <Mlp=   46.5714> <PB=1000000> 
ColGenEvalAlg final dual bound: 46.5714 (rounded: 47)
---- Diving heuristic node with dive number = 0, fix depth = 6 and tabu list size = 0
Fixed projected solution = [x_1_0_1_OspV=1, x_1_30_1_OspV=1, x_1_84_1_OspV=1]
<DWph=2> <it=  1> <et=7.82> <Mt= 0.00> <Spt= 0.00> <nCl=  0> <DB=   46.5714> <Mlp=   46.5714> <PB=1000000> 
<DWph=1> <it=  2> <et=7.82> <Mt= 0.00> <Spt= 0.00> <nCl=  0> <DB=   46.5714> <Mlp=   46.5714> <PB=1000000> 
<DWph=0> <it=  3> <et=7.82> <Mt= 0.01> <Spt= 0.00> <nCl=  0> <DB=   46.5714> <Mlp=   46.5714> <PB=1000000> 
ColGenEvalAlg final dual bound: 46.5714 (rounded: 47)
---- Diving heuristic node with dive number = 0, fix depth = 7 and tabu list size = 0
Fixed projected solution = [x_1_0_1_OspV=1, x_1_26_1_OspV=1, x_1_87_1_OspV=1]
<DWph=2> <it=  4> <et=7.83> <Mt= 0.00> <Spt= 0.00> <nCl=  0> <DB=1066713.2778> <Mlp=1066713.2778> <PB=1000000> 
<DWph=1> <it=  5> <et=7.83> <Mt= 0.00> <Spt= 0.00> <nCl=  0> <DB=1066713.2778> <Mlp=1066713.2778> <PB=1000000> 
<DWph=0> <it=  8> <et=7.85> <Mt= 0.00> <Spt= 0.02> <nCl=200> <DB=   46.5714> <Mlp=   46.5714> <PB=1000000> 
ColGenEvalAlg final dual bound: 46.5714 (rounded: 47)
---- Diving heuristic node with dive number = 0, fix depth = 8 and tabu list size = 0
Fixed projected solution = [x_1_0_1_OspV=1, x_1_25_1_OspV=1, x_1_88_1_OspV=1]
<DWph=2> <it=  1> <et=7.86> <Mt= 0.00> <Spt= 0.00> <nCl=  0> <DB=   46.5714> <Mlp=   46.5714> <PB=1000000> 
<DWph=1> <it=  2> <et=7.86> <Mt= 0.00> <Spt= 0.00> <nCl=  0> <DB=   46.5714> <Mlp=   46.5714> <PB=1000000> 
<DWph=0> <it=  3> <et=7.86> <Mt= 0.01> <Spt= 0.00> <nCl=  0> <DB=   46.5714> <Mlp=   46.5714> <PB=1000000> 
ColGenEvalAlg final dual bound: 46.5714 (rounded: 47)
---- Diving heuristic node with dive number = 0, fix depth = 9 and tabu list size = 0
Fixed projected solution = [x_1_0_1_OspV=1, x_1_19_1_OspV=1, x_1_99_1_OspV=1]
<DWph=2> <it=  1> <et=7.86> <Mt= 0.00> <Spt= 0.00> <nCl=  0> <DB=   46.5714> <Mlp=   46.5714> <PB=1000000> 
<DWph=1> <it=  2> <et=7.86> <Mt= 0.00> <Spt= 0.00> <nCl=  0> <DB=   46.5714> <Mlp=   46.5714> <PB=1000000> 
<DWph=0> <it=  3> <et=7.86> <Mt= 0.00> <Spt= 0.00> <nCl=  0> <DB=   46.5714> <Mlp=   46.5714> <PB=1000000> 
ColGenEvalAlg final dual bound: 46.5714 (rounded: 47)
---- Diving heuristic node with dive number = 0, fix depth = 10 and tabu list size = 0
Fixed projected solution = [x_1_0_1_OspV=1, x_1_1_1_OspV=1, x_1_4_1_OspV=1, x_1_97_1_OspV=1]
<DWph=2> <it=  1> <et=7.86> <Mt= 0.00> <Spt= 0.00> <nCl=  0> <DB=   46.5714> <Mlp=   46.5714> <PB=1000000> 
<DWph=1> <it=  2> <et=7.86> <Mt= 0.00> <Spt= 0.00> <nCl=  0> <DB=   46.5714> <Mlp=   46.5714> <PB=1000000> 
<DWph=0> <it=  3> <et=7.87> <Mt= 0.00> <Spt= 0.00> <nCl=  0> <DB=   46.5714> <Mlp=   46.5714> <PB=1000000> 
ColGenEvalAlg final dual bound: 46.5714 (rounded: 47)
---- Diving heuristic node with dive number = 0, fix depth = 11 and tabu list size = 0
Fixed projected solution = [x_1_0_1_OspV=1, x_1_5_1_OspV=1, x_1_51_1_OspV=1, x_1_55_1_OspV=1]
<DWph=2> <it=  1> <et=7.87> <Mt= 0.00> <Spt= 0.00> <nCl=  0> <DB=   46.6667> <Mlp=   46.6667> <PB=1000000> 
<DWph=1> <it=  2> <et=7.87> <Mt= 0.00> <Spt= 0.00> <nCl=  0> <DB=   46.6667> <Mlp=   46.6667> <PB=1000000> 
<DWph=0> <it=  4> <et=7.88> <Mt= 0.01> <Spt= 0.01> <nCl=100> <DB=   46.5714> <Mlp=   46.5714> <PB=1000000> 
ColGenEvalAlg final dual bound: 46.5714 (rounded: 47)
---- Diving heuristic node with dive number = 0, fix depth = 12 and tabu list size = 0
Fixed projected solution = [x_1_0_1_OspV=1, x_1_6_1_OspV=1, x_1_50_1_OspV=1, x_1_54_1_OspV=1]
<DWph=2> <it=  1> <et=7.89> <Mt= 0.00> <Spt= 0.00> <nCl=  0> <DB=   46.5714> <Mlp=   46.5714> <PB=1000000> 
<DWph=1> <it=  2> <et=7.89> <Mt= 0.00> <Spt= 0.00> <nCl=  0> <DB=   46.5714> <Mlp=   46.5714> <PB=1000000> 
<DWph=0> <it=  3> <et=7.89> <Mt= 0.00> <Spt= 0.00> <nCl=  0> <DB=   46.5714> <Mlp=   46.5714> <PB=1000000> 
ColGenEvalAlg final dual bound: 46.5714 (rounded: 47)
---- Diving heuristic node with dive number = 0, fix depth = 13 and tabu list size = 0
Fixed projected solution = [x_1_0_1_OspV=1, x_1_40_1_OspV=1, x_1_75_1_OspV=1]
<DWph=2> <it=  1> <et=7.89> <Mt= 0.00> <Spt= 0.00> <nCl=  0> <DB=   46.5714> <Mlp=   46.5714> <PB=1000000> 
<DWph=1> <it=  2> <et=7.89> <Mt= 0.00> <Spt= 0.00> <nCl=  0> <DB=   46.5714> <Mlp=   46.5714> <PB=1000000> 
<DWph=0> <it=  3> <et=7.89> <Mt= 0.00> <Spt= 0.00> <nCl=  0> <DB=   46.5714> <Mlp=   46.5714> <PB=1000000> 
ColGenEvalAlg final dual bound: 46.5714 (rounded: 47)
---- Diving heuristic node with dive number = 0, fix depth = 14 and tabu list size = 0
Fixed projected solution = [x_1_0_1_OspV=1, x_1_37_1_OspV=1, x_1_81_1_OspV=1]
<DWph=2> <it=  1> <et=7.90> <Mt= 0.00> <Spt= 0.00> <nCl=  0> <DB=   46.5714> <Mlp=   46.5714> <PB=1000000> 
<DWph=1> <it=  2> <et=7.90> <Mt= 0.00> <Spt= 0.00> <nCl=  0> <DB=   46.5714> <Mlp=   46.5714> <PB=1000000> 
<DWph=0> <it=  3> <et=7.90> <Mt= 0.00> <Spt= 0.00> <nCl=  0> <DB=   46.5714> <Mlp=   46.5714> <PB=1000000> 
ColGenEvalAlg final dual bound: 46.5714 (rounded: 47)
---- Diving heuristic node with dive number = 0, fix depth = 14 and tabu list size = 0
Fixed projected solution = [x_1_0_1_OspV=1, x_1_35_1_OspV=1, x_1_74_1_OspV=1]
<DWph=2> <it=  1> <et=7.90> <Mt= 0.00> <Spt= 0.00> <nCl=  0> <DB=   46.5714> <Mlp=   46.5714> <PB=1000000> 
<DWph=1> <it=  2> <et=7.90> <Mt= 0.00> <Spt= 0.00> <nCl=  0> <DB=   46.5714> <Mlp=   46.5714> <PB=1000000> 
<DWph=0> <it=  3> <et=7.90> <Mt= 0.00> <Spt= 0.00> <nCl=  0> <DB=   46.5714> <Mlp=   46.5714> <PB=1000000> 
ColGenEvalAlg final dual bound: 46.5714 (rounded: 47)
---- Diving heuristic node with dive number = 0, fix depth = 15 and tabu list size = 0
Fixed projected solution = [x_1_0_1_OspV=1, x_1_7_1_OspV=1, x_1_10_1_OspV=1, x_1_72_1_OspV=1]
<DWph=2> <it=  1> <et=7.91> <Mt= 0.01> <Spt= 0.00> <nCl=  0> <DB=3490955.8182> <Mlp=3490955.8182> <PB=1000000> 
<DWph=1> <it=  2> <et=7.91> <Mt= 0.00> <Spt= 0.00> <nCl=  0> <DB=3490955.8182> <Mlp=3490955.8182> <PB=1000000> 
<DWph=0> <it=  6> <et=7.95> <Mt= 0.00> <Spt= 0.04> <nCl=248> <DB=   46.6154> <Mlp=   46.6154> <PB=1000000> 
ColGenEvalAlg final dual bound: 46.6154 (rounded: 47)
---- Diving heuristic node with dive number = 0, fix depth = 16 and tabu list size = 0
Fixed projected solution = [x_1_0_1_OspV=1, x_1_52_1_OspV=1, x_1_63_1_OspV=1]
<DWph=2> <it=  1> <et=7.96> <Mt= 0.01> <Spt= 0.00> <nCl=  0> <DB=3490955.8182> <Mlp=3490955.8182> <PB=1000000> 
<DWph=1> <it=  2> <et=7.96> <Mt= 0.00> <Spt= 0.00> <nCl=  0> <DB=3490955.8182> <Mlp=3490955.8182> <PB=1000000> 
<DWph=0> <it=  4> <et=7.99> <Mt= 0.00> <Spt= 0.02> <nCl=100> <DB=   46.6667> <Mlp=   46.6667> <PB=1000000> 
ColGenEvalAlg final dual bound: 46.6667 (rounded: 47)
---- Diving heuristic node with dive number = 0, fix depth = 17 and tabu list size = 0
Fixed projected solution = [x_1_0_1_OspV=1, x_1_53_1_OspV=1, x_1_64_1_OspV=1]
<DWph=2> <it=  1> <et=7.99> <Mt= 0.01> <Spt= 0.00> <nCl=  0> <DB=   46.6667> <Mlp=   46.6667> <PB=1000000> 
<DWph=1> <it=  2> <et=7.99> <Mt= 0.00> <Spt= 0.00> <nCl=  0> <DB=   46.6667> <Mlp=   46.6667> <PB=1000000> 
<DWph=0> <it=  3> <et=7.99> <Mt= 0.00> <Spt= 0.00> <nCl=  0> <DB=   46.6667> <Mlp=   46.6667> <PB=1000000> 
ColGenEvalAlg final dual bound: 46.6667 (rounded: 47)
---- Diving heuristic node with dive number = 0, fix depth = 18 and tabu list size = 0
Fixed projected solution = [x_1_0_1_OspV=1, x_1_12_1_OspV=1, x_1_45_1_OspV=1, x_1_57_1_OspV=1]
<DWph=2> <it=  1> <et=8.00> <Mt= 0.01> <Spt= 0.00> <nCl=  0> <DB=7680046.8000> <Mlp=7680046.8000> <PB=1000000> 
<DWph=1> <it=  2> <et=8.00> <Mt= 0.00> <Spt= 0.00> <nCl=  0> <DB=7680046.8000> <Mlp=7680046.8000> <PB=1000000> 
<DWph=0> <it=  6> <et=8.04> <Mt= 0.00> <Spt= 0.03> <nCl=123> <DB=   47.0000> <Mlp=   47.0000> <PB=1000000> 
ColGenEvalAlg final dual bound: 47 (rounded: 47)
---- Diving heuristic node with dive number = 0, fix depth = 19 and tabu list size = 0
Fixed projected solution = [x_1_0_1_OspV=1, x_1_13_1_OspV=1, x_1_43_1_OspV=1, x_1_56_1_OspV=1]
<DWph=2> <it=  1> <et=8.05> <Mt= 0.00> <Spt= 0.00> <nCl=  0> <DB=9600047.0000> <Mlp=9600047.0000> <PB=1000000> 
<DWph=1> <it=  2> <et=8.05> <Mt= 0.00> <Spt= 0.00> <nCl=  0> <DB=9600047.0000> <Mlp=9600047.0000> <PB=1000000> 
<DWph=0> <it=  7> <et=8.11> <Mt= 0.01> <Spt= 0.05> <nCl=350> <DB=   48.0000> <Mlp=   48.0000> <PB=48> 
ColGenEvalAlg final dual bound: 48 (rounded: 48)
---- Diving heuristic node with dive number = 1, fix depth = 2 and tabu list size = 1
Fixed projected solution = [x_1_0_1_OspV=1, x_1_28_1_OspV=1, x_1_86_1_OspV=1]
<DWph=2> <it=  1> <et=8.17> <Mt= 0.00> <Spt= 0.00> <nCl=  0> <DB=   46.5714> <Mlp=   46.5714> <PB=48> 
<DWph=1> <it=  2> <et=8.17> <Mt= 0.00> <Spt= 0.00> <nCl=  0> <DB=   46.5714> <Mlp=   46.5714> <PB=48> 
<DWph=0> <it=  3> <et=8.18> <Mt= 0.00> <Spt= 0.00> <nCl=  0> <DB=   46.5714> <Mlp=   46.5714> <PB=48> 
ColGenEvalAlg final dual bound: 46.5714 (rounded: 47)
---- Diving heuristic node with dive number = 1, fix depth = 3 and tabu list size = 1
Fixed projected solution = [x_1_0_1_OspV=1, x_1_9_1_OspV=1, x_1_27_1_OspV=1, x_1_65_1_OspV=1]
<DWph=2> <it=  1> <et=8.18> <Mt= 0.00> <Spt= 0.00> <nCl=  0> <DB=   46.5714> <Mlp=   46.5714> <PB=48> 
<DWph=1> <it=  2> <et=8.18> <Mt= 0.00> <Spt= 0.00> <nCl=  0> <DB=   46.5714> <Mlp=   46.5714> <PB=48> 
<DWph=0> <it=  3> <et=8.18> <Mt= 0.01> <Spt= 0.00> <nCl=  0> <DB=   46.5714> <Mlp=   46.5714> <PB=48> 
ColGenEvalAlg final dual bound: 46.5714 (rounded: 47)
---- Diving heuristic node with dive number = 1, fix depth = 3 and tabu list size = 1
Fixed projected solution = [x_1_0_1_OspV=1, x_1_49_1_OspV=1, x_1_66_1_OspV=1]
<DWph=2> <it=  1> <et=8.18> <Mt= 0.00> <Spt= 0.00> <nCl=  0> <DB=   46.5714> <Mlp=   46.5714> <PB=48> 
<DWph=1> <it=  2> <et=8.19> <Mt= 0.00> <Spt= 0.00> <nCl=  0> <DB=   46.5714> <Mlp=   46.5714> <PB=48> 
<DWph=0> <it=  3> <et=8.19> <Mt= 0.00> <Spt= 0.00> <nCl=  0> <DB=   46.5714> <Mlp=   46.5714> <PB=48> 
ColGenEvalAlg final dual bound: 46.5714 (rounded: 47)
---- Diving heuristic node with dive number = 1, fix depth = 3 and tabu list size = 1
Fixed projected solution = [x_1_0_1_OspV=1, x_1_38_1_OspV=1, x_1_80_1_OspV=1]
<DWph=2> <it=  1> <et=8.19> <Mt= 0.00> <Spt= 0.00> <nCl=  0> <DB=   46.5714> <Mlp=   46.5714> <PB=48> 
<DWph=1> <it=  2> <et=8.19> <Mt= 0.00> <Spt= 0.00> <nCl=  0> <DB=   46.5714> <Mlp=   46.5714> <PB=48> 
<DWph=0> <it=  3> <et=8.19> <Mt= 0.00> <Spt= 0.00> <nCl=  0> <DB=   46.5714> <Mlp=   46.5714> <PB=48> 
ColGenEvalAlg final dual bound: 46.5714 (rounded: 47)
---- Diving heuristic node with dive number = 1, fix depth = 3 and tabu list size = 1
Fixed projected solution = [x_1_0_1_OspV=1, x_1_34_1_OspV=1, x_1_79_1_OspV=1]
<DWph=2> <it=  1> <et=8.19> <Mt= 0.00> <Spt= 0.00> <nCl=  0> <DB=   46.5714> <Mlp=   46.5714> <PB=48> 
<DWph=1> <it=  2> <et=8.19> <Mt= 0.00> <Spt= 0.00> <nCl=  0> <DB=   46.5714> <Mlp=   46.5714> <PB=48> 
<DWph=0> <it=  3> <et=8.19> <Mt= 0.00> <Spt= 0.00> <nCl=  0> <DB=   46.5714> <Mlp=   46.5714> <PB=48> 
ColGenEvalAlg final dual bound: 46.5714 (rounded: 47)
---- Diving heuristic node with dive number = 1, fix depth = 3 and tabu list size = 1
Fixed projected solution = [x_1_0_1_OspV=1, x_1_31_1_OspV=1, x_1_76_1_OspV=1]
<DWph=2> <it=  1> <et=8.20> <Mt= 0.00> <Spt= 0.00> <nCl=  0> <DB=   46.5714> <Mlp=   46.5714> <PB=48> 
<DWph=1> <it=  2> <et=8.20> <Mt= 0.00> <Spt= 0.00> <nCl=  0> <DB=   46.5714> <Mlp=   46.5714> <PB=48> 
<DWph=0> <it=  3> <et=8.20> <Mt= 0.00> <Spt= 0.00> <nCl=  0> <DB=   46.5714> <Mlp=   46.5714> <PB=48> 
ColGenEvalAlg final dual bound: 46.5714 (rounded: 47)
---- Diving heuristic node with dive number = 1, fix depth = 3 and tabu list size = 1
Fixed projected solution = [x_1_0_1_OspV=1, x_1_32_1_OspV=1, x_1_83_1_OspV=1]
<DWph=2> <it=  1> <et=8.20> <Mt= 0.00> <Spt= 0.00> <nCl=  0> <DB=   46.5714> <Mlp=   46.5714> <PB=48> 
<DWph=1> <it=  2> <et=8.20> <Mt= 0.00> <Spt= 0.00> <nCl=  0> <DB=   46.5714> <Mlp=   46.5714> <PB=48> 
<DWph=0> <it=  3> <et=8.20> <Mt= 0.00> <Spt= 0.00> <nCl=  0> <DB=   46.5714> <Mlp=   46.5714> <PB=48> 
ColGenEvalAlg final dual bound: 46.5714 (rounded: 47)
---- Diving heuristic node with dive number = 1, fix depth = 4 and tabu list size = 1
Fixed projected solution = [x_1_0_1_OspV=1, x_1_30_1_OspV=1, x_1_84_1_OspV=1]
<DWph=2> <it=  1> <et=8.21> <Mt= 0.01> <Spt= 0.00> <nCl=  0> <DB=   46.5714> <Mlp=   46.5714> <PB=48> 
<DWph=1> <it=  2> <et=8.21> <Mt= 0.00> <Spt= 0.00> <nCl=  0> <DB=   46.5714> <Mlp=   46.5714> <PB=48> 
<DWph=0> <it=  3> <et=8.21> <Mt= 0.00> <Spt= 0.00> <nCl=  0> <DB=   46.5714> <Mlp=   46.5714> <PB=48> 
ColGenEvalAlg final dual bound: 46.5714 (rounded: 47)
---- Diving heuristic node with dive number = 1, fix depth = 5 and tabu list size = 1
Fixed projected solution = [x_1_0_1_OspV=1, x_1_26_1_OspV=1, x_1_87_1_OspV=1]
<DWph=2> <it=  1> <et=8.21> <Mt= 0.00> <Spt= 0.00> <nCl=  0> <DB=   46.6000> <Mlp=   46.6000> <PB=48> 
<DWph=1> <it=  2> <et=8.21> <Mt= 0.00> <Spt= 0.00> <nCl=  0> <DB=   46.6000> <Mlp=   46.6000> <PB=48> 
<DWph=0> <it=  5> <et=8.24> <Mt= 0.00> <Spt= 0.02> <nCl=200> <DB=   46.5714> <Mlp=   46.5714> <PB=48> 
ColGenEvalAlg final dual bound: 46.5714 (rounded: 47)
---- Diving heuristic node with dive number = 1, fix depth = 6 and tabu list size = 1
Fixed projected solution = [x_1_0_1_OspV=1, x_1_56_1_OspV=1, x_1_63_1_OspV=1]
<DWph=2> <it=  1> <et=8.24> <Mt= 0.00> <Spt= 0.00> <nCl=  0> <DB=   46.5714> <Mlp=   46.5714> <PB=48> 
<DWph=1> <it=  2> <et=8.24> <Mt= 0.00> <Spt= 0.00> <nCl=  0> <DB=   46.5714> <Mlp=   46.5714> <PB=48> 
<DWph=0> <it=  3> <et=8.24> <Mt= 0.00> <Spt= 0.00> <nCl=  0> <DB=   46.5714> <Mlp=   46.5714> <PB=48> 
ColGenEvalAlg final dual bound: 46.5714 (rounded: 47)
---- Diving heuristic node with dive number = 1, fix depth = 7 and tabu list size = 1
Fixed projected solution = [x_1_0_1_OspV=1, x_1_7_1_OspV=1, x_1_50_1_OspV=1, x_1_54_1_OspV=1]
<DWph=2> <it=  1> <et=8.25> <Mt= 0.01> <Spt= 0.00> <nCl=  0> <DB=   46.5714> <Mlp=   46.5714> <PB=48> 
<DWph=1> <it=  2> <et=8.25> <Mt= 0.00> <Spt= 0.00> <nCl=  0> <DB=   46.5714> <Mlp=   46.5714> <PB=48> 
<DWph=0> <it=  3> <et=8.25> <Mt= 0.00> <Spt= 0.00> <nCl=  0> <DB=   46.5714> <Mlp=   46.5714> <PB=48> 
ColGenEvalAlg final dual bound: 46.5714 (rounded: 47)
---- Diving heuristic node with dive number = 1, fix depth = 8 and tabu list size = 1
Fixed projected solution = [x_1_0_1_OspV=1, x_1_4_1_OspV=1, x_1_8_1_OspV=1, x_1_88_1_OspV=1]
<DWph=2> <it=  1> <et=8.26> <Mt= 0.01> <Spt= 0.00> <nCl=  0> <DB=   46.6667> <Mlp=   46.6667> <PB=48> 
<DWph=1> <it=  2> <et=8.26> <Mt= 0.00> <Spt= 0.00> <nCl=  0> <DB=   46.6667> <Mlp=   46.6667> <PB=48> 
<DWph=0> <it=  8> <et=8.33> <Mt= 0.00> <Spt= 0.06> <nCl=408> <DB=   46.6190> <Mlp=   46.6190> <PB=48> 
ColGenEvalAlg final dual bound: 46.619 (rounded: 47)
---- Diving heuristic node with dive number = 1, fix depth = 8 and tabu list size = 1
Fixed projected solution = [x_1_0_1_OspV=1, x_1_1_1_OspV=1, x_1_25_1_OspV=1, x_1_72_1_OspV=1]
<DWph=2> <it=  1> <et=8.33> <Mt= 0.00> <Spt= 0.00> <nCl=  0> <DB=   46.6190> <Mlp=   46.6190> <PB=48> 
<DWph=1> <it=  2> <et=8.33> <Mt= 0.01> <Spt= 0.00> <nCl=  0> <DB=   46.6190> <Mlp=   46.6190> <PB=48> 
<DWph=0> <it=  3> <et=8.33> <Mt= 0.00> <Spt= 0.00> <nCl=  0> <DB=   46.6190> <Mlp=   46.6190> <PB=48> 
ColGenEvalAlg final dual bound: 46.619 (rounded: 47)
---- Diving heuristic node with dive number = 1, fix depth = 8 and tabu list size = 1
Fixed projected solution = [x_1_0_1_OspV=1, x_1_19_1_OspV=1, x_1_97_1_OspV=1]
<DWph=2> <it=  1> <et=8.34> <Mt= 0.00> <Spt= 0.00> <nCl=  0> <DB=   46.6190> <Mlp=   46.6190> <PB=48> 
<DWph=1> <it=  2> <et=8.34> <Mt= 0.00> <Spt= 0.00> <nCl=  0> <DB=   46.6190> <Mlp=   46.6190> <PB=48> 
<DWph=0> <it=  3> <et=8.34> <Mt= 0.00> <Spt= 0.00> <nCl=  0> <DB=   46.6190> <Mlp=   46.6190> <PB=48> 
ColGenEvalAlg final dual bound: 46.619 (rounded: 47)
---- Diving heuristic node with dive number = 1, fix depth = 9 and tabu list size = 1
Fixed projected solution = [x_1_0_1_OspV=1, x_1_40_1_OspV=1, x_1_75_1_OspV=1]
<DWph=2> <it=  1> <et=8.34> <Mt= 0.00> <Spt= 0.00> <nCl=  0> <DB=   46.6190> <Mlp=   46.6190> <PB=48> 
<DWph=1> <it=  2> <et=8.34> <Mt= 0.00> <Spt= 0.00> <nCl=  0> <DB=   46.6190> <Mlp=   46.6190> <PB=48> 
<DWph=0> <it=  3> <et=8.34> <Mt= 0.00> <Spt= 0.00> <nCl=  0> <DB=   46.6190> <Mlp=   46.6190> <PB=48> 
ColGenEvalAlg final dual bound: 46.619 (rounded: 47)
---- Diving heuristic node with dive number = 1, fix depth = 10 and tabu list size = 1
Fixed projected solution = [x_1_0_1_OspV=1, x_1_37_1_OspV=1, x_1_81_1_OspV=1]
<DWph=2> <it=  1> <et=8.35> <Mt= 0.00> <Spt= 0.00> <nCl=  0> <DB=   46.6190> <Mlp=   46.6190> <PB=48> 
<DWph=1> <it=  2> <et=8.35> <Mt= 0.00> <Spt= 0.00> <nCl=  0> <DB=   46.6190> <Mlp=   46.6190> <PB=48> 
<DWph=0> <it=  3> <et=8.35> <Mt= 0.00> <Spt= 0.00> <nCl=  0> <DB=   46.6190> <Mlp=   46.6190> <PB=48> 
ColGenEvalAlg final dual bound: 46.619 (rounded: 47)
---- Diving heuristic node with dive number = 1, fix depth = 11 and tabu list size = 1
Fixed projected solution = [x_1_0_1_OspV=1, x_1_35_1_OspV=1, x_1_74_1_OspV=1]
<DWph=2> <it=  1> <et=8.35> <Mt= 0.00> <Spt= 0.00> <nCl=  0> <DB=   46.6667> <Mlp=   46.6667> <PB=48> 
<DWph=1> <it=  2> <et=8.35> <Mt= 0.00> <Spt= 0.00> <nCl=  0> <DB=   46.6667> <Mlp=   46.6667> <PB=48> 
<DWph=0> <it=  4> <et=8.37> <Mt= 0.01> <Spt= 0.01> <nCl=100> <DB=   46.6190> <Mlp=   46.6190> <PB=48> 
ColGenEvalAlg final dual bound: 46.619 (rounded: 47)
---- Diving heuristic node with dive number = 1, fix depth = 12 and tabu list size = 1
Fixed projected solution = [x_1_0_1_OspV=1, x_1_10_1_OspV=1, x_1_99_1_OspV=1]
<DWph=2> <it=  1> <et=8.37> <Mt= 0.00> <Spt= 0.00> <nCl=  0> <DB=   46.6471> <Mlp=   46.6471> <PB=48> 
<DWph=1> <it=  2> <et=8.38> <Mt= 0.00> <Spt= 0.00> <nCl=  0> <DB=   46.6471> <Mlp=   46.6471> <PB=48> 
<DWph=0> <it=  4> <et=8.40> <Mt= 0.00> <Spt= 0.02> <nCl=100> <DB=   46.6250> <Mlp=   46.6250> <PB=48> 
ColGenEvalAlg final dual bound: 46.625 (rounded: 47)
---- Diving heuristic node with dive number = 1, fix depth = 12 and tabu list size = 1
Fixed projected solution = [x_1_0_1_OspV=1, x_1_36_1_OspV=1, x_1_82_1_OspV=1]
<DWph=2> <it=  1> <et=8.40> <Mt= 0.00> <Spt= 0.00> <nCl=  0> <DB=   46.6250> <Mlp=   46.6250> <PB=48> 
<DWph=1> <it=  2> <et=8.40> <Mt= 0.00> <Spt= 0.00> <nCl=  0> <DB=   46.6250> <Mlp=   46.6250> <PB=48> 
<DWph=0> <it=  3> <et=8.40> <Mt= 0.00> <Spt= 0.00> <nCl=  0> <DB=   46.6250> <Mlp=   46.6250> <PB=48> 
ColGenEvalAlg final dual bound: 46.625 (rounded: 47)
---- Diving heuristic node with dive number = 1, fix depth = 13 and tabu list size = 1
Fixed projected solution = [x_1_0_1_OspV=1, x_1_6_1_OspV=1, x_1_51_1_OspV=1, x_1_53_1_OspV=1]
<DWph=2> <it=  1> <et=8.41> <Mt= 0.01> <Spt= 0.00> <nCl=  0> <DB=600046.5000> <Mlp=600046.5000> <PB=48> 
<DWph=1> <it=  2> <et=8.41> <Mt= 0.00> <Spt= 0.00> <nCl=  0> <DB=600046.5000> <Mlp=600046.5000> <PB=48> 
<DWph=0> <it=  4> <et=8.43> <Mt= 0.00> <Spt= 0.02> <nCl=100> <DB=   47.0000> <Mlp=   47.0000> <PB=48> 
ColGenEvalAlg final dual bound: 47 (rounded: 47)
---- Diving heuristic node with dive number = 1, fix depth = 14 and tabu list size = 1
Fixed projected solution = [x_1_0_1_OspV=1, x_1_13_1_OspV=1, x_1_43_1_OspV=1, x_1_57_1_OspV=1]
<DWph=2> <it=  1> <et=8.44> <Mt= 0.00> <Spt= 0.00> <nCl=  0> <DB=   47.0000> <Mlp=   47.0000> <PB=48> 
<DWph=1> <it=  2> <et=8.44> <Mt= 0.00> <Spt= 0.00> <nCl=  0> <DB=   47.0000> <Mlp=   47.0000> <PB=48> 
<DWph=0> <it=  3> <et=8.44> <Mt= 0.00> <Spt= 0.00> <nCl=  0> <DB=   47.0000> <Mlp=   47.0000> <PB=48> 
ColGenEvalAlg final dual bound: 47 (rounded: 47)
---- Diving heuristic node with dive number = 1, fix depth = 15 and tabu list size = 1
Fixed projected solution = [x_1_0_1_OspV=1, x_1_52_1_OspV=1, x_1_64_1_OspV=1]
<DWph=2> <it=  1> <et=8.45> <Mt= 0.01> <Spt= 0.00> <nCl=  0> <DB=400047.3333> <Mlp=400047.3333> <PB=48> 
<DWph=1> <it=  2> <et=8.45> <Mt= 0.00> <Spt= 0.00> <nCl=  0> <DB=400047.3333> <Mlp=400047.3333> <PB=48> 
<DWph=0> <it=  4> <et=8.46> <Mt= 0.00> <Spt= 0.01> <nCl=100> <DB=   47.0000> <Mlp=   47.0000> <PB=48> 
ColGenEvalAlg final dual bound: 47 (rounded: 47)
---- Diving heuristic node with dive number = 1, fix depth = 16 and tabu list size = 1
Fixed projected solution = [x_1_0_1_OspV=1, x_1_12_1_OspV=1, x_1_45_1_OspV=1, x_1_55_1_OspV=1]
<DWph=2> <it=  1> <et=8.47> <Mt= 0.01> <Spt= 0.00> <nCl=  0> <DB=1200047.0000> <Mlp=1200047.0000> <PB=48> 
<DWph=1> <it=  2> <et=8.48> <Mt= 0.00> <Spt= 0.00> <nCl=  0> <DB=1200047.0000> <Mlp=1200047.0000> <PB=48> 
<DWph=0> <it=  5> <et=8.50> <Mt= 0.00> <Spt= 0.02> <nCl=200> <DB=   47.0000> <Mlp=   47.0000> <PB=47> 
ColGenEvalAlg final dual bound: 47 (rounded: 47)
New model incumbent solution 47, TIME = 0h0m8s53t = 853
************************************************************************************************
Search is finished, global bounds : [ 47 , 47 ], TIME = 0h0m8s57t = 857
************************************************************************************************
[32mBaPCod : solution defined.[00m
statistics_cols: instance & :Optimal & cutoff & :bcRecRootDb & :bcTimeRootEval & :bcCountNodeProc & :bcRecBestDb & :bcRecBestInc & :bcTimeMain \\
statistics: N102W1000001R1080Q2-001 & 1 & 1.0e6 & 47.00 & 5.94 & 1 & 47.00 & 47 & 8.57 \\
########################################################
bin_id=1: 488857(1) 508848(0) 
bin_id=2: 480352(0) 506925(1) 
bin_id=3: 445570(1) 513795(0) 
bin_id=4: 425164(1) 515846(0) 
bin_id=5: 131074(1) 424265(0) 426976(1) 
bin_id=6: 404560(0) 587494(1) 
bin_id=7: 418800(1) 578054(0) 
bin_id=8: 399263(1) 584334(0) 
bin_id=9: 382783(0) 608460(1) 
bin_id=10: 362468(0) 633121(1) 
bin_id=11: 349126(1) 635335(0) 
bin_id=12: 339698(0) 654054(1) 
bin_id=13: 407198(0) 588052(1) 
bin_id=14: 123115(0) 141521(0) 731809(1) 
bin_id=15: 331081(0) 668617(1) 
bin_id=16: 108417(1) 253584(0) 633416(1) 
bin_id=17: 333370(0) 655772(1) 
bin_id=18: 314872(0) 646869(1) 
bin_id=19: 332035(1) 659874(0) 
bin_id=20: 313989(1) 656393(0) 
bin_id=21: 304612(1) 655450(0) 
bin_id=22: 221094(0) 768346(1) 
bin_id=23: 153873(0) 778226(1) 
bin_id=24: 248303(0) 736635(1) 
bin_id=25: 294045(1) 654848(0) 
bin_id=26: 204568(1) 761516(0) 
bin_id=27: 203367(1) 764712(0) 
bin_id=28: 201953(1) 773661(0) 
bin_id=29: 273359(0) 719187(1) 
bin_id=30: 275766(0) 696490(1) 
bin_id=31: 248579(0) 741205(1) 
bin_id=32: 257559(1) 719610(0) 
bin_id=33: 241121(1) 750604(0) 
bin_id=34: 322561(0) 669420(1) 
bin_id=35: 251075(1) 746539(0) 
bin_id=36: 211082(1) 782021(0) 
bin_id=37: 160476(0) 792913(1) 
bin_id=38: 181117(1) 786747(0) 
bin_id=39: 294332(1) 670122(0) 
bin_id=40: 247789(0) 745119(1) 
bin_id=41: 152687(1) 270068(0) 576875(0) 
bin_id=42: 109653(0) 122196(1) 760359(1) 
bin_id=43: 173976(1) 369800(0) 448330(0) 
bin_id=44: 283728(1) 678135(0) 
bin_id=45: 139694(1) 422393(0) 433771(0) 
bin_id=46: 165108(1) 385051(1) 440481(0) 
bin_id=47: 130294(1) 460018(0) 
Objective value: 47.0
########################################################
