Academic license - for non-commercial use only - expires 2025-02-09
Gurobi Optimizer version 9.1.2 build v9.1.2rc0 (linux64)
Thread count: 20 physical cores, 40 logical processors, using up to 1 threads
Optimize a model with 2004 rows, 251502 columns and 1004505 nonzeros
Model fingerprint: 0x119dd316
Variable types: 0 continuous, 251502 integer (251502 binary)
Coefficient statistics:
  Matrix range     [1e+00, 1e+03]
  Objective range  [1e+00, 1e+00]
  Bounds range     [1e+00, 1e+00]
  RHS range        [1e+00, 1e+00]

Loaded user MIP start with objective 195

Presolve added 1002 rows and 1002 columns
Presolve time: 1.29s
Presolved: 3006 rows, 252504 columns, 756510 nonzeros
Variable types: 0 continuous, 252504 integer (251502 binary)

Root relaxation: objective 1.670000e+02, 3680 iterations, 0.62 seconds
Total elapsed time = 5.57s

    Nodes    |    Current Node    |     Objective Bounds      |     Work
 Expl Unexpl |  Obj  Depth IntInf | Incumbent    BestBd   Gap | It/Node Time

     0     0  167.00000    0  539  195.00000  167.00000  14.4%     -    9s
H    0     0                     190.0000000  167.00000  12.1%     -   17s
H    0     0                     185.0000000  167.00000  9.73%     -   26s
     0     0  167.00000    0  718  185.00000  167.00000  9.73%     -   28s
H    0     0                     175.0000000  167.00000  4.57%     -   60s

Cutting planes:
  Cover: 14
  Clique: 11
  MIR: 38
  StrongCG: 32
  RLT: 38
  Relax-and-lift: 10

Explored 1 nodes (29049 simplex iterations) in 60.03 seconds
Thread count was 1 (of 40 available processors)

Solution count 4: 175 185 190 195 

Time limit reached
Best objective 1.750000000000e+02, best bound 1.670000000000e+02, gap 4.5714%
0	251502	2004	1	167	175	60.468
