Academic license - for non-commercial use only - expires 2025-02-09
Gurobi Optimizer version 9.1.2 build v9.1.2rc0 (linux64)
Thread count: 20 physical cores, 40 logical processors, using up to 1 threads
Optimize a model with 2004 rows, 251502 columns and 1004505 nonzeros
Model fingerprint: 0x555c578e
Variable types: 0 continuous, 251502 integer (251502 binary)
Coefficient statistics:
  Matrix range     [1e+00, 1e+06]
  Objective range  [1e+00, 1e+00]
  Bounds range     [1e+00, 1e+00]
  RHS range        [1e+00, 1e+00]

Loaded user MIP start with objective 196

Presolve added 1002 rows and 1002 columns
Presolve time: 1.27s
Presolved: 3006 rows, 252504 columns, 756510 nonzeros
Variable types: 0 continuous, 252504 integer (251502 binary)

Root relaxation: objective 1.670000e+02, 4439 iterations, 0.98 seconds
Total elapsed time = 7.96s
Total elapsed time = 11.33s

    Nodes    |    Current Node    |     Objective Bounds      |     Work
 Expl Unexpl |  Obj  Depth IntInf | Incumbent    BestBd   Gap | It/Node Time

     0     0  167.00000    0  557  196.00000  167.00000  14.8%     -   13s
H    0     0                     189.0000000  167.00000  11.6%     -   20s
H    0     0                     184.0000000  167.00000  9.24%     -   34s
     0     0  167.00000    0  767  184.00000  167.00000  9.24%     -   35s
H    0     0                     176.0000000  167.00000  5.11%     -   60s

Cutting planes:
  Cover: 2
  MIR: 16
  StrongCG: 18
  RLT: 113
  Relax-and-lift: 2

Explored 1 nodes (32964 simplex iterations) in 60.05 seconds
Thread count was 1 (of 40 available processors)

Solution count 4: 176 184 189 196 

Time limit reached
Best objective 1.760000000000e+02, best bound 1.670000000000e+02, gap 5.1136%
0	251502	2004	1	167	176	60.485
