Academic license - for non-commercial use only - expires 2025-02-09
Gurobi Optimizer version 9.1.2 build v9.1.2rc0 (linux64)
Thread count: 20 physical cores, 40 logical processors, using up to 1 threads
Optimize a model with 39403 rows, 5011399 columns and 14951957 nonzeros
Model fingerprint: 0x72574d03
Variable types: 0 continuous, 5011399 integer (0 binary)
Coefficient statistics:
  Matrix range     [1e+00, 1e+00]
  Objective range  [1e+00, 1e+00]
  Bounds range     [2e+02, 2e+02]
  RHS range        [1e+00, 1e+00]

Warning: Completing partial solution with 5011118 unfixed non-continuous variables out of 5011399
User MIP start produced solution with objective 82 (7.98s)
Loaded user MIP start with objective 82
Processed MIP start in 8.42 seconds

Presolve removed 952 rows and 201720 columns (presolve time = 5s) ...
Presolve removed 952 rows and 201720 columns (presolve time = 10s) ...
Presolve removed 988 rows and 201756 columns (presolve time = 16s) ...
Presolve removed 998 rows and 201756 columns (presolve time = 20s) ...
Presolve removed 998 rows and 201756 columns (presolve time = 25s) ...
Presolve removed 998 rows and 201756 columns (presolve time = 32s) ...
Presolve removed 998 rows and 201756 columns (presolve time = 42s) ...
Presolve removed 998 rows and 201756 columns
Presolve time: 45.50s

Explored 0 nodes (0 simplex iterations) in 54.28 seconds
Thread count was 1 (of 40 available processors)

Solution count 1: 82 

Time limit reached
Best objective 8.200000000000e+01, best bound -, gap -
0	5011399	39403	0	-1e+100	82	61.43
