Academic license - for non-commercial use only - expires 2025-02-09
Gurobi Optimizer version 9.1.2 build v9.1.2rc0 (linux64)
Thread count: 20 physical cores, 40 logical processors, using up to 1 threads
Optimize a model with 9863 rows, 1042299 columns and 3106767 nonzeros
Model fingerprint: 0xe45861da
Variable types: 0 continuous, 1042299 integer (0 binary)
Coefficient statistics:
  Matrix range     [1e+00, 1e+00]
  Objective range  [1e+00, 1e+00]
  Bounds range     [2e+02, 2e+02]
  RHS range        [1e+00, 1e+00]

Warning: Completing partial solution with 1042025 unfixed non-continuous variables out of 1042299
User MIP start produced solution with objective 82 (1.38s)
Loaded user MIP start with objective 82
Processed MIP start in 1.41 seconds

Presolve removed 93 rows and 20279 columns (presolve time = 5s) ...
Presolve removed 93 rows and 20283 columns
Presolve time: 8.41s
Presolved: 9770 rows, 1022016 columns, 3062641 nonzeros
Variable types: 0 continuous, 1022016 integer (1022016 binary)

Root simplex log...

Iteration    Objective       Primal Inf.    Dual Inf.      Time
       0   -2.1925000e+04   3.353800e+04   0.000000e+00     11s
   10709    1.1386769e-02   2.097000e+03   0.000000e+00     15s
   18661    3.6011332e+01   2.667000e+03   0.000000e+00     20s
   22197    3.7011376e+01   2.302000e+03   0.000000e+00     25s
   25951    4.2011383e+01   5.842500e+02   0.000000e+00     30s
   29635    5.0011376e+01   4.501081e+03   0.000000e+00     35s
   31379    5.2011382e+01   2.588739e+03   0.000000e+00     41s
   34667    6.0011465e+01   1.723207e+03   0.000000e+00     45s
   36140    6.0011492e+01   6.030862e+02   0.000000e+00     50s
   37580    6.0011524e+01   3.197360e+03   0.000000e+00     55s

Root relaxation: time limit, 38508 iterations, 48.70 seconds

    Nodes    |    Current Node    |     Objective Bounds      |     Work
 Expl Unexpl |  Obj  Depth IntInf | Incumbent    BestBd   Gap | It/Node Time

     0     0          -    0        82.00000 -89379.000      -     -   59s

Explored 0 nodes (38508 simplex iterations) in 59.06 seconds
Thread count was 1 (of 40 available processors)

Solution count 1: 82 

Time limit reached
Best objective 8.200000000000e+01, best bound -8.937900000000e+04, gap 109098.7805%
0	1042299	9863	0	-89379	82	60.625
