Academic license - for non-commercial use only - expires 2025-02-09
Gurobi Optimizer version 9.1.2 build v9.1.2rc0 (linux64)
Thread count: 20 physical cores, 40 logical processors, using up to 1 threads
Optimize a model with 36983 rows, 4702756 columns and 14030868 nonzeros
Model fingerprint: 0x04f43322
Variable types: 0 continuous, 4702756 integer (0 binary)
Coefficient statistics:
  Matrix range     [1e+00, 1e+00]
  Objective range  [1e+00, 1e+00]
  Bounds range     [2e+02, 2e+02]
  RHS range        [1e+00, 1e+00]

Warning: Completing partial solution with 4702475 unfixed non-continuous variables out of 4702756
User MIP start produced solution with objective 83 (6.45s)
Loaded user MIP start with objective 83
Processed MIP start in 6.60 seconds

Presolve removed 998 rows and 206001 columns (presolve time = 6s) ...
Presolve removed 998 rows and 206001 columns (presolve time = 10s) ...
Presolve removed 1035 rows and 206038 columns (presolve time = 17s) ...
Presolve removed 1049 rows and 206039 columns (presolve time = 20s) ...
Presolve removed 1049 rows and 206039 columns (presolve time = 25s) ...
Presolve removed 1049 rows and 206039 columns (presolve time = 30s) ...
Presolve removed 1049 rows and 206039 columns (presolve time = 35s) ...
Presolve removed 1049 rows and 206039 columns (presolve time = 42s) ...
Presolve removed 1049 rows and 206039 columns
Presolve time: 48.30s

Explored 0 nodes (0 simplex iterations) in 55.24 seconds
Thread count was 1 (of 40 available processors)

Solution count 1: 83 

Time limit reached
Best objective 8.300000000000e+01, best bound -, gap -
0	4702756	36983	0	-1e+100	83	61.919
