Academic license - for non-commercial use only - expires 2025-02-09
Gurobi Optimizer version 9.1.2 build v9.1.2rc0 (linux64)
Thread count: 20 physical cores, 40 logical processors, using up to 1 threads
Optimize a model with 11368 rows, 1177132 columns and 3508256 nonzeros
Model fingerprint: 0x381ad475
Variable types: 0 continuous, 1177132 integer (0 binary)
Coefficient statistics:
  Matrix range     [1e+00, 1e+00]
  Objective range  [1e+00, 1e+00]
  Bounds range     [2e+02, 2e+02]
  RHS range        [1e+00, 1e+00]

Warning: Completing partial solution with 1176853 unfixed non-continuous variables out of 1177132
User MIP start produced solution with objective 83 (1.59s)
Loaded user MIP start with objective 83
Processed MIP start in 1.62 seconds

Presolve removed 123 rows and 22789 columns (presolve time = 5s) ...
Presolve removed 123 rows and 22796 columns
Presolve time: 9.23s
Presolved: 11245 rows, 1154336 columns, 3456633 nonzeros
Variable types: 0 continuous, 1154336 integer (1154336 binary)

Root simplex log...

Iteration    Objective       Primal Inf.    Dual Inf.      Time
       0   -1.4309000e+04   2.606900e+04   0.000000e+00     13s
    6034    6.0554241e-05   4.951667e+02   0.000000e+00     15s
   11915    2.5048172e-04   2.472000e+03   0.000000e+00     20s
   18380    2.3000299e+01   1.712167e+03   0.000000e+00     25s
   22894    3.2000329e+01   1.516528e+03   0.000000e+00     30s
   25416    3.3000402e+01   2.273266e+03   0.000000e+00     36s
   26373    3.3000422e+01   2.043955e+03   0.000000e+00     40s
   27152    3.3000440e+01   3.696364e+03   0.000000e+00     46s
   29000    3.8000401e+01   1.470186e+03   0.000000e+00     50s
   30530    4.3000394e+01   1.611243e+03   0.000000e+00     55s

Root relaxation: time limit, 31529 iterations, 47.66 seconds

    Nodes    |    Current Node    |     Objective Bounds      |     Work
 Expl Unexpl |  Obj  Depth IntInf | Incumbent    BestBd   Gap | It/Node Time

     0     0          -    0        83.00000 -89547.000      -     -   59s

Explored 0 nodes (31529 simplex iterations) in 59.07 seconds
Thread count was 1 (of 40 available processors)

Solution count 1: 83 

Time limit reached
Best objective 8.300000000000e+01, best bound -8.954700000000e+04, gap 107987.9518%
0	1177132	11368	0	-89547	83	60.826
