Academic license - for non-commercial use only - expires 2025-02-09
Gurobi Optimizer version 9.1.2 build v9.1.2rc0 (linux64)
Thread count: 20 physical cores, 40 logical processors, using up to 1 threads
Optimize a model with 42463 rows, 5175978 columns and 15439574 nonzeros
Model fingerprint: 0x30b00733
Variable types: 0 continuous, 5175978 integer (0 binary)
Coefficient statistics:
  Matrix range     [1e+00, 1e+00]
  Objective range  [1e+00, 1e+00]
  Bounds range     [2e+02, 2e+02]
  RHS range        [1e+00, 1e+00]

Warning: Completing partial solution with 5175697 unfixed non-continuous variables out of 5175978
User MIP start produced solution with objective 83 (7.18s)
Loaded user MIP start with objective 83
Processed MIP start in 7.33 seconds

Presolve removed 1117 rows and 219832 columns (presolve time = 6s) ...
Presolve removed 1117 rows and 219832 columns (presolve time = 13s) ...
Presolve removed 1117 rows and 219832 columns (presolve time = 15s) ...
Presolve removed 1149 rows and 219864 columns (presolve time = 21s) ...
Presolve removed 1159 rows and 219864 columns (presolve time = 25s) ...
Presolve removed 1159 rows and 219864 columns (presolve time = 30s) ...
Presolve removed 1159 rows and 219864 columns (presolve time = 35s) ...
Presolve removed 1159 rows and 219864 columns (presolve time = 40s) ...
Presolve removed 1159 rows and 219864 columns
Presolve time: 46.55s

Explored 0 nodes (0 simplex iterations) in 54.64 seconds
Thread count was 1 (of 40 available processors)

Solution count 1: 83 

Time limit reached
Best objective 8.300000000000e+01, best bound -, gap -
0	5175978	42463	0	-1e+100	83	62.028
