Academic license - for non-commercial use only - expires 2025-02-09
Gurobi Optimizer version 9.1.2 build v9.1.2rc0 (linux64)
Thread count: 20 physical cores, 40 logical processors, using up to 1 threads
Optimize a model with 43383 rows, 5460302 columns and 16290706 nonzeros
Model fingerprint: 0x6715bb12
Variable types: 0 continuous, 5460302 integer (0 binary)
Coefficient statistics:
  Matrix range     [1e+00, 1e+00]
  Objective range  [1e+00, 1e+00]
  Bounds range     [2e+02, 2e+02]
  RHS range        [1e+00, 1e+00]

Warning: Completing partial solution with 5460018 unfixed non-continuous variables out of 5460302
User MIP start produced solution with objective 82 (7.61s)
Loaded user MIP start with objective 82
Processed MIP start in 7.76 seconds

Presolve removed 985 rows and 213515 columns (presolve time = 5s) ...
Presolve removed 985 rows and 213515 columns (presolve time = 11s) ...
Presolve removed 985 rows and 213515 columns (presolve time = 15s) ...
Presolve removed 1017 rows and 213547 columns (presolve time = 20s) ...
Presolve removed 1020 rows and 213547 columns (presolve time = 25s) ...
Presolve removed 1020 rows and 213547 columns (presolve time = 30s) ...
Presolve removed 1020 rows and 213547 columns (presolve time = 37s) ...
Presolve removed 1020 rows and 213547 columns (presolve time = 40s) ...
Presolve removed 1020 rows and 213547 columns
Presolve time: 46.15s

Explored 0 nodes (0 simplex iterations) in 54.32 seconds
Thread count was 1 (of 40 available processors)

Solution count 1: 82 

Time limit reached
Best objective 8.200000000000e+01, best bound -, gap -
0	5460302	43383	0	-1e+100	82	62.067
