Academic license - for non-commercial use only - expires 2025-02-09
Gurobi Optimizer version 9.1.2 build v9.1.2rc0 (linux64)
Thread count: 20 physical cores, 40 logical processors, using up to 1 threads
Optimize a model with 46643 rows, 5918650 columns and 17659230 nonzeros
Model fingerprint: 0x5bbcb4db
Variable types: 0 continuous, 5918650 integer (0 binary)
Coefficient statistics:
  Matrix range     [1e+00, 1e+00]
  Objective range  [1e+00, 1e+00]
  Bounds range     [2e+02, 2e+02]
  RHS range        [1e+00, 1e+00]

Warning: Completing partial solution with 5918370 unfixed non-continuous variables out of 5918650
User MIP start produced solution with objective 82 (8.27s)
Loaded user MIP start with objective 82
Processed MIP start in 8.43 seconds

Presolve removed 1271 rows and 267598 columns (presolve time = 6s) ...
Presolve removed 1271 rows and 267598 columns (presolve time = 12s) ...
Presolve removed 1271 rows and 267598 columns (presolve time = 15s) ...
Presolve removed 1301 rows and 267628 columns (presolve time = 21s) ...
Presolve removed 1301 rows and 267628 columns (presolve time = 25s) ...
Presolve removed 1301 rows and 267628 columns (presolve time = 31s) ...
Presolve removed 1301 rows and 267628 columns (presolve time = 35s) ...
Presolve removed 1301 rows and 267628 columns (presolve time = 41s) ...
Presolve removed 1301 rows and 267628 columns
Presolve time: 45.11s

Explored 0 nodes (0 simplex iterations) in 53.97 seconds
Thread count was 1 (of 40 available processors)

Solution count 1: 82 

Time limit reached
Best objective 8.200000000000e+01, best bound -, gap -
0	5918650	46643	0	-1e+100	82	62.359
