Academic license - for non-commercial use only - expires 2025-02-09
Gurobi Optimizer version 9.1.2 build v9.1.2rc0 (linux64)
Thread count: 20 physical cores, 40 logical processors, using up to 1 threads
Optimize a model with 46543 rows, 5899550 columns and 17602130 nonzeros
Model fingerprint: 0x3c3debf4
Variable types: 0 continuous, 5899550 integer (0 binary)
Coefficient statistics:
  Matrix range     [1e+00, 1e+00]
  Objective range  [1e+00, 1e+00]
  Bounds range     [2e+02, 2e+02]
  RHS range        [1e+00, 1e+00]

Warning: Completing partial solution with 5899268 unfixed non-continuous variables out of 5899550
User MIP start produced solution with objective 82 (8.19s)
Loaded user MIP start with objective 82
Processed MIP start in 8.36 seconds

Presolve removed 892 rows and 205733 columns (presolve time = 5s) ...
Presolve removed 892 rows and 205733 columns (presolve time = 12s) ...
Presolve removed 892 rows and 205733 columns (presolve time = 15s) ...
Presolve removed 922 rows and 205763 columns (presolve time = 22s) ...
Presolve removed 922 rows and 205763 columns (presolve time = 26s) ...
Presolve removed 922 rows and 205763 columns (presolve time = 32s) ...
Presolve removed 922 rows and 205763 columns (presolve time = 35s) ...
Presolve removed 922 rows and 205763 columns (presolve time = 43s) ...
Presolve removed 922 rows and 205763 columns
Presolve time: 44.50s

Explored 0 nodes (0 simplex iterations) in 53.30 seconds
Thread count was 1 (of 40 available processors)

Solution count 1: 82 

Time limit reached
Best objective 8.200000000000e+01, best bound -, gap -
0	5899550	46543	0	-1e+100	82	61.749
