Academic license - for non-commercial use only - expires 2025-02-09
Gurobi Optimizer version 9.1.2 build v9.1.2rc0 (linux64)
Thread count: 20 physical cores, 40 logical processors, using up to 1 threads
Optimize a model with 38083 rows, 4840789 columns and 14442767 nonzeros
Model fingerprint: 0xf9da7725
Variable types: 0 continuous, 4840789 integer (0 binary)
Coefficient statistics:
  Matrix range     [1e+00, 1e+00]
  Objective range  [1e+00, 1e+00]
  Bounds range     [2e+02, 2e+02]
  RHS range        [1e+00, 1e+00]

Warning: Completing partial solution with 4840508 unfixed non-continuous variables out of 4840789
User MIP start produced solution with objective 82 (6.67s)
Loaded user MIP start with objective 82
Processed MIP start in 6.81 seconds

Presolve removed 885 rows and 182805 columns (presolve time = 6s) ...
Presolve removed 885 rows and 182805 columns (presolve time = 10s) ...
Presolve removed 885 rows and 182805 columns (presolve time = 15s) ...
Presolve removed 921 rows and 182841 columns (presolve time = 20s) ...
Presolve removed 928 rows and 182841 columns (presolve time = 27s) ...
Presolve removed 928 rows and 182841 columns (presolve time = 30s) ...
Presolve removed 928 rows and 182841 columns (presolve time = 36s) ...
Presolve removed 928 rows and 182841 columns (presolve time = 45s) ...
Presolve removed 928 rows and 182841 columns
Presolve time: 48.09s

Explored 0 nodes (0 simplex iterations) in 55.25 seconds
Thread count was 1 (of 40 available processors)

Solution count 1: 82 

Time limit reached
Best objective 8.200000000000e+01, best bound -, gap -
0	4840789	38083	0	-1e+100	82	62.113
