Academic license - for non-commercial use only - expires 2025-02-09
Gurobi Optimizer version 9.1.2 build v9.1.2rc0 (linux64)
Thread count: 20 physical cores, 40 logical processors, using up to 1 threads
Optimize a model with 45783 rows, 5797197 columns and 17296591 nonzeros
Model fingerprint: 0xa0607074
Variable types: 0 continuous, 5797197 integer (0 binary)
Coefficient statistics:
  Matrix range     [1e+00, 1e+00]
  Objective range  [1e+00, 1e+00]
  Bounds range     [2e+02, 2e+02]
  RHS range        [1e+00, 1e+00]

Warning: Completing partial solution with 5796914 unfixed non-continuous variables out of 5797197
User MIP start produced solution with objective 83 (8.05s)
Loaded user MIP start with objective 83
Processed MIP start in 8.22 seconds

Presolve removed 1436 rows and 304967 columns (presolve time = 5s) ...
Presolve removed 1436 rows and 304967 columns (presolve time = 11s) ...
Presolve removed 1436 rows and 304967 columns (presolve time = 15s) ...
Presolve removed 1468 rows and 304999 columns (presolve time = 20s) ...
Presolve removed 1474 rows and 304999 columns (presolve time = 25s) ...
Presolve removed 1474 rows and 304999 columns (presolve time = 30s) ...
Presolve removed 1474 rows and 304999 columns (presolve time = 35s) ...
Presolve removed 1474 rows and 304999 columns (presolve time = 40s) ...
Presolve removed 1474 rows and 304999 columns
Presolve time: 44.70s

Explored 0 nodes (0 simplex iterations) in 53.33 seconds
Thread count was 1 (of 40 available processors)

Solution count 1: 83 

Time limit reached
Best objective 8.300000000000e+01, best bound -, gap -
0	5797197	45783	0	-1e+100	83	61.538
