Academic license - for non-commercial use only - expires 2025-02-09
Gurobi Optimizer version 9.1.2 build v9.1.2rc0 (linux64)
Thread count: 20 physical cores, 40 logical processors, using up to 1 threads
Optimize a model with 37704 rows, 7841808 columns and 23449210 nonzeros
Model fingerprint: 0x3bed6f63
Variable types: 0 continuous, 7841808 integer (0 binary)
Coefficient statistics:
  Matrix range     [1e+00, 1e+00]
  Objective range  [1e+00, 1e+00]
  Bounds range     [4e+02, 4e+02]
  RHS range        [1e+00, 1e+00]

Warning: Completing partial solution with 7841261 unfixed non-continuous variables out of 7841808
User MIP start produced solution with objective 165 (11.42s)
Loaded user MIP start with objective 165
Processed MIP start in 11.60 seconds

Presolve removed 0 rows and 462 columns (presolve time = 6s) ...
Presolve removed 447 rows and 110037 columns (presolve time = 10s) ...
Presolve removed 451 rows and 111296 columns (presolve time = 18s) ...
Presolve removed 451 rows and 111296 columns (presolve time = 20s) ...
Presolve removed 487 rows and 111332 columns (presolve time = 27s) ...
Presolve removed 487 rows and 111332 columns (presolve time = 30s) ...
Presolve removed 487 rows and 111332 columns (presolve time = 35s) ...
Presolve removed 487 rows and 111332 columns
Presolve time: 37.24s

Explored 0 nodes (0 simplex iterations) in 49.44 seconds
Thread count was 1 (of 40 available processors)

Solution count 1: 165 

Time limit reached
Best objective 1.650000000000e+02, best bound -, gap -
0	7841808	37704	0	-1e+100	165	62.147
