Academic license - for non-commercial use only - expires 2025-02-09
Gurobi Optimizer version 9.1.2 build v9.1.2rc0 (linux64)
Thread count: 20 physical cores, 40 logical processors, using up to 1 threads
Optimize a model with 25644 rows, 5317756 columns and 15901174 nonzeros
Model fingerprint: 0x720de4c8
Variable types: 0 continuous, 5317756 integer (0 binary)
Coefficient statistics:
  Matrix range     [1e+00, 1e+00]
  Objective range  [1e+00, 1e+00]
  Bounds range     [4e+02, 4e+02]
  RHS range        [1e+00, 1e+00]

Warning: Completing partial solution with 5317208 unfixed non-continuous variables out of 5317756
User MIP start produced solution with objective 166 (8.02s)
Loaded user MIP start with objective 166
Processed MIP start in 8.18 seconds

Presolve removed 211 rows and 67913 columns (presolve time = 6s) ...
Presolve removed 212 rows and 68228 columns (presolve time = 12s) ...
Presolve removed 236 rows and 68252 columns (presolve time = 18s) ...
Presolve removed 236 rows and 68252 columns (presolve time = 20s) ...
Presolve removed 236 rows and 68252 columns (presolve time = 25s) ...
Presolve removed 236 rows and 68252 columns (presolve time = 30s) ...
Presolve removed 236 rows and 68252 columns (presolve time = 35s) ...
Presolve removed 236 rows and 68252 columns
Presolve time: 43.64s

Explored 0 nodes (0 simplex iterations) in 52.27 seconds
Thread count was 1 (of 40 available processors)

Solution count 1: 166 

Time limit reached
Best objective 1.660000000000e+02, best bound -, gap -
0	5317756	25644	0	-1e+100	166	61.429
