Academic license - for non-commercial use only - expires 2025-02-09
Gurobi Optimizer version 9.1.2 build v9.1.2rc0 (linux64)
Thread count: 20 physical cores, 40 logical processors, using up to 1 threads
Optimize a model with 39179 rows, 8182755 columns and 24469101 nonzeros
Model fingerprint: 0x034a6342
Variable types: 0 continuous, 8182755 integer (0 binary)
Coefficient statistics:
  Matrix range     [1e+00, 1e+00]
  Objective range  [1e+00, 1e+00]
  Bounds range     [4e+02, 4e+02]
  RHS range        [1e+00, 1e+00]

Warning: Completing partial solution with 8182200 unfixed non-continuous variables out of 8182755
User MIP start produced solution with objective 168 (14.26s)
Loaded user MIP start with objective 168
Processed MIP start in 15.00 seconds

Presolve removed 0 rows and 184 columns (presolve time = 6s) ...
Presolve removed 177 rows and 81048 columns (presolve time = 10s) ...
Presolve removed 177 rows and 81048 columns (presolve time = 18s) ...
Presolve removed 177 rows and 81048 columns (presolve time = 20s) ...
Presolve removed 191 rows and 81062 columns (presolve time = 28s) ...
Presolve removed 191 rows and 81062 columns (presolve time = 30s) ...
Presolve removed 191 rows and 81063 columns
Presolve time: 33.82s

Explored 0 nodes (0 simplex iterations) in 49.42 seconds
Thread count was 1 (of 40 available processors)

Solution count 1: 168 

Time limit reached
Best objective 1.680000000000e+02, best bound -, gap -
0	8182755	39179	0	-1e+100	168	62.36
