Academic license - for non-commercial use only - expires 2025-02-09
Gurobi Optimizer version 9.1.2 build v9.1.2rc0 (linux64)
Thread count: 20 physical cores, 40 logical processors, using up to 1 threads
Optimize a model with 36799 rows, 7708483 columns and 23051045 nonzeros
Model fingerprint: 0x11df02f9
Variable types: 0 continuous, 7708483 integer (0 binary)
Coefficient statistics:
  Matrix range     [1e+00, 1e+00]
  Objective range  [1e+00, 1e+00]
  Bounds range     [4e+02, 4e+02]
  RHS range        [1e+00, 1e+00]

Warning: Completing partial solution with 7707936 unfixed non-continuous variables out of 7708483
User MIP start produced solution with objective 165 (13.82s)
Loaded user MIP start with objective 165
Processed MIP start in 14.51 seconds

Presolve removed 0 rows and 247 columns (presolve time = 6s) ...
Presolve removed 234 rows and 87601 columns (presolve time = 11s) ...
Presolve removed 234 rows and 87601 columns (presolve time = 17s) ...
Presolve removed 234 rows and 87601 columns (presolve time = 20s) ...
Presolve removed 249 rows and 87616 columns (presolve time = 26s) ...
Presolve removed 249 rows and 87616 columns (presolve time = 31s) ...
Presolve removed 249 rows and 87616 columns (presolve time = 35s) ...
Presolve removed 249 rows and 87616 columns
Presolve time: 38.08s

Explored 0 nodes (0 simplex iterations) in 53.16 seconds
Thread count was 1 (of 40 available processors)

Solution count 1: 165 

Time limit reached
Best objective 1.650000000000e+02, best bound -, gap -
0	7708483	36799	0	-1e+100	165	65.489
