Academic license - for non-commercial use only - expires 2025-02-09
Gurobi Optimizer version 9.1.2 build v9.1.2rc0 (linux64)
Thread count: 20 physical cores, 40 logical processors, using up to 1 threads
Optimize a model with 148184 rows, 37108029 columns and 111020868 nonzeros
Model fingerprint: 0x7951d4df
Variable types: 0 continuous, 37108029 integer (0 binary)
Coefficient statistics:
  Matrix range     [1e+00, 1e+00]
  Objective range  [1e+00, 1e+00]
  Bounds range     [4e+02, 4e+02]
  RHS range        [1e+00, 1e+00]

Warning: Completing partial solution with 37107469 unfixed non-continuous variables out of 37108029
