Academic license - for non-commercial use only - expires 2025-02-09
Gurobi Optimizer version 9.1.2 build v9.1.2rc0 (linux64)
Thread count: 20 physical cores, 40 logical processors, using up to 1 threads
Optimize a model with 38044 rows, 7918048 columns and 23677250 nonzeros
Model fingerprint: 0x53b3049e
Variable types: 0 continuous, 7918048 integer (0 binary)
Coefficient statistics:
  Matrix range     [1e+00, 1e+00]
  Objective range  [1e+00, 1e+00]
  Bounds range     [4e+02, 4e+02]
  RHS range        [1e+00, 1e+00]

Warning: Completing partial solution with 7917503 unfixed non-continuous variables out of 7918048
User MIP start produced solution with objective 166 (14.74s)
Loaded user MIP start with objective 166
Processed MIP start in 15.49 seconds

Presolve removed 0 rows and 249 columns (presolve time = 6s) ...
Presolve removed 252 rows and 93537 columns (presolve time = 10s) ...
Presolve removed 253 rows and 93830 columns (presolve time = 18s) ...
Presolve removed 253 rows and 93830 columns (presolve time = 20s) ...
Presolve removed 266 rows and 93843 columns (presolve time = 28s) ...
Presolve removed 266 rows and 93843 columns (presolve time = 30s) ...
Presolve removed 266 rows and 93843 columns
Presolve time: 33.32s

Explored 0 nodes (0 simplex iterations) in 49.45 seconds
Thread count was 1 (of 40 available processors)

Solution count 1: 166 

Time limit reached
Best objective 1.660000000000e+02, best bound -, gap -
0	7918048	38044	0	-1e+100	166	62.485
