Academic license - for non-commercial use only - expires 2025-02-09
Gurobi Optimizer version 9.1.2 build v9.1.2rc0 (linux64)
Thread count: 20 physical cores, 40 logical processors, using up to 1 threads
Optimize a model with 72072 rows, 22325608 columns and 66831478 nonzeros
Model fingerprint: 0xd5cd8bd2
Variable types: 0 continuous, 22325608 integer (0 binary)
Coefficient statistics:
  Matrix range     [1e+00, 1e+00]
  Objective range  [1e+00, 1e+00]
  Bounds range     [6e+02, 6e+02]
  RHS range        [1e+00, 1e+00]

Warning: Completing partial solution with 22324790 unfixed non-continuous variables out of 22325608
User MIP start produced solution with objective 247 (44.35s)
Loaded user MIP start with objective 247
Processed MIP start in 45.68 seconds

Presolve removed 0 rows and 0 columns (presolve time = 9s) ...
Presolve time: 8.88s

Explored 0 nodes (0 simplex iterations) in 56.47 seconds
Thread count was 1 (of 40 available processors)

Solution count 1: 247 

Time limit reached
Best objective 2.470000000000e+02, best bound -, gap -
0	22325608	72072	0	-1e+100	247	95.359
