Academic license - for non-commercial use only - expires 2025-02-09
Gurobi Optimizer version 9.1.2 build v9.1.2rc0 (linux64)
Thread count: 20 physical cores, 40 logical processors, using up to 1 threads
Optimize a model with 1414 rows, 41006 columns and 285830 nonzeros
Model fingerprint: 0x6dbcbac7
Variable types: 0 continuous, 41006 integer (41006 binary)
Coefficient statistics:
  Matrix range     [1e+00, 2e+03]
  Objective range  [1e+00, 1e+00]
  Bounds range     [1e+00, 1e+00]
  RHS range        [1e+00, 1e+00]

Loaded user MIP start with objective 70

Presolve time: 0.24s
Presolved: 1414 rows, 41006 columns, 285830 nonzeros
Variable types: 0 continuous, 41006 integer (41006 binary)

Root relaxation: objective 6.500000e+01, 1415 iterations, 0.10 seconds

    Nodes    |    Current Node    |     Objective Bounds      |     Work
 Expl Unexpl |  Obj  Depth IntInf | Incumbent    BestBd   Gap | It/Node Time

     0     0   65.00000    0  100   70.00000   65.00000  7.14%     -    0s
H    0     0                      68.0000000   65.00000  4.41%     -    1s
     0     0   65.00000    0  188   68.00000   65.00000  4.41%     -    1s
H    0     0                      66.0000000   65.00000  1.52%     -    2s
     0     0   65.00000    0  182   66.00000   65.00000  1.52%     -    2s
     0     0   65.00000    0   92   66.00000   65.00000  1.52%     -    3s
     0     0   65.00000    0  119   66.00000   65.00000  1.52%     -    3s
     0     0   65.00000    0   91   66.00000   65.00000  1.52%     -    4s
     0     0   65.00000    0   89   66.00000   65.00000  1.52%     -    5s
     0     2   65.00000    0   83   66.00000   65.00000  1.52%     -    8s
     4     4   65.00000    1   95   66.00000   65.00000  1.52%   580   10s
     5     5   65.00000    1  104   66.00000   65.00000  1.52%   464   15s
    10     8   65.00000    1  161   66.00000   65.00000  1.52%   232   20s
    13    10   65.00000    1  101   66.00000   65.00000  1.52%   178   26s
    15    12   65.00000    1  119   66.00000   65.00000  1.52%   155   30s
    18    16   65.00000   11  116   66.00000   65.00000  1.52%  2284   45s
    21    16   65.00000   12  112   66.00000   65.00000  1.52%  1969   59s

Cutting planes:
  Gomory: 15
  Cover: 182
  Clique: 70
  MIR: 4
  StrongCG: 11
  Flow cover: 24
  Zero half: 17
  RLT: 70

Explored 22 nodes (63089 simplex iterations) in 60.01 seconds
Thread count was 1 (of 40 available processors)

Solution count 3: 66 68 70 

Time limit reached
Best objective 6.600000000000e+01, best bound 6.500000000000e+01, gap 1.5152%
0	41006	1414	22	65	66	60.14
