Academic license - for non-commercial use only - expires 2025-02-09
Gurobi Optimizer version 9.1.2 build v9.1.2rc0 (linux64)
Thread count: 20 physical cores, 40 logical processors, using up to 1 threads
Optimize a model with 1414 rows, 41006 columns and 285830 nonzeros
Model fingerprint: 0xa8f268a9
Variable types: 0 continuous, 41006 integer (41006 binary)
Coefficient statistics:
  Matrix range     [1e+00, 2e+03]
  Objective range  [1e+00, 1e+00]
  Bounds range     [1e+00, 1e+00]
  RHS range        [1e+00, 1e+00]

Loaded user MIP start with objective 70

Presolve time: 0.23s
Presolved: 1414 rows, 41006 columns, 285830 nonzeros
Variable types: 0 continuous, 41006 integer (41006 binary)

Root relaxation: objective 6.500000e+01, 1418 iterations, 0.12 seconds

    Nodes    |    Current Node    |     Objective Bounds      |     Work
 Expl Unexpl |  Obj  Depth IntInf | Incumbent    BestBd   Gap | It/Node Time

     0     0   65.00000    0   92   70.00000   65.00000  7.14%     -    0s
     0     0   65.00000    0  223   70.00000   65.00000  7.14%     -    2s
H    0     0                      67.0000000   65.00000  2.99%     -    4s
     0     0   65.00000    0  198   67.00000   65.00000  2.99%     -    4s
     0     0   65.00000    0  128   67.00000   65.00000  2.99%     -    5s
     0     0   65.00000    0  162   67.00000   65.00000  2.99%     -    5s
     0     0   65.00000    0  117   67.00000   65.00000  2.99%     -    6s
     0     0   65.00000    0  103   67.00000   65.00000  2.99%     -    7s
     0     2   65.00000    0  103   67.00000   65.00000  2.99%     -   11s
    27    27   65.00000   17  125   67.00000   65.00000  2.99%   412   15s
   157   157   65.00000  108  106   67.00000   65.00000  2.99%   140   21s
   160   160   65.00000  110  108   67.00000   65.00000  2.99%   138   25s
   300   300   65.00000  209  119   67.00000   65.00000  2.99%  86.6   30s
   383   355   65.00000  264  106   67.00000   65.00000  2.99%  71.6   35s
   511   428   65.00000   25  103   67.00000   65.00000  2.99%  60.8   40s
   514   430   65.00000   27  107   67.00000   65.00000  2.99%  60.4   49s
   515   431   65.00000   84  208   67.00000   65.00000  2.99%  60.3   50s
   519   433   65.00000  256  162   67.00000   65.00000  2.99%  59.9   55s

Cutting planes:
  Gomory: 33
  Cover: 190
  Clique: 64
  MIR: 80
  StrongCG: 105
  Flow cover: 92
  Zero half: 19
  RLT: 3

Explored 522 nodes (87001 simplex iterations) in 60.57 seconds
Thread count was 1 (of 40 available processors)

Solution count 2: 67 70 

Time limit reached
Best objective 6.700000000000e+01, best bound 6.500000000000e+01, gap 2.9851%
0	41006	1414	522	65	67	60.708
