Academic license - for non-commercial use only - expires 2025-02-09
Gurobi Optimizer version 9.1.2 build v9.1.2rc0 (linux64)
Thread count: 20 physical cores, 40 logical processors, using up to 1 threads
Optimize a model with 1414 rows, 41006 columns and 285830 nonzeros
Model fingerprint: 0x45cf130e
Variable types: 0 continuous, 41006 integer (41006 binary)
Coefficient statistics:
  Matrix range     [1e+00, 2e+03]
  Objective range  [1e+00, 1e+00]
  Bounds range     [1e+00, 1e+00]
  RHS range        [1e+00, 1e+00]

Loaded user MIP start with objective 68

Presolve time: 0.23s
Presolved: 1414 rows, 41006 columns, 285830 nonzeros
Variable types: 0 continuous, 41006 integer (41006 binary)

Root relaxation: objective 6.500000e+01, 1330 iterations, 0.10 seconds

    Nodes    |    Current Node    |     Objective Bounds      |     Work
 Expl Unexpl |  Obj  Depth IntInf | Incumbent    BestBd   Gap | It/Node Time

     0     0   65.00000    0  101   68.00000   65.00000  4.41%     -    0s
     0     0   65.00000    0  198   68.00000   65.00000  4.41%     -    1s
H    0     0                      67.0000000   65.00000  2.99%     -    3s
     0     0   65.00000    0  190   67.00000   65.00000  2.99%     -    3s
     0     0   65.00000    0  138   67.00000   65.00000  2.99%     -    4s
     0     0   65.00000    0  116   67.00000   65.00000  2.99%     -    4s
     0     2   65.00000    0   99   67.00000   65.00000  2.99%     -    8s
     9     1 infeasible    5        67.00000   65.00000  2.99%   526   10s
    23     3   65.00000   12  102   67.00000   65.00000  2.99%   398   15s
H   26     4                      66.0000000   65.00000  1.52%   353   17s
    31     9   65.00000   14  116   66.00000   65.00000  1.52%   296   22s
    33    10   65.00000   15  128   66.00000   65.00000  1.52%   278   25s
    36    12   65.00000   14  175   66.00000   65.00000  1.52%   255   30s
    41    16   65.00000   15  112   66.00000   65.00000  1.52%   224   37s
    43    17   65.00000   15  107   66.00000   65.00000  1.52%   214   40s
    44    20   65.00000   16  118   66.00000   65.00000  1.52%   919   50s
    51    21   65.00000   19  126   66.00000   65.00000  1.52%   795   55s

Cutting planes:
  Gomory: 5
  Cover: 170
  Clique: 69
  MIR: 24
  StrongCG: 17
  Flow cover: 22
  Zero half: 15
  RLT: 79

Explored 57 nodes (64476 simplex iterations) in 60.02 seconds
Thread count was 1 (of 40 available processors)

Solution count 3: 66 67 68 

Time limit reached
Best objective 6.600000000000e+01, best bound 6.500000000000e+01, gap 1.5152%
0	41006	1414	57	65	66	60.154
