Academic license - for non-commercial use only - expires 2025-02-09
Gurobi Optimizer version 9.1.2 build v9.1.2rc0 (linux64)
Thread count: 20 physical cores, 40 logical processors, using up to 1 threads
Optimize a model with 1414 rows, 41006 columns and 285830 nonzeros
Model fingerprint: 0x2e53e9cc
Variable types: 0 continuous, 41006 integer (41006 binary)
Coefficient statistics:
  Matrix range     [1e+00, 2e+03]
  Objective range  [1e+00, 1e+00]
  Bounds range     [1e+00, 1e+00]
  RHS range        [1e+00, 1e+00]

Loaded user MIP start with objective 69

Presolve time: 0.23s
Presolved: 1414 rows, 41006 columns, 285830 nonzeros
Variable types: 0 continuous, 41006 integer (41006 binary)

Root relaxation: objective 6.500000e+01, 1257 iterations, 0.09 seconds

    Nodes    |    Current Node    |     Objective Bounds      |     Work
 Expl Unexpl |  Obj  Depth IntInf | Incumbent    BestBd   Gap | It/Node Time

     0     0   65.00000    0   90   69.00000   65.00000  5.80%     -    1s
H    0     0                      68.0000000   65.00000  4.41%     -    1s
     0     0   65.00000    0  190   68.00000   65.00000  4.41%     -    1s
H    0     0                      67.0000000   65.00000  2.99%     -    3s
     0     0   65.00000    0  182   67.00000   65.00000  2.99%     -    3s
     0     0   65.00000    0  105   67.00000   65.00000  2.99%     -    4s
     0     0   65.00000    0  105   67.00000   65.00000  2.99%     -    5s
     0     2   65.00000    0  108   67.00000   65.00000  2.99%     -   12s
    15     9   65.00000   10  107   67.00000   65.00000  2.99%   127   15s
    25    11 infeasible   15        67.00000   65.00000  2.99%  86.3   20s
    30    12   65.00000   18  113   67.00000   65.00000  2.99%  73.1   25s
    39    13   65.00000   23  114   67.00000   65.00000  2.99%  63.4   30s
    51    17 infeasible   30        67.00000   65.00000  2.99%  88.5   35s
H   55    17                      66.0000000   65.00000  1.52%  82.3   40s
    60    22   65.00000   30  110   66.00000   65.00000  1.52%  75.6   49s
    61    23   65.00000    9  172   66.00000   65.00000  1.52%  74.3   50s
    66    26   65.00000   34  103   66.00000   65.00000  1.52%  68.7   55s

Cutting planes:
  Gomory: 37
  Cover: 173
  Clique: 57
  MIR: 24
  StrongCG: 21
  Flow cover: 16
  Zero half: 8
  RLT: 113

Explored 71 nodes (71034 simplex iterations) in 60.00 seconds
Thread count was 1 (of 40 available processors)

Solution count 4: 66 67 68 69 

Time limit reached
Best objective 6.600000000000e+01, best bound 6.500000000000e+01, gap 1.5152%
0	41006	1414	71	65	66	60.136
