Academic license - for non-commercial use only - expires 2025-02-09
Gurobi Optimizer version 9.1.2 build v9.1.2rc0 (linux64)
Thread count: 20 physical cores, 40 logical processors, using up to 1 threads
Optimize a model with 1414 rows, 41006 columns and 285830 nonzeros
Model fingerprint: 0x4004550a
Variable types: 0 continuous, 41006 integer (41006 binary)
Coefficient statistics:
  Matrix range     [1e+00, 2e+03]
  Objective range  [1e+00, 1e+00]
  Bounds range     [1e+00, 1e+00]
  RHS range        [1e+00, 1e+00]

Loaded user MIP start with objective 68

Presolve time: 0.24s
Presolved: 1414 rows, 41006 columns, 285830 nonzeros
Variable types: 0 continuous, 41006 integer (41006 binary)

Root relaxation: objective 6.500000e+01, 1365 iterations, 0.10 seconds

    Nodes    |    Current Node    |     Objective Bounds      |     Work
 Expl Unexpl |  Obj  Depth IntInf | Incumbent    BestBd   Gap | It/Node Time

     0     0   65.00000    0   96   68.00000   65.00000  4.41%     -    0s
     0     0   65.00000    0  202   68.00000   65.00000  4.41%     -    1s
H    0     0                      67.0000000   65.00000  2.99%     -    2s
     0     0   65.00000    0  179   67.00000   65.00000  2.99%     -    2s
     0     0   65.00000    0  146   67.00000   65.00000  2.99%     -    3s
     0     0   65.00000    0  163   67.00000   65.00000  2.99%     -    4s
     0     0   65.00000    0  108   67.00000   65.00000  2.99%     -    5s
     0     0   65.00000    0  108   67.00000   65.00000  2.99%     -    5s
     0     2   65.00000    0   99   67.00000   65.00000  2.99%     -    8s
    27    29   65.00000   19  100   67.00000   65.00000  2.99%   213   13s
    80    82   65.00000   55  114   67.00000   65.00000  2.99%   126   15s
   246   248   65.00000  168  117   67.00000   65.00000  2.99%  77.3   20s
H  271   264                      66.0000000   65.00000  1.52%  72.3   23s
   275   264   65.00000  143   92   66.00000   65.00000  1.52%  71.4   26s
   276   265   65.00000   98  110   66.00000   65.00000  1.52%  71.1   31s
   280   268   65.00000  135  129   66.00000   65.00000  1.52%  70.1   36s
   284   270   65.00000   62  118   66.00000   65.00000  1.52%  69.1   40s
   288   273   65.00000   96  124   66.00000   65.00000  1.52%  68.1   46s
   290   274   65.00000  103  114   66.00000   65.00000  1.52%  67.7   52s
   293   278   65.00000   11  107   66.00000   65.00000  1.52%   199   55s
   315   291   65.00000   21  114   66.00000   65.00000  1.52%   187   60s

Cutting planes:
  Gomory: 16
  Cover: 77
  Clique: 28
  MIR: 3
  StrongCG: 8
  Flow cover: 18
  Zero half: 4
  RLT: 55

Explored 316 nodes (98500 simplex iterations) in 60.01 seconds
Thread count was 1 (of 40 available processors)

Solution count 3: 66 67 68 

Time limit reached
Best objective 6.600000000000e+01, best bound 6.500000000000e+01, gap 1.5152%
0	41006	1414	316	65	66	60.14
