Academic license - for non-commercial use only - expires 2025-02-09
Gurobi Optimizer version 9.1.2 build v9.1.2rc0 (linux64)
Thread count: 20 physical cores, 40 logical processors, using up to 1 threads
Optimize a model with 1414 rows, 41006 columns and 285830 nonzeros
Model fingerprint: 0x8d2f36ae
Variable types: 0 continuous, 41006 integer (41006 binary)
Coefficient statistics:
  Matrix range     [1e+00, 2e+03]
  Objective range  [1e+00, 1e+00]
  Bounds range     [1e+00, 1e+00]
  RHS range        [1e+00, 1e+00]

Loaded user MIP start with objective 72

Presolve time: 0.23s
Presolved: 1414 rows, 41006 columns, 285830 nonzeros
Variable types: 0 continuous, 41006 integer (41006 binary)

Root relaxation: objective 6.500000e+01, 1422 iterations, 0.12 seconds

    Nodes    |    Current Node    |     Objective Bounds      |     Work
 Expl Unexpl |  Obj  Depth IntInf | Incumbent    BestBd   Gap | It/Node Time

     0     0   65.00000    0  103   72.00000   65.00000  9.72%     -    0s
H    0     0                      70.0000000   65.00000  7.14%     -    1s
     0     0   65.00000    0  197   70.00000   65.00000  7.14%     -    2s
H    0     0                      67.0000000   65.00000  2.99%     -    3s
     0     0   65.00000    0  197   67.00000   65.00000  2.99%     -    3s
     0     0   65.00000    0  114   67.00000   65.00000  2.99%     -    5s
     0     0   65.00000    0   98   67.00000   65.00000  2.99%     -    5s
H    0     0                      66.0000000   65.00000  1.52%     -    5s
     0     2   65.00000    0   92   66.00000   65.00000  1.52%     -    9s
     2     3   65.00000    1   98   66.00000   65.00000  1.52%   958   10s
     5     5   65.00000    1  118   66.00000   65.00000  1.52%   383   19s
     7     6   65.00000    1  115   66.00000   65.00000  1.52%   274   21s
    11     9   65.00000    1  104   66.00000   65.00000  1.52%   174   25s
    17    13   65.00000    1  111   66.00000   65.00000  1.52%   113   31s
    20    17   65.00000   13  111   66.00000   65.00000  1.52%  2554   42s
    30    20   65.00000   17  108   66.00000   65.00000  1.52%  1708   45s
    38    25   65.00000   21  107   66.00000   65.00000  1.52%  1363   50s
    46    30   65.00000   25  109   66.00000   65.00000  1.52%  1130   59s
    47    31   65.00000   26  103   66.00000   65.00000  1.52%  1106   60s

Cutting planes:
  Gomory: 11
  Cover: 118
  Clique: 40
  MIR: 6
  StrongCG: 4
  Flow cover: 8
  Zero half: 5
  RLT: 74

Explored 48 nodes (72973 simplex iterations) in 60.02 seconds
Thread count was 1 (of 40 available processors)

Solution count 4: 66 67 70 72 

Time limit reached
Best objective 6.600000000000e+01, best bound 6.500000000000e+01, gap 1.5152%
0	41006	1414	48	65	66	60.153
