Academic license - for non-commercial use only - expires 2025-02-09
Gurobi Optimizer version 9.1.2 build v9.1.2rc0 (linux64)
Thread count: 20 physical cores, 40 logical processors, using up to 1 threads
Optimize a model with 1414 rows, 41006 columns and 285830 nonzeros
Model fingerprint: 0x94524df5
Variable types: 0 continuous, 41006 integer (41006 binary)
Coefficient statistics:
  Matrix range     [1e+00, 2e+03]
  Objective range  [1e+00, 1e+00]
  Bounds range     [1e+00, 1e+00]
  RHS range        [1e+00, 1e+00]

Loaded user MIP start with objective 68

Presolve time: 0.22s
Presolved: 1414 rows, 41006 columns, 285830 nonzeros
Variable types: 0 continuous, 41006 integer (41006 binary)

Root relaxation: objective 6.500000e+01, 1406 iterations, 0.11 seconds

    Nodes    |    Current Node    |     Objective Bounds      |     Work
 Expl Unexpl |  Obj  Depth IntInf | Incumbent    BestBd   Gap | It/Node Time

     0     0   65.00000    0   90   68.00000   65.00000  4.41%     -    0s
     0     0   65.00000    0  199   68.00000   65.00000  4.41%     -    2s
H    0     0                      67.0000000   65.00000  2.99%     -    4s
     0     0   65.00000    0  171   67.00000   65.00000  2.99%     -    4s
     0     0   65.00000    0  131   67.00000   65.00000  2.99%     -    5s
     0     0   65.00000    0  153   67.00000   65.00000  2.99%     -    5s
     0     0   65.00000    0  155   67.00000   65.00000  2.99%     -    7s
     0     0   65.00000    0  126   67.00000   65.00000  2.99%     -    7s
     0     0   65.00000    0  106   67.00000   65.00000  2.99%     -   12s
     0     0   65.00000    0  182   67.00000   65.00000  2.99%     -   12s
     0     0   65.00000    0  168   67.00000   65.00000  2.99%     -   14s
     0     0   65.00000    0  151   67.00000   65.00000  2.99%     -   15s
     0     0   65.00000    0  131   67.00000   65.00000  2.99%     -   16s
H    0     0                      66.0000000   65.00000  1.52%     -   18s
     0     2   65.00000    0  127   66.00000   65.00000  1.52%     -   19s
     2     3   65.00000    0  126   66.00000   65.00000  1.52%  1289   22s
     7     6   65.00000    0  119   66.00000   65.00000  1.52%   368   26s
    11     9   65.00000    0  118   66.00000   65.00000  1.52%   234   30s
    17    13   65.00000    0  125   66.00000   65.00000  1.52%   152   37s
    20    17   65.00000   13  107   66.00000   65.00000  1.52%  3125   41s
    35    25   65.00000   20  109   66.00000   65.00000  1.52%  1801   45s
    87    60   65.00000   48  108   66.00000   65.00000  1.52%   734   50s
   183   109   65.00000   60   87   66.00000   65.00000  1.52%   359   55s

Cutting planes:
  Gomory: 21
  Cover: 104
  Clique: 23
  MIR: 4
  StrongCG: 10
  Flow cover: 21
  Zero half: 12
  RLT: 68

Explored 205 nodes (94509 simplex iterations) in 60.01 seconds
Thread count was 1 (of 40 available processors)

Solution count 3: 66 67 68 

Time limit reached
Best objective 6.600000000000e+01, best bound 6.500000000000e+01, gap 1.5152%
0	41006	1414	205	65	66	60.116
