Academic license - for non-commercial use only - expires 2025-02-09
Gurobi Optimizer version 9.1.2 build v9.1.2rc0 (linux64)
Thread count: 20 physical cores, 40 logical processors, using up to 1 threads
Optimize a model with 4444 rows, 41006 columns and 897890 nonzeros
Model fingerprint: 0x0be9df04
Variable types: 0 continuous, 41006 integer (41006 binary)
Coefficient statistics:
  Matrix range     [1e+00, 2e+03]
  Objective range  [1e+00, 1e+00]
  Bounds range     [1e+00, 1e+00]
  RHS range        [1e+00, 1e+00]

Loaded user MIP start with objective 66

Presolve time: 1.05s
Presolved: 4444 rows, 41006 columns, 897890 nonzeros
Variable types: 0 continuous, 41006 integer (41006 binary)

Root relaxation: objective 6.500000e+01, 1141 iterations, 0.12 seconds

    Nodes    |    Current Node    |     Objective Bounds      |     Work
 Expl Unexpl |  Obj  Depth IntInf | Incumbent    BestBd   Gap | It/Node Time

     0     0   65.00000    0   91   66.00000   65.00000  1.52%     -    1s
     0     0   65.00000    0  184   66.00000   65.00000  1.52%     -    2s
     0     0   65.00000    0  177   66.00000   65.00000  1.52%     -    3s
     0     0   65.00000    0  111   66.00000   65.00000  1.52%     -    5s
     0     0   65.00000    0  114   66.00000   65.00000  1.52%     -    5s
     0     0   65.00000    0   94   66.00000   65.00000  1.52%     -    7s
     0     0   65.00000    0  134   66.00000   65.00000  1.52%     -    8s
     0     0   65.00000    0  105   66.00000   65.00000  1.52%     -   10s
     0     0   65.00000    0   99   66.00000   65.00000  1.52%     -   10s
     0     2   65.00000    0  101   66.00000   65.00000  1.52%     -   17s
     2     3   65.00000    1   99   66.00000   65.00000  1.52%   598   23s
     4     4   65.00000    1   83   66.00000   65.00000  1.52%   299   25s
     5     5   65.00000    1   96   66.00000   65.00000  1.52%   239   35s
     9     8   65.00000    1  100   66.00000   65.00000  1.52%   133   40s
    13    10   65.00000    1  115   66.00000   65.00000  1.52%  92.0   45s
    17    13   65.00000    1  107   66.00000   65.00000  1.52%  70.4   51s
    20    15   65.00000    1  102   66.00000   65.00000  1.52%  59.8   56s

Cutting planes:
  Gomory: 30
  Cover: 201
  Clique: 66
  MIR: 26
  StrongCG: 7
  Flow cover: 16
  Zero half: 30
  RLT: 131

Explored 22 nodes (60971 simplex iterations) in 60.02 seconds
Thread count was 1 (of 40 available processors)

Solution count 1: 66 

Time limit reached
Best objective 6.600000000000e+01, best bound 6.500000000000e+01, gap 1.5152%
0	41006	4444	22	65	66	60.287
