Academic license - for non-commercial use only - expires 2025-02-09
Gurobi Optimizer version 9.1.2 build v9.1.2rc0 (linux64)
Thread count: 20 physical cores, 40 logical processors, using up to 1 threads
Optimize a model with 2821 rows, 162812 columns and 1137266 nonzeros
Model fingerprint: 0x816a0adc
Variable types: 0 continuous, 162812 integer (162812 binary)
Coefficient statistics:
  Matrix range     [1e+00, 8e+03]
  Objective range  [1e+00, 1e+00]
  Bounds range     [1e+00, 1e+00]
  RHS range        [1e+00, 1e+00]

Loaded user MIP start with objective 134

Presolve time: 1.14s
Presolved: 2821 rows, 162812 columns, 1137266 nonzeros
Variable types: 0 continuous, 162812 integer (162812 binary)

Root relaxation: objective 1.320000e+02, 3280 iterations, 0.69 seconds

    Nodes    |    Current Node    |     Objective Bounds      |     Work
 Expl Unexpl |  Obj  Depth IntInf | Incumbent    BestBd   Gap | It/Node Time

     0     0  132.00000    0  203  134.00000  132.00000  1.49%     -    6s
H    0     0                     133.0000000  132.00000  0.75%     -    7s
     0     0  132.00000    0  340  133.00000  132.00000  0.75%     -    8s
     0     0  132.00000    0  366  133.00000  132.00000  0.75%     -   15s
     0     0  132.00000    0  266  133.00000  132.00000  0.75%     -   22s
     0     0  132.00000    0  368  133.00000  132.00000  0.75%     -   23s
     0     0  132.00000    0  252  133.00000  132.00000  0.75%     -   31s
     0     0  132.00000    0  234  133.00000  132.00000  0.75%     -   34s
     0     2  132.00000    0  215  133.00000  132.00000  0.75%     -   60s

Cutting planes:
  Cover: 113
  Clique: 39
  MIR: 39
  StrongCG: 40
  RLT: 3

Explored 1 nodes (67685 simplex iterations) in 60.02 seconds
Thread count was 1 (of 40 available processors)

Solution count 2: 133 134 

Time limit reached
Best objective 1.330000000000e+02, best bound 1.320000000000e+02, gap 0.7519%
0	162812	2821	1	132	133	60.406
