Academic license - for non-commercial use only - expires 2025-02-09
Gurobi Optimizer version 9.1.2 build v9.1.2rc0 (linux64)
Thread count: 20 physical cores, 40 logical processors, using up to 1 threads
Optimize a model with 8866 rows, 162812 columns and 3573401 nonzeros
Model fingerprint: 0xed96c8d8
Variable types: 0 continuous, 162812 integer (162812 binary)
Coefficient statistics:
  Matrix range     [1e+00, 8e+03]
  Objective range  [1e+00, 1e+00]
  Bounds range     [1e+00, 1e+00]
  RHS range        [1e+00, 1e+00]

Loaded user MIP start with objective 134

Presolve time: 4.92s
Presolved: 8866 rows, 162812 columns, 3573401 nonzeros
Variable types: 0 continuous, 162812 integer (162812 binary)

Root simplex log...

Iteration    Objective       Primal Inf.    Dual Inf.      Time
       0    0.0000000e+00   2.765100e+04   0.000000e+00      5s
    3629    1.3200000e+02   0.000000e+00   0.000000e+00      6s

Root relaxation: objective 1.320000e+02, 3629 iterations, 1.07 seconds

    Nodes    |    Current Node    |     Objective Bounds      |     Work
 Expl Unexpl |  Obj  Depth IntInf | Incumbent    BestBd   Gap | It/Node Time

     0     0  132.00000    0  186  134.00000  132.00000  1.49%     -   10s
     0     0  132.00000    0  404  134.00000  132.00000  1.49%     -   14s
H    0     0                     133.0000000  132.00000  0.75%     -   24s
     0     0  132.00000    0  356  133.00000  132.00000  0.75%     -   24s
     0     0  132.00000    0  251  133.00000  132.00000  0.75%     -   37s
     0     0  132.00000    0  266  133.00000  132.00000  0.75%     -   40s
     0     0  132.00000    0  251  133.00000  132.00000  0.75%     -   52s
     0     0  132.00000    0  216  133.00000  132.00000  0.75%     -   59s

Cutting planes:
  Cover: 217
  Clique: 85
  MIR: 81
  StrongCG: 80
  RLT: 7

Explored 1 nodes (50472 simplex iterations) in 60.05 seconds
Thread count was 1 (of 40 available processors)

Solution count 2: 133 134 

Time limit reached
Best objective 1.330000000000e+02, best bound 1.320000000000e+02, gap 0.7519%
0	162812	8866	1	132	133	60.815
