Academic license - for non-commercial use only - expires 2025-02-09
Gurobi Optimizer version 9.1.2 build v9.1.2rc0 (linux64)
Thread count: 20 physical cores, 40 logical processors, using up to 1 threads
Optimize a model with 2821 rows, 162812 columns and 1137266 nonzeros
Model fingerprint: 0xa100b9a8
Variable types: 0 continuous, 162812 integer (162812 binary)
Coefficient statistics:
  Matrix range     [1e+00, 8e+03]
  Objective range  [1e+00, 1e+00]
  Bounds range     [1e+00, 1e+00]
  RHS range        [1e+00, 1e+00]

Loaded user MIP start with objective 136

Presolve time: 1.14s
Presolved: 2821 rows, 162812 columns, 1137266 nonzeros
Variable types: 0 continuous, 162812 integer (162812 binary)

Root relaxation: objective 1.320000e+02, 3380 iterations, 0.70 seconds

    Nodes    |    Current Node    |     Objective Bounds      |     Work
 Expl Unexpl |  Obj  Depth IntInf | Incumbent    BestBd   Gap | It/Node Time

     0     0  132.00000    0  196  136.00000  132.00000  2.94%     -    4s
     0     0  132.00000    0  329  136.00000  132.00000  2.94%     -    6s
H    0     0                     134.0000000  132.00000  1.49%     -   13s
     0     0  132.00000    0  371  134.00000  132.00000  1.49%     -   13s
     0     0  132.00000    0  250  134.00000  132.00000  1.49%     -   19s
     0     0  132.00000    0  345  134.00000  132.00000  1.49%     -   20s
     0     0  132.00000    0  254  134.00000  132.00000  1.49%     -   25s
     0     0  132.00000    0  229  134.00000  132.00000  1.49%     -   30s
     0     2  132.00000    0  221  134.00000  132.00000  1.49%     -   60s

Cutting planes:
  Cover: 144
  Clique: 45
  MIR: 94
  StrongCG: 87
  RLT: 5

Explored 1 nodes (60066 simplex iterations) in 60.01 seconds
Thread count was 1 (of 40 available processors)

Solution count 2: 134 136 

Time limit reached
Best objective 1.340000000000e+02, best bound 1.320000000000e+02, gap 1.4925%
0	162812	2821	1	132	134	60.413
