Academic license - for non-commercial use only - expires 2025-02-09
Gurobi Optimizer version 9.1.2 build v9.1.2rc0 (linux64)
Thread count: 20 physical cores, 40 logical processors, using up to 1 threads
Optimize a model with 2821 rows, 162812 columns and 1137266 nonzeros
Model fingerprint: 0xdfc2e57b
Variable types: 0 continuous, 162812 integer (162812 binary)
Coefficient statistics:
  Matrix range     [1e+00, 8e+03]
  Objective range  [1e+00, 1e+00]
  Bounds range     [1e+00, 1e+00]
  RHS range        [1e+00, 1e+00]

Loaded user MIP start with objective 135

Presolve time: 1.14s
Presolved: 2821 rows, 162812 columns, 1137266 nonzeros
Variable types: 0 continuous, 162812 integer (162812 binary)

Root relaxation: objective 1.320000e+02, 3403 iterations, 0.66 seconds

    Nodes    |    Current Node    |     Objective Bounds      |     Work
 Expl Unexpl |  Obj  Depth IntInf | Incumbent    BestBd   Gap | It/Node Time

     0     0  132.00000    0  201  135.00000  132.00000  2.22%     -    4s
     0     0  132.00000    0  332  135.00000  132.00000  2.22%     -   10s
H    0     0                     134.0000000  132.00000  1.49%     -   17s
     0     0  132.00000    0  376  134.00000  132.00000  1.49%     -   18s
     0     0  132.00000    0  260  134.00000  132.00000  1.49%     -   25s
     0     0  132.00000    0  343  134.00000  132.00000  1.49%     -   27s
     0     0  132.00000    0  240  134.00000  132.00000  1.49%     -   32s
     0     0  132.00000    0  240  134.00000  132.00000  1.49%     -   35s
     0     0  132.00000    0  240  134.00000  132.00000  1.49%     -   60s

Cutting planes:
  Cover: 136
  Clique: 62
  MIR: 55
  StrongCG: 48
  RLT: 7

Explored 1 nodes (57921 simplex iterations) in 60.06 seconds
Thread count was 1 (of 40 available processors)

Solution count 2: 134 135 

Time limit reached
Best objective 1.340000000000e+02, best bound 1.320000000000e+02, gap 1.4925%
0	162812	2821	1	132	134	60.454
