Academic license - for non-commercial use only - expires 2025-02-09
Gurobi Optimizer version 9.1.2 build v9.1.2rc0 (linux64)
Thread count: 20 physical cores, 40 logical processors, using up to 1 threads
Optimize a model with 8866 rows, 162812 columns and 3573401 nonzeros
Model fingerprint: 0x6376456f
Variable types: 0 continuous, 162812 integer (162812 binary)
Coefficient statistics:
  Matrix range     [1e+00, 8e+03]
  Objective range  [1e+00, 1e+00]
  Bounds range     [1e+00, 1e+00]
  RHS range        [1e+00, 1e+00]

Loaded user MIP start with objective 134

Presolve time: 4.92s
Presolved: 8866 rows, 162812 columns, 3573401 nonzeros
Variable types: 0 continuous, 162812 integer (162812 binary)

Root simplex log...

Iteration    Objective       Primal Inf.    Dual Inf.      Time
       0    0.0000000e+00   2.716000e+04   0.000000e+00      5s
    3293    1.3200000e+02   0.000000e+00   0.000000e+00      6s

Root relaxation: objective 1.320000e+02, 3293 iterations, 0.87 seconds

    Nodes    |    Current Node    |     Objective Bounds      |     Work
 Expl Unexpl |  Obj  Depth IntInf | Incumbent    BestBd   Gap | It/Node Time

     0     0  132.00000    0  187  134.00000  132.00000  1.49%     -   10s
     0     0  132.00000    0  379  134.00000  132.00000  1.49%     -   24s
     0     0  132.00000    0  335  134.00000  132.00000  1.49%     -   39s
     0     0  132.00000    0  288  134.00000  132.00000  1.49%     -   50s
     0     0  132.00000    0  314  134.00000  132.00000  1.49%     -   52s
     0     0  132.00000    0  289  134.00000  132.00000  1.49%     -   60s

Cutting planes:
  Cover: 239
  Clique: 122
  MIR: 201
  StrongCG: 185
  RLT: 64

Explored 1 nodes (33957 simplex iterations) in 60.02 seconds
Thread count was 1 (of 40 available processors)

Solution count 1: 134 

Time limit reached
Best objective 1.340000000000e+02, best bound 1.320000000000e+02, gap 1.4925%
0	162812	8866	1	132	134	60.813
