Academic license - for non-commercial use only - expires 2025-02-09
Gurobi Optimizer version 9.1.2 build v9.1.2rc0 (linux64)
Thread count: 20 physical cores, 40 logical processors, using up to 1 threads
Optimize a model with 2821 rows, 162812 columns and 1137266 nonzeros
Model fingerprint: 0x189a07d8
Variable types: 0 continuous, 162812 integer (162812 binary)
Coefficient statistics:
  Matrix range     [1e+00, 5e+03]
  Objective range  [1e+00, 1e+00]
  Bounds range     [1e+00, 1e+00]
  RHS range        [1e+00, 1e+00]

Loaded user MIP start with objective 134

Presolve time: 1.14s
Presolved: 2821 rows, 162812 columns, 1137266 nonzeros
Variable types: 0 continuous, 162812 integer (162812 binary)

Root relaxation: objective 1.320000e+02, 3098 iterations, 0.68 seconds

    Nodes    |    Current Node    |     Objective Bounds      |     Work
 Expl Unexpl |  Obj  Depth IntInf | Incumbent    BestBd   Gap | It/Node Time

     0     0  132.00000    0  194  134.00000  132.00000  1.49%     -    4s
H    0     0                     133.0000000  132.00000  0.75%     -    5s
     0     0  132.00000    0  309  133.00000  132.00000  0.75%     -    6s
     0     0  132.00000    0  306  133.00000  132.00000  0.75%     -   10s
     0     0  132.00000    0  206  133.00000  132.00000  0.75%     -   16s
     0     0  132.00000    0  239  133.00000  132.00000  0.75%     -   17s
     0     0  132.00000    0  200  133.00000  132.00000  0.75%     -   21s
     0     0  132.00000    0  200  133.00000  132.00000  0.75%     -   23s
     0     2  132.00000    0  200  133.00000  132.00000  0.75%     -   40s
     2     3  132.00000    1  200  133.00000  132.00000  0.75%  1178   46s
     4     4  132.00000    1  204  133.00000  132.00000  0.75%   589   52s

Cutting planes:
  Gomory: 1
  Cover: 52
  Clique: 20
  StrongCG: 1
  Flow cover: 1
  Zero half: 10
  RLT: 19

Explored 4 nodes (84456 simplex iterations) in 60.14 seconds
Thread count was 1 (of 40 available processors)

Solution count 2: 133 134 

Time limit reached
Best objective 1.330000000000e+02, best bound 1.320000000000e+02, gap 0.7519%
0	162812	2821	4	132	133	60.521
