Academic license - for non-commercial use only - expires 2025-02-09
Gurobi Optimizer version 9.1.2 build v9.1.2rc0 (linux64)
Thread count: 20 physical cores, 40 logical processors, using up to 1 threads
Optimize a model with 8866 rows, 162812 columns and 3573401 nonzeros
Model fingerprint: 0xa49eb8bc
Variable types: 0 continuous, 162812 integer (162812 binary)
Coefficient statistics:
  Matrix range     [1e+00, 7e+03]
  Objective range  [1e+00, 1e+00]
  Bounds range     [1e+00, 1e+00]
  RHS range        [1e+00, 1e+00]

Loaded user MIP start with objective 133

Presolve time: 4.93s
Presolved: 8866 rows, 162812 columns, 3573401 nonzeros
Variable types: 0 continuous, 162812 integer (162812 binary)

Root simplex log...

Iteration    Objective       Primal Inf.    Dual Inf.      Time
       0    0.0000000e+00   2.634400e+04   0.000000e+00      5s
    3862    1.3200000e+02   0.000000e+00   0.000000e+00      6s

Root relaxation: objective 1.320000e+02, 3862 iterations, 1.06 seconds
Total elapsed time = 10.52s

    Nodes    |    Current Node    |     Objective Bounds      |     Work
 Expl Unexpl |  Obj  Depth IntInf | Incumbent    BestBd   Gap | It/Node Time

     0     0  132.00000    0  189  133.00000  132.00000  0.75%     -   12s
     0     0  132.00000    0  279  133.00000  132.00000  0.75%     -   15s
     0     0  132.00000    0  280  133.00000  132.00000  0.75%     -   24s
     0     0  132.00000    0  192  133.00000  132.00000  0.75%     -   30s
     0     0  132.00000    0  205  133.00000  132.00000  0.75%     -   32s
     0     0  132.00000    0  191  133.00000  132.00000  0.75%     -   38s
     0     0  132.00000    0  186  133.00000  132.00000  0.75%     -   42s
     0     0  132.00000    0  181  133.00000  132.00000  0.75%     -   60s

Cutting planes:
  Cover: 329
  Clique: 149
  MIR: 1
  StrongCG: 1
  RLT: 18

Explored 1 nodes (37490 simplex iterations) in 60.23 seconds
Thread count was 1 (of 40 available processors)

Solution count 1: 133 

Time limit reached
Best objective 1.330000000000e+02, best bound 1.320000000000e+02, gap 0.7519%
0	162812	8866	1	132	133	61.011
