Academic license - for non-commercial use only - expires 2025-02-09
Gurobi Optimizer version 9.1.2 build v9.1.2rc0 (linux64)
Thread count: 20 physical cores, 40 logical processors, using up to 1 threads
Optimize a model with 2821 rows, 162812 columns and 1137266 nonzeros
Model fingerprint: 0x375c49e1
Variable types: 0 continuous, 162812 integer (162812 binary)
Coefficient statistics:
  Matrix range     [1e+00, 1e+04]
  Objective range  [1e+00, 1e+00]
  Bounds range     [1e+00, 1e+00]
  RHS range        [1e+00, 1e+00]

Loaded user MIP start with objective 136

Presolve time: 1.13s
Presolved: 2821 rows, 162812 columns, 1137266 nonzeros
Variable types: 0 continuous, 162812 integer (162812 binary)

Root relaxation: objective 1.320000e+02, 3515 iterations, 0.64 seconds

    Nodes    |    Current Node    |     Objective Bounds      |     Work
 Expl Unexpl |  Obj  Depth IntInf | Incumbent    BestBd   Gap | It/Node Time

     0     0  132.00000    0  212  136.00000  132.00000  2.94%     -    4s
H    0     0                     135.0000000  132.00000  2.22%     -    5s
     0     0  132.00000    0  327  135.00000  132.00000  2.22%     -    6s
H    0     0                     133.0000000  132.00000  0.75%     -   11s
     0     0  132.00000    0  386  133.00000  132.00000  0.75%     -   12s
     0     0  132.00000    0  267  133.00000  132.00000  0.75%     -   19s
     0     0  132.00000    0  356  133.00000  132.00000  0.75%     -   20s
     0     0  132.00000    0  261  133.00000  132.00000  0.75%     -   26s
     0     0  132.00000    0  259  133.00000  132.00000  0.75%     -   28s
     0     2  132.00000    0  238  133.00000  132.00000  0.75%     -   60s

Cutting planes:
  Cover: 143
  Clique: 59
  MIR: 52
  StrongCG: 53
  RLT: 5

Explored 1 nodes (57250 simplex iterations) in 60.01 seconds
Thread count was 1 (of 40 available processors)

Solution count 3: 133 135 136 

Time limit reached
Best objective 1.330000000000e+02, best bound 1.320000000000e+02, gap 0.7519%
0	162812	2821	1	132	133	60.397
