Academic license - for non-commercial use only - expires 2025-02-09
Gurobi Optimizer version 9.1.2 build v9.1.2rc0 (linux64)
Thread count: 20 physical cores, 40 logical processors, using up to 1 threads
Optimize a model with 4207 rows, 361802 columns and 2529008 nonzeros
Model fingerprint: 0x35ec3a88
Variable types: 0 continuous, 361802 integer (361802 binary)
Coefficient statistics:
  Matrix range     [1e+00, 2e+04]
  Objective range  [1e+00, 1e+00]
  Bounds range     [1e+00, 1e+00]
  RHS range        [1e+00, 1e+00]

Loaded user MIP start with objective 204

Presolve time: 2.82s
Presolved: 4207 rows, 361802 columns, 2529008 nonzeros
Variable types: 0 continuous, 361802 integer (361802 binary)

Root relaxation: objective 1.980000e+02, 4060 iterations, 1.15 seconds
Total elapsed time = 7.58s

    Nodes    |    Current Node    |     Objective Bounds      |     Work
 Expl Unexpl |  Obj  Depth IntInf | Incumbent    BestBd   Gap | It/Node Time

     0     0  198.00000    0  296  204.00000  198.00000  2.94%     -   12s
     0     0  198.00000    0  496  204.00000  198.00000  2.94%     -   18s
H    0     0                     202.0000000  198.00000  1.98%     -   37s
     0     0  198.00000    0  553  202.00000  198.00000  1.98%     -   38s
     0     0  198.00000    0  405  202.00000  198.00000  1.98%     -   60s

Cutting planes:
  Cover: 299
  Clique: 91
  MIR: 157
  StrongCG: 136
  RLT: 15

Explored 1 nodes (67019 simplex iterations) in 60.03 seconds
Thread count was 1 (of 40 available processors)

Solution count 2: 202 204 

Time limit reached
Best objective 2.020000000000e+02, best bound 1.980000000000e+02, gap 1.9802%
0	361802	4207	1	198	202	60.864
