Academic license - for non-commercial use only - expires 2025-02-09
Gurobi Optimizer version 9.1.2 build v9.1.2rc0 (linux64)
Thread count: 20 physical cores, 40 logical processors, using up to 1 threads
Optimize a model with 13222 rows, 361802 columns and 7947023 nonzeros
Model fingerprint: 0x41443e76
Variable types: 0 continuous, 361802 integer (361802 binary)
Coefficient statistics:
  Matrix range     [1e+00, 2e+04]
  Objective range  [1e+00, 1e+00]
  Bounds range     [1e+00, 1e+00]
  RHS range        [1e+00, 1e+00]

Loaded user MIP start with objective 201

Presolve removed 0 rows and 0 columns (presolve time = 5s) ...
Presolve removed 0 rows and 0 columns (presolve time = 11s) ...
Presolve time: 12.14s
Presolved: 13222 rows, 361802 columns, 7947023 nonzeros
Variable types: 0 continuous, 361802 integer (361802 binary)

Root simplex log...

Iteration    Objective       Primal Inf.    Dual Inf.      Time
       0    0.0000000e+00   4.930400e+04   0.000000e+00     15s
    3828    1.9800000e+02   0.000000e+00   0.000000e+00     16s

Root relaxation: objective 1.980000e+02, 3828 iterations, 3.67 seconds
Total elapsed time = 21.17s
Total elapsed time = 26.35s

    Nodes    |    Current Node    |     Objective Bounds      |     Work
 Expl Unexpl |  Obj  Depth IntInf | Incumbent    BestBd   Gap | It/Node Time

     0     0  198.00000    0  284  201.00000  198.00000  1.49%     -   30s

Explored 1 nodes (16017 simplex iterations) in 59.18 seconds
Thread count was 1 (of 40 available processors)

Solution count 1: 201 

Time limit reached
Best objective 2.010000000000e+02, best bound 1.980000000000e+02, gap 1.4925%
0	361802	13222	1	198	201	61.059
