Academic license - for non-commercial use only - expires 2025-02-09
Gurobi Optimizer version 9.1.2 build v9.1.2rc0 (linux64)
Thread count: 20 physical cores, 40 logical processors, using up to 1 threads
Optimize a model with 4207 rows, 361802 columns and 2529008 nonzeros
Model fingerprint: 0xf3ecd15d
Variable types: 0 continuous, 361802 integer (361802 binary)
Coefficient statistics:
  Matrix range     [1e+00, 2e+04]
  Objective range  [1e+00, 1e+00]
  Bounds range     [1e+00, 1e+00]
  RHS range        [1e+00, 1e+00]

Loaded user MIP start with objective 205

Presolve time: 2.77s
Presolved: 4207 rows, 361802 columns, 2529008 nonzeros
Variable types: 0 continuous, 361802 integer (361802 binary)

Root simplex log...

Iteration    Objective       Primal Inf.    Dual Inf.      Time
    4335    1.9787883e+02   7.968358e+04   0.000000e+00      5s
    5344    1.9800000e+02   0.000000e+00   0.000000e+00      5s

Root relaxation: objective 1.980000e+02, 5344 iterations, 2.34 seconds
Total elapsed time = 12.58s
Total elapsed time = 15.17s

    Nodes    |    Current Node    |     Objective Bounds      |     Work
 Expl Unexpl |  Obj  Depth IntInf | Incumbent    BestBd   Gap | It/Node Time

     0     0  198.00000    0  295  205.00000  198.00000  3.41%     -   19s
H    0     0                     203.0000000  198.00000  2.46%     -   35s
     0     0  198.00000    0  500  203.00000  198.00000  2.46%     -   38s
H    0     0                     201.0000000  198.00000  1.49%     -   54s
     0     0  198.00000    0  569  201.00000  198.00000  1.49%     -   56s
     0     0  198.00000    0  521  201.00000  198.00000  1.49%     -   60s

Cutting planes:
  Cover: 233
  Clique: 113
  MIR: 148
  StrongCG: 136
  RLT: 19

Explored 1 nodes (40673 simplex iterations) in 60.07 seconds
Thread count was 1 (of 40 available processors)

Solution count 3: 201 203 205 

Time limit reached
Best objective 2.010000000000e+02, best bound 1.980000000000e+02, gap 1.4925%
0	361802	4207	1	198	201	60.9
