Academic license - for non-commercial use only - expires 2025-02-09
Gurobi Optimizer version 9.1.2 build v9.1.2rc0 (linux64)
Thread count: 20 physical cores, 40 logical processors, using up to 1 threads
Optimize a model with 4207 rows, 361802 columns and 2529008 nonzeros
Model fingerprint: 0x82a8fb98
Variable types: 0 continuous, 361802 integer (361802 binary)
Coefficient statistics:
  Matrix range     [1e+00, 2e+04]
  Objective range  [1e+00, 1e+00]
  Bounds range     [1e+00, 1e+00]
  RHS range        [1e+00, 1e+00]

Loaded user MIP start with objective 202

Presolve time: 2.82s
Presolved: 4207 rows, 361802 columns, 2529008 nonzeros
Variable types: 0 continuous, 361802 integer (361802 binary)

Root relaxation: objective 1.980000e+02, 3710 iterations, 0.97 seconds
Total elapsed time = 7.96s

    Nodes    |    Current Node    |     Objective Bounds      |     Work
 Expl Unexpl |  Obj  Depth IntInf | Incumbent    BestBd   Gap | It/Node Time

     0     0  198.00000    0  308  202.00000  198.00000  1.98%     -   12s
     0     0  198.00000    0  502  202.00000  198.00000  1.98%     -   17s
     0     0  198.00000    0  597  202.00000  198.00000  1.98%     -   39s
     0     0  198.00000    0  397  202.00000  198.00000  1.98%     -   60s

Cutting planes:
  Cover: 231
  Clique: 98
  MIR: 165
  StrongCG: 155
  RLT: 28

Explored 1 nodes (49833 simplex iterations) in 60.02 seconds
Thread count was 1 (of 40 available processors)

Solution count 1: 202 

Time limit reached
Best objective 2.020000000000e+02, best bound 1.980000000000e+02, gap 1.9802%
0	361802	4207	1	198	202	60.822
