Academic license - for non-commercial use only - expires 2025-02-09
Gurobi Optimizer version 9.1.2 build v9.1.2rc0 (linux64)
Thread count: 20 physical cores, 40 logical processors, using up to 1 threads
Optimize a model with 4207 rows, 361802 columns and 2529008 nonzeros
Model fingerprint: 0xbfab1768
Variable types: 0 continuous, 361802 integer (361802 binary)
Coefficient statistics:
  Matrix range     [1e+00, 2e+04]
  Objective range  [1e+00, 1e+00]
  Bounds range     [1e+00, 1e+00]
  RHS range        [1e+00, 1e+00]

Loaded user MIP start with objective 202

Presolve time: 3.13s
Presolved: 4207 rows, 361802 columns, 2529008 nonzeros
Variable types: 0 continuous, 361802 integer (361802 binary)

Root simplex log...

Iteration    Objective       Primal Inf.    Dual Inf.      Time
    3236    1.9753558e+02   1.115243e+05   0.000000e+00      5s
    5235    1.9800000e+02   0.000000e+00   0.000000e+00      6s

Root relaxation: objective 1.980000e+02, 5235 iterations, 2.74 seconds
Total elapsed time = 10.78s
Total elapsed time = 16.35s

    Nodes    |    Current Node    |     Objective Bounds      |     Work
 Expl Unexpl |  Obj  Depth IntInf | Incumbent    BestBd   Gap | It/Node Time

     0     0  198.00000    0  305  202.00000  198.00000  1.98%     -   21s
H    0     0                     200.0000000  198.00000  1.00%     -   26s
     0     0  198.00000    0  481  200.00000  198.00000  1.00%     -   29s
H    0     0                     199.0000000  198.00000  0.50%     -   46s
     0     0  198.00000    0  574  199.00000  198.00000  0.50%     -   47s
     0     0  198.00000    0  438  199.00000  198.00000  0.50%     -   60s

Cutting planes:
  Cover: 252
  Clique: 72
  MIR: 173
  StrongCG: 179
  RLT: 19

Explored 1 nodes (44164 simplex iterations) in 60.11 seconds
Thread count was 1 (of 40 available processors)

Solution count 3: 199 200 202 

Time limit reached
Best objective 1.990000000000e+02, best bound 1.980000000000e+02, gap 0.5025%
0	361802	4207	1	198	199	60.948
