Academic license - for non-commercial use only - expires 2025-02-09
Gurobi Optimizer version 9.1.2 build v9.1.2rc0 (linux64)
Thread count: 20 physical cores, 40 logical processors, using up to 1 threads
Optimize a model with 13222 rows, 361802 columns and 7947023 nonzeros
Model fingerprint: 0xbd633614
Variable types: 0 continuous, 361802 integer (361802 binary)
Coefficient statistics:
  Matrix range     [1e+00, 2e+04]
  Objective range  [1e+00, 1e+00]
  Bounds range     [1e+00, 1e+00]
  RHS range        [1e+00, 1e+00]

Loaded user MIP start with objective 201

Presolve removed 0 rows and 0 columns (presolve time = 5s) ...
Presolve removed 0 rows and 0 columns (presolve time = 10s) ...
Presolve time: 11.33s
Presolved: 13222 rows, 361802 columns, 7947023 nonzeros
Variable types: 0 continuous, 361802 integer (361802 binary)

Root simplex log...

Iteration    Objective       Primal Inf.    Dual Inf.      Time
       0    0.0000000e+00   4.893200e+04   0.000000e+00     15s
    3043    1.9804657e+02   1.700693e+04   0.000000e+00     15s
    3497    1.9800000e+02   0.000000e+00   0.000000e+00     15s

Root relaxation: objective 1.980000e+02, 3497 iterations, 3.44 seconds
Total elapsed time = 20.76s
Total elapsed time = 26.86s

    Nodes    |    Current Node    |     Objective Bounds      |     Work
 Expl Unexpl |  Obj  Depth IntInf | Incumbent    BestBd   Gap | It/Node Time

     0     0  198.00000    0  299  201.00000  198.00000  1.49%     -   31s
H    0     0                     200.0000000  198.00000  1.00%     -   43s
     0     0  198.00000    0  580  200.00000  198.00000  1.00%     -   48s

Cutting planes:
  Cover: 124
  Clique: 45
  MIR: 90
  StrongCG: 91
  RLT: 29

Explored 1 nodes (19147 simplex iterations) in 59.06 seconds
Thread count was 1 (of 40 available processors)

Solution count 2: 200 201 

Time limit reached
Best objective 2.000000000000e+02, best bound 1.980000000000e+02, gap 1.0000%
0	361802	13222	1	198	200	60.899
