Academic license - for non-commercial use only - expires 2025-02-09
Gurobi Optimizer version 9.1.2 build v9.1.2rc0 (linux64)
Thread count: 20 physical cores, 40 logical processors, using up to 1 threads
Optimize a model with 13222 rows, 361802 columns and 7947023 nonzeros
Model fingerprint: 0x34b3bb5f
Variable types: 0 continuous, 361802 integer (361802 binary)
Coefficient statistics:
  Matrix range     [1e+00, 2e+04]
  Objective range  [1e+00, 1e+00]
  Bounds range     [1e+00, 1e+00]
  RHS range        [1e+00, 1e+00]

Loaded user MIP start with objective 200

Presolve removed 0 rows and 0 columns (presolve time = 5s) ...
Presolve removed 0 rows and 0 columns (presolve time = 10s) ...
Presolve time: 11.28s
Presolved: 13222 rows, 361802 columns, 7947023 nonzeros
Variable types: 0 continuous, 361802 integer (361802 binary)

Root simplex log...

Iteration    Objective       Primal Inf.    Dual Inf.      Time
       0    0.0000000e+00   5.943200e+04   0.000000e+00     15s
    2857    1.9808543e+02   7.110895e+04   0.000000e+00     15s
    3993    1.9800000e+02   0.000000e+00   0.000000e+00     15s

Root relaxation: objective 1.980000e+02, 3993 iterations, 3.70 seconds
Total elapsed time = 20.10s
Total elapsed time = 26.50s

    Nodes    |    Current Node    |     Objective Bounds      |     Work
 Expl Unexpl |  Obj  Depth IntInf | Incumbent    BestBd   Gap | It/Node Time

     0     0  198.00000    0  275  200.00000  198.00000  1.00%     -   30s
H    0     0                     199.0000000  198.00000  0.50%     -   39s
     0     0  198.00000    0  573  199.00000  198.00000  0.50%     -   44s

Cutting planes:
  Cover: 135
  Clique: 43
  MIR: 93
  StrongCG: 96
  RLT: 10

Explored 1 nodes (18738 simplex iterations) in 59.06 seconds
Thread count was 1 (of 40 available processors)

Solution count 2: 199 200 

Time limit reached
Best objective 1.990000000000e+02, best bound 1.980000000000e+02, gap 0.5025%
0	361802	13222	1	198	199	60.857
