Academic license - for non-commercial use only - expires 2025-02-09
Gurobi Optimizer version 9.1.2 build v9.1.2rc0 (linux64)
Thread count: 20 physical cores, 40 logical processors, using up to 1 threads
Optimize a model with 13222 rows, 361802 columns and 7947023 nonzeros
Model fingerprint: 0x95e49767
Variable types: 0 continuous, 361802 integer (361802 binary)
Coefficient statistics:
  Matrix range     [1e+00, 2e+04]
  Objective range  [1e+00, 1e+00]
  Bounds range     [1e+00, 1e+00]
  RHS range        [1e+00, 1e+00]

Loaded user MIP start with objective 200

Presolve removed 0 rows and 0 columns (presolve time = 5s) ...
Presolve removed 0 rows and 0 columns (presolve time = 10s) ...
Presolve time: 11.55s
Presolved: 13222 rows, 361802 columns, 7947023 nonzeros
Variable types: 0 continuous, 361802 integer (361802 binary)

Root simplex log...

Iteration    Objective       Primal Inf.    Dual Inf.      Time
       0    0.0000000e+00   4.932000e+04   0.000000e+00     15s
    1850    1.5112760e-02   1.511498e+05   0.000000e+00     15s
    3781    1.9800000e+02   0.000000e+00   0.000000e+00     16s

Root relaxation: objective 1.980000e+02, 3781 iterations, 3.60 seconds
Total elapsed time = 21.76s
Total elapsed time = 25.11s

    Nodes    |    Current Node    |     Objective Bounds      |     Work
 Expl Unexpl |  Obj  Depth IntInf | Incumbent    BestBd   Gap | It/Node Time

     0     0  198.00000    0  293  200.00000  198.00000  1.00%     -   29s
     0     0  198.00000    0  550  200.00000  198.00000  1.00%     -   42s

Cutting planes:
  Cover: 127
  Clique: 47
  MIR: 97
  StrongCG: 89
  RLT: 18

Explored 1 nodes (15990 simplex iterations) in 59.06 seconds
Thread count was 1 (of 40 available processors)

Solution count 1: 200 

Time limit reached
Best objective 2.000000000000e+02, best bound 1.980000000000e+02, gap 1.0000%
0	361802	13222	1	198	200	60.93
