Academic license - for non-commercial use only - expires 2025-02-09
Gurobi Optimizer version 9.1.2 build v9.1.2rc0 (linux64)
Thread count: 20 physical cores, 40 logical processors, using up to 1 threads
Optimize a model with 13222 rows, 361802 columns and 7947023 nonzeros
Model fingerprint: 0x04a16841
Variable types: 0 continuous, 361802 integer (361802 binary)
Coefficient statistics:
  Matrix range     [1e+00, 2e+04]
  Objective range  [1e+00, 1e+00]
  Bounds range     [1e+00, 1e+00]
  RHS range        [1e+00, 1e+00]

Loaded user MIP start with objective 200

Presolve removed 0 rows and 0 columns (presolve time = 5s) ...
Presolve removed 0 rows and 0 columns (presolve time = 10s) ...
Presolve time: 11.36s
Presolved: 13222 rows, 361802 columns, 7947023 nonzeros
Variable types: 0 continuous, 361802 integer (361802 binary)

Root simplex log...

Iteration    Objective       Primal Inf.    Dual Inf.      Time
       0    0.0000000e+00   4.831200e+04   0.000000e+00     15s
    2767    1.9804666e+02   5.231137e+04   0.000000e+00     15s
    3550    1.9800000e+02   0.000000e+00   0.000000e+00     15s

Root relaxation: objective 1.980000e+02, 3550 iterations, 3.43 seconds
Total elapsed time = 20.98s

    Nodes    |    Current Node    |     Objective Bounds      |     Work
 Expl Unexpl |  Obj  Depth IntInf | Incumbent    BestBd   Gap | It/Node Time

     0     0  198.00000    0  285  200.00000  198.00000  1.00%     -   29s
     0     0  198.00000    0  570  200.00000  198.00000  1.00%     -   41s
H    0     0                     199.0000000  198.00000  0.50%     -   59s

Cutting planes:
  Cover: 123
  Clique: 39
  MIR: 84
  StrongCG: 92
  RLT: 27

Explored 1 nodes (15572 simplex iterations) in 59.14 seconds
Thread count was 1 (of 40 available processors)

Solution count 2: 199 200 

Time limit reached
Best objective 1.990000000000e+02, best bound 1.980000000000e+02, gap 0.5025%
0	361802	13222	1	198	199	60.993
