Academic license - for non-commercial use only - expires 2025-02-09
Gurobi Optimizer version 9.1.2 build v9.1.2rc0 (linux64)
Thread count: 20 physical cores, 40 logical processors, using up to 1 threads
Optimize a model with 12706 rows, 4547874 columns and 22707558 nonzeros
Model fingerprint: 0xca399125
Variable types: 0 continuous, 4547874 integer (0 binary)
Coefficient statistics:
  Matrix range     [1e+00, 1e+00]
  Objective range  [1e+00, 1e+00]
  Bounds range     [1e+04, 1e+04]
  RHS range        [1e+00, 1e+00]

Warning: Completing partial solution with 4537583 unfixed non-continuous variables out of 4547874
User MIP start produced solution with objective 4757 (9.31s)
Loaded user MIP start with objective 4757
Processed MIP start in 9.46 seconds

Presolve removed 1 rows and 1 columns (presolve time = 6s) ...
Presolve removed 1 rows and 1 columns (presolve time = 13s) ...
Presolve removed 1 rows and 1 columns (presolve time = 15s) ...
Presolve removed 1 rows and 1 columns
Presolve time: 18.41s

Explored 0 nodes (0 simplex iterations) in 28.27 seconds
Thread count was 1 (of 40 available processors)

Solution count 1: 4757 

Time limit reached
Best objective 4.757000000000e+03, best bound -, gap -
0	4547874	12706	0	-1e+100	4757	62.727
