Academic license - for non-commercial use only - expires 2025-02-09
Gurobi Optimizer version 9.1.2 build v9.1.2rc0 (linux64)
Thread count: 20 physical cores, 40 logical processors, using up to 1 threads
Optimize a model with 536585 rows, 1615990 columns and 7586040 nonzeros
Model fingerprint: 0x79150624
Variable types: 0 continuous, 1615990 integer (0 binary)
Coefficient statistics:
  Matrix range     [1e+00, 1e+00]
  Objective range  [1e+00, 1e+00]
  Bounds range     [1e+02, 1e+02]
  RHS range        [1e+00, 1e+00]

Warning: Completing partial solution with 1615837 unfixed non-continuous variables out of 1615990
User MIP start produced solution with objective 51 (4.47s)
Loaded user MIP start with objective 51
Processed MIP start in 4.55 seconds

Presolve removed 2865 rows and 1 columns (presolve time = 6s) ...
Presolve removed 18122 rows and 15895 columns (presolve time = 10s) ...
Presolve removed 18122 rows and 39321 columns (presolve time = 15s) ...
Presolve removed 337354 rows and 331336 columns (presolve time = 20s) ...
Presolve removed 342798 rows and 339520 columns (presolve time = 25s) ...
Presolve removed 342798 rows and 339520 columns (presolve time = 30s) ...
Presolve removed 342798 rows and 339520 columns
Presolve time: 49.42s

Explored 0 nodes (0 simplex iterations) in 54.31 seconds
Thread count was 1 (of 40 available processors)

Solution count 1: 51 

Time limit reached
Best objective 5.100000000000e+01, best bound -, gap -
0	1615990	536585	0	-1e+100	51	61.604
