Academic license - for non-commercial use only - expires 2025-02-09
Gurobi Optimizer version 9.1.2 build v9.1.2rc0 (linux64)
Thread count: 20 physical cores, 40 logical processors, using up to 1 threads
Optimize a model with 3010 rows, 202223 columns and 995082 nonzeros
Model fingerprint: 0xce72d6ea
Variable types: 0 continuous, 202223 integer (0 binary)
Coefficient statistics:
  Matrix range     [1e+00, 1e+00]
  Objective range  [1e+00, 1e+00]
  Bounds range     [5e+02, 5e+02]
  RHS range        [1e+00, 1e+00]

Warning: Completing partial solution with 201638 unfixed non-continuous variables out of 202223
User MIP start produced solution with objective 260 (0.31s)
Loaded user MIP start with objective 260

Presolve removed 407 rows and 15137 columns
Presolve time: 2.70s
Presolved: 2603 rows, 187086 columns, 825678 nonzeros
Variable types: 0 continuous, 187086 integer (186396 binary)

Root simplex log...

Iteration    Objective       Primal Inf.    Dual Inf.      Time
    9482    2.2200024e+02   2.830657e+03   0.000000e+00      5s
   27895    2.2660731e+02   6.828627e+03   0.000000e+00     10s
   36981    2.2717076e+02   2.890931e+03   0.000000e+00     15s
   41140    2.2720869e+02   3.430225e+02   0.000000e+00     20s
   41649    2.2720942e+02   0.000000e+00   0.000000e+00     21s

Root relaxation: objective 2.272094e+02, 41649 iterations, 18.14 seconds

    Nodes    |    Current Node    |     Objective Bounds      |     Work
 Expl Unexpl |  Obj  Depth IntInf | Incumbent    BestBd   Gap | It/Node Time

     0     0  227.20942    0  208  260.00000  227.20942  12.6%     -   21s
H    0     0                     228.0000000  227.20942  0.35%     -   22s
     0     0  227.20942    0  208  228.00000  227.20942  0.35%     -   22s

Explored 1 nodes (43405 simplex iterations) in 22.50 seconds
Thread count was 1 (of 40 available processors)

Solution count 2: 228 260 

Optimal solution found (tolerance 1.00e-04)
Best objective 2.280000000000e+02, best bound 2.280000000000e+02, gap 0.0000%
1	202223	3010	1	228	228	22.947
