Academic license - for non-commercial use only - expires 2025-02-09
Gurobi Optimizer version 9.1.2 build v9.1.2rc0 (linux64)
Thread count: 20 physical cores, 40 logical processors, using up to 1 threads
Optimize a model with 4521 rows, 289622 columns and 860026 nonzeros
Model fingerprint: 0x03e51a38
Variable types: 0 continuous, 289622 integer (0 binary)
Coefficient statistics:
  Matrix range     [1e+00, 1e+00]
  Objective range  [1e+00, 1e+00]
  Bounds range     [2e+02, 2e+02]
  RHS range        [1e+00, 1e+00]

Warning: Completing partial solution with 289289 unfixed non-continuous variables out of 289622
User MIP start produced solution with objective 131 (0.32s)
Loaded user MIP start with objective 131

Presolve removed 358 rows and 17267 columns
Presolve time: 2.97s
Presolved: 4163 rows, 272355 columns, 802743 nonzeros
Variable types: 0 continuous, 272355 integer (272355 binary)

Root simplex log...

Iteration    Objective       Primal Inf.    Dual Inf.      Time
    8619    4.4001488e+01   1.289108e+03   0.000000e+00      5s
   11562    4.9001516e+01   1.258249e+03   0.000000e+00     10s
   15738    4.9001600e+01   9.490870e+02   0.000000e+00     15s
   20173    5.8001751e+01   1.577451e+03   0.000000e+00     20s
   25806    6.3001845e+01   7.654432e+02   0.000000e+00     25s
   31267    6.3001974e+01   4.001451e+03   0.000000e+00     30s
   37373    6.3002165e+01   2.047786e+03   0.000000e+00     35s
   42834    6.3002328e+01   1.715934e+03   0.000000e+00     40s
   48467    6.3002512e+01   3.148099e+03   0.000000e+00     45s
   54143    6.3002717e+01   6.284696e+03   0.000000e+00     50s
   59819    6.3002950e+01   1.470705e+04   0.000000e+00     55s

Root relaxation: time limit, 66450 iterations, 56.58 seconds

    Nodes    |    Current Node    |     Objective Bounds      |     Work
 Expl Unexpl |  Obj  Depth IntInf | Incumbent    BestBd   Gap | It/Node Time

     0     0          -    0       131.00000 -46742.000      -     -   60s

Explored 0 nodes (66450 simplex iterations) in 60.05 seconds
Thread count was 1 (of 40 available processors)

Solution count 1: 131 

Time limit reached
Best objective 1.310000000000e+02, best bound -4.674200000000e+04, gap 35780.9160%
0	289622	4521	0	-46742	131	60.564
