Academic license - for non-commercial use only - expires 2025-02-09
Gurobi Optimizer version 9.1.2 build v9.1.2rc0 (linux64)
Thread count: 20 physical cores, 40 logical processors, using up to 1 threads
Optimize a model with 16152 rows, 2088254 columns and 6232861 nonzeros
Model fingerprint: 0x5941787e
Variable types: 0 continuous, 2088254 integer (0 binary)
Coefficient statistics:
  Matrix range     [1e+00, 1e+00]
  Objective range  [1e+00, 1e+00]
  Bounds range     [4e+02, 4e+02]
  RHS range        [1e+00, 1e+00]

Warning: Completing partial solution with 2087585 unfixed non-continuous variables out of 2088254
User MIP start produced solution with objective 266 (2.84s)
Loaded user MIP start with objective 266
Processed MIP start in 2.90 seconds

Presolve removed 1082 rows and 109915 columns (presolve time = 5s) ...
Presolve removed 1161 rows and 109994 columns (presolve time = 10s) ...
Presolve removed 1161 rows and 109994 columns (presolve time = 16s) ...
Presolve removed 1161 rows and 110855 columns (presolve time = 30s) ...
Presolve removed 1164 rows and 110856 columns (presolve time = 36s) ...
Presolve removed 1164 rows and 110856 columns
Presolve time: 36.19s
Presolved: 14988 rows, 1977398 columns, 5850453 nonzeros
Variable types: 0 continuous, 1977398 integer (1977398 binary)

Root simplex log...

Iteration    Objective       Primal Inf.    Dual Inf.      Time
       0   -6.6650000e+03   1.373300e+04   0.000000e+00     43s
    5982    1.2770537e-04   1.457000e+03   0.000000e+00     45s
   18457    6.0000012e+01   2.805250e+03   0.000000e+00     50s
   25317    6.2000124e+01   1.341500e+03   0.000000e+00     55s

Root relaxation: time limit, 26719 iterations, 17.01 seconds

    Nodes    |    Current Node    |     Objective Bounds      |     Work
 Expl Unexpl |  Obj  Depth IntInf | Incumbent    BestBd   Gap | It/Node Time

     0     0          -    0       266.00000 -567726.00      -     -   57s

Explored 0 nodes (26719 simplex iterations) in 57.12 seconds
Thread count was 1 (of 40 available processors)

Solution count 1: 266 

Time limit reached
Best objective 2.660000000000e+02, best bound -5.677260000000e+05, gap 213530.8271%
0	2088254	16152	0	-567726	266	60.996
