Academic license - for non-commercial use only - expires 2025-02-09
Gurobi Optimizer version 9.1.2 build v9.1.2rc0 (linux64)
Thread count: 20 physical cores, 40 logical processors, using up to 1 threads
Optimize a model with 15598 rows, 2004011 columns and 5981240 nonzeros
Model fingerprint: 0xd434a463
Variable types: 0 continuous, 2004011 integer (0 binary)
Coefficient statistics:
  Matrix range     [1e+00, 1e+00]
  Objective range  [1e+00, 1e+00]
  Bounds range     [4e+02, 4e+02]
  RHS range        [1e+00, 1e+00]

Warning: Completing partial solution with 2003346 unfixed non-continuous variables out of 2004011
User MIP start produced solution with objective 265 (2.73s)
Loaded user MIP start with objective 265
Processed MIP start in 2.79 seconds

Presolve removed 1114 rows and 105952 columns (presolve time = 6s) ...
Presolve removed 1114 rows and 105956 columns (presolve time = 11s) ...
Presolve removed 1114 rows and 105956 columns (presolve time = 15s) ...
Presolve removed 1114 rows and 106525 columns (presolve time = 23s) ...
Presolve removed 1116 rows and 106525 columns (presolve time = 25s) ...
Presolve removed 1116 rows and 106525 columns
Presolve time: 28.66s
Presolved: 14482 rows, 1897486 columns, 5611799 nonzeros
Variable types: 0 continuous, 1897486 integer (1897486 binary)

Root simplex log...

Iteration    Objective       Primal Inf.    Dual Inf.      Time
       0   -6.2680000e+03   1.293900e+04   0.000000e+00     35s
   12643    3.5000148e+01   9.137500e+02   0.000000e+00     40s
   16626    3.6000191e+01   1.104500e+03   0.000000e+00     45s
   23519    6.6999980e+01   4.167833e+03   0.000000e+00     50s
   26912    6.7000134e+01   2.694765e+03   0.000000e+00     55s

Root relaxation: time limit, 28425 iterations, 24.60 seconds

    Nodes    |    Current Node    |     Objective Bounds      |     Work
 Expl Unexpl |  Obj  Depth IntInf | Incumbent    BestBd   Gap | It/Node Time

     0     0          -    0       265.00000 -450276.00      -     -   57s

Explored 0 nodes (28425 simplex iterations) in 57.11 seconds
Thread count was 1 (of 40 available processors)

Solution count 1: 265 

Time limit reached
Best objective 2.650000000000e+02, best bound -4.502760000000e+05, gap 170015.4717%
0	2004011	15598	0	-450276	265	60.892
