Academic license - for non-commercial use only - expires 2025-02-09
Gurobi Optimizer version 9.1.2 build v9.1.2rc0 (linux64)
Thread count: 20 physical cores, 40 logical processors, using up to 1 threads
Optimize a model with 12940 rows, 1664931 columns and 4969316 nonzeros
Model fingerprint: 0xf147ac6f
Variable types: 0 continuous, 1664931 integer (0 binary)
Coefficient statistics:
  Matrix range     [1e+00, 1e+00]
  Objective range  [1e+00, 1e+00]
  Bounds range     [4e+02, 4e+02]
  RHS range        [1e+00, 1e+00]

Warning: Completing partial solution with 1664264 unfixed non-continuous variables out of 1664931
User MIP start produced solution with objective 264 (2.27s)
Loaded user MIP start with objective 264
Processed MIP start in 2.32 seconds

Presolve removed 809 rows and 73499 columns (presolve time = 5s) ...
Presolve removed 809 rows and 73501 columns (presolve time = 10s) ...
Presolve removed 809 rows and 73809 columns (presolve time = 21s) ...
Presolve removed 810 rows and 73809 columns (presolve time = 25s) ...
Presolve removed 810 rows and 73809 columns
Presolve time: 25.44s
Presolved: 12130 rows, 1591122 columns, 4712796 nonzeros
Variable types: 0 continuous, 1591122 integer (1591122 binary)

Root simplex log...

Iteration    Objective       Primal Inf.    Dual Inf.      Time
       0   -5.3960000e+03   1.119500e+04   0.000000e+00     31s
   12066    5.3000113e+01   9.450000e+02   0.000000e+00     35s
   17768    5.7000162e+01   7.655000e+02   0.000000e+00     40s
   22569    6.1000405e+01   3.006702e+03   0.000000e+00     45s
   23980    6.5000525e+01   3.856243e+03   0.000000e+00     50s
   26119    7.0000463e+01   4.184860e+03   0.000000e+00     55s

Root relaxation: time limit, 26734 iterations, 29.46 seconds

    Nodes    |    Current Node    |     Objective Bounds      |     Work
 Expl Unexpl |  Obj  Depth IntInf | Incumbent    BestBd   Gap | It/Node Time

     0     0          -    0       264.00000 -380643.00      -     -   58s

Explored 0 nodes (26734 simplex iterations) in 58.09 seconds
Thread count was 1 (of 40 available processors)

Solution count 1: 264 

Time limit reached
Best objective 2.640000000000e+02, best bound -3.806430000000e+05, gap 144282.9545%
0	1664931	12940	0	-380643	264	61.289
