Academic license - for non-commercial use only - expires 2025-02-09
Gurobi Optimizer version 9.1.2 build v9.1.2rc0 (linux64)
Thread count: 20 physical cores, 40 logical processors, using up to 1 threads
Optimize a model with 15620 rows, 1993912 columns and 5950899 nonzeros
Model fingerprint: 0x010915d9
Variable types: 0 continuous, 1993912 integer (0 binary)
Coefficient statistics:
  Matrix range     [1e+00, 1e+00]
  Objective range  [1e+00, 1e+00]
  Bounds range     [4e+02, 4e+02]
  RHS range        [1e+00, 1e+00]

Warning: Completing partial solution with 1993245 unfixed non-continuous variables out of 1993912
User MIP start produced solution with objective 265 (2.72s)
Loaded user MIP start with objective 265
Processed MIP start in 2.78 seconds

Presolve removed 920 rows and 94455 columns (presolve time = 6s) ...
Presolve removed 976 rows and 94511 columns (presolve time = 11s) ...
Presolve removed 976 rows and 94511 columns (presolve time = 17s) ...
Presolve removed 976 rows and 94572 columns (presolve time = 21s) ...
Presolve removed 976 rows and 94572 columns
Presolve time: 20.88s
Presolved: 14644 rows, 1899340 columns, 5627363 nonzeros
Variable types: 0 continuous, 1899340 integer (1899340 binary)

Root simplex log...

Iteration    Objective       Primal Inf.    Dual Inf.      Time
       0   -6.1430000e+03   1.268900e+04   0.000000e+00     28s
    7482    2.3000086e+01   9.790000e+02   0.000000e+00     30s
   15573    3.6000133e+01   2.264500e+03   0.000000e+00     35s
   17717    3.6000144e+01   3.772500e+03   0.000000e+00     40s
   20560    3.6000264e+01   2.326188e+03   0.000000e+00     46s
   21985    3.6000314e+01   1.923748e+03   0.000000e+00     50s
   23060    3.6000354e+01   8.750726e+03   0.000000e+00     56s

Root relaxation: time limit, 23258 iterations, 32.37 seconds

    Nodes    |    Current Node    |     Objective Bounds      |     Work
 Expl Unexpl |  Obj  Depth IntInf | Incumbent    BestBd   Gap | It/Node Time

     0     0          -    0       265.00000 -392794.00      -     -   57s

Explored 0 nodes (23258 simplex iterations) in 57.25 seconds
Thread count was 1 (of 40 available processors)

Solution count 1: 265 

Time limit reached
Best objective 2.650000000000e+02, best bound -3.927940000000e+05, gap 148324.1509%
0	1993912	15620	0	-392794	265	60.989
