Academic license - for non-commercial use only - expires 2025-02-09
Gurobi Optimizer version 9.1.2 build v9.1.2rc0 (linux64)
Thread count: 20 physical cores, 40 logical processors, using up to 1 threads
Optimize a model with 15656 rows, 2008673 columns and 5995110 nonzeros
Model fingerprint: 0xd331fb3d
Variable types: 0 continuous, 2008673 integer (0 binary)
Coefficient statistics:
  Matrix range     [1e+00, 1e+00]
  Objective range  [1e+00, 1e+00]
  Bounds range     [4e+02, 4e+02]
  RHS range        [1e+00, 1e+00]

Warning: Completing partial solution with 2008006 unfixed non-continuous variables out of 2008673
User MIP start produced solution with objective 265 (2.75s)
Loaded user MIP start with objective 265
Processed MIP start in 2.81 seconds

Presolve removed 932 rows and 95390 columns (presolve time = 5s) ...
Presolve removed 995 rows and 95455 columns (presolve time = 10s) ...
Presolve removed 995 rows and 95455 columns (presolve time = 17s) ...
Presolve removed 995 rows and 95507 columns (presolve time = 21s) ...
Presolve removed 995 rows and 95507 columns
Presolve time: 21.34s
Presolved: 14661 rows, 1913166 columns, 5666906 nonzeros
Variable types: 0 continuous, 1913166 integer (1913166 binary)

Root simplex log...

Iteration    Objective       Primal Inf.    Dual Inf.      Time
       0   -6.3280000e+03   1.301800e+04   0.000000e+00     29s
    1406    2.1828564e-05   6.560000e+02   0.000000e+00     30s
   12541    4.4000186e+01   2.173000e+03   0.000000e+00     35s
   16534    4.4000221e+01   4.181812e+03   0.000000e+00     40s
   18483    4.4000242e+01   2.250699e+03   0.000000e+00     45s
   22384    5.5000257e+01   1.157665e+04   0.000000e+00     50s
   25870    7.4000192e+01   1.133138e+04   0.000000e+00     55s

Root relaxation: time limit, 27014 iterations, 31.74 seconds

    Nodes    |    Current Node    |     Objective Bounds      |     Work
 Expl Unexpl |  Obj  Depth IntInf | Incumbent    BestBd   Gap | It/Node Time

     0     0          -    0       265.00000 -439373.00      -     -   57s

Explored 0 nodes (27014 simplex iterations) in 57.24 seconds
Thread count was 1 (of 40 available processors)

Solution count 1: 265 

Time limit reached
Best objective 2.650000000000e+02, best bound -4.393730000000e+05, gap 165901.1321%
0	2008673	15656	0	-439373	265	61.045
