Academic license - for non-commercial use only - expires 2025-02-09
Gurobi Optimizer version 9.1.2 build v9.1.2rc0 (linux64)
Thread count: 20 physical cores, 40 logical processors, using up to 1 threads
Optimize a model with 30600 rows, 5823700 columns and 17410501 nonzeros
Model fingerprint: 0x92daba7f
Variable types: 0 continuous, 5823700 integer (0 binary)
Coefficient statistics:
  Matrix range     [1e+00, 1e+00]
  Objective range  [1e+00, 1e+00]
  Bounds range     [6e+02, 6e+02]
  RHS range        [1e+00, 1e+00]

Warning: Completing partial solution with 5822703 unfixed non-continuous variables out of 5823700
User MIP start produced solution with objective 396 (9.42s)
Loaded user MIP start with objective 396
Processed MIP start in 9.64 seconds

Presolve removed 1187 rows and 106998 columns (presolve time = 6s) ...
Presolve removed 1516 rows and 222934 columns (presolve time = 14s) ...
Presolve removed 1516 rows and 222934 columns (presolve time = 15s) ...
Presolve removed 1607 rows and 223025 columns (presolve time = 20s) ...
Presolve removed 1607 rows and 223029 columns (presolve time = 25s) ...
Presolve removed 1607 rows and 223029 columns (presolve time = 31s) ...
Presolve removed 1607 rows and 223029 columns (presolve time = 37s) ...
Presolve removed 1607 rows and 223029 columns
Presolve time: 39.21s

Explored 0 nodes (0 simplex iterations) in 49.45 seconds
Thread count was 1 (of 40 available processors)

Solution count 1: 396 

Time limit reached
Best objective 3.960000000000e+02, best bound -, gap -
0	5823700	30600	0	-1e+100	396	62.209
