Academic license - for non-commercial use only - expires 2025-02-09
Gurobi Optimizer version 9.1.2 build v9.1.2rc0 (linux64)
Thread count: 20 physical cores, 40 logical processors, using up to 1 threads
Optimize a model with 35446 rows, 6659325 columns and 19907684 nonzeros
Model fingerprint: 0xd58187d4
Variable types: 0 continuous, 6659325 integer (0 binary)
Coefficient statistics:
  Matrix range     [1e+00, 1e+00]
  Objective range  [1e+00, 1e+00]
  Bounds range     [6e+02, 6e+02]
  RHS range        [1e+00, 1e+00]

Warning: Completing partial solution with 6658328 unfixed non-continuous variables out of 6659325
User MIP start produced solution with objective 397 (10.59s)
Loaded user MIP start with objective 397
Processed MIP start in 10.84 seconds

Presolve removed 0 rows and 1475 columns (presolve time = 5s) ...
Presolve removed 1933 rows and 326459 columns (presolve time = 11s) ...
Presolve removed 1933 rows and 326459 columns (presolve time = 17s) ...
Presolve removed 1933 rows and 326459 columns (presolve time = 20s) ...
Presolve removed 1999 rows and 326525 columns (presolve time = 25s) ...
Presolve removed 1999 rows and 326528 columns (presolve time = 30s) ...
Presolve removed 1999 rows and 326528 columns (presolve time = 36s) ...
Presolve removed 1999 rows and 326528 columns
Presolve time: 37.01s

Explored 0 nodes (0 simplex iterations) in 48.49 seconds
Thread count was 1 (of 40 available processors)

Solution count 1: 397 

Time limit reached
Best objective 3.970000000000e+02, best bound -, gap -
0	6659325	35446	0	-1e+100	397	62.768
