Academic license - for non-commercial use only - expires 2025-02-09
Gurobi Optimizer version 9.1.2 build v9.1.2rc0 (linux64)
Thread count: 20 physical cores, 40 logical processors, using up to 1 threads
Optimize a model with 31320 rows, 6037501 columns and 18050464 nonzeros
Model fingerprint: 0xab347cb7
Variable types: 0 continuous, 6037501 integer (0 binary)
Coefficient statistics:
  Matrix range     [1e+00, 1e+00]
  Objective range  [1e+00, 1e+00]
  Bounds range     [6e+02, 6e+02]
  RHS range        [1e+00, 1e+00]

Warning: Completing partial solution with 6036503 unfixed non-continuous variables out of 6037501
User MIP start produced solution with objective 398 (8.54s)
Loaded user MIP start with objective 398
Processed MIP start in 8.72 seconds

Presolve removed 1514 rows and 133123 columns (presolve time = 6s) ...
Presolve removed 1954 rows and 293365 columns (presolve time = 14s) ...
Presolve removed 1954 rows and 293365 columns (presolve time = 15s) ...
Presolve removed 2070 rows and 293481 columns (presolve time = 21s) ...
Presolve removed 2070 rows and 293482 columns (presolve time = 25s) ...
Presolve removed 2070 rows and 293482 columns (presolve time = 32s) ...
Presolve removed 2070 rows and 293482 columns (presolve time = 35s) ...
Presolve removed 2070 rows and 293482 columns (presolve time = 40s) ...
Presolve removed 2070 rows and 293482 columns
Presolve time: 40.13s

Explored 0 nodes (0 simplex iterations) in 49.28 seconds
Thread count was 1 (of 40 available processors)

Solution count 1: 398 

Time limit reached
Best objective 3.980000000000e+02, best bound -, gap -
0	6037501	31320	0	-1e+100	398	62.227
