Academic license - for non-commercial use only - expires 2025-02-09
Gurobi Optimizer version 9.1.2 build v9.1.2rc0 (linux64)
Thread count: 20 physical cores, 40 logical processors, using up to 1 threads
Optimize a model with 30720 rows, 5913883 columns and 17680810 nonzeros
Model fingerprint: 0x1762093f
Variable types: 0 continuous, 5913883 integer (0 binary)
Coefficient statistics:
  Matrix range     [1e+00, 1e+00]
  Objective range  [1e+00, 1e+00]
  Bounds range     [6e+02, 6e+02]
  RHS range        [1e+00, 1e+00]

Warning: Completing partial solution with 5912889 unfixed non-continuous variables out of 5913883
User MIP start produced solution with objective 399 (8.30s)
Loaded user MIP start with objective 399
Processed MIP start in 8.48 seconds

Presolve removed 1586 rows and 135875 columns (presolve time = 6s) ...
Presolve removed 2007 rows and 295374 columns (presolve time = 13s) ...
Presolve removed 2007 rows and 295374 columns (presolve time = 15s) ...
Presolve removed 2111 rows and 295478 columns (presolve time = 20s) ...
Presolve removed 2111 rows and 295492 columns (presolve time = 25s) ...
Presolve removed 2111 rows and 295492 columns (presolve time = 31s) ...
Presolve removed 2111 rows and 295492 columns (presolve time = 38s) ...
Presolve removed 2111 rows and 295492 columns (presolve time = 40s) ...
Presolve removed 2111 rows and 295492 columns
Presolve time: 41.31s

Explored 0 nodes (0 simplex iterations) in 50.25 seconds
Thread count was 1 (of 40 available processors)

Solution count 1: 399 

Time limit reached
Best objective 3.990000000000e+02, best bound -, gap -
0	5913883	30720	0	-1e+100	399	63.103
