Academic license - for non-commercial use only - expires 2025-02-09
Gurobi Optimizer version 9.1.2 build v9.1.2rc0 (linux64)
Thread count: 20 physical cores, 40 logical processors, using up to 1 threads
Optimize a model with 29384 rows, 5669276 columns and 16949661 nonzeros
Model fingerprint: 0xde111912
Variable types: 0 continuous, 5669276 integer (0 binary)
Coefficient statistics:
  Matrix range     [1e+00, 1e+00]
  Objective range  [1e+00, 1e+00]
  Bounds range     [6e+02, 6e+02]
  RHS range        [1e+00, 1e+00]

Warning: Completing partial solution with 5668278 unfixed non-continuous variables out of 5669276
User MIP start produced solution with objective 399 (8.46s)
Loaded user MIP start with objective 399
Processed MIP start in 8.63 seconds

Presolve removed 334 rows and 51132 columns (presolve time = 6s) ...
Presolve removed 518 rows and 104044 columns (presolve time = 14s) ...
Presolve removed 518 rows and 104044 columns (presolve time = 15s) ...
Presolve removed 546 rows and 104072 columns (presolve time = 20s) ...
Presolve removed 546 rows and 104075 columns (presolve time = 25s) ...
Presolve removed 549 rows and 104681 columns (presolve time = 30s) ...
Presolve removed 549 rows and 104681 columns (presolve time = 37s) ...
Presolve removed 549 rows and 104681 columns (presolve time = 40s) ...
Presolve removed 549 rows and 104681 columns
Presolve time: 40.26s

Explored 0 nodes (0 simplex iterations) in 49.29 seconds
Thread count was 1 (of 40 available processors)

Solution count 1: 399 

Time limit reached
Best objective 3.990000000000e+02, best bound -, gap -
0	5669276	29384	0	-1e+100	399	61.894
