Academic license - for non-commercial use only - expires 2025-02-09
Gurobi Optimizer version 9.1.2 build v9.1.2rc0 (linux64)
Thread count: 20 physical cores, 40 logical processors, using up to 1 threads
Optimize a model with 29620 rows, 5643800 columns and 16872761 nonzeros
Model fingerprint: 0x765e8163
Variable types: 0 continuous, 5643800 integer (0 binary)
Coefficient statistics:
  Matrix range     [1e+00, 1e+00]
  Objective range  [1e+00, 1e+00]
  Bounds range     [6e+02, 6e+02]
  RHS range        [1e+00, 1e+00]

Warning: Completing partial solution with 5642804 unfixed non-continuous variables out of 5643800
User MIP start produced solution with objective 396 (8.01s)
Loaded user MIP start with objective 396
Processed MIP start in 8.18 seconds

Presolve removed 1451 rows and 124242 columns (presolve time = 5s) ...
Presolve removed 1848 rows and 269032 columns (presolve time = 13s) ...
Presolve removed 1848 rows and 269032 columns (presolve time = 15s) ...
Presolve removed 1943 rows and 269127 columns (presolve time = 20s) ...
Presolve removed 1943 rows and 269132 columns (presolve time = 26s) ...
Presolve removed 1943 rows and 269132 columns (presolve time = 30s) ...
Presolve removed 1943 rows and 269132 columns (presolve time = 36s) ...
Presolve removed 1943 rows and 269132 columns (presolve time = 40s) ...
Presolve removed 1943 rows and 269132 columns
Presolve time: 40.71s

Explored 0 nodes (0 simplex iterations) in 49.29 seconds
Thread count was 1 (of 40 available processors)

Solution count 1: 396 

Time limit reached
Best objective 3.960000000000e+02, best bound -, gap -
0	5643800	29620	0	-1e+100	396	61.524
