Academic license - for non-commercial use only - expires 2025-02-09
Gurobi Optimizer version 9.1.2 build v9.1.2rc0 (linux64)
Thread count: 20 physical cores, 40 logical processors, using up to 1 threads
Optimize a model with 808 rows, 41006 columns and 163418 nonzeros
Model fingerprint: 0x1a523184
Variable types: 0 continuous, 41006 integer (41006 binary)
Coefficient statistics:
  Matrix range     [1e+00, 2e+03]
  Objective range  [1e+00, 1e+00]
  Bounds range     [1e+00, 1e+00]
  RHS range        [1e+00, 1e+00]

Loaded user MIP start with objective 131

Presolve added 404 rows and 404 columns
Presolve time: 0.17s
Presolved: 1212 rows, 41410 columns, 123826 nonzeros
Variable types: 0 continuous, 41410 integer (41006 binary)

Root relaxation: objective 6.500000e+01, 1658 iterations, 0.19 seconds

    Nodes    |    Current Node    |     Objective Bounds      |     Work
 Expl Unexpl |  Obj  Depth IntInf | Incumbent    BestBd   Gap | It/Node Time

     0     0   65.00000    0  217  131.00000   65.00000  50.4%     -    1s
H    0     0                      79.0000000   65.00000  17.7%     -    1s
H    0     0                      75.0000000   65.00000  13.3%     -    3s
     0     0   65.00000    0  360   75.00000   65.00000  13.3%     -    3s
H    0     0                      70.0000000   65.00000  7.14%     -    8s
     0     0   65.00000    0  378   70.00000   65.00000  7.14%     -    8s
     0     0   65.00000    0  264   70.00000   65.00000  7.14%     -   10s
     0     0   65.00000    0  264   70.00000   65.00000  7.14%     -   10s
     0     2   65.00000    0  264   70.00000   65.00000  7.14%     -   14s
     1     1 infeasible    1        70.00000   65.00000  7.14%  5061   15s
H   26    20                      69.0000000   65.00000  5.80%   718   18s
    55    51   65.00000   37  272   69.00000   65.00000  5.80%   575   29s
H   56    50                      68.0000000   65.00000  4.41%   565   30s
    82    78   65.00000   55  301   68.00000   65.00000  4.41%   557   39s
    97    93   65.00000   65  316   68.00000   65.00000  4.41%   525   40s
   243   239   65.00000  179  304   68.00000   65.00000  4.41%   395   45s
   297   293   65.00000  233  326   68.00000   65.00000  4.41%   341   57s
   300   296   65.00000  236  323   68.00000   65.00000  4.41%   339   60s

Cutting planes:
  Cover: 74
  Clique: 25
  MIR: 37
  StrongCG: 38
  RLT: 6
  Relax-and-lift: 29

Explored 301 nodes (130028 simplex iterations) in 60.00 seconds
Thread count was 1 (of 40 available processors)

Solution count 6: 68 69 70 ... 131

Time limit reached
Best objective 6.800000000000e+01, best bound 6.500000000000e+01, gap 4.4118%
0	41006	808	301	65	68	60.111
