Academic license - for non-commercial use only - expires 2025-02-09
Gurobi Optimizer version 9.1.2 build v9.1.2rc0 (linux64)
Thread count: 20 physical cores, 40 logical processors, using up to 1 threads
Optimize a model with 808 rows, 41006 columns and 163418 nonzeros
Model fingerprint: 0x16572abc
Variable types: 0 continuous, 41006 integer (41006 binary)
Coefficient statistics:
  Matrix range     [1e+00, 2e+03]
  Objective range  [1e+00, 1e+00]
  Bounds range     [1e+00, 1e+00]
  RHS range        [1e+00, 1e+00]

Loaded user MIP start with objective 130

Presolve added 404 rows and 404 columns
Presolve time: 0.17s
Presolved: 1212 rows, 41410 columns, 123826 nonzeros
Variable types: 0 continuous, 41410 integer (41006 binary)

Root relaxation: objective 6.500000e+01, 1777 iterations, 0.19 seconds

    Nodes    |    Current Node    |     Objective Bounds      |     Work
 Expl Unexpl |  Obj  Depth IntInf | Incumbent    BestBd   Gap | It/Node Time

     0     0   65.00000    0  212  130.00000   65.00000  50.0%     -    1s
H    0     0                      95.0000000   65.00000  31.6%     -    1s
H    0     0                      75.0000000   65.00000  13.3%     -    1s
H    0     0                      73.0000000   65.00000  11.0%     -    4s
     0     0   65.00000    0  365   73.00000   65.00000  11.0%     -    4s
H    0     0                      71.0000000   65.00000  8.45%     -   10s
     0     0   65.00000    0  367   71.00000   65.00000  8.45%     -   10s
     0     0   65.00000    0  262   71.00000   65.00000  8.45%     -   13s
     0     0   65.00000    0  247   71.00000   65.00000  8.45%     -   14s
     0     2   65.00000    0  243   71.00000   65.00000  8.45%     -   16s
H   30    28                      70.0000000   65.00000  7.14%   858   19s
    47    47   65.00000   32  273   70.00000   65.00000  7.14%   692   20s
H   59    57                      69.0000000   65.00000  5.80%   627   22s
   115   115   65.00000   77  300   69.00000   65.00000  5.80%   549   25s
   175   175   65.00000  121  308   69.00000   65.00000  5.80%   498   36s
   282   280   65.00000  208  275   69.00000   65.00000  5.80%   436   40s
   387   385   65.00000  312  285   69.00000   65.00000  5.80%   334   46s
   607   605   65.01660  527  292   69.00000   65.00000  5.80%   234   50s
   785   780   66.00000  702  241   69.00000   65.00000  5.80%   188   57s
   928   922   67.00000  844  240   69.00000   65.00000  5.80%   164   60s

Cutting planes:
  Cover: 69
  Clique: 18
  MIR: 28
  StrongCG: 30
  RLT: 3
  Relax-and-lift: 16

Explored 929 nodes (185144 simplex iterations) in 60.00 seconds
Thread count was 1 (of 40 available processors)

Solution count 7: 69 70 71 ... 130

Time limit reached
Best objective 6.900000000000e+01, best bound 6.500000000000e+01, gap 5.7971%
0	41006	808	929	65	69	60.111
