Academic license - for non-commercial use only - expires 2025-02-09
Gurobi Optimizer version 9.1.2 build v9.1.2rc0 (linux64)
Thread count: 20 physical cores, 40 logical processors, using up to 1 threads
Optimize a model with 808 rows, 41006 columns and 163418 nonzeros
Model fingerprint: 0xaea230d5
Variable types: 0 continuous, 41006 integer (41006 binary)
Coefficient statistics:
  Matrix range     [1e+00, 2e+03]
  Objective range  [1e+00, 1e+00]
  Bounds range     [1e+00, 1e+00]
  RHS range        [1e+00, 1e+00]

Loaded user MIP start with objective 131

Presolve added 404 rows and 404 columns
Presolve time: 0.19s
Presolved: 1212 rows, 41410 columns, 123826 nonzeros
Variable types: 0 continuous, 41410 integer (41006 binary)

Root relaxation: objective 6.500000e+01, 2729 iterations, 0.30 seconds

    Nodes    |    Current Node    |     Objective Bounds      |     Work
 Expl Unexpl |  Obj  Depth IntInf | Incumbent    BestBd   Gap | It/Node Time

     0     0   65.00000    0  236  131.00000   65.00000  50.4%     -    1s
H    0     0                      77.0000000   65.00000  15.6%     -    1s
H    0     0                      76.0000000   65.00000  14.5%     -    2s
     0     0   65.00000    0  347   76.00000   65.00000  14.5%     -    2s
H    0     0                      72.0000000   65.00000  9.72%     -    5s
     0     0   65.00000    0  358   72.00000   65.00000  9.72%     -    6s
     0     0   65.00000    0  250   72.00000   65.00000  9.72%     -    8s
     0     0   65.00000    0  250   72.00000   65.00000  9.72%     -    8s
H    0     0                      71.0000000   65.00000  8.45%     -   18s
     0     2   65.00000    0  240   71.00000   65.00000  8.45%     -   18s
     4     2 infeasible    2        71.00000   65.00000  8.45%  1300   20s
H   27    21                      69.0000000   65.00000  5.80%   775   29s
    28    24   65.00000   16  322   69.00000   65.00000  5.80%   830   30s
   116   112   65.00000   76  308   69.00000   65.00000  5.80%   474   35s
   421   417   65.00000  355  312   69.00000   65.00000  5.80%   251   40s
   602   598   65.00000  536  319   69.00000   65.00000  5.80%   202   53s
   676   672   65.00000  609  315   69.00000   65.00000  5.80%   187   55s
   785   781   65.00000  718  314   69.00000   65.00000  5.80%   176   60s

Cutting planes:
  Cover: 102
  Clique: 46
  MIR: 37
  StrongCG: 31
  Flow cover: 2
  RLT: 8
  Relax-and-lift: 31

Explored 786 nodes (169175 simplex iterations) in 60.00 seconds
Thread count was 1 (of 40 available processors)

Solution count 6: 69 71 72 ... 131

Time limit reached
Best objective 6.900000000000e+01, best bound 6.500000000000e+01, gap 5.7971%
0	41006	808	786	65	69	60.109
