Academic license - for non-commercial use only - expires 2025-02-09
Gurobi Optimizer version 9.1.2 build v9.1.2rc0 (linux64)
Thread count: 20 physical cores, 40 logical processors, using up to 1 threads
Optimize a model with 1612 rows, 162812 columns and 650039 nonzeros
Model fingerprint: 0xae1d7eec
Variable types: 0 continuous, 162812 integer (162812 binary)
Coefficient statistics:
  Matrix range     [1e+00, 8e+03]
  Objective range  [1e+00, 1e+00]
  Bounds range     [1e+00, 1e+00]
  RHS range        [1e+00, 1e+00]

Loaded user MIP start with objective 264

Presolve added 806 rows and 806 columns
Presolve time: 0.71s
Presolved: 2418 rows, 163618 columns, 490048 nonzeros
Variable types: 0 continuous, 163618 integer (162812 binary)

Root relaxation: objective 1.320000e+02, 3052 iterations, 0.75 seconds
Total elapsed time = 5.88s

    Nodes    |    Current Node    |     Objective Bounds      |     Work
 Expl Unexpl |  Obj  Depth IntInf | Incumbent    BestBd   Gap | It/Node Time

     0     0  132.00000    0  410  264.00000  132.00000  50.0%     -    7s
H    0     0                     167.0000000  132.00000  21.0%     -    7s
H    0     0                     161.0000000  132.00000  18.0%     -   12s
H    0     0                     153.0000000  132.00000  13.7%     -   19s
     0     0  132.00000    0  620  153.00000  132.00000  13.7%     -   21s
H    0     0                     142.0000000  132.00000  7.04%     -   47s
     0     0  132.00000    0  683  142.00000  132.00000  7.04%     -   49s
     0     0  132.00000    0  575  142.00000  132.00000  7.04%     -   60s

Cutting planes:
  Cover: 178
  Clique: 53
  MIR: 86
  StrongCG: 84
  RLT: 18
  Relax-and-lift: 73

Explored 1 nodes (65560 simplex iterations) in 60.01 seconds
Thread count was 1 (of 40 available processors)

Solution count 5: 142 153 161 ... 264

Time limit reached
Best objective 1.420000000000e+02, best bound 1.320000000000e+02, gap 7.0423%
0	162812	1612	1	132	142	60.297
