Academic license - for non-commercial use only - expires 2025-02-09
Gurobi Optimizer version 9.1.2 build v9.1.2rc0 (linux64)
Thread count: 20 physical cores, 40 logical processors, using up to 1 threads
Optimize a model with 1612 rows, 162812 columns and 650039 nonzeros
Model fingerprint: 0x2f455796
Variable types: 0 continuous, 162812 integer (162812 binary)
Coefficient statistics:
  Matrix range     [1e+00, 8e+03]
  Objective range  [1e+00, 1e+00]
  Bounds range     [1e+00, 1e+00]
  RHS range        [1e+00, 1e+00]

Loaded user MIP start with objective 266

Presolve added 806 rows and 806 columns
Presolve time: 0.70s
Presolved: 2418 rows, 163618 columns, 490048 nonzeros
Variable types: 0 continuous, 163618 integer (162812 binary)

Root relaxation: objective 1.320000e+02, 4167 iterations, 1.44 seconds
Total elapsed time = 5.62s

    Nodes    |    Current Node    |     Objective Bounds      |     Work
 Expl Unexpl |  Obj  Depth IntInf | Incumbent    BestBd   Gap | It/Node Time

     0     0  132.00000    0  440  266.00000  132.00000  50.4%     -    6s
H    0     0                     194.0000000  132.00000  32.0%     -    7s
H    0     0                     162.0000000  132.00000  18.5%     -    7s
H    0     0                     155.0000000  132.00000  14.8%     -   17s
     0     0  132.00000    0  634  155.00000  132.00000  14.8%     -   19s
H    0     0                     144.0000000  132.00000  8.33%     -   45s
     0     0  132.00000    0  689  144.00000  132.00000  8.33%     -   48s
     0     0  132.00000    0  567  144.00000  132.00000  8.33%     -   60s

Cutting planes:
  Cover: 193
  Clique: 59
  MIR: 72
  StrongCG: 77
  RLT: 7
  Relax-and-lift: 72

Explored 1 nodes (61403 simplex iterations) in 60.01 seconds
Thread count was 1 (of 40 available processors)

Solution count 5: 144 155 162 ... 266

Time limit reached
Best objective 1.440000000000e+02, best bound 1.320000000000e+02, gap 8.3333%
0	162812	1612	1	132	144	60.311
