Academic license - for non-commercial use only - expires 2025-02-09
Gurobi Optimizer version 9.1.2 build v9.1.2rc0 (linux64)
Thread count: 20 physical cores, 40 logical processors, using up to 1 threads
Optimize a model with 1612 rows, 162812 columns and 650039 nonzeros
Model fingerprint: 0x695f907d
Variable types: 0 continuous, 162812 integer (162812 binary)
Coefficient statistics:
  Matrix range     [1e+00, 8e+03]
  Objective range  [1e+00, 1e+00]
  Bounds range     [1e+00, 1e+00]
  RHS range        [1e+00, 1e+00]

Loaded user MIP start with objective 265

Presolve added 806 rows and 806 columns
Presolve time: 0.71s
Presolved: 2418 rows, 163618 columns, 490048 nonzeros
Variable types: 0 continuous, 163618 integer (162812 binary)

Root relaxation: objective 1.320000e+02, 4374 iterations, 1.62 seconds
Total elapsed time = 5.96s

    Nodes    |    Current Node    |     Objective Bounds      |     Work
 Expl Unexpl |  Obj  Depth IntInf | Incumbent    BestBd   Gap | It/Node Time

     0     0  132.00000    0  408  265.00000  132.00000  50.2%     -   10s
H    0     0                     157.0000000  132.00000  15.9%     -   10s
H    0     0                     148.0000000  132.00000  10.8%     -   23s
     0     0  132.00000    0  600  148.00000  132.00000  10.8%     -   25s
H    0     0                     140.0000000  132.00000  5.71%     -   56s
     0     0  132.00000    0  647  140.00000  132.00000  5.71%     -   59s

Cutting planes:
  Cover: 167
  Clique: 60
  MIR: 73
  StrongCG: 70
  RLT: 12
  Relax-and-lift: 77

Explored 1 nodes (32820 simplex iterations) in 60.12 seconds
Thread count was 1 (of 40 available processors)

Solution count 4: 140 148 157 265 

Time limit reached
Best objective 1.400000000000e+02, best bound 1.320000000000e+02, gap 5.7143%
0	162812	1612	1	132	140	60.415
