Academic license - for non-commercial use only - expires 2025-02-09
Gurobi Optimizer version 9.1.2 build v9.1.2rc0 (linux64)
Thread count: 20 physical cores, 40 logical processors, using up to 1 threads
Optimize a model with 1612 rows, 162812 columns and 650039 nonzeros
Model fingerprint: 0x50281d66
Variable types: 0 continuous, 162812 integer (162812 binary)
Coefficient statistics:
  Matrix range     [1e+00, 8e+03]
  Objective range  [1e+00, 1e+00]
  Bounds range     [1e+00, 1e+00]
  RHS range        [1e+00, 1e+00]

Loaded user MIP start with objective 265

Presolve added 806 rows and 806 columns
Presolve time: 0.71s
Presolved: 2418 rows, 163618 columns, 490048 nonzeros
Variable types: 0 continuous, 163618 integer (162812 binary)

Root relaxation: objective 1.320000e+02, 4241 iterations, 1.39 seconds
Total elapsed time = 5.14s

    Nodes    |    Current Node    |     Objective Bounds      |     Work
 Expl Unexpl |  Obj  Depth IntInf | Incumbent    BestBd   Gap | It/Node Time

     0     0  132.00000    0  397  265.00000  132.00000  50.2%     -    8s
H    0     0                     204.0000000  132.00000  35.3%     -    8s
H    0     0                     163.0000000  132.00000  19.0%     -    8s
H    0     0                     153.0000000  132.00000  13.7%     -   22s
     0     0  132.00000    0  664  153.00000  132.00000  13.7%     -   24s
H    0     0                     145.0000000  132.00000  8.97%     -   55s
     0     0  132.00000    0  700  145.00000  132.00000  8.97%     -   56s
     0     0  132.00000    0  668  145.00000  132.00000  8.97%     -   60s

Cutting planes:
  Cover: 170
  Clique: 64
  MIR: 82
  StrongCG: 74
  RLT: 9
  Relax-and-lift: 71

Explored 1 nodes (35295 simplex iterations) in 60.01 seconds
Thread count was 1 (of 40 available processors)

Solution count 5: 145 153 163 ... 265

Time limit reached
Best objective 1.450000000000e+02, best bound 1.320000000000e+02, gap 8.9655%
0	162812	1612	1	132	145	60.303
