Academic license - for non-commercial use only - expires 2025-02-09
Gurobi Optimizer version 9.1.2 build v9.1.2rc0 (linux64)
Thread count: 20 physical cores, 40 logical processors, using up to 1 threads
Optimize a model with 1612 rows, 162812 columns and 650039 nonzeros
Model fingerprint: 0x78d96d94
Variable types: 0 continuous, 162812 integer (162812 binary)
Coefficient statistics:
  Matrix range     [1e+00, 8e+03]
  Objective range  [1e+00, 1e+00]
  Bounds range     [1e+00, 1e+00]
  RHS range        [1e+00, 1e+00]

Loaded user MIP start with objective 265

Presolve added 806 rows and 806 columns
Presolve time: 0.71s
Presolved: 2418 rows, 163618 columns, 490048 nonzeros
Variable types: 0 continuous, 163618 integer (162812 binary)

Root relaxation: objective 1.320000e+02, 4378 iterations, 1.52 seconds
Total elapsed time = 6.35s

    Nodes    |    Current Node    |     Objective Bounds      |     Work
 Expl Unexpl |  Obj  Depth IntInf | Incumbent    BestBd   Gap | It/Node Time

     0     0  132.00000    0  393  265.00000  132.00000  50.2%     -    7s
H    0     0                     157.0000000  132.00000  15.9%     -    7s
H    0     0                     149.0000000  132.00000  11.4%     -   15s
     0     0  132.00000    0  654  149.00000  132.00000  11.4%     -   17s
H    0     0                     144.0000000  132.00000  8.33%     -   46s
     0     0  132.00000    0  674  144.00000  132.00000  8.33%     -   48s
     0     0  132.00000    0  495  144.00000  132.00000  8.33%     -   60s

Cutting planes:
  Cover: 160
  Clique: 59
  MIR: 76
  StrongCG: 80
  RLT: 18
  Relax-and-lift: 68

Explored 1 nodes (65215 simplex iterations) in 60.02 seconds
Thread count was 1 (of 40 available processors)

Solution count 4: 144 149 157 265 

Time limit reached
Best objective 1.440000000000e+02, best bound 1.320000000000e+02, gap 8.3333%
0	162812	1612	1	132	144	60.32
