Academic license - for non-commercial use only - expires 2025-02-09
Gurobi Optimizer version 9.1.2 build v9.1.2rc0 (linux64)
Thread count: 20 physical cores, 40 logical processors, using up to 1 threads
Optimize a model with 2404 rows, 361802 columns and 1445405 nonzeros
Model fingerprint: 0x8a5a10f1
Variable types: 0 continuous, 361802 integer (361802 binary)
Coefficient statistics:
  Matrix range     [1e+00, 2e+04]
  Objective range  [1e+00, 1e+00]
  Bounds range     [1e+00, 1e+00]
  RHS range        [1e+00, 1e+00]

Loaded user MIP start with objective 396

Presolve added 1202 rows and 1202 columns
Presolve time: 1.81s
Presolved: 3606 rows, 363004 columns, 1087810 nonzeros
Variable types: 0 continuous, 363004 integer (361802 binary)

Root relaxation: objective 1.980000e+02, 4649 iterations, 2.09 seconds
Total elapsed time = 18.52s
Total elapsed time = 20.39s

    Nodes    |    Current Node    |     Objective Bounds      |     Work
 Expl Unexpl |  Obj  Depth IntInf | Incumbent    BestBd   Gap | It/Node Time

     0     0  198.00000    0  661  396.00000  198.00000  50.0%     -   22s
H    0     0                     306.0000000  198.00000  35.3%     -   23s
H    0     0                     248.0000000  198.00000  20.2%     -   23s
H    0     0                     236.0000000  198.00000  16.1%     -   44s
     0     0  198.00000    0  999  236.00000  198.00000  16.1%     -   50s
H    0     0                     229.0000000  198.00000  13.5%     -   52s

Cutting planes:
  Cover: 89
  Clique: 8
  MIR: 39
  StrongCG: 38
  RLT: 6
  Relax-and-lift: 75

Explored 1 nodes (56708 simplex iterations) in 60.02 seconds
Thread count was 1 (of 40 available processors)

Solution count 5: 229 236 248 ... 396

Time limit reached
Best objective 2.290000000000e+02, best bound 1.980000000000e+02, gap 13.5371%
0	361802	2404	1	198	229	60.619
