Application parameters:
  batch  =>  nothing
  instance  =>  "/IN/N102W1000001R2550Q2Half-001"
  ub  =>  1.0e6
  cfg  =>  "/CFG/BPP.cfg"
data = Colored Bin Packing dataset.
number of items = 102
number of colors = 2
capacity = 1000001
Items : 
	 item 1, weight= 250183, color= 0
	 item 2, weight= 250302, color= 0
	 item 3, weight= 250465, color= 1
	 item 4, weight= 250626, color= 0
	 item 5, weight= 250952, color= 0
	 item 6, weight= 251638, color= 0
	 item 7, weight= 251818, color= 0
	 item 8, weight= 251890, color= 1
	 item 9, weight= 251912, color= 1
	 item 10, weight= 252100, color= 0
	 item 11, weight= 254934, color= 0
	 item 12, weight= 256121, color= 0
	 item 13, weight= 256541, color= 0
	 item 14, weight= 257478, color= 0
	 item 15, weight= 257899, color= 0
	 item 16, weight= 258742, color= 0
	 item 17, weight= 261672, color= 0
	 item 18, weight= 263894, color= 0
	 item 19, weight= 264289, color= 0
	 item 20, weight= 267105, color= 0
	 item 21, weight= 269581, color= 0
	 item 22, weight= 271241, color= 1
	 item 23, weight= 273233, color= 0
	 item 24, weight= 273256, color= 0
	 item 25, weight= 273967, color= 0
	 item 26, weight= 276041, color= 0
	 item 27, weight= 276380, color= 1
	 item 28, weight= 277766, color= 0
	 item 29, weight= 278477, color= 1
	 item 30, weight= 278550, color= 0
	 item 31, weight= 280417, color= 0
	 item 32, weight= 281514, color= 1
	 item 33, weight= 281808, color= 0
	 item 34, weight= 282700, color= 0
	 item 35, weight= 283378, color= 1
	 item 36, weight= 284235, color= 1
	 item 37, weight= 284371, color= 1
	 item 38, weight= 287601, color= 0
	 item 39, weight= 288045, color= 1
	 item 40, weight= 289478, color= 1
	 item 41, weight= 295338, color= 1
	 item 42, weight= 302605, color= 0
	 item 43, weight= 305009, color= 0
	 item 44, weight= 306454, color= 0
	 item 45, weight= 307000, color= 1
	 item 46, weight= 307175, color= 0
	 item 47, weight= 307402, color= 1
	 item 48, weight= 308123, color= 1
	 item 49, weight= 310808, color= 0
	 item 50, weight= 313051, color= 1
	 item 51, weight= 315545, color= 1
	 item 52, weight= 315903, color= 1
	 item 53, weight= 316096, color= 1
	 item 54, weight= 316374, color= 0
	 item 55, weight= 317563, color= 1
	 item 56, weight= 324995, color= 1
	 item 57, weight= 327836, color= 1
	 item 58, weight= 327975, color= 1
	 item 59, weight= 331056, color= 1
	 item 60, weight= 332989, color= 1
	 item 61, weight= 335039, color= 1
	 item 62, weight= 337061, color= 1
	 item 63, weight= 338434, color= 1
	 item 64, weight= 339695, color= 1
	 item 65, weight= 339991, color= 1
	 item 66, weight= 343636, color= 1
	 item 67, weight= 349872, color= 1
	 item 68, weight= 355113, color= 1
	 item 69, weight= 355802, color= 1
	 item 70, weight= 357787, color= 1
	 item 71, weight= 365743, color= 1
	 item 72, weight= 371630, color= 1
	 item 73, weight= 376896, color= 1
	 item 74, weight= 379447, color= 1
	 item 75, weight= 381132, color= 1
	 item 76, weight= 381493, color= 1
	 item 77, weight= 383632, color= 1
	 item 78, weight= 385457, color= 1
	 item 79, weight= 386339, color= 1
	 item 80, weight= 389326, color= 1
	 item 81, weight= 390395, color= 1
	 item 82, weight= 405400, color= 1
	 item 83, weight= 407901, color= 1
	 item 84, weight= 409534, color= 1
	 item 85, weight= 410493, color= 1
	 item 86, weight= 410649, color= 1
	 item 87, weight= 415837, color= 1
	 item 88, weight= 417369, color= 1
	 item 89, weight= 435349, color= 1
	 item 90, weight= 437665, color= 1
	 item 91, weight= 438857, color= 1
	 item 92, weight= 446234, color= 1
	 item 93, weight= 446764, color= 1
	 item 94, weight= 457630, color= 1
	 item 95, weight= 461773, color= 1
	 item 96, weight= 462366, color= 1
	 item 97, weight= 463530, color= 1
	 item 98, weight= 467080, color= 1
	 item 99, weight= 477808, color= 1
	 item 100, weight= 496293, color= 1
	 item 101, weight= 496451, color= 1
	 item 102, weight= 499234, color= 1

VRPSolver warning: Interval set for resource 1 on source node (when source != sink) is ignored (by definition is [0.0,0.0])
VRPSolver warning: Interval set for resource 2 on source node (when source != sink) is ignored (by definition is [0.0,0.0])
VRPSolver warning: Interval set for resource 3 on source node (when source != sink) is ignored (by definition is [0.0,0.0])
[41m solve [00m
~~~~~~~~~~~~~~~~~~~~~~~~~~~~~~~~~~~~~~~~~~~~~~~~~~~~~~~~~~~~~~~~~~~~~~~~~~~~~~
VRPSolver v0.4.1, 24/03/2021. Web: vrpsolver.math.u-bordeaux.fr
Corresponds to the solver by Pessoa, Sadykov, Uchoa and Vanderbeck (2020)
Paper: dx.doi.org/10.1007/s10107-020-01523-z
USE THIS CODE ONLY FOR ACADEMIC PURPOSES AT YOUR OWN RISK
~~~~~~~~~~~~~~~~~~~~~~~~~~~~~~~~~~~~~~~~~~~~~~~~~~~~~~~~~~~~~~~~~~~~~~~~~~~~~~
BaPCod v053, 24/03/2021, © Inria Bordeaux, France
~~~~~~~~~~~~~~~~~~~~~~~~~~~~~~~~~~~~~~~~~~~~~~~~~~~~~~~~~~~~~~~~~~~~~~~~~~~~~~
VRPSolver parameters:
GlobalTimeLimit = 60
MaxNbOfBBtreeNodeTreated = 100000
treeSearchStrategy = 1
RCSPstopCutGenTimeThresholdInPricing = 10
RCSPhardTimeThresholdInPricing = 20
RCSPnumberOfBucketsPerVertex = 2000
RCSPdynamicBucketSteps = 0
RCSPuseBidirectionalSearch = 1
RCSPapplyReducedCostFixing = 1
RCSPredCostFixingFalseGap = 0
RCSPmaxNumOfColsPerIteration = 100
RCSPmaxNumOfColsPerExactIteration = 100
RCSPheurLabelingStrategy = 4
StabilizationMinPhaseOfStage = 1
RCSPmaxNumOfLabelsInEnumeration = 100000
RCSPmaxNumOfEnumeratedSolutions = 1000000
RCSPmaxNumOfEnumSolutionsForMIP = 100000
RCSPinitNGneighbourhoodSize = 0
RCSPmaxNGneighbourhoodSize = 0
RCSPrankOneCutsMaxNumPerRound = 100
RCSPrankOneCutsMaxNumRows = -1
RCSPrankOneCutsMemoryType = 2
CutTailingOffThreshold = 0.02
CutTailingOffCounterThreshold = 3
SafeDualBoundScaleFactor = -1
StrongBranchingPhaseOneCandidatesNumber = 100
StrongBranchingPhaseOneTreeSizeEstimRatio = 0.3
StrongBranchingPhaseTwoCandidatesNumber = 1
StrongBranchingPhaseTwoTreeSizeEstimRatio = 0.1
MaxTimeForRestrictedMasterIpHeur = -1
DivingHeurUseDepthLimit = 0
MaxLDSbreadth = 3
MaxLDSdepth = 2
New model incumbent solution 1e+06, TIME = 0h0m0s3t = 3
Model is built TIME = 0h0m1s58t = 158
************************************************************************************************
**** BaB tree root node
**** Local DB = -1e+12, global bounds : [ -1e+12 , 1e+06 ], TIME = 0h0m1s58t = 158
**** 1 open nodes, 0 columns (0 active), 0 dyn. constrs. (0 active), 206 art. vars. (206 active)
************************************************************************************************
<DWph=2> <it= 10> <et=1.96> <Mt= 0.00> <Spt= 0.37> <nCl=1000> <DB=-263070643.0052> <Mlp=28080027.1333> <PB=1000000> 
<DWph=2> <it= 20> <et=2.39> <Mt= 0.02> <Spt= 0.41> <nCl=782> <DB=   -0.7275> <Mlp=   35.1429> <PB=1000000> 
<DWph=2> <it= 30> <et=2.80> <Mt= 0.02> <Spt= 0.39> <nCl=548> <DB=   32.9791> <Mlp=   34.0531> <PB=1000000> 
<DWph=2> <it= 35> <et=3.09> <Mt= 0.01> <Spt= 0.28> <nCl= 21> <DB=   34.0393> <Mlp=   34.0393> <PB=1000000> 
<DWph=1> <it= 40> <et=3.32> <Mt= 0.01> <Spt= 0.22> <nCl=137> <DB=   33.9731> <Mlp=   34.0000> <PB=34> 
<DWph=1> <it= 41> <et=3.41> <Mt= 0.00> <Spt= 0.09> <nCl=  0> <DB=   34.0000> <Mlp=   34.0000> <PB=34> 
<DWph=0> <it= 42> <et=3.46> <Mt= 0.00> <Spt= 0.04> <nCl=  0> <DB=   34.0000> <Mlp=   34.0000> <PB=34> 
ColGenEvalAlg final dual bound: 34 (rounded: 34)
New model incumbent solution 34, TIME = 0h0m3s49t = 349
************************************************************************************************
Search is finished, global bounds : [ 34 , 34 ], TIME = 0h0m3s49t = 349
************************************************************************************************
[32mBaPCod : solution defined.[00m
statistics_cols: instance & :Optimal & cutoff & :bcRecRootDb & :bcTimeRootEval & :bcCountNodeProc & :bcRecBestDb & :bcRecBestInc & :bcTimeMain \\
statistics: N102W1000001R2550Q2Half-001 & 1 & 1.0e6 & 34.00 & 3.49 & 1 & 34.00 & 34 & 3.49 \\
########################################################
bin_id=1: 261672(0) 327836(1) 410493(1) 
bin_id=2: 250183(0) 288045(1) 461773(1) 
bin_id=3: 250952(0) 271241(1) 477808(1) 
bin_id=4: 250302(0) 250465(1) 499234(1) 
bin_id=5: 263894(0) 278477(1) 457630(1) 
bin_id=6: 273256(0) 316096(1) 410649(1) 
bin_id=7: 269581(0) 313051(1) 417369(1) 
bin_id=8: 256541(0) 276380(1) 467080(1) 
bin_id=9: 282700(0) 327975(1) 389326(1) 
bin_id=10: 256121(0) 281514(1) 462366(1) 
bin_id=11: 264289(0) 289478(1) 446234(1) 
bin_id=12: 305009(0) 315545(1) 379447(1) 
bin_id=13: 257899(0) 295338(1) 446764(1) 
bin_id=14: 278550(0) 331056(1) 390395(1) 
bin_id=15: 280417(0) 284235(1) 435349(1) 
bin_id=16: 316374(0) 339991(1) 343636(1) 
bin_id=17: 257478(0) 332989(1) 409534(1) 
bin_id=18: 306454(0) 338434(1) 355113(1) 
bin_id=19: 277766(0) 283378(1) 438857(1) 
bin_id=20: 254934(0) 307402(1) 437665(1) 
bin_id=21: 287601(0) 307000(1) 405400(1) 
bin_id=22: 310808(0) 317563(1) 371630(1) 
bin_id=23: 252100(0) 284371(1) 463530(1) 
bin_id=24: 273967(0) 339695(1) 386339(1) 
bin_id=25: 267105(0) 324995(1) 407901(1) 
bin_id=26: 302605(0) 315903(1) 381493(1) 
bin_id=27: 251818(0) 251890(1) 496293(1) 
bin_id=28: 276041(0) 308123(1) 415837(1) 
bin_id=29: 307175(0) 335039(1) 357787(1) 
bin_id=30: 281808(0) 337061(1) 381132(1) 
bin_id=31: 273233(0) 349872(1) 376896(1) 
bin_id=32: 258742(0) 355802(1) 385457(1) 
bin_id=33: 250626(0) 365743(1) 383632(1) 
bin_id=34: 251638(0) 251912(1) 496451(1) 
Objective value: 34.0
########################################################
