Academic license - for non-commercial use only - expires 2025-02-09
Gurobi Optimizer version 9.1.2 build v9.1.2rc0 (linux64)
Thread count: 20 physical cores, 40 logical processors, using up to 1 threads
Optimize a model with 11643 rows, 484040 columns and 1427100 nonzeros
Model fingerprint: 0xa5427467
Variable types: 0 continuous, 484040 integer (0 binary)
Coefficient statistics:
  Matrix range     [1e+00, 1e+00]
  Objective range  [1e+00, 1e+00]
  Bounds range     [1e+02, 1e+02]
  RHS range        [1e+00, 1e+00]

Warning: Completing partial solution with 483898 unfixed non-continuous variables out of 484040
User MIP start produced solution with objective 40 (0.60s)
Loaded user MIP start with objective 40

Presolve removed 8078 rows and 260906 columns (presolve time = 7s) ...
Presolve removed 8078 rows and 260906 columns
Presolve time: 7.31s
Presolved: 3565 rows, 223134 columns, 454096 nonzeros
Found heuristic solution: objective 40.0000000
Variable types: 0 continuous, 223134 integer (223134 binary)

Root simplex log...

Iteration    Objective       Primal Inf.    Dual Inf.      Time
       0   -5.6015000e+04   1.114730e+05   0.000000e+00      8s
   10222    3.3778753e+01   4.246667e+02   0.000000e+00     10s
   18274    3.3778921e+01   4.267836e+02   0.000000e+00     15s
   26233    3.4000000e+01   0.000000e+00   0.000000e+00     19s

Root relaxation: objective 3.400000e+01, 26233 iterations, 10.75 seconds

    Nodes    |    Current Node    |     Objective Bounds      |     Work
 Expl Unexpl |  Obj  Depth IntInf | Incumbent    BestBd   Gap | It/Node Time

     0     0   34.00000    0   48   40.00000   34.00000  15.0%     -   19s
H    0     0                      35.0000000   34.00000  2.86%     -   20s
H    0     0                      34.0000000   34.00000  0.00%     -   20s
     0     0   34.00000    0   48   34.00000   34.00000  0.00%     -   20s

Explored 1 nodes (38145 simplex iterations) in 20.47 seconds
Thread count was 1 (of 40 available processors)

Solution count 4: 34 35 40 40 

Optimal solution found (tolerance 1.00e-04)
Best objective 3.400000000000e+01, best bound 3.400000000000e+01, gap 0.0000%
1	484040	11643	1	34	34	21.2
