Academic license - for non-commercial use only - expires 2025-02-09
Gurobi Optimizer version 9.1.2 build v9.1.2rc0 (linux64)
Thread count: 20 physical cores, 40 logical processors, using up to 1 threads
Optimize a model with 48359 rows, 318278 columns and 7037299 nonzeros
Model fingerprint: 0xebe0ba96
Variable types: 0 continuous, 318278 integer (0 binary)
Coefficient statistics:
  Matrix range     [1e+00, 1e+00]
  Objective range  [1e+00, 1e+00]
  Bounds range     [2e+02, 2e+02]
  RHS range        [1e+00, 1e+00]

Warning: Completing partial solution with 318018 unfixed non-continuous variables out of 318278
User MIP start produced solution with objective 83 (2.69s)
Loaded user MIP start with objective 83
Processed MIP start in 2.71 seconds

Presolve removed 1 rows and 1 columns (presolve time = 5s) ...
Presolve removed 1 rows and 53 columns (presolve time = 10s) ...
Presolve removed 1661 rows and 267 columns (presolve time = 15s) ...
Presolve removed 1663 rows and 285 columns (presolve time = 20s) ...
Presolve removed 1663 rows and 285 columns
Presolve time: 24.21s
Presolved: 46696 rows, 317993 columns, 6955302 nonzeros
Variable types: 0 continuous, 317993 integer (315648 binary)

Root simplex log...

Iteration    Objective       Primal Inf.    Dual Inf.      Time
       0    0.0000000e+00   2.542500e+02   0.000000e+00     30s
    3860    9.2993733e-05   1.275259e+03   0.000000e+00     35s
    5611    1.2621334e-04   1.706976e+03   0.000000e+00     40s
    6913    1.4298837e-04   2.662503e+03   0.000000e+00     45s
    8208    1.6458346e-04   1.798546e+03   0.000000e+00     50s
    9493    1.9869612e-04   4.696044e+03   0.000000e+00     55s

Root relaxation: time limit, 10781 iterations, 31.56 seconds

    Nodes    |    Current Node    |     Objective Bounds      |     Work
 Expl Unexpl |  Obj  Depth IntInf | Incumbent    BestBd   Gap | It/Node Time

     0     0          -    0        83.00000    0.00000   100%     -   59s

Explored 0 nodes (10781 simplex iterations) in 59.15 seconds
Thread count was 1 (of 40 available processors)

Solution count 1: 83 

Time limit reached
Best objective 8.300000000000e+01, best bound 0.000000000000e+00, gap 100.0000%
0	318278	48359	0	0	83	60.838
