Academic license - for non-commercial use only - expires 2025-02-09
Gurobi Optimizer version 9.1.2 build v9.1.2rc0 (linux64)
Thread count: 20 physical cores, 40 logical processors, using up to 1 threads
Optimize a model with 47916 rows, 2104153 columns and 16749577 nonzeros
Model fingerprint: 0xde302567
Variable types: 0 continuous, 2104153 integer (0 binary)
Coefficient statistics:
  Matrix range     [1e+00, 1e+00]
  Objective range  [1e+00, 1e+00]
  Bounds range     [4e+02, 4e+02]
  RHS range        [1e+00, 1e+00]

Warning: Completing partial solution with 2103632 unfixed non-continuous variables out of 2104153
User MIP start produced solution with objective 164 (7.76s)
Loaded user MIP start with objective 164
Processed MIP start in 7.89 seconds

Presolve removed 1 rows and 1 columns (presolve time = 6s) ...
Presolve removed 1 rows and 1 columns (presolve time = 10s) ...
Presolve removed 1 rows and 1 columns (presolve time = 16s) ...
Presolve removed 1 rows and 1 columns (presolve time = 20s) ...
Presolve removed 259 rows and 788 columns (presolve time = 25s) ...
Presolve removed 285 rows and 2395 columns (presolve time = 30s) ...
Presolve removed 285 rows and 2395 columns (presolve time = 35s) ...
Presolve removed 294 rows and 2404 columns (presolve time = 40s) ...
Presolve removed 296 rows and 2572 columns (presolve time = 47s) ...
Presolve removed 296 rows and 2572 columns
Presolve time: 47.33s

Explored 0 nodes (0 simplex iterations) in 55.72 seconds
Thread count was 1 (of 40 available processors)

Solution count 1: 164 

Time limit reached
Best objective 1.640000000000e+02, best bound -, gap -
0	2104153	47916	0	-1e+100	164	62.022
