Academic license - for non-commercial use only - expires 2025-02-09
Gurobi Optimizer version 9.1.2 build v9.1.2rc0 (linux64)
Thread count: 20 physical cores, 40 logical processors, using up to 1 threads
Optimize a model with 151088 rows, 1902056 columns and 42916035 nonzeros
Model fingerprint: 0x6a0189dc
Variable types: 0 continuous, 1902056 integer (0 binary)
Coefficient statistics:
  Matrix range     [1e+00, 1e+00]
  Objective range  [1e+00, 1e+00]
  Bounds range     [4e+02, 4e+02]
  RHS range        [1e+00, 1e+00]

Warning: Completing partial solution with 1901538 unfixed non-continuous variables out of 1902056
User MIP start produced solution with objective 165 (20.06s)
Loaded user MIP start with objective 165
Processed MIP start in 20.19 seconds

Presolve removed 0 rows and 0 columns (presolve time = 8s) ...
Presolve removed 0 rows and 0 columns (presolve time = 11s) ...
Presolve removed 1 rows and 1 columns (presolve time = 16s) ...
Presolve removed 1 rows and 1 columns (presolve time = 27s) ...
Presolve removed 1 rows and 1 columns (presolve time = 30s) ...
Presolve removed 1 rows and 1 columns
Presolve time: 31.67s

Explored 0 nodes (0 simplex iterations) in 52.39 seconds
Thread count was 1 (of 40 available processors)

Solution count 1: 165 

Time limit reached
Best objective 1.650000000000e+02, best bound -, gap -
0	1902056	151088	0	-1e+100	165	63.495
