Academic license - for non-commercial use only - expires 2025-02-09
Gurobi Optimizer version 9.1.2 build v9.1.2rc0 (linux64)
Thread count: 20 physical cores, 40 logical processors, using up to 1 threads
Optimize a model with 44547 rows, 1953048 columns and 15546505 nonzeros
Model fingerprint: 0x71438648
Variable types: 0 continuous, 1953048 integer (0 binary)
Coefficient statistics:
  Matrix range     [1e+00, 1e+00]
  Objective range  [1e+00, 1e+00]
  Bounds range     [4e+02, 4e+02]
  RHS range        [1e+00, 1e+00]

Warning: Completing partial solution with 1952527 unfixed non-continuous variables out of 1953048
User MIP start produced solution with objective 165 (6.57s)
Loaded user MIP start with objective 165
Processed MIP start in 6.66 seconds

Presolve removed 1 rows and 1 columns (presolve time = 5s) ...
Presolve removed 1 rows and 1 columns (presolve time = 10s) ...
Presolve removed 1 rows and 1 columns (presolve time = 15s) ...
Presolve removed 1 rows and 732 columns (presolve time = 20s) ...
Presolve removed 273 rows and 1137 columns (presolve time = 27s) ...
Presolve removed 273 rows and 1137 columns (presolve time = 30s) ...
Presolve removed 294 rows and 1158 columns (presolve time = 36s) ...
Presolve removed 294 rows and 1415 columns (presolve time = 41s) ...
Presolve removed 298 rows and 1415 columns (presolve time = 45s) ...
Presolve removed 298 rows and 1415 columns
Presolve time: 49.27s

Explored 0 nodes (0 simplex iterations) in 56.18 seconds
Thread count was 1 (of 40 available processors)

Solution count 1: 165 

Time limit reached
Best objective 1.650000000000e+02, best bound -, gap -
0	1953048	44547	0	-1e+100	165	61.966
