Academic license - for non-commercial use only - expires 2025-02-09
Gurobi Optimizer version 9.1.2 build v9.1.2rc0 (linux64)
Thread count: 20 physical cores, 40 logical processors, using up to 1 threads
Optimize a model with 263074 rows, 4959987 columns and 112331476 nonzeros
Model fingerprint: 0x8f3c40a8
Variable types: 0 continuous, 4959987 integer (0 binary)
Coefficient statistics:
  Matrix range     [1e+00, 1e+00]
  Objective range  [1e+00, 1e+00]
  Bounds range     [6e+02, 6e+02]
  RHS range        [1e+00, 1e+00]

Warning: Completing partial solution with 4959230 unfixed non-continuous variables out of 4959987
User MIP start produced solution with objective 244 (92.11s)
Loaded user MIP start with objective 244
Processed MIP start in 93.73 seconds

Presolve removed 0 rows and 0 columns (presolve time = 15s) ...
Presolve time: 14.93s

Explored 0 nodes (0 simplex iterations) in 110.11 seconds
Thread count was 1 (of 40 available processors)

Solution count 1: 244 

Time limit reached
Best objective 2.440000000000e+02, best bound -, gap -
0	4959987	263074	0	-1e+100	244	142.664
