Academic license - for non-commercial use only - expires 2025-02-09
Gurobi Optimizer version 9.1.2 build v9.1.2rc0 (linux64)
Thread count: 20 physical cores, 40 logical processors, using up to 1 threads
Optimize a model with 92657 rows, 6058831 columns and 48212988 nonzeros
Model fingerprint: 0xbef1ddfe
Variable types: 0 continuous, 6058831 integer (0 binary)
Coefficient statistics:
  Matrix range     [1e+00, 1e+00]
  Objective range  [1e+00, 1e+00]
  Bounds range     [6e+02, 6e+02]
  RHS range        [1e+00, 1e+00]

Warning: Completing partial solution with 6058067 unfixed non-continuous variables out of 6058831
User MIP start produced solution with objective 247 (27.18s)
Loaded user MIP start with objective 247
Processed MIP start in 28.07 seconds

Presolve removed 0 rows and 0 columns (presolve time = 5s) ...
Presolve removed 0 rows and 0 columns (presolve time = 12s) ...
Presolve removed 1 rows and 1 columns (presolve time = 17s) ...
Presolve removed 1 rows and 1 columns
Presolve time: 17.43s

Explored 0 nodes (0 simplex iterations) in 46.26 seconds
Thread count was 1 (of 40 available processors)

Solution count 1: 247 

Time limit reached
Best objective 2.470000000000e+02, best bound -, gap -
0	6058831	92657	0	-1e+100	247	67.198
