Academic license - for non-commercial use only - expires 2025-02-09
Gurobi Optimizer version 9.1.2 build v9.1.2rc0 (linux64)
Thread count: 20 physical cores, 40 logical processors, using up to 1 threads
Optimize a model with 89759 rows, 5860637 columns and 46685166 nonzeros
Model fingerprint: 0xf1c98712
Variable types: 0 continuous, 5860637 integer (0 binary)
Coefficient statistics:
  Matrix range     [1e+00, 1e+00]
  Objective range  [1e+00, 1e+00]
  Bounds range     [6e+02, 6e+02]
  RHS range        [1e+00, 1e+00]

Warning: Completing partial solution with 5859863 unfixed non-continuous variables out of 5860637
User MIP start produced solution with objective 245 (26.36s)
Loaded user MIP start with objective 245
Processed MIP start in 27.40 seconds

Presolve removed 0 rows and 0 columns (presolve time = 5s) ...
Presolve removed 0 rows and 0 columns (presolve time = 12s) ...
Presolve removed 1 rows and 1 columns (presolve time = 17s) ...
Presolve removed 1 rows and 1 columns
Presolve time: 16.78s

Explored 0 nodes (0 simplex iterations) in 44.90 seconds
Thread count was 1 (of 40 available processors)

Solution count 1: 245 

Time limit reached
Best objective 2.450000000000e+02, best bound -, gap -
0	5860637	89759	0	-1e+100	245	65.539
