Academic license - for non-commercial use only - expires 2025-02-09
Gurobi Optimizer version 9.1.2 build v9.1.2rc0 (linux64)
Thread count: 20 physical cores, 40 logical processors, using up to 1 threads
Optimize a model with 293214 rows, 5461036 columns and 123624514 nonzeros
Model fingerprint: 0x01cb2992
Variable types: 0 continuous, 5461036 integer (0 binary)
Coefficient statistics:
  Matrix range     [1e+00, 1e+00]
  Objective range  [1e+00, 1e+00]
  Bounds range     [6e+02, 6e+02]
  RHS range        [1e+00, 1e+00]

Warning: Completing partial solution with 5460271 unfixed non-continuous variables out of 5461036
User MIP start produced solution with objective 245 (96.44s)
Loaded user MIP start with objective 245
Processed MIP start in 98.17 seconds

