Academic license - for non-commercial use only - expires 2025-02-09
Gurobi Optimizer version 9.1.2 build v9.1.2rc0 (linux64)
Thread count: 20 physical cores, 40 logical processors, using up to 1 threads
Optimize a model with 380788 rows, 7135619 columns and 161689448 nonzeros
Model fingerprint: 0x9a97d9ac
Variable types: 0 continuous, 7135619 integer (0 binary)
Coefficient statistics:
  Matrix range     [1e+00, 1e+00]
  Objective range  [1e+00, 1e+00]
  Bounds range     [6e+02, 6e+02]
  RHS range        [1e+00, 1e+00]

Warning: Completing partial solution with 7134849 unfixed non-continuous variables out of 7135619
