Academic license - for non-commercial use only - expires 2025-02-09
Gurobi Optimizer version 9.1.2 build v9.1.2rc0 (linux64)
Thread count: 20 physical cores, 40 logical processors, using up to 1 threads
Optimize a model with 298936 rows, 5608206 columns and 127179693 nonzeros
Model fingerprint: 0xd6a58c70
Variable types: 0 continuous, 5608206 integer (0 binary)
Coefficient statistics:
  Matrix range     [1e+00, 1e+00]
  Objective range  [1e+00, 1e+00]
  Bounds range     [6e+02, 6e+02]
  RHS range        [1e+00, 1e+00]

Warning: Completing partial solution with 5607434 unfixed non-continuous variables out of 5608206
User MIP start produced solution with objective 245 (103.61s)
Loaded user MIP start with objective 245
Processed MIP start in 105.48 seconds

