Academic license - for non-commercial use only - expires 2025-02-09
Gurobi Optimizer version 9.1.2 build v9.1.2rc0 (linux64)
Thread count: 20 physical cores, 40 logical processors, using up to 1 threads
Optimize a model with 315209 rows, 5920666 columns and 134282686 nonzeros
Model fingerprint: 0x7c13e1df
Variable types: 0 continuous, 5920666 integer (0 binary)
Coefficient statistics:
  Matrix range     [1e+00, 1e+00]
  Objective range  [1e+00, 1e+00]
  Bounds range     [6e+02, 6e+02]
  RHS range        [1e+00, 1e+00]

Warning: Completing partial solution with 5919889 unfixed non-continuous variables out of 5920666
User MIP start produced solution with objective 247 (107.95s)
Loaded user MIP start with objective 247
Processed MIP start in 109.91 seconds

