Academic license - for non-commercial use only - expires 2025-02-09
Gurobi Optimizer version 9.1.2 build v9.1.2rc0 (linux64)
Thread count: 20 physical cores, 40 logical processors, using up to 1 threads
Optimize a model with 1633 rows, 31647 columns and 91787 nonzeros
Model fingerprint: 0x993b83aa
Variable types: 0 continuous, 31647 integer (0 binary)
Coefficient statistics:
  Matrix range     [1e+00, 1e+00]
  Objective range  [1e+00, 1e+00]
  Bounds range     [1e+02, 1e+02]
  RHS range        [1e+00, 1e+00]

Warning: Completing partial solution with 31499 unfixed non-continuous variables out of 31647
User MIP start produced solution with objective 55 (0.03s)
Loaded user MIP start with objective 55

Presolve removed 346 rows and 6294 columns
Presolve time: 0.52s
Presolved: 1287 rows, 25353 columns, 68002 nonzeros
Variable types: 0 continuous, 25353 integer (25353 binary)

Root relaxation: cutoff, 3105 iterations, 0.14 seconds

    Nodes    |    Current Node    |     Objective Bounds      |     Work
 Expl Unexpl |  Obj  Depth IntInf | Incumbent    BestBd   Gap | It/Node Time

     0     0     cutoff    0        55.00000   55.00000  0.00%     -    0s

Explored 0 nodes (3105 simplex iterations) in 0.70 seconds
Thread count was 1 (of 40 available processors)

Solution count 1: 55 

Optimal solution found (tolerance 1.00e-04)
Best objective 5.500000000000e+01, best bound 5.500000000000e+01, gap 0.0000%
1	31647	1633	0	55	55	0.795
