Academic license - for non-commercial use only - expires 2025-02-09
Gurobi Optimizer version 9.1.2 build v9.1.2rc0 (linux64)
Thread count: 20 physical cores, 40 logical processors, using up to 1 threads
Optimize a model with 3792 rows, 886495 columns and 2653902 nonzeros
Model fingerprint: 0xa3cd0c32
Variable types: 0 continuous, 886495 integer (0 binary)
Coefficient statistics:
  Matrix range     [1e+00, 1e+00]
  Objective range  [1e+00, 1e+00]
  Bounds range     [2e+03, 2e+03]
  RHS range        [1e+00, 1e+00]

Warning: Completing partial solution with 884314 unfixed non-continuous variables out of 886495
User MIP start produced solution with objective 969 (1.04s)
Loaded user MIP start with objective 969
Processed MIP start in 1.06 seconds

Presolve removed 313 rows and 43963 columns (presolve time = 6s) ...
Presolve removed 313 rows and 43963 columns
Presolve time: 6.33s
Presolved: 3479 rows, 842532 columns, 2329044 nonzeros
Variable types: 0 continuous, 842532 integer (842532 binary)

Root simplex log...

Iteration    Objective       Primal Inf.    Dual Inf.      Time
       0   -6.0200000e+02   3.205000e+03   0.000000e+00      8s
    5476    8.6000783e+01   5.715930e+03   0.000000e+00     10s
    8236    8.6002624e+01   2.676834e+04   0.000000e+00     15s
   10076    8.6006467e+01   5.362783e+04   0.000000e+00     20s
   11516    8.6015614e+01   1.619689e+05   0.000000e+00     25s
   12716    8.6035664e+01   4.651970e+05   0.000000e+00     30s
   13756    8.6078206e+01   7.014994e+05   0.000000e+00     35s
   14756    8.6159830e+01   8.260314e+05   0.000000e+00     40s
   15716    8.6290954e+01   1.660820e+06   0.000000e+00     45s
   16996    8.6608312e+01   4.609494e+06   0.000000e+00     50s
   19796    2.6135041e+02   7.965741e+04   0.000000e+00     55s

Root relaxation: time limit, 21038 iterations, 50.27 seconds

    Nodes    |    Current Node    |     Objective Bounds      |     Work
 Expl Unexpl |  Obj  Depth IntInf | Incumbent    BestBd   Gap | It/Node Time

     0     0          -    0       969.00000 -52119.000  5479%     -   58s

Explored 0 nodes (21038 simplex iterations) in 58.05 seconds
Thread count was 1 (of 40 available processors)

Solution count 1: 969 

Time limit reached
Best objective 9.690000000000e+02, best bound -5.211900000000e+04, gap 5478.6378%
0	886495	3792	0	-52119	969	60.407
