Academic license - for non-commercial use only - expires 2025-02-09
Gurobi Optimizer version 9.1.2 build v9.1.2rc0 (linux64)
Thread count: 20 physical cores, 40 logical processors, using up to 1 threads
Optimize a model with 5966 rows, 260244 columns and 1294286 nonzeros
Model fingerprint: 0x19517b72
Variable types: 0 continuous, 260244 integer (0 binary)
Coefficient statistics:
  Matrix range     [1e+00, 1e+00]
  Objective range  [1e+00, 1e+00]
  Bounds range     [2e+02, 2e+02]
  RHS range        [1e+00, 1e+00]

Warning: Completing partial solution with 259915 unfixed non-continuous variables out of 260244
User MIP start produced solution with objective 132 (0.45s)
Loaded user MIP start with objective 132

Presolve removed 213 rows and 4895 columns
Presolve time: 4.51s
Presolved: 5753 rows, 255349 columns, 1249391 nonzeros
Variable types: 0 continuous, 255349 integer (253526 binary)

Root simplex log...

Iteration    Objective       Primal Inf.    Dual Inf.      Time
       0    0.0000000e+00   2.020000e+02   0.000000e+00      5s
    8172    6.0000051e+01   4.549048e+02   0.000000e+00     10s
   11592    6.1000111e+01   9.546226e+02   0.000000e+00     15s
   13912    6.4000118e+01   1.218761e+03   0.000000e+00     20s
   15172    6.4000135e+01   8.968483e+02   0.000000e+00     25s
   16442    6.4000150e+01   3.043052e+02   0.000000e+00     30s
   18762    6.4000245e+01   1.062796e+03   0.000000e+00     35s
   23212    6.4000419e+01   2.414883e+03   0.000000e+00     40s
   27462    6.4000564e+01   1.790515e+03   0.000000e+00     45s
   31562    6.4000707e+01   2.111367e+03   0.000000e+00     50s
   35562    6.4000851e+01   2.684188e+03   0.000000e+00     55s
   39262    6.4000996e+01   1.951134e+04   0.000000e+00     60s

Root relaxation: time limit, 39262 iterations, 54.89 seconds

    Nodes    |    Current Node    |     Objective Bounds      |     Work
 Expl Unexpl |  Obj  Depth IntInf | Incumbent    BestBd   Gap | It/Node Time

     0     0          -    0       132.00000    0.00000   100%     -   60s

Explored 0 nodes (39262 simplex iterations) in 60.02 seconds
Thread count was 1 (of 40 available processors)

Solution count 1: 132 

Time limit reached
Best objective 1.320000000000e+02, best bound 0.000000000000e+00, gap 100.0000%
0	260244	5966	0	0	132	60.551
