Academic license - for non-commercial use only - expires 2025-02-09
Gurobi Optimizer version 9.1.2 build v9.1.2rc0 (linux64)
Thread count: 20 physical cores, 40 logical processors, using up to 1 threads
Optimize a model with 6761 rows, 290806 columns and 1443464 nonzeros
Model fingerprint: 0xce25698b
Variable types: 0 continuous, 290806 integer (0 binary)
Coefficient statistics:
  Matrix range     [1e+00, 1e+00]
  Objective range  [1e+00, 1e+00]
  Bounds range     [2e+02, 2e+02]
  RHS range        [1e+00, 1e+00]

Warning: Completing partial solution with 290475 unfixed non-continuous variables out of 290806
User MIP start produced solution with objective 130 (0.52s)
Loaded user MIP start with objective 130

Presolve removed 461 rows and 12684 columns (presolve time = 5s) ...
Presolve removed 461 rows and 12684 columns
Presolve time: 5.33s
Presolved: 6300 rows, 278122 columns, 1337410 nonzeros
Variable types: 0 continuous, 278122 integer (276147 binary)

Root simplex log...

Iteration    Objective       Primal Inf.    Dual Inf.      Time
       0    0.0000000e+00   2.020000e+02   0.000000e+00      6s
    8983    5.8000023e+01   3.441708e+02   0.000000e+00     10s
   11995    6.4000051e+01   3.580483e+02   0.000000e+00     15s
   13273    6.4000066e+01   3.211330e+02   0.000000e+00     20s
   14647    6.4000107e+01   8.972380e+03   0.000000e+00     25s
   18651    6.4000247e+01   1.113753e+03   0.000000e+00     30s
   23435    6.4000436e+01   1.661412e+04   0.000000e+00     35s
   27543    6.4000585e+01   8.655123e+03   0.000000e+00     40s
   31807    6.4000751e+01   4.007883e+03   0.000000e+00     45s
   36019    6.4000937e+01   4.716725e+03   0.000000e+00     50s
   40127    6.4001135e+01   7.033043e+03   0.000000e+00     55s

Root relaxation: time limit, 44318 iterations, 53.95 seconds

    Nodes    |    Current Node    |     Objective Bounds      |     Work
 Expl Unexpl |  Obj  Depth IntInf | Incumbent    BestBd   Gap | It/Node Time

     0     0          -    0       130.00000    0.00000   100%     -   60s

Explored 0 nodes (44318 simplex iterations) in 60.06 seconds
Thread count was 1 (of 40 available processors)

Solution count 1: 130 

Time limit reached
Best objective 1.300000000000e+02, best bound 0.000000000000e+00, gap 100.0000%
0	290806	6761	0	0	130	60.656
