Academic license - for non-commercial use only - expires 2025-02-09
Gurobi Optimizer version 9.1.2 build v9.1.2rc0 (linux64)
Thread count: 20 physical cores, 40 logical processors, using up to 1 threads
Optimize a model with 6902 rows, 298027 columns and 1480999 nonzeros
Model fingerprint: 0x29dbb930
Variable types: 0 continuous, 298027 integer (0 binary)
Coefficient statistics:
  Matrix range     [1e+00, 1e+00]
  Objective range  [1e+00, 1e+00]
  Bounds range     [2e+02, 2e+02]
  RHS range        [1e+00, 1e+00]

Warning: Completing partial solution with 297696 unfixed non-continuous variables out of 298027
User MIP start produced solution with objective 130 (0.53s)
Loaded user MIP start with objective 130

Presolve removed 414 rows and 8536 columns (presolve time = 5s) ...
Presolve removed 414 rows and 8536 columns
Presolve time: 5.50s
Presolved: 6488 rows, 289491 columns, 1395535 nonzeros
Variable types: 0 continuous, 289491 integer (287450 binary)

Root simplex log...

Iteration    Objective       Primal Inf.    Dual Inf.      Time
       0    0.0000000e+00   2.020000e+02   0.000000e+00      6s
   11343    6.4000139e+01   2.979136e+02   0.000000e+00     10s
   12849    6.4000156e+01   5.099144e+02   0.000000e+00     15s
   14073    6.4000169e+01   2.946403e+02   0.000000e+00     20s
   15277    6.4000181e+01   3.741159e+02   0.000000e+00     25s
   16391    6.4000192e+01   1.695653e+02   0.000000e+00     30s
   17461    6.4000204e+01   9.630851e+02   0.000000e+00     35s
   21057    6.4000357e+01   5.130310e+02   0.000000e+00     40s
   24489    6.4000453e+01   4.305687e+03   0.000000e+00     45s
   27817    6.4000554e+01   3.075629e+03   0.000000e+00     50s
   31197    6.4000664e+01   1.312212e+03   0.000000e+00     55s

Root relaxation: time limit, 34665 iterations, 53.78 seconds

    Nodes    |    Current Node    |     Objective Bounds      |     Work
 Expl Unexpl |  Obj  Depth IntInf | Incumbent    BestBd   Gap | It/Node Time

     0     0          -    0       130.00000    0.00000   100%     -   60s

Explored 0 nodes (34665 simplex iterations) in 60.05 seconds
Thread count was 1 (of 40 available processors)

Solution count 1: 130 

Time limit reached
Best objective 1.300000000000e+02, best bound 0.000000000000e+00, gap 100.0000%
0	298027	6902	0	0	130	60.663
