Academic license - for non-commercial use only - expires 2025-02-09
Gurobi Optimizer version 9.1.2 build v9.1.2rc0 (linux64)
Thread count: 20 physical cores, 40 logical processors, using up to 1 threads
Optimize a model with 22950 rows, 1999674 columns and 9937392 nonzeros
Model fingerprint: 0xe644de0b
Variable types: 0 continuous, 1999674 integer (0 binary)
Coefficient statistics:
  Matrix range     [1e+00, 1e+00]
  Objective range  [1e+00, 1e+00]
  Bounds range     [4e+02, 4e+02]
  RHS range        [1e+00, 1e+00]

Warning: Completing partial solution with 1999009 unfixed non-continuous variables out of 1999674
User MIP start produced solution with objective 265 (4.27s)
Loaded user MIP start with objective 265
Processed MIP start in 4.34 seconds

Presolve removed 1 rows and 1 columns (presolve time = 6s) ...
Presolve removed 1 rows and 1 columns (presolve time = 10s) ...
Presolve removed 1 rows and 39735 columns (presolve time = 15s) ...
Presolve removed 1335 rows and 103310 columns (presolve time = 20s) ...
Presolve removed 2025 rows and 104000 columns (presolve time = 26s) ...
Presolve removed 2039 rows and 106594 columns (presolve time = 30s) ...
Presolve removed 2044 rows and 106608 columns (presolve time = 39s) ...
Presolve removed 2044 rows and 106608 columns (presolve time = 41s) ...
Presolve removed 2044 rows and 106608 columns
Presolve time: 41.11s
Presolved: 20906 rows, 1893066 columns, 9010154 nonzeros
Variable types: 0 continuous, 1893066 integer (1886455 binary)

Root simplex log...

Iteration    Objective       Primal Inf.    Dual Inf.      Time
       0    0.0000000e+00   4.030000e+02   0.000000e+00     52s
    9293    9.3999704e+01   2.924804e+03   0.000000e+00     55s

Root relaxation: time limit, 13177 iterations, 10.30 seconds

    Nodes    |    Current Node    |     Objective Bounds      |     Work
 Expl Unexpl |  Obj  Depth IntInf | Incumbent    BestBd   Gap | It/Node Time

     0     0          -    0       265.00000    0.00000   100%     -   57s

Explored 0 nodes (13177 simplex iterations) in 57.13 seconds
Thread count was 1 (of 40 available processors)

Solution count 1: 265 

Time limit reached
Best objective 2.650000000000e+02, best bound 0.000000000000e+00, gap 100.0000%
0	1999674	22950	0	0	265	61.679
