Academic license - for non-commercial use only - expires 2025-02-09
Gurobi Optimizer version 9.1.2 build v9.1.2rc0 (linux64)
Thread count: 20 physical cores, 40 logical processors, using up to 1 threads
Optimize a model with 45130 rows, 5879848 columns and 29245752 nonzeros
Model fingerprint: 0x4becb702
Variable types: 0 continuous, 5879848 integer (0 binary)
Coefficient statistics:
  Matrix range     [1e+00, 1e+00]
  Objective range  [1e+00, 1e+00]
  Bounds range     [6e+02, 6e+02]
  RHS range        [1e+00, 1e+00]

Warning: Completing partial solution with 5878850 unfixed non-continuous variables out of 5879848
User MIP start produced solution with objective 398 (13.76s)
Loaded user MIP start with objective 398
Processed MIP start in 13.95 seconds

Presolve removed 0 rows and 0 columns (presolve time = 6s) ...
Presolve removed 1 rows and 1 columns (presolve time = 11s) ...
Presolve removed 1 rows and 1 columns (presolve time = 18s) ...
Presolve removed 1 rows and 1 columns (presolve time = 20s) ...
Presolve removed 1 rows and 1 columns (presolve time = 25s) ...
Presolve removed 1 rows and 1 columns (presolve time = 30s) ...
Presolve removed 1 rows and 1 columns (presolve time = 36s) ...
Presolve removed 1 rows and 1 columns
Presolve time: 35.52s

Explored 0 nodes (0 simplex iterations) in 50.03 seconds
Thread count was 1 (of 40 available processors)

Solution count 1: 398 

Time limit reached
Best objective 3.980000000000e+02, best bound -, gap -
0	5879848	45130	0	-1e+100	398	65.548
