Academic license - for non-commercial use only - expires 2025-02-09
Gurobi Optimizer version 9.1.2 build v9.1.2rc0 (linux64)
Thread count: 20 physical cores, 40 logical processors, using up to 1 threads
Optimize a model with 54570 rows, 7073873 columns and 35199112 nonzeros
Model fingerprint: 0x569addad
Variable types: 0 continuous, 7073873 integer (0 binary)
Coefficient statistics:
  Matrix range     [1e+00, 1e+00]
  Objective range  [1e+00, 1e+00]
  Bounds range     [6e+02, 6e+02]
  RHS range        [1e+00, 1e+00]

Warning: Completing partial solution with 7072881 unfixed non-continuous variables out of 7073873
User MIP start produced solution with objective 396 (16.69s)
Loaded user MIP start with objective 396
Processed MIP start in 16.93 seconds

Presolve removed 0 rows and 0 columns (presolve time = 7s) ...
Presolve removed 1 rows and 1 columns (presolve time = 11s) ...
Presolve removed 1 rows and 1 columns (presolve time = 22s) ...
Presolve removed 1 rows and 1 columns (presolve time = 25s) ...
Presolve removed 1 rows and 1 columns
Presolve time: 27.88s

Explored 0 nodes (0 simplex iterations) in 45.45 seconds
Thread count was 1 (of 40 available processors)

Solution count 1: 396 

Time limit reached
Best objective 3.960000000000e+02, best bound -, gap -
0	7073873	54570	0	-1e+100	396	64.304
