Academic license - for non-commercial use only - expires 2025-02-09
Gurobi Optimizer version 9.1.2 build v9.1.2rc0 (linux64)
Thread count: 20 physical cores, 40 logical processors, using up to 1 threads
Optimize a model with 43192 rows, 5608206 columns and 27912071 nonzeros
Model fingerprint: 0x3acbd416
Variable types: 0 continuous, 5608206 integer (0 binary)
Coefficient statistics:
  Matrix range     [1e+00, 1e+00]
  Objective range  [1e+00, 1e+00]
  Bounds range     [6e+02, 6e+02]
  RHS range        [1e+00, 1e+00]

Warning: Completing partial solution with 5607211 unfixed non-continuous variables out of 5608206
User MIP start produced solution with objective 397 (13.15s)
Loaded user MIP start with objective 397
Processed MIP start in 13.33 seconds

Presolve removed 0 rows and 0 columns (presolve time = 6s) ...
Presolve removed 1 rows and 1 columns (presolve time = 10s) ...
Presolve removed 1 rows and 1 columns (presolve time = 18s) ...
Presolve removed 1 rows and 1 columns (presolve time = 20s) ...
Presolve removed 1 rows and 1 columns (presolve time = 25s) ...
Presolve removed 1 rows and 1 columns (presolve time = 35s) ...
Presolve removed 1 rows and 1 columns
Presolve time: 34.84s

Explored 0 nodes (0 simplex iterations) in 48.69 seconds
Thread count was 1 (of 40 available processors)

Solution count 1: 397 

Time limit reached
Best objective 3.970000000000e+02, best bound -, gap -
0	5608206	43192	0	-1e+100	397	63.503
