Academic license - for non-commercial use only - expires 2025-02-09
Gurobi Optimizer version 9.1.2 build v9.1.2rc0 (linux64)
Thread count: 20 physical cores, 40 logical processors, using up to 1 threads
Optimize a model with 808 rows, 41006 columns and 163418 nonzeros
Model fingerprint: 0x20922502
Variable types: 0 continuous, 41006 integer (41006 binary)
Coefficient statistics:
  Matrix range     [1e+00, 2e+03]
  Objective range  [1e+00, 1e+00]
  Bounds range     [1e+00, 1e+00]
  RHS range        [1e+00, 1e+00]

Loaded user MIP start with objective 73

Presolve added 404 rows and 404 columns
Presolve time: 0.20s
Presolved: 1212 rows, 41410 columns, 123826 nonzeros
Variable types: 0 continuous, 41410 integer (41006 binary)

Root relaxation: objective 6.500000e+01, 1409 iterations, 0.13 seconds

    Nodes    |    Current Node    |     Objective Bounds      |     Work
 Expl Unexpl |  Obj  Depth IntInf | Incumbent    BestBd   Gap | It/Node Time

     0     0   65.00000    0  185   73.00000   65.00000  11.0%     -    0s
H    0     0                      71.0000000   65.00000  8.45%     -    1s
     0     0   65.00000    0  321   71.00000   65.00000  8.45%     -    2s
H    0     0                      67.0000000   65.00000  2.99%     -    4s
     0     0   65.00000    0  305   67.00000   65.00000  2.99%     -    4s
     0     0   65.00000    0  219   67.00000   65.00000  2.99%     -    6s
     0     0   65.00000    0  209   67.00000   65.00000  2.99%     -    6s
     0     2   65.00000    0  208   67.00000   65.00000  2.99%     -    8s
    31    31   65.00000   19  221   67.00000   65.00000  2.99%   215   10s
    48    48   65.00000   30  198   67.00000   65.00000  2.99%   172   19s
    71    71   65.00000   49  228   67.00000   65.00000  2.99%   127   20s
   123   123   65.00000   91  243   67.00000   65.00000  2.99%   153   31s
   302   302   65.00000  227  227   67.00000   65.00000  2.99%   105   35s
H  392   342                      66.0000000   65.00000  1.52%  88.1   36s
   396   342   65.00000  113  220   66.00000   65.00000  1.52%  87.2   40s
   397   343   65.00000  153  227   66.00000   65.00000  1.52%  87.0   45s
   400   345   65.00000   75  333   66.00000   65.00000  1.52%  86.4   51s

Cutting planes:
  Gomory: 1
  Cover: 83
  Clique: 48
  MIR: 4
  StrongCG: 7
  Flow cover: 39
  Zero half: 14
  RLT: 58
  Relax-and-lift: 1

Explored 400 nodes (84103 simplex iterations) in 60.01 seconds
Thread count was 1 (of 40 available processors)

Solution count 4: 66 67 71 73 

Time limit reached
Best objective 6.600000000000e+01, best bound 6.500000000000e+01, gap 1.5152%
0	41006	808	400	65	66	60.11
