Academic license - for non-commercial use only - expires 2025-02-09
Gurobi Optimizer version 9.1.2 build v9.1.2rc0 (linux64)
Thread count: 20 physical cores, 40 logical processors, using up to 1 threads
Optimize a model with 808 rows, 41006 columns and 163418 nonzeros
Model fingerprint: 0x42789fcf
Variable types: 0 continuous, 41006 integer (41006 binary)
Coefficient statistics:
  Matrix range     [1e+00, 2e+03]
  Objective range  [1e+00, 1e+00]
  Bounds range     [1e+00, 1e+00]
  RHS range        [1e+00, 1e+00]

Loaded user MIP start with objective 82

Presolve added 404 rows and 404 columns
Presolve time: 0.20s
Presolved: 1212 rows, 41410 columns, 123826 nonzeros
Variable types: 0 continuous, 41410 integer (41006 binary)

Root relaxation: objective 6.500000e+01, 1475 iterations, 0.16 seconds

    Nodes    |    Current Node    |     Objective Bounds      |     Work
 Expl Unexpl |  Obj  Depth IntInf | Incumbent    BestBd   Gap | It/Node Time

     0     0   65.00000    0  206   82.00000   65.00000  20.7%     -    0s
H    0     0                      75.0000000   65.00000  13.3%     -    1s
H    0     0                      73.0000000   65.00000  11.0%     -    2s
H    0     0                      71.0000000   65.00000  8.45%     -    3s
     0     0   65.00000    0  328   71.00000   65.00000  8.45%     -    3s
H    0     0                      69.0000000   65.00000  5.80%     -    6s
     0     0   65.00000    0  316   69.00000   65.00000  5.80%     -    6s
     0     0   65.00000    0  281   69.00000   65.00000  5.80%     -    8s
     0     0   65.00000    0  275   69.00000   65.00000  5.80%     -    9s
     0     2   65.00000    0  263   69.00000   65.00000  5.80%     -   10s
H   40    38                      68.0000000   65.00000  4.41%   240   15s
   164   164   65.00000  119  225   68.00000   65.00000  4.41%  82.2   20s
H  319   317                      67.0000000   65.00000  2.99%  65.2   25s
   448   432   65.00000  332  188   67.00000   65.00000  2.99%  63.8   30s
   602   518   65.00000  404  180   67.00000   65.00000  2.99%  65.6   36s
   603   519   65.00000   46  194   67.00000   65.00000  2.99%  65.5   42s

Cutting planes:
  Gomory: 8
  Cover: 55
  Clique: 23
  MIR: 22
  StrongCG: 22
  Flow cover: 50
  Zero half: 10

Explored 604 nodes (85723 simplex iterations) in 60.01 seconds
Thread count was 1 (of 40 available processors)

Solution count 7: 67 68 69 ... 82

Time limit reached
Best objective 6.700000000000e+01, best bound 6.500000000000e+01, gap 2.9851%
0	41006	808	604	65	67	60.112
