Academic license - for non-commercial use only - expires 2025-02-09
Gurobi Optimizer version 9.1.2 build v9.1.2rc0 (linux64)
Thread count: 20 physical cores, 40 logical processors, using up to 1 threads
Optimize a model with 808 rows, 41006 columns and 163418 nonzeros
Model fingerprint: 0x84883979
Variable types: 0 continuous, 41006 integer (41006 binary)
Coefficient statistics:
  Matrix range     [1e+00, 2e+03]
  Objective range  [1e+00, 1e+00]
  Bounds range     [1e+00, 1e+00]
  RHS range        [1e+00, 1e+00]

Loaded user MIP start with objective 71

Presolve added 404 rows and 404 columns
Presolve time: 0.21s
Presolved: 1212 rows, 41410 columns, 123826 nonzeros
Variable types: 0 continuous, 41410 integer (41006 binary)

Root relaxation: objective 6.500000e+01, 1573 iterations, 0.17 seconds

    Nodes    |    Current Node    |     Objective Bounds      |     Work
 Expl Unexpl |  Obj  Depth IntInf | Incumbent    BestBd   Gap | It/Node Time

     0     0   65.00000    0  219   71.00000   65.00000  8.45%     -    1s
H    0     0                      68.0000000   65.00000  4.41%     -    1s
     0     0   65.00000    0  331   68.00000   65.00000  4.41%     -    2s
H    0     0                      67.0000000   65.00000  2.99%     -    5s
     0     0   65.00000    0  303   67.00000   65.00000  2.99%     -    5s
     0     0   65.00000    0  247   67.00000   65.00000  2.99%     -    6s
     0     0   65.00000    0  247   67.00000   65.00000  2.99%     -    7s
     0     2   65.00000    0  247   67.00000   65.00000  2.99%     -    9s
     3     5   65.00000    2  266   67.00000   65.00000  2.99%   906   10s
    26    28   65.00000   17  235   67.00000   65.00000  2.99%   349   15s
    27    29   65.00000   17  291   67.00000   65.00000  2.99%   418   24s
    68    70   65.00000   45  212   67.00000   65.00000  2.99%   261   25s
   203   205   65.00000  140  224   67.00000   65.00000  2.99%   198   31s
   430   432   65.00000  347  238   67.00000   65.00000  2.99%   130   43s
   431   433   65.00000  348  245   67.00000   65.00000  2.99%   130   47s
H  590   533                      66.0000000   65.00000  1.52%   106   49s
   592   532   65.00000   38  247   66.00000   65.00000  1.52%   105   52s
   595   534   65.00000  291  220   66.00000   65.00000  1.52%   105   58s

Cutting planes:
  Gomory: 11
  Cover: 84
  Clique: 26
  MIR: 4
  StrongCG: 9
  Flow cover: 45
  Zero half: 46
  RLT: 59
  Relax-and-lift: 1

Explored 596 nodes (103308 simplex iterations) in 60.19 seconds
Thread count was 1 (of 40 available processors)

Solution count 4: 66 67 68 71 

Time limit reached
Best objective 6.600000000000e+01, best bound 6.500000000000e+01, gap 1.5152%
0	41006	808	596	65	66	60.3
