Academic license - for non-commercial use only - expires 2025-02-09
Gurobi Optimizer version 9.1.2 build v9.1.2rc0 (linux64)
Thread count: 20 physical cores, 40 logical processors, using up to 1 threads
Optimize a model with 1612 rows, 162812 columns and 650039 nonzeros
Model fingerprint: 0x9798d7e5
Variable types: 0 continuous, 162812 integer (162812 binary)
Coefficient statistics:
  Matrix range     [1e+00, 8e+03]
  Objective range  [1e+00, 1e+00]
  Bounds range     [1e+00, 1e+00]
  RHS range        [1e+00, 1e+00]

Loaded user MIP start with objective 146

Presolve added 806 rows and 806 columns
Presolve time: 0.82s
Presolved: 2418 rows, 163618 columns, 490048 nonzeros
Variable types: 0 continuous, 163618 integer (162812 binary)

Root relaxation: objective 1.320000e+02, 3493 iterations, 1.02 seconds

    Nodes    |    Current Node    |     Objective Bounds      |     Work
 Expl Unexpl |  Obj  Depth IntInf | Incumbent    BestBd   Gap | It/Node Time

     0     0  132.00000    0  457  146.00000  132.00000  9.59%     -    5s
H    0     0                     143.0000000  132.00000  7.69%     -   10s
     0     0  132.00000    0  592  143.00000  132.00000  7.69%     -   11s
H    0     0                     139.0000000  132.00000  5.04%     -   27s
     0     0  132.00000    0  640  139.00000  132.00000  5.04%     -   29s
     0     0  132.00000    0  475  139.00000  132.00000  5.04%     -   38s
     0     0  132.00000    0  454  139.00000  132.00000  5.04%     -   42s
H    0     0                     138.0000000  132.00000  4.35%     -   44s
H    0     0                     136.0000000  132.00000  2.94%     -   45s

Cutting planes:
  Cover: 125
  Clique: 37
  MIR: 50
  StrongCG: 43
  RLT: 2
  Relax-and-lift: 18

Explored 1 nodes (51486 simplex iterations) in 60.02 seconds
Thread count was 1 (of 40 available processors)

Solution count 5: 136 138 139 ... 146

Time limit reached
Best objective 1.360000000000e+02, best bound 1.320000000000e+02, gap 2.9412%
0	162812	1612	1	132	136	60.32
