Academic license - for non-commercial use only - expires 2025-02-09
Gurobi Optimizer version 9.1.2 build v9.1.2rc0 (linux64)
Thread count: 20 physical cores, 40 logical processors, using up to 1 threads
Optimize a model with 1612 rows, 162812 columns and 650039 nonzeros
Model fingerprint: 0x42dfae97
Variable types: 0 continuous, 162812 integer (162812 binary)
Coefficient statistics:
  Matrix range     [1e+00, 8e+03]
  Objective range  [1e+00, 1e+00]
  Bounds range     [1e+00, 1e+00]
  RHS range        [1e+00, 1e+00]

Loaded user MIP start with objective 138

Presolve added 806 rows and 806 columns
Presolve time: 0.82s
Presolved: 2418 rows, 163618 columns, 490048 nonzeros
Variable types: 0 continuous, 163618 integer (162812 binary)

Root relaxation: objective 1.320000e+02, 4527 iterations, 1.35 seconds

    Nodes    |    Current Node    |     Objective Bounds      |     Work
 Expl Unexpl |  Obj  Depth IntInf | Incumbent    BestBd   Gap | It/Node Time

     0     0  132.00000    0  382  138.00000  132.00000  4.35%     -    4s
     0     0  132.00000    0  597  138.00000  132.00000  4.35%     -   11s
H    0     0                     134.0000000  132.00000  1.49%     -   25s
     0     0  132.00000    0  645  134.00000  132.00000  1.49%     -   26s
     0     0  132.00000    0  450  134.00000  132.00000  1.49%     -   37s
     0     0  132.00000    0  450  134.00000  132.00000  1.49%     -   40s

Cutting planes:
  Cover: 143
  Clique: 39
  MIR: 49
  StrongCG: 52
  RLT: 1
  Relax-and-lift: 33

Explored 1 nodes (53181 simplex iterations) in 60.01 seconds
Thread count was 1 (of 40 available processors)

Solution count 2: 134 138 

Time limit reached
Best objective 1.340000000000e+02, best bound 1.320000000000e+02, gap 1.4925%
0	162812	1612	1	132	134	60.274
