Academic license - for non-commercial use only - expires 2025-02-09
Gurobi Optimizer version 9.1.2 build v9.1.2rc0 (linux64)
Thread count: 20 physical cores, 40 logical processors, using up to 1 threads
Optimize a model with 1612 rows, 162812 columns and 650039 nonzeros
Model fingerprint: 0x8f3ab8c8
Variable types: 0 continuous, 162812 integer (162812 binary)
Coefficient statistics:
  Matrix range     [1e+00, 8e+03]
  Objective range  [1e+00, 1e+00]
  Bounds range     [1e+00, 1e+00]
  RHS range        [1e+00, 1e+00]

Loaded user MIP start with objective 141

Presolve added 806 rows and 806 columns
Presolve time: 0.83s
Presolved: 2418 rows, 163618 columns, 490048 nonzeros
Variable types: 0 continuous, 163618 integer (162812 binary)

Root relaxation: objective 1.320000e+02, 3843 iterations, 0.79 seconds

    Nodes    |    Current Node    |     Objective Bounds      |     Work
 Expl Unexpl |  Obj  Depth IntInf | Incumbent    BestBd   Gap | It/Node Time

     0     0  132.00000    0  414  141.00000  132.00000  6.38%     -    5s
H    0     0                     139.0000000  132.00000  5.04%     -   10s
     0     0  132.00000    0  584  139.00000  132.00000  5.04%     -   11s
H    0     0                     136.0000000  132.00000  2.94%     -   29s
     0     0  132.00000    0  617  136.00000  132.00000  2.94%     -   30s
     0     0  132.00000    0  438  136.00000  132.00000  2.94%     -   41s
     0     0  132.00000    0  438  136.00000  132.00000  2.94%     -   43s

Cutting planes:
  Cover: 140
  Clique: 29
  MIR: 39
  StrongCG: 40
  RLT: 4
  Relax-and-lift: 22

Explored 1 nodes (61388 simplex iterations) in 60.01 seconds
Thread count was 1 (of 40 available processors)

Solution count 3: 136 139 141 

Time limit reached
Best objective 1.360000000000e+02, best bound 1.320000000000e+02, gap 2.9412%
0	162812	1612	1	132	136	60.305
