Academic license - for non-commercial use only - expires 2025-02-09
Gurobi Optimizer version 9.1.2 build v9.1.2rc0 (linux64)
Thread count: 20 physical cores, 40 logical processors, using up to 1 threads
Optimize a model with 1612 rows, 162812 columns and 650039 nonzeros
Model fingerprint: 0x52f948f1
Variable types: 0 continuous, 162812 integer (162812 binary)
Coefficient statistics:
  Matrix range     [1e+00, 8e+03]
  Objective range  [1e+00, 1e+00]
  Bounds range     [1e+00, 1e+00]
  RHS range        [1e+00, 1e+00]

Loaded user MIP start with objective 146

Presolve added 806 rows and 806 columns
Presolve time: 0.82s
Presolved: 2418 rows, 163618 columns, 490048 nonzeros
Variable types: 0 continuous, 163618 integer (162812 binary)

Root relaxation: objective 1.320000e+02, 2752 iterations, 0.45 seconds
Total elapsed time = 5.55s

    Nodes    |    Current Node    |     Objective Bounds      |     Work
 Expl Unexpl |  Obj  Depth IntInf | Incumbent    BestBd   Gap | It/Node Time

     0     0  132.00000    0  418  146.00000  132.00000  9.59%     -    6s
H    0     0                     144.0000000  132.00000  8.33%     -   16s
     0     0  132.00000    0  643  144.00000  132.00000  8.33%     -   17s
H    0     0                     138.0000000  132.00000  4.35%     -   39s
     0     0  132.00000    0  664  138.00000  132.00000  4.35%     -   40s
     0     0  132.00000    0  457  138.00000  132.00000  4.35%     -   50s
     0     0  132.00000    0  455  138.00000  132.00000  4.35%     -   52s
H    0     0                     137.0000000  132.00000  3.65%     -   58s

Cutting planes:
  Cover: 118
  Clique: 37
  MIR: 39
  StrongCG: 43
  RLT: 3
  Relax-and-lift: 25

Explored 1 nodes (47350 simplex iterations) in 60.01 seconds
Thread count was 1 (of 40 available processors)

Solution count 4: 137 138 144 146 

Time limit reached
Best objective 1.370000000000e+02, best bound 1.320000000000e+02, gap 3.6496%
0	162812	1612	1	132	137	60.309
