Academic license - for non-commercial use only - expires 2025-02-09
Gurobi Optimizer version 9.1.2 build v9.1.2rc0 (linux64)
Thread count: 20 physical cores, 40 logical processors, using up to 1 threads
Optimize a model with 2404 rows, 361802 columns and 1445405 nonzeros
Model fingerprint: 0x35a69532
Variable types: 0 continuous, 361802 integer (361802 binary)
Coefficient statistics:
  Matrix range     [1e+00, 2e+04]
  Objective range  [1e+00, 1e+00]
  Bounds range     [1e+00, 1e+00]
  RHS range        [1e+00, 1e+00]

Loaded user MIP start with objective 213

Presolve added 1202 rows and 1202 columns
Presolve time: 2.10s
Presolved: 3606 rows, 363004 columns, 1087810 nonzeros
Variable types: 0 continuous, 363004 integer (361802 binary)

Root relaxation: objective 1.980000e+02, 4633 iterations, 2.04 seconds
Total elapsed time = 15.79s

    Nodes    |    Current Node    |     Objective Bounds      |     Work
 Expl Unexpl |  Obj  Depth IntInf | Incumbent    BestBd   Gap | It/Node Time

     0     0  198.00000    0  674  213.00000  198.00000  7.04%     -   20s
H    0     0                     209.0000000  198.00000  5.26%     -   41s
     0     0  198.00000    0  816  209.00000  198.00000  5.26%     -   44s
H    0     0                     208.0000000  198.00000  4.81%     -   60s

Cutting planes:
  Cover: 100
  Clique: 26
  MIR: 29
  StrongCG: 35
  Flow cover: 1
  RLT: 1
  Relax-and-lift: 13

Explored 1 nodes (58307 simplex iterations) in 60.04 seconds
Thread count was 1 (of 40 available processors)

Solution count 3: 208 209 213 

Time limit reached
Best objective 2.080000000000e+02, best bound 1.980000000000e+02, gap 4.8077%
0	361802	2404	1	198	208	60.651
