Application parameters:
  batch  =>  nothing
  instance  =>  "/IN/Falkenauer_t120_11.txt-Q20"
  ub  =>  1.0e6
  cfg  =>  "/CFG/BPP.cfg"
data = Colored Bin Packing dataset.
number of items = 120
number of colors = 20
capacity = 1000
Items : 
	 item 1, weight= 250, color= 0
	 item 2, weight= 251, color= 3
	 item 3, weight= 251, color= 6
	 item 4, weight= 251, color= 13
	 item 5, weight= 251, color= 18
	 item 6, weight= 252, color= 7
	 item 7, weight= 252, color= 8
	 item 8, weight= 253, color= 2
	 item 9, weight= 253, color= 19
	 item 10, weight= 255, color= 15
	 item 11, weight= 256, color= 1
	 item 12, weight= 256, color= 3
	 item 13, weight= 256, color= 9
	 item 14, weight= 256, color= 11
	 item 15, weight= 257, color= 6
	 item 16, weight= 258, color= 0
	 item 17, weight= 258, color= 17
	 item 18, weight= 260, color= 6
	 item 19, weight= 261, color= 5
	 item 20, weight= 261, color= 8
	 item 21, weight= 262, color= 1
	 item 22, weight= 262, color= 12
	 item 23, weight= 262, color= 16
	 item 24, weight= 263, color= 9
	 item 25, weight= 264, color= 4
	 item 26, weight= 264, color= 5
	 item 27, weight= 264, color= 10
	 item 28, weight= 265, color= 12
	 item 29, weight= 266, color= 0
	 item 30, weight= 266, color= 8
	 item 31, weight= 266, color= 18
	 item 32, weight= 267, color= 17
	 item 33, weight= 268, color= 5
	 item 34, weight= 268, color= 9
	 item 35, weight= 268, color= 13
	 item 36, weight= 269, color= 8
	 item 37, weight= 271, color= 8
	 item 38, weight= 273, color= 8
	 item 39, weight= 275, color= 8
	 item 40, weight= 275, color= 11
	 item 41, weight= 275, color= 13
	 item 42, weight= 276, color= 18
	 item 43, weight= 277, color= 0
	 item 44, weight= 280, color= 17
	 item 45, weight= 281, color= 16
	 item 46, weight= 287, color= 16
	 item 47, weight= 288, color= 0
	 item 48, weight= 288, color= 7
	 item 49, weight= 288, color= 11
	 item 50, weight= 291, color= 10
	 item 51, weight= 291, color= 19
	 item 52, weight= 292, color= 5
	 item 53, weight= 295, color= 12
	 item 54, weight= 296, color= 12
	 item 55, weight= 296, color= 13
	 item 56, weight= 297, color= 12
	 item 57, weight= 300, color= 0
	 item 58, weight= 301, color= 8
	 item 59, weight= 305, color= 12
	 item 60, weight= 308, color= 2
	 item 61, weight= 308, color= 5
	 item 62, weight= 310, color= 9
	 item 63, weight= 310, color= 17
	 item 64, weight= 311, color= 3
	 item 65, weight= 313, color= 5
	 item 66, weight= 320, color= 9
	 item 67, weight= 325, color= 5
	 item 68, weight= 326, color= 1
	 item 69, weight= 329, color= 3
	 item 70, weight= 332, color= 8
	 item 71, weight= 337, color= 2
	 item 72, weight= 338, color= 0
	 item 73, weight= 343, color= 12
	 item 74, weight= 344, color= 9
	 item 75, weight= 347, color= 16
	 item 76, weight= 349, color= 13
	 item 77, weight= 350, color= 4
	 item 78, weight= 354, color= 7
	 item 79, weight= 355, color= 14
	 item 80, weight= 360, color= 7
	 item 81, weight= 361, color= 15
	 item 82, weight= 365, color= 0
	 item 83, weight= 372, color= 7
	 item 84, weight= 372, color= 17
	 item 85, weight= 374, color= 9
	 item 86, weight= 377, color= 10
	 item 87, weight= 377, color= 17
	 item 88, weight= 378, color= 2
	 item 89, weight= 383, color= 11
	 item 90, weight= 385, color= 9
	 item 91, weight= 393, color= 5
	 item 92, weight= 395, color= 2
	 item 93, weight= 399, color= 4
	 item 94, weight= 400, color= 8
	 item 95, weight= 400, color= 17
	 item 96, weight= 400, color= 17
	 item 97, weight= 401, color= 18
	 item 98, weight= 408, color= 7
	 item 99, weight= 412, color= 11
	 item 100, weight= 422, color= 14
	 item 101, weight= 424, color= 4
	 item 102, weight= 429, color= 0
	 item 103, weight= 435, color= 3
	 item 104, weight= 443, color= 10
	 item 105, weight= 443, color= 15
	 item 106, weight= 449, color= 3
	 item 107, weight= 450, color= 7
	 item 108, weight= 456, color= 0
	 item 109, weight= 463, color= 18
	 item 110, weight= 465, color= 11
	 item 111, weight= 465, color= 11
	 item 112, weight= 472, color= 7
	 item 113, weight= 483, color= 12
	 item 114, weight= 485, color= 15
	 item 115, weight= 488, color= 1
	 item 116, weight= 491, color= 7
	 item 117, weight= 491, color= 13
	 item 118, weight= 493, color= 12
	 item 119, weight= 493, color= 13
	 item 120, weight= 499, color= 0

VRPSolver warning: Interval set for resource 1 on source node (when source != sink) is ignored (by definition is [0.0,0.0])
VRPSolver warning: Interval set for resource 2 on source node (when source != sink) is ignored (by definition is [0.0,0.0])
VRPSolver warning: Interval set for resource 3 on source node (when source != sink) is ignored (by definition is [0.0,0.0])
VRPSolver warning: Interval set for resource 4 on source node (when source != sink) is ignored (by definition is [0.0,0.0])
VRPSolver warning: Interval set for resource 5 on source node (when source != sink) is ignored (by definition is [0.0,0.0])
VRPSolver warning: Interval set for resource 6 on source node (when source != sink) is ignored (by definition is [0.0,0.0])
VRPSolver warning: Interval set for resource 7 on source node (when source != sink) is ignored (by definition is [0.0,0.0])
VRPSolver warning: Interval set for resource 8 on source node (when source != sink) is ignored (by definition is [0.0,0.0])
VRPSolver warning: Interval set for resource 9 on source node (when source != sink) is ignored (by definition is [0.0,0.0])
VRPSolver warning: Interval set for resource 10 on source node (when source != sink) is ignored (by definition is [0.0,0.0])
VRPSolver warning: Interval set for resource 11 on source node (when source != sink) is ignored (by definition is [0.0,0.0])
VRPSolver warning: Interval set for resource 12 on source node (when source != sink) is ignored (by definition is [0.0,0.0])
VRPSolver warning: Interval set for resource 13 on source node (when source != sink) is ignored (by definition is [0.0,0.0])
VRPSolver warning: Interval set for resource 14 on source node (when source != sink) is ignored (by definition is [0.0,0.0])
VRPSolver warning: Interval set for resource 15 on source node (when source != sink) is ignored (by definition is [0.0,0.0])
VRPSolver warning: Interval set for resource 16 on source node (when source != sink) is ignored (by definition is [0.0,0.0])
VRPSolver warning: Interval set for resource 17 on source node (when source != sink) is ignored (by definition is [0.0,0.0])
VRPSolver warning: Interval set for resource 18 on source node (when source != sink) is ignored (by definition is [0.0,0.0])
VRPSolver warning: Interval set for resource 19 on source node (when source != sink) is ignored (by definition is [0.0,0.0])
VRPSolver warning: Interval set for resource 20 on source node (when source != sink) is ignored (by definition is [0.0,0.0])
VRPSolver warning: Interval set for resource 21 on source node (when source != sink) is ignored (by definition is [0.0,0.0])
[41m solve [00m
~~~~~~~~~~~~~~~~~~~~~~~~~~~~~~~~~~~~~~~~~~~~~~~~~~~~~~~~~~~~~~~~~~~~~~~~~~~~~~
VRPSolver v0.4.1, 24/03/2021. Web: vrpsolver.math.u-bordeaux.fr
Corresponds to the solver by Pessoa, Sadykov, Uchoa and Vanderbeck (2020)
Paper: dx.doi.org/10.1007/s10107-020-01523-z
USE THIS CODE ONLY FOR ACADEMIC PURPOSES AT YOUR OWN RISK
~~~~~~~~~~~~~~~~~~~~~~~~~~~~~~~~~~~~~~~~~~~~~~~~~~~~~~~~~~~~~~~~~~~~~~~~~~~~~~
BaPCod v053, 24/03/2021, © Inria Bordeaux, France
~~~~~~~~~~~~~~~~~~~~~~~~~~~~~~~~~~~~~~~~~~~~~~~~~~~~~~~~~~~~~~~~~~~~~~~~~~~~~~
VRPSolver parameters:
GlobalTimeLimit = 60
MaxNbOfBBtreeNodeTreated = 100000
treeSearchStrategy = 1
RCSPstopCutGenTimeThresholdInPricing = 10
RCSPhardTimeThresholdInPricing = 20
RCSPnumberOfBucketsPerVertex = 2000
RCSPdynamicBucketSteps = 0
RCSPuseBidirectionalSearch = 1
RCSPapplyReducedCostFixing = 1
RCSPredCostFixingFalseGap = 0
RCSPmaxNumOfColsPerIteration = 100
RCSPmaxNumOfColsPerExactIteration = 100
RCSPheurLabelingStrategy = 4
StabilizationMinPhaseOfStage = 1
RCSPmaxNumOfLabelsInEnumeration = 100000
RCSPmaxNumOfEnumeratedSolutions = 1000000
RCSPmaxNumOfEnumSolutionsForMIP = 100000
RCSPinitNGneighbourhoodSize = 0
RCSPmaxNGneighbourhoodSize = 0
RCSPrankOneCutsMaxNumPerRound = 100
RCSPrankOneCutsMaxNumRows = -1
RCSPrankOneCutsMemoryType = 2
CutTailingOffThreshold = 0.02
CutTailingOffCounterThreshold = 3
SafeDualBoundScaleFactor = -1
StrongBranchingPhaseOneCandidatesNumber = 100
StrongBranchingPhaseOneTreeSizeEstimRatio = 0.3
StrongBranchingPhaseTwoCandidatesNumber = 1
StrongBranchingPhaseTwoTreeSizeEstimRatio = 0.1
MaxTimeForRestrictedMasterIpHeur = -1
DivingHeurUseDepthLimit = 0
MaxLDSbreadth = 3
MaxLDSdepth = 2
New model incumbent solution 1e+06, TIME = 0h0m0s3t = 3
