Application parameters:
  batch  =>  nothing
  instance  =>  "/IN/Falkenauer_t60_05.txt-Q20"
  ub  =>  1.0e6
  cfg  =>  "/CFG/BPP.cfg"
data = Colored Bin Packing dataset.
number of items = 60
number of colors = 20
capacity = 1000
Items : 
	 item 1, weight= 250, color= 15
	 item 2, weight= 252, color= 3
	 item 3, weight= 252, color= 14
	 item 4, weight= 252, color= 19
	 item 5, weight= 252, color= 19
	 item 6, weight= 254, color= 5
	 item 7, weight= 259, color= 7
	 item 8, weight= 261, color= 4
	 item 9, weight= 262, color= 5
	 item 10, weight= 262, color= 13
	 item 11, weight= 264, color= 0
	 item 12, weight= 265, color= 7
	 item 13, weight= 268, color= 11
	 item 14, weight= 269, color= 1
	 item 15, weight= 270, color= 16
	 item 16, weight= 276, color= 8
	 item 17, weight= 276, color= 15
	 item 18, weight= 278, color= 13
	 item 19, weight= 281, color= 7
	 item 20, weight= 281, color= 14
	 item 21, weight= 281, color= 14
	 item 22, weight= 282, color= 0
	 item 23, weight= 282, color= 1
	 item 24, weight= 283, color= 7
	 item 25, weight= 285, color= 6
	 item 26, weight= 286, color= 9
	 item 27, weight= 290, color= 2
	 item 28, weight= 296, color= 8
	 item 29, weight= 301, color= 6
	 item 30, weight= 302, color= 10
	 item 31, weight= 305, color= 15
	 item 32, weight= 327, color= 2
	 item 33, weight= 328, color= 6
	 item 34, weight= 334, color= 9
	 item 35, weight= 335, color= 16
	 item 36, weight= 340, color= 14
	 item 37, weight= 347, color= 7
	 item 38, weight= 352, color= 19
	 item 39, weight= 355, color= 19
	 item 40, weight= 358, color= 16
	 item 41, weight= 360, color= 16
	 item 42, weight= 361, color= 10
	 item 43, weight= 372, color= 2
	 item 44, weight= 372, color= 7
	 item 45, weight= 380, color= 4
	 item 46, weight= 380, color= 13
	 item 47, weight= 388, color= 2
	 item 48, weight= 389, color= 3
	 item 49, weight= 396, color= 9
	 item 50, weight= 416, color= 15
	 item 51, weight= 422, color= 0
	 item 52, weight= 432, color= 16
	 item 53, weight= 433, color= 14
	 item 54, weight= 462, color= 18
	 item 55, weight= 463, color= 1
	 item 56, weight= 469, color= 7
	 item 57, weight= 483, color= 6
	 item 58, weight= 484, color= 10
	 item 59, weight= 489, color= 3
	 item 60, weight= 496, color= 1

VRPSolver warning: Interval set for resource 1 on source node (when source != sink) is ignored (by definition is [0.0,0.0])
VRPSolver warning: Interval set for resource 2 on source node (when source != sink) is ignored (by definition is [0.0,0.0])
VRPSolver warning: Interval set for resource 3 on source node (when source != sink) is ignored (by definition is [0.0,0.0])
VRPSolver warning: Interval set for resource 4 on source node (when source != sink) is ignored (by definition is [0.0,0.0])
VRPSolver warning: Interval set for resource 5 on source node (when source != sink) is ignored (by definition is [0.0,0.0])
VRPSolver warning: Interval set for resource 6 on source node (when source != sink) is ignored (by definition is [0.0,0.0])
VRPSolver warning: Interval set for resource 7 on source node (when source != sink) is ignored (by definition is [0.0,0.0])
VRPSolver warning: Interval set for resource 8 on source node (when source != sink) is ignored (by definition is [0.0,0.0])
VRPSolver warning: Interval set for resource 9 on source node (when source != sink) is ignored (by definition is [0.0,0.0])
VRPSolver warning: Interval set for resource 10 on source node (when source != sink) is ignored (by definition is [0.0,0.0])
VRPSolver warning: Interval set for resource 11 on source node (when source != sink) is ignored (by definition is [0.0,0.0])
VRPSolver warning: Interval set for resource 12 on source node (when source != sink) is ignored (by definition is [0.0,0.0])
VRPSolver warning: Interval set for resource 13 on source node (when source != sink) is ignored (by definition is [0.0,0.0])
VRPSolver warning: Interval set for resource 14 on source node (when source != sink) is ignored (by definition is [0.0,0.0])
VRPSolver warning: Interval set for resource 15 on source node (when source != sink) is ignored (by definition is [0.0,0.0])
VRPSolver warning: Interval set for resource 16 on source node (when source != sink) is ignored (by definition is [0.0,0.0])
VRPSolver warning: Interval set for resource 17 on source node (when source != sink) is ignored (by definition is [0.0,0.0])
VRPSolver warning: Interval set for resource 18 on source node (when source != sink) is ignored (by definition is [0.0,0.0])
VRPSolver warning: Interval set for resource 19 on source node (when source != sink) is ignored (by definition is [0.0,0.0])
VRPSolver warning: Interval set for resource 20 on source node (when source != sink) is ignored (by definition is [0.0,0.0])
VRPSolver warning: Interval set for resource 21 on source node (when source != sink) is ignored (by definition is [0.0,0.0])
[41m solve [00m
~~~~~~~~~~~~~~~~~~~~~~~~~~~~~~~~~~~~~~~~~~~~~~~~~~~~~~~~~~~~~~~~~~~~~~~~~~~~~~
VRPSolver v0.4.1, 24/03/2021. Web: vrpsolver.math.u-bordeaux.fr
Corresponds to the solver by Pessoa, Sadykov, Uchoa and Vanderbeck (2020)
Paper: dx.doi.org/10.1007/s10107-020-01523-z
USE THIS CODE ONLY FOR ACADEMIC PURPOSES AT YOUR OWN RISK
~~~~~~~~~~~~~~~~~~~~~~~~~~~~~~~~~~~~~~~~~~~~~~~~~~~~~~~~~~~~~~~~~~~~~~~~~~~~~~
BaPCod v053, 24/03/2021, © Inria Bordeaux, France
~~~~~~~~~~~~~~~~~~~~~~~~~~~~~~~~~~~~~~~~~~~~~~~~~~~~~~~~~~~~~~~~~~~~~~~~~~~~~~
VRPSolver parameters:
GlobalTimeLimit = 60
MaxNbOfBBtreeNodeTreated = 100000
treeSearchStrategy = 1
RCSPstopCutGenTimeThresholdInPricing = 10
RCSPhardTimeThresholdInPricing = 20
RCSPnumberOfBucketsPerVertex = 2000
RCSPdynamicBucketSteps = 0
RCSPuseBidirectionalSearch = 1
RCSPapplyReducedCostFixing = 1
RCSPredCostFixingFalseGap = 0
RCSPmaxNumOfColsPerIteration = 100
RCSPmaxNumOfColsPerExactIteration = 100
RCSPheurLabelingStrategy = 4
StabilizationMinPhaseOfStage = 1
RCSPmaxNumOfLabelsInEnumeration = 100000
RCSPmaxNumOfEnumeratedSolutions = 1000000
RCSPmaxNumOfEnumSolutionsForMIP = 100000
RCSPinitNGneighbourhoodSize = 0
RCSPmaxNGneighbourhoodSize = 0
RCSPrankOneCutsMaxNumPerRound = 100
RCSPrankOneCutsMaxNumRows = -1
RCSPrankOneCutsMemoryType = 2
CutTailingOffThreshold = 0.02
CutTailingOffCounterThreshold = 3
SafeDualBoundScaleFactor = -1
StrongBranchingPhaseOneCandidatesNumber = 100
StrongBranchingPhaseOneTreeSizeEstimRatio = 0.3
StrongBranchingPhaseTwoCandidatesNumber = 1
StrongBranchingPhaseTwoTreeSizeEstimRatio = 0.1
MaxTimeForRestrictedMasterIpHeur = -1
DivingHeurUseDepthLimit = 0
MaxLDSbreadth = 3
MaxLDSdepth = 2
New model incumbent solution 1e+06, TIME = 0h0m0s3t = 3
