Application parameters:
  batch  =>  nothing
  instance  =>  "/IN/Falkenauer_t60_14.txt-Q5"
  ub  =>  1.0e6
  cfg  =>  "/CFG/BPP.cfg"
data = Colored Bin Packing dataset.
number of items = 60
number of colors = 5
capacity = 1000
Items : 
	 item 1, weight= 250, color= 2
	 item 2, weight= 251, color= 4
	 item 3, weight= 251, color= 4
	 item 4, weight= 252, color= 2
	 item 5, weight= 254, color= 1
	 item 6, weight= 254, color= 1
	 item 7, weight= 257, color= 3
	 item 8, weight= 257, color= 4
	 item 9, weight= 258, color= 3
	 item 10, weight= 259, color= 2
	 item 11, weight= 260, color= 0
	 item 12, weight= 260, color= 3
	 item 13, weight= 262, color= 0
	 item 14, weight= 264, color= 2
	 item 15, weight= 266, color= 3
	 item 16, weight= 269, color= 0
	 item 17, weight= 270, color= 0
	 item 18, weight= 270, color= 3
	 item 19, weight= 272, color= 0
	 item 20, weight= 273, color= 4
	 item 21, weight= 274, color= 2
	 item 22, weight= 277, color= 2
	 item 23, weight= 278, color= 1
	 item 24, weight= 279, color= 0
	 item 25, weight= 281, color= 3
	 item 26, weight= 282, color= 2
	 item 27, weight= 282, color= 3
	 item 28, weight= 300, color= 4
	 item 29, weight= 303, color= 3
	 item 30, weight= 309, color= 0
	 item 31, weight= 311, color= 2
	 item 32, weight= 311, color= 3
	 item 33, weight= 327, color= 3
	 item 34, weight= 334, color= 3
	 item 35, weight= 336, color= 3
	 item 36, weight= 336, color= 3
	 item 37, weight= 340, color= 4
	 item 38, weight= 353, color= 1
	 item 39, weight= 360, color= 0
	 item 40, weight= 361, color= 0
	 item 41, weight= 365, color= 2
	 item 42, weight= 366, color= 4
	 item 43, weight= 367, color= 1
	 item 44, weight= 367, color= 3
	 item 45, weight= 389, color= 2
	 item 46, weight= 399, color= 4
	 item 47, weight= 400, color= 3
	 item 48, weight= 412, color= 1
	 item 49, weight= 415, color= 2
	 item 50, weight= 415, color= 3
	 item 51, weight= 429, color= 1
	 item 52, weight= 448, color= 2
	 item 53, weight= 450, color= 4
	 item 54, weight= 460, color= 0
	 item 55, weight= 464, color= 0
	 item 56, weight= 470, color= 4
	 item 57, weight= 474, color= 1
	 item 58, weight= 484, color= 0
	 item 59, weight= 491, color= 1
	 item 60, weight= 492, color= 2

VRPSolver warning: Interval set for resource 1 on source node (when source != sink) is ignored (by definition is [0.0,0.0])
VRPSolver warning: Interval set for resource 2 on source node (when source != sink) is ignored (by definition is [0.0,0.0])
VRPSolver warning: Interval set for resource 3 on source node (when source != sink) is ignored (by definition is [0.0,0.0])
VRPSolver warning: Interval set for resource 4 on source node (when source != sink) is ignored (by definition is [0.0,0.0])
VRPSolver warning: Interval set for resource 5 on source node (when source != sink) is ignored (by definition is [0.0,0.0])
VRPSolver warning: Interval set for resource 6 on source node (when source != sink) is ignored (by definition is [0.0,0.0])
[41m solve [00m
~~~~~~~~~~~~~~~~~~~~~~~~~~~~~~~~~~~~~~~~~~~~~~~~~~~~~~~~~~~~~~~~~~~~~~~~~~~~~~
VRPSolver v0.4.1, 24/03/2021. Web: vrpsolver.math.u-bordeaux.fr
Corresponds to the solver by Pessoa, Sadykov, Uchoa and Vanderbeck (2020)
Paper: dx.doi.org/10.1007/s10107-020-01523-z
USE THIS CODE ONLY FOR ACADEMIC PURPOSES AT YOUR OWN RISK
~~~~~~~~~~~~~~~~~~~~~~~~~~~~~~~~~~~~~~~~~~~~~~~~~~~~~~~~~~~~~~~~~~~~~~~~~~~~~~
BaPCod v053, 24/03/2021, © Inria Bordeaux, France
~~~~~~~~~~~~~~~~~~~~~~~~~~~~~~~~~~~~~~~~~~~~~~~~~~~~~~~~~~~~~~~~~~~~~~~~~~~~~~
VRPSolver parameters:
GlobalTimeLimit = 60
MaxNbOfBBtreeNodeTreated = 100000
treeSearchStrategy = 1
RCSPstopCutGenTimeThresholdInPricing = 10
RCSPhardTimeThresholdInPricing = 20
RCSPnumberOfBucketsPerVertex = 2000
RCSPdynamicBucketSteps = 0
RCSPuseBidirectionalSearch = 1
RCSPapplyReducedCostFixing = 1
RCSPredCostFixingFalseGap = 0
RCSPmaxNumOfColsPerIteration = 100
RCSPmaxNumOfColsPerExactIteration = 100
RCSPheurLabelingStrategy = 4
StabilizationMinPhaseOfStage = 1
RCSPmaxNumOfLabelsInEnumeration = 100000
RCSPmaxNumOfEnumeratedSolutions = 1000000
RCSPmaxNumOfEnumSolutionsForMIP = 100000
RCSPinitNGneighbourhoodSize = 0
RCSPmaxNGneighbourhoodSize = 0
RCSPrankOneCutsMaxNumPerRound = 100
RCSPrankOneCutsMaxNumRows = -1
RCSPrankOneCutsMemoryType = 2
CutTailingOffThreshold = 0.02
CutTailingOffCounterThreshold = 3
SafeDualBoundScaleFactor = -1
StrongBranchingPhaseOneCandidatesNumber = 100
StrongBranchingPhaseOneTreeSizeEstimRatio = 0.3
StrongBranchingPhaseTwoCandidatesNumber = 1
StrongBranchingPhaseTwoTreeSizeEstimRatio = 0.1
MaxTimeForRestrictedMasterIpHeur = -1
DivingHeurUseDepthLimit = 0
MaxLDSbreadth = 3
MaxLDSdepth = 2
New model incumbent solution 1e+06, TIME = 0h0m0s3t = 3
Model is built TIME = 0h0m1s27t = 127
************************************************************************************************
**** BaB tree root node
**** Local DB = -1e+12, global bounds : [ -1e+12 , 1e+06 ], TIME = 0h0m1s27t = 127
**** 1 open nodes, 0 columns (0 active), 0 dyn. constrs. (0 active), 122 art. vars. (122 active)
************************************************************************************************
<DWph=2> <it= 10> <et=1.42> <Mt= 0.00> <Spt= 0.13> <nCl=905> <DB=-104565084.0316> <Mlp=675019.8125> <PB=1000000> 
<DWph=2> <it= 17> <et=1.56> <Mt= 0.01> <Spt= 0.14> <nCl=175> <DB=   20.0000> <Mlp=   20.0000> <PB=20> 
<DWph=1> <it= 18> <et=1.59> <Mt= 0.00> <Spt= 0.02> <nCl=  0> <DB=   20.0000> <Mlp=   20.0000> <PB=20> 
<DWph=0> <it= 19> <et=1.60> <Mt= 0.00> <Spt= 0.02> <nCl=  0> <DB=   20.0000> <Mlp=   20.0000> <PB=20> 
ColGenEvalAlg final dual bound: 20 (rounded: 20)
New model incumbent solution 20, TIME = 0h0m1s61t = 161
************************************************************************************************
Search is finished, global bounds : [ 20 , 20 ], TIME = 0h0m1s61t = 161
************************************************************************************************
[32mBaPCod : solution defined.[00m
statistics_cols: instance & :Optimal & cutoff & :bcRecRootDb & :bcTimeRootEval & :bcCountNodeProc & :bcRecBestDb & :bcRecBestInc & :bcTimeMain \\
statistics: Falkenauer_t60_14 & 1 & 1.0e6 & 20.00 & 1.61 & 1 & 20.00 & 20 & 1.61 \\
########################################################
bin_id=1: 266(3) 367(1) 367(3) 
bin_id=2: 269(0) 365(2) 366(4) 
bin_id=3: 250(2) 361(0) 389(2) 
bin_id=4: 264(2) 336(3) 400(3) 
bin_id=5: 251(4) 334(3) 415(2) 
bin_id=6: 260(3) 311(3) 429(1) 
bin_id=7: 270(3) 282(3) 448(2) 
bin_id=8: 254(1) 262(0) 484(0) 
bin_id=9: 251(4) 257(4) 492(2) 
bin_id=10: 252(2) 257(3) 491(1) 
bin_id=11: 279(0) 309(0) 412(1) 
bin_id=12: 274(2) 327(3) 399(4) 
bin_id=13: 273(4) 277(2) 450(4) 
bin_id=14: 311(2) 336(3) 353(1) 
bin_id=15: 300(4) 340(4) 360(0) 
bin_id=16: 259(2) 281(3) 460(0) 
bin_id=17: 282(2) 303(3) 415(3) 
bin_id=18: 254(1) 272(0) 474(1) 
bin_id=19: 258(3) 278(1) 464(0) 
bin_id=20: 260(0) 270(0) 470(4) 
Objective value: 20.0
########################################################
