Application parameters:
  batch  =>  nothing
  instance  =>  "/IN/Falkenauer_t249_18.txt-Q5"
  ub  =>  1.0e6
  cfg  =>  "/CFG/BPP.cfg"
data = Colored Bin Packing dataset.
number of items = 249
number of colors = 5
capacity = 1000
Items : 
	 item 1, weight= 250, color= 1
	 item 2, weight= 250, color= 1
	 item 3, weight= 250, color= 1
	 item 4, weight= 250, color= 2
	 item 5, weight= 250, color= 2
	 item 6, weight= 250, color= 2
	 item 7, weight= 251, color= 0
	 item 8, weight= 251, color= 1
	 item 9, weight= 251, color= 1
	 item 10, weight= 251, color= 2
	 item 11, weight= 251, color= 3
	 item 12, weight= 251, color= 3
	 item 13, weight= 251, color= 3
	 item 14, weight= 251, color= 4
	 item 15, weight= 251, color= 4
	 item 16, weight= 252, color= 2
	 item 17, weight= 253, color= 1
	 item 18, weight= 253, color= 1
	 item 19, weight= 253, color= 2
	 item 20, weight= 253, color= 2
	 item 21, weight= 254, color= 1
	 item 22, weight= 254, color= 2
	 item 23, weight= 255, color= 0
	 item 24, weight= 255, color= 1
	 item 25, weight= 255, color= 2
	 item 26, weight= 256, color= 1
	 item 27, weight= 256, color= 3
	 item 28, weight= 256, color= 4
	 item 29, weight= 256, color= 4
	 item 30, weight= 256, color= 4
	 item 31, weight= 257, color= 2
	 item 32, weight= 257, color= 2
	 item 33, weight= 257, color= 2
	 item 34, weight= 257, color= 4
	 item 35, weight= 258, color= 0
	 item 36, weight= 258, color= 0
	 item 37, weight= 258, color= 1
	 item 38, weight= 258, color= 2
	 item 39, weight= 258, color= 3
	 item 40, weight= 258, color= 3
	 item 41, weight= 258, color= 4
	 item 42, weight= 259, color= 1
	 item 43, weight= 259, color= 2
	 item 44, weight= 259, color= 3
	 item 45, weight= 259, color= 3
	 item 46, weight= 260, color= 3
	 item 47, weight= 260, color= 4
	 item 48, weight= 260, color= 4
	 item 49, weight= 262, color= 1
	 item 50, weight= 262, color= 3
	 item 51, weight= 262, color= 3
	 item 52, weight= 262, color= 4
	 item 53, weight= 263, color= 1
	 item 54, weight= 263, color= 2
	 item 55, weight= 263, color= 4
	 item 56, weight= 263, color= 4
	 item 57, weight= 264, color= 1
	 item 58, weight= 264, color= 4
	 item 59, weight= 264, color= 4
	 item 60, weight= 265, color= 4
	 item 61, weight= 265, color= 4
	 item 62, weight= 266, color= 4
	 item 63, weight= 267, color= 1
	 item 64, weight= 267, color= 2
	 item 65, weight= 267, color= 3
	 item 66, weight= 267, color= 4
	 item 67, weight= 268, color= 1
	 item 68, weight= 268, color= 2
	 item 69, weight= 268, color= 3
	 item 70, weight= 268, color= 4
	 item 71, weight= 270, color= 4
	 item 72, weight= 271, color= 3
	 item 73, weight= 272, color= 1
	 item 74, weight= 272, color= 2
	 item 75, weight= 273, color= 0
	 item 76, weight= 276, color= 1
	 item 77, weight= 276, color= 2
	 item 78, weight= 276, color= 3
	 item 79, weight= 277, color= 1
	 item 80, weight= 277, color= 3
	 item 81, weight= 278, color= 0
	 item 82, weight= 278, color= 4
	 item 83, weight= 278, color= 4
	 item 84, weight= 279, color= 1
	 item 85, weight= 279, color= 3
	 item 86, weight= 280, color= 4
	 item 87, weight= 281, color= 0
	 item 88, weight= 281, color= 2
	 item 89, weight= 281, color= 3
	 item 90, weight= 282, color= 3
	 item 91, weight= 283, color= 1
	 item 92, weight= 283, color= 2
	 item 93, weight= 285, color= 3
	 item 94, weight= 285, color= 4
	 item 95, weight= 286, color= 1
	 item 96, weight= 287, color= 0
	 item 97, weight= 287, color= 0
	 item 98, weight= 287, color= 1
	 item 99, weight= 288, color= 0
	 item 100, weight= 288, color= 4
	 item 101, weight= 289, color= 0
	 item 102, weight= 290, color= 4
	 item 103, weight= 292, color= 2
	 item 104, weight= 292, color= 4
	 item 105, weight= 293, color= 0
	 item 106, weight= 293, color= 2
	 item 107, weight= 293, color= 3
	 item 108, weight= 294, color= 2
	 item 109, weight= 294, color= 3
	 item 110, weight= 296, color= 4
	 item 111, weight= 297, color= 2
	 item 112, weight= 297, color= 3
	 item 113, weight= 299, color= 4
	 item 114, weight= 300, color= 2
	 item 115, weight= 301, color= 3
	 item 116, weight= 302, color= 2
	 item 117, weight= 303, color= 0
	 item 118, weight= 303, color= 2
	 item 119, weight= 303, color= 3
	 item 120, weight= 305, color= 3
	 item 121, weight= 305, color= 4
	 item 122, weight= 306, color= 1
	 item 123, weight= 306, color= 2
	 item 124, weight= 306, color= 3
	 item 125, weight= 306, color= 3
	 item 126, weight= 307, color= 2
	 item 127, weight= 309, color= 3
	 item 128, weight= 310, color= 1
	 item 129, weight= 310, color= 1
	 item 130, weight= 313, color= 0
	 item 131, weight= 315, color= 0
	 item 132, weight= 317, color= 4
	 item 133, weight= 319, color= 1
	 item 134, weight= 320, color= 4
	 item 135, weight= 321, color= 0
	 item 136, weight= 322, color= 4
	 item 137, weight= 323, color= 3
	 item 138, weight= 329, color= 0
	 item 139, weight= 329, color= 4
	 item 140, weight= 330, color= 0
	 item 141, weight= 330, color= 4
	 item 142, weight= 332, color= 0
	 item 143, weight= 334, color= 0
	 item 144, weight= 336, color= 3
	 item 145, weight= 337, color= 2
	 item 146, weight= 338, color= 4
	 item 147, weight= 340, color= 0
	 item 148, weight= 342, color= 0
	 item 149, weight= 342, color= 0
	 item 150, weight= 343, color= 3
	 item 151, weight= 344, color= 2
	 item 152, weight= 351, color= 1
	 item 153, weight= 351, color= 2
	 item 154, weight= 352, color= 0
	 item 155, weight= 352, color= 1
	 item 156, weight= 352, color= 4
	 item 157, weight= 353, color= 4
	 item 158, weight= 355, color= 1
	 item 159, weight= 355, color= 2
	 item 160, weight= 356, color= 1
	 item 161, weight= 356, color= 3
	 item 162, weight= 357, color= 0
	 item 163, weight= 357, color= 3
	 item 164, weight= 358, color= 3
	 item 165, weight= 360, color= 0
	 item 166, weight= 360, color= 2
	 item 167, weight= 362, color= 0
	 item 168, weight= 362, color= 3
	 item 169, weight= 363, color= 0
	 item 170, weight= 363, color= 0
	 item 171, weight= 365, color= 1
	 item 172, weight= 365, color= 1
	 item 173, weight= 367, color= 3
	 item 174, weight= 367, color= 3
	 item 175, weight= 368, color= 1
	 item 176, weight= 369, color= 3
	 item 177, weight= 370, color= 0
	 item 178, weight= 371, color= 1
	 item 179, weight= 371, color= 4
	 item 180, weight= 372, color= 0
	 item 181, weight= 372, color= 1
	 item 182, weight= 374, color= 2
	 item 183, weight= 374, color= 2
	 item 184, weight= 381, color= 1
	 item 185, weight= 384, color= 0
	 item 186, weight= 384, color= 1
	 item 187, weight= 384, color= 4
	 item 188, weight= 384, color= 4
	 item 189, weight= 386, color= 0
	 item 190, weight= 388, color= 2
	 item 191, weight= 391, color= 1
	 item 192, weight= 391, color= 2
	 item 193, weight= 394, color= 1
	 item 194, weight= 395, color= 2
	 item 195, weight= 396, color= 0
	 item 196, weight= 396, color= 3
	 item 197, weight= 399, color= 2
	 item 198, weight= 401, color= 4
	 item 199, weight= 402, color= 3
	 item 200, weight= 407, color= 1
	 item 201, weight= 407, color= 1
	 item 202, weight= 408, color= 0
	 item 203, weight= 410, color= 2
	 item 204, weight= 411, color= 4
	 item 205, weight= 414, color= 0
	 item 206, weight= 422, color= 0
	 item 207, weight= 424, color= 1
	 item 208, weight= 426, color= 2
	 item 209, weight= 426, color= 2
	 item 210, weight= 430, color= 0
	 item 211, weight= 430, color= 2
	 item 212, weight= 431, color= 2
	 item 213, weight= 432, color= 4
	 item 214, weight= 435, color= 1
	 item 215, weight= 436, color= 0
	 item 216, weight= 437, color= 2
	 item 217, weight= 439, color= 0
	 item 218, weight= 440, color= 1
	 item 219, weight= 440, color= 1
	 item 220, weight= 442, color= 2
	 item 221, weight= 445, color= 4
	 item 222, weight= 448, color= 3
	 item 223, weight= 449, color= 3
	 item 224, weight= 450, color= 0
	 item 225, weight= 457, color= 1
	 item 226, weight= 458, color= 4
	 item 227, weight= 459, color= 3
	 item 228, weight= 466, color= 0
	 item 229, weight= 466, color= 1
	 item 230, weight= 469, color= 0
	 item 231, weight= 469, color= 4
	 item 232, weight= 476, color= 4
	 item 233, weight= 480, color= 2
	 item 234, weight= 483, color= 2
	 item 235, weight= 483, color= 3
	 item 236, weight= 484, color= 1
	 item 237, weight= 484, color= 3
	 item 238, weight= 486, color= 3
	 item 239, weight= 486, color= 3
	 item 240, weight= 487, color= 2
	 item 241, weight= 488, color= 4
	 item 242, weight= 489, color= 4
	 item 243, weight= 490, color= 2
	 item 244, weight= 490, color= 2
	 item 245, weight= 491, color= 3
	 item 246, weight= 491, color= 4
	 item 247, weight= 492, color= 3
	 item 248, weight= 495, color= 1
	 item 249, weight= 499, color= 3

VRPSolver warning: Interval set for resource 1 on source node (when source != sink) is ignored (by definition is [0.0,0.0])
VRPSolver warning: Interval set for resource 2 on source node (when source != sink) is ignored (by definition is [0.0,0.0])
VRPSolver warning: Interval set for resource 3 on source node (when source != sink) is ignored (by definition is [0.0,0.0])
VRPSolver warning: Interval set for resource 4 on source node (when source != sink) is ignored (by definition is [0.0,0.0])
VRPSolver warning: Interval set for resource 5 on source node (when source != sink) is ignored (by definition is [0.0,0.0])
VRPSolver warning: Interval set for resource 6 on source node (when source != sink) is ignored (by definition is [0.0,0.0])
[41m solve [00m
~~~~~~~~~~~~~~~~~~~~~~~~~~~~~~~~~~~~~~~~~~~~~~~~~~~~~~~~~~~~~~~~~~~~~~~~~~~~~~
VRPSolver v0.4.1, 24/03/2021. Web: vrpsolver.math.u-bordeaux.fr
Corresponds to the solver by Pessoa, Sadykov, Uchoa and Vanderbeck (2020)
Paper: dx.doi.org/10.1007/s10107-020-01523-z
USE THIS CODE ONLY FOR ACADEMIC PURPOSES AT YOUR OWN RISK
~~~~~~~~~~~~~~~~~~~~~~~~~~~~~~~~~~~~~~~~~~~~~~~~~~~~~~~~~~~~~~~~~~~~~~~~~~~~~~
BaPCod v053, 24/03/2021, © Inria Bordeaux, France
~~~~~~~~~~~~~~~~~~~~~~~~~~~~~~~~~~~~~~~~~~~~~~~~~~~~~~~~~~~~~~~~~~~~~~~~~~~~~~
VRPSolver parameters:
GlobalTimeLimit = 60
MaxNbOfBBtreeNodeTreated = 100000
treeSearchStrategy = 1
RCSPstopCutGenTimeThresholdInPricing = 10
RCSPhardTimeThresholdInPricing = 20
RCSPnumberOfBucketsPerVertex = 2000
RCSPdynamicBucketSteps = 0
RCSPuseBidirectionalSearch = 1
RCSPapplyReducedCostFixing = 1
RCSPredCostFixingFalseGap = 0
RCSPmaxNumOfColsPerIteration = 100
RCSPmaxNumOfColsPerExactIteration = 100
RCSPheurLabelingStrategy = 4
StabilizationMinPhaseOfStage = 1
RCSPmaxNumOfLabelsInEnumeration = 100000
RCSPmaxNumOfEnumeratedSolutions = 1000000
RCSPmaxNumOfEnumSolutionsForMIP = 100000
RCSPinitNGneighbourhoodSize = 0
RCSPmaxNGneighbourhoodSize = 0
RCSPrankOneCutsMaxNumPerRound = 100
RCSPrankOneCutsMaxNumRows = -1
RCSPrankOneCutsMemoryType = 2
CutTailingOffThreshold = 0.02
CutTailingOffCounterThreshold = 3
SafeDualBoundScaleFactor = -1
StrongBranchingPhaseOneCandidatesNumber = 100
StrongBranchingPhaseOneTreeSizeEstimRatio = 0.3
StrongBranchingPhaseTwoCandidatesNumber = 1
StrongBranchingPhaseTwoTreeSizeEstimRatio = 0.1
MaxTimeForRestrictedMasterIpHeur = -1
DivingHeurUseDepthLimit = 0
MaxLDSbreadth = 3
MaxLDSdepth = 2
New model incumbent solution 1e+06, TIME = 0h0m0s3t = 3
Model is built TIME = 0h0m1s69t = 169
************************************************************************************************
**** BaB tree root node
**** Local DB = -1e+12, global bounds : [ -1e+12 , 1e+06 ], TIME = 0h0m1s69t = 169
**** 1 open nodes, 0 columns (0 active), 0 dyn. constrs. (0 active), 500 art. vars. (500 active)
************************************************************************************************
<DWph=2> <it= 10> <et=2.56> <Mt= 0.01> <Spt= 0.85> <nCl=1000> <DB=-637268367.6183> <Mlp=205800026.0000> <PB=1000000> 
<DWph=2> <it= 20> <et=3.38> <Mt= 0.02> <Spt= 0.80> <nCl=1000> <DB=-632903817.6583> <Mlp=118200051.0000> <PB=1000000> 
<DWph=2> <it= 30> <et=4.22> <Mt= 0.04> <Spt= 0.80> <nCl=1000> <DB=-626014257.0615> <Mlp=34800073.2500> <PB=1000000> 
<DWph=2> <it= 40> <et=5.27> <Mt= 0.06> <Spt= 0.97> <nCl=889> <DB=   59.4598> <Mlp=   84.5686> <PB=1000000> 
<DWph=2> <it= 50> <et=6.34> <Mt= 0.20> <Spt= 0.87> <nCl=998> <DB=   73.6343> <Mlp=   83.1287> <PB=1000000> 
<DWph=2> <it= 56> <et=7.02> <Mt= 0.10> <Spt= 0.58> <nCl=284> <DB=   83.0000> <Mlp=   83.0000> <PB=1000000> 
<DWph=1> <it= 57> <et=7.20> <Mt= 0.00> <Spt= 0.18> <nCl=  0> <DB=   83.0000> <Mlp=   83.0000> <PB=1000000> 
<DWph=0> <it= 58> <et=7.29> <Mt= 0.00> <Spt= 0.09> <nCl=  0> <DB=   83.0000> <Mlp=   83.0000> <PB=1000000> 
Reduced cost fixing for graph G_1... took 2.29 sec., 146369 buck. arcs remain (100% from prev., 39.2% from max.)
Run enumeration... took 1.69 sec. and not succeeded.
ColGenEvalAlg final dual bound: 83 (rounded: 83)
----------- Diving heuristic started -----------
<DWph=2> <it=  1> <et=11.32> <Mt= 0.01> <Spt= 0.00> <nCl=  0> <DB=   83.0000> <Mlp=   83.0000> <PB=1000000> 
<DWph=1> <it=  2> <et=11.32> <Mt= 0.00> <Spt= 0.00> <nCl=  0> <DB=   83.0000> <Mlp=   83.0000> <PB=1000000> 
---- Diving heuristic node with dive number = 0, fix depth = 0 and tabu list size = 0
Fixed projected solution = [x_1_0_1_OspV=1, x_1_95_1_OspV=1, x_1_162_1_OspV=1, x_1_163_1_OspV=1]
<DWph=2> <it=  1> <et=11.36> <Mt= 0.00> <Spt= 0.00> <nCl=  0> <DB=   83.0000> <Mlp=   83.0000> <PB=1000000> 
<DWph=1> <it=  2> <et=11.37> <Mt= 0.00> <Spt= 0.00> <nCl=  0> <DB=   83.0000> <Mlp=   83.0000> <PB=1000000> 
---- Diving heuristic node with dive number = 0, fix depth = 0 and tabu list size = 0
Fixed projected solution = [x_1_0_1_OspV=1, x_1_112_1_OspV=1, x_1_153_1_OspV=1, x_1_154_1_OspV=1]
<DWph=2> <it=  1> <et=11.41> <Mt= 0.00> <Spt= 0.00> <nCl=  0> <DB=   83.0000> <Mlp=   83.0000> <PB=1000000> 
<DWph=1> <it=  2> <et=11.41> <Mt= 0.00> <Spt= 0.00> <nCl=  0> <DB=   83.0000> <Mlp=   83.0000> <PB=1000000> 
---- Diving heuristic node with dive number = 0, fix depth = 0 and tabu list size = 0
Fixed projected solution = [x_1_0_1_OspV=1, x_1_46_1_OspV=1, x_1_129_1_OspV=1, x_1_211_1_OspV=1]
<DWph=2> <it=  1> <et=11.45> <Mt= 0.00> <Spt= 0.00> <nCl=  0> <DB=   83.0000> <Mlp=   83.0000> <PB=1000000> 
<DWph=1> <it=  2> <et=11.45> <Mt= 0.00> <Spt= 0.00> <nCl=  0> <DB=   83.0000> <Mlp=   83.0000> <PB=1000000> 
---- Diving heuristic node with dive number = 0, fix depth = 0 and tabu list size = 0
Fixed projected solution = [x_1_0_1_OspV=1, x_1_26_1_OspV=1, x_1_109_1_OspV=1, x_1_224_1_OspV=1]
<DWph=2> <it=  1> <et=11.50> <Mt= 0.01> <Spt= 0.00> <nCl=  0> <DB=   83.0000> <Mlp=   83.0000> <PB=1000000> 
<DWph=1> <it=  2> <et=11.50> <Mt= 0.00> <Spt= 0.00> <nCl=  0> <DB=   83.0000> <Mlp=   83.0000> <PB=1000000> 
---- Diving heuristic node with dive number = 0, fix depth = 0 and tabu list size = 0
Fixed projected solution = [x_1_0_1_OspV=1, x_1_55_1_OspV=1, x_1_100_1_OspV=1, x_1_223_1_OspV=1]
<DWph=2> <it=  1> <et=11.54> <Mt= 0.00> <Spt= 0.00> <nCl=  0> <DB=   83.0000> <Mlp=   83.0000> <PB=1000000> 
<DWph=1> <it=  2> <et=11.54> <Mt= 0.00> <Spt= 0.00> <nCl=  0> <DB=   83.0000> <Mlp=   83.0000> <PB=1000000> 
---- Diving heuristic node with dive number = 0, fix depth = 0 and tabu list size = 0
Fixed projected solution = [x_1_0_1_OspV=1, x_1_58_1_OspV=1, x_1_99_1_OspV=1, x_1_222_1_OspV=1]
<DWph=2> <it=  1> <et=11.59> <Mt= 0.00> <Spt= 0.00> <nCl=  0> <DB=   83.0000> <Mlp=   83.0000> <PB=1000000> 
<DWph=1> <it=  2> <et=11.59> <Mt= 0.00> <Spt= 0.00> <nCl=  0> <DB=   83.0000> <Mlp=   83.0000> <PB=1000000> 
---- Diving heuristic node with dive number = 0, fix depth = 0 and tabu list size = 0
Fixed projected solution = [x_1_0_1_OspV=1, x_1_38_1_OspV=1, x_1_94_1_OspV=1, x_1_225_1_OspV=1]
<DWph=2> <it=  1> <et=11.63> <Mt= 0.00> <Spt= 0.00> <nCl=  0> <DB=   83.0000> <Mlp=   83.0000> <PB=1000000> 
<DWph=1> <it=  2> <et=11.63> <Mt= 0.00> <Spt= 0.00> <nCl=  0> <DB=   83.0000> <Mlp=   83.0000> <PB=1000000> 
---- Diving heuristic node with dive number = 0, fix depth = 0 and tabu list size = 0
Fixed projected solution = [x_1_0_1_OspV=1, x_1_77_1_OspV=1, x_1_93_1_OspV=1, x_1_217_1_OspV=1]
<DWph=2> <it=  1> <et=11.67> <Mt= 0.00> <Spt= 0.00> <nCl=  0> <DB=   83.0000> <Mlp=   83.0000> <PB=1000000> 
<DWph=1> <it=  2> <et=11.67> <Mt= 0.01> <Spt= 0.00> <nCl=  0> <DB=   83.0000> <Mlp=   83.0000> <PB=1000000> 
---- Diving heuristic node with dive number = 0, fix depth = 0 and tabu list size = 0
Fixed projected solution = [x_1_0_1_OspV=1, x_1_37_1_OspV=1, x_1_91_1_OspV=1, x_1_227_1_OspV=1]
<DWph=2> <it=  1> <et=11.72> <Mt= 0.00> <Spt= 0.00> <nCl=  0> <DB=   83.0000> <Mlp=   83.0000> <PB=1000000> 
<DWph=1> <it=  2> <et=11.72> <Mt= 0.00> <Spt= 0.00> <nCl=  0> <DB=   83.0000> <Mlp=   83.0000> <PB=1000000> 
---- Diving heuristic node with dive number = 0, fix depth = 0 and tabu list size = 0
Fixed projected solution = [x_1_0_1_OspV=1, x_1_49_1_OspV=1, x_1_73_1_OspV=1, x_1_228_1_OspV=1]
<DWph=2> <it=  1> <et=11.76> <Mt= 0.00> <Spt= 0.00> <nCl=  0> <DB=   83.0000> <Mlp=   83.0000> <PB=1000000> 
<DWph=1> <it=  2> <et=11.76> <Mt= 0.00> <Spt= 0.00> <nCl=  0> <DB=   83.0000> <Mlp=   83.0000> <PB=1000000> 
---- Diving heuristic node with dive number = 0, fix depth = 0 and tabu list size = 0
Fixed projected solution = [x_1_0_1_OspV=1, x_1_53_1_OspV=1, x_1_85_1_OspV=1, x_1_226_1_OspV=1]
<DWph=2> <it=  1> <et=11.81> <Mt= 0.00> <Spt= 0.00> <nCl=  0> <DB=   83.0000> <Mlp=   83.0000> <PB=1000000> 
<DWph=1> <it=  2> <et=11.81> <Mt= 0.00> <Spt= 0.00> <nCl=  0> <DB=   83.0000> <Mlp=   83.0000> <PB=1000000> 
---- Diving heuristic node with dive number = 0, fix depth = 0 and tabu list size = 0
Fixed projected solution = [x_1_0_1_OspV=1, x_1_47_1_OspV=1, x_1_72_1_OspV=1, x_1_231_1_OspV=1]
<DWph=2> <it=  1> <et=11.85> <Mt= 0.00> <Spt= 0.00> <nCl=  0> <DB=   83.0000> <Mlp=   83.0000> <PB=1000000> 
<DWph=1> <it=  2> <et=11.85> <Mt= 0.01> <Spt= 0.00> <nCl=  0> <DB=   83.0000> <Mlp=   83.0000> <PB=1000000> 
---- Diving heuristic node with dive number = 0, fix depth = 0 and tabu list size = 0
Fixed projected solution = [x_1_0_1_OspV=1, x_1_63_1_OspV=1, x_1_64_1_OspV=1, x_1_229_1_OspV=1]
<DWph=2> <it=  1> <et=11.89> <Mt= 0.00> <Spt= 0.00> <nCl=  0> <DB=   83.0000> <Mlp=   83.0000> <PB=1000000> 
<DWph=1> <it=  2> <et=11.89> <Mt= 0.00> <Spt= 0.00> <nCl=  0> <DB=   83.0000> <Mlp=   83.0000> <PB=1000000> 
---- Diving heuristic node with dive number = 0, fix depth = 0 and tabu list size = 0
Fixed projected solution = [x_1_0_1_OspV=1, x_1_40_1_OspV=1, x_1_62_1_OspV=1, x_1_232_1_OspV=1]
<DWph=2> <it=  1> <et=11.94> <Mt= 0.00> <Spt= 0.00> <nCl=  0> <DB=   83.0000> <Mlp=   83.0000> <PB=1000000> 
<DWph=1> <it=  2> <et=11.94> <Mt= 0.00> <Spt= 0.00> <nCl=  0> <DB=   83.0000> <Mlp=   83.0000> <PB=1000000> 
---- Diving heuristic node with dive number = 0, fix depth = 0 and tabu list size = 0
Fixed projected solution = [x_1_0_1_OspV=1, x_1_4_1_OspV=1, x_1_66_1_OspV=1, x_1_235_1_OspV=1]
<DWph=2> <it=  1> <et=11.98> <Mt= 0.00> <Spt= 0.00> <nCl=  0> <DB=   83.0000> <Mlp=   83.0000> <PB=1000000> 
<DWph=1> <it=  2> <et=11.98> <Mt= 0.00> <Spt= 0.00> <nCl=  0> <DB=   83.0000> <Mlp=   83.0000> <PB=1000000> 
---- Diving heuristic node with dive number = 0, fix depth = 0 and tabu list size = 0
Fixed projected solution = [x_1_0_1_OspV=1, x_1_14_1_OspV=1, x_1_60_1_OspV=1, x_1_237_1_OspV=1]
<DWph=2> <it=  1> <et=12.02> <Mt= 0.00> <Spt= 0.00> <nCl=  0> <DB=   83.0000> <Mlp=   83.0000> <PB=1000000> 
<DWph=1> <it=  2> <et=12.03> <Mt= 0.00> <Spt= 0.00> <nCl=  0> <DB=   83.0000> <Mlp=   83.0000> <PB=1000000> 
---- Diving heuristic node with dive number = 0, fix depth = 0 and tabu list size = 0
Fixed projected solution = [x_1_0_1_OspV=1, x_1_79_1_OspV=1, x_1_142_1_OspV=1, x_1_192_1_OspV=1]
<DWph=2> <it=  1> <et=12.07> <Mt= 0.01> <Spt= 0.00> <nCl=  0> <DB=   83.0000> <Mlp=   83.0000> <PB=1000000> 
<DWph=1> <it=  2> <et=12.07> <Mt= 0.00> <Spt= 0.00> <nCl=  0> <DB=   83.0000> <Mlp=   83.0000> <PB=1000000> 
---- Diving heuristic node with dive number = 0, fix depth = 0 and tabu list size = 0
Fixed projected solution = [x_1_0_1_OspV=1, x_1_89_1_OspV=1, x_1_106_1_OspV=1, x_1_209_1_OspV=1]
<DWph=2> <it=  1> <et=12.11> <Mt= 0.00> <Spt= 0.00> <nCl=  0> <DB=   83.0000> <Mlp=   83.0000> <PB=1000000> 
<DWph=1> <it=  2> <et=12.12> <Mt= 0.00> <Spt= 0.00> <nCl=  0> <DB=   83.0000> <Mlp=   83.0000> <PB=1000000> 
---- Diving heuristic node with dive number = 0, fix depth = 1 and tabu list size = 0
Fixed projected solution = [x_1_0_1_OspV=1, x_1_82_1_OspV=1, x_1_134_1_OspV=1, x_1_199_1_OspV=1]
<DWph=2> <it=  1> <et=12.15> <Mt= 0.00> <Spt= 0.00> <nCl=  0> <DB=   83.0000> <Mlp=   83.0000> <PB=1000000> 
<DWph=1> <it=  2> <et=12.15> <Mt= 0.00> <Spt= 0.00> <nCl=  0> <DB=   83.0000> <Mlp=   83.0000> <PB=1000000> 
---- Diving heuristic node with dive number = 0, fix depth = 2 and tabu list size = 0
Fixed projected solution = [x_1_0_1_OspV=1, x_1_84_1_OspV=1, x_1_87_1_OspV=1, x_1_218_1_OspV=1]
<DWph=2> <it=  1> <et=12.20> <Mt= 0.02> <Spt= 0.00> <nCl=  0> <DB=   83.0000> <Mlp=   83.0000> <PB=1000000> 
<DWph=1> <it=  2> <et=12.20> <Mt= 0.00> <Spt= 0.00> <nCl=  0> <DB=   83.0000> <Mlp=   83.0000> <PB=1000000> 
---- Diving heuristic node with dive number = 0, fix depth = 3 and tabu list size = 0
Fixed projected solution = [x_1_0_1_OspV=1, x_1_24_1_OspV=1, x_1_118_1_OspV=1, x_1_220_1_OspV=1]
<DWph=2> <it=  1> <et=12.21> <Mt= 0.00> <Spt= 0.00> <nCl=  0> <DB=   83.0000> <Mlp=   83.0000> <PB=1000000> 
<DWph=1> <it=  2> <et=12.21> <Mt= 0.00> <Spt= 0.00> <nCl=  0> <DB=   83.0000> <Mlp=   83.0000> <PB=1000000> 
---- Diving heuristic node with dive number = 0, fix depth = 4 and tabu list size = 0
Fixed projected solution = [x_1_0_1_OspV=1, x_1_101_1_OspV=1, x_1_159_1_OspV=1, x_1_160_1_OspV=1]
<DWph=2> <it=  1> <et=12.22> <Mt= 0.01> <Spt= 0.00> <nCl=  0> <DB=   83.0000> <Mlp=   83.0000> <PB=1000000> 
<DWph=1> <it=  2> <et=12.22> <Mt= 0.00> <Spt= 0.00> <nCl=  0> <DB=   83.0000> <Mlp=   83.0000> <PB=1000000> 
---- Diving heuristic node with dive number = 0, fix depth = 5 and tabu list size = 0
Fixed projected solution = [x_1_0_1_OspV=1, x_1_34_1_OspV=1, x_1_178_1_OspV=1, x_1_180_1_OspV=1]
<DWph=2> <it=  1> <et=12.24> <Mt= 0.01> <Spt= 0.00> <nCl=  0> <DB=   83.0000> <Mlp=   83.0000> <PB=1000000> 
<DWph=1> <it=  2> <et=12.24> <Mt= 0.00> <Spt= 0.00> <nCl=  0> <DB=   83.0000> <Mlp=   83.0000> <PB=1000000> 
---- Diving heuristic node with dive number = 0, fix depth = 6 and tabu list size = 0
Fixed projected solution = [x_1_0_1_OspV=1, x_1_10_1_OspV=1, x_1_31_1_OspV=1, x_1_247_1_OspV=1]
<DWph=2> <it=  1> <et=12.25> <Mt= 0.01> <Spt= 0.00> <nCl=  0> <DB=   83.0000> <Mlp=   83.0000> <PB=1000000> 
<DWph=1> <it=  2> <et=12.25> <Mt= 0.00> <Spt= 0.00> <nCl=  0> <DB=   83.0000> <Mlp=   83.0000> <PB=1000000> 
---- Diving heuristic node with dive number = 0, fix depth = 7 and tabu list size = 0
Fixed projected solution = [x_1_0_1_OspV=1, x_1_113_1_OspV=1, x_1_132_1_OspV=1, x_1_186_1_OspV=1]
<DWph=2> <it=  1> <et=12.27> <Mt= 0.01> <Spt= 0.00> <nCl=  0> <DB=   83.0000> <Mlp=   83.0000> <PB=1000000> 
<DWph=1> <it=  2> <et=12.27> <Mt= 0.00> <Spt= 0.00> <nCl=  0> <DB=   83.0000> <Mlp=   83.0000> <PB=1000000> 
---- Diving heuristic node with dive number = 0, fix depth = 8 and tabu list size = 0
Fixed projected solution = [x_1_0_1_OspV=1, x_1_71_1_OspV=1, x_1_105_1_OspV=1, x_1_216_1_OspV=1]
<DWph=2> <it=  1> <et=12.28> <Mt= 0.01> <Spt= 0.00> <nCl=  0> <DB=   83.0000> <Mlp=   83.0000> <PB=1000000> 
<DWph=1> <it=  2> <et=12.28> <Mt= 0.00> <Spt= 0.00> <nCl=  0> <DB=   83.0000> <Mlp=   83.0000> <PB=1000000> 
---- Diving heuristic node with dive number = 0, fix depth = 9 and tabu list size = 0
Fixed projected solution = [x_1_0_1_OspV=1, x_1_104_1_OspV=1, x_1_145_1_OspV=1, x_1_179_1_OspV=1]
<DWph=2> <it=  1> <et=12.30> <Mt= 0.01> <Spt= 0.00> <nCl=  0> <DB=   83.0000> <Mlp=   83.0000> <PB=1000000> 
<DWph=1> <it=  2> <et=12.30> <Mt= 0.00> <Spt= 0.00> <nCl=  0> <DB=   83.0000> <Mlp=   83.0000> <PB=1000000> 
---- Diving heuristic node with dive number = 0, fix depth = 10 and tabu list size = 0
Fixed projected solution = [x_1_0_1_OspV=1, x_1_30_1_OspV=1, x_1_41_1_OspV=1, x_1_239_1_OspV=1]
<DWph=2> <it=  1> <et=12.32> <Mt= 0.01> <Spt= 0.00> <nCl=  0> <DB=   83.0000> <Mlp=   83.0000> <PB=1000000> 
<DWph=1> <it=  2> <et=12.32> <Mt= 0.01> <Spt= 0.00> <nCl=  0> <DB=   83.0000> <Mlp=   83.0000> <PB=1000000> 
---- Diving heuristic node with dive number = 0, fix depth = 11 and tabu list size = 0
Fixed projected solution = [x_1_0_1_OspV=1, x_1_69_1_OspV=1, x_1_168_1_OspV=1, x_1_177_1_OspV=1]
<DWph=2> <it=  1> <et=12.34> <Mt= 0.01> <Spt= 0.00> <nCl=  0> <DB=   83.0000> <Mlp=   83.0000> <PB=1000000> 
<DWph=1> <it=  2> <et=12.34> <Mt= 0.00> <Spt= 0.00> <nCl=  0> <DB=   83.0000> <Mlp=   83.0000> <PB=1000000> 
---- Diving heuristic node with dive number = 0, fix depth = 12 and tabu list size = 0
Fixed projected solution = [x_1_0_1_OspV=1, x_1_96_1_OspV=1, x_1_151_1_OspV=1, x_1_176_1_OspV=1]
<DWph=2> <it=  1> <et=12.36> <Mt= 0.02> <Spt= 0.00> <nCl=  0> <DB=   83.0000> <Mlp=   83.0000> <PB=1000000> 
<DWph=1> <it=  2> <et=12.36> <Mt= 0.00> <Spt= 0.00> <nCl=  0> <DB=   83.0000> <Mlp=   83.0000> <PB=1000000> 
---- Diving heuristic node with dive number = 0, fix depth = 13 and tabu list size = 0
Fixed projected solution = [x_1_0_1_OspV=1, x_1_15_1_OspV=1, x_1_43_1_OspV=1, x_1_244_1_OspV=1]
<DWph=2> <it=  1> <et=12.38> <Mt= 0.01> <Spt= 0.00> <nCl=  0> <DB=   83.0000> <Mlp=   83.0000> <PB=1000000> 
<DWph=1> <it=  2> <et=12.38> <Mt= 0.00> <Spt= 0.00> <nCl=  0> <DB=   83.0000> <Mlp=   83.0000> <PB=1000000> 
---- Diving heuristic node with dive number = 0, fix depth = 14 and tabu list size = 0
Fixed projected solution = [x_1_0_1_OspV=1, x_1_16_1_OspV=1, x_1_70_1_OspV=1, x_1_233_1_OspV=1]
<DWph=2> <it=  1> <et=12.40> <Mt= 0.02> <Spt= 0.00> <nCl=  0> <DB=   83.0000> <Mlp=   83.0000> <PB=1000000> 
<DWph=1> <it=  2> <et=12.41> <Mt= 0.00> <Spt= 0.00> <nCl=  0> <DB=   83.0000> <Mlp=   83.0000> <PB=1000000> 
---- Diving heuristic node with dive number = 0, fix depth = 15 and tabu list size = 0
Fixed projected solution = [x_1_0_1_OspV=1, x_1_119_1_OspV=1, x_1_124_1_OspV=1, x_1_191_1_OspV=1]
<DWph=2> <it=  1> <et=12.42> <Mt= 0.01> <Spt= 0.00> <nCl=  0> <DB=   83.0000> <Mlp=   83.0000> <PB=1000000> 
<DWph=1> <it=  2> <et=12.42> <Mt= 0.01> <Spt= 0.00> <nCl=  0> <DB=   83.0000> <Mlp=   83.0000> <PB=1000000> 
---- Diving heuristic node with dive number = 0, fix depth = 16 and tabu list size = 0
Fixed projected solution = [x_1_0_1_OspV=1, x_1_27_1_OspV=1, x_1_28_1_OspV=1, x_1_241_1_OspV=1]
<DWph=2> <it=  1> <et=12.44> <Mt= 0.01> <Spt= 0.00> <nCl=  0> <DB=   83.0000> <Mlp=   83.0000> <PB=1000000> 
<DWph=1> <it=  2> <et=12.44> <Mt= 0.00> <Spt= 0.00> <nCl=  0> <DB=   83.0000> <Mlp=   83.0000> <PB=1000000> 
---- Diving heuristic node with dive number = 0, fix depth = 17 and tabu list size = 0
Fixed projected solution = [x_1_0_1_OspV=1, x_1_51_1_OspV=1, x_1_123_1_OspV=1, x_1_213_1_OspV=1]
<DWph=2> <it=  1> <et=12.45> <Mt= 0.01> <Spt= 0.00> <nCl=  0> <DB=   83.0000> <Mlp=   83.0000> <PB=1000000> 
<DWph=1> <it=  2> <et=12.46> <Mt= 0.00> <Spt= 0.00> <nCl=  0> <DB=   83.0000> <Mlp=   83.0000> <PB=1000000> 
---- Diving heuristic node with dive number = 0, fix depth = 18 and tabu list size = 0
Fixed projected solution = [x_1_0_1_OspV=1, x_1_56_1_OspV=1, x_1_122_1_OspV=1, x_1_212_1_OspV=1]
<DWph=2> <it=  1> <et=12.47> <Mt= 0.00> <Spt= 0.00> <nCl=  0> <DB=   83.0000> <Mlp=   83.0000> <PB=1000000> 
<DWph=1> <it=  2> <et=12.47> <Mt= 0.01> <Spt= 0.00> <nCl=  0> <DB=   83.0000> <Mlp=   83.0000> <PB=1000000> 
---- Diving heuristic node with dive number = 0, fix depth = 19 and tabu list size = 0
Fixed projected solution = [x_1_0_1_OspV=1, x_1_103_1_OspV=1, x_1_114_1_OspV=1, x_1_202_1_OspV=1]
<DWph=2> <it=  1> <et=12.48> <Mt= 0.01> <Spt= 0.00> <nCl=  0> <DB=   83.0000> <Mlp=   83.0000> <PB=1000000> 
<DWph=1> <it=  2> <et=12.49> <Mt= 0.00> <Spt= 0.00> <nCl=  0> <DB=   83.0000> <Mlp=   83.0000> <PB=1000000> 
---- Diving heuristic node with dive number = 0, fix depth = 20 and tabu list size = 0
Fixed projected solution = [x_1_0_1_OspV=1, x_1_102_1_OspV=1, x_1_155_1_OspV=1, x_1_164_1_OspV=1]
<DWph=2> <it=  1> <et=12.53> <Mt= 0.04> <Spt= 0.00> <nCl=  0> <DB=   83.0000> <Mlp=   83.0000> <PB=1000000> 
<DWph=1> <it=  2> <et=12.53> <Mt= 0.00> <Spt= 0.00> <nCl=  0> <DB=   83.0000> <Mlp=   83.0000> <PB=1000000> 
---- Diving heuristic node with dive number = 0, fix depth = 21 and tabu list size = 0
Fixed projected solution = [x_1_0_1_OspV=1, x_1_86_1_OspV=1, x_1_165_1_OspV=1, x_1_166_1_OspV=1]
<DWph=2> <it=  2> <et=12.67> <Mt= 0.06> <Spt= 0.08> <nCl=100> <DB=   82.3267> <Mlp=   83.0000> <PB=1000000> 
<DWph=1> <it=  3> <et=12.67> <Mt= 0.00> <Spt= 0.00> <nCl=  0> <DB=   83.0000> <Mlp=   83.0000> <PB=1000000> 
---- Diving heuristic node with dive number = 0, fix depth = 21 and tabu list size = 0
Fixed projected solution = [x_1_0_1_OspV=1, x_1_45_1_OspV=1, x_1_174_1_OspV=1, x_1_183_1_OspV=1]
<DWph=2> <it=  1> <et=12.68> <Mt= 0.00> <Spt= 0.00> <nCl=  0> <DB=   83.0000> <Mlp=   83.0000> <PB=1000000> 
<DWph=1> <it=  2> <et=12.69> <Mt= 0.00> <Spt= 0.00> <nCl=  0> <DB=   83.0000> <Mlp=   83.0000> <PB=1000000> 
---- Diving heuristic node with dive number = 0, fix depth = 21 and tabu list size = 0
Fixed projected solution = [x_1_0_1_OspV=1, x_1_61_1_OspV=1, x_1_173_1_OspV=1, x_1_175_1_OspV=1]
<DWph=2> <it=  1> <et=12.69> <Mt= 0.00> <Spt= 0.00> <nCl=  0> <DB=   83.0000> <Mlp=   83.0000> <PB=1000000> 
<DWph=1> <it=  2> <et=12.69> <Mt= 0.00> <Spt= 0.00> <nCl=  0> <DB=   83.0000> <Mlp=   83.0000> <PB=1000000> 
---- Diving heuristic node with dive number = 0, fix depth = 22 and tabu list size = 0
Fixed projected solution = [x_1_0_1_OspV=1, x_1_68_1_OspV=1, x_1_111_1_OspV=1, x_1_214_1_OspV=1]
<DWph=2> <it=  1> <et=12.70> <Mt= 0.01> <Spt= 0.00> <nCl=  0> <DB=   83.0000> <Mlp=   83.0000> <PB=1000000> 
<DWph=1> <it=  2> <et=12.70> <Mt= 0.00> <Spt= 0.00> <nCl=  0> <DB=   83.0000> <Mlp=   83.0000> <PB=1000000> 
---- Diving heuristic node with dive number = 0, fix depth = 23 and tabu list size = 0
Fixed projected solution = [x_1_0_1_OspV=1, x_1_8_1_OspV=1, x_1_133_1_OspV=1, x_1_210_1_OspV=1]
<DWph=2> <it=  1> <et=12.72> <Mt= 0.01> <Spt= 0.00> <nCl=  0> <DB=   83.0000> <Mlp=   83.0000> <PB=1000000> 
<DWph=1> <it=  2> <et=12.72> <Mt= 0.00> <Spt= 0.00> <nCl=  0> <DB=   83.0000> <Mlp=   83.0000> <PB=1000000> 
---- Diving heuristic node with dive number = 0, fix depth = 24 and tabu list size = 0
Fixed projected solution = [x_1_0_1_OspV=1, x_1_57_1_OspV=1, x_1_65_1_OspV=1, x_1_230_1_OspV=1]
<DWph=2> <it=  1> <et=12.74> <Mt= 0.02> <Spt= 0.00> <nCl=  0> <DB=   83.0000> <Mlp=   83.0000> <PB=1000000> 
<DWph=1> <it=  2> <et=12.74> <Mt= 0.00> <Spt= 0.00> <nCl=  0> <DB=   83.0000> <Mlp=   83.0000> <PB=1000000> 
---- Diving heuristic node with dive number = 0, fix depth = 24 and tabu list size = 0
Fixed projected solution = [x_1_0_1_OspV=1, x_1_23_1_OspV=1, x_1_50_1_OspV=1, x_1_234_1_OspV=1]
<DWph=2> <it=  1> <et=12.74> <Mt= 0.00> <Spt= 0.00> <nCl=  0> <DB=   83.0000> <Mlp=   83.0000> <PB=1000000> 
<DWph=1> <it=  2> <et=12.75> <Mt= 0.00> <Spt= 0.00> <nCl=  0> <DB=   83.0000> <Mlp=   83.0000> <PB=1000000> 
---- Diving heuristic node with dive number = 0, fix depth = 25 and tabu list size = 0
Fixed projected solution = [x_1_0_1_OspV=1, x_1_83_1_OspV=1, x_1_90_1_OspV=1, x_1_219_1_OspV=1]
<DWph=2> <it=  1> <et=12.77> <Mt= 0.02> <Spt= 0.00> <nCl=  0> <DB=   83.0000> <Mlp=   83.0000> <PB=1000000> 
<DWph=1> <it=  2> <et=12.77> <Mt= 0.00> <Spt= 0.00> <nCl=  0> <DB=   83.0000> <Mlp=   83.0000> <PB=1000000> 
---- Diving heuristic node with dive number = 0, fix depth = 26 and tabu list size = 0
Fixed projected solution = [x_1_0_1_OspV=1, x_1_22_1_OspV=1, x_1_181_1_OspV=1, x_1_182_1_OspV=1]
<DWph=2> <it=  1> <et=12.79> <Mt= 0.01> <Spt= 0.00> <nCl=  0> <DB=   83.0000> <Mlp=   83.0000> <PB=1000000> 
<DWph=1> <it=  2> <et=12.79> <Mt= 0.00> <Spt= 0.00> <nCl=  0> <DB=   83.0000> <Mlp=   83.0000> <PB=1000000> 
---- Diving heuristic node with dive number = 0, fix depth = 27 and tabu list size = 0
Fixed projected solution = [x_1_0_1_OspV=1, x_1_98_1_OspV=1, x_1_116_1_OspV=1, x_1_204_1_OspV=1]
<DWph=2> <it=  1> <et=12.81> <Mt= 0.02> <Spt= 0.00> <nCl=  0> <DB=   83.0000> <Mlp=   83.0000> <PB=1000000> 
<DWph=1> <it=  2> <et=12.81> <Mt= 0.00> <Spt= 0.00> <nCl=  0> <DB=   83.0000> <Mlp=   83.0000> <PB=1000000> 
---- Diving heuristic node with dive number = 0, fix depth = 27 and tabu list size = 0
Fixed projected solution = [x_1_0_1_OspV=1, x_1_141_1_OspV=1, x_1_143_1_OspV=1, x_1_144_1_OspV=1]
<DWph=2> <it=  1> <et=12.82> <Mt= 0.00> <Spt= 0.00> <nCl=  0> <DB=   83.0000> <Mlp=   83.0000> <PB=1000000> 
<DWph=1> <it=  2> <et=12.82> <Mt= 0.00> <Spt= 0.00> <nCl=  0> <DB=   83.0000> <Mlp=   83.0000> <PB=1000000> 
---- Diving heuristic node with dive number = 0, fix depth = 27 and tabu list size = 0
Fixed projected solution = [x_1_0_1_OspV=1, x_1_67_1_OspV=1, x_1_97_1_OspV=1, x_1_221_1_OspV=1]
<DWph=2> <it=  1> <et=12.83> <Mt= 0.00> <Spt= 0.00> <nCl=  0> <DB=   83.0000> <Mlp=   83.0000> <PB=1000000> 
<DWph=1> <it=  2> <et=12.83> <Mt= 0.01> <Spt= 0.00> <nCl=  0> <DB=   83.0000> <Mlp=   83.0000> <PB=1000000> 
---- Diving heuristic node with dive number = 0, fix depth = 28 and tabu list size = 0
Fixed projected solution = [x_1_0_1_OspV=1, x_1_80_1_OspV=1, x_1_130_1_OspV=1, x_1_203_1_OspV=1]
<DWph=2> <it=  1> <et=12.85> <Mt= 0.01> <Spt= 0.00> <nCl=  0> <DB=   83.0000> <Mlp=   83.0000> <PB=1000000> 
<DWph=1> <it=  2> <et=12.85> <Mt= 0.00> <Spt= 0.00> <nCl=  0> <DB=   83.0000> <Mlp=   83.0000> <PB=1000000> 
---- Diving heuristic node with dive number = 0, fix depth = 29 and tabu list size = 0
Fixed projected solution = [x_1_0_1_OspV=1, x_1_20_1_OspV=1, x_1_170_1_OspV=1, x_1_185_1_OspV=1]
<DWph=2> <it=  1> <et=12.87> <Mt= 0.02> <Spt= 0.00> <nCl=  0> <DB=   83.0000> <Mlp=   83.0000> <PB=1000000> 
<DWph=1> <it=  2> <et=12.87> <Mt= 0.00> <Spt= 0.00> <nCl=  0> <DB=   83.0000> <Mlp=   83.0000> <PB=1000000> 
---- Diving heuristic node with dive number = 0, fix depth = 30 and tabu list size = 0
Fixed projected solution = [x_1_0_1_OspV=1, x_1_74_1_OspV=1, x_1_169_1_OspV=1, x_1_171_1_OspV=1]
<DWph=2> <it=  2> <et=13.01> <Mt= 0.06> <Spt= 0.07> <nCl=100> <DB=   82.6162> <Mlp=   83.0000> <PB=1000000> 
<DWph=1> <it=  3> <et=13.01> <Mt= 0.00> <Spt= 0.00> <nCl=  0> <DB=   83.0000> <Mlp=   83.0000> <PB=1000000> 
---- Diving heuristic node with dive number = 0, fix depth = 31 and tabu list size = 0
Fixed projected solution = [x_1_0_1_OspV=1, x_1_17_1_OspV=1, x_1_137_1_OspV=1, x_1_207_1_OspV=1]
<DWph=2> <it=  2> <et=13.12> <Mt= 0.02> <Spt= 0.08> <nCl=100> <DB=   82.7528> <Mlp=   83.0000> <PB=1000000> 
<DWph=1> <it=  3> <et=13.12> <Mt= 0.00> <Spt= 0.00> <nCl=  0> <DB=   83.0000> <Mlp=   83.0000> <PB=1000000> 
---- Diving heuristic node with dive number = 0, fix depth = 32 and tabu list size = 0
Fixed projected solution = [x_1_0_1_OspV=1, x_1_52_1_OspV=1, x_1_156_1_OspV=1, x_1_189_1_OspV=1]
<DWph=2> <it=  2> <et=13.25> <Mt= 0.04> <Spt= 0.08> <nCl=100> <DB=   82.8462> <Mlp=   83.0000> <PB=1000000> 
<DWph=1> <it=  3> <et=13.25> <Mt= 0.00> <Spt= 0.00> <nCl=  0> <DB=   83.0000> <Mlp=   83.0000> <PB=1000000> 
---- Diving heuristic node with dive number = 0, fix depth = 33 and tabu list size = 0
Fixed projected solution = [x_1_0_1_OspV=1, x_1_33_1_OspV=1, x_1_139_1_OspV=1, x_1_205_1_OspV=1]
<DWph=2> <it=  1> <et=13.29> <Mt= 0.03> <Spt= 0.00> <nCl=  0> <DB=   83.0000> <Mlp=   83.0000> <PB=1000000> 
<DWph=1> <it=  2> <et=13.29> <Mt= 0.00> <Spt= 0.00> <nCl=  0> <DB=   83.0000> <Mlp=   83.0000> <PB=1000000> 
---- Diving heuristic node with dive number = 0, fix depth = 34 and tabu list size = 0
Fixed projected solution = [x_1_0_1_OspV=1, x_1_5_1_OspV=1, x_1_42_1_OspV=1, x_1_245_1_OspV=1]
<DWph=2> <it=  1> <et=13.31> <Mt= 0.02> <Spt= 0.00> <nCl=  0> <DB=   83.0000> <Mlp=   83.0000> <PB=1000000> 
<DWph=1> <it=  2> <et=13.31> <Mt= 0.00> <Spt= 0.00> <nCl=  0> <DB=   83.0000> <Mlp=   83.0000> <PB=1000000> 
---- Diving heuristic node with dive number = 0, fix depth = 34 and tabu list size = 0
Fixed projected solution = [x_1_0_1_OspV=1, x_1_2_1_OspV=1, x_1_59_1_OspV=1, x_1_238_1_OspV=1]
<DWph=2> <it=  1> <et=13.31> <Mt= 0.00> <Spt= 0.00> <nCl=  0> <DB=   83.0000> <Mlp=   83.0000> <PB=1000000> 
<DWph=1> <it=  2> <et=13.31> <Mt= 0.00> <Spt= 0.00> <nCl=  0> <DB=   83.0000> <Mlp=   83.0000> <PB=1000000> 
---- Diving heuristic node with dive number = 0, fix depth = 34 and tabu list size = 0
Fixed projected solution = [x_1_0_1_OspV=1, x_1_7_1_OspV=1, x_1_21_1_OspV=1, x_1_248_1_OspV=1]
<DWph=2> <it=  1> <et=13.32> <Mt= 0.00> <Spt= 0.00> <nCl=  0> <DB=   83.0000> <Mlp=   83.0000> <PB=1000000> 
<DWph=1> <it=  2> <et=13.32> <Mt= 0.00> <Spt= 0.00> <nCl=  0> <DB=   83.0000> <Mlp=   83.0000> <PB=1000000> 
---- Diving heuristic node with dive number = 0, fix depth = 34 and tabu list size = 0
Fixed projected solution = [x_1_0_1_OspV=1, x_1_12_1_OspV=1, x_1_36_1_OspV=1, x_1_246_1_OspV=1]
<DWph=2> <it=  1> <et=13.32> <Mt= 0.00> <Spt= 0.00> <nCl=  0> <DB=   83.0000> <Mlp=   83.0000> <PB=1000000> 
<DWph=1> <it=  2> <et=13.32> <Mt= 0.00> <Spt= 0.00> <nCl=  0> <DB=   83.0000> <Mlp=   83.0000> <PB=1000000> 
---- Diving heuristic node with dive number = 0, fix depth = 35 and tabu list size = 0
Fixed projected solution = [x_1_0_1_OspV=1, x_1_1_1_OspV=1, x_1_161_1_OspV=1, x_1_193_1_OspV=1]
<DWph=2> <it=  3> <et=13.58> <Mt= 0.10> <Spt= 0.15> <nCl=200> <DB=   82.5137> <Mlp=   83.0000> <PB=83> 
New model incumbent solution 83, TIME = 0h0m13s60t = 1360
************************************************************************************************
Search is finished, global bounds : [ 83 , 83 ], TIME = 0h0m13s60t = 1360
************************************************************************************************
[32mBaPCod : solution defined.[00m
statistics_cols: instance & :Optimal & cutoff & :bcRecRootDb & :bcTimeRootEval & :bcCountNodeProc & :bcRecBestDb & :bcRecBestInc & :bcTimeMain \\
statistics: Falkenauer_t249_18 & 1 & 1.0e6 & 83.00 & 11.32 & 1 & 83.00 & 83 & 13.60 \\
########################################################
bin_id=1: 254(2) 372(1) 374(2) 
bin_id=2: 257(4) 371(1) 372(0) 
bin_id=3: 259(3) 367(3) 374(2) 
bin_id=4: 265(4) 367(3) 368(1) 
bin_id=5: 253(2) 363(0) 384(0) 
bin_id=6: 272(2) 363(0) 365(1) 
bin_id=7: 280(4) 360(0) 360(2) 
bin_id=8: 286(1) 357(0) 357(3) 
bin_id=9: 250(1) 356(3) 394(1) 
bin_id=10: 289(0) 355(2) 356(1) 
bin_id=11: 262(4) 352(4) 386(0) 
bin_id=12: 297(3) 351(2) 352(0) 
bin_id=13: 259(3) 342(0) 399(2) 
bin_id=14: 251(3) 342(0) 407(1) 
bin_id=15: 322(4) 338(4) 340(0) 
bin_id=16: 330(4) 334(0) 336(3) 
bin_id=17: 253(1) 323(3) 424(1) 
bin_id=18: 251(1) 319(1) 430(0) 
bin_id=19: 260(3) 310(1) 430(2) 
bin_id=20: 262(3) 306(2) 432(4) 
bin_id=21: 263(4) 306(1) 431(2) 
bin_id=22: 255(1) 303(2) 442(2) 
bin_id=23: 256(1) 294(3) 450(0) 
bin_id=24: 263(4) 288(4) 449(3) 
bin_id=25: 264(4) 288(0) 448(3) 
bin_id=26: 258(2) 285(4) 457(1) 
bin_id=27: 276(2) 285(3) 439(0) 
bin_id=28: 258(1) 283(1) 459(3) 
bin_id=29: 262(1) 272(1) 466(0) 
bin_id=30: 264(1) 267(3) 469(0) 
bin_id=31: 263(1) 279(3) 458(4) 
bin_id=32: 257(2) 329(4) 414(0) 
bin_id=33: 260(4) 271(3) 469(4) 
bin_id=34: 267(1) 267(2) 466(1) 
bin_id=35: 258(3) 266(4) 476(4) 
bin_id=36: 250(2) 259(1) 491(3) 
bin_id=37: 255(0) 262(3) 483(2) 
bin_id=38: 250(1) 264(4) 486(3) 
bin_id=39: 258(0) 258(3) 484(1) 
bin_id=40: 252(2) 268(4) 480(2) 
bin_id=41: 276(1) 329(0) 395(2) 
bin_id=42: 250(2) 267(4) 483(3) 
bin_id=43: 278(4) 282(3) 440(1) 
bin_id=44: 273(0) 305(3) 422(0) 
bin_id=45: 251(4) 265(4) 484(3) 
bin_id=46: 278(4) 320(4) 402(3) 
bin_id=47: 277(3) 313(0) 410(2) 
bin_id=48: 287(1) 302(2) 411(4) 
bin_id=49: 256(4) 258(4) 486(3) 
bin_id=50: 255(2) 256(4) 489(4) 
bin_id=51: 278(0) 315(0) 407(1) 
bin_id=52: 277(1) 332(0) 391(2) 
bin_id=53: 251(0) 254(1) 495(1) 
bin_id=54: 253(1) 257(2) 490(2) 
bin_id=55: 256(3) 256(4) 488(4) 
bin_id=56: 281(3) 293(2) 426(2) 
bin_id=57: 307(2) 309(3) 384(4) 
bin_id=58: 303(3) 306(3) 391(1) 
bin_id=59: 287(0) 344(2) 369(3) 
bin_id=60: 292(4) 337(2) 371(4) 
bin_id=61: 290(4) 352(1) 358(3) 
bin_id=62: 296(4) 303(0) 401(4) 
bin_id=63: 279(1) 281(0) 440(1) 
bin_id=64: 294(2) 351(1) 355(1) 
bin_id=65: 251(3) 258(0) 491(4) 
bin_id=66: 268(3) 362(3) 370(0) 
bin_id=67: 251(2) 257(2) 492(3) 
bin_id=68: 268(2) 297(2) 435(1) 
bin_id=69: 251(4) 259(2) 490(2) 
bin_id=70: 299(4) 317(4) 384(1) 
bin_id=71: 270(4) 293(0) 437(2) 
bin_id=72: 281(2) 293(3) 426(2) 
bin_id=73: 305(4) 330(0) 365(1) 
bin_id=74: 306(3) 310(1) 384(4) 
bin_id=75: 268(1) 287(0) 445(4) 
bin_id=76: 292(2) 300(2) 408(0) 
bin_id=77: 250(2) 251(3) 499(3) 
bin_id=78: 276(3) 343(3) 381(1) 
bin_id=79: 250(1) 362(0) 388(2) 
bin_id=80: 251(1) 353(4) 396(0) 
bin_id=81: 283(2) 321(0) 396(3) 
bin_id=82: 253(2) 260(4) 487(2) 
bin_id=83: 263(2) 301(3) 436(0) 
Objective value: 83.0
########################################################
