Application parameters:
  batch  =>  nothing
  instance  =>  "/IN/Falkenauer_t60_06.txt-Q5"
  ub  =>  1.0e6
  cfg  =>  "/CFG/BPP.cfg"
data = Colored Bin Packing dataset.
number of items = 60
number of colors = 5
capacity = 1000
Items : 
	 item 1, weight= 250, color= 0
	 item 2, weight= 250, color= 1
	 item 3, weight= 250, color= 3
	 item 4, weight= 252, color= 3
	 item 5, weight= 252, color= 4
	 item 6, weight= 253, color= 2
	 item 7, weight= 259, color= 1
	 item 8, weight= 261, color= 3
	 item 9, weight= 262, color= 1
	 item 10, weight= 265, color= 2
	 item 11, weight= 269, color= 1
	 item 12, weight= 273, color= 0
	 item 13, weight= 274, color= 0
	 item 14, weight= 275, color= 1
	 item 15, weight= 275, color= 3
	 item 16, weight= 276, color= 0
	 item 17, weight= 276, color= 0
	 item 18, weight= 276, color= 1
	 item 19, weight= 278, color= 3
	 item 20, weight= 279, color= 4
	 item 21, weight= 281, color= 4
	 item 22, weight= 284, color= 2
	 item 23, weight= 284, color= 3
	 item 24, weight= 287, color= 3
	 item 25, weight= 292, color= 3
	 item 26, weight= 297, color= 1
	 item 27, weight= 300, color= 1
	 item 28, weight= 304, color= 4
	 item 29, weight= 310, color= 2
	 item 30, weight= 317, color= 0
	 item 31, weight= 321, color= 4
	 item 32, weight= 322, color= 2
	 item 33, weight= 322, color= 4
	 item 34, weight= 328, color= 4
	 item 35, weight= 337, color= 1
	 item 36, weight= 339, color= 4
	 item 37, weight= 344, color= 0
	 item 38, weight= 355, color= 2
	 item 39, weight= 357, color= 2
	 item 40, weight= 365, color= 1
	 item 41, weight= 368, color= 0
	 item 42, weight= 369, color= 1
	 item 43, weight= 374, color= 0
	 item 44, weight= 374, color= 3
	 item 45, weight= 375, color= 0
	 item 46, weight= 380, color= 1
	 item 47, weight= 388, color= 4
	 item 48, weight= 394, color= 2
	 item 49, weight= 400, color= 2
	 item 50, weight= 403, color= 2
	 item 51, weight= 405, color= 3
	 item 52, weight= 424, color= 2
	 item 53, weight= 427, color= 0
	 item 54, weight= 449, color= 3
	 item 55, weight= 450, color= 0
	 item 56, weight= 451, color= 2
	 item 57, weight= 464, color= 3
	 item 58, weight= 471, color= 2
	 item 59, weight= 485, color= 4
	 item 60, weight= 498, color= 3

VRPSolver warning: Interval set for resource 1 on source node (when source != sink) is ignored (by definition is [0.0,0.0])
VRPSolver warning: Interval set for resource 2 on source node (when source != sink) is ignored (by definition is [0.0,0.0])
VRPSolver warning: Interval set for resource 3 on source node (when source != sink) is ignored (by definition is [0.0,0.0])
VRPSolver warning: Interval set for resource 4 on source node (when source != sink) is ignored (by definition is [0.0,0.0])
VRPSolver warning: Interval set for resource 5 on source node (when source != sink) is ignored (by definition is [0.0,0.0])
VRPSolver warning: Interval set for resource 6 on source node (when source != sink) is ignored (by definition is [0.0,0.0])
[41m solve [00m
~~~~~~~~~~~~~~~~~~~~~~~~~~~~~~~~~~~~~~~~~~~~~~~~~~~~~~~~~~~~~~~~~~~~~~~~~~~~~~
VRPSolver v0.4.1, 24/03/2021. Web: vrpsolver.math.u-bordeaux.fr
Corresponds to the solver by Pessoa, Sadykov, Uchoa and Vanderbeck (2020)
Paper: dx.doi.org/10.1007/s10107-020-01523-z
USE THIS CODE ONLY FOR ACADEMIC PURPOSES AT YOUR OWN RISK
~~~~~~~~~~~~~~~~~~~~~~~~~~~~~~~~~~~~~~~~~~~~~~~~~~~~~~~~~~~~~~~~~~~~~~~~~~~~~~
BaPCod v053, 24/03/2021, © Inria Bordeaux, France
~~~~~~~~~~~~~~~~~~~~~~~~~~~~~~~~~~~~~~~~~~~~~~~~~~~~~~~~~~~~~~~~~~~~~~~~~~~~~~
VRPSolver parameters:
GlobalTimeLimit = 60
MaxNbOfBBtreeNodeTreated = 100000
treeSearchStrategy = 1
RCSPstopCutGenTimeThresholdInPricing = 10
RCSPhardTimeThresholdInPricing = 20
RCSPnumberOfBucketsPerVertex = 2000
RCSPdynamicBucketSteps = 0
RCSPuseBidirectionalSearch = 1
RCSPapplyReducedCostFixing = 1
RCSPredCostFixingFalseGap = 0
RCSPmaxNumOfColsPerIteration = 100
RCSPmaxNumOfColsPerExactIteration = 100
RCSPheurLabelingStrategy = 4
StabilizationMinPhaseOfStage = 1
RCSPmaxNumOfLabelsInEnumeration = 100000
RCSPmaxNumOfEnumeratedSolutions = 1000000
RCSPmaxNumOfEnumSolutionsForMIP = 100000
RCSPinitNGneighbourhoodSize = 0
RCSPmaxNGneighbourhoodSize = 0
RCSPrankOneCutsMaxNumPerRound = 100
RCSPrankOneCutsMaxNumRows = -1
RCSPrankOneCutsMemoryType = 2
CutTailingOffThreshold = 0.02
CutTailingOffCounterThreshold = 3
SafeDualBoundScaleFactor = -1
StrongBranchingPhaseOneCandidatesNumber = 100
StrongBranchingPhaseOneTreeSizeEstimRatio = 0.3
StrongBranchingPhaseTwoCandidatesNumber = 1
StrongBranchingPhaseTwoTreeSizeEstimRatio = 0.1
MaxTimeForRestrictedMasterIpHeur = -1
DivingHeurUseDepthLimit = 0
MaxLDSbreadth = 3
MaxLDSdepth = 2
New model incumbent solution 1e+06, TIME = 0h0m0s3t = 3
Model is built TIME = 0h0m1s26t = 126
************************************************************************************************
**** BaB tree root node
**** Local DB = -1e+12, global bounds : [ -1e+12 , 1e+06 ], TIME = 0h0m1s26t = 126
**** 1 open nodes, 0 columns (0 active), 0 dyn. constrs. (0 active), 122 art. vars. (122 active)
************************************************************************************************
<DWph=2> <it= 10> <et=1.44> <Mt= 0.00> <Spt= 0.16> <nCl=892> <DB=    0.3333> <Mlp=   20.3333> <PB=1000000> 
<DWph=2> <it= 15> <et=1.53> <Mt= 0.01> <Spt= 0.08> <nCl=147> <DB=   20.0000> <Mlp=   20.0000> <PB=1000000> 
<DWph=1> <it= 16> <et=1.55> <Mt= 0.00> <Spt= 0.03> <nCl=  0> <DB=   20.0000> <Mlp=   20.0000> <PB=1000000> 
<DWph=0> <it= 17> <et=1.57> <Mt= 0.00> <Spt= 0.01> <nCl=  0> <DB=   20.0000> <Mlp=   20.0000> <PB=1000000> 
Reduced cost fixing for graph G_1... took 0.22 sec., 22904 buck. arcs remain (100% from prev., 33.7% from max.)
Run enumeration... took 0.16 sec. and succeeded! Pricing will be done by inspection.
ColGenEvalAlg final dual bound: 20 (rounded: 20)
----- Terminating the node by MIP -----
MIP found solution with value 20
New model incumbent solution 20, TIME = 0h0m3s29t = 329
************************************************************************************************
Search is finished, global bounds : [ 20 , 20 ], TIME = 0h0m3s29t = 329
************************************************************************************************
[32mBaPCod : solution defined.[00m
statistics_cols: instance & :Optimal & cutoff & :bcRecRootDb & :bcTimeRootEval & :bcCountNodeProc & :bcRecBestDb & :bcRecBestInc & :bcTimeMain \\
statistics: Falkenauer_t60_06 & 1 & 1.0e6 & 20.00 & 3.29 & 1 & 20.00 & 20 & 3.29 \\
########################################################
bin_id=1: 259(1) 317(0) 424(2) 
bin_id=2: 250(1) 300(1) 450(0) 
bin_id=3: 269(1) 337(1) 394(2) 
bin_id=4: 252(4) 284(2) 464(3) 
bin_id=5: 292(3) 328(4) 380(1) 
bin_id=6: 273(0) 339(4) 388(4) 
bin_id=7: 275(1) 357(2) 368(0) 
bin_id=8: 278(3) 322(4) 400(2) 
bin_id=9: 287(3) 310(2) 403(2) 
bin_id=10: 281(4) 344(0) 375(0) 
bin_id=11: 276(0) 355(2) 369(1) 
bin_id=12: 274(0) 321(4) 405(3) 
bin_id=13: 250(3) 279(4) 471(2) 
bin_id=14: 253(2) 262(1) 485(4) 
bin_id=15: 265(2) 284(3) 451(2) 
bin_id=16: 275(3) 276(0) 449(3) 
bin_id=17: 261(3) 365(1) 374(3) 
bin_id=18: 304(4) 322(2) 374(0) 
bin_id=19: 276(1) 297(1) 427(0) 
bin_id=20: 250(0) 252(3) 498(3) 
Objective value: 20.0
########################################################
