Application parameters:
  batch  =>  nothing
  instance  =>  "/IN/Falkenauer_t120_00.txt-Q5"
  ub  =>  1.0e6
  cfg  =>  "/CFG/BPP.cfg"
data = Colored Bin Packing dataset.
number of items = 120
number of colors = 5
capacity = 1000
Items : 
	 item 1, weight= 250, color= 2
	 item 2, weight= 250, color= 4
	 item 3, weight= 251, color= 1
	 item 4, weight= 251, color= 2
	 item 5, weight= 252, color= 1
	 item 6, weight= 252, color= 3
	 item 7, weight= 252, color= 3
	 item 8, weight= 252, color= 4
	 item 9, weight= 253, color= 0
	 item 10, weight= 253, color= 1
	 item 11, weight= 253, color= 3
	 item 12, weight= 253, color= 4
	 item 13, weight= 254, color= 0
	 item 14, weight= 254, color= 2
	 item 15, weight= 254, color= 3
	 item 16, weight= 255, color= 2
	 item 17, weight= 256, color= 4
	 item 18, weight= 258, color= 1
	 item 19, weight= 259, color= 0
	 item 20, weight= 259, color= 2
	 item 21, weight= 259, color= 3
	 item 22, weight= 260, color= 2
	 item 23, weight= 261, color= 0
	 item 24, weight= 262, color= 4
	 item 25, weight= 262, color= 4
	 item 26, weight= 263, color= 0
	 item 27, weight= 263, color= 3
	 item 28, weight= 266, color= 0
	 item 29, weight= 267, color= 0
	 item 30, weight= 267, color= 2
	 item 31, weight= 268, color= 0
	 item 32, weight= 269, color= 0
	 item 33, weight= 269, color= 3
	 item 34, weight= 271, color= 0
	 item 35, weight= 271, color= 2
	 item 36, weight= 272, color= 0
	 item 37, weight= 272, color= 4
	 item 38, weight= 273, color= 0
	 item 39, weight= 273, color= 2
	 item 40, weight= 274, color= 2
	 item 41, weight= 275, color= 0
	 item 42, weight= 275, color= 1
	 item 43, weight= 276, color= 2
	 item 44, weight= 282, color= 2
	 item 45, weight= 282, color= 4
	 item 46, weight= 283, color= 1
	 item 47, weight= 287, color= 1
	 item 48, weight= 288, color= 2
	 item 49, weight= 290, color= 2
	 item 50, weight= 292, color= 4
	 item 51, weight= 294, color= 3
	 item 52, weight= 295, color= 1
	 item 53, weight= 298, color= 1
	 item 54, weight= 298, color= 3
	 item 55, weight= 298, color= 3
	 item 56, weight= 299, color= 1
	 item 57, weight= 301, color= 1
	 item 58, weight= 302, color= 2
	 item 59, weight= 303, color= 2
	 item 60, weight= 307, color= 1
	 item 61, weight= 313, color= 4
	 item 62, weight= 314, color= 4
	 item 63, weight= 315, color= 1
	 item 64, weight= 320, color= 4
	 item 65, weight= 325, color= 0
	 item 66, weight= 329, color= 4
	 item 67, weight= 333, color= 0
	 item 68, weight= 336, color= 1
	 item 69, weight= 347, color= 3
	 item 70, weight= 350, color= 0
	 item 71, weight= 350, color= 3
	 item 72, weight= 350, color= 4
	 item 73, weight= 351, color= 1
	 item 74, weight= 352, color= 1
	 item 75, weight= 355, color= 0
	 item 76, weight= 356, color= 1
	 item 77, weight= 356, color= 4
	 item 78, weight= 357, color= 0
	 item 79, weight= 357, color= 1
	 item 80, weight= 361, color= 0
	 item 81, weight= 362, color= 3
	 item 82, weight= 363, color= 3
	 item 83, weight= 363, color= 4
	 item 84, weight= 366, color= 2
	 item 85, weight= 366, color= 2
	 item 86, weight= 366, color= 3
	 item 87, weight= 366, color= 3
	 item 88, weight= 366, color= 4
	 item 89, weight= 370, color= 0
	 item 90, weight= 372, color= 0
	 item 91, weight= 376, color= 2
	 item 92, weight= 395, color= 4
	 item 93, weight= 397, color= 4
	 item 94, weight= 400, color= 3
	 item 95, weight= 405, color= 0
	 item 96, weight= 407, color= 1
	 item 97, weight= 410, color= 0
	 item 98, weight= 412, color= 3
	 item 99, weight= 414, color= 0
	 item 100, weight= 419, color= 4
	 item 101, weight= 420, color= 2
	 item 102, weight= 430, color= 4
	 item 103, weight= 434, color= 1
	 item 104, weight= 439, color= 3
	 item 105, weight= 444, color= 3
	 item 106, weight= 445, color= 4
	 item 107, weight= 445, color= 4
	 item 108, weight= 446, color= 4
	 item 109, weight= 450, color= 4
	 item 110, weight= 466, color= 4
	 item 111, weight= 470, color= 2
	 item 112, weight= 472, color= 1
	 item 113, weight= 473, color= 1
	 item 114, weight= 474, color= 3
	 item 115, weight= 478, color= 1
	 item 116, weight= 480, color= 3
	 item 117, weight= 485, color= 3
	 item 118, weight= 495, color= 3
	 item 119, weight= 497, color= 2
	 item 120, weight= 497, color= 4

VRPSolver warning: Interval set for resource 1 on source node (when source != sink) is ignored (by definition is [0.0,0.0])
VRPSolver warning: Interval set for resource 2 on source node (when source != sink) is ignored (by definition is [0.0,0.0])
VRPSolver warning: Interval set for resource 3 on source node (when source != sink) is ignored (by definition is [0.0,0.0])
VRPSolver warning: Interval set for resource 4 on source node (when source != sink) is ignored (by definition is [0.0,0.0])
VRPSolver warning: Interval set for resource 5 on source node (when source != sink) is ignored (by definition is [0.0,0.0])
VRPSolver warning: Interval set for resource 6 on source node (when source != sink) is ignored (by definition is [0.0,0.0])
[41m solve [00m
~~~~~~~~~~~~~~~~~~~~~~~~~~~~~~~~~~~~~~~~~~~~~~~~~~~~~~~~~~~~~~~~~~~~~~~~~~~~~~
VRPSolver v0.4.1, 24/03/2021. Web: vrpsolver.math.u-bordeaux.fr
Corresponds to the solver by Pessoa, Sadykov, Uchoa and Vanderbeck (2020)
Paper: dx.doi.org/10.1007/s10107-020-01523-z
USE THIS CODE ONLY FOR ACADEMIC PURPOSES AT YOUR OWN RISK
~~~~~~~~~~~~~~~~~~~~~~~~~~~~~~~~~~~~~~~~~~~~~~~~~~~~~~~~~~~~~~~~~~~~~~~~~~~~~~
BaPCod v053, 24/03/2021, © Inria Bordeaux, France
~~~~~~~~~~~~~~~~~~~~~~~~~~~~~~~~~~~~~~~~~~~~~~~~~~~~~~~~~~~~~~~~~~~~~~~~~~~~~~
VRPSolver parameters:
GlobalTimeLimit = 60
MaxNbOfBBtreeNodeTreated = 100000
treeSearchStrategy = 1
RCSPstopCutGenTimeThresholdInPricing = 10
RCSPhardTimeThresholdInPricing = 20
RCSPnumberOfBucketsPerVertex = 2000
RCSPdynamicBucketSteps = 0
RCSPuseBidirectionalSearch = 1
RCSPapplyReducedCostFixing = 1
RCSPredCostFixingFalseGap = 0
RCSPmaxNumOfColsPerIteration = 100
RCSPmaxNumOfColsPerExactIteration = 100
RCSPheurLabelingStrategy = 4
StabilizationMinPhaseOfStage = 1
RCSPmaxNumOfLabelsInEnumeration = 100000
RCSPmaxNumOfEnumeratedSolutions = 1000000
RCSPmaxNumOfEnumSolutionsForMIP = 100000
RCSPinitNGneighbourhoodSize = 0
RCSPmaxNGneighbourhoodSize = 0
RCSPrankOneCutsMaxNumPerRound = 100
RCSPrankOneCutsMaxNumRows = -1
RCSPrankOneCutsMemoryType = 2
CutTailingOffThreshold = 0.02
CutTailingOffCounterThreshold = 3
SafeDualBoundScaleFactor = -1
StrongBranchingPhaseOneCandidatesNumber = 100
StrongBranchingPhaseOneTreeSizeEstimRatio = 0.3
StrongBranchingPhaseTwoCandidatesNumber = 1
StrongBranchingPhaseTwoTreeSizeEstimRatio = 0.1
MaxTimeForRestrictedMasterIpHeur = -1
DivingHeurUseDepthLimit = 0
MaxLDSbreadth = 3
MaxLDSdepth = 2
New model incumbent solution 1e+06, TIME = 0h0m0s3t = 3
Model is built TIME = 0h0m1s42t = 142
************************************************************************************************
**** BaB tree root node
**** Local DB = -1e+12, global bounds : [ -1e+12 , 1e+06 ], TIME = 0h0m1s42t = 142
**** 1 open nodes, 0 columns (0 active), 0 dyn. constrs. (0 active), 242 art. vars. (242 active)
************************************************************************************************
<DWph=2> <it= 10> <et=1.75> <Mt= 0.00> <Spt= 0.31> <nCl=1000> <DB=-303922856.7709> <Mlp=61800027.5000> <PB=1000000> 
<DWph=2> <it= 20> <et=2.09> <Mt= 0.02> <Spt= 0.32> <nCl=1000> <DB=-238771020.8536> <Mlp=2585494.5727> <PB=1000000> 
<DWph=2> <it= 29> <et=2.47> <Mt= 0.03> <Spt= 0.35> <nCl=573> <DB=   40.0000> <Mlp=   40.0000> <PB=1000000> 
<DWph=1> <it= 30> <et=2.51> <Mt= 0.00> <Spt= 0.04> <nCl=  0> <DB=   40.0000> <Mlp=   40.0000> <PB=1000000> 
<DWph=0> <it= 31> <et=2.54> <Mt= 0.00> <Spt= 0.03> <nCl=  0> <DB=   40.0000> <Mlp=   40.0000> <PB=1000000> 
Reduced cost fixing for graph G_1... took 0.85 sec., 59259 buck. arcs remain (100% from prev., 36.9% from max.)
Run enumeration... took 1.91 sec. and succeeded! Pricing will be done by inspection.
<DWph=2> <it= 32> <et=5.57> <Mt= 0.06> <Spt= 0.00> <nCl=  0> <DB=   40.0000> <Mlp=   40.0000> <PB=1000000> 
<DWph=1> <it= 33> <et=5.57> <Mt= 0.00> <Spt= 0.00> <nCl=  0> <DB=   40.0000> <Mlp=   40.0000> <PB=1000000> 
<DWph=0> <it= 34> <et=5.57> <Mt= 0.00> <Spt= 0.00> <nCl=  0> <DB=   40.0000> <Mlp=   40.0000> <PB=1000000> 
ColGenEvalAlg final dual bound: 40 (rounded: 40)
----------- Diving heuristic started -----------
<DWph=2> <it=  1> <et=5.65> <Mt= 0.00> <Spt= 0.00> <nCl=  0> <DB=   40.0000> <Mlp=   40.0000> <PB=1000000> 
<DWph=1> <it=  2> <et=5.65> <Mt= 0.00> <Spt= 0.00> <nCl=  0> <DB=   40.0000> <Mlp=   40.0000> <PB=1000000> 
<DWph=0> <it=  3> <et=5.65> <Mt= 0.00> <Spt= 0.00> <nCl=  0> <DB=   40.0000> <Mlp=   40.0000> <PB=1000000> 
ColGenEvalAlg final dual bound: 40 (rounded: 40)
---- Diving heuristic node with dive number = 0, fix depth = 0 and tabu list size = 0
Fixed projected solution = [x_1_0_1_OspV=1, x_1_1_1_OspV=1, x_1_12_1_OspV=1, x_1_120_1_OspV=1]
<DWph=2> <it=  1> <et=5.84> <Mt= 0.00> <Spt= 0.00> <nCl=  0> <DB=   40.0000> <Mlp=   40.0000> <PB=1000000> 
<DWph=1> <it=  2> <et=5.84> <Mt= 0.01> <Spt= 0.00> <nCl=  0> <DB=   40.0000> <Mlp=   40.0000> <PB=1000000> 
<DWph=0> <it=  3> <et=5.84> <Mt= 0.00> <Spt= 0.00> <nCl=  0> <DB=   40.0000> <Mlp=   40.0000> <PB=1000000> 
ColGenEvalAlg final dual bound: 40 (rounded: 40)
---- Diving heuristic node with dive number = 0, fix depth = 1 and tabu list size = 0
Fixed projected solution = [x_1_0_1_OspV=1, x_1_17_1_OspV=1, x_1_21_1_OspV=1, x_1_117_1_OspV=1]
<DWph=2> <it=  1> <et=5.93> <Mt= 0.00> <Spt= 0.00> <nCl=  0> <DB=   40.0000> <Mlp=   40.0000> <PB=1000000> 
<DWph=1> <it=  2> <et=5.93> <Mt= 0.00> <Spt= 0.00> <nCl=  0> <DB=   40.0000> <Mlp=   40.0000> <PB=1000000> 
<DWph=0> <it=  3> <et=5.93> <Mt= 0.00> <Spt= 0.00> <nCl=  0> <DB=   40.0000> <Mlp=   40.0000> <PB=1000000> 
ColGenEvalAlg final dual bound: 40 (rounded: 40)
---- Diving heuristic node with dive number = 0, fix depth = 2 and tabu list size = 0
Fixed projected solution = [x_1_0_1_OspV=1, x_1_3_1_OspV=1, x_1_15_1_OspV=1, x_1_118_1_OspV=1]
<DWph=2> <it=  1> <et=6.09> <Mt= 0.00> <Spt= 0.00> <nCl=  0> <DB=   40.0000> <Mlp=   40.0000> <PB=1000000> 
<DWph=1> <it=  2> <et=6.09> <Mt= 0.00> <Spt= 0.00> <nCl=  0> <DB=   40.0000> <Mlp=   40.0000> <PB=1000000> 
<DWph=0> <it=  3> <et=6.09> <Mt= 0.00> <Spt= 0.00> <nCl=  0> <DB=   40.0000> <Mlp=   40.0000> <PB=1000000> 
ColGenEvalAlg final dual bound: 40 (rounded: 40)
---- Diving heuristic node with dive number = 0, fix depth = 3 and tabu list size = 0
Fixed projected solution = [x_1_0_1_OspV=1, x_1_25_1_OspV=1, x_1_85_1_OspV=1, x_1_90_1_OspV=1]
<DWph=2> <it=  1> <et=6.10> <Mt= 0.00> <Spt= 0.00> <nCl=  0> <DB=   40.0000> <Mlp=   40.0000> <PB=1000000> 
<DWph=1> <it=  2> <et=6.10> <Mt= 0.00> <Spt= 0.00> <nCl=  0> <DB=   40.0000> <Mlp=   40.0000> <PB=1000000> 
<DWph=0> <it=  3> <et=6.10> <Mt= 0.00> <Spt= 0.00> <nCl=  0> <DB=   40.0000> <Mlp=   40.0000> <PB=1000000> 
ColGenEvalAlg final dual bound: 40 (rounded: 40)
---- Diving heuristic node with dive number = 0, fix depth = 4 and tabu list size = 0
Fixed projected solution = [x_1_0_1_OspV=1, x_1_14_1_OspV=1, x_1_57_1_OspV=1, x_1_107_1_OspV=1]
<DWph=2> <it=  1> <et=6.10> <Mt= 0.00> <Spt= 0.00> <nCl=  0> <DB=   40.0000> <Mlp=   40.0000> <PB=1000000> 
<DWph=1> <it=  2> <et=6.10> <Mt= 0.01> <Spt= 0.00> <nCl=  0> <DB=   40.0000> <Mlp=   40.0000> <PB=1000000> 
<DWph=0> <it=  3> <et=6.10> <Mt= 0.00> <Spt= 0.00> <nCl=  0> <DB=   40.0000> <Mlp=   40.0000> <PB=1000000> 
ColGenEvalAlg final dual bound: 40 (rounded: 40)
---- Diving heuristic node with dive number = 0, fix depth = 5 and tabu list size = 0
Fixed projected solution = [x_1_0_1_OspV=1, x_1_5_1_OspV=1, x_1_41_1_OspV=1, x_1_113_1_OspV=1]
<DWph=2> <it=  1> <et=6.11> <Mt= 0.00> <Spt= 0.00> <nCl=  0> <DB=   40.0000> <Mlp=   40.0000> <PB=1000000> 
<DWph=1> <it=  2> <et=6.11> <Mt= 0.00> <Spt= 0.00> <nCl=  0> <DB=   40.0000> <Mlp=   40.0000> <PB=1000000> 
<DWph=0> <it=  3> <et=6.11> <Mt= 0.00> <Spt= 0.00> <nCl=  0> <DB=   40.0000> <Mlp=   40.0000> <PB=1000000> 
ColGenEvalAlg final dual bound: 40 (rounded: 40)
---- Diving heuristic node with dive number = 0, fix depth = 6 and tabu list size = 0
Fixed projected solution = [x_1_0_1_OspV=1, x_1_19_1_OspV=1, x_1_34_1_OspV=1, x_1_111_1_OspV=1]
<DWph=2> <it=  1> <et=6.11> <Mt= 0.00> <Spt= 0.00> <nCl=  0> <DB=   40.0000> <Mlp=   40.0000> <PB=1000000> 
<DWph=1> <it=  2> <et=6.11> <Mt= 0.00> <Spt= 0.00> <nCl=  0> <DB=   40.0000> <Mlp=   40.0000> <PB=1000000> 
<DWph=0> <it=  3> <et=6.11> <Mt= 0.00> <Spt= 0.00> <nCl=  0> <DB=   40.0000> <Mlp=   40.0000> <PB=1000000> 
ColGenEvalAlg final dual bound: 40 (rounded: 40)
---- Diving heuristic node with dive number = 0, fix depth = 7 and tabu list size = 0
Fixed projected solution = [x_1_0_1_OspV=1, x_1_11_1_OspV=1, x_1_29_1_OspV=1, x_1_116_1_OspV=1]
<DWph=2> <it=  1> <et=6.12> <Mt= 0.01> <Spt= 0.00> <nCl=  0> <DB=   40.0000> <Mlp=   40.0000> <PB=1000000> 
<DWph=1> <it=  2> <et=6.12> <Mt= 0.00> <Spt= 0.00> <nCl=  0> <DB=   40.0000> <Mlp=   40.0000> <PB=1000000> 
<DWph=0> <it=  3> <et=6.12> <Mt= 0.00> <Spt= 0.00> <nCl=  0> <DB=   40.0000> <Mlp=   40.0000> <PB=1000000> 
ColGenEvalAlg final dual bound: 40 (rounded: 40)
---- Diving heuristic node with dive number = 0, fix depth = 8 and tabu list size = 0
Fixed projected solution = [x_1_0_1_OspV=1, x_1_50_1_OspV=1, x_1_73_1_OspV=1, x_1_79_1_OspV=1]
<DWph=2> <it=  1> <et=6.13> <Mt= 0.01> <Spt= 0.00> <nCl=  0> <DB=   40.0000> <Mlp=   40.0000> <PB=1000000> 
<DWph=1> <it=  2> <et=6.13> <Mt= 0.00> <Spt= 0.00> <nCl=  0> <DB=   40.0000> <Mlp=   40.0000> <PB=1000000> 
<DWph=0> <it=  3> <et=6.13> <Mt= 0.00> <Spt= 0.00> <nCl=  0> <DB=   40.0000> <Mlp=   40.0000> <PB=1000000> 
ColGenEvalAlg final dual bound: 40 (rounded: 40)
---- Diving heuristic node with dive number = 0, fix depth = 9 and tabu list size = 0
Fixed projected solution = [x_1_0_1_OspV=1, x_1_26_1_OspV=1, x_1_53_1_OspV=1, x_1_104_1_OspV=1]
<DWph=2> <it=  1> <et=6.14> <Mt= 0.00> <Spt= 0.00> <nCl=  0> <DB=   40.0000> <Mlp=   40.0000> <PB=1000000> 
<DWph=1> <it=  2> <et=6.14> <Mt= 0.00> <Spt= 0.00> <nCl=  0> <DB=   40.0000> <Mlp=   40.0000> <PB=1000000> 
<DWph=0> <it=  3> <et=6.14> <Mt= 0.00> <Spt= 0.00> <nCl=  0> <DB=   40.0000> <Mlp=   40.0000> <PB=1000000> 
ColGenEvalAlg final dual bound: 40 (rounded: 40)
---- Diving heuristic node with dive number = 0, fix depth = 10 and tabu list size = 0
Fixed projected solution = [x_1_0_1_OspV=1, x_1_18_1_OspV=1, x_1_43_1_OspV=1, x_1_110_1_OspV=1]
<DWph=2> <it=  1> <et=6.15> <Mt= 0.00> <Spt= 0.00> <nCl=  0> <DB=   40.0000> <Mlp=   40.0000> <PB=1000000> 
<DWph=1> <it=  2> <et=6.15> <Mt= 0.01> <Spt= 0.00> <nCl=  0> <DB=   40.0000> <Mlp=   40.0000> <PB=1000000> 
<DWph=0> <it=  3> <et=6.15> <Mt= 0.00> <Spt= 0.00> <nCl=  0> <DB=   40.0000> <Mlp=   40.0000> <PB=1000000> 
ColGenEvalAlg final dual bound: 40 (rounded: 40)
---- Diving heuristic node with dive number = 0, fix depth = 11 and tabu list size = 0
Fixed projected solution = [x_1_0_1_OspV=1, x_1_22_1_OspV=1, x_1_24_1_OspV=1, x_1_115_1_OspV=1]
<DWph=2> <it=  1> <et=6.16> <Mt= 0.00> <Spt= 0.00> <nCl=  0> <DB=   40.0000> <Mlp=   40.0000> <PB=1000000> 
<DWph=1> <it=  2> <et=6.16> <Mt= 0.00> <Spt= 0.00> <nCl=  0> <DB=   40.0000> <Mlp=   40.0000> <PB=1000000> 
<DWph=0> <it=  3> <et=6.16> <Mt= 0.01> <Spt= 0.00> <nCl=  0> <DB=   40.0000> <Mlp=   40.0000> <PB=1000000> 
ColGenEvalAlg final dual bound: 40 (rounded: 40)
---- Diving heuristic node with dive number = 0, fix depth = 12 and tabu list size = 0
Fixed projected solution = [x_1_0_1_OspV=1, x_1_7_1_OspV=1, x_1_59_1_OspV=1, x_1_106_1_OspV=1]
<DWph=2> <it=  1> <et=6.17> <Mt= 0.00> <Spt= 0.00> <nCl=  0> <DB=   40.0000> <Mlp=   40.0000> <PB=1000000> 
<DWph=1> <it=  2> <et=6.17> <Mt= 0.01> <Spt= 0.00> <nCl=  0> <DB=   40.0000> <Mlp=   40.0000> <PB=1000000> 
<DWph=0> <it=  3> <et=6.17> <Mt= 0.00> <Spt= 0.00> <nCl=  0> <DB=   40.0000> <Mlp=   40.0000> <PB=1000000> 
ColGenEvalAlg final dual bound: 40 (rounded: 40)
---- Diving heuristic node with dive number = 0, fix depth = 13 and tabu list size = 0
Fixed projected solution = [x_1_0_1_OspV=1, x_1_6_1_OspV=1, x_1_58_1_OspV=1, x_1_108_1_OspV=1]
<DWph=2> <it=  1> <et=6.18> <Mt= 0.00> <Spt= 0.00> <nCl=  0> <DB=   40.0000> <Mlp=   40.0000> <PB=1000000> 
<DWph=1> <it=  2> <et=6.18> <Mt= 0.00> <Spt= 0.00> <nCl=  0> <DB=   40.0000> <Mlp=   40.0000> <PB=1000000> 
<DWph=0> <it=  3> <et=6.19> <Mt= 0.00> <Spt= 0.00> <nCl=  0> <DB=   40.0000> <Mlp=   40.0000> <PB=1000000> 
ColGenEvalAlg final dual bound: 40 (rounded: 40)
---- Diving heuristic node with dive number = 0, fix depth = 14 and tabu list size = 0
Fixed projected solution = [x_1_0_1_OspV=1, x_1_35_1_OspV=1, x_1_52_1_OspV=1, x_1_103_1_OspV=1]
<DWph=2> <it=  1> <et=6.20> <Mt= 0.02> <Spt= 0.00> <nCl=  0> <DB=   40.0000> <Mlp=   40.0000> <PB=1000000> 
<DWph=1> <it=  2> <et=6.20> <Mt= 0.00> <Spt= 0.00> <nCl=  0> <DB=   40.0000> <Mlp=   40.0000> <PB=1000000> 
<DWph=0> <it=  3> <et=6.20> <Mt= 0.00> <Spt= 0.00> <nCl=  0> <DB=   40.0000> <Mlp=   40.0000> <PB=1000000> 
ColGenEvalAlg final dual bound: 40 (rounded: 40)
---- Diving heuristic node with dive number = 0, fix depth = 15 and tabu list size = 0
Fixed projected solution = [x_1_0_1_OspV=1, x_1_27_1_OspV=1, x_1_60_1_OspV=1, x_1_102_1_OspV=1]
<DWph=2> <it=  1> <et=6.21> <Mt= 0.01> <Spt= 0.00> <nCl=  0> <DB=   40.0000> <Mlp=   40.0000> <PB=1000000> 
<DWph=1> <it=  2> <et=6.21> <Mt= 0.00> <Spt= 0.00> <nCl=  0> <DB=   40.0000> <Mlp=   40.0000> <PB=1000000> 
<DWph=0> <it=  3> <et=6.21> <Mt= 0.00> <Spt= 0.00> <nCl=  0> <DB=   40.0000> <Mlp=   40.0000> <PB=1000000> 
ColGenEvalAlg final dual bound: 40 (rounded: 40)
---- Diving heuristic node with dive number = 0, fix depth = 16 and tabu list size = 0
Fixed projected solution = [x_1_0_1_OspV=1, x_1_16_1_OspV=1, x_1_65_1_OspV=1, x_1_101_1_OspV=1]
<DWph=2> <it=  1> <et=6.22> <Mt= 0.00> <Spt= 0.00> <nCl=  0> <DB=   40.0000> <Mlp=   40.0000> <PB=1000000> 
<DWph=1> <it=  2> <et=6.22> <Mt= 0.00> <Spt= 0.00> <nCl=  0> <DB=   40.0000> <Mlp=   40.0000> <PB=1000000> 
<DWph=0> <it=  3> <et=6.22> <Mt= 0.01> <Spt= 0.00> <nCl=  0> <DB=   40.0000> <Mlp=   40.0000> <PB=1000000> 
ColGenEvalAlg final dual bound: 40 (rounded: 40)
---- Diving heuristic node with dive number = 0, fix depth = 17 and tabu list size = 0
Fixed projected solution = [x_1_0_1_OspV=1, x_1_46_1_OspV=1, x_1_54_1_OspV=1, x_1_100_1_OspV=1]
<DWph=2> <it=  1> <et=6.24> <Mt= 0.01> <Spt= 0.00> <nCl=  0> <DB=   40.0000> <Mlp=   40.0000> <PB=1000000> 
<DWph=1> <it=  2> <et=6.24> <Mt= 0.00> <Spt= 0.00> <nCl=  0> <DB=   40.0000> <Mlp=   40.0000> <PB=1000000> 
<DWph=0> <it=  3> <et=6.24> <Mt= 0.00> <Spt= 0.00> <nCl=  0> <DB=   40.0000> <Mlp=   40.0000> <PB=1000000> 
ColGenEvalAlg final dual bound: 40 (rounded: 40)
---- Diving heuristic node with dive number = 0, fix depth = 17 and tabu list size = 0
Fixed projected solution = [x_1_0_1_OspV=1, x_1_36_1_OspV=1, x_1_62_1_OspV=1, x_1_99_1_OspV=1]
<DWph=2> <it=  1> <et=6.24> <Mt= 0.00> <Spt= 0.00> <nCl=  0> <DB=   40.0000> <Mlp=   40.0000> <PB=1000000> 
<DWph=1> <it=  2> <et=6.24> <Mt= 0.00> <Spt= 0.00> <nCl=  0> <DB=   40.0000> <Mlp=   40.0000> <PB=1000000> 
<DWph=0> <it=  3> <et=6.24> <Mt= 0.00> <Spt= 0.00> <nCl=  0> <DB=   40.0000> <Mlp=   40.0000> <PB=1000000> 
ColGenEvalAlg final dual bound: 40 (rounded: 40)
---- Diving heuristic node with dive number = 0, fix depth = 17 and tabu list size = 0
Fixed projected solution = [x_1_0_1_OspV=1, x_1_28_1_OspV=1, x_1_49_1_OspV=1, x_1_105_1_OspV=1]
<DWph=2> <it=  1> <et=6.25> <Mt= 0.00> <Spt= 0.00> <nCl=  0> <DB=   40.0000> <Mlp=   40.0000> <PB=1000000> 
<DWph=1> <it=  2> <et=6.25> <Mt= 0.00> <Spt= 0.00> <nCl=  0> <DB=   40.0000> <Mlp=   40.0000> <PB=1000000> 
<DWph=0> <it=  3> <et=6.25> <Mt= 0.00> <Spt= 0.00> <nCl=  0> <DB=   40.0000> <Mlp=   40.0000> <PB=1000000> 
ColGenEvalAlg final dual bound: 40 (rounded: 40)
---- Diving heuristic node with dive number = 0, fix depth = 17 and tabu list size = 0
Fixed projected solution = [x_1_0_1_OspV=1, x_1_20_1_OspV=1, x_1_32_1_OspV=1, x_1_112_1_OspV=1]
<DWph=2> <it=  1> <et=6.25> <Mt= 0.00> <Spt= 0.00> <nCl=  0> <DB=   40.0000> <Mlp=   40.0000> <PB=1000000> 
<DWph=1> <it=  2> <et=6.25> <Mt= 0.00> <Spt= 0.00> <nCl=  0> <DB=   40.0000> <Mlp=   40.0000> <PB=1000000> 
<DWph=0> <it=  3> <et=6.25> <Mt= 0.00> <Spt= 0.00> <nCl=  0> <DB=   40.0000> <Mlp=   40.0000> <PB=1000000> 
ColGenEvalAlg final dual bound: 40 (rounded: 40)
---- Diving heuristic node with dive number = 0, fix depth = 17 and tabu list size = 0
Fixed projected solution = [x_1_0_1_OspV=1, x_1_31_1_OspV=1, x_1_86_1_OspV=1, x_1_87_1_OspV=1]
<DWph=2> <it=  1> <et=6.25> <Mt= 0.01> <Spt= 0.00> <nCl=  0> <DB=   40.0000> <Mlp=   40.0000> <PB=1000000> 
<DWph=1> <it=  2> <et=6.26> <Mt= 0.00> <Spt= 0.00> <nCl=  0> <DB=   40.0000> <Mlp=   40.0000> <PB=1000000> 
<DWph=0> <it=  3> <et=6.26> <Mt= 0.00> <Spt= 0.00> <nCl=  0> <DB=   40.0000> <Mlp=   40.0000> <PB=1000000> 
ColGenEvalAlg final dual bound: 40 (rounded: 40)
---- Diving heuristic node with dive number = 0, fix depth = 17 and tabu list size = 0
Fixed projected solution = [x_1_0_1_OspV=1, x_1_45_1_OspV=1, x_1_74_1_OspV=1, x_1_88_1_OspV=1]
<DWph=2> <it=  1> <et=6.26> <Mt= 0.00> <Spt= 0.00> <nCl=  0> <DB=   40.0000> <Mlp=   40.0000> <PB=1000000> 
<DWph=1> <it=  2> <et=6.26> <Mt= 0.00> <Spt= 0.00> <nCl=  0> <DB=   40.0000> <Mlp=   40.0000> <PB=1000000> 
<DWph=0> <it=  3> <et=6.26> <Mt= 0.00> <Spt= 0.00> <nCl=  0> <DB=   40.0000> <Mlp=   40.0000> <PB=1000000> 
ColGenEvalAlg final dual bound: 40 (rounded: 40)
---- Diving heuristic node with dive number = 0, fix depth = 18 and tabu list size = 0
Fixed projected solution = [x_1_0_1_OspV=1, x_1_40_1_OspV=1, x_1_82_1_OspV=1, x_1_83_1_OspV=1]
<DWph=2> <it=  1> <et=6.28> <Mt= 0.02> <Spt= 0.00> <nCl=  0> <DB=   40.0029> <Mlp=   40.0029> <PB=1000000> 
<DWph=1> <it=  2> <et=6.28> <Mt= 0.00> <Spt= 0.00> <nCl=  0> <DB=   40.0029> <Mlp=   40.0029> <PB=1000000> 
<DWph=0> <it=  7> <et=6.50> <Mt= 0.01> <Spt= 0.21> <nCl=219> <DB=   40.0004> <Mlp=   40.0004> <PB=1000000> 
ColGenEvalAlg final dual bound: 40.0004 (rounded: 41)
---- Diving heuristic node with dive number = 0, fix depth = 19 and tabu list size = 0
Fixed projected solution = [x_1_0_1_OspV=1, x_1_23_1_OspV=1, x_1_66_1_OspV=1, x_1_97_1_OspV=1]
<DWph=2> <it=  1> <et=6.51> <Mt= 0.00> <Spt= 0.00> <nCl=  0> <DB=   40.0007> <Mlp=   40.0007> <PB=1000000> 
<DWph=1> <it=  2> <et=6.51> <Mt= 0.00> <Spt= 0.00> <nCl=  0> <DB=   40.0007> <Mlp=   40.0007> <PB=1000000> 
<DWph=0> <it=  4> <et=6.60> <Mt= 0.00> <Spt= 0.09> <nCl=  1> <DB=   40.0007> <Mlp=   40.0007> <PB=1000000> 
ColGenEvalAlg final dual bound: 40.0007 (rounded: 41)
---- Diving heuristic node with dive number = 0, fix depth = 19 and tabu list size = 0
Fixed projected solution = [x_1_0_1_OspV=1, x_1_38_1_OspV=1, x_1_63_1_OspV=1, x_1_98_1_OspV=1]
<DWph=2> <it=  1> <et=6.60> <Mt= 0.00> <Spt= 0.00> <nCl=  0> <DB=   40.0007> <Mlp=   40.0007> <PB=1000000> 
<DWph=1> <it=  2> <et=6.60> <Mt= 0.00> <Spt= 0.00> <nCl=  0> <DB=   40.0007> <Mlp=   40.0007> <PB=1000000> 
<DWph=0> <it=  3> <et=6.60> <Mt= 0.00> <Spt= 0.00> <nCl=  0> <DB=   40.0007> <Mlp=   40.0007> <PB=1000000> 
ColGenEvalAlg final dual bound: 40.0007 (rounded: 41)
---- Diving heuristic node with dive number = 0, fix depth = 20 and tabu list size = 0
Fixed projected solution = [x_1_0_1_OspV=1, x_1_13_1_OspV=1, x_1_37_1_OspV=1, x_1_114_1_OspV=1]
<DWph=2> <it=  1> <et=6.61> <Mt= 0.01> <Spt= 0.00> <nCl=  0> <DB=   40.0026> <Mlp=   40.0026> <PB=1000000> 
<DWph=1> <it=  2> <et=6.61> <Mt= 0.00> <Spt= 0.00> <nCl=  0> <DB=   40.0026> <Mlp=   40.0026> <PB=1000000> 
<DWph=0> <it=  5> <et=6.74> <Mt= 0.00> <Spt= 0.12> <nCl= 34> <DB=   40.0022> <Mlp=   40.0022> <PB=1000000> 
ColGenEvalAlg final dual bound: 40.0022 (rounded: 41)
---- Diving heuristic node with dive number = 0, fix depth = 21 and tabu list size = 0
Fixed projected solution = [x_1_0_1_OspV=1, x_1_47_1_OspV=1, x_1_77_1_OspV=1, x_1_78_1_OspV=1]
<DWph=2> <it=  1> <et=6.75> <Mt= 0.01> <Spt= 0.00> <nCl=  0> <DB=   40.0087> <Mlp=   40.0087> <PB=1000000> 
<DWph=1> <it=  2> <et=6.76> <Mt= 0.00> <Spt= 0.00> <nCl=  0> <DB=   40.0087> <Mlp=   40.0087> <PB=1000000> 
<DWph=0> <it=  6> <et=6.93> <Mt= 0.01> <Spt= 0.17> <nCl=183> <DB=   40.0023> <Mlp=   40.0023> <PB=1000000> 
ColGenEvalAlg final dual bound: 40.0023 (rounded: 41)
---- Diving heuristic node with dive number = 0, fix depth = 22 and tabu list size = 0
Fixed projected solution = [x_1_0_1_OspV=1, x_1_44_1_OspV=1, x_1_61_1_OspV=1, x_1_95_1_OspV=1]
<DWph=2> <it=  1> <et=6.94> <Mt= 0.00> <Spt= 0.00> <nCl=  0> <DB=   40.0024> <Mlp=   40.0024> <PB=1000000> 
<DWph=1> <it=  2> <et=6.94> <Mt= 0.00> <Spt= 0.00> <nCl=  0> <DB=   40.0024> <Mlp=   40.0024> <PB=1000000> 
<DWph=0> <it=  5> <et=7.07> <Mt= 0.00> <Spt= 0.13> <nCl= 27> <DB=   40.0024> <Mlp=   40.0024> <PB=1000000> 
ColGenEvalAlg final dual bound: 40.0024 (rounded: 41)
---- Diving heuristic node with dive number = 0, fix depth = 23 and tabu list size = 0
Fixed projected solution = [x_1_0_1_OspV=1, x_1_48_1_OspV=1, x_1_72_1_OspV=1, x_1_81_1_OspV=1]
<DWph=2> <it=  1> <et=7.08> <Mt= 0.01> <Spt= 0.00> <nCl=  0> <DB=   40.0038> <Mlp=   40.0038> <PB=1000000> 
<DWph=1> <it=  2> <et=7.08> <Mt= 0.00> <Spt= 0.00> <nCl=  0> <DB=   40.0038> <Mlp=   40.0038> <PB=1000000> 
<DWph=0> <it=  4> <et=7.17> <Mt= 0.00> <Spt= 0.08> <nCl= 34> <DB=   40.0031> <Mlp=   40.0031> <PB=1000000> 
ColGenEvalAlg final dual bound: 40.0031 (rounded: 41)
---- Diving heuristic node with dive number = 0, fix depth = 24 and tabu list size = 0
Fixed projected solution = [x_1_0_1_OspV=1, x_1_42_1_OspV=1, x_1_75_1_OspV=1, x_1_89_1_OspV=1]
<DWph=2> <it=  1> <et=7.19> <Mt= 0.01> <Spt= 0.00> <nCl=  0> <DB=   40.0056> <Mlp=   40.0056> <PB=1000000> 
<DWph=1> <it=  2> <et=7.19> <Mt= 0.00> <Spt= 0.00> <nCl=  0> <DB=   40.0056> <Mlp=   40.0056> <PB=1000000> 
<DWph=0> <it=  4> <et=7.27> <Mt= 0.00> <Spt= 0.09> <nCl= 41> <DB=   40.0044> <Mlp=   40.0044> <PB=1000000> 
ColGenEvalAlg final dual bound: 40.0044 (rounded: 41)
---- Diving heuristic node with dive number = 0, fix depth = 25 and tabu list size = 0
Fixed projected solution = [x_1_0_1_OspV=1, x_1_33_1_OspV=1, x_1_68_1_OspV=1, x_1_92_1_OspV=1]
<DWph=2> <it=  1> <et=7.29> <Mt= 0.01> <Spt= 0.00> <nCl=  0> <DB=   40.0051> <Mlp=   40.0051> <PB=1000000> 
<DWph=1> <it=  2> <et=7.29> <Mt= 0.00> <Spt= 0.00> <nCl=  0> <DB=   40.0051> <Mlp=   40.0051> <PB=1000000> 
<DWph=0> <it=  3> <et=7.33> <Mt= 0.00> <Spt= 0.04> <nCl=  0> <DB=   40.0051> <Mlp=   40.0051> <PB=1000000> 
ColGenEvalAlg final dual bound: 40.0051 (rounded: 41)
---- Diving heuristic node with dive number = 0, fix depth = 26 and tabu list size = 0
Fixed projected solution = [x_1_0_1_OspV=1, x_1_51_1_OspV=1, x_1_56_1_OspV=1, x_1_96_1_OspV=1]
<DWph=2> <it=  1> <et=7.35> <Mt= 0.02> <Spt= 0.00> <nCl=  0> <DB=   40.0175> <Mlp=   40.0175> <PB=1000000> 
<DWph=1> <it=  2> <et=7.35> <Mt= 0.00> <Spt= 0.00> <nCl=  0> <DB=   40.0175> <Mlp=   40.0175> <PB=1000000> 
<DWph=0> <it=  4> <et=7.44> <Mt= 0.00> <Spt= 0.09> <nCl=100> <DB=   40.0152> <Mlp=   40.0152> <PB=1000000> 
ColGenEvalAlg final dual bound: 40.0152 (rounded: 41)
---- Diving heuristic node with dive number = 0, fix depth = 27 and tabu list size = 0
Fixed projected solution = [x_1_0_1_OspV=1, x_1_64_1_OspV=1, x_1_67_1_OspV=1, x_1_69_1_OspV=1]
<DWph=2> <it=  3> <et=7.47> <Mt= 0.02> <Spt= 0.00> <nCl=  0> <DB=1043518.3913> <Mlp=1043518.3913> <PB=1000000> 
<DWph=1> <it=  4> <et=7.47> <Mt= 0.00> <Spt= 0.00> <nCl=  0> <DB=1043518.3913> <Mlp=1043518.3913> <PB=1000000> 
<DWph=0> <it=  7> <et=7.61> <Mt= 0.00> <Spt= 0.13> <nCl=144> <DB=   40.0294> <Mlp=   40.0294> <PB=1000000> 
ColGenEvalAlg final dual bound: 40.0294 (rounded: 41)
---- Diving heuristic node with dive number = 0, fix depth = 28 and tabu list size = 0
Fixed projected solution = [x_1_0_1_OspV=1, x_1_4_1_OspV=1, x_1_8_1_OspV=1, x_1_119_1_OspV=1]
<DWph=2> <it=  1> <et=7.63> <Mt= 0.02> <Spt= 0.00> <nCl=  0> <DB=1440039.9000> <Mlp=1440039.9000> <PB=1000000> 
<DWph=1> <it=  2> <et=7.63> <Mt= 0.00> <Spt= 0.00> <nCl=  0> <DB=1440039.9000> <Mlp=1440039.9000> <PB=1000000> 
<DWph=0> <it=  5> <et=7.77> <Mt= 0.00> <Spt= 0.14> <nCl=102> <DB=   40.0588> <Mlp=   40.0588> <PB=1000000> 
ColGenEvalAlg final dual bound: 40.0588 (rounded: 41)
---- Diving heuristic node with dive number = 0, fix depth = 29 and tabu list size = 0
Fixed projected solution = [x_1_0_1_OspV=1, x_1_10_1_OspV=1, x_1_71_1_OspV=1, x_1_93_1_OspV=1]
<DWph=2> <it=  1> <et=7.79> <Mt= 0.02> <Spt= 0.00> <nCl=  0> <DB=   40.1429> <Mlp=   40.1429> <PB=1000000> 
<DWph=1> <it=  2> <et=7.79> <Mt= 0.00> <Spt= 0.00> <nCl=  0> <DB=   40.1429> <Mlp=   40.1429> <PB=1000000> 
<DWph=0> <it=  4> <et=7.88> <Mt= 0.00> <Spt= 0.08> <nCl=100> <DB=   40.0769> <Mlp=   40.0769> <PB=1000000> 
ColGenEvalAlg final dual bound: 40.0769 (rounded: 41)
---- Diving heuristic node with dive number = 0, fix depth = 30 and tabu list size = 0
Fixed projected solution = [x_1_0_1_OspV=1, x_1_9_1_OspV=1, x_1_80_1_OspV=1, x_1_91_1_OspV=1]
<DWph=2> <it=  1> <et=7.90> <Mt= 0.02> <Spt= 0.00> <nCl=  0> <DB=   40.1429> <Mlp=   40.1429> <PB=1000000> 
<DWph=1> <it=  2> <et=7.90> <Mt= 0.00> <Spt= 0.00> <nCl=  0> <DB=   40.1429> <Mlp=   40.1429> <PB=1000000> 
<DWph=0> <it=  4> <et=7.95> <Mt= 0.00> <Spt= 0.05> <nCl=100> <DB=   40.0769> <Mlp=   40.0769> <PB=1000000> 
ColGenEvalAlg final dual bound: 40.0769 (rounded: 41)
---- Diving heuristic node with dive number = 0, fix depth = 31 and tabu list size = 0
Fixed projected solution = [x_1_0_1_OspV=1, x_1_30_1_OspV=1, x_1_76_1_OspV=1, x_1_84_1_OspV=1]
<DWph=2> <it=  1> <et=7.97> <Mt= 0.02> <Spt= 0.00> <nCl=  0> <DB=1600040.3333> <Mlp=1600040.3333> <PB=1000000> 
<DWph=1> <it=  2> <et=7.98> <Mt= 0.00> <Spt= 0.00> <nCl=  0> <DB=1600040.3333> <Mlp=1600040.3333> <PB=1000000> 
<DWph=0> <it=  7> <et=8.20> <Mt= 0.02> <Spt= 0.21> <nCl=305> <DB=   40.1429> <Mlp=   40.1429> <PB=1000000> 
ColGenEvalAlg final dual bound: 40.1429 (rounded: 41)
---- Diving heuristic node with dive number = 0, fix depth = 32 and tabu list size = 0
Fixed projected solution = [x_1_0_1_OspV=1, x_1_39_1_OspV=1, x_1_55_1_OspV=1, x_1_70_1_OspV=1]
<DWph=2> <it=  1> <et=8.23> <Mt= 0.01> <Spt= 0.00> <nCl=  0> <DB=4800040.0000> <Mlp=4800040.0000> <PB=1000000> 
<DWph=1> <it=  2> <et=8.23> <Mt= 0.00> <Spt= 0.00> <nCl=  0> <DB=4800040.0000> <Mlp=4800040.0000> <PB=1000000> 
<DWph=0> <it=  8> <et=8.46> <Mt= 0.02> <Spt= 0.22> <nCl=500> <DB=   40.1429> <Mlp=   41.0000> <PB=41> 
ColGenEvalAlg final dual bound: 40.1429 (rounded: 41)
---- Diving heuristic node with dive number = 1, fix depth = 2 and tabu list size = 1
Fixed projected solution = [x_1_0_1_OspV=1, x_1_25_1_OspV=1, x_1_85_1_OspV=1, x_1_90_1_OspV=1]
<DWph=2> <it=  1> <et=8.55> <Mt= 0.00> <Spt= 0.00> <nCl=  0> <DB=   40.0000> <Mlp=   40.0000> <PB=41> 
<DWph=1> <it=  2> <et=8.55> <Mt= 0.00> <Spt= 0.00> <nCl=  0> <DB=   40.0000> <Mlp=   40.0000> <PB=41> 
<DWph=0> <it=  3> <et=8.55> <Mt= 0.00> <Spt= 0.00> <nCl=  0> <DB=   40.0000> <Mlp=   40.0000> <PB=41> 
ColGenEvalAlg final dual bound: 40 (rounded: 40)
---- Diving heuristic node with dive number = 1, fix depth = 3 and tabu list size = 1
Fixed projected solution = [x_1_0_1_OspV=1, x_1_5_1_OspV=1, x_1_41_1_OspV=1, x_1_113_1_OspV=1]
<DWph=2> <it=  1> <et=8.56> <Mt= 0.00> <Spt= 0.00> <nCl=  0> <DB=   40.0000> <Mlp=   40.0000> <PB=41> 
<DWph=1> <it=  2> <et=8.56> <Mt= 0.00> <Spt= 0.00> <nCl=  0> <DB=   40.0000> <Mlp=   40.0000> <PB=41> 
<DWph=0> <it=  3> <et=8.56> <Mt= 0.00> <Spt= 0.00> <nCl=  0> <DB=   40.0000> <Mlp=   40.0000> <PB=41> 
ColGenEvalAlg final dual bound: 40 (rounded: 40)
---- Diving heuristic node with dive number = 1, fix depth = 4 and tabu list size = 1
Fixed projected solution = [x_1_0_1_OspV=1, x_1_19_1_OspV=1, x_1_34_1_OspV=1, x_1_111_1_OspV=1]
<DWph=2> <it=  1> <et=8.56> <Mt= 0.01> <Spt= 0.00> <nCl=  0> <DB=   40.0000> <Mlp=   40.0000> <PB=41> 
<DWph=1> <it=  2> <et=8.56> <Mt= 0.00> <Spt= 0.00> <nCl=  0> <DB=   40.0000> <Mlp=   40.0000> <PB=41> 
<DWph=0> <it=  3> <et=8.57> <Mt= 0.00> <Spt= 0.00> <nCl=  0> <DB=   40.0000> <Mlp=   40.0000> <PB=41> 
ColGenEvalAlg final dual bound: 40 (rounded: 40)
---- Diving heuristic node with dive number = 1, fix depth = 5 and tabu list size = 1
Fixed projected solution = [x_1_0_1_OspV=1, x_1_18_1_OspV=1, x_1_43_1_OspV=1, x_1_110_1_OspV=1]
<DWph=2> <it=  1> <et=8.57> <Mt= 0.00> <Spt= 0.00> <nCl=  0> <DB=   40.0000> <Mlp=   40.0000> <PB=41> 
<DWph=1> <it=  2> <et=8.57> <Mt= 0.00> <Spt= 0.00> <nCl=  0> <DB=   40.0000> <Mlp=   40.0000> <PB=41> 
<DWph=0> <it=  3> <et=8.57> <Mt= 0.00> <Spt= 0.00> <nCl=  0> <DB=   40.0000> <Mlp=   40.0000> <PB=41> 
ColGenEvalAlg final dual bound: 40 (rounded: 40)
---- Diving heuristic node with dive number = 1, fix depth = 6 and tabu list size = 1
Fixed projected solution = [x_1_0_1_OspV=1, x_1_14_1_OspV=1, x_1_57_1_OspV=1, x_1_107_1_OspV=1]
<DWph=2> <it=  1> <et=8.58> <Mt= 0.00> <Spt= 0.00> <nCl=  0> <DB=   40.0000> <Mlp=   40.0000> <PB=41> 
<DWph=1> <it=  2> <et=8.58> <Mt= 0.00> <Spt= 0.00> <nCl=  0> <DB=   40.0000> <Mlp=   40.0000> <PB=41> 
<DWph=0> <it=  3> <et=8.58> <Mt= 0.00> <Spt= 0.00> <nCl=  0> <DB=   40.0000> <Mlp=   40.0000> <PB=41> 
ColGenEvalAlg final dual bound: 40 (rounded: 40)
---- Diving heuristic node with dive number = 1, fix depth = 7 and tabu list size = 1
Fixed projected solution = [x_1_0_1_OspV=1, x_1_11_1_OspV=1, x_1_29_1_OspV=1, x_1_116_1_OspV=1]
<DWph=2> <it=  1> <et=8.59> <Mt= 0.01> <Spt= 0.00> <nCl=  0> <DB=   40.0000> <Mlp=   40.0000> <PB=41> 
<DWph=1> <it=  2> <et=8.59> <Mt= 0.00> <Spt= 0.00> <nCl=  0> <DB=   40.0000> <Mlp=   40.0000> <PB=41> 
<DWph=0> <it=  3> <et=8.59> <Mt= 0.00> <Spt= 0.00> <nCl=  0> <DB=   40.0000> <Mlp=   40.0000> <PB=41> 
ColGenEvalAlg final dual bound: 40 (rounded: 40)
---- Diving heuristic node with dive number = 1, fix depth = 7 and tabu list size = 1
Fixed projected solution = [x_1_0_1_OspV=1, x_1_3_1_OspV=1, x_1_15_1_OspV=1, x_1_118_1_OspV=1]
<DWph=2> <it=  1> <et=8.60> <Mt= 0.00> <Spt= 0.00> <nCl=  0> <DB=   40.0000> <Mlp=   40.0000> <PB=41> 
<DWph=1> <it=  2> <et=8.60> <Mt= 0.00> <Spt= 0.00> <nCl=  0> <DB=   40.0000> <Mlp=   40.0000> <PB=41> 
<DWph=0> <it=  3> <et=8.60> <Mt= 0.00> <Spt= 0.00> <nCl=  0> <DB=   40.0000> <Mlp=   40.0000> <PB=41> 
ColGenEvalAlg final dual bound: 40 (rounded: 40)
---- Diving heuristic node with dive number = 1, fix depth = 8 and tabu list size = 1
Fixed projected solution = [x_1_0_1_OspV=1, x_1_35_1_OspV=1, x_1_52_1_OspV=1, x_1_103_1_OspV=1]
<DWph=2> <it=  1> <et=8.61> <Mt= 0.01> <Spt= 0.00> <nCl=  0> <DB=   40.0000> <Mlp=   40.0000> <PB=41> 
<DWph=1> <it=  2> <et=8.61> <Mt= 0.00> <Spt= 0.00> <nCl=  0> <DB=   40.0000> <Mlp=   40.0000> <PB=41> 
<DWph=0> <it=  3> <et=8.61> <Mt= 0.00> <Spt= 0.00> <nCl=  0> <DB=   40.0000> <Mlp=   40.0000> <PB=41> 
ColGenEvalAlg final dual bound: 40 (rounded: 40)
---- Diving heuristic node with dive number = 1, fix depth = 9 and tabu list size = 1
Fixed projected solution = [x_1_0_1_OspV=1, x_1_23_1_OspV=1, x_1_83_1_OspV=1, x_1_91_1_OspV=1]
<DWph=2> <it=  1> <et=8.62> <Mt= 0.01> <Spt= 0.00> <nCl=  0> <DB=   40.0000> <Mlp=   40.0000> <PB=41> 
<DWph=1> <it=  2> <et=8.63> <Mt= 0.01> <Spt= 0.00> <nCl=  0> <DB=   40.0000> <Mlp=   40.0000> <PB=41> 
<DWph=0> <it=  3> <et=8.63> <Mt= 0.00> <Spt= 0.00> <nCl=  0> <DB=   40.0000> <Mlp=   40.0000> <PB=41> 
ColGenEvalAlg final dual bound: 40 (rounded: 40)
---- Diving heuristic node with dive number = 1, fix depth = 10 and tabu list size = 1
Fixed projected solution = [x_1_0_1_OspV=1, x_1_40_1_OspV=1, x_1_76_1_OspV=1, x_1_89_1_OspV=1]
<DWph=2> <it=  1> <et=8.63> <Mt= 0.00> <Spt= 0.00> <nCl=  0> <DB=   40.0000> <Mlp=   40.0000> <PB=41> 
<DWph=1> <it=  2> <et=8.63> <Mt= 0.00> <Spt= 0.00> <nCl=  0> <DB=   40.0000> <Mlp=   40.0000> <PB=41> 
<DWph=0> <it=  3> <et=8.64> <Mt= 0.00> <Spt= 0.00> <nCl=  0> <DB=   40.0000> <Mlp=   40.0000> <PB=41> 
ColGenEvalAlg final dual bound: 40 (rounded: 40)
---- Diving heuristic node with dive number = 1, fix depth = 11 and tabu list size = 1
Fixed projected solution = [x_1_0_1_OspV=1, x_1_26_1_OspV=1, x_1_53_1_OspV=1, x_1_104_1_OspV=1]
<DWph=2> <it=  1> <et=8.65> <Mt= 0.01> <Spt= 0.00> <nCl=  0> <DB=   40.0000> <Mlp=   40.0000> <PB=41> 
<DWph=1> <it=  2> <et=8.65> <Mt= 0.00> <Spt= 0.00> <nCl=  0> <DB=   40.0000> <Mlp=   40.0000> <PB=41> 
<DWph=0> <it=  3> <et=8.65> <Mt= 0.00> <Spt= 0.00> <nCl=  0> <DB=   40.0000> <Mlp=   40.0000> <PB=41> 
ColGenEvalAlg final dual bound: 40 (rounded: 40)
---- Diving heuristic node with dive number = 1, fix depth = 12 and tabu list size = 1
Fixed projected solution = [x_1_0_1_OspV=1, x_1_20_1_OspV=1, x_1_32_1_OspV=1, x_1_112_1_OspV=1]
<DWph=2> <it=  1> <et=8.66> <Mt= 0.01> <Spt= 0.00> <nCl=  0> <DB=   40.0000> <Mlp=   40.0000> <PB=41> 
<DWph=1> <it=  2> <et=8.66> <Mt= 0.00> <Spt= 0.00> <nCl=  0> <DB=   40.0000> <Mlp=   40.0000> <PB=41> 
<DWph=0> <it=  3> <et=8.66> <Mt= 0.00> <Spt= 0.00> <nCl=  0> <DB=   40.0000> <Mlp=   40.0000> <PB=41> 
ColGenEvalAlg final dual bound: 40 (rounded: 40)
---- Diving heuristic node with dive number = 1, fix depth = 13 and tabu list size = 1
Fixed projected solution = [x_1_0_1_OspV=1, x_1_6_1_OspV=1, x_1_58_1_OspV=1, x_1_108_1_OspV=1]
<DWph=2> <it=  1> <et=8.67> <Mt= 0.01> <Spt= 0.00> <nCl=  0> <DB=   40.0000> <Mlp=   40.0000> <PB=41> 
<DWph=1> <it=  2> <et=8.67> <Mt= 0.00> <Spt= 0.00> <nCl=  0> <DB=   40.0000> <Mlp=   40.0000> <PB=41> 
<DWph=0> <it=  3> <et=8.67> <Mt= 0.00> <Spt= 0.00> <nCl=  0> <DB=   40.0000> <Mlp=   40.0000> <PB=41> 
ColGenEvalAlg final dual bound: 40 (rounded: 40)
---- Diving heuristic node with dive number = 1, fix depth = 14 and tabu list size = 1
Fixed projected solution = [x_1_0_1_OspV=1, x_1_4_1_OspV=1, x_1_8_1_OspV=1, x_1_119_1_OspV=1]
<DWph=2> <it=  1> <et=8.69> <Mt= 0.01> <Spt= 0.00> <nCl=  0> <DB=   40.0000> <Mlp=   40.0000> <PB=41> 
<DWph=1> <it=  2> <et=8.69> <Mt= 0.00> <Spt= 0.00> <nCl=  0> <DB=   40.0000> <Mlp=   40.0000> <PB=41> 
<DWph=0> <it=  3> <et=8.69> <Mt= 0.00> <Spt= 0.00> <nCl=  0> <DB=   40.0000> <Mlp=   40.0000> <PB=41> 
ColGenEvalAlg final dual bound: 40 (rounded: 40)
---- Diving heuristic node with dive number = 1, fix depth = 15 and tabu list size = 1
Fixed projected solution = [x_1_0_1_OspV=1, x_1_31_1_OspV=1, x_1_87_1_OspV=1, x_1_88_1_OspV=1]
<DWph=2> <it=  1> <et=8.70> <Mt= 0.01> <Spt= 0.00> <nCl=  0> <DB=   40.0000> <Mlp=   40.0000> <PB=41> 
<DWph=1> <it=  2> <et=8.70> <Mt= 0.00> <Spt= 0.00> <nCl=  0> <DB=   40.0000> <Mlp=   40.0000> <PB=41> 
<DWph=0> <it=  3> <et=8.70> <Mt= 0.00> <Spt= 0.00> <nCl=  0> <DB=   40.0000> <Mlp=   40.0000> <PB=41> 
ColGenEvalAlg final dual bound: 40 (rounded: 40)
---- Diving heuristic node with dive number = 1, fix depth = 16 and tabu list size = 1
Fixed projected solution = [x_1_0_1_OspV=1, x_1_51_1_OspV=1, x_1_56_1_OspV=1, x_1_96_1_OspV=1]
<DWph=2> <it=  1> <et=8.72> <Mt= 0.01> <Spt= 0.00> <nCl=  0> <DB=   40.0000> <Mlp=   40.0000> <PB=41> 
<DWph=1> <it=  2> <et=8.72> <Mt= 0.00> <Spt= 0.00> <nCl=  0> <DB=   40.0000> <Mlp=   40.0000> <PB=41> 
<DWph=0> <it=  3> <et=8.72> <Mt= 0.00> <Spt= 0.00> <nCl=  0> <DB=   40.0000> <Mlp=   40.0000> <PB=41> 
ColGenEvalAlg final dual bound: 40 (rounded: 40)
---- Diving heuristic node with dive number = 1, fix depth = 17 and tabu list size = 1
Fixed projected solution = [x_1_0_1_OspV=1, x_1_2_1_OspV=1, x_1_71_1_OspV=1, x_1_94_1_OspV=1]
<DWph=2> <it=  1> <et=8.74> <Mt= 0.02> <Spt= 0.00> <nCl=  0> <DB=   40.0000> <Mlp=   40.0000> <PB=41> 
<DWph=1> <it=  2> <et=8.74> <Mt= 0.00> <Spt= 0.00> <nCl=  0> <DB=   40.0000> <Mlp=   40.0000> <PB=41> 
<DWph=0> <it=  3> <et=8.74> <Mt= 0.00> <Spt= 0.00> <nCl=  0> <DB=   40.0000> <Mlp=   40.0000> <PB=41> 
ColGenEvalAlg final dual bound: 40 (rounded: 40)
---- Diving heuristic node with dive number = 1, fix depth = 18 and tabu list size = 1
Fixed projected solution = [x_1_0_1_OspV=1, x_1_36_1_OspV=1, x_1_81_1_OspV=1, x_1_84_1_OspV=1]
<DWph=2> <it=  1> <et=8.76> <Mt= 0.02> <Spt= 0.00> <nCl=  0> <DB=   40.0000> <Mlp=   40.0000> <PB=41> 
<DWph=1> <it=  2> <et=8.76> <Mt= 0.01> <Spt= 0.00> <nCl=  0> <DB=   40.0000> <Mlp=   40.0000> <PB=41> 
<DWph=0> <it=  3> <et=8.77> <Mt= 0.00> <Spt= 0.00> <nCl=  0> <DB=   40.0000> <Mlp=   40.0000> <PB=41> 
ColGenEvalAlg final dual bound: 40 (rounded: 40)
---- Diving heuristic node with dive number = 1, fix depth = 19 and tabu list size = 1
Fixed projected solution = [x_1_0_1_OspV=1, x_1_39_1_OspV=1, x_1_61_1_OspV=1, x_1_99_1_OspV=1]
<DWph=2> <it=  1> <et=8.78> <Mt= 0.01> <Spt= 0.00> <nCl=  0> <DB=   40.0000> <Mlp=   40.0000> <PB=41> 
<DWph=1> <it=  2> <et=8.78> <Mt= 0.00> <Spt= 0.00> <nCl=  0> <DB=   40.0000> <Mlp=   40.0000> <PB=41> 
<DWph=0> <it=  3> <et=8.78> <Mt= 0.00> <Spt= 0.00> <nCl=  0> <DB=   40.0000> <Mlp=   40.0000> <PB=41> 
ColGenEvalAlg final dual bound: 40 (rounded: 40)
---- Diving heuristic node with dive number = 1, fix depth = 20 and tabu list size = 1
Fixed projected solution = [x_1_0_1_OspV=1, x_1_7_1_OspV=1, x_1_59_1_OspV=1, x_1_106_1_OspV=1]
<DWph=2> <it=  1> <et=8.79> <Mt= 0.01> <Spt= 0.00> <nCl=  0> <DB=   40.0000> <Mlp=   40.0000> <PB=41> 
<DWph=1> <it=  2> <et=8.79> <Mt= 0.00> <Spt= 0.00> <nCl=  0> <DB=   40.0000> <Mlp=   40.0000> <PB=41> 
<DWph=0> <it=  3> <et=8.79> <Mt= 0.00> <Spt= 0.00> <nCl=  0> <DB=   40.0000> <Mlp=   40.0000> <PB=41> 
ColGenEvalAlg final dual bound: 40 (rounded: 40)
---- Diving heuristic node with dive number = 1, fix depth = 20 and tabu list size = 1
Fixed projected solution = [x_1_0_1_OspV=1, x_1_30_1_OspV=1, x_1_62_1_OspV=1, x_1_100_1_OspV=1]
<DWph=2> <it=  1> <et=8.80> <Mt= 0.00> <Spt= 0.00> <nCl=  0> <DB=   40.0000> <Mlp=   40.0000> <PB=41> 
<DWph=1> <it=  2> <et=8.80> <Mt= 0.00> <Spt= 0.00> <nCl=  0> <DB=   40.0000> <Mlp=   40.0000> <PB=41> 
<DWph=0> <it=  3> <et=8.80> <Mt= 0.00> <Spt= 0.00> <nCl=  0> <DB=   40.0000> <Mlp=   40.0000> <PB=41> 
ColGenEvalAlg final dual bound: 40 (rounded: 40)
---- Diving heuristic node with dive number = 1, fix depth = 20 and tabu list size = 1
Fixed projected solution = [x_1_0_1_OspV=1, x_1_47_1_OspV=1, x_1_72_1_OspV=1, x_1_82_1_OspV=1]
<DWph=2> <it=  1> <et=8.80> <Mt= 0.00> <Spt= 0.00> <nCl=  0> <DB=   40.0000> <Mlp=   40.0000> <PB=41> 
<DWph=1> <it=  2> <et=8.80> <Mt= 0.00> <Spt= 0.00> <nCl=  0> <DB=   40.0000> <Mlp=   40.0000> <PB=41> 
<DWph=0> <it=  3> <et=8.80> <Mt= 0.00> <Spt= 0.00> <nCl=  0> <DB=   40.0000> <Mlp=   40.0000> <PB=41> 
ColGenEvalAlg final dual bound: 40 (rounded: 40)
---- Diving heuristic node with dive number = 1, fix depth = 21 and tabu list size = 1
Fixed projected solution = [x_1_0_1_OspV=1, x_1_45_1_OspV=1, x_1_78_1_OspV=1, x_1_80_1_OspV=1]
<DWph=2> <it=  1> <et=8.83> <Mt= 0.02> <Spt= 0.00> <nCl=  0> <DB=   40.0113> <Mlp=   40.0113> <PB=41> 
<DWph=1> <it=  2> <et=8.83> <Mt= 0.00> <Spt= 0.00> <nCl=  0> <DB=   40.0113> <Mlp=   40.0113> <PB=41> 
<DWph=0> <it=  4> <et=8.88> <Mt= 0.01> <Spt= 0.04> <nCl=100> <DB=   40.0000> <Mlp=   40.0000> <PB=41> 
ColGenEvalAlg final dual bound: 40 (rounded: 40)
---- Diving heuristic node with dive number = 1, fix depth = 22 and tabu list size = 1
Fixed projected solution = [x_1_0_1_OspV=1, x_1_16_1_OspV=1, x_1_67_1_OspV=1, x_1_98_1_OspV=1]
<DWph=2> <it=  1> <et=8.89> <Mt= 0.01> <Spt= 0.00> <nCl=  0> <DB=   40.0103> <Mlp=   40.0103> <PB=41> 
<DWph=1> <it=  2> <et=8.89> <Mt= 0.00> <Spt= 0.00> <nCl=  0> <DB=   40.0103> <Mlp=   40.0103> <PB=41> 
<DWph=0> <it=  8> <et=9.17> <Mt= 0.01> <Spt= 0.27> <nCl=249> <DB=   40.0024> <Mlp=   40.0024> <PB=41> 
ColGenEvalAlg final dual bound: 40.0024 (rounded: 41)
---- Diving heuristic node with dive number = 2, fix depth = 2 and tabu list size = 2
Fixed projected solution = [x_1_0_1_OspV=1, x_1_5_1_OspV=1, x_1_41_1_OspV=1, x_1_113_1_OspV=1]
<DWph=2> <it=  1> <et=9.25> <Mt= 0.00> <Spt= 0.00> <nCl=  0> <DB=   40.0000> <Mlp=   40.0000> <PB=41> 
<DWph=1> <it=  2> <et=9.25> <Mt= 0.00> <Spt= 0.00> <nCl=  0> <DB=   40.0000> <Mlp=   40.0000> <PB=41> 
<DWph=0> <it=  3> <et=9.25> <Mt= 0.00> <Spt= 0.00> <nCl=  0> <DB=   40.0000> <Mlp=   40.0000> <PB=41> 
ColGenEvalAlg final dual bound: 40 (rounded: 40)
---- Diving heuristic node with dive number = 2, fix depth = 2 and tabu list size = 2
Fixed projected solution = [x_1_0_1_OspV=1, x_1_3_1_OspV=1, x_1_15_1_OspV=1, x_1_118_1_OspV=1]
<DWph=2> <it=  1> <et=9.25> <Mt= 0.00> <Spt= 0.00> <nCl=  0> <DB=   40.0000> <Mlp=   40.0000> <PB=41> 
<DWph=1> <it=  2> <et=9.25> <Mt= 0.00> <Spt= 0.00> <nCl=  0> <DB=   40.0000> <Mlp=   40.0000> <PB=41> 
<DWph=0> <it=  3> <et=9.25> <Mt= 0.00> <Spt= 0.00> <nCl=  0> <DB=   40.0000> <Mlp=   40.0000> <PB=41> 
ColGenEvalAlg final dual bound: 40 (rounded: 40)
---- Diving heuristic node with dive number = 2, fix depth = 3 and tabu list size = 2
Fixed projected solution = [x_1_0_1_OspV=1, x_1_19_1_OspV=1, x_1_34_1_OspV=1, x_1_111_1_OspV=1]
<DWph=2> <it=  1> <et=9.26> <Mt= 0.01> <Spt= 0.00> <nCl=  0> <DB=   40.0000> <Mlp=   40.0000> <PB=41> 
<DWph=1> <it=  2> <et=9.26> <Mt= 0.00> <Spt= 0.00> <nCl=  0> <DB=   40.0000> <Mlp=   40.0000> <PB=41> 
<DWph=0> <it=  3> <et=9.26> <Mt= 0.00> <Spt= 0.00> <nCl=  0> <DB=   40.0000> <Mlp=   40.0000> <PB=41> 
ColGenEvalAlg final dual bound: 40 (rounded: 40)
---- Diving heuristic node with dive number = 2, fix depth = 3 and tabu list size = 2
Fixed projected solution = [x_1_0_1_OspV=1, x_1_18_1_OspV=1, x_1_43_1_OspV=1, x_1_110_1_OspV=1]
<DWph=2> <it=  1> <et=9.27> <Mt= 0.00> <Spt= 0.00> <nCl=  0> <DB=   40.0000> <Mlp=   40.0000> <PB=41> 
<DWph=1> <it=  2> <et=9.27> <Mt= 0.00> <Spt= 0.00> <nCl=  0> <DB=   40.0000> <Mlp=   40.0000> <PB=41> 
<DWph=0> <it=  3> <et=9.27> <Mt= 0.00> <Spt= 0.00> <nCl=  0> <DB=   40.0000> <Mlp=   40.0000> <PB=41> 
ColGenEvalAlg final dual bound: 40 (rounded: 40)
---- Diving heuristic node with dive number = 2, fix depth = 4 and tabu list size = 2
Fixed projected solution = [x_1_0_1_OspV=1, x_1_14_1_OspV=1, x_1_57_1_OspV=1, x_1_107_1_OspV=1]
<DWph=2> <it=  1> <et=9.27> <Mt= 0.00> <Spt= 0.00> <nCl=  0> <DB=   40.0000> <Mlp=   40.0000> <PB=41> 
<DWph=1> <it=  2> <et=9.27> <Mt= 0.00> <Spt= 0.00> <nCl=  0> <DB=   40.0000> <Mlp=   40.0000> <PB=41> 
<DWph=0> <it=  3> <et=9.27> <Mt= 0.00> <Spt= 0.00> <nCl=  0> <DB=   40.0000> <Mlp=   40.0000> <PB=41> 
ColGenEvalAlg final dual bound: 40 (rounded: 40)
---- Diving heuristic node with dive number = 2, fix depth = 5 and tabu list size = 2
Fixed projected solution = [x_1_0_1_OspV=1, x_1_11_1_OspV=1, x_1_29_1_OspV=1, x_1_116_1_OspV=1]
<DWph=2> <it=  1> <et=9.28> <Mt= 0.01> <Spt= 0.00> <nCl=  0> <DB=   40.0000> <Mlp=   40.0000> <PB=41> 
<DWph=1> <it=  2> <et=9.28> <Mt= 0.00> <Spt= 0.00> <nCl=  0> <DB=   40.0000> <Mlp=   40.0000> <PB=41> 
<DWph=0> <it=  3> <et=9.28> <Mt= 0.00> <Spt= 0.00> <nCl=  0> <DB=   40.0000> <Mlp=   40.0000> <PB=41> 
ColGenEvalAlg final dual bound: 40 (rounded: 40)
---- Diving heuristic node with dive number = 2, fix depth = 5 and tabu list size = 2
Fixed projected solution = [x_1_0_1_OspV=1, x_1_25_1_OspV=1, x_1_85_1_OspV=1, x_1_90_1_OspV=1]
<DWph=2> <it=  1> <et=9.29> <Mt= 0.00> <Spt= 0.00> <nCl=  0> <DB=   40.0000> <Mlp=   40.0000> <PB=41> 
<DWph=1> <it=  2> <et=9.29> <Mt= 0.00> <Spt= 0.00> <nCl=  0> <DB=   40.0000> <Mlp=   40.0000> <PB=41> 
<DWph=0> <it=  3> <et=9.29> <Mt= 0.00> <Spt= 0.00> <nCl=  0> <DB=   40.0000> <Mlp=   40.0000> <PB=41> 
ColGenEvalAlg final dual bound: 40 (rounded: 40)
---- Diving heuristic node with dive number = 2, fix depth = 6 and tabu list size = 2
Fixed projected solution = [x_1_0_1_OspV=1, x_1_40_1_OspV=1, x_1_76_1_OspV=1, x_1_89_1_OspV=1]
<DWph=2> <it=  1> <et=9.30> <Mt= 0.01> <Spt= 0.00> <nCl=  0> <DB=   40.0000> <Mlp=   40.0000> <PB=41> 
<DWph=1> <it=  2> <et=9.30> <Mt= 0.00> <Spt= 0.00> <nCl=  0> <DB=   40.0000> <Mlp=   40.0000> <PB=41> 
<DWph=0> <it=  3> <et=9.30> <Mt= 0.00> <Spt= 0.00> <nCl=  0> <DB=   40.0000> <Mlp=   40.0000> <PB=41> 
ColGenEvalAlg final dual bound: 40 (rounded: 40)
---- Diving heuristic node with dive number = 2, fix depth = 7 and tabu list size = 2
Fixed projected solution = [x_1_0_1_OspV=1, x_1_35_1_OspV=1, x_1_52_1_OspV=1, x_1_103_1_OspV=1]
<DWph=2> <it=  1> <et=9.32> <Mt= 0.02> <Spt= 0.00> <nCl=  0> <DB=   40.0000> <Mlp=   40.0000> <PB=41> 
<DWph=1> <it=  2> <et=9.32> <Mt= 0.00> <Spt= 0.00> <nCl=  0> <DB=   40.0000> <Mlp=   40.0000> <PB=41> 
<DWph=0> <it=  3> <et=9.32> <Mt= 0.00> <Spt= 0.00> <nCl=  0> <DB=   40.0000> <Mlp=   40.0000> <PB=41> 
ColGenEvalAlg final dual bound: 40 (rounded: 40)
---- Diving heuristic node with dive number = 2, fix depth = 7 and tabu list size = 2
Fixed projected solution = [x_1_0_1_OspV=1, x_1_23_1_OspV=1, x_1_83_1_OspV=1, x_1_91_1_OspV=1]
<DWph=2> <it=  1> <et=9.33> <Mt= 0.00> <Spt= 0.00> <nCl=  0> <DB=   40.0000> <Mlp=   40.0000> <PB=41> 
<DWph=1> <it=  2> <et=9.33> <Mt= 0.00> <Spt= 0.00> <nCl=  0> <DB=   40.0000> <Mlp=   40.0000> <PB=41> 
<DWph=0> <it=  3> <et=9.33> <Mt= 0.00> <Spt= 0.00> <nCl=  0> <DB=   40.0000> <Mlp=   40.0000> <PB=41> 
ColGenEvalAlg final dual bound: 40 (rounded: 40)
---- Diving heuristic node with dive number = 2, fix depth = 8 and tabu list size = 2
Fixed projected solution = [x_1_0_1_OspV=1, x_1_16_1_OspV=1, x_1_65_1_OspV=1, x_1_101_1_OspV=1]
<DWph=2> <it=  1> <et=9.34> <Mt= 0.01> <Spt= 0.00> <nCl=  0> <DB=   40.0000> <Mlp=   40.0000> <PB=41> 
<DWph=1> <it=  2> <et=9.34> <Mt= 0.00> <Spt= 0.00> <nCl=  0> <DB=   40.0000> <Mlp=   40.0000> <PB=41> 
<DWph=0> <it=  3> <et=9.34> <Mt= 0.00> <Spt= 0.00> <nCl=  0> <DB=   40.0000> <Mlp=   40.0000> <PB=41> 
ColGenEvalAlg final dual bound: 40 (rounded: 40)
---- Diving heuristic node with dive number = 2, fix depth = 8 and tabu list size = 2
Fixed projected solution = [x_1_0_1_OspV=1, x_1_27_1_OspV=1, x_1_60_1_OspV=1, x_1_102_1_OspV=1]
<DWph=2> <it=  1> <et=9.35> <Mt= 0.00> <Spt= 0.00> <nCl=  0> <DB=   40.0000> <Mlp=   40.0000> <PB=41> 
<DWph=1> <it=  2> <et=9.35> <Mt= 0.00> <Spt= 0.00> <nCl=  0> <DB=   40.0000> <Mlp=   40.0000> <PB=41> 
<DWph=0> <it=  3> <et=9.35> <Mt= 0.00> <Spt= 0.00> <nCl=  0> <DB=   40.0000> <Mlp=   40.0000> <PB=41> 
ColGenEvalAlg final dual bound: 40 (rounded: 40)
---- Diving heuristic node with dive number = 2, fix depth = 9 and tabu list size = 2
Fixed projected solution = [x_1_0_1_OspV=1, x_1_26_1_OspV=1, x_1_53_1_OspV=1, x_1_104_1_OspV=1]
<DWph=2> <it=  1> <et=9.36> <Mt= 0.01> <Spt= 0.00> <nCl=  0> <DB=   40.0000> <Mlp=   40.0000> <PB=41> 
<DWph=1> <it=  2> <et=9.36> <Mt= 0.00> <Spt= 0.00> <nCl=  0> <DB=   40.0000> <Mlp=   40.0000> <PB=41> 
<DWph=0> <it=  3> <et=9.36> <Mt= 0.00> <Spt= 0.00> <nCl=  0> <DB=   40.0000> <Mlp=   40.0000> <PB=41> 
ColGenEvalAlg final dual bound: 40 (rounded: 40)
---- Diving heuristic node with dive number = 2, fix depth = 10 and tabu list size = 2
Fixed projected solution = [x_1_0_1_OspV=1, x_1_39_1_OspV=1, x_1_80_1_OspV=1, x_1_84_1_OspV=1]
<DWph=2> <it=  1> <et=9.37> <Mt= 0.01> <Spt= 0.00> <nCl=  0> <DB=   40.0000> <Mlp=   40.0000> <PB=41> 
<DWph=1> <it=  2> <et=9.37> <Mt= 0.00> <Spt= 0.00> <nCl=  0> <DB=   40.0000> <Mlp=   40.0000> <PB=41> 
<DWph=0> <it=  3> <et=9.37> <Mt= 0.00> <Spt= 0.00> <nCl=  0> <DB=   40.0000> <Mlp=   40.0000> <PB=41> 
ColGenEvalAlg final dual bound: 40 (rounded: 40)
---- Diving heuristic node with dive number = 2, fix depth = 11 and tabu list size = 2
Fixed projected solution = [x_1_0_1_OspV=1, x_1_8_1_OspV=1, x_1_55_1_OspV=1, x_1_109_1_OspV=1]
<DWph=2> <it=  1> <et=9.39> <Mt= 0.01> <Spt= 0.00> <nCl=  0> <DB=   40.0000> <Mlp=   40.0000> <PB=41> 
<DWph=1> <it=  2> <et=9.39> <Mt= 0.00> <Spt= 0.00> <nCl=  0> <DB=   40.0000> <Mlp=   40.0000> <PB=41> 
<DWph=0> <it=  3> <et=9.39> <Mt= 0.00> <Spt= 0.00> <nCl=  0> <DB=   40.0000> <Mlp=   40.0000> <PB=41> 
ColGenEvalAlg final dual bound: 40 (rounded: 40)
---- Diving heuristic node with dive number = 2, fix depth = 11 and tabu list size = 2
Fixed projected solution = [x_1_0_1_OspV=1, x_1_20_1_OspV=1, x_1_32_1_OspV=1, x_1_112_1_OspV=1]
<DWph=2> <it=  1> <et=9.40> <Mt= 0.00> <Spt= 0.00> <nCl=  0> <DB=   40.0000> <Mlp=   40.0000> <PB=41> 
<DWph=1> <it=  2> <et=9.40> <Mt= 0.01> <Spt= 0.00> <nCl=  0> <DB=   40.0000> <Mlp=   40.0000> <PB=41> 
<DWph=0> <it=  3> <et=9.40> <Mt= 0.00> <Spt= 0.00> <nCl=  0> <DB=   40.0000> <Mlp=   40.0000> <PB=41> 
ColGenEvalAlg final dual bound: 40 (rounded: 40)
---- Diving heuristic node with dive number = 2, fix depth = 12 and tabu list size = 2
Fixed projected solution = [x_1_0_1_OspV=1, x_1_2_1_OspV=1, x_1_71_1_OspV=1, x_1_94_1_OspV=1]
<DWph=2> <it=  1> <et=9.41> <Mt= 0.01> <Spt= 0.00> <nCl=  0> <DB=   40.0000> <Mlp=   40.0000> <PB=41> 
<DWph=1> <it=  2> <et=9.41> <Mt= 0.00> <Spt= 0.00> <nCl=  0> <DB=   40.0000> <Mlp=   40.0000> <PB=41> 
<DWph=0> <it=  3> <et=9.41> <Mt= 0.00> <Spt= 0.00> <nCl=  0> <DB=   40.0000> <Mlp=   40.0000> <PB=41> 
ColGenEvalAlg final dual bound: 40 (rounded: 40)
---- Diving heuristic node with dive number = 2, fix depth = 13 and tabu list size = 2
Fixed projected solution = [x_1_0_1_OspV=1, x_1_28_1_OspV=1, x_1_64_1_OspV=1, x_1_99_1_OspV=1]
<DWph=2> <it=  1> <et=9.43> <Mt= 0.01> <Spt= 0.00> <nCl=  0> <DB=   40.0003> <Mlp=   40.0003> <PB=41> 
<DWph=1> <it=  2> <et=9.43> <Mt= 0.00> <Spt= 0.00> <nCl=  0> <DB=   40.0003> <Mlp=   40.0003> <PB=41> 
<DWph=0> <it=  4> <et=9.48> <Mt= 0.00> <Spt= 0.04> <nCl=100> <DB=   40.0000> <Mlp=   40.0000> <PB=41> 
ColGenEvalAlg final dual bound: 40 (rounded: 40)
---- Diving heuristic node with dive number = 2, fix depth = 14 and tabu list size = 2
Fixed projected solution = [x_1_0_1_OspV=1, x_1_4_1_OspV=1, x_1_7_1_OspV=1, x_1_119_1_OspV=1]
<DWph=2> <it=  1> <et=9.49> <Mt= 0.01> <Spt= 0.00> <nCl=  0> <DB=   40.0000> <Mlp=   40.0000> <PB=40> 
New model incumbent solution 40, TIME = 0h0m9s52t = 952
************************************************************************************************
Search is finished, global bounds : [ 40 , 40 ], TIME = 0h0m9s52t = 952
************************************************************************************************
[32mBaPCod : solution defined.[00m
statistics_cols: instance & :Optimal & cutoff & :bcRecRootDb & :bcTimeRootEval & :bcCountNodeProc & :bcRecBestDb & :bcRecBestInc & :bcTimeMain \\
statistics: Falkenauer_t120_00 & 1 & 1.0e6 & 40.00 & 5.65 & 1 & 40.00 & 40 & 9.53 \\
########################################################
bin_id=1: 250(4) 350(3) 400(3) 
bin_id=2: 255(2) 325(0) 420(2) 
bin_id=3: 252(3) 302(2) 446(4) 
bin_id=4: 252(4) 298(3) 450(4) 
bin_id=5: 252(1) 275(0) 473(1) 
bin_id=6: 253(0) 273(0) 474(3) 
bin_id=7: 259(0) 271(0) 470(2) 
bin_id=8: 253(3) 267(0) 480(3) 
bin_id=9: 256(4) 259(3) 485(3) 
bin_id=10: 251(1) 254(3) 495(3) 
bin_id=11: 250(2) 253(4) 497(4) 
bin_id=12: 303(2) 347(3) 350(0) 
bin_id=13: 263(0) 298(1) 439(3) 
bin_id=14: 267(2) 314(4) 419(4) 
bin_id=15: 269(3) 287(1) 444(3) 
bin_id=16: 260(2) 262(4) 478(1) 
bin_id=17: 271(2) 295(1) 434(1) 
bin_id=18: 254(0) 336(1) 410(0) 
bin_id=19: 259(2) 269(0) 472(1) 
bin_id=20: 274(2) 356(1) 370(0) 
bin_id=21: 251(2) 252(3) 497(2) 
bin_id=22: 253(1) 350(4) 397(4) 
bin_id=23: 263(3) 307(1) 430(4) 
bin_id=24: 254(2) 301(1) 445(4) 
bin_id=25: 294(3) 299(1) 407(1) 
bin_id=26: 258(1) 276(2) 466(4) 
bin_id=27: 288(2) 355(0) 357(0) 
bin_id=28: 261(0) 363(4) 376(2) 
bin_id=29: 272(4) 333(0) 395(4) 
bin_id=30: 266(0) 320(4) 414(0) 
bin_id=31: 268(0) 366(3) 366(3) 
bin_id=32: 262(4) 366(2) 372(0) 
bin_id=33: 275(1) 362(3) 363(3) 
bin_id=34: 273(2) 361(0) 366(2) 
bin_id=35: 282(4) 352(1) 366(4) 
bin_id=36: 292(4) 351(1) 357(1) 
bin_id=37: 315(1) 329(4) 356(4) 
bin_id=38: 282(2) 313(4) 405(0) 
bin_id=39: 290(2) 298(3) 412(3) 
bin_id=40: 272(0) 283(1) 445(4) 
Objective value: 40.0
########################################################
