Application parameters:
  batch  =>  nothing
  instance  =>  "/IN/Falkenauer_t249_02.txt-Q20"
  ub  =>  1.0e6
  cfg  =>  "/CFG/BPP.cfg"
data = Colored Bin Packing dataset.
number of items = 249
number of colors = 20
capacity = 1000
Items : 
	 item 1, weight= 250, color= 2
	 item 2, weight= 250, color= 3
	 item 3, weight= 250, color= 7
	 item 4, weight= 250, color= 8
	 item 5, weight= 250, color= 16
	 item 6, weight= 250, color= 18
	 item 7, weight= 251, color= 12
	 item 8, weight= 252, color= 0
	 item 9, weight= 252, color= 0
	 item 10, weight= 252, color= 5
	 item 11, weight= 252, color= 19
	 item 12, weight= 253, color= 0
	 item 13, weight= 253, color= 5
	 item 14, weight= 253, color= 17
	 item 15, weight= 253, color= 18
	 item 16, weight= 254, color= 0
	 item 17, weight= 254, color= 5
	 item 18, weight= 254, color= 12
	 item 19, weight= 254, color= 15
	 item 20, weight= 255, color= 0
	 item 21, weight= 255, color= 0
	 item 22, weight= 255, color= 11
	 item 23, weight= 255, color= 16
	 item 24, weight= 256, color= 0
	 item 25, weight= 256, color= 1
	 item 26, weight= 256, color= 4
	 item 27, weight= 256, color= 11
	 item 28, weight= 256, color= 15
	 item 29, weight= 257, color= 7
	 item 30, weight= 257, color= 11
	 item 31, weight= 257, color= 15
	 item 32, weight= 257, color= 18
	 item 33, weight= 258, color= 9
	 item 34, weight= 258, color= 14
	 item 35, weight= 259, color= 11
	 item 36, weight= 259, color= 13
	 item 37, weight= 259, color= 14
	 item 38, weight= 259, color= 17
	 item 39, weight= 260, color= 0
	 item 40, weight= 260, color= 9
	 item 41, weight= 260, color= 17
	 item 42, weight= 260, color= 18
	 item 43, weight= 261, color= 3
	 item 44, weight= 262, color= 9
	 item 45, weight= 263, color= 2
	 item 46, weight= 263, color= 5
	 item 47, weight= 263, color= 13
	 item 48, weight= 263, color= 18
	 item 49, weight= 264, color= 6
	 item 50, weight= 264, color= 7
	 item 51, weight= 264, color= 8
	 item 52, weight= 264, color= 18
	 item 53, weight= 265, color= 0
	 item 54, weight= 265, color= 2
	 item 55, weight= 266, color= 6
	 item 56, weight= 267, color= 19
	 item 57, weight= 269, color= 1
	 item 58, weight= 269, color= 1
	 item 59, weight= 269, color= 6
	 item 60, weight= 269, color= 13
	 item 61, weight= 270, color= 2
	 item 62, weight= 270, color= 9
	 item 63, weight= 270, color= 15
	 item 64, weight= 271, color= 0
	 item 65, weight= 271, color= 0
	 item 66, weight= 271, color= 1
	 item 67, weight= 271, color= 14
	 item 68, weight= 271, color= 16
	 item 69, weight= 272, color= 5
	 item 70, weight= 272, color= 10
	 item 71, weight= 273, color= 8
	 item 72, weight= 273, color= 16
	 item 73, weight= 274, color= 1
	 item 74, weight= 274, color= 17
	 item 75, weight= 276, color= 19
	 item 76, weight= 278, color= 8
	 item 77, weight= 278, color= 12
	 item 78, weight= 279, color= 4
	 item 79, weight= 280, color= 7
	 item 80, weight= 280, color= 11
	 item 81, weight= 280, color= 16
	 item 82, weight= 281, color= 1
	 item 83, weight= 281, color= 2
	 item 84, weight= 281, color= 2
	 item 85, weight= 281, color= 4
	 item 86, weight= 281, color= 15
	 item 87, weight= 281, color= 18
	 item 88, weight= 282, color= 13
	 item 89, weight= 283, color= 14
	 item 90, weight= 285, color= 0
	 item 91, weight= 285, color= 1
	 item 92, weight= 285, color= 15
	 item 93, weight= 286, color= 2
	 item 94, weight= 286, color= 12
	 item 95, weight= 286, color= 18
	 item 96, weight= 287, color= 3
	 item 97, weight= 287, color= 4
	 item 98, weight= 287, color= 18
	 item 99, weight= 288, color= 12
	 item 100, weight= 288, color= 19
	 item 101, weight= 290, color= 1
	 item 102, weight= 290, color= 9
	 item 103, weight= 290, color= 10
	 item 104, weight= 290, color= 15
	 item 105, weight= 292, color= 13
	 item 106, weight= 294, color= 7
	 item 107, weight= 296, color= 0
	 item 108, weight= 297, color= 13
	 item 109, weight= 298, color= 17
	 item 110, weight= 299, color= 4
	 item 111, weight= 300, color= 4
	 item 112, weight= 300, color= 14
	 item 113, weight= 301, color= 16
	 item 114, weight= 302, color= 18
	 item 115, weight= 303, color= 16
	 item 116, weight= 304, color= 1
	 item 117, weight= 307, color= 6
	 item 118, weight= 308, color= 1
	 item 119, weight= 310, color= 2
	 item 120, weight= 311, color= 7
	 item 121, weight= 311, color= 10
	 item 122, weight= 311, color= 10
	 item 123, weight= 311, color= 16
	 item 124, weight= 314, color= 7
	 item 125, weight= 315, color= 4
	 item 126, weight= 317, color= 3
	 item 127, weight= 318, color= 15
	 item 128, weight= 319, color= 2
	 item 129, weight= 319, color= 4
	 item 130, weight= 322, color= 10
	 item 131, weight= 323, color= 5
	 item 132, weight= 324, color= 0
	 item 133, weight= 324, color= 13
	 item 134, weight= 324, color= 18
	 item 135, weight= 326, color= 12
	 item 136, weight= 329, color= 8
	 item 137, weight= 329, color= 15
	 item 138, weight= 329, color= 15
	 item 139, weight= 332, color= 4
	 item 140, weight= 333, color= 9
	 item 141, weight= 333, color= 16
	 item 142, weight= 335, color= 2
	 item 143, weight= 335, color= 6
	 item 144, weight= 339, color= 4
	 item 145, weight= 339, color= 7
	 item 146, weight= 340, color= 0
	 item 147, weight= 343, color= 15
	 item 148, weight= 345, color= 11
	 item 149, weight= 345, color= 15
	 item 150, weight= 346, color= 4
	 item 151, weight= 346, color= 16
	 item 152, weight= 349, color= 11
	 item 153, weight= 350, color= 13
	 item 154, weight= 350, color= 17
	 item 155, weight= 351, color= 7
	 item 156, weight= 353, color= 3
	 item 157, weight= 356, color= 12
	 item 158, weight= 356, color= 14
	 item 159, weight= 357, color= 6
	 item 160, weight= 357, color= 14
	 item 161, weight= 360, color= 11
	 item 162, weight= 362, color= 0
	 item 163, weight= 362, color= 11
	 item 164, weight= 363, color= 18
	 item 165, weight= 365, color= 5
	 item 166, weight= 366, color= 5
	 item 167, weight= 367, color= 2
	 item 168, weight= 367, color= 16
	 item 169, weight= 368, color= 4
	 item 170, weight= 368, color= 19
	 item 171, weight= 369, color= 3
	 item 172, weight= 372, color= 0
	 item 173, weight= 373, color= 0
	 item 174, weight= 373, color= 5
	 item 175, weight= 373, color= 9
	 item 176, weight= 373, color= 18
	 item 177, weight= 374, color= 1
	 item 178, weight= 374, color= 8
	 item 179, weight= 374, color= 17
	 item 180, weight= 374, color= 17
	 item 181, weight= 375, color= 2
	 item 182, weight= 377, color= 2
	 item 183, weight= 377, color= 7
	 item 184, weight= 381, color= 13
	 item 185, weight= 382, color= 1
	 item 186, weight= 383, color= 19
	 item 187, weight= 384, color= 19
	 item 188, weight= 387, color= 4
	 item 189, weight= 387, color= 19
	 item 190, weight= 390, color= 5
	 item 191, weight= 390, color= 6
	 item 192, weight= 390, color= 14
	 item 193, weight= 391, color= 6
	 item 194, weight= 391, color= 7
	 item 195, weight= 392, color= 3
	 item 196, weight= 392, color= 5
	 item 197, weight= 394, color= 15
	 item 198, weight= 396, color= 1
	 item 199, weight= 397, color= 17
	 item 200, weight= 397, color= 18
	 item 201, weight= 401, color= 3
	 item 202, weight= 401, color= 11
	 item 203, weight= 403, color= 16
	 item 204, weight= 405, color= 16
	 item 205, weight= 407, color= 9
	 item 206, weight= 407, color= 19
	 item 207, weight= 410, color= 15
	 item 208, weight= 413, color= 9
	 item 209, weight= 414, color= 12
	 item 210, weight= 414, color= 16
	 item 211, weight= 419, color= 4
	 item 212, weight= 421, color= 11
	 item 213, weight= 421, color= 15
	 item 214, weight= 424, color= 10
	 item 215, weight= 430, color= 14
	 item 216, weight= 431, color= 1
	 item 217, weight= 433, color= 2
	 item 218, weight= 433, color= 16
	 item 219, weight= 434, color= 11
	 item 220, weight= 441, color= 4
	 item 221, weight= 442, color= 0
	 item 222, weight= 443, color= 0
	 item 223, weight= 443, color= 10
	 item 224, weight= 445, color= 8
	 item 225, weight= 448, color= 17
	 item 226, weight= 449, color= 8
	 item 227, weight= 450, color= 14
	 item 228, weight= 453, color= 15
	 item 229, weight= 456, color= 0
	 item 230, weight= 457, color= 11
	 item 231, weight= 458, color= 5
	 item 232, weight= 459, color= 2
	 item 233, weight= 459, color= 10
	 item 234, weight= 461, color= 5
	 item 235, weight= 463, color= 2
	 item 236, weight= 466, color= 6
	 item 237, weight= 467, color= 3
	 item 238, weight= 469, color= 5
	 item 239, weight= 476, color= 11
	 item 240, weight= 477, color= 13
	 item 241, weight= 481, color= 0
	 item 242, weight= 484, color= 4
	 item 243, weight= 484, color= 5
	 item 244, weight= 487, color= 8
	 item 245, weight= 488, color= 12
	 item 246, weight= 490, color= 13
	 item 247, weight= 494, color= 4
	 item 248, weight= 494, color= 9
	 item 249, weight= 496, color= 15

VRPSolver warning: Interval set for resource 1 on source node (when source != sink) is ignored (by definition is [0.0,0.0])
VRPSolver warning: Interval set for resource 2 on source node (when source != sink) is ignored (by definition is [0.0,0.0])
VRPSolver warning: Interval set for resource 3 on source node (when source != sink) is ignored (by definition is [0.0,0.0])
VRPSolver warning: Interval set for resource 4 on source node (when source != sink) is ignored (by definition is [0.0,0.0])
VRPSolver warning: Interval set for resource 5 on source node (when source != sink) is ignored (by definition is [0.0,0.0])
VRPSolver warning: Interval set for resource 6 on source node (when source != sink) is ignored (by definition is [0.0,0.0])
VRPSolver warning: Interval set for resource 7 on source node (when source != sink) is ignored (by definition is [0.0,0.0])
VRPSolver warning: Interval set for resource 8 on source node (when source != sink) is ignored (by definition is [0.0,0.0])
VRPSolver warning: Interval set for resource 9 on source node (when source != sink) is ignored (by definition is [0.0,0.0])
VRPSolver warning: Interval set for resource 10 on source node (when source != sink) is ignored (by definition is [0.0,0.0])
VRPSolver warning: Interval set for resource 11 on source node (when source != sink) is ignored (by definition is [0.0,0.0])
VRPSolver warning: Interval set for resource 12 on source node (when source != sink) is ignored (by definition is [0.0,0.0])
VRPSolver warning: Interval set for resource 13 on source node (when source != sink) is ignored (by definition is [0.0,0.0])
VRPSolver warning: Interval set for resource 14 on source node (when source != sink) is ignored (by definition is [0.0,0.0])
VRPSolver warning: Interval set for resource 15 on source node (when source != sink) is ignored (by definition is [0.0,0.0])
VRPSolver warning: Interval set for resource 16 on source node (when source != sink) is ignored (by definition is [0.0,0.0])
VRPSolver warning: Interval set for resource 17 on source node (when source != sink) is ignored (by definition is [0.0,0.0])
VRPSolver warning: Interval set for resource 18 on source node (when source != sink) is ignored (by definition is [0.0,0.0])
VRPSolver warning: Interval set for resource 19 on source node (when source != sink) is ignored (by definition is [0.0,0.0])
VRPSolver warning: Interval set for resource 20 on source node (when source != sink) is ignored (by definition is [0.0,0.0])
VRPSolver warning: Interval set for resource 21 on source node (when source != sink) is ignored (by definition is [0.0,0.0])
[41m solve [00m
~~~~~~~~~~~~~~~~~~~~~~~~~~~~~~~~~~~~~~~~~~~~~~~~~~~~~~~~~~~~~~~~~~~~~~~~~~~~~~
VRPSolver v0.4.1, 24/03/2021. Web: vrpsolver.math.u-bordeaux.fr
Corresponds to the solver by Pessoa, Sadykov, Uchoa and Vanderbeck (2020)
Paper: dx.doi.org/10.1007/s10107-020-01523-z
USE THIS CODE ONLY FOR ACADEMIC PURPOSES AT YOUR OWN RISK
~~~~~~~~~~~~~~~~~~~~~~~~~~~~~~~~~~~~~~~~~~~~~~~~~~~~~~~~~~~~~~~~~~~~~~~~~~~~~~
BaPCod v053, 24/03/2021, © Inria Bordeaux, France
~~~~~~~~~~~~~~~~~~~~~~~~~~~~~~~~~~~~~~~~~~~~~~~~~~~~~~~~~~~~~~~~~~~~~~~~~~~~~~
VRPSolver parameters:
GlobalTimeLimit = 60
MaxNbOfBBtreeNodeTreated = 100000
treeSearchStrategy = 1
RCSPstopCutGenTimeThresholdInPricing = 10
RCSPhardTimeThresholdInPricing = 20
RCSPnumberOfBucketsPerVertex = 2000
RCSPdynamicBucketSteps = 0
RCSPuseBidirectionalSearch = 1
RCSPapplyReducedCostFixing = 1
RCSPredCostFixingFalseGap = 0
RCSPmaxNumOfColsPerIteration = 100
RCSPmaxNumOfColsPerExactIteration = 100
RCSPheurLabelingStrategy = 4
StabilizationMinPhaseOfStage = 1
RCSPmaxNumOfLabelsInEnumeration = 100000
RCSPmaxNumOfEnumeratedSolutions = 1000000
RCSPmaxNumOfEnumSolutionsForMIP = 100000
RCSPinitNGneighbourhoodSize = 0
RCSPmaxNGneighbourhoodSize = 0
RCSPrankOneCutsMaxNumPerRound = 100
RCSPrankOneCutsMaxNumRows = -1
RCSPrankOneCutsMemoryType = 2
CutTailingOffThreshold = 0.02
CutTailingOffCounterThreshold = 3
SafeDualBoundScaleFactor = -1
StrongBranchingPhaseOneCandidatesNumber = 100
StrongBranchingPhaseOneTreeSizeEstimRatio = 0.3
StrongBranchingPhaseTwoCandidatesNumber = 1
StrongBranchingPhaseTwoTreeSizeEstimRatio = 0.1
MaxTimeForRestrictedMasterIpHeur = -1
DivingHeurUseDepthLimit = 0
MaxLDSbreadth = 3
MaxLDSdepth = 2
New model incumbent solution 1e+06, TIME = 0h0m0s3t = 3
