Academic license - for non-commercial use only - expires 2025-02-09
Gurobi Optimizer version 9.1.2 build v9.1.2rc0 (linux64)
Thread count: 20 physical cores, 40 logical processors, using up to 1 threads
Optimize a model with 11607 rows, 179817 columns and 2520271 nonzeros
Model fingerprint: 0xb76ebc32
Variable types: 0 continuous, 179817 integer (0 binary)
Coefficient statistics:
  Matrix range     [1e+00, 1e+00]
  Objective range  [1e+00, 1e+00]
  Bounds range     [5e+02, 5e+02]
  RHS range        [1e+00, 1e+00]

Warning: Completing partial solution with 179166 unfixed non-continuous variables out of 179817
User MIP start produced solution with objective 201 (0.98s)
Loaded user MIP start with objective 201

Presolve removed 5403 rows and 1993 columns (presolve time = 5s) ...
Presolve removed 5403 rows and 3338 columns
Presolve time: 9.07s
Presolved: 6204 rows, 176479 columns, 2248446 nonzeros
Found heuristic solution: objective 201.0000000
Variable types: 0 continuous, 176479 integer (176107 binary)

Root simplex log...

Iteration    Objective       Primal Inf.    Dual Inf.      Time
       0   -6.5300000e+02   1.726875e+03   0.000000e+00     11s
    6126    1.6625015e+02   1.969696e+03   0.000000e+00     15s
   13674    1.6700106e+02   8.457503e+02   0.000000e+00     20s
   16039    1.6700000e+02   0.000000e+00   0.000000e+00     24s

Root relaxation: objective 1.670000e+02, 16039 iterations, 13.62 seconds
Total elapsed time = 31.33s
Total elapsed time = 43.62s
Total elapsed time = 46.78s
Total elapsed time = 52.03s

    Nodes    |    Current Node    |     Objective Bounds      |     Work
 Expl Unexpl |  Obj  Depth IntInf | Incumbent    BestBd   Gap | It/Node Time

     0     0  167.00000    0   55  201.00000  167.00000  16.9%     -   55s
H    0     0                     168.0000000  167.00000  0.60%     -   56s
H    0     0                     167.0000000  167.00000  0.00%     -   57s
     0     0  167.00000    0   55  167.00000  167.00000  0.00%     -   57s

Explored 1 nodes (149232 simplex iterations) in 57.14 seconds
Thread count was 1 (of 40 available processors)

Solution count 4: 167 168 201 201 

Optimal solution found (tolerance 1.00e-04)
Best objective 1.670000000000e+02, best bound 1.670000000000e+02, gap 0.0000%
1	179817	11607	1	167	167	58.009
