Academic license - for non-commercial use only - expires 2025-02-09
Gurobi Optimizer version 9.1.2 build v9.1.2rc0 (linux64)
Thread count: 20 physical cores, 40 logical processors, using up to 1 threads
Optimize a model with 3322 rows, 31801 columns and 218677 nonzeros
Model fingerprint: 0x3950109d
Variable types: 0 continuous, 31801 integer (0 binary)
Coefficient statistics:
  Matrix range     [1e+00, 1e+00]
  Objective range  [1e+00, 1e+00]
  Bounds range     [1e+02, 1e+02]
  RHS range        [1e+00, 1e+00]

Warning: Completing partial solution with 31634 unfixed non-continuous variables out of 31801
User MIP start produced solution with objective 49 (0.04s)
Loaded user MIP start with objective 49

Presolve removed 1644 rows and 2973 columns
Presolve time: 0.41s
Presolved: 1678 rows, 28828 columns, 156017 nonzeros
Variable types: 0 continuous, 28828 integer (28558 binary)

Root relaxation: objective 4.000000e+01, 6855 iterations, 0.73 seconds

    Nodes    |    Current Node    |     Objective Bounds      |     Work
 Expl Unexpl |  Obj  Depth IntInf | Incumbent    BestBd   Gap | It/Node Time

*    0     0               0      40.0000000   40.00000  0.00%     -    1s

Explored 0 nodes (17715 simplex iterations) in 1.71 seconds
Thread count was 1 (of 40 available processors)

Solution count 2: 40 49 

Optimal solution found (tolerance 1.00e-04)
Best objective 4.000000000000e+01, best bound 4.000000000000e+01, gap 0.0000%
1	31801	3322	0	40	40	1.812
