Academic license - for non-commercial use only - expires 2025-02-09
Gurobi Optimizer version 9.1.2 build v9.1.2rc0 (linux64)
Thread count: 20 physical cores, 40 logical processors, using up to 1 threads
Optimize a model with 6739 rows, 13525 columns and 127699 nonzeros
Model fingerprint: 0x5d8b71ae
Variable types: 0 continuous, 13525 integer (0 binary)
Coefficient statistics:
  Matrix range     [1e+00, 1e+00]
  Objective range  [1e+00, 1e+00]
  Bounds range     [6e+01, 6e+01]
  RHS range        [1e+00, 1e+00]

Warning: Completing partial solution with 13440 unfixed non-continuous variables out of 13525
User MIP start produced solution with objective 25 (0.03s)
Loaded user MIP start with objective 25

Presolve removed 4868 rows and 781 columns
Presolve time: 0.24s
Presolved: 1871 rows, 12744 columns, 91252 nonzeros
Variable types: 0 continuous, 12744 integer (12503 binary)

Root relaxation: objective 2.000000e+01, 2868 iterations, 0.20 seconds

    Nodes    |    Current Node    |     Objective Bounds      |     Work
 Expl Unexpl |  Obj  Depth IntInf | Incumbent    BestBd   Gap | It/Node Time

     0     0   20.00000    0   49   25.00000   20.00000  20.0%     -    0s
H    0     0                      24.0000000   20.00000  16.7%     -    0s
H    0     0                      21.0000000   20.00000  4.76%     -    0s
*    0     0               0      20.0000000   20.00000  0.00%     -    0s

Cutting planes:
  Zero half: 6
  RLT: 2

Explored 1 nodes (4562 simplex iterations) in 0.85 seconds
Thread count was 1 (of 40 available processors)

Solution count 4: 20 21 24 25 

Optimal solution found (tolerance 1.00e-04)
Best objective 2.000000000000e+01, best bound 2.000000000000e+01, gap 0.0000%
1	13525	6739	1	20	20	0.907
