Academic license - for non-commercial use only - expires 2025-02-09
Gurobi Optimizer version 9.1.2 build v9.1.2rc0 (linux64)
Thread count: 20 physical cores, 40 logical processors, using up to 1 threads
Optimize a model with 3608 rows, 78668 columns and 524200 nonzeros
Model fingerprint: 0x095b9300
Variable types: 0 continuous, 78668 integer (0 binary)
Coefficient statistics:
  Matrix range     [1e+00, 1e+00]
  Objective range  [1e+00, 1e+00]
  Bounds range     [2e+02, 2e+02]
  RHS range        [1e+00, 1e+00]

Warning: Completing partial solution with 78333 unfixed non-continuous variables out of 78668
User MIP start produced solution with objective 100 (0.12s)
Loaded user MIP start with objective 100

Presolve removed 1665 rows and 6085 columns
Presolve time: 1.29s
Presolved: 1943 rows, 72583 columns, 385549 nonzeros
Variable types: 0 continuous, 72583 integer (72275 binary)

Root simplex log...

Iteration    Objective       Primal Inf.    Dual Inf.      Time
    9471    8.3000402e+01   5.252610e+02   0.000000e+00      5s
   12500    8.3000000e+01   0.000000e+00   0.000000e+00      8s

Root relaxation: objective 8.300000e+01, 12500 iterations, 6.12 seconds
Total elapsed time = 11.03s

    Nodes    |    Current Node    |     Objective Bounds      |     Work
 Expl Unexpl |  Obj  Depth IntInf | Incumbent    BestBd   Gap | It/Node Time

     0     0   83.00000    0   39  100.00000   83.00000  17.0%     -   13s
H    0     0                      84.0000000   83.00000  1.19%     -   13s
     0     0   83.00000    0  196   84.00000   83.00000  1.19%     -   14s
     0     0   83.00000    0   20   84.00000   83.00000  1.19%     -   27s
     0     0   83.00000    0   23   84.00000   83.00000  1.19%     -   32s
     0     0   83.00000    0   23   84.00000   83.00000  1.19%     -   36s
     0     0   83.00000    0   25   84.00000   83.00000  1.19%     -   41s
     0     0   83.00000    0   25   84.00000   83.00000  1.19%     -   45s
H    0     0                      83.0000000   83.00000  0.00%     -   51s
     0     0   83.00000    0   25   83.00000   83.00000  0.00%     -   51s

Cutting planes:
  MIR: 2
  Zero half: 2
  RLT: 2

Explored 1 nodes (210110 simplex iterations) in 51.09 seconds
Thread count was 1 (of 40 available processors)

Solution count 3: 83 84 100 

Optimal solution found (tolerance 1.00e-04)
Best objective 8.300000000000e+01, best bound 8.300000000000e+01, gap 0.0000%
1	78668	3608	1	83	83	51.347
