Academic license - for non-commercial use only - expires 2025-02-09
Gurobi Optimizer version 9.1.2 build v9.1.2rc0 (linux64)
Thread count: 20 physical cores, 40 logical processors, using up to 1 threads
Optimize a model with 11619 rows, 181811 columns and 2532175 nonzeros
Model fingerprint: 0xe64db024
Variable types: 0 continuous, 181811 integer (0 binary)
Coefficient statistics:
  Matrix range     [1e+00, 1e+00]
  Objective range  [1e+00, 1e+00]
  Bounds range     [5e+02, 5e+02]
  RHS range        [1e+00, 1e+00]

Warning: Completing partial solution with 181158 unfixed non-continuous variables out of 181811
User MIP start produced solution with objective 202 (0.99s)
Loaded user MIP start with objective 202

Presolve removed 5427 rows and 2211 columns (presolve time = 5s) ...
Presolve removed 5427 rows and 4379 columns
Presolve time: 9.03s
Presolved: 6192 rows, 177432 columns, 2250406 nonzeros
Found heuristic solution: objective 202.0000000
Variable types: 0 continuous, 177432 integer (177066 binary)

Root simplex log...

Iteration    Objective       Primal Inf.    Dual Inf.      Time
       0   -8.9900000e+02   2.151750e+03   0.000000e+00     11s
    8231    1.6354707e+02   4.270053e+05   0.000000e+00     15s
   13790    1.6700116e+02   2.882532e+02   0.000000e+00     20s
   14384    1.6700000e+02   0.000000e+00   0.000000e+00     22s

Root relaxation: objective 1.670000e+02, 14384 iterations, 11.20 seconds
Total elapsed time = 28.03s
Total elapsed time = 36.66s
Total elapsed time = 40.65s

    Nodes    |    Current Node    |     Objective Bounds      |     Work
 Expl Unexpl |  Obj  Depth IntInf | Incumbent    BestBd   Gap | It/Node Time

     0     0  167.00000    0   84  202.00000  167.00000  17.3%     -   46s
H    0     0                     168.0000000  167.00000  0.60%     -   47s
H    0     0                     167.0000000  167.00000  0.00%     -   48s
     0     0  167.00000    0   84  167.00000  167.00000  0.00%     -   48s

Explored 1 nodes (112080 simplex iterations) in 48.20 seconds
Thread count was 1 (of 40 available processors)

Solution count 4: 167 168 202 202 

Optimal solution found (tolerance 1.00e-04)
Best objective 1.670000000000e+02, best bound 1.670000000000e+02, gap 0.0000%
1	181811	11619	1	167	167	49.12
