Academic license - for non-commercial use only - expires 2025-02-09
Gurobi Optimizer version 9.1.2 build v9.1.2rc0 (linux64)
Thread count: 20 physical cores, 40 logical processors, using up to 1 threads
Optimize a model with 2946 rows, 13727 columns and 90719 nonzeros
Model fingerprint: 0x68289359
Variable types: 0 continuous, 13727 integer (0 binary)
Coefficient statistics:
  Matrix range     [1e+00, 1e+00]
  Objective range  [1e+00, 1e+00]
  Bounds range     [6e+01, 6e+01]
  RHS range        [1e+00, 1e+00]

Warning: Completing partial solution with 13642 unfixed non-continuous variables out of 13727
User MIP start produced solution with objective 26 (0.02s)
Loaded user MIP start with objective 26

Presolve removed 1655 rows and 1449 columns
Presolve time: 0.18s
Presolved: 1291 rows, 12278 columns, 60644 nonzeros
Variable types: 0 continuous, 12278 integer (12054 binary)

Root relaxation: objective 2.000000e+01, 2546 iterations, 0.23 seconds

    Nodes    |    Current Node    |     Objective Bounds      |     Work
 Expl Unexpl |  Obj  Depth IntInf | Incumbent    BestBd   Gap | It/Node Time

*    0     0               0      20.0000000   20.00000  0.00%     -    0s

Explored 0 nodes (3476 simplex iterations) in 0.50 seconds
Thread count was 1 (of 40 available processors)

Solution count 2: 20 26 

Optimal solution found (tolerance 1.00e-04)
Best objective 2.000000000000e+01, best bound 2.000000000000e+01, gap 0.0000%
1	13727	2946	0	20	20	0.551
