Application parameters:
  batch  =>  nothing
  instance  =>  "/IN/201_2500_DI_28.txt-Q2"
  ub  =>  1.0e6
  cfg  =>  "/CFG/BPP.cfg"
data = Colored Bin Packing dataset.
number of items = 202
number of colors = 2
capacity = 1956
Items : 
	 item 1, weight= 4, color= 1
	 item 2, weight= 16, color= 0
	 item 3, weight= 20, color= 0
	 item 4, weight= 20, color= 0
	 item 5, weight= 20, color= 0
	 item 6, weight= 32, color= 0
	 item 7, weight= 34, color= 1
	 item 8, weight= 36, color= 0
	 item 9, weight= 36, color= 0
	 item 10, weight= 38, color= 0
	 item 11, weight= 40, color= 0
	 item 12, weight= 40, color= 0
	 item 13, weight= 40, color= 0
	 item 14, weight= 40, color= 1
	 item 15, weight= 40, color= 1
	 item 16, weight= 40, color= 1
	 item 17, weight= 42, color= 0
	 item 18, weight= 42, color= 1
	 item 19, weight= 42, color= 1
	 item 20, weight= 42, color= 1
	 item 21, weight= 44, color= 0
	 item 22, weight= 44, color= 1
	 item 23, weight= 44, color= 1
	 item 24, weight= 46, color= 1
	 item 25, weight= 48, color= 0
	 item 26, weight= 50, color= 0
	 item 27, weight= 50, color= 0
	 item 28, weight= 52, color= 1
	 item 29, weight= 56, color= 0
	 item 30, weight= 60, color= 0
	 item 31, weight= 60, color= 0
	 item 32, weight= 60, color= 0
	 item 33, weight= 60, color= 0
	 item 34, weight= 64, color= 0
	 item 35, weight= 64, color= 1
	 item 36, weight= 64, color= 1
	 item 37, weight= 66, color= 0
	 item 38, weight= 66, color= 0
	 item 39, weight= 68, color= 0
	 item 40, weight= 68, color= 1
	 item 41, weight= 68, color= 1
	 item 42, weight= 72, color= 0
	 item 43, weight= 72, color= 1
	 item 44, weight= 72, color= 1
	 item 45, weight= 76, color= 0
	 item 46, weight= 76, color= 0
	 item 47, weight= 78, color= 0
	 item 48, weight= 78, color= 1
	 item 49, weight= 88, color= 1
	 item 50, weight= 88, color= 1
	 item 51, weight= 90, color= 0
	 item 52, weight= 92, color= 0
	 item 53, weight= 94, color= 1
	 item 54, weight= 98, color= 0
	 item 55, weight= 98, color= 1
	 item 56, weight= 108, color= 0
	 item 57, weight= 112, color= 0
	 item 58, weight= 114, color= 0
	 item 59, weight= 114, color= 1
	 item 60, weight= 116, color= 1
	 item 61, weight= 122, color= 0
	 item 62, weight= 128, color= 0
	 item 63, weight= 140, color= 0
	 item 64, weight= 140, color= 1
	 item 65, weight= 144, color= 1
	 item 66, weight= 160, color= 0
	 item 67, weight= 160, color= 0
	 item 68, weight= 162, color= 0
	 item 69, weight= 162, color= 1
	 item 70, weight= 173, color= 0
	 item 71, weight= 182, color= 0
	 item 72, weight= 185, color= 1
	 item 73, weight= 199, color= 1
	 item 74, weight= 209, color= 0
	 item 75, weight= 210, color= 0
	 item 76, weight= 211, color= 1
	 item 77, weight= 215, color= 1
	 item 78, weight= 219, color= 0
	 item 79, weight= 220, color= 1
	 item 80, weight= 220, color= 1
	 item 81, weight= 222, color= 0
	 item 82, weight= 231, color= 0
	 item 83, weight= 232, color= 1
	 item 84, weight= 236, color= 1
	 item 85, weight= 238, color= 0
	 item 86, weight= 251, color= 0
	 item 87, weight= 254, color= 0
	 item 88, weight= 254, color= 1
	 item 89, weight= 259, color= 1
	 item 90, weight= 263, color= 0
	 item 91, weight= 265, color= 1
	 item 92, weight= 286, color= 1
	 item 93, weight= 290, color= 1
	 item 94, weight= 301, color= 0
	 item 95, weight= 303, color= 1
	 item 96, weight= 304, color= 0
	 item 97, weight= 318, color= 1
	 item 98, weight= 329, color= 1
	 item 99, weight= 331, color= 1
	 item 100, weight= 350, color= 0
	 item 101, weight= 365, color= 0
	 item 102, weight= 366, color= 0
	 item 103, weight= 382, color= 0
	 item 104, weight= 391, color= 0
	 item 105, weight= 395, color= 1
	 item 106, weight= 402, color= 1
	 item 107, weight= 403, color= 1
	 item 108, weight= 404, color= 0
	 item 109, weight= 441, color= 0
	 item 110, weight= 450, color= 1
	 item 111, weight= 451, color= 0
	 item 112, weight= 456, color= 1
	 item 113, weight= 479, color= 0
	 item 114, weight= 482, color= 1
	 item 115, weight= 491, color= 1
	 item 116, weight= 491, color= 1
	 item 117, weight= 495, color= 0
	 item 118, weight= 542, color= 0
	 item 119, weight= 543, color= 1
	 item 120, weight= 549, color= 1
	 item 121, weight= 558, color= 1
	 item 122, weight= 561, color= 1
	 item 123, weight= 575, color= 0
	 item 124, weight= 579, color= 1
	 item 125, weight= 594, color= 0
	 item 126, weight= 611, color= 1
	 item 127, weight= 654, color= 1
	 item 128, weight= 656, color= 0
	 item 129, weight= 661, color= 0
	 item 130, weight= 667, color= 1
	 item 131, weight= 701, color= 1
	 item 132, weight= 703, color= 1
	 item 133, weight= 724, color= 0
	 item 134, weight= 726, color= 0
	 item 135, weight= 809, color= 1
	 item 136, weight= 811, color= 1
	 item 137, weight= 814, color= 1
	 item 138, weight= 815, color= 0
	 item 139, weight= 979, color= 1
	 item 140, weight= 982, color= 1
	 item 141, weight= 983, color= 0
	 item 142, weight= 987, color= 1
	 item 143, weight= 1086, color= 0
	 item 144, weight= 1113, color= 1
	 item 145, weight= 1115, color= 0
	 item 146, weight= 1174, color= 1
	 item 147, weight= 1221, color= 1
	 item 148, weight= 1223, color= 0
	 item 149, weight= 1227, color= 0
	 item 150, weight= 1232, color= 1
	 item 151, weight= 1246, color= 0
	 item 152, weight= 1263, color= 0
	 item 153, weight= 1267, color= 1
	 item 154, weight= 1283, color= 1
	 item 155, weight= 1306, color= 1
	 item 156, weight= 1348, color= 0
	 item 157, weight= 1349, color= 0
	 item 158, weight= 1363, color= 0
	 item 159, weight= 1367, color= 0
	 item 160, weight= 1378, color= 0
	 item 161, weight= 1382, color= 0
	 item 162, weight= 1383, color= 0
	 item 163, weight= 1387, color= 1
	 item 164, weight= 1399, color= 1
	 item 165, weight= 1415, color= 1
	 item 166, weight= 1418, color= 0
	 item 167, weight= 1427, color= 1
	 item 168, weight= 1478, color= 1
	 item 169, weight= 1483, color= 0
	 item 170, weight= 1487, color= 0
	 item 171, weight= 1498, color= 1
	 item 172, weight= 1503, color= 1
	 item 173, weight= 1518, color= 0
	 item 174, weight= 1519, color= 0
	 item 175, weight= 1538, color= 1
	 item 176, weight= 1559, color= 1
	 item 177, weight= 1563, color= 0
	 item 178, weight= 1578, color= 0
	 item 179, weight= 1593, color= 1
	 item 180, weight= 1595, color= 1
	 item 181, weight= 1610, color= 1
	 item 182, weight= 1630, color= 1
	 item 183, weight= 1641, color= 0
	 item 184, weight= 1647, color= 1
	 item 185, weight= 1654, color= 1
	 item 186, weight= 1659, color= 1
	 item 187, weight= 1663, color= 0
	 item 188, weight= 1674, color= 1
	 item 189, weight= 1679, color= 0
	 item 190, weight= 1680, color= 0
	 item 191, weight= 1684, color= 1
	 item 192, weight= 1686, color= 1
	 item 193, weight= 1690, color= 0
	 item 194, weight= 1695, color= 1
	 item 195, weight= 1699, color= 1
	 item 196, weight= 1703, color= 0
	 item 197, weight= 1706, color= 0
	 item 198, weight= 1707, color= 1
	 item 199, weight= 1719, color= 1
	 item 200, weight= 1735, color= 0
	 item 201, weight= 1738, color= 1
	 item 202, weight= 1749, color= 0

VRPSolver warning: Interval set for resource 1 on source node (when source != sink) is ignored (by definition is [0.0,0.0])
[41m solve [00m
~~~~~~~~~~~~~~~~~~~~~~~~~~~~~~~~~~~~~~~~~~~~~~~~~~~~~~~~~~~~~~~~~~~~~~~~~~~~~~
VRPSolver v0.4.1, 24/03/2021. Web: vrpsolver.math.u-bordeaux.fr
Corresponds to the solver by Pessoa, Sadykov, Uchoa and Vanderbeck (2020)
Paper: dx.doi.org/10.1007/s10107-020-01523-z
USE THIS CODE ONLY FOR ACADEMIC PURPOSES AT YOUR OWN RISK
~~~~~~~~~~~~~~~~~~~~~~~~~~~~~~~~~~~~~~~~~~~~~~~~~~~~~~~~~~~~~~~~~~~~~~~~~~~~~~
BaPCod v053, 24/03/2021, © Inria Bordeaux, France
~~~~~~~~~~~~~~~~~~~~~~~~~~~~~~~~~~~~~~~~~~~~~~~~~~~~~~~~~~~~~~~~~~~~~~~~~~~~~~
VRPSolver parameters:
GlobalTimeLimit = 1800
MaxNbOfBBtreeNodeTreated = 100000
treeSearchStrategy = 1
RCSPstopCutGenTimeThresholdInPricing = 10
RCSPhardTimeThresholdInPricing = 20
RCSPnumberOfBucketsPerVertex = 2000
RCSPdynamicBucketSteps = 0
RCSPuseBidirectionalSearch = 1
RCSPapplyReducedCostFixing = 1
RCSPredCostFixingFalseGap = 0
RCSPmaxNumOfColsPerIteration = 100
RCSPmaxNumOfColsPerExactIteration = 100
RCSPheurLabelingStrategy = 4
StabilizationMinPhaseOfStage = 1
RCSPmaxNumOfLabelsInEnumeration = 100000
RCSPmaxNumOfEnumeratedSolutions = 1000000
RCSPmaxNumOfEnumSolutionsForMIP = 100000
RCSPinitNGneighbourhoodSize = 0
RCSPmaxNGneighbourhoodSize = 0
RCSPrankOneCutsMaxNumPerRound = 100
RCSPrankOneCutsMaxNumRows = -1
RCSPrankOneCutsMemoryType = 2
CutTailingOffThreshold = 0.02
CutTailingOffCounterThreshold = 3
SafeDualBoundScaleFactor = -1
StrongBranchingPhaseOneCandidatesNumber = 100
StrongBranchingPhaseOneTreeSizeEstimRatio = 0.3
StrongBranchingPhaseTwoCandidatesNumber = 1
StrongBranchingPhaseTwoTreeSizeEstimRatio = 0.1
MaxTimeForRestrictedMasterIpHeur = -1
DivingHeurUseDepthLimit = 0
MaxLDSbreadth = 3
MaxLDSdepth = 2
New model incumbent solution 1e+06, TIME = 0h0m0s3t = 3
Model is built TIME = 0h0m2s39t = 239
************************************************************************************************
**** BaB tree root node
**** Local DB = -1e+12, global bounds : [ -1e+12 , 1e+06 ], TIME = 0h0m2s39t = 239
**** 1 open nodes, 0 columns (0 active), 0 dyn. constrs. (0 active), 406 art. vars. (406 active)
************************************************************************************************
<DWph=2> <it= 10> <et=4.26> <Mt= 0.00> <Spt= 1.86> <nCl=929> <DB=-11889420305.3422> <Mlp=228487011.8271> <PB=1000000> 
<DWph=2> <it= 20> <et=6.22> <Mt= 0.01> <Spt= 1.94> <nCl=1000> <DB=-9757915901.4727> <Mlp=215539013.8120> <PB=1000000> 
<DWph=2> <it= 30> <et=8.28> <Mt= 0.03> <Spt= 2.04> <nCl=1000> <DB=-6597276848.4071> <Mlp=197148547.2010> <PB=1000000> 
<DWph=2> <it= 40> <et=10.20> <Mt= 0.04> <Spt= 1.87> <nCl=1000> <DB=-4171659156.7433> <Mlp=178568572.9609> <PB=1000000> 
<DWph=2> <it= 50> <et=11.97> <Mt= 0.06> <Spt= 1.71> <nCl=1000> <DB=-2732754600.0676> <Mlp=159080045.4570> <PB=1000000> 
<DWph=2> <it= 60> <et=13.71> <Mt= 0.09> <Spt= 1.65> <nCl=1000> <DB=-1559000273.0696> <Mlp=134716535.2446> <PB=1000000> 
<DWph=2> <it= 70> <et=15.65> <Mt= 0.13> <Spt= 1.80> <nCl=1000> <DB=-997558832.2850> <Mlp=116490581.6304> <PB=1000000> 
<DWph=2> <it= 80> <et=17.53> <Mt= 0.16> <Spt= 1.72> <nCl=998> <DB=-719892875.5264> <Mlp=98785911.6826> <PB=1000000> 
<DWph=2> <it= 90> <et=19.33> <Mt= 0.25> <Spt= 1.55> <nCl=1000> <DB=-3053286492.6484> <Mlp=72775250.5461> <PB=1000000> 
<DWph=2> <it=100> <et=21.06> <Mt= 0.17> <Spt= 1.56> <nCl=1000> <DB=-172817493.6728> <Mlp=68400021.1099> <PB=1000000> 
<DWph=2> <it=110> <et=22.90> <Mt= 0.17> <Spt= 1.60> <nCl=1000> <DB=-180281626.6351> <Mlp=63457676.6940> <PB=1000000> 
<DWph=2> <it=120> <et=24.62> <Mt= 0.19> <Spt= 1.52> <nCl=1000> <DB=-177367714.1997> <Mlp=54221556.0891> <PB=1000000> 
<DWph=2> <it=130> <et=26.34> <Mt= 0.13> <Spt= 1.60> <nCl=1000> <DB=-187380857.8817> <Mlp=44425563.8187> <PB=1000000> 
<DWph=2> <it=140> <et=28.05> <Mt= 0.14> <Spt= 1.51> <nCl=1000> <DB=-173414036.3923> <Mlp=34090649.9131> <PB=1000000> 
<DWph=2> <it=150> <et=30.92> <Mt= 0.13> <Spt= 2.73> <nCl=1000> <DB=-1050.8285> <Mlp=   68.7034> <PB=1000000> 
<DWph=2> <it=160> <et=32.76> <Mt= 0.13> <Spt= 1.71> <nCl=699> <DB=   29.5927> <Mlp=   67.2126> <PB=1000000> 
<DWph=2> <it=170> <et=34.53> <Mt= 0.15> <Spt= 1.62> <nCl=1000> <DB=   37.1604> <Mlp=   65.8056> <PB=1000000> 
<DWph=2> <it=180> <et=36.53> <Mt= 0.21> <Spt= 1.73> <nCl=891> <DB=   63.4732> <Mlp=   65.0603> <PB=1000000> 
<DWph=2> <it=190> <et=38.66> <Mt= 0.17> <Spt= 1.96> <nCl=913> <DB=   64.8429> <Mlp=   65.0045> <PB=1000000> 
<DWph=2> <it=200> <et=40.90> <Mt= 0.12> <Spt= 2.11> <nCl=659> <DB=   64.9858> <Mlp=   65.0001> <PB=1000000> 
<DWph=2> <it=210> <et=43.45> <Mt= 0.07> <Spt= 2.48> <nCl=516> <DB=   65.0000> <Mlp=   65.0000> <PB=1000000> 
<DWph=1> <it=211> <et=44.09> <Mt= 0.00> <Spt= 0.64> <nCl=  0> <DB=   65.0000> <Mlp=   65.0000> <PB=1000000> 
<DWph=0> <it=212> <et=44.31> <Mt= 0.01> <Spt= 0.21> <nCl=  0> <DB=   65.0000> <Mlp=   65.0000> <PB=1000000> 
Reduced cost fixing for graph G_1... took 19.77 sec., 739534 buck. arcs remain (85.1% from prev., 37.1% from max.)
Run enumeration... took 0.16 sec. and not succeeded.
ColGenEvalAlg final dual bound: 65 (rounded: 65)
----------- Diving heuristic started -----------
<DWph=2> <it=  1> <et=64.33> <Mt= 0.00> <Spt= 0.00> <nCl=  0> <DB=   65.0000> <Mlp=   65.0000> <PB=1000000> 
<DWph=1> <it=  2> <et=64.33> <Mt= 0.00> <Spt= 0.00> <nCl=  0> <DB=   65.0000> <Mlp=   65.0000> <PB=1000000> 
---- Diving heuristic node with dive number = 0, fix depth = 0 and tabu list size = 0
Fixed projected solution = [x_1_0_1_OspV=1, x_1_66_1_OspV=1, x_1_137_1_OspV=1, x_1_140_1_OspV=1]
<DWph=2> <it=  1> <et=64.43> <Mt= 0.00> <Spt= 0.00> <nCl=  0> <DB=   65.0000> <Mlp=   65.0000> <PB=1000000> 
<DWph=1> <it=  2> <et=64.44> <Mt= 0.00> <Spt= 0.00> <nCl=  0> <DB=   65.0000> <Mlp=   65.0000> <PB=1000000> 
---- Diving heuristic node with dive number = 0, fix depth = 0 and tabu list size = 0
Fixed projected solution = [x_1_0_1_OspV=1, x_1_133_1_OspV=1, x_1_150_1_OspV=1]
<DWph=2> <it=  1> <et=64.52> <Mt= 0.01> <Spt= 0.00> <nCl=  0> <DB=   65.0000> <Mlp=   65.0000> <PB=1000000> 
<DWph=1> <it=  2> <et=64.52> <Mt= 0.00> <Spt= 0.00> <nCl=  0> <DB=   65.0000> <Mlp=   65.0000> <PB=1000000> 
---- Diving heuristic node with dive number = 0, fix depth = 0 and tabu list size = 0
Fixed projected solution = [x_1_0_1_OspV=1, x_1_65_1_OspV=1, x_1_134_1_OspV=1, x_1_143_1_OspV=1]
<DWph=2> <it=  1> <et=64.60> <Mt= 0.00> <Spt= 0.00> <nCl=  0> <DB=   65.0000> <Mlp=   65.0000> <PB=1000000> 
<DWph=1> <it=  2> <et=64.60> <Mt= 0.00> <Spt= 0.00> <nCl=  0> <DB=   65.0000> <Mlp=   65.0000> <PB=1000000> 
---- Diving heuristic node with dive number = 0, fix depth = 0 and tabu list size = 0
Fixed projected solution = [x_1_0_1_OspV=1, x_1_30_1_OspV=1, x_1_94_1_OspV=1, x_1_180_1_OspV=1]
<DWph=2> <it=  1> <et=64.69> <Mt= 0.00> <Spt= 0.00> <nCl=  0> <DB=   65.0000> <Mlp=   65.0000> <PB=1000000> 
<DWph=1> <it=  2> <et=64.69> <Mt= 0.01> <Spt= 0.00> <nCl=  0> <DB=   65.0000> <Mlp=   65.0000> <PB=1000000> 
---- Diving heuristic node with dive number = 0, fix depth = 0 and tabu list size = 0
Fixed projected solution = [x_1_0_1_OspV=1, x_1_28_1_OspV=1, x_1_90_1_OspV=1, x_1_183_1_OspV=1]
<DWph=2> <it=  1> <et=64.77> <Mt= 0.00> <Spt= 0.00> <nCl=  0> <DB=   65.0000> <Mlp=   65.0000> <PB=1000000> 
<DWph=1> <it=  2> <et=64.77> <Mt= 0.00> <Spt= 0.00> <nCl=  0> <DB=   65.0000> <Mlp=   65.0000> <PB=1000000> 
---- Diving heuristic node with dive number = 0, fix depth = 0 and tabu list size = 0
Fixed projected solution = [x_1_0_1_OspV=1, x_1_38_1_OspV=1, x_1_115_1_OspV=1, x_1_164_1_OspV=1]
<DWph=2> <it=  1> <et=64.86> <Mt= 0.00> <Spt= 0.00> <nCl=  0> <DB=   65.0000> <Mlp=   65.0000> <PB=1000000> 
<DWph=1> <it=  2> <et=64.86> <Mt= 0.00> <Spt= 0.00> <nCl=  0> <DB=   65.0000> <Mlp=   65.0000> <PB=1000000> 
---- Diving heuristic node with dive number = 0, fix depth = 0 and tabu list size = 0
Fixed projected solution = [x_1_0_1_OspV=1, x_1_11_1_OspV=1, x_1_74_1_OspV=1, x_1_198_1_OspV=1]
<DWph=2> <it=  1> <et=64.94> <Mt= 0.00> <Spt= 0.00> <nCl=  0> <DB=   65.0000> <Mlp=   65.0000> <PB=1000000> 
<DWph=1> <it=  2> <et=64.94> <Mt= 0.01> <Spt= 0.00> <nCl=  0> <DB=   65.0000> <Mlp=   65.0000> <PB=1000000> 
---- Diving heuristic node with dive number = 0, fix depth = 0 and tabu list size = 0
Fixed projected solution = [x_1_0_1_OspV=1, x_1_18_1_OspV=1, x_1_78_1_OspV=1, x_1_194_1_OspV=1]
<DWph=2> <it=  1> <et=65.02> <Mt= 0.00> <Spt= 0.00> <nCl=  0> <DB=   65.0000> <Mlp=   65.0000> <PB=1000000> 
<DWph=1> <it=  2> <et=65.03> <Mt= 0.00> <Spt= 0.00> <nCl=  0> <DB=   65.0000> <Mlp=   65.0000> <PB=1000000> 
---- Diving heuristic node with dive number = 0, fix depth = 0 and tabu list size = 0
Fixed projected solution = [x_1_0_1_OspV=1, x_1_58_1_OspV=1, x_1_123_1_OspV=1, x_1_153_1_OspV=1]
<DWph=2> <it=  1> <et=65.11> <Mt= 0.00> <Spt= 0.00> <nCl=  0> <DB=   65.0000> <Mlp=   65.0000> <PB=1000000> 
<DWph=1> <it=  2> <et=65.11> <Mt= 0.00> <Spt= 0.00> <nCl=  0> <DB=   65.0000> <Mlp=   65.0000> <PB=1000000> 
---- Diving heuristic node with dive number = 0, fix depth = 0 and tabu list size = 0
Fixed projected solution = [x_1_0_1_OspV=1, x_1_53_1_OspV=1, x_1_113_1_OspV=1, x_1_162_1_OspV=1]
<DWph=2> <it=  1> <et=65.19> <Mt= 0.00> <Spt= 0.00> <nCl=  0> <DB=   65.0000> <Mlp=   65.0000> <PB=1000000> 
<DWph=1> <it=  2> <et=65.20> <Mt= 0.01> <Spt= 0.00> <nCl=  0> <DB=   65.0000> <Mlp=   65.0000> <PB=1000000> 
---- Diving heuristic node with dive number = 0, fix depth = 0 and tabu list size = 0
Fixed projected solution = [x_1_0_1_OspV=1, x_1_62_1_OspV=1, x_1_127_1_OspV=1, x_1_146_1_OspV=1]
<DWph=2> <it=  1> <et=65.28> <Mt= 0.00> <Spt= 0.00> <nCl=  0> <DB=   65.0000> <Mlp=   65.0000> <PB=1000000> 
<DWph=1> <it=  2> <et=65.28> <Mt= 0.00> <Spt= 0.00> <nCl=  0> <DB=   65.0000> <Mlp=   65.0000> <PB=1000000> 
---- Diving heuristic node with dive number = 0, fix depth = 0 and tabu list size = 0
Fixed projected solution = [x_1_0_1_OspV=1, x_1_55_1_OspV=1, x_1_117_1_OspV=1, x_1_158_1_OspV=1]
<DWph=2> <it=  1> <et=65.36> <Mt= 0.00> <Spt= 0.00> <nCl=  0> <DB=   65.0000> <Mlp=   65.0000> <PB=1000000> 
<DWph=1> <it=  2> <et=65.36> <Mt= 0.00> <Spt= 0.00> <nCl=  0> <DB=   65.0000> <Mlp=   65.0000> <PB=1000000> 
---- Diving heuristic node with dive number = 0, fix depth = 0 and tabu list size = 0
Fixed projected solution = [x_1_0_1_OspV=1, x_1_59_1_OspV=1, x_1_124_1_OspV=1, x_1_152_1_OspV=1]
<DWph=2> <it=  1> <et=65.45> <Mt= 0.01> <Spt= 0.00> <nCl=  0> <DB=   65.0000> <Mlp=   65.0000> <PB=1000000> 
<DWph=1> <it=  2> <et=65.45> <Mt= 0.00> <Spt= 0.00> <nCl=  0> <DB=   65.0000> <Mlp=   65.0000> <PB=1000000> 
---- Diving heuristic node with dive number = 0, fix depth = 0 and tabu list size = 0
Fixed projected solution = [x_1_0_1_OspV=1, x_1_24_1_OspV=1, x_1_82_1_OspV=1, x_1_189_1_OspV=1]
<DWph=2> <it=  1> <et=65.53> <Mt= 0.00> <Spt= 0.00> <nCl=  0> <DB=   65.0000> <Mlp=   65.0000> <PB=1000000> 
<DWph=1> <it=  2> <et=65.53> <Mt= 0.00> <Spt= 0.00> <nCl=  0> <DB=   65.0000> <Mlp=   65.0000> <PB=1000000> 
---- Diving heuristic node with dive number = 0, fix depth = 0 and tabu list size = 0
Fixed projected solution = [x_1_0_1_OspV=1, x_1_56_1_OspV=1, x_1_118_1_OspV=1, x_1_155_1_OspV=1]
<DWph=2> <it=  1> <et=65.62> <Mt= 0.00> <Spt= 0.00> <nCl=  0> <DB=   65.0000> <Mlp=   65.0000> <PB=1000000> 
<DWph=1> <it=  2> <et=65.62> <Mt= 0.00> <Spt= 0.00> <nCl=  0> <DB=   65.0000> <Mlp=   65.0000> <PB=1000000> 
---- Diving heuristic node with dive number = 0, fix depth = 0 and tabu list size = 0
Fixed projected solution = [x_1_0_1_OspV=1, x_1_67_1_OspV=1, x_1_135_1_OspV=1, x_1_142_1_OspV=1]
<DWph=2> <it=  1> <et=65.70> <Mt= 0.01> <Spt= 0.00> <nCl=  0> <DB=   65.0000> <Mlp=   65.0000> <PB=1000000> 
<DWph=1> <it=  2> <et=65.70> <Mt= 0.00> <Spt= 0.00> <nCl=  0> <DB=   65.0000> <Mlp=   65.0000> <PB=1000000> 
---- Diving heuristic node with dive number = 0, fix depth = 0 and tabu list size = 0
Fixed projected solution = [x_1_0_1_OspV=1, x_1_3_1_OspV=1, x_1_120_1_OspV=1, x_1_163_1_OspV=1]
<DWph=2> <it=  1> <et=65.79> <Mt= 0.00> <Spt= 0.00> <nCl=  0> <DB=   65.0000> <Mlp=   65.0000> <PB=1000000> 
<DWph=1> <it=  2> <et=65.79> <Mt= 0.00> <Spt= 0.00> <nCl=  0> <DB=   65.0000> <Mlp=   65.0000> <PB=1000000> 
---- Diving heuristic node with dive number = 0, fix depth = 0 and tabu list size = 0
Fixed projected solution = [x_1_0_1_OspV=1, x_1_47_1_OspV=1, x_1_105_1_OspV=1, x_1_169_1_OspV=1]
<DWph=2> <it=  1> <et=65.87> <Mt= 0.00> <Spt= 0.00> <nCl=  0> <DB=   65.0000> <Mlp=   65.0000> <PB=1000000> 
<DWph=1> <it=  2> <et=65.87> <Mt= 0.01> <Spt= 0.00> <nCl=  0> <DB=   65.0000> <Mlp=   65.0000> <PB=1000000> 
---- Diving heuristic node with dive number = 0, fix depth = 0 and tabu list size = 0
Fixed projected solution = [x_1_0_1_OspV=1, x_1_19_1_OspV=1, x_1_86_1_OspV=1, x_1_187_1_OspV=1]
<DWph=2> <it=  1> <et=65.96> <Mt= 0.00> <Spt= 0.00> <nCl=  0> <DB=   65.0000> <Mlp=   65.0000> <PB=1000000> 
<DWph=1> <it=  2> <et=65.96> <Mt= 0.00> <Spt= 0.00> <nCl=  0> <DB=   65.0000> <Mlp=   65.0000> <PB=1000000> 
---- Diving heuristic node with dive number = 0, fix depth = 0 and tabu list size = 0
Fixed projected solution = [x_1_0_1_OspV=1, x_1_10_1_OspV=1, x_1_73_1_OspV=1, x_1_199_1_OspV=1]
<DWph=2> <it=  1> <et=66.04> <Mt= 0.00> <Spt= 0.00> <nCl=  0> <DB=   65.0000> <Mlp=   65.0000> <PB=1000000> 
<DWph=1> <it=  2> <et=66.04> <Mt= 0.00> <Spt= 0.00> <nCl=  0> <DB=   65.0000> <Mlp=   65.0000> <PB=1000000> 
---- Diving heuristic node with dive number = 0, fix depth = 0 and tabu list size = 0
Fixed projected solution = [x_1_0_1_OspV=1, x_1_7_1_OspV=1, x_1_70_1_OspV=1, x_1_202_1_OspV=1]
<DWph=2> <it=  1> <et=66.12> <Mt= 0.00> <Spt= 0.00> <nCl=  0> <DB=   65.0000> <Mlp=   65.0000> <PB=1000000> 
<DWph=1> <it=  2> <et=66.13> <Mt= 0.01> <Spt= 0.00> <nCl=  0> <DB=   65.0000> <Mlp=   65.0000> <PB=1000000> 
---- Diving heuristic node with dive number = 0, fix depth = 0 and tabu list size = 0
Fixed projected solution = [x_1_0_1_OspV=1, x_1_48_1_OspV=1, x_1_104_1_OspV=1, x_1_170_1_OspV=1]
<DWph=2> <it=  1> <et=66.21> <Mt= 0.00> <Spt= 0.00> <nCl=  0> <DB=   65.0000> <Mlp=   65.0000> <PB=1000000> 
<DWph=1> <it=  2> <et=66.21> <Mt= 0.00> <Spt= 0.00> <nCl=  0> <DB=   65.0000> <Mlp=   65.0000> <PB=1000000> 
---- Diving heuristic node with dive number = 0, fix depth = 0 and tabu list size = 0
Fixed projected solution = [x_1_0_1_OspV=1, x_1_37_1_OspV=1, x_1_99_1_OspV=1, x_1_176_1_OspV=1]
<DWph=2> <it=  1> <et=66.29> <Mt= 0.00> <Spt= 0.00> <nCl=  0> <DB=   65.0000> <Mlp=   65.0000> <PB=1000000> 
<DWph=1> <it=  2> <et=66.30> <Mt= 0.00> <Spt= 0.00> <nCl=  0> <DB=   65.0000> <Mlp=   65.0000> <PB=1000000> 
---- Diving heuristic node with dive number = 0, fix depth = 0 and tabu list size = 0
Fixed projected solution = [x_1_0_1_OspV=1, x_1_27_1_OspV=1, x_1_89_1_OspV=1, x_1_184_1_OspV=1]
<DWph=2> <it=  1> <et=66.38> <Mt= 0.01> <Spt= 0.00> <nCl=  0> <DB=   65.0000> <Mlp=   65.0000> <PB=1000000> 
<DWph=1> <it=  2> <et=66.38> <Mt= 0.00> <Spt= 0.00> <nCl=  0> <DB=   65.0000> <Mlp=   65.0000> <PB=1000000> 
---- Diving heuristic node with dive number = 0, fix depth = 0 and tabu list size = 0
Fixed projected solution = [x_1_0_1_OspV=1, x_1_43_1_OspV=1, x_1_101_1_OspV=1, x_1_174_1_OspV=1]
<DWph=2> <it=  1> <et=66.46> <Mt= 0.00> <Spt= 0.00> <nCl=  0> <DB=   65.0000> <Mlp=   65.0000> <PB=1000000> 
<DWph=1> <it=  2> <et=66.47> <Mt= 0.00> <Spt= 0.00> <nCl=  0> <DB=   65.0000> <Mlp=   65.0000> <PB=1000000> 
---- Diving heuristic node with dive number = 0, fix depth = 0 and tabu list size = 0
Fixed projected solution = [x_1_0_1_OspV=1, x_1_60_1_OspV=1, x_1_125_1_OspV=1, x_1_151_1_OspV=1]
<DWph=2> <it=  1> <et=66.55> <Mt= 0.00> <Spt= 0.00> <nCl=  0> <DB=   65.0000> <Mlp=   65.0000> <PB=1000000> 
<DWph=1> <it=  2> <et=66.55> <Mt= 0.00> <Spt= 0.00> <nCl=  0> <DB=   65.0000> <Mlp=   65.0000> <PB=1000000> 
---- Diving heuristic node with dive number = 0, fix depth = 0 and tabu list size = 0
Fixed projected solution = [x_1_0_1_OspV=1, x_1_20_1_OspV=1, x_1_76_1_OspV=1, x_1_196_1_OspV=1]
<DWph=2> <it=  1> <et=66.63> <Mt= 0.01> <Spt= 0.00> <nCl=  0> <DB=   65.0000> <Mlp=   65.0000> <PB=1000000> 
<DWph=1> <it=  2> <et=66.64> <Mt= 0.00> <Spt= 0.00> <nCl=  0> <DB=   65.0000> <Mlp=   65.0000> <PB=1000000> 
---- Diving heuristic node with dive number = 0, fix depth = 0 and tabu list size = 0
Fixed projected solution = [x_1_0_1_OspV=1, x_1_51_1_OspV=1, x_1_111_1_OspV=1, x_1_165_1_OspV=1]
<DWph=2> <it=  1> <et=66.72> <Mt= 0.00> <Spt= 0.00> <nCl=  0> <DB=   65.0000> <Mlp=   65.0000> <PB=1000000> 
<DWph=1> <it=  2> <et=66.72> <Mt= 0.00> <Spt= 0.00> <nCl=  0> <DB=   65.0000> <Mlp=   65.0000> <PB=1000000> 
---- Diving heuristic node with dive number = 0, fix depth = 0 and tabu list size = 0
Fixed projected solution = [x_1_0_1_OspV=1, x_1_39_1_OspV=1, x_1_130_1_OspV=1, x_1_147_1_OspV=1]
<DWph=2> <it=  1> <et=66.80> <Mt= 0.00> <Spt= 0.00> <nCl=  0> <DB=   65.0000> <Mlp=   65.0000> <PB=1000000> 
<DWph=1> <it=  2> <et=66.81> <Mt= 0.01> <Spt= 0.00> <nCl=  0> <DB=   65.0000> <Mlp=   65.0000> <PB=1000000> 
---- Diving heuristic node with dive number = 0, fix depth = 0 and tabu list size = 0
Fixed projected solution = [x_1_0_1_OspV=1, x_1_50_1_OspV=1, x_1_109_1_OspV=1, x_1_167_1_OspV=1]
<DWph=2> <it=  1> <et=66.89> <Mt= 0.00> <Spt= 0.00> <nCl=  0> <DB=   65.0000> <Mlp=   65.0000> <PB=1000000> 
<DWph=1> <it=  2> <et=66.89> <Mt= 0.00> <Spt= 0.00> <nCl=  0> <DB=   65.0000> <Mlp=   65.0000> <PB=1000000> 
---- Diving heuristic node with dive number = 0, fix depth = 0 and tabu list size = 0
Fixed projected solution = [x_1_0_1_OspV=1, x_1_17_1_OspV=1, x_1_77_1_OspV=1, x_1_195_1_OspV=1]
<DWph=2> <it=  1> <et=66.97> <Mt= 0.00> <Spt= 0.00> <nCl=  0> <DB=   65.0000> <Mlp=   65.0000> <PB=1000000> 
<DWph=1> <it=  2> <et=66.98> <Mt= 0.00> <Spt= 0.00> <nCl=  0> <DB=   65.0000> <Mlp=   65.0000> <PB=1000000> 
---- Diving heuristic node with dive number = 0, fix depth = 0 and tabu list size = 0
Fixed projected solution = [x_1_0_1_OspV=1, x_1_9_1_OspV=1, x_1_72_1_OspV=1, x_1_200_1_OspV=1]
<DWph=2> <it=  1> <et=67.06> <Mt= 0.01> <Spt= 0.00> <nCl=  0> <DB=   65.0000> <Mlp=   65.0000> <PB=1000000> 
<DWph=1> <it=  2> <et=67.06> <Mt= 0.00> <Spt= 0.00> <nCl=  0> <DB=   65.0000> <Mlp=   65.0000> <PB=1000000> 
---- Diving heuristic node with dive number = 0, fix depth = 0 and tabu list size = 0
Fixed projected solution = [x_1_0_1_OspV=1, x_1_6_1_OspV=1, x_1_91_1_OspV=1, x_1_186_1_OspV=1]
<DWph=2> <it=  1> <et=67.14> <Mt= 0.00> <Spt= 0.00> <nCl=  0> <DB=   65.0000> <Mlp=   65.0000> <PB=1000000> 
<DWph=1> <it=  2> <et=67.14> <Mt= 0.00> <Spt= 0.00> <nCl=  0> <DB=   65.0000> <Mlp=   65.0000> <PB=1000000> 
---- Diving heuristic node with dive number = 0, fix depth = 0 and tabu list size = 0
Fixed projected solution = [x_1_0_1_OspV=1, x_1_26_1_OspV=1, x_1_107_1_OspV=1, x_1_172_1_OspV=1]
<DWph=2> <it=  1> <et=67.23> <Mt= 0.00> <Spt= 0.00> <nCl=  0> <DB=   65.0000> <Mlp=   65.0000> <PB=1000000> 
<DWph=1> <it=  2> <et=67.23> <Mt= 0.00> <Spt= 0.00> <nCl=  0> <DB=   65.0000> <Mlp=   65.0000> <PB=1000000> 
---- Diving heuristic node with dive number = 0, fix depth = 1 and tabu list size = 0
Fixed projected solution = [x_1_0_1_OspV=1, x_1_34_1_OspV=1, x_1_98_1_OspV=1, x_1_177_1_OspV=1]
<DWph=2> <it=  1> <et=67.30> <Mt= 0.01> <Spt= 0.00> <nCl=  0> <DB=   65.0000> <Mlp=   65.0000> <PB=1000000> 
<DWph=1> <it=  2> <et=67.30> <Mt= 0.00> <Spt= 0.00> <nCl=  0> <DB=   65.0000> <Mlp=   65.0000> <PB=1000000> 
---- Diving heuristic node with dive number = 0, fix depth = 1 and tabu list size = 0
Fixed projected solution = [x_1_0_1_OspV=1, x_1_36_1_OspV=1, x_1_119_1_OspV=1, x_1_157_1_OspV=1]
<DWph=2> <it=  1> <et=67.40> <Mt= 0.00> <Spt= 0.00> <nCl=  0> <DB=   65.0000> <Mlp=   65.0000> <PB=1000000> 
<DWph=1> <it=  2> <et=67.40> <Mt= 0.00> <Spt= 0.00> <nCl=  0> <DB=   65.0000> <Mlp=   65.0000> <PB=1000000> 
---- Diving heuristic node with dive number = 0, fix depth = 2 and tabu list size = 0
Fixed projected solution = [x_1_0_1_OspV=1, x_1_49_1_OspV=1, x_1_110_1_OspV=1, x_1_166_1_OspV=1]
<DWph=2> <it=  1> <et=67.47> <Mt= 0.01> <Spt= 0.00> <nCl=  0> <DB=   65.0000> <Mlp=   65.0000> <PB=1000000> 
<DWph=1> <it=  2> <et=67.47> <Mt= 0.00> <Spt= 0.00> <nCl=  0> <DB=   65.0000> <Mlp=   65.0000> <PB=1000000> 
---- Diving heuristic node with dive number = 0, fix depth = 2 and tabu list size = 0
Fixed projected solution = [x_1_0_1_OspV=1, x_1_52_1_OspV=1, x_1_114_1_OspV=1, x_1_161_1_OspV=1]
<DWph=2> <it=  1> <et=67.48> <Mt= 0.00> <Spt= 0.00> <nCl=  0> <DB=   65.0000> <Mlp=   65.0000> <PB=1000000> 
<DWph=1> <it=  2> <et=67.48> <Mt= 0.00> <Spt= 0.00> <nCl=  0> <DB=   65.0000> <Mlp=   65.0000> <PB=1000000> 
---- Diving heuristic node with dive number = 0, fix depth = 3 and tabu list size = 0
Fixed projected solution = [x_1_0_1_OspV=1, x_1_25_1_OspV=1, x_1_87_1_OspV=1, x_1_185_1_OspV=1]
<DWph=2> <it=  1> <et=67.49> <Mt= 0.00> <Spt= 0.00> <nCl=  0> <DB=   65.0000> <Mlp=   65.0000> <PB=1000000> 
<DWph=1> <it=  2> <et=67.49> <Mt= 0.00> <Spt= 0.00> <nCl=  0> <DB=   65.0000> <Mlp=   65.0000> <PB=1000000> 
---- Diving heuristic node with dive number = 0, fix depth = 4 and tabu list size = 0
Fixed projected solution = [x_1_0_1_OspV=1, x_1_21_1_OspV=1, x_1_85_1_OspV=1, x_1_188_1_OspV=1]
<DWph=2> <it=  1> <et=67.51> <Mt= 0.02> <Spt= 0.00> <nCl=  0> <DB=   65.0000> <Mlp=   65.0000> <PB=1000000> 
<DWph=1> <it=  2> <et=67.51> <Mt= 0.00> <Spt= 0.00> <nCl=  0> <DB=   65.0000> <Mlp=   65.0000> <PB=1000000> 
---- Diving heuristic node with dive number = 0, fix depth = 5 and tabu list size = 0
Fixed projected solution = [x_1_0_1_OspV=1, x_1_2_1_OspV=1, x_1_88_1_OspV=1, x_1_192_1_OspV=1]
<DWph=2> <it= 10> <et=69.74> <Mt= 0.14> <Spt= 2.05> <nCl=1000> <DB=   64.8873> <Mlp=   65.0000> <PB=1000000> 
<DWph=2> <it= 11> <et=69.76> <Mt= 0.02> <Spt= 0.00> <nCl=  0> <DB=   64.8873> <Mlp=   65.0000> <PB=1000000> 
<DWph=1> <it= 12> <et=69.76> <Mt= 0.00> <Spt= 0.00> <nCl=  0> <DB=   65.0000> <Mlp=   65.0000> <PB=1000000> 
---- Diving heuristic node with dive number = 0, fix depth = 5 and tabu list size = 0
Fixed projected solution = [x_1_0_1_OspV=1, x_1_68_1_OspV=1, x_1_136_1_OspV=1, x_1_141_1_OspV=1]
<DWph=2> <it=  1> <et=69.77> <Mt= 0.00> <Spt= 0.00> <nCl=  0> <DB=   65.0000> <Mlp=   65.0000> <PB=1000000> 
<DWph=1> <it=  2> <et=69.77> <Mt= 0.00> <Spt= 0.00> <nCl=  0> <DB=   65.0000> <Mlp=   65.0000> <PB=1000000> 
---- Diving heuristic node with dive number = 0, fix depth = 5 and tabu list size = 0
Fixed projected solution = [x_1_0_1_OspV=1, x_1_46_1_OspV=1, x_1_103_1_OspV=1, x_1_171_1_OspV=1]
<DWph=2> <it=  1> <et=69.78> <Mt= 0.01> <Spt= 0.00> <nCl=  0> <DB=   65.0000> <Mlp=   65.0000> <PB=1000000> 
<DWph=1> <it=  2> <et=69.78> <Mt= 0.00> <Spt= 0.00> <nCl=  0> <DB=   65.0000> <Mlp=   65.0000> <PB=1000000> 
---- Diving heuristic node with dive number = 0, fix depth = 5 and tabu list size = 0
Fixed projected solution = [x_1_0_1_OspV=1, x_1_41_1_OspV=1, x_1_100_1_OspV=1, x_1_175_1_OspV=1]
<DWph=2> <it=  1> <et=69.79> <Mt= 0.00> <Spt= 0.00> <nCl=  0> <DB=   65.0000> <Mlp=   65.0000> <PB=1000000> 
<DWph=1> <it=  2> <et=69.79> <Mt= 0.00> <Spt= 0.00> <nCl=  0> <DB=   65.0000> <Mlp=   65.0000> <PB=1000000> 
---- Diving heuristic node with dive number = 0, fix depth = 5 and tabu list size = 0
Fixed projected solution = [x_1_0_1_OspV=1, x_1_33_1_OspV=1, x_1_97_1_OspV=1, x_1_178_1_OspV=1]
<DWph=2> <it=  1> <et=69.80> <Mt= 0.00> <Spt= 0.00> <nCl=  0> <DB=   65.0000> <Mlp=   65.0000> <PB=1000000> 
<DWph=1> <it=  2> <et=69.80> <Mt= 0.00> <Spt= 0.00> <nCl=  0> <DB=   65.0000> <Mlp=   65.0000> <PB=1000000> 
---- Diving heuristic node with dive number = 0, fix depth = 5 and tabu list size = 0
Fixed projected solution = [x_1_0_1_OspV=1, x_1_61_1_OspV=1, x_1_126_1_OspV=1, x_1_148_1_OspV=1]
<DWph=2> <it=  1> <et=69.81> <Mt= 0.00> <Spt= 0.00> <nCl=  0> <DB=   65.0000> <Mlp=   65.0000> <PB=1000000> 
<DWph=1> <it=  2> <et=69.81> <Mt= 0.00> <Spt= 0.00> <nCl=  0> <DB=   65.0000> <Mlp=   65.0000> <PB=1000000> 
---- Diving heuristic node with dive number = 0, fix depth = 5 and tabu list size = 0
Fixed projected solution = [x_1_0_1_OspV=1, x_1_57_1_OspV=1, x_1_122_1_OspV=1, x_1_154_1_OspV=1]
<DWph=2> <it=  1> <et=69.82> <Mt= 0.01> <Spt= 0.00> <nCl=  0> <DB=   65.0000> <Mlp=   65.0000> <PB=1000000> 
<DWph=1> <it=  2> <et=69.82> <Mt= 0.00> <Spt= 0.00> <nCl=  0> <DB=   65.0000> <Mlp=   65.0000> <PB=1000000> 
---- Diving heuristic node with dive number = 0, fix depth = 5 and tabu list size = 0
Fixed projected solution = [x_1_0_1_OspV=1, x_1_13_1_OspV=1, x_1_92_1_OspV=1, x_1_182_1_OspV=1]
<DWph=2> <it=  1> <et=69.83> <Mt= 0.00> <Spt= 0.00> <nCl=  0> <DB=   65.0000> <Mlp=   65.0000> <PB=1000000> 
<DWph=1> <it=  2> <et=69.83> <Mt= 0.00> <Spt= 0.00> <nCl=  0> <DB=   65.0000> <Mlp=   65.0000> <PB=1000000> 
---- Diving heuristic node with dive number = 0, fix depth = 5 and tabu list size = 0
Fixed projected solution = [x_1_0_1_OspV=1, x_1_63_1_OspV=1, x_1_132_1_OspV=1, x_1_144_1_OspV=1]
<DWph=2> <it=  1> <et=69.84> <Mt= 0.00> <Spt= 0.00> <nCl=  0> <DB=   65.0000> <Mlp=   65.0000> <PB=1000000> 
<DWph=1> <it=  2> <et=69.84> <Mt= 0.00> <Spt= 0.00> <nCl=  0> <DB=   65.0000> <Mlp=   65.0000> <PB=1000000> 
---- Diving heuristic node with dive number = 0, fix depth = 5 and tabu list size = 0
Fixed projected solution = [x_1_0_1_OspV=1, x_1_64_1_OspV=1, x_1_131_1_OspV=1, x_1_145_1_OspV=1]
<DWph=2> <it=  1> <et=69.85> <Mt= 0.00> <Spt= 0.00> <nCl=  0> <DB=   65.0000> <Mlp=   65.0000> <PB=1000000> 
<DWph=1> <it=  2> <et=69.85> <Mt= 0.00> <Spt= 0.00> <nCl=  0> <DB=   65.0000> <Mlp=   65.0000> <PB=1000000> 
---- Diving heuristic node with dive number = 0, fix depth = 5 and tabu list size = 0
Fixed projected solution = [x_1_0_1_OspV=1, x_1_69_1_OspV=1, x_1_138_1_OspV=1, x_1_139_1_OspV=1]
<DWph=2> <it=  1> <et=69.86> <Mt= 0.00> <Spt= 0.00> <nCl=  0> <DB=   65.0000> <Mlp=   65.0000> <PB=1000000> 
<DWph=1> <it=  2> <et=69.86> <Mt= 0.01> <Spt= 0.00> <nCl=  0> <DB=   65.0000> <Mlp=   65.0000> <PB=1000000> 
---- Diving heuristic node with dive number = 0, fix depth = 5 and tabu list size = 0
Fixed projected solution = [x_1_0_1_OspV=1, x_1_44_1_OspV=1, x_1_102_1_OspV=1, x_1_173_1_OspV=1]
<DWph=2> <it=  1> <et=69.87> <Mt= 0.00> <Spt= 0.00> <nCl=  0> <DB=   65.0000> <Mlp=   65.0000> <PB=1000000> 
<DWph=1> <it=  2> <et=69.87> <Mt= 0.00> <Spt= 0.00> <nCl=  0> <DB=   65.0000> <Mlp=   65.0000> <PB=1000000> 
---- Diving heuristic node with dive number = 0, fix depth = 5 and tabu list size = 0
Fixed projected solution = [x_1_0_1_OspV=1, x_1_45_1_OspV=1, x_1_106_1_OspV=1, x_1_168_1_OspV=1]
<DWph=2> <it=  1> <et=69.87> <Mt= 0.00> <Spt= 0.00> <nCl=  0> <DB=   65.0000> <Mlp=   65.0000> <PB=1000000> 
<DWph=1> <it=  2> <et=69.88> <Mt= 0.00> <Spt= 0.00> <nCl=  0> <DB=   65.0000> <Mlp=   65.0000> <PB=1000000> 
---- Diving heuristic node with dive number = 0, fix depth = 5 and tabu list size = 0
Fixed projected solution = [x_1_0_1_OspV=1, x_1_40_1_OspV=1, x_1_129_1_OspV=1, x_1_149_1_OspV=1]
<DWph=2> <it=  1> <et=69.88> <Mt= 0.00> <Spt= 0.00> <nCl=  0> <DB=   65.0000> <Mlp=   65.0000> <PB=1000000> 
<DWph=1> <it=  2> <et=69.88> <Mt= 0.00> <Spt= 0.00> <nCl=  0> <DB=   65.0000> <Mlp=   65.0000> <PB=1000000> 
---- Diving heuristic node with dive number = 0, fix depth = 5 and tabu list size = 0
Fixed projected solution = [x_1_0_1_OspV=1, x_1_54_1_OspV=1, x_1_116_1_OspV=1, x_1_159_1_OspV=1]
<DWph=2> <it=  1> <et=69.89> <Mt= 0.00> <Spt= 0.00> <nCl=  0> <DB=   65.0000> <Mlp=   65.0000> <PB=1000000> 
<DWph=1> <it=  2> <et=69.89> <Mt= 0.00> <Spt= 0.00> <nCl=  0> <DB=   65.0000> <Mlp=   65.0000> <PB=1000000> 
---- Diving heuristic node with dive number = 0, fix depth = 5 and tabu list size = 0
Fixed projected solution = [x_1_0_1_OspV=1, x_1_8_1_OspV=1, x_1_71_1_OspV=1, x_1_201_1_OspV=1]
<DWph=2> <it=  1> <et=69.90> <Mt= 0.01> <Spt= 0.00> <nCl=  0> <DB=   65.0000> <Mlp=   65.0000> <PB=1000000> 
<DWph=1> <it=  2> <et=69.90> <Mt= 0.00> <Spt= 0.00> <nCl=  0> <DB=   65.0000> <Mlp=   65.0000> <PB=1000000> 
---- Diving heuristic node with dive number = 0, fix depth = 5 and tabu list size = 0
Fixed projected solution = [x_1_0_1_OspV=1, x_1_29_1_OspV=1, x_1_93_1_OspV=1, x_1_181_1_OspV=1]
<DWph=2> <it=  1> <et=69.91> <Mt= 0.00> <Spt= 0.00> <nCl=  0> <DB=   65.0000> <Mlp=   65.0000> <PB=1000000> 
<DWph=1> <it=  2> <et=69.91> <Mt= 0.00> <Spt= 0.00> <nCl=  0> <DB=   65.0000> <Mlp=   65.0000> <PB=1000000> 
---- Diving heuristic node with dive number = 0, fix depth = 6 and tabu list size = 0
Fixed projected solution = [x_1_0_1_OspV=1, x_1_5_1_OspV=1, x_1_121_1_OspV=1, x_1_160_1_OspV=1]
<DWph=2> <it=  1> <et=69.93> <Mt= 0.01> <Spt= 0.00> <nCl=  0> <DB=   65.0000> <Mlp=   65.0000> <PB=1000000> 
<DWph=1> <it=  2> <et=69.93> <Mt= 0.00> <Spt= 0.00> <nCl=  0> <DB=   65.0000> <Mlp=   65.0000> <PB=1000000> 
---- Diving heuristic node with dive number = 0, fix depth = 7 and tabu list size = 0
Fixed projected solution = [x_1_0_1_OspV=1, x_1_32_1_OspV=1, x_1_95_1_OspV=1, x_1_179_1_OspV=1]
<DWph=2> <it= 10> <et=71.91> <Mt= 0.15> <Spt= 1.82> <nCl=1000> <DB=   64.5641> <Mlp=   65.0001> <PB=1000000> 
<DWph=2> <it= 19> <et=73.58> <Mt= 0.06> <Spt= 1.62> <nCl=800> <DB=   64.8311> <Mlp=   65.0000> <PB=1000000> 
---- Diving heuristic node with dive number = 0, fix depth = 8 and tabu list size = 0
Fixed projected solution = [x_1_0_1_OspV=1, x_1_16_1_OspV=1, x_1_84_1_OspV=1, x_1_190_1_OspV=1]
<DWph=2> <it= 10> <et=75.31> <Mt= 0.10> <Spt= 1.61> <nCl=1000> <DB=-2940527.9310> <Mlp=237986.9775> <PB=1000000> 
<DWph=2> <it= 20> <et=77.08> <Mt= 0.04> <Spt= 1.68> <nCl=1000> <DB=-682579.9319> <Mlp=   65.0070> <PB=1000000> 
<DWph=2> <it= 30> <et=79.04> <Mt= 0.03> <Spt= 1.92> <nCl=1000> <DB=   64.9768> <Mlp=   65.0052> <PB=1000000> 
<DWph=2> <it= 40> <et=81.06> <Mt= 0.05> <Spt= 1.98> <nCl=1000> <DB=   64.9855> <Mlp=   65.0033> <PB=1000000> 
<DWph=2> <it= 50> <et=83.20> <Mt= 0.04> <Spt= 2.05> <nCl=1000> <DB=   64.9723> <Mlp=   65.0033> <PB=1000000> 
<DWph=2> <it= 60> <et=85.22> <Mt= 0.04> <Spt= 1.98> <nCl=1000> <DB=   64.9987> <Mlp=   65.0001> <PB=1000000> 
<DWph=2> <it= 69> <et=86.85> <Mt= 0.03> <Spt= 1.60> <nCl=800> <DB=   64.9997> <Mlp=   65.0000> <PB=1000000> 
---- Diving heuristic node with dive number = 0, fix depth = 8 and tabu list size = 0
Fixed projected solution = [x_1_0_1_OspV=1, x_1_23_1_OspV=1, x_1_81_1_OspV=1, x_1_193_1_OspV=1]
<DWph=2> <it=  1> <et=86.87> <Mt= 0.00> <Spt= 0.00> <nCl=  0> <DB=   65.0000> <Mlp=   65.0000> <PB=1000000> 
<DWph=1> <it=  2> <et=86.87> <Mt= 0.00> <Spt= 0.00> <nCl=  0> <DB=   65.0000> <Mlp=   65.0000> <PB=1000000> 
---- Diving heuristic node with dive number = 0, fix depth = 8 and tabu list size = 0
Fixed projected solution = [x_1_0_1_OspV=1, x_1_15_1_OspV=1, x_1_75_1_OspV=1, x_1_197_1_OspV=1]
<DWph=2> <it=  1> <et=86.89> <Mt= 0.01> <Spt= 0.00> <nCl=  0> <DB=   65.0000> <Mlp=   65.0000> <PB=1000000> 
<DWph=1> <it=  2> <et=86.89> <Mt= 0.00> <Spt= 0.00> <nCl=  0> <DB=   65.0000> <Mlp=   65.0000> <PB=1000000> 
---- Diving heuristic node with dive number = 0, fix depth = 9 and tabu list size = 0
Fixed projected solution = [x_1_0_1_OspV=1, x_1_12_1_OspV=1, x_1_83_1_OspV=1, x_1_191_1_OspV=1]
<DWph=2> <it= 10> <et=88.68> <Mt= 0.09> <Spt= 1.67> <nCl=1000> <DB=   64.9371> <Mlp=   65.0035> <PB=1000000> 
<DWph=2> <it= 20> <et=90.78> <Mt= 0.03> <Spt= 2.01> <nCl=1000> <DB=   64.9625> <Mlp=   65.0035> <PB=1000000> 
<DWph=2> <it= 28> <et=92.25> <Mt= 0.04> <Spt= 1.43> <nCl=700> <DB=   64.9981> <Mlp=   65.0000> <PB=1000000> 
<DWph=1> <it= 29> <et=92.25> <Mt= 0.00> <Spt= 0.00> <nCl=  0> <DB=   65.0000> <Mlp=   65.0000> <PB=1000000> 
---- Diving heuristic node with dive number = 0, fix depth = 10 and tabu list size = 0
Fixed projected solution = [x_1_0_1_OspV=1, x_1_4_1_OspV=1, x_1_35_1_OspV=1, x_1_79_1_OspV=1, x_1_96_1_OspV=1, x_1_156_1_OspV=1]
<DWph=2> <it= 10> <et=93.86> <Mt= 0.08> <Spt= 1.51> <nCl=1000> <DB=-578459.2624> <Mlp=574107.7571> <PB=1000000> 
<DWph=2> <it= 20> <et=95.42> <Mt= 0.04> <Spt= 1.45> <nCl=1000> <DB=-227852.5488> <Mlp=355009.3832> <PB=1000000> 
<DWph=2> <it= 30> <et=96.96> <Mt= 0.03> <Spt= 1.51> <nCl=1000> <DB=-139938.5142> <Mlp=158332.0053> <PB=1000000> 
<DWph=2> <it= 40> <et=98.88> <Mt= 0.03> <Spt= 1.89> <nCl=1000> <DB=-165259.8454> <Mlp=   65.0226> <PB=1000000> 
<DWph=2> <it= 50> <et=100.87> <Mt= 0.03> <Spt= 1.95> <nCl=1000> <DB=   64.9853> <Mlp=   65.0226> <PB=1000000> 
<DWph=2> <it= 60> <et=102.95> <Mt= 0.03> <Spt= 1.99> <nCl=1000> <DB=   64.9902> <Mlp=   65.0060> <PB=1000000> 
<DWph=2> <it= 66> <et=103.96> <Mt= 0.03> <Spt= 0.99> <nCl=500> <DB=   64.9938> <Mlp=   65.0000> <PB=65> 
New model incumbent solution 65, TIME = 0h1m43s99t = 10399
************************************************************************************************
Search is finished, global bounds : [ 65 , 65 ], TIME = 0h1m43s99t = 10399
************************************************************************************************
[32mBaPCod : solution defined.[00m
statistics_cols: instance & :Optimal & cutoff & :bcRecRootDb & :bcTimeRootEval & :bcCountNodeProc & :bcRecBestDb & :bcRecBestInc & :bcTimeMain \\
statistics: 201_2500_DI_28 & 1 & 1.0e6 & 65.00 & 64.33 & 1 & 65.00 & 65 & 103.99 \\
########################################################
bin_id=1: 162(0) 811(1) 983(0) 
bin_id=2: 160(0) 814(1) 982(1) 
bin_id=3: 724(0) 1232(1) 
bin_id=4: 144(1) 726(0) 1086(0) 
bin_id=5: 60(0) 301(0) 1595(1) 
bin_id=6: 52(1) 263(0) 1641(0) 
bin_id=7: 88(1) 450(1) 1418(0) 
bin_id=8: 66(0) 491(1) 1399(1) 
bin_id=9: 40(0) 209(0) 1707(1) 
bin_id=10: 42(1) 219(0) 1695(1) 
bin_id=11: 114(0) 575(0) 1267(1) 
bin_id=12: 94(1) 479(0) 1383(0) 
bin_id=13: 92(0) 482(1) 1382(0) 
bin_id=14: 64(0) 329(1) 1563(0) 
bin_id=15: 64(1) 543(1) 1349(0) 
bin_id=16: 128(0) 654(1) 1174(1) 
bin_id=17: 98(1) 495(0) 1363(0) 
bin_id=18: 60(0) 303(1) 1593(1) 
bin_id=19: 114(1) 579(1) 1263(0) 
bin_id=20: 20(0) 558(1) 1378(0) 
bin_id=21: 76(0) 382(0) 1498(1) 
bin_id=22: 46(1) 231(0) 1679(0) 
bin_id=23: 108(0) 542(0) 1306(1) 
bin_id=24: 160(0) 809(1) 987(1) 
bin_id=25: 20(0) 549(1) 1387(1) 
bin_id=26: 78(0) 395(1) 1483(0) 
bin_id=27: 68(1) 350(0) 1538(1) 
bin_id=28: 60(0) 318(1) 1578(0) 
bin_id=29: 122(0) 611(1) 1223(0) 
bin_id=30: 42(1) 251(0) 1663(0) 
bin_id=31: 44(0) 238(0) 1674(1) 
bin_id=32: 112(0) 561(1) 1283(1) 
bin_id=33: 40(0) 286(1) 1630(1) 
bin_id=34: 38(0) 199(1) 1719(1) 
bin_id=35: 34(1) 173(0) 1749(0) 
bin_id=36: 44(1) 222(0) 1690(0) 
bin_id=37: 40(1) 236(1) 1680(0) 
bin_id=38: 140(0) 703(1) 1113(1) 
bin_id=39: 78(1) 391(0) 1487(0) 
bin_id=40: 66(0) 331(1) 1559(1) 
bin_id=41: 50(0) 259(1) 1647(1) 
bin_id=42: 72(1) 365(0) 1519(0) 
bin_id=43: 140(1) 701(1) 1115(0) 
bin_id=44: 162(1) 815(0) 979(1) 
bin_id=45: 116(1) 594(0) 1246(0) 
bin_id=46: 42(1) 211(1) 1703(0) 
bin_id=47: 40(1) 210(0) 1706(0) 
bin_id=48: 90(0) 451(0) 1415(1) 
bin_id=49: 68(0) 667(1) 1221(1) 
bin_id=50: 48(0) 254(0) 1654(1) 
bin_id=51: 72(1) 366(0) 1518(0) 
bin_id=52: 76(0) 402(1) 1478(1) 
bin_id=53: 88(1) 441(0) 1427(1) 
bin_id=54: 68(1) 661(0) 1227(0) 
bin_id=55: 42(0) 215(1) 1699(1) 
bin_id=56: 98(0) 491(1) 1367(0) 
bin_id=57: 16(0) 254(1) 1686(1) 
bin_id=58: 36(0) 185(1) 1735(0) 
bin_id=59: 32(0) 265(1) 1659(1) 
bin_id=60: 50(0) 403(1) 1503(1) 
bin_id=61: 20(0) 64(1) 220(1) 304(0) 1348(0) 
bin_id=62: 36(0) 182(0) 1738(1) 
bin_id=63: 56(0) 290(1) 1610(1) 
bin_id=64: 40(0) 232(1) 1684(1) 
bin_id=65: 4(1) 40(1) 44(1) 60(0) 72(0) 220(1) 404(0) 456(1) 656(0) 
Objective value: 65.0
########################################################
