Application parameters:
  batch  =>  nothing
  instance  =>  "/IN/201_2500_DI_34.txt-Q2"
  ub  =>  1.0e6
  cfg  =>  "/CFG/BPP.cfg"
data = Colored Bin Packing dataset.
number of items = 202
number of colors = 2
capacity = 2472
Items : 
	 item 1, weight= 8, color= 0
	 item 2, weight= 8, color= 0
	 item 3, weight= 8, color= 0
	 item 4, weight= 16, color= 1
	 item 5, weight= 28, color= 0
	 item 6, weight= 32, color= 0
	 item 7, weight= 36, color= 0
	 item 8, weight= 40, color= 0
	 item 9, weight= 40, color= 1
	 item 10, weight= 40, color= 1
	 item 11, weight= 44, color= 0
	 item 12, weight= 44, color= 0
	 item 13, weight= 44, color= 1
	 item 14, weight= 44, color= 1
	 item 15, weight= 48, color= 1
	 item 16, weight= 54, color= 0
	 item 17, weight= 56, color= 1
	 item 18, weight= 56, color= 1
	 item 19, weight= 60, color= 0
	 item 20, weight= 64, color= 0
	 item 21, weight= 64, color= 0
	 item 22, weight= 70, color= 0
	 item 23, weight= 72, color= 0
	 item 24, weight= 72, color= 0
	 item 25, weight= 72, color= 1
	 item 26, weight= 76, color= 1
	 item 27, weight= 80, color= 0
	 item 28, weight= 80, color= 1
	 item 29, weight= 80, color= 1
	 item 30, weight= 80, color= 1
	 item 31, weight= 88, color= 0
	 item 32, weight= 88, color= 0
	 item 33, weight= 88, color= 1
	 item 34, weight= 88, color= 1
	 item 35, weight= 92, color= 0
	 item 36, weight= 92, color= 0
	 item 37, weight= 96, color= 0
	 item 38, weight= 96, color= 0
	 item 39, weight= 96, color= 1
	 item 40, weight= 96, color= 1
	 item 41, weight= 104, color= 0
	 item 42, weight= 104, color= 0
	 item 43, weight= 104, color= 1
	 item 44, weight= 108, color= 0
	 item 45, weight= 108, color= 1
	 item 46, weight= 112, color= 0
	 item 47, weight= 120, color= 0
	 item 48, weight= 120, color= 1
	 item 49, weight= 120, color= 1
	 item 50, weight= 122, color= 0
	 item 51, weight= 124, color= 0
	 item 52, weight= 124, color= 1
	 item 53, weight= 132, color= 1
	 item 54, weight= 136, color= 0
	 item 55, weight= 140, color= 1
	 item 56, weight= 144, color= 1
	 item 57, weight= 144, color= 1
	 item 58, weight= 152, color= 1
	 item 59, weight= 162, color= 1
	 item 60, weight= 168, color= 0
	 item 61, weight= 168, color= 1
	 item 62, weight= 172, color= 1
	 item 63, weight= 174, color= 1
	 item 64, weight= 192, color= 0
	 item 65, weight= 200, color= 1
	 item 66, weight= 204, color= 1
	 item 67, weight= 204, color= 1
	 item 68, weight= 204, color= 1
	 item 69, weight= 204, color= 1
	 item 70, weight= 220, color= 0
	 item 71, weight= 228, color= 1
	 item 72, weight= 230, color= 1
	 item 73, weight= 234, color= 0
	 item 74, weight= 236, color= 1
	 item 75, weight= 242, color= 1
	 item 76, weight= 242, color= 1
	 item 77, weight= 272, color= 0
	 item 78, weight= 272, color= 0
	 item 79, weight= 282, color= 1
	 item 80, weight= 284, color= 0
	 item 81, weight= 294, color= 0
	 item 82, weight= 308, color= 0
	 item 83, weight= 314, color= 1
	 item 84, weight= 340, color= 1
	 item 85, weight= 370, color= 0
	 item 86, weight= 372, color= 0
	 item 87, weight= 378, color= 1
	 item 88, weight= 382, color= 1
	 item 89, weight= 384, color= 0
	 item 90, weight= 409, color= 0
	 item 91, weight= 412, color= 1
	 item 92, weight= 418, color= 0
	 item 93, weight= 443, color= 0
	 item 94, weight= 447, color= 1
	 item 95, weight= 452, color= 0
	 item 96, weight= 462, color= 1
	 item 97, weight= 466, color= 0
	 item 98, weight= 469, color= 1
	 item 99, weight= 478, color= 1
	 item 100, weight= 494, color= 0
	 item 101, weight= 499, color= 1
	 item 102, weight= 500, color= 1
	 item 103, weight= 504, color= 1
	 item 104, weight= 522, color= 1
	 item 105, weight= 529, color= 0
	 item 106, weight= 543, color= 1
	 item 107, weight= 556, color= 1
	 item 108, weight= 558, color= 0
	 item 109, weight= 576, color= 0
	 item 110, weight= 601, color= 1
	 item 111, weight= 606, color= 1
	 item 112, weight= 619, color= 1
	 item 113, weight= 620, color= 0
	 item 114, weight= 634, color= 0
	 item 115, weight= 642, color= 1
	 item 116, weight= 667, color= 0
	 item 117, weight= 698, color= 1
	 item 118, weight= 700, color= 1
	 item 119, weight= 709, color= 0
	 item 120, weight= 734, color= 1
	 item 121, weight= 756, color= 1
	 item 122, weight= 767, color= 1
	 item 123, weight= 802, color= 1
	 item 124, weight= 817, color= 0
	 item 125, weight= 840, color= 1
	 item 126, weight= 846, color= 0
	 item 127, weight= 860, color= 0
	 item 128, weight= 877, color= 0
	 item 129, weight= 882, color= 1
	 item 130, weight= 988, color= 0
	 item 131, weight= 993, color= 1
	 item 132, weight= 1000, color= 0
	 item 133, weight= 1018, color= 1
	 item 134, weight= 1022, color= 1
	 item 135, weight= 1029, color= 0
	 item 136, weight= 1030, color= 1
	 item 137, weight= 1031, color= 1
	 item 138, weight= 1140, color= 0
	 item 139, weight= 1237, color= 0
	 item 140, weight= 1238, color= 0
	 item 141, weight= 1239, color= 0
	 item 142, weight= 1244, color= 0
	 item 143, weight= 1246, color= 0
	 item 144, weight= 1254, color= 1
	 item 145, weight= 1292, color= 1
	 item 146, weight= 1409, color= 0
	 item 147, weight= 1418, color= 0
	 item 148, weight= 1421, color= 0
	 item 149, weight= 1444, color= 0
	 item 150, weight= 1458, color= 1
	 item 151, weight= 1493, color= 1
	 item 152, weight= 1552, color= 1
	 item 153, weight= 1553, color= 0
	 item 154, weight= 1558, color= 0
	 item 155, weight= 1572, color= 1
	 item 156, weight= 1594, color= 0
	 item 157, weight= 1623, color= 0
	 item 158, weight= 1638, color= 1
	 item 159, weight= 1673, color= 1
	 item 160, weight= 1676, color= 0
	 item 161, weight= 1704, color= 1
	 item 162, weight= 1706, color= 1
	 item 163, weight= 1714, color= 0
	 item 164, weight= 1731, color= 1
	 item 165, weight= 1732, color= 0
	 item 166, weight= 1746, color= 1
	 item 167, weight= 1751, color= 0
	 item 168, weight= 1806, color= 0
	 item 169, weight= 1812, color= 0
	 item 170, weight= 1821, color= 1
	 item 171, weight= 1839, color= 1
	 item 172, weight= 1846, color= 0
	 item 173, weight= 1876, color= 1
	 item 174, weight= 1882, color= 1
	 item 175, weight= 1897, color= 0
	 item 176, weight= 1911, color= 1
	 item 177, weight= 1918, color= 1
	 item 178, weight= 1926, color= 1
	 item 179, weight= 1932, color= 1
	 item 180, weight= 1941, color= 1
	 item 181, weight= 1971, color= 0
	 item 182, weight= 1974, color= 0
	 item 183, weight= 1980, color= 1
	 item 184, weight= 1983, color= 1
	 item 185, weight= 1986, color= 1
	 item 186, weight= 2018, color= 0
	 item 187, weight= 2022, color= 0
	 item 188, weight= 2028, color= 0
	 item 189, weight= 2058, color= 0
	 item 190, weight= 2068, color= 0
	 item 191, weight= 2098, color= 0
	 item 192, weight= 2108, color= 0
	 item 193, weight= 2122, color= 0
	 item 194, weight= 2140, color= 0
	 item 195, weight= 2146, color= 0
	 item 196, weight= 2186, color= 0
	 item 197, weight= 2194, color= 1
	 item 198, weight= 2196, color= 1
	 item 199, weight= 2198, color= 0
	 item 200, weight= 2204, color= 0
	 item 201, weight= 2210, color= 1
	 item 202, weight= 2212, color= 0

VRPSolver warning: Interval set for resource 1 on source node (when source != sink) is ignored (by definition is [0.0,0.0])
[41m solve [00m
~~~~~~~~~~~~~~~~~~~~~~~~~~~~~~~~~~~~~~~~~~~~~~~~~~~~~~~~~~~~~~~~~~~~~~~~~~~~~~
VRPSolver v0.4.1, 24/03/2021. Web: vrpsolver.math.u-bordeaux.fr
Corresponds to the solver by Pessoa, Sadykov, Uchoa and Vanderbeck (2020)
Paper: dx.doi.org/10.1007/s10107-020-01523-z
USE THIS CODE ONLY FOR ACADEMIC PURPOSES AT YOUR OWN RISK
~~~~~~~~~~~~~~~~~~~~~~~~~~~~~~~~~~~~~~~~~~~~~~~~~~~~~~~~~~~~~~~~~~~~~~~~~~~~~~
BaPCod v053, 24/03/2021, © Inria Bordeaux, France
~~~~~~~~~~~~~~~~~~~~~~~~~~~~~~~~~~~~~~~~~~~~~~~~~~~~~~~~~~~~~~~~~~~~~~~~~~~~~~
VRPSolver parameters:
GlobalTimeLimit = 1800
MaxNbOfBBtreeNodeTreated = 100000
treeSearchStrategy = 1
RCSPstopCutGenTimeThresholdInPricing = 10
RCSPhardTimeThresholdInPricing = 20
RCSPnumberOfBucketsPerVertex = 2000
RCSPdynamicBucketSteps = 0
RCSPuseBidirectionalSearch = 1
RCSPapplyReducedCostFixing = 1
RCSPredCostFixingFalseGap = 0
RCSPmaxNumOfColsPerIteration = 100
RCSPmaxNumOfColsPerExactIteration = 100
RCSPheurLabelingStrategy = 4
StabilizationMinPhaseOfStage = 1
RCSPmaxNumOfLabelsInEnumeration = 100000
RCSPmaxNumOfEnumeratedSolutions = 1000000
RCSPmaxNumOfEnumSolutionsForMIP = 100000
RCSPinitNGneighbourhoodSize = 0
RCSPmaxNGneighbourhoodSize = 0
RCSPrankOneCutsMaxNumPerRound = 100
RCSPrankOneCutsMaxNumRows = -1
RCSPrankOneCutsMemoryType = 2
CutTailingOffThreshold = 0.02
CutTailingOffCounterThreshold = 3
SafeDualBoundScaleFactor = -1
StrongBranchingPhaseOneCandidatesNumber = 100
StrongBranchingPhaseOneTreeSizeEstimRatio = 0.3
StrongBranchingPhaseTwoCandidatesNumber = 1
StrongBranchingPhaseTwoTreeSizeEstimRatio = 0.1
MaxTimeForRestrictedMasterIpHeur = -1
DivingHeurUseDepthLimit = 0
MaxLDSbreadth = 3
MaxLDSdepth = 2
New model incumbent solution 1e+06, TIME = 0h0m0s3t = 3
Model is built TIME = 0h0m1s89t = 189
************************************************************************************************
**** BaB tree root node
**** Local DB = -1e+12, global bounds : [ -1e+12 , 1e+06 ], TIME = 0h0m1s89t = 189
**** 1 open nodes, 0 columns (0 active), 0 dyn. constrs. (0 active), 406 art. vars. (406 active)
************************************************************************************************
<DWph=2> <it= 10> <et=3.50> <Mt= 0.00> <Spt= 1.60> <nCl=1000> <DB=-14221729560.7963> <Mlp=229892102.1290> <PB=1000000> 
<DWph=2> <it= 20> <et=4.88> <Mt= 0.01> <Spt= 1.36> <nCl=1000> <DB=-9426291790.0784> <Mlp=217247011.3491> <PB=1000000> 
<DWph=2> <it= 30> <et=6.24> <Mt= 0.02> <Spt= 1.35> <nCl=1000> <DB=-6181726347.7401> <Mlp=201531802.6874> <PB=1000000> 
<DWph=2> <it= 40> <et=7.59> <Mt= 0.04> <Spt= 1.31> <nCl=1000> <DB=-4449789008.6954> <Mlp=182220655.2050> <PB=1000000> 
<DWph=2> <it= 50> <et=8.97> <Mt= 0.07> <Spt= 1.31> <nCl=1000> <DB=-2597369308.4555> <Mlp=165281062.6219> <PB=1000000> 
<DWph=2> <it= 60> <et=10.24> <Mt= 0.08> <Spt= 1.18> <nCl=1000> <DB=-1944626285.8487> <Mlp=145063490.0307> <PB=1000000> 
<DWph=2> <it= 70> <et=11.53> <Mt= 0.14> <Spt= 1.16> <nCl=1000> <DB=-1592554218.2347> <Mlp=123522034.3435> <PB=1000000> 
<DWph=2> <it= 80> <et=12.84> <Mt= 0.16> <Spt= 1.14> <nCl=1000> <DB=-658095719.9450> <Mlp=103200010.8168> <PB=1000000> 
<DWph=2> <it= 90> <et=14.14> <Mt= 0.16> <Spt= 1.14> <nCl=1000> <DB=-411660857.6424> <Mlp=85680015.6527> <PB=1000000> 
<DWph=2> <it=100> <et=15.48> <Mt= 0.21> <Spt= 1.12> <nCl=1000> <DB=-306197103.1315> <Mlp=74932563.4725> <PB=1000000> 
<DWph=2> <it=110> <et=16.84> <Mt= 0.16> <Spt= 1.14> <nCl=1000> <DB=-177580978.4761> <Mlp=68400022.3038> <PB=1000000> 
<DWph=2> <it=120> <et=18.15> <Mt= 0.18> <Spt= 1.13> <nCl=1000> <DB=-231383595.6463> <Mlp=62475477.7906> <PB=1000000> 
<DWph=2> <it=130> <et=19.47> <Mt= 0.23> <Spt= 1.08> <nCl=1000> <DB=-177164620.7865> <Mlp=52291263.2867> <PB=1000000> 
<DWph=2> <it=140> <et=20.84> <Mt= 0.17> <Spt= 1.15> <nCl=1000> <DB=-176278155.4800> <Mlp=45127797.3511> <PB=1000000> 
<DWph=2> <it=150> <et=22.16> <Mt= 0.19> <Spt= 1.13> <nCl=1000> <DB=-175305097.7427> <Mlp=36384006.0643> <PB=1000000> 
<DWph=2> <it=160> <et=23.40> <Mt= 0.15> <Spt= 1.08> <nCl=1000> <DB=-175360600.3511> <Mlp=19761136.8823> <PB=1000000> 
<DWph=2> <it=170> <et=25.81> <Mt= 0.11> <Spt= 2.25> <nCl=885> <DB=  -27.3193> <Mlp=   66.7849> <PB=1000000> 
<DWph=2> <it=180> <et=27.09> <Mt= 0.08> <Spt= 1.20> <nCl=1000> <DB=   34.2654> <Mlp=   66.2060> <PB=1000000> 
<DWph=2> <it=190> <et=28.48> <Mt= 0.19> <Spt= 1.19> <nCl=913> <DB=   62.2066> <Mlp=   65.1228> <PB=1000000> 
<DWph=2> <it=200> <et=30.05> <Mt= 0.20> <Spt= 1.37> <nCl=906> <DB=   64.7354> <Mlp=   65.0093> <PB=1000000> 
<DWph=2> <it=210> <et=31.69> <Mt= 0.12> <Spt= 1.45> <nCl=677> <DB=   64.9827> <Mlp=   65.0004> <PB=1000000> 
<DWph=2> <it=216> <et=32.90> <Mt= 0.02> <Spt= 1.19> <nCl= 77> <DB=   65.0004> <Mlp=   65.0004> <PB=1000000> 
<DWph=1> <it=219> <et=33.61> <Mt= 0.02> <Spt= 0.69> <nCl=116> <DB=   65.0000> <Mlp=   65.0000> <PB=1000000> 
<DWph=0> <it=220> <et=33.79> <Mt= 0.00> <Spt= 0.18> <nCl=  0> <DB=   65.0000> <Mlp=   65.0000> <PB=1000000> 
Reduced cost fixing for graph G_1... took 8.13 sec., 494025 buck. arcs remain (85.8% from prev., 37.6% from max.)
Run enumeration... took 0.11 sec. and not succeeded.
ColGenEvalAlg final dual bound: 65 (rounded: 65)
----------- Diving heuristic started -----------
<DWph=2> <it=  1> <et=42.07> <Mt= 0.00> <Spt= 0.00> <nCl=  0> <DB=   65.0000> <Mlp=   65.0000> <PB=1000000> 
<DWph=1> <it=  2> <et=42.08> <Mt= 0.00> <Spt= 0.00> <nCl=  0> <DB=   65.0000> <Mlp=   65.0000> <PB=1000000> 
---- Diving heuristic node with dive number = 0, fix depth = 0 and tabu list size = 0
Fixed projected solution = [x_1_0_1_OspV=1, x_1_3_1_OspV=1, x_1_99_1_OspV=1, x_1_185_1_OspV=1]
<DWph=2> <it=  1> <et=42.14> <Mt= 0.01> <Spt= 0.00> <nCl=  0> <DB=   65.0000> <Mlp=   65.0000> <PB=1000000> 
<DWph=1> <it=  2> <et=42.14> <Mt= 0.00> <Spt= 0.00> <nCl=  0> <DB=   65.0000> <Mlp=   65.0000> <PB=1000000> 
---- Diving heuristic node with dive number = 0, fix depth = 0 and tabu list size = 0
Fixed projected solution = [x_1_0_1_OspV=1, x_1_58_1_OspV=1, x_1_122_1_OspV=1, x_1_153_1_OspV=1]
<DWph=2> <it=  1> <et=42.20> <Mt= 0.00> <Spt= 0.00> <nCl=  0> <DB=   65.0000> <Mlp=   65.0000> <PB=1000000> 
<DWph=1> <it=  2> <et=42.21> <Mt= 0.00> <Spt= 0.00> <nCl=  0> <DB=   65.0000> <Mlp=   65.0000> <PB=1000000> 
---- Diving heuristic node with dive number = 0, fix depth = 0 and tabu list size = 0
Fixed projected solution = [x_1_0_1_OspV=1, x_1_26_1_OspV=1, x_1_101_1_OspV=1, x_1_175_1_OspV=1]
<DWph=2> <it=  1> <et=42.27> <Mt= 0.00> <Spt= 0.00> <nCl=  0> <DB=   65.0000> <Mlp=   65.0000> <PB=1000000> 
<DWph=1> <it=  2> <et=42.27> <Mt= 0.01> <Spt= 0.00> <nCl=  0> <DB=   65.0000> <Mlp=   65.0000> <PB=1000000> 
---- Diving heuristic node with dive number = 0, fix depth = 0 and tabu list size = 0
Fixed projected solution = [x_1_0_1_OspV=1, x_1_46_1_OspV=1, x_1_123_1_OspV=1, x_1_154_1_OspV=1]
<DWph=2> <it=  1> <et=42.33> <Mt= 0.00> <Spt= 0.00> <nCl=  0> <DB=   65.0000> <Mlp=   65.0000> <PB=1000000> 
<DWph=1> <it=  2> <et=42.33> <Mt= 0.00> <Spt= 0.00> <nCl=  0> <DB=   65.0000> <Mlp=   65.0000> <PB=1000000> 
---- Diving heuristic node with dive number = 0, fix depth = 0 and tabu list size = 0
Fixed projected solution = [x_1_0_1_OspV=1, x_1_53_1_OspV=1, x_1_116_1_OspV=1, x_1_159_1_OspV=1]
<DWph=2> <it=  1> <et=42.39> <Mt= 0.00> <Spt= 0.00> <nCl=  0> <DB=   65.0000> <Mlp=   65.0000> <PB=1000000> 
<DWph=1> <it=  2> <et=42.39> <Mt= 0.00> <Spt= 0.00> <nCl=  0> <DB=   65.0000> <Mlp=   65.0000> <PB=1000000> 
---- Diving heuristic node with dive number = 0, fix depth = 0 and tabu list size = 0
Fixed projected solution = [x_1_0_1_OspV=1, x_1_16_1_OspV=1, x_1_94_1_OspV=1, x_1_181_1_OspV=1]
<DWph=2> <it=  1> <et=42.45> <Mt= 0.01> <Spt= 0.00> <nCl=  0> <DB=   65.0000> <Mlp=   65.0000> <PB=1000000> 
<DWph=1> <it=  2> <et=42.45> <Mt= 0.00> <Spt= 0.00> <nCl=  0> <DB=   65.0000> <Mlp=   65.0000> <PB=1000000> 
---- Diving heuristic node with dive number = 0, fix depth = 0 and tabu list size = 0
Fixed projected solution = [x_1_0_1_OspV=1, x_1_63_1_OspV=1, x_1_128_1_OspV=1, x_1_148_1_OspV=1]
<DWph=2> <it=  1> <et=42.52> <Mt= 0.00> <Spt= 0.00> <nCl=  0> <DB=   65.0000> <Mlp=   65.0000> <PB=1000000> 
<DWph=1> <it=  2> <et=42.52> <Mt= 0.00> <Spt= 0.00> <nCl=  0> <DB=   65.0000> <Mlp=   65.0000> <PB=1000000> 
---- Diving heuristic node with dive number = 0, fix depth = 1 and tabu list size = 0
Fixed projected solution = [x_1_0_1_OspV=1, x_1_60_1_OspV=1, x_1_126_1_OspV=1, x_1_150_1_OspV=1]
<DWph=2> <it=  1> <et=42.57> <Mt= 0.01> <Spt= 0.00> <nCl=  0> <DB=   65.0000> <Mlp=   65.0000> <PB=1000000> 
<DWph=1> <it=  2> <et=42.57> <Mt= 0.00> <Spt= 0.00> <nCl=  0> <DB=   65.0000> <Mlp=   65.0000> <PB=1000000> 
---- Diving heuristic node with dive number = 0, fix depth = 2 and tabu list size = 0
Fixed projected solution = [x_1_0_1_OspV=1, x_1_15_1_OspV=1, x_1_80_1_OspV=1, x_1_194_1_OspV=1]
<DWph=2> <it=  1> <et=42.63> <Mt= 0.01> <Spt= 0.00> <nCl=  0> <DB=   65.0000> <Mlp=   65.0000> <PB=1000000> 
<DWph=1> <it=  2> <et=42.63> <Mt= 0.00> <Spt= 0.00> <nCl=  0> <DB=   65.0000> <Mlp=   65.0000> <PB=1000000> 
---- Diving heuristic node with dive number = 0, fix depth = 2 and tabu list size = 0
Fixed projected solution = [x_1_0_1_OspV=1, x_1_30_1_OspV=1, x_1_90_1_OspV=1, x_1_184_1_OspV=1]
<DWph=2> <it=  1> <et=42.64> <Mt= 0.00> <Spt= 0.00> <nCl=  0> <DB=   65.0000> <Mlp=   65.0000> <PB=1000000> 
<DWph=1> <it=  2> <et=42.64> <Mt= 0.00> <Spt= 0.00> <nCl=  0> <DB=   65.0000> <Mlp=   65.0000> <PB=1000000> 
---- Diving heuristic node with dive number = 0, fix depth = 3 and tabu list size = 0
Fixed projected solution = [x_1_0_1_OspV=1, x_1_47_1_OspV=1, x_1_111_1_OspV=1, x_1_166_1_OspV=1]
<DWph=2> <it=  1> <et=42.65> <Mt= 0.01> <Spt= 0.00> <nCl=  0> <DB=   65.0000> <Mlp=   65.0000> <PB=1000000> 
<DWph=1> <it=  2> <et=42.65> <Mt= 0.00> <Spt= 0.00> <nCl=  0> <DB=   65.0000> <Mlp=   65.0000> <PB=1000000> 
---- Diving heuristic node with dive number = 0, fix depth = 3 and tabu list size = 0
Fixed projected solution = [x_1_0_1_OspV=1, x_1_69_1_OspV=1, x_1_136_1_OspV=1, x_1_140_1_OspV=1]
<DWph=2> <it=  1> <et=42.66> <Mt= 0.00> <Spt= 0.00> <nCl=  0> <DB=   65.0000> <Mlp=   65.0000> <PB=1000000> 
<DWph=1> <it=  2> <et=42.66> <Mt= 0.00> <Spt= 0.00> <nCl=  0> <DB=   65.0000> <Mlp=   65.0000> <PB=1000000> 
---- Diving heuristic node with dive number = 0, fix depth = 3 and tabu list size = 0
Fixed projected solution = [x_1_0_1_OspV=1, x_1_66_1_OspV=1, x_1_135_1_OspV=1, x_1_141_1_OspV=1]
<DWph=2> <it=  1> <et=42.67> <Mt= 0.00> <Spt= 0.00> <nCl=  0> <DB=   65.0000> <Mlp=   65.0000> <PB=1000000> 
<DWph=1> <it=  2> <et=42.67> <Mt= 0.00> <Spt= 0.00> <nCl=  0> <DB=   65.0000> <Mlp=   65.0000> <PB=1000000> 
---- Diving heuristic node with dive number = 0, fix depth = 4 and tabu list size = 0
Fixed projected solution = [x_1_0_1_OspV=1, x_1_57_1_OspV=1, x_1_120_1_OspV=1, x_1_156_1_OspV=1]
<DWph=2> <it=  1> <et=42.68> <Mt= 0.01> <Spt= 0.00> <nCl=  0> <DB=   65.0000> <Mlp=   65.0000> <PB=1000000> 
<DWph=1> <it=  2> <et=42.68> <Mt= 0.00> <Spt= 0.00> <nCl=  0> <DB=   65.0000> <Mlp=   65.0000> <PB=1000000> 
---- Diving heuristic node with dive number = 0, fix depth = 5 and tabu list size = 0
Fixed projected solution = [x_1_0_1_OspV=1, x_1_44_1_OspV=1, x_1_106_1_OspV=1, x_1_170_1_OspV=1]
<DWph=2> <it=  1> <et=42.69> <Mt= 0.00> <Spt= 0.00> <nCl=  0> <DB=   65.0000> <Mlp=   65.0000> <PB=1000000> 
<DWph=1> <it=  2> <et=42.69> <Mt= 0.01> <Spt= 0.00> <nCl=  0> <DB=   65.0000> <Mlp=   65.0000> <PB=1000000> 
---- Diving heuristic node with dive number = 0, fix depth = 6 and tabu list size = 0
Fixed projected solution = [x_1_0_1_OspV=1, x_1_25_1_OspV=1, x_1_86_1_OspV=1, x_1_188_1_OspV=1]
<DWph=2> <it=  1> <et=42.71> <Mt= 0.01> <Spt= 0.00> <nCl=  0> <DB=   65.0000> <Mlp=   65.0000> <PB=1000000> 
<DWph=1> <it=  2> <et=42.72> <Mt= 0.00> <Spt= 0.00> <nCl=  0> <DB=   65.0000> <Mlp=   65.0000> <PB=1000000> 
---- Diving heuristic node with dive number = 0, fix depth = 6 and tabu list size = 0
Fixed projected solution = [x_1_0_1_OspV=1, x_1_33_1_OspV=1, x_1_93_1_OspV=1, x_1_180_1_OspV=1]
<DWph=2> <it=  1> <et=42.72> <Mt= 0.00> <Spt= 0.00> <nCl=  0> <DB=   65.0000> <Mlp=   65.0000> <PB=1000000> 
<DWph=1> <it=  2> <et=42.72> <Mt= 0.00> <Spt= 0.00> <nCl=  0> <DB=   65.0000> <Mlp=   65.0000> <PB=1000000> 
---- Diving heuristic node with dive number = 0, fix depth = 7 and tabu list size = 0
Fixed projected solution = [x_1_0_1_OspV=1, x_1_71_1_OspV=1, x_1_132_1_OspV=1, x_1_142_1_OspV=1]
<DWph=2> <it=  1> <et=42.73> <Mt= 0.01> <Spt= 0.00> <nCl=  0> <DB=   65.0000> <Mlp=   65.0000> <PB=1000000> 
<DWph=1> <it=  2> <et=42.73> <Mt= 0.00> <Spt= 0.00> <nCl=  0> <DB=   65.0000> <Mlp=   65.0000> <PB=1000000> 
---- Diving heuristic node with dive number = 0, fix depth = 8 and tabu list size = 0
Fixed projected solution = [x_1_0_1_OspV=1, x_1_23_1_OspV=1, x_1_88_1_OspV=1, x_1_186_1_OspV=1]
<DWph=2> <it=  1> <et=42.75> <Mt= 0.02> <Spt= 0.00> <nCl=  0> <DB=   65.0000> <Mlp=   65.0000> <PB=1000000> 
<DWph=1> <it=  2> <et=42.76> <Mt= 0.00> <Spt= 0.00> <nCl=  0> <DB=   65.0000> <Mlp=   65.0000> <PB=1000000> 
---- Diving heuristic node with dive number = 0, fix depth = 9 and tabu list size = 0
Fixed projected solution = [x_1_0_1_OspV=1, x_1_42_1_OspV=1, x_1_105_1_OspV=1, x_1_171_1_OspV=1]
<DWph=2> <it=  1> <et=42.77> <Mt= 0.00> <Spt= 0.00> <nCl=  0> <DB=   65.0000> <Mlp=   65.0000> <PB=1000000> 
<DWph=1> <it=  2> <et=42.77> <Mt= 0.00> <Spt= 0.00> <nCl=  0> <DB=   65.0000> <Mlp=   65.0000> <PB=1000000> 
---- Diving heuristic node with dive number = 0, fix depth = 10 and tabu list size = 0
Fixed projected solution = [x_1_0_1_OspV=1, x_1_18_1_OspV=1, x_1_82_1_OspV=1, x_1_192_1_OspV=1]
<DWph=2> <it=  1> <et=42.79> <Mt= 0.02> <Spt= 0.00> <nCl=  0> <DB=   65.0000> <Mlp=   65.0000> <PB=1000000> 
<DWph=1> <it=  2> <et=42.79> <Mt= 0.00> <Spt= 0.00> <nCl=  0> <DB=   65.0000> <Mlp=   65.0000> <PB=1000000> 
---- Diving heuristic node with dive number = 0, fix depth = 11 and tabu list size = 0
Fixed projected solution = [x_1_0_1_OspV=1, x_1_43_1_OspV=1, x_1_104_1_OspV=1, x_1_172_1_OspV=1]
<DWph=2> <it=  1> <et=42.84> <Mt= 0.05> <Spt= 0.00> <nCl=  0> <DB=   65.0000> <Mlp=   65.0000> <PB=1000000> 
<DWph=1> <it=  2> <et=42.84> <Mt= 0.00> <Spt= 0.00> <nCl=  0> <DB=   65.0000> <Mlp=   65.0000> <PB=1000000> 
---- Diving heuristic node with dive number = 0, fix depth = 12 and tabu list size = 0
Fixed projected solution = [x_1_0_1_OspV=1, x_1_21_1_OspV=1, x_1_84_1_OspV=1, x_1_190_1_OspV=1]
<DWph=2> <it=  1> <et=42.86> <Mt= 0.01> <Spt= 0.00> <nCl=  0> <DB=   65.0000> <Mlp=   65.0000> <PB=1000000> 
<DWph=1> <it=  2> <et=42.86> <Mt= 0.00> <Spt= 0.00> <nCl=  0> <DB=   65.0000> <Mlp=   65.0000> <PB=1000000> 
---- Diving heuristic node with dive number = 0, fix depth = 13 and tabu list size = 0
Fixed projected solution = [x_1_0_1_OspV=1, x_1_65_1_OspV=1, x_1_108_1_OspV=1, x_1_163_1_OspV=1]
<DWph=2> <it=  7> <et=43.85> <Mt= 0.06> <Spt= 0.92> <nCl=600> <DB=   64.9940> <Mlp=   65.0000> <PB=1000000> 
<DWph=1> <it=  8> <et=43.85> <Mt= 0.00> <Spt= 0.00> <nCl=  0> <DB=   65.0000> <Mlp=   65.0000> <PB=1000000> 
---- Diving heuristic node with dive number = 0, fix depth = 14 and tabu list size = 0
Fixed projected solution = [x_1_0_1_OspV=1, x_1_39_1_OspV=1, x_1_100_1_OspV=1, x_1_174_1_OspV=1]
<DWph=2> <it=  2> <et=44.03> <Mt= 0.03> <Spt= 0.14> <nCl=100> <DB=   64.9937> <Mlp=   65.0000> <PB=1000000> 
<DWph=1> <it=  3> <et=44.03> <Mt= 0.01> <Spt= 0.00> <nCl=  0> <DB=   65.0000> <Mlp=   65.0000> <PB=1000000> 
---- Diving heuristic node with dive number = 0, fix depth = 15 and tabu list size = 0
Fixed projected solution = [x_1_0_1_OspV=1, x_1_32_1_OspV=1, x_1_95_1_OspV=1, x_1_179_1_OspV=1]
<DWph=2> <it=  1> <et=44.09> <Mt= 0.04> <Spt= 0.00> <nCl=  0> <DB=   65.0000> <Mlp=   65.0000> <PB=1000000> 
<DWph=1> <it=  2> <et=44.09> <Mt= 0.00> <Spt= 0.00> <nCl=  0> <DB=   65.0000> <Mlp=   65.0000> <PB=1000000> 
---- Diving heuristic node with dive number = 0, fix depth = 16 and tabu list size = 0
Fixed projected solution = [x_1_0_1_OspV=1, x_1_28_1_OspV=1, x_1_97_1_OspV=1, x_1_178_1_OspV=1]
<DWph=2> <it=  1> <et=44.12> <Mt= 0.02> <Spt= 0.00> <nCl=  0> <DB=   65.0000> <Mlp=   65.0000> <PB=1000000> 
<DWph=1> <it=  2> <et=44.12> <Mt= 0.00> <Spt= 0.00> <nCl=  0> <DB=   65.0000> <Mlp=   65.0000> <PB=1000000> 
---- Diving heuristic node with dive number = 0, fix depth = 17 and tabu list size = 0
Fixed projected solution = [x_1_0_1_OspV=1, x_1_49_1_OspV=1, x_1_110_1_OspV=1, x_1_167_1_OspV=1]
<DWph=2> <it=  1> <et=44.16> <Mt= 0.04> <Spt= 0.00> <nCl=  0> <DB=   65.0000> <Mlp=   65.0000> <PB=1000000> 
<DWph=1> <it=  2> <et=44.16> <Mt= 0.00> <Spt= 0.00> <nCl=  0> <DB=   65.0000> <Mlp=   65.0000> <PB=1000000> 
---- Diving heuristic node with dive number = 0, fix depth = 18 and tabu list size = 0
Fixed projected solution = [x_1_0_1_OspV=1, x_1_37_1_OspV=1, x_1_102_1_OspV=1, x_1_173_1_OspV=1]
<DWph=1> <it= 11> <et=45.59> <Mt= 0.12> <Spt= 1.31> <nCl=900> <DB=   65.0000> <Mlp=   65.0000> <PB=1000000> 
---- Diving heuristic node with dive number = 0, fix depth = 18 and tabu list size = 0
Fixed projected solution = [x_1_0_1_OspV=1, x_1_68_1_OspV=1, x_1_134_1_OspV=1, x_1_143_1_OspV=1]
<DWph=2> <it=  1> <et=45.61> <Mt= 0.00> <Spt= 0.00> <nCl=  0> <DB=   65.0000> <Mlp=   65.0000> <PB=1000000> 
<DWph=1> <it=  2> <et=45.61> <Mt= 0.00> <Spt= 0.00> <nCl=  0> <DB=   65.0000> <Mlp=   65.0000> <PB=1000000> 
---- Diving heuristic node with dive number = 0, fix depth = 19 and tabu list size = 0
Fixed projected solution = [x_1_0_1_OspV=1, x_1_14_1_OspV=1, x_1_79_1_OspV=1, x_1_195_1_OspV=1]
<DWph=2> <it=  1> <et=45.66> <Mt= 0.04> <Spt= 0.00> <nCl=  0> <DB=   65.0000> <Mlp=   65.0000> <PB=1000000> 
<DWph=1> <it=  2> <et=45.66> <Mt= 0.00> <Spt= 0.00> <nCl=  0> <DB=   65.0000> <Mlp=   65.0000> <PB=1000000> 
---- Diving heuristic node with dive number = 0, fix depth = 20 and tabu list size = 0
Fixed projected solution = [x_1_0_1_OspV=1, x_1_8_1_OspV=1, x_1_127_1_OspV=1, x_1_155_1_OspV=1]
<DWph=2> <it=  2> <et=45.87> <Mt= 0.06> <Spt= 0.14> <nCl=100> <DB=   64.9961> <Mlp=   65.0000> <PB=1000000> 
<DWph=1> <it=  3> <et=45.87> <Mt= 0.00> <Spt= 0.00> <nCl=  0> <DB=   65.0000> <Mlp=   65.0000> <PB=1000000> 
---- Diving heuristic node with dive number = 0, fix depth = 20 and tabu list size = 0
Fixed projected solution = [x_1_0_1_OspV=1, x_1_36_1_OspV=1, x_1_98_1_OspV=1, x_1_176_1_OspV=1]
<DWph=2> <it=  1> <et=45.88> <Mt= 0.00> <Spt= 0.00> <nCl=  0> <DB=   65.0000> <Mlp=   65.0000> <PB=1000000> 
<DWph=1> <it=  2> <et=45.89> <Mt= 0.00> <Spt= 0.00> <nCl=  0> <DB=   65.0000> <Mlp=   65.0000> <PB=1000000> 
---- Diving heuristic node with dive number = 0, fix depth = 21 and tabu list size = 0
Fixed projected solution = [x_1_0_1_OspV=1, x_1_35_1_OspV=1, x_1_61_1_OspV=1, x_1_202_1_OspV=1]
<DWph=2> <it=  6> <et=47.23> <Mt= 0.05> <Spt= 1.30> <nCl=449> <DB=   64.9489> <Mlp=   65.0000> <PB=1000000> 
<DWph=1> <it=  7> <et=47.24> <Mt= 0.00> <Spt= 0.00> <nCl=  0> <DB=   65.0000> <Mlp=   65.0000> <PB=1000000> 
---- Diving heuristic node with dive number = 0, fix depth = 22 and tabu list size = 0
Fixed projected solution = [x_1_0_1_OspV=1, x_1_19_1_OspV=1, x_1_83_1_OspV=1, x_1_191_1_OspV=1]
<DWph=2> <it=  1> <et=47.30> <Mt= 0.05> <Spt= 0.00> <nCl=  0> <DB=   65.0000> <Mlp=   65.0000> <PB=1000000> 
<DWph=1> <it=  2> <et=47.30> <Mt= 0.00> <Spt= 0.00> <nCl=  0> <DB=   65.0000> <Mlp=   65.0000> <PB=1000000> 
---- Diving heuristic node with dive number = 0, fix depth = 23 and tabu list size = 0
Fixed projected solution = [x_1_0_1_OspV=1, x_1_74_1_OspV=1, x_1_103_1_OspV=1, x_1_165_1_OspV=1]
<DWph=2> <it=  2> <et=47.52> <Mt= 0.07> <Spt= 0.14> <nCl= 34> <DB=   64.9959> <Mlp=   65.0000> <PB=1000000> 
<DWph=1> <it=  3> <et=47.52> <Mt= 0.00> <Spt= 0.00> <nCl=  0> <DB=   65.0000> <Mlp=   65.0000> <PB=1000000> 
---- Diving heuristic node with dive number = 0, fix depth = 23 and tabu list size = 0
Fixed projected solution = [x_1_0_1_OspV=1, x_1_27_1_OspV=1, x_1_125_1_OspV=1, x_1_152_1_OspV=1]
<DWph=2> <it=  1> <et=47.54> <Mt= 0.00> <Spt= 0.00> <nCl=  0> <DB=   65.0000> <Mlp=   65.0000> <PB=1000000> 
<DWph=1> <it=  2> <et=47.54> <Mt= 0.00> <Spt= 0.00> <nCl=  0> <DB=   65.0000> <Mlp=   65.0000> <PB=1000000> 
---- Diving heuristic node with dive number = 0, fix depth = 24 and tabu list size = 0
Fixed projected solution = [x_1_0_1_OspV=1, x_1_12_1_OspV=1, x_1_34_1_OspV=1, x_1_114_1_OspV=1, x_1_162_1_OspV=1]
<DWph=2> <it=  6> <et=48.73> <Mt= 0.14> <Spt= 1.05> <nCl=208> <DB=   64.9352> <Mlp=   65.0000> <PB=1000000> 
<DWph=1> <it=  7> <et=48.73> <Mt= 0.00> <Spt= 0.00> <nCl=  0> <DB=   65.0000> <Mlp=   65.0000> <PB=1000000> 
---- Diving heuristic node with dive number = 0, fix depth = 25 and tabu list size = 0
Fixed projected solution = [x_1_0_1_OspV=1, x_1_52_1_OspV=1, x_1_56_1_OspV=1, x_1_200_1_OspV=1]
<DWph=2> <it=  1> <et=48.81> <Mt= 0.06> <Spt= 0.00> <nCl=  0> <DB=   65.0000> <Mlp=   65.0000> <PB=1000000> 
<DWph=1> <it=  2> <et=48.81> <Mt= 0.00> <Spt= 0.00> <nCl=  0> <DB=   65.0000> <Mlp=   65.0000> <PB=1000000> 
---- Diving heuristic node with dive number = 0, fix depth = 26 and tabu list size = 0
Fixed projected solution = [x_1_0_1_OspV=1, x_1_22_1_OspV=1, x_1_131_1_OspV=1, x_1_146_1_OspV=1]
<DWph=2> <it=  5> <et=49.65> <Mt= 0.19> <Spt= 0.61> <nCl=400> <DB=   64.9250> <Mlp=   65.0000> <PB=1000000> 
<DWph=1> <it=  6> <et=49.65> <Mt= 0.00> <Spt= 0.00> <nCl=  0> <DB=   65.0000> <Mlp=   65.0000> <PB=1000000> 
---- Diving heuristic node with dive number = 0, fix depth = 26 and tabu list size = 0
Fixed projected solution = [x_1_0_1_OspV=1, x_1_40_1_OspV=1, x_1_118_1_OspV=1, x_1_160_1_OspV=1]
<DWph=2> <it=  1> <et=49.66> <Mt= 0.00> <Spt= 0.00> <nCl=  0> <DB=   65.0000> <Mlp=   65.0000> <PB=1000000> 
<DWph=1> <it=  2> <et=49.66> <Mt= 0.00> <Spt= 0.00> <nCl=  0> <DB=   65.0000> <Mlp=   65.0000> <PB=1000000> 
---- Diving heuristic node with dive number = 0, fix depth = 27 and tabu list size = 0
Fixed projected solution = [x_1_0_1_OspV=1, x_1_13_1_OspV=1, x_1_72_1_OspV=1, x_1_199_1_OspV=1]
<DWph=2> <it= 10> <et=51.32> <Mt= 0.17> <Spt= 1.48> <nCl=416> <DB=   64.9960> <Mlp=   65.0003> <PB=1000000> 
<DWph=2> <it= 20> <et=52.97> <Mt= 0.05> <Spt= 1.60> <nCl=350> <DB=   64.9853> <Mlp=   65.0002> <PB=1000000> 
<DWph=2> <it= 30> <et=54.60> <Mt= 0.05> <Spt= 1.57> <nCl=222> <DB=   64.9900> <Mlp=   65.0001> <PB=1000000> 
<DWph=2> <it= 34> <et=55.47> <Mt= 0.02> <Spt= 0.86> <nCl= 51> <DB=   65.0001> <Mlp=   65.0001> <PB=1000000> 
<DWph=1> <it= 40> <et=56.73> <Mt= 0.01> <Spt= 1.24> <nCl=162> <DB=   65.0001> <Mlp=   65.0001> <PB=1000000> 
---- Diving heuristic node with dive number = 0, fix depth = 28 and tabu list size = 0
Fixed projected solution = [x_1_0_1_OspV=1, x_1_54_1_OspV=1, x_1_92_1_OspV=1, x_1_177_1_OspV=1]
<DWph=2> <it=  2> <et=57.32> <Mt= 0.02> <Spt= 0.57> <nCl= 12> <DB=   65.0001> <Mlp=   65.0001> <PB=1000000> 
<DWph=1> <it=  4> <et=57.80> <Mt= 0.00> <Spt= 0.46> <nCl=  2> <DB=   65.0001> <Mlp=   65.0001> <PB=1000000> 
---- Diving heuristic node with dive number = 0, fix depth = 29 and tabu list size = 0
Fixed projected solution = [x_1_0_1_OspV=1, x_1_29_1_OspV=1, x_1_85_1_OspV=1, x_1_187_1_OspV=1]
<DWph=2> <it=  6> <et=59.32> <Mt= 0.04> <Spt= 1.48> <nCl=151> <DB=   65.0001> <Mlp=   65.0001> <PB=1000000> 
<DWph=1> <it=  9> <et=59.96> <Mt= 0.01> <Spt= 0.62> <nCl= 18> <DB=   65.0001> <Mlp=   65.0001> <PB=1000000> 
---- Diving heuristic node with dive number = 0, fix depth = 30 and tabu list size = 0
Fixed projected solution = [x_1_0_1_OspV=1, x_1_17_1_OspV=1, x_1_81_1_OspV=1, x_1_193_1_OspV=1]
<DWph=2> <it=  7> <et=61.67> <Mt= 0.07> <Spt= 1.62> <nCl=265> <DB=   65.0002> <Mlp=   65.0002> <PB=1000000> 
<DWph=1> <it= 10> <et=62.31> <Mt= 0.01> <Spt= 0.63> <nCl= 61> <DB=   65.0002> <Mlp=   65.0002> <PB=1000000> 
---- Diving heuristic node with dive number = 0, fix depth = 31 and tabu list size = 0
Fixed projected solution = [x_1_0_1_OspV=1, x_1_38_1_OspV=1, x_1_45_1_OspV=1, x_1_137_1_OspV=1, x_1_139_1_OspV=1]
<DWph=2> <it=  7> <et=63.92> <Mt= 0.03> <Spt= 1.57> <nCl= 87> <DB=   65.0002> <Mlp=   65.0002> <PB=1000000> 
<DWph=1> <it=  8> <et=64.24> <Mt= 0.00> <Spt= 0.31> <nCl=  0> <DB=   65.0002> <Mlp=   65.0002> <PB=1000000> 
---- Diving heuristic node with dive number = 0, fix depth = 32 and tabu list size = 0
Fixed projected solution = [x_1_0_1_OspV=1, x_1_48_1_OspV=1, x_1_87_1_OspV=1, x_1_182_1_OspV=1]
<DWph=2> <it= 10> <et=66.40> <Mt= 0.14> <Spt= 2.01> <nCl=547> <DB=   65.0003> <Mlp=   65.0003> <PB=1000000> 
<DWph=1> <it= 12> <et=66.87> <Mt= 0.01> <Spt= 0.47> <nCl=  2> <DB=   65.0003> <Mlp=   65.0003> <PB=1000000> 
---- Diving heuristic node with dive number = 0, fix depth = 33 and tabu list size = 0
Fixed projected solution = [x_1_0_1_OspV=1, x_1_5_1_OspV=1, x_1_73_1_OspV=1, x_1_201_1_OspV=1]
<DWph=2> <it=  6> <et=68.34> <Mt= 0.11> <Spt= 1.28> <nCl=287> <DB=   65.0004> <Mlp=   65.0004> <PB=1000000> 
<DWph=1> <it=  7> <et=68.65> <Mt= 0.00> <Spt= 0.32> <nCl=  0> <DB=   65.0004> <Mlp=   65.0004> <PB=1000000> 
---- Diving heuristic node with dive number = 0, fix depth = 34 and tabu list size = 0
Fixed projected solution = [x_1_0_1_OspV=1, x_1_11_1_OspV=1, x_1_75_1_OspV=1, x_1_196_1_OspV=1]
<DWph=2> <it=  6> <et=70.00> <Mt= 0.05> <Spt= 1.28> <nCl=219> <DB=   65.0005> <Mlp=   65.0005> <PB=1000000> 
<DWph=1> <it= 10> <et=70.63> <Mt= 0.01> <Spt= 0.62> <nCl= 72> <DB=   64.9961> <Mlp=   65.0005> <PB=1000000> 
<DWph=1> <it= 11> <et=70.95> <Mt= 0.01> <Spt= 0.31> <nCl=  0> <DB=   65.0005> <Mlp=   65.0005> <PB=1000000> 
---- Diving heuristic node with dive number = 0, fix depth = 35 and tabu list size = 0
Fixed projected solution = [x_1_0_1_OspV=1, x_1_70_1_OspV=1, x_1_78_1_OspV=1, x_1_183_1_OspV=1]
<DWph=2> <it=  1> <et=71.25> <Mt= 0.00> <Spt= 0.29> <nCl=  0> <DB=   65.0005> <Mlp=   65.0005> <PB=1000000> 
<DWph=1> <it=  2> <et=71.56> <Mt= 0.00> <Spt= 0.31> <nCl=  0> <DB=   65.0005> <Mlp=   65.0005> <PB=1000000> 
---- Diving heuristic node with dive number = 0, fix depth = 36 and tabu list size = 0
Fixed projected solution = [x_1_0_1_OspV=1, x_1_59_1_OspV=1, x_1_124_1_OspV=1, x_1_151_1_OspV=1]
<DWph=2> <it=  9> <et=73.69> <Mt= 0.11> <Spt= 2.00> <nCl=418> <DB=   65.0007> <Mlp=   65.0007> <PB=1000000> 
<DWph=1> <it= 10> <et=73.85> <Mt= 0.00> <Spt= 0.16> <nCl= 18> <DB=   64.9899> <Mlp=   65.0007> <PB=1000000> 
<DWph=1> <it= 13> <et=74.48> <Mt= 0.01> <Spt= 0.62> <nCl= 36> <DB=   65.0007> <Mlp=   65.0007> <PB=1000000> 
---- Diving heuristic node with dive number = 0, fix depth = 37 and tabu list size = 0
Fixed projected solution = [x_1_0_1_OspV=1, x_1_55_1_OspV=1, x_1_119_1_OspV=1, x_1_157_1_OspV=1]
<DWph=2> <it= 10> <et=76.49> <Mt= 0.06> <Spt= 1.93> <nCl=316> <DB=   64.9978> <Mlp=   65.0007> <PB=1000000> 
<DWph=2> <it= 11> <et=76.79> <Mt= 0.00> <Spt= 0.30> <nCl=  0> <DB=   65.0007> <Mlp=   65.0007> <PB=1000000> 
<DWph=1> <it= 15> <et=77.60> <Mt= 0.02> <Spt= 0.80> <nCl=144> <DB=   65.0007> <Mlp=   65.0007> <PB=1000000> 
---- Diving heuristic node with dive number = 0, fix depth = 38 and tabu list size = 0
Fixed projected solution = [x_1_0_1_OspV=1, x_1_50_1_OspV=1, x_1_112_1_OspV=1, x_1_164_1_OspV=1]
<DWph=2> <it=  2> <et=78.25> <Mt= 0.04> <Spt= 0.58> <nCl= 10> <DB=   65.0008> <Mlp=   65.0008> <PB=1000000> 
<DWph=1> <it=  3> <et=78.58> <Mt= 0.00> <Spt= 0.32> <nCl=  0> <DB=   65.0008> <Mlp=   65.0008> <PB=1000000> 
---- Diving heuristic node with dive number = 0, fix depth = 39 and tabu list size = 0
Fixed projected solution = [x_1_0_1_OspV=1, x_1_20_1_OspV=1, x_1_24_1_OspV=1, x_1_117_1_OspV=1, x_1_158_1_OspV=1]
<DWph=2> <it=  1> <et=78.93> <Mt= 0.06> <Spt= 0.29> <nCl=  0> <DB=   65.0008> <Mlp=   65.0008> <PB=1000000> 
<DWph=1> <it=  2> <et=79.25> <Mt= 0.00> <Spt= 0.31> <nCl=  0> <DB=   65.0008> <Mlp=   65.0008> <PB=1000000> 
---- Diving heuristic node with dive number = 0, fix depth = 40 and tabu list size = 0
Fixed projected solution = [x_1_0_1_OspV=1, x_1_91_1_OspV=1, x_1_189_1_OspV=1]
<DWph=2> <it=  1> <et=79.61> <Mt= 0.07> <Spt= 0.29> <nCl=  0> <DB=   65.0008> <Mlp=   65.0008> <PB=1000000> 
<DWph=1> <it=  2> <et=79.93> <Mt= 0.00> <Spt= 0.31> <nCl=  0> <DB=   65.0008> <Mlp=   65.0008> <PB=1000000> 
---- Diving heuristic node with dive number = 0, fix depth = 40 and tabu list size = 0
Fixed projected solution = [x_1_0_1_OspV=1, x_1_7_1_OspV=1, x_1_76_1_OspV=1, x_1_197_1_OspV=1]
<DWph=2> <it=  1> <et=80.23> <Mt= 0.00> <Spt= 0.28> <nCl=  0> <DB=   65.0008> <Mlp=   65.0008> <PB=1000000> 
<DWph=1> <it=  2> <et=80.54> <Mt= 0.00> <Spt= 0.31> <nCl=  0> <DB=   65.0008> <Mlp=   65.0008> <PB=1000000> 
---- Diving heuristic node with dive number = 0, fix depth = 41 and tabu list size = 0
Fixed projected solution = [x_1_0_1_OspV=1, x_1_67_1_OspV=1, x_1_96_1_OspV=1, x_1_168_1_OspV=1]
<DWph=2> <it= 10> <et=81.86> <Mt= 0.17> <Spt= 1.13> <nCl=1000> <DB=   11.4098> <Mlp=   65.0427> <PB=1000000> 
<DWph=2> <it= 20> <et=83.20> <Mt= 0.03> <Spt= 1.24> <nCl=1000> <DB=   53.3221> <Mlp=   65.0427> <PB=1000000> 
<DWph=2> <it= 30> <et=84.59> <Mt= 0.04> <Spt= 1.35> <nCl=1000> <DB=   64.5317> <Mlp=   65.0373> <PB=1000000> 
<DWph=2> <it= 40> <et=86.04> <Mt= 0.04> <Spt= 1.40> <nCl=1000> <DB=   64.8900> <Mlp=   65.0369> <PB=1000000> 
<DWph=2> <it= 50> <et=87.61> <Mt= 0.05> <Spt= 1.47> <nCl=1000> <DB=   64.9828> <Mlp=   65.0303> <PB=1000000> 
<DWph=2> <it= 60> <et=89.49> <Mt= 0.04> <Spt= 1.84> <nCl=566> <DB=   64.9601> <Mlp=   65.0013> <PB=1000000> 
<DWph=2> <it= 70> <et=91.10> <Mt= 0.03> <Spt= 1.57> <nCl=446> <DB=   64.9712> <Mlp=   65.0011> <PB=1000000> 
<DWph=2> <it= 76> <et=92.53> <Mt= 0.02> <Spt= 1.41> <nCl=253> <DB=   65.0011> <Mlp=   65.0011> <PB=1000000> 
<DWph=1> <it= 77> <et=92.83> <Mt= 0.00> <Spt= 0.30> <nCl=  0> <DB=   65.0011> <Mlp=   65.0011> <PB=1000000> 
---- Diving heuristic node with dive number = 0, fix depth = 42 and tabu list size = 0
Fixed projected solution = [x_1_0_1_OspV=1, x_1_10_1_OspV=1, x_1_138_1_OspV=1, x_1_145_1_OspV=1]
<DWph=2> <it= 10> <et=94.59> <Mt= 0.14> <Spt= 1.60> <nCl=673> <DB=   64.9322> <Mlp=   65.0016> <PB=1000000> 
<DWph=2> <it= 16> <et=96.00> <Mt= 0.02> <Spt= 1.39> <nCl=222> <DB=   65.0016> <Mlp=   65.0016> <PB=1000000> 
<DWph=1> <it= 17> <et=96.29> <Mt= 0.00> <Spt= 0.28> <nCl=  0> <DB=   65.0016> <Mlp=   65.0016> <PB=1000000> 
---- Diving heuristic node with dive number = 0, fix depth = 43 and tabu list size = 0
Fixed projected solution = [x_1_0_1_OspV=1, x_1_9_1_OspV=1, x_1_130_1_OspV=1, x_1_149_1_OspV=1]
<DWph=2> <it=  8> <et=98.03> <Mt= 0.07> <Spt= 1.66> <nCl=421> <DB=   65.0018> <Mlp=   65.0018> <PB=1000000> 
<DWph=1> <it= 10> <et=98.48> <Mt= 0.00> <Spt= 0.44> <nCl=  2> <DB=   65.0018> <Mlp=   65.0018> <PB=1000000> 
---- Diving heuristic node with dive number = 0, fix depth = 44 and tabu list size = 0
Fixed projected solution = [x_1_0_1_OspV=1, x_1_41_1_OspV=1, x_1_107_1_OspV=1, x_1_169_1_OspV=1]
<DWph=2> <it=  4> <et=99.30> <Mt= 0.05> <Spt= 0.69> <nCl=331> <DB=   64.9308> <Mlp=   65.0018> <PB=1000000> 
<DWph=1> <it=  7> <et=100.04> <Mt= 0.01> <Spt= 0.73> <nCl= 16> <DB=   65.0018> <Mlp=   65.0018> <PB=1000000> 
---- Diving heuristic node with dive number = 0, fix depth = 45 and tabu list size = 0
Fixed projected solution = [x_1_0_1_OspV=1, x_1_64_1_OspV=1, x_1_113_1_OspV=1, x_1_115_1_OspV=1, x_1_133_1_OspV=1]
<DWph=2> <it= 10> <et=101.28> <Mt= 0.10> <Spt= 1.13> <nCl=1000> <DB=-422873460.1508> <Mlp=729302.7992> <PB=1000000> 
<DWph=2> <it= 20> <et=102.48> <Mt= 0.03> <Spt= 1.15> <nCl=1000> <DB=-11428132.2238> <Mlp=   65.0169> <PB=1000000> 
<DWph=2> <it= 30> <et=103.95> <Mt= 0.04> <Spt= 1.44> <nCl=638> <DB=   65.0031> <Mlp=   65.0115> <PB=1000000> 
<DWph=2> <it= 40> <et=105.45> <Mt= 0.05> <Spt= 1.39> <nCl=418> <DB=   64.8574> <Mlp=   65.0074> <PB=1000000> 
<DWph=2> <it= 43> <et=106.15> <Mt= 0.00> <Spt= 0.69> <nCl=118> <DB=   65.0070> <Mlp=   65.0070> <PB=1000000> 
<DWph=1> <it= 44> <et=106.48> <Mt= 0.01> <Spt= 0.33> <nCl=  0> <DB=   65.0070> <Mlp=   65.0070> <PB=1000000> 
---- Diving heuristic node with dive number = 0, fix depth = 46 and tabu list size = 0
Fixed projected solution = [x_1_0_1_OspV=1, x_1_77_1_OspV=1, x_1_198_1_OspV=1]
<DWph=2> <it=  3> <et=107.07> <Mt= 0.01> <Spt= 0.55> <nCl=151> <DB=   65.0141> <Mlp=   65.0141> <PB=1000000> 
<DWph=1> <it=  4> <et=107.28> <Mt= 0.01> <Spt= 0.21> <nCl=  0> <DB=   65.0141> <Mlp=   65.0141> <PB=1000000> 
---- Diving heuristic node with dive number = 0, fix depth = 47 and tabu list size = 0
Fixed projected solution = [x_1_0_1_OspV=1, x_1_4_1_OspV=1, x_1_6_1_OspV=1, x_1_51_1_OspV=1, x_1_129_1_OspV=1, x_1_147_1_OspV=1]
<DWph=2> <it= 10> <et=108.44> <Mt= 0.05> <Spt= 1.08> <nCl=1000> <DB=-77410112.6378> <Mlp=28015.3494> <PB=1000000> 
<DWph=2> <it= 20> <et=109.55> <Mt= 0.04> <Spt= 1.08> <nCl=935> <DB=   64.2762> <Mlp=   65.0225> <PB=1000000> 
<DWph=2> <it= 30> <et=111.00> <Mt= 0.03> <Spt= 1.41> <nCl=528> <DB=   65.0180> <Mlp=   65.0183> <PB=1000000> 
<DWph=2> <it= 34> <et=111.88> <Mt= 0.01> <Spt= 0.88> <nCl= 24> <DB=   65.0183> <Mlp=   65.0183> <PB=1000000> 
<DWph=1> <it= 35> <et=112.11> <Mt= 0.00> <Spt= 0.22> <nCl=  0> <DB=   65.0183> <Mlp=   65.0183> <PB=1000000> 
---- Diving heuristic node with dive number = 0, fix depth = 48 and tabu list size = 0
Fixed projected solution = [x_1_0_1_OspV=1, x_1_2_1_OspV=1, x_1_121_1_OspV=1, x_1_161_1_OspV=1]
<DWph=2> <it=  3> <et=112.73> <Mt= 0.02> <Spt= 0.58> <nCl=200> <DB=   66.0000> <Mlp=   66.0000> <PB=1000000> 
<DWph=1> <it=  4> <et=113.04> <Mt= 0.00> <Spt= 0.23> <nCl=  0> <DB=   66.0000> <Mlp=   66.0000> <PB=1000000> 
---- Diving heuristic node with dive number = 0, fix depth = 49 and tabu list size = 0
Fixed projected solution = [x_1_0_1_OspV=1, x_1_89_1_OspV=1]
<DWph=2> <it=  5> <et=113.92> <Mt= 0.03> <Spt= 0.84> <nCl=400> <DB=   66.0000> <Mlp=   66.0000> <PB=66> 
<DWph=1> <it=  6> <et=114.26> <Mt= 0.00> <Spt= 0.34> <nCl=  0> <DB=   66.0000> <Mlp=   66.0000> <PB=66> 
---- Diving heuristic node with dive number = 1, fix depth = 2 and tabu list size = 1
Fixed projected solution = [x_1_0_1_OspV=1, x_1_30_1_OspV=1, x_1_90_1_OspV=1, x_1_184_1_OspV=1]
<DWph=2> <it=  1> <et=114.65> <Mt= 0.00> <Spt= 0.00> <nCl=  0> <DB=   65.0000> <Mlp=   65.0000> <PB=66> 
<DWph=1> <it=  2> <et=114.65> <Mt= 0.00> <Spt= 0.00> <nCl=  0> <DB=   65.0000> <Mlp=   65.0000> <PB=66> 
---- Diving heuristic node with dive number = 1, fix depth = 3 and tabu list size = 1
Fixed projected solution = [x_1_0_1_OspV=1, x_1_18_1_OspV=1, x_1_82_1_OspV=1, x_1_192_1_OspV=1]
<DWph=2> <it=  1> <et=114.68> <Mt= 0.01> <Spt= 0.00> <nCl=  0> <DB=   65.0000> <Mlp=   65.0000> <PB=66> 
<DWph=1> <it=  2> <et=114.68> <Mt= 0.00> <Spt= 0.00> <nCl=  0> <DB=   65.0000> <Mlp=   65.0000> <PB=66> 
---- Diving heuristic node with dive number = 1, fix depth = 4 and tabu list size = 1
Fixed projected solution = [x_1_0_1_OspV=1, x_1_57_1_OspV=1, x_1_120_1_OspV=1, x_1_156_1_OspV=1]
<DWph=2> <it=  1> <et=114.70> <Mt= 0.01> <Spt= 0.00> <nCl=  0> <DB=   65.0000> <Mlp=   65.0000> <PB=66> 
<DWph=1> <it=  2> <et=114.70> <Mt= 0.00> <Spt= 0.00> <nCl=  0> <DB=   65.0000> <Mlp=   65.0000> <PB=66> 
---- Diving heuristic node with dive number = 1, fix depth = 4 and tabu list size = 1
Fixed projected solution = [x_1_0_1_OspV=1, x_1_69_1_OspV=1, x_1_136_1_OspV=1, x_1_140_1_OspV=1]
<DWph=2> <it=  1> <et=114.72> <Mt= 0.00> <Spt= 0.00> <nCl=  0> <DB=   65.0000> <Mlp=   65.0000> <PB=66> 
<DWph=1> <it=  2> <et=114.72> <Mt= 0.01> <Spt= 0.00> <nCl=  0> <DB=   65.0000> <Mlp=   65.0000> <PB=66> 
---- Diving heuristic node with dive number = 1, fix depth = 4 and tabu list size = 1
Fixed projected solution = [x_1_0_1_OspV=1, x_1_66_1_OspV=1, x_1_135_1_OspV=1, x_1_141_1_OspV=1]
<DWph=2> <it=  1> <et=114.73> <Mt= 0.00> <Spt= 0.00> <nCl=  0> <DB=   65.0000> <Mlp=   65.0000> <PB=66> 
<DWph=1> <it=  2> <et=114.73> <Mt= 0.00> <Spt= 0.00> <nCl=  0> <DB=   65.0000> <Mlp=   65.0000> <PB=66> 
---- Diving heuristic node with dive number = 1, fix depth = 5 and tabu list size = 1
Fixed projected solution = [x_1_0_1_OspV=1, x_1_47_1_OspV=1, x_1_111_1_OspV=1, x_1_166_1_OspV=1]
<DWph=2> <it=  1> <et=114.75> <Mt= 0.00> <Spt= 0.00> <nCl=  0> <DB=   65.0000> <Mlp=   65.0000> <PB=66> 
<DWph=1> <it=  2> <et=114.75> <Mt= 0.00> <Spt= 0.00> <nCl=  0> <DB=   65.0000> <Mlp=   65.0000> <PB=66> 
---- Diving heuristic node with dive number = 1, fix depth = 6 and tabu list size = 1
Fixed projected solution = [x_1_0_1_OspV=1, x_1_44_1_OspV=1, x_1_106_1_OspV=1, x_1_170_1_OspV=1]
