Application parameters:
  batch  =>  nothing
  instance  =>  "/IN/402_10000_DI_9.txt-Q2"
  ub  =>  1.0e6
  cfg  =>  "/CFG/BPP.cfg"
data = Colored Bin Packing dataset.
number of items = 403
number of colors = 2
capacity = 9808
Items : 
	 item 1, weight= 32, color= 0
	 item 2, weight= 64, color= 1
	 item 3, weight= 72, color= 1
	 item 4, weight= 88, color= 0
	 item 5, weight= 88, color= 1
	 item 6, weight= 112, color= 1
	 item 7, weight= 128, color= 1
	 item 8, weight= 144, color= 1
	 item 9, weight= 148, color= 1
	 item 10, weight= 152, color= 0
	 item 11, weight= 152, color= 1
	 item 12, weight= 158, color= 0
	 item 13, weight= 160, color= 0
	 item 14, weight= 160, color= 1
	 item 15, weight= 160, color= 1
	 item 16, weight= 160, color= 1
	 item 17, weight= 160, color= 1
	 item 18, weight= 168, color= 1
	 item 19, weight= 172, color= 0
	 item 20, weight= 176, color= 0
	 item 21, weight= 176, color= 1
	 item 22, weight= 184, color= 0
	 item 23, weight= 184, color= 1
	 item 24, weight= 184, color= 1
	 item 25, weight= 186, color= 0
	 item 26, weight= 186, color= 1
	 item 27, weight= 188, color= 0
	 item 28, weight= 192, color= 0
	 item 29, weight= 196, color= 1
	 item 30, weight= 200, color= 1
	 item 31, weight= 206, color= 0
	 item 32, weight= 208, color= 0
	 item 33, weight= 210, color= 0
	 item 34, weight= 212, color= 1
	 item 35, weight= 216, color= 0
	 item 36, weight= 216, color= 1
	 item 37, weight= 220, color= 1
	 item 38, weight= 224, color= 0
	 item 39, weight= 230, color= 0
	 item 40, weight= 232, color= 1
	 item 41, weight= 234, color= 0
	 item 42, weight= 236, color= 1
	 item 43, weight= 238, color= 1
	 item 44, weight= 240, color= 0
	 item 45, weight= 240, color= 0
	 item 46, weight= 244, color= 1
	 item 47, weight= 248, color= 1
	 item 48, weight= 252, color= 0
	 item 49, weight= 254, color= 1
	 item 50, weight= 256, color= 1
	 item 51, weight= 258, color= 0
	 item 52, weight= 260, color= 0
	 item 53, weight= 262, color= 0
	 item 54, weight= 264, color= 0
	 item 55, weight= 268, color= 0
	 item 56, weight= 268, color= 0
	 item 57, weight= 272, color= 0
	 item 58, weight= 274, color= 0
	 item 59, weight= 274, color= 0
	 item 60, weight= 276, color= 0
	 item 61, weight= 280, color= 0
	 item 62, weight= 280, color= 1
	 item 63, weight= 282, color= 1
	 item 64, weight= 288, color= 1
	 item 65, weight= 296, color= 0
	 item 66, weight= 296, color= 1
	 item 67, weight= 300, color= 0
	 item 68, weight= 300, color= 1
	 item 69, weight= 304, color= 0
	 item 70, weight= 306, color= 1
	 item 71, weight= 320, color= 1
	 item 72, weight= 326, color= 0
	 item 73, weight= 328, color= 0
	 item 74, weight= 328, color= 0
	 item 75, weight= 328, color= 1
	 item 76, weight= 332, color= 0
	 item 77, weight= 332, color= 1
	 item 78, weight= 336, color= 1
	 item 79, weight= 336, color= 1
	 item 80, weight= 340, color= 1
	 item 81, weight= 350, color= 0
	 item 82, weight= 352, color= 1
	 item 83, weight= 368, color= 0
	 item 84, weight= 372, color= 0
	 item 85, weight= 384, color= 1
	 item 86, weight= 384, color= 1
	 item 87, weight= 388, color= 0
	 item 88, weight= 392, color= 0
	 item 89, weight= 408, color= 1
	 item 90, weight= 412, color= 0
	 item 91, weight= 420, color= 0
	 item 92, weight= 432, color= 1
	 item 93, weight= 440, color= 1
	 item 94, weight= 442, color= 1
	 item 95, weight= 464, color= 1
	 item 96, weight= 468, color= 1
	 item 97, weight= 474, color= 1
	 item 98, weight= 480, color= 0
	 item 99, weight= 480, color= 1
	 item 100, weight= 488, color= 1
	 item 101, weight= 496, color= 0
	 item 102, weight= 498, color= 0
	 item 103, weight= 528, color= 0
	 item 104, weight= 528, color= 1
	 item 105, weight= 532, color= 1
	 item 106, weight= 536, color= 0
	 item 107, weight= 544, color= 1
	 item 108, weight= 560, color= 0
	 item 109, weight= 572, color= 0
	 item 110, weight= 576, color= 1
	 item 111, weight= 584, color= 0
	 item 112, weight= 592, color= 1
	 item 113, weight= 608, color= 0
	 item 114, weight= 608, color= 1
	 item 115, weight= 616, color= 1
	 item 116, weight= 632, color= 1
	 item 117, weight= 640, color= 1
	 item 118, weight= 672, color= 0
	 item 119, weight= 680, color= 0
	 item 120, weight= 680, color= 0
	 item 121, weight= 696, color= 0
	 item 122, weight= 700, color= 1
	 item 123, weight= 700, color= 1
	 item 124, weight= 708, color= 1
	 item 125, weight= 708, color= 1
	 item 126, weight= 708, color= 1
	 item 127, weight= 752, color= 1
	 item 128, weight= 760, color= 0
	 item 129, weight= 800, color= 0
	 item 130, weight= 808, color= 1
	 item 131, weight= 808, color= 1
	 item 132, weight= 808, color= 1
	 item 133, weight= 816, color= 0
	 item 134, weight= 816, color= 0
	 item 135, weight= 816, color= 0
	 item 136, weight= 816, color= 1
	 item 137, weight= 828, color= 0
	 item 138, weight= 846, color= 0
	 item 139, weight= 856, color= 0
	 item 140, weight= 864, color= 0
	 item 141, weight= 874, color= 1
	 item 142, weight= 888, color= 0
	 item 143, weight= 890, color= 1
	 item 144, weight= 908, color= 0
	 item 145, weight= 932, color= 0
	 item 146, weight= 966, color= 1
	 item 147, weight= 968, color= 1
	 item 148, weight= 980, color= 0
	 item 149, weight= 986, color= 0
	 item 150, weight= 1036, color= 0
	 item 151, weight= 1039, color= 1
	 item 152, weight= 1051, color= 1
	 item 153, weight= 1063, color= 0
	 item 154, weight= 1064, color= 0
	 item 155, weight= 1074, color= 1
	 item 156, weight= 1102, color= 1
	 item 157, weight= 1102, color= 1
	 item 158, weight= 1105, color= 0
	 item 159, weight= 1108, color= 0
	 item 160, weight= 1169, color= 0
	 item 161, weight= 1175, color= 1
	 item 162, weight= 1184, color= 0
	 item 163, weight= 1186, color= 0
	 item 164, weight= 1188, color= 1
	 item 165, weight= 1192, color= 1
	 item 166, weight= 1194, color= 0
	 item 167, weight= 1195, color= 0
	 item 168, weight= 1218, color= 1
	 item 169, weight= 1242, color= 0
	 item 170, weight= 1244, color= 1
	 item 171, weight= 1250, color= 0
	 item 172, weight= 1269, color= 0
	 item 173, weight= 1279, color= 0
	 item 174, weight= 1288, color= 1
	 item 175, weight= 1295, color= 0
	 item 176, weight= 1316, color= 0
	 item 177, weight= 1319, color= 0
	 item 178, weight= 1326, color= 0
	 item 179, weight= 1330, color= 1
	 item 180, weight= 1350, color= 0
	 item 181, weight= 1358, color= 0
	 item 182, weight= 1371, color= 0
	 item 183, weight= 1379, color= 1
	 item 184, weight= 1382, color= 1
	 item 185, weight= 1400, color= 1
	 item 186, weight= 1404, color= 1
	 item 187, weight= 1406, color= 0
	 item 188, weight= 1419, color= 0
	 item 189, weight= 1427, color= 0
	 item 190, weight= 1440, color= 1
	 item 191, weight= 1490, color= 1
	 item 192, weight= 1503, color= 0
	 item 193, weight= 1504, color= 0
	 item 194, weight= 1516, color= 0
	 item 195, weight= 1518, color= 1
	 item 196, weight= 1537, color= 0
	 item 197, weight= 1544, color= 1
	 item 198, weight= 1601, color= 0
	 item 199, weight= 1644, color= 1
	 item 200, weight= 1650, color= 1
	 item 201, weight= 1670, color= 1
	 item 202, weight= 1678, color= 0
	 item 203, weight= 1687, color= 0
	 item 204, weight= 1702, color= 0
	 item 205, weight= 1720, color= 1
	 item 206, weight= 1757, color= 0
	 item 207, weight= 1804, color= 0
	 item 208, weight= 1846, color= 0
	 item 209, weight= 1856, color= 1
	 item 210, weight= 1874, color= 1
	 item 211, weight= 1909, color= 1
	 item 212, weight= 1925, color= 1
	 item 213, weight= 1928, color= 0
	 item 214, weight= 1943, color= 1
	 item 215, weight= 1988, color= 0
	 item 216, weight= 2021, color= 1
	 item 217, weight= 2050, color= 1
	 item 218, weight= 2078, color= 1
	 item 219, weight= 2105, color= 1
	 item 220, weight= 2184, color= 0
	 item 221, weight= 2190, color= 1
	 item 222, weight= 2212, color= 0
	 item 223, weight= 2215, color= 0
	 item 224, weight= 2322, color= 0
	 item 225, weight= 2350, color= 0
	 item 226, weight= 2371, color= 1
	 item 227, weight= 2488, color= 1
	 item 228, weight= 2491, color= 1
	 item 229, weight= 2495, color= 1
	 item 230, weight= 2516, color= 1
	 item 231, weight= 2596, color= 1
	 item 232, weight= 2643, color= 1
	 item 233, weight= 2650, color= 1
	 item 234, weight= 2678, color= 0
	 item 235, weight= 2686, color= 1
	 item 236, weight= 2708, color= 0
	 item 237, weight= 2840, color= 1
	 item 238, weight= 2869, color= 1
	 item 239, weight= 2892, color= 1
	 item 240, weight= 2908, color= 1
	 item 241, weight= 2932, color= 1
	 item 242, weight= 3042, color= 0
	 item 243, weight= 3054, color= 0
	 item 244, weight= 3091, color= 1
	 item 245, weight= 3272, color= 0
	 item 246, weight= 3388, color= 1
	 item 247, weight= 3412, color= 1
	 item 248, weight= 3444, color= 1
	 item 249, weight= 3494, color= 1
	 item 250, weight= 3514, color= 1
	 item 251, weight= 3519, color= 0
	 item 252, weight= 3522, color= 0
	 item 253, weight= 3540, color= 1
	 item 254, weight= 3541, color= 1
	 item 255, weight= 3543, color= 0
	 item 256, weight= 3546, color= 0
	 item 257, weight= 3712, color= 0
	 item 258, weight= 3784, color= 0
	 item 259, weight= 3818, color= 1
	 item 260, weight= 4044, color= 0
	 item 261, weight= 4052, color= 0
	 item 262, weight= 4068, color= 0
	 item 263, weight= 4084, color= 0
	 item 264, weight= 4084, color= 1
	 item 265, weight= 4085, color= 1
	 item 266, weight= 4086, color= 1
	 item 267, weight= 4087, color= 1
	 item 268, weight= 4240, color= 0
	 item 269, weight= 4408, color= 0
	 item 270, weight= 4410, color= 1
	 item 271, weight= 4584, color= 1
	 item 272, weight= 4792, color= 1
	 item 273, weight= 4800, color= 0
	 item 274, weight= 4904, color= 0
	 item 275, weight= 4905, color= 0
	 item 276, weight= 4906, color= 0
	 item 277, weight= 4907, color= 1
	 item 278, weight= 4908, color= 0
	 item 279, weight= 4910, color= 0
	 item 280, weight= 4916, color= 1
	 item 281, weight= 4920, color= 1
	 item 282, weight= 4932, color= 0
	 item 283, weight= 4936, color= 0
	 item 284, weight= 4948, color= 0
	 item 285, weight= 4964, color= 1
	 item 286, weight= 5230, color= 0
	 item 287, weight= 5272, color= 0
	 item 288, weight= 5554, color= 0
	 item 289, weight= 5557, color= 0
	 item 290, weight= 5559, color= 0
	 item 291, weight= 5586, color= 0
	 item 292, weight= 5594, color= 0
	 item 293, weight= 5618, color= 1
	 item 294, weight= 5636, color= 0
	 item 295, weight= 5684, color= 1
	 item 296, weight= 5716, color= 0
	 item 297, weight= 5748, color= 1
	 item 298, weight= 5896, color= 1
	 item 299, weight= 6101, color= 0
	 item 300, weight= 6103, color= 1
	 item 301, weight= 6146, color= 1
	 item 302, weight= 6158, color= 0
	 item 303, weight= 6292, color= 1
	 item 304, weight= 6340, color= 0
	 item 305, weight= 6367, color= 1
	 item 306, weight= 6408, color= 0
	 item 307, weight= 6586, color= 1
	 item 308, weight= 6598, color= 0
	 item 309, weight= 6630, color= 0
	 item 310, weight= 6637, color= 1
	 item 311, weight= 6748, color= 0
	 item 312, weight= 6796, color= 1
	 item 313, weight= 6815, color= 1
	 item 314, weight= 6840, color= 1
	 item 315, weight= 6963, color= 0
	 item 316, weight= 6990, color= 0
	 item 317, weight= 7012, color= 0
	 item 318, weight= 7022, color= 0
	 item 319, weight= 7087, color= 0
	 item 320, weight= 7124, color= 0
	 item 321, weight= 7151, color= 1
	 item 322, weight= 7156, color= 1
	 item 323, weight= 7192, color= 0
	 item 324, weight= 7283, color= 1
	 item 325, weight= 7290, color= 0
	 item 326, weight= 7318, color= 1
	 item 327, weight= 7350, color= 0
	 item 328, weight= 7428, color= 1
	 item 329, weight= 7461, color= 0
	 item 330, weight= 7477, color= 1
	 item 331, weight= 7496, color= 1
	 item 332, weight= 7562, color= 0
	 item 333, weight= 7594, color= 1
	 item 334, weight= 7623, color= 0
	 item 335, weight= 7652, color= 0
	 item 336, weight= 7701, color= 1
	 item 337, weight= 7741, color= 1
	 item 338, weight= 7752, color= 0
	 item 339, weight= 7766, color= 0
	 item 340, weight= 7785, color= 0
	 item 341, weight= 7798, color= 1
	 item 342, weight= 7806, color= 1
	 item 343, weight= 7830, color= 1
	 item 344, weight= 7836, color= 1
	 item 345, weight= 7887, color= 0
	 item 346, weight= 7904, color= 0
	 item 347, weight= 7960, color= 0
	 item 348, weight= 7965, color= 0
	 item 349, weight= 7990, color= 1
	 item 350, weight= 7996, color= 1
	 item 351, weight= 8005, color= 0
	 item 352, weight= 8022, color= 0
	 item 353, weight= 8107, color= 1
	 item 354, weight= 8122, color= 0
	 item 355, weight= 8124, color= 1
	 item 356, weight= 8136, color= 1
	 item 357, weight= 8150, color= 0
	 item 358, weight= 8155, color= 1
	 item 359, weight= 8163, color= 1
	 item 360, weight= 8182, color= 1
	 item 361, weight= 8190, color= 1
	 item 362, weight= 8195, color= 1
	 item 363, weight= 8214, color= 1
	 item 364, weight= 8227, color= 1
	 item 365, weight= 8236, color= 1
	 item 366, weight= 8255, color= 1
	 item 367, weight= 8275, color= 0
	 item 368, weight= 8280, color= 1
	 item 369, weight= 8287, color= 1
	 item 370, weight= 8310, color= 0
	 item 371, weight= 8322, color= 1
	 item 372, weight= 8324, color= 1
	 item 373, weight= 8375, color= 0
	 item 374, weight= 8378, color= 0
	 item 375, weight= 8392, color= 1
	 item 376, weight= 8399, color= 0
	 item 377, weight= 8407, color= 0
	 item 378, weight= 8410, color= 0
	 item 379, weight= 8434, color= 1
	 item 380, weight= 8436, color= 0
	 item 381, weight= 8442, color= 0
	 item 382, weight= 8483, color= 0
	 item 383, weight= 8484, color= 1
	 item 384, weight= 8490, color= 0
	 item 385, weight= 8533, color= 0
	 item 386, weight= 8536, color= 1
	 item 387, weight= 8547, color= 1
	 item 388, weight= 8563, color= 1
	 item 389, weight= 8572, color= 0
	 item 390, weight= 8574, color= 0
	 item 391, weight= 8578, color= 0
	 item 392, weight= 8626, color= 1
	 item 393, weight= 8644, color= 0
	 item 394, weight= 8650, color= 1
	 item 395, weight= 8664, color= 0
	 item 396, weight= 8692, color= 1
	 item 397, weight= 8742, color= 1
	 item 398, weight= 8748, color= 1
	 item 399, weight= 8760, color= 0
	 item 400, weight= 8762, color= 1
	 item 401, weight= 8792, color= 0
	 item 402, weight= 8794, color= 0
	 item 403, weight= 8820, color= 1

VRPSolver warning: Interval set for resource 1 on source node (when source != sink) is ignored (by definition is [0.0,0.0])
[41m solve [00m
~~~~~~~~~~~~~~~~~~~~~~~~~~~~~~~~~~~~~~~~~~~~~~~~~~~~~~~~~~~~~~~~~~~~~~~~~~~~~~
VRPSolver v0.4.1, 24/03/2021. Web: vrpsolver.math.u-bordeaux.fr
Corresponds to the solver by Pessoa, Sadykov, Uchoa and Vanderbeck (2020)
Paper: dx.doi.org/10.1007/s10107-020-01523-z
USE THIS CODE ONLY FOR ACADEMIC PURPOSES AT YOUR OWN RISK
~~~~~~~~~~~~~~~~~~~~~~~~~~~~~~~~~~~~~~~~~~~~~~~~~~~~~~~~~~~~~~~~~~~~~~~~~~~~~~
BaPCod v053, 24/03/2021, © Inria Bordeaux, France
~~~~~~~~~~~~~~~~~~~~~~~~~~~~~~~~~~~~~~~~~~~~~~~~~~~~~~~~~~~~~~~~~~~~~~~~~~~~~~
VRPSolver parameters:
GlobalTimeLimit = 1800
MaxNbOfBBtreeNodeTreated = 100000
treeSearchStrategy = 1
RCSPstopCutGenTimeThresholdInPricing = 10
RCSPhardTimeThresholdInPricing = 20
RCSPnumberOfBucketsPerVertex = 2000
RCSPdynamicBucketSteps = 0
RCSPuseBidirectionalSearch = 1
RCSPapplyReducedCostFixing = 1
RCSPredCostFixingFalseGap = 0
RCSPmaxNumOfColsPerIteration = 100
RCSPmaxNumOfColsPerExactIteration = 100
RCSPheurLabelingStrategy = 4
StabilizationMinPhaseOfStage = 1
RCSPmaxNumOfLabelsInEnumeration = 100000
RCSPmaxNumOfEnumeratedSolutions = 1000000
RCSPmaxNumOfEnumSolutionsForMIP = 100000
RCSPinitNGneighbourhoodSize = 0
RCSPmaxNGneighbourhoodSize = 0
RCSPrankOneCutsMaxNumPerRound = 100
RCSPrankOneCutsMaxNumRows = -1
RCSPrankOneCutsMemoryType = 2
CutTailingOffThreshold = 0.02
CutTailingOffCounterThreshold = 3
SafeDualBoundScaleFactor = -1
StrongBranchingPhaseOneCandidatesNumber = 100
StrongBranchingPhaseOneTreeSizeEstimRatio = 0.3
StrongBranchingPhaseTwoCandidatesNumber = 1
StrongBranchingPhaseTwoTreeSizeEstimRatio = 0.1
MaxTimeForRestrictedMasterIpHeur = -1
DivingHeurUseDepthLimit = 0
MaxLDSbreadth = 3
MaxLDSdepth = 2
New model incumbent solution 1e+06, TIME = 0h0m0s3t = 3
Model is built TIME = 0h0m3s60t = 360
************************************************************************************************
**** BaB tree root node
**** Local DB = -1e+12, global bounds : [ -1e+12 , 1e+06 ], TIME = 0h0m3s60t = 360
**** 1 open nodes, 0 columns (0 active), 0 dyn. constrs. (0 active), 808 art. vars. (808 active)
************************************************************************************************
<DWph=2> <it= 10> <et=8.03> <Mt= 0.00> <Spt= 4.41> <nCl=1000> <DB=-29509924384.7385> <Mlp=471389399.7324> <PB=1000000> 
<DWph=2> <it= 20> <et=12.79> <Mt= 0.02> <Spt= 4.74> <nCl=1000> <DB=-24153215791.8927> <Mlp=453037810.0107> <PB=1000000> 
<DWph=2> <it= 30> <et=17.35> <Mt= 0.03> <Spt= 4.54> <nCl=1000> <DB=-20768984699.4834> <Mlp=439483850.7996> <PB=1000000> 
<DWph=2> <it= 40> <et=22.01> <Mt= 0.04> <Spt= 4.61> <nCl=1000> <DB=-17948664306.8583> <Mlp=422005131.5395> <PB=1000000> 
<DWph=2> <it= 50> <et=26.65> <Mt= 0.06> <Spt= 4.57> <nCl=1000> <DB=-14053879069.1826> <Mlp=397985260.4129> <PB=1000000> 
<DWph=2> <it= 60> <et=31.10> <Mt= 0.11> <Spt= 4.34> <nCl=1000> <DB=-10745696571.7066> <Mlp=376166462.1139> <PB=1000000> 
<DWph=2> <it= 70> <et=35.38> <Mt= 0.12> <Spt= 4.16> <nCl=1000> <DB=-7868863054.7205> <Mlp=351763011.2560> <PB=1000000> 
<DWph=2> <it= 80> <et=39.76> <Mt= 0.18> <Spt= 4.19> <nCl=1000> <DB=-5821579959.1820> <Mlp=329604222.8828> <PB=1000000> 
<DWph=2> <it= 90> <et=43.92> <Mt= 0.35> <Spt= 3.81> <nCl=1000> <DB=-4049901533.0605> <Mlp=298809751.6019> <PB=1000000> 
<DWph=2> <it=100> <et=48.12> <Mt= 0.44> <Spt= 3.75> <nCl=1000> <DB=-6661393711.2172> <Mlp=268979671.3954> <PB=1000000> 
<DWph=2> <it=110> <et=52.16> <Mt= 0.25> <Spt= 3.71> <nCl=1000> <DB=-2808482453.0648> <Mlp=253316546.9571> <PB=1000000> 
<DWph=2> <it=120> <et=56.04> <Mt= 0.35> <Spt= 3.52> <nCl=1000> <DB=-2235555021.4138> <Mlp=234037406.9608> <PB=1000000> 
<DWph=2> <it=130> <et=60.06> <Mt= 0.43> <Spt= 3.59> <nCl=1000> <DB=-2511435080.7452> <Mlp=208203010.6645> <PB=1000000> 
<DWph=2> <it=140> <et=64.05> <Mt= 0.29> <Spt= 3.63> <nCl=1000> <DB=-1926999764.0998> <Mlp=196715780.1779> <PB=1000000> 
<DWph=2> <it=150> <et=67.88> <Mt= 0.31> <Spt= 3.51> <nCl=1000> <DB=-1074245645.9056> <Mlp=182604653.8311> <PB=1000000> 
<DWph=2> <it=160> <et=71.72> <Mt= 0.37> <Spt= 3.46> <nCl=1000> <DB=-1015771783.6189> <Mlp=170960017.9670> <PB=1000000> 
<DWph=2> <it=170> <et=75.69> <Mt= 0.46> <Spt= 3.45> <nCl=961> <DB=-700309839.8532> <Mlp=151430154.2677> <PB=1000000> 
<DWph=2> <it=180> <et=79.41> <Mt= 0.27> <Spt= 3.44> <nCl=1000> <DB=-1064351838.0449> <Mlp=148853885.6041> <PB=1000000> 
<DWph=2> <it=190> <et=83.26> <Mt= 0.21> <Spt= 3.63> <nCl=1000> <DB=-399321235.1841> <Mlp=147281922.9546> <PB=1000000> 
<DWph=2> <it=200> <et=87.02> <Mt= 0.31> <Spt= 3.45> <nCl=1000> <DB=-450330123.1622> <Mlp=144415230.0826> <PB=1000000> 
<DWph=2> <it=210> <et=90.67> <Mt= 0.22> <Spt= 3.37> <nCl=1000> <DB=-653775497.9657> <Mlp=142147136.6930> <PB=1000000> 
<DWph=2> <it=220> <et=94.34> <Mt= 0.16> <Spt= 3.50> <nCl=1000> <DB=-597620533.2697> <Mlp=136660038.8031> <PB=1000000> 
<DWph=2> <it=230> <et=97.96> <Mt= 0.26> <Spt= 3.35> <nCl=1000> <DB=-415780952.9414> <Mlp=130331227.5992> <PB=1000000> 
<DWph=2> <it=240> <et=101.55> <Mt= 0.22> <Spt= 3.31> <nCl=1000> <DB=-359027126.2904> <Mlp=122137334.3906> <PB=1000000> 
<DWph=2> <it=250> <et=105.05> <Mt= 0.27> <Spt= 3.22> <nCl=954> <DB=-349111571.4642> <Mlp=109284121.5963> <PB=1000000> 
<DWph=2> <it=260> <et=108.62> <Mt= 0.24> <Spt= 3.33> <nCl=1000> <DB=-349460837.4430> <Mlp=104918054.5580> <PB=1000000> 
<DWph=2> <it=270> <et=112.16> <Mt= 0.36> <Spt= 3.18> <nCl=1000> <DB=-352355164.9348> <Mlp=90032371.3592> <PB=1000000> 
