Application parameters:
  batch  =>  nothing
  instance  =>  "/IN/600_20000_DI_6.txt-Q2"
  ub  =>  1.0e6
  cfg  =>  "/CFG/BPP.cfg"
data = Colored Bin Packing dataset.
number of items = 601
number of colors = 2
capacity = 13392
Items : 
	 item 1, weight= 82, color= 1
	 item 2, weight= 96, color= 1
	 item 3, weight= 116, color= 1
	 item 4, weight= 118, color= 1
	 item 5, weight= 128, color= 0
	 item 6, weight= 160, color= 0
	 item 7, weight= 162, color= 1
	 item 8, weight= 168, color= 1
	 item 9, weight= 192, color= 0
	 item 10, weight= 200, color= 1
	 item 11, weight= 208, color= 0
	 item 12, weight= 214, color= 0
	 item 13, weight= 216, color= 0
	 item 14, weight= 216, color= 1
	 item 15, weight= 220, color= 0
	 item 16, weight= 220, color= 0
	 item 17, weight= 224, color= 0
	 item 18, weight= 224, color= 0
	 item 19, weight= 224, color= 1
	 item 20, weight= 224, color= 1
	 item 21, weight= 228, color= 0
	 item 22, weight= 228, color= 1
	 item 23, weight= 230, color= 1
	 item 24, weight= 232, color= 0
	 item 25, weight= 232, color= 1
	 item 26, weight= 236, color= 0
	 item 27, weight= 236, color= 1
	 item 28, weight= 240, color= 0
	 item 29, weight= 240, color= 0
	 item 30, weight= 240, color= 1
	 item 31, weight= 242, color= 0
	 item 32, weight= 244, color= 1
	 item 33, weight= 248, color= 0
	 item 34, weight= 248, color= 0
	 item 35, weight= 250, color= 0
	 item 36, weight= 256, color= 0
	 item 37, weight= 256, color= 1
	 item 38, weight= 256, color= 1
	 item 39, weight= 256, color= 1
	 item 40, weight= 258, color= 1
	 item 41, weight= 260, color= 0
	 item 42, weight= 262, color= 0
	 item 43, weight= 264, color= 0
	 item 44, weight= 264, color= 1
	 item 45, weight= 264, color= 1
	 item 46, weight= 270, color= 0
	 item 47, weight= 272, color= 0
	 item 48, weight= 272, color= 1
	 item 49, weight= 272, color= 1
	 item 50, weight= 272, color= 1
	 item 51, weight= 274, color= 0
	 item 52, weight= 274, color= 1
	 item 53, weight= 278, color= 0
	 item 54, weight= 280, color= 0
	 item 55, weight= 280, color= 1
	 item 56, weight= 284, color= 0
	 item 57, weight= 288, color= 0
	 item 58, weight= 288, color= 1
	 item 59, weight= 288, color= 1
	 item 60, weight= 290, color= 0
	 item 61, weight= 290, color= 1
	 item 62, weight= 292, color= 0
	 item 63, weight= 294, color= 1
	 item 64, weight= 296, color= 0
	 item 65, weight= 296, color= 1
	 item 66, weight= 300, color= 1
	 item 67, weight= 304, color= 1
	 item 68, weight= 304, color= 1
	 item 69, weight= 304, color= 1
	 item 70, weight= 312, color= 0
	 item 71, weight= 312, color= 0
	 item 72, weight= 316, color= 0
	 item 73, weight= 318, color= 0
	 item 74, weight= 318, color= 0
	 item 75, weight= 320, color= 0
	 item 76, weight= 320, color= 1
	 item 77, weight= 320, color= 1
	 item 78, weight= 320, color= 1
	 item 79, weight= 322, color= 0
	 item 80, weight= 322, color= 1
	 item 81, weight= 326, color= 1
	 item 82, weight= 326, color= 1
	 item 83, weight= 332, color= 1
	 item 84, weight= 336, color= 0
	 item 85, weight= 336, color= 1
	 item 86, weight= 336, color= 1
	 item 87, weight= 338, color= 1
	 item 88, weight= 344, color= 0
	 item 89, weight= 344, color= 1
	 item 90, weight= 344, color= 1
	 item 91, weight= 352, color= 0
	 item 92, weight= 352, color= 1
	 item 93, weight= 352, color= 1
	 item 94, weight= 358, color= 0
	 item 95, weight= 360, color= 0
	 item 96, weight= 368, color= 0
	 item 97, weight= 368, color= 0
	 item 98, weight= 368, color= 1
	 item 99, weight= 370, color= 1
	 item 100, weight= 372, color= 1
	 item 101, weight= 376, color= 0
	 item 102, weight= 380, color= 0
	 item 103, weight= 380, color= 0
	 item 104, weight= 384, color= 0
	 item 105, weight= 384, color= 1
	 item 106, weight= 392, color= 1
	 item 107, weight= 396, color= 0
	 item 108, weight= 396, color= 0
	 item 109, weight= 402, color= 1
	 item 110, weight= 408, color= 1
	 item 111, weight= 416, color= 0
	 item 112, weight= 416, color= 1
	 item 113, weight= 416, color= 1
	 item 114, weight= 424, color= 1
	 item 115, weight= 428, color= 1
	 item 116, weight= 432, color= 0
	 item 117, weight= 432, color= 0
	 item 118, weight= 432, color= 1
	 item 119, weight= 436, color= 0
	 item 120, weight= 436, color= 1
	 item 121, weight= 452, color= 1
	 item 122, weight= 452, color= 1
	 item 123, weight= 458, color= 1
	 item 124, weight= 460, color= 0
	 item 125, weight= 464, color= 1
	 item 126, weight= 464, color= 1
	 item 127, weight= 468, color= 1
	 item 128, weight= 472, color= 0
	 item 129, weight= 472, color= 1
	 item 130, weight= 472, color= 1
	 item 131, weight= 484, color= 0
	 item 132, weight= 488, color= 1
	 item 133, weight= 504, color= 1
	 item 134, weight= 512, color= 0
	 item 135, weight= 524, color= 0
	 item 136, weight= 528, color= 0
	 item 137, weight= 532, color= 1
	 item 138, weight= 536, color= 0
	 item 139, weight= 536, color= 1
	 item 140, weight= 544, color= 0
	 item 141, weight= 546, color= 1
	 item 142, weight= 560, color= 0
	 item 143, weight= 560, color= 0
	 item 144, weight= 576, color= 0
	 item 145, weight= 580, color= 0
	 item 146, weight= 592, color= 1
	 item 147, weight= 596, color= 1
	 item 148, weight= 608, color= 0
	 item 149, weight= 616, color= 0
	 item 150, weight= 616, color= 1
	 item 151, weight= 632, color= 1
	 item 152, weight= 636, color= 0
	 item 153, weight= 640, color= 0
	 item 154, weight= 640, color= 1
	 item 155, weight= 644, color= 0
	 item 156, weight= 644, color= 0
	 item 157, weight= 644, color= 0
	 item 158, weight= 654, color= 1
	 item 159, weight= 660, color= 1
	 item 160, weight= 672, color= 1
	 item 161, weight= 688, color= 1
	 item 162, weight= 704, color= 0
	 item 163, weight= 708, color= 0
	 item 164, weight= 712, color= 0
	 item 165, weight= 712, color= 1
	 item 166, weight= 720, color= 0
	 item 167, weight= 730, color= 0
	 item 168, weight= 736, color= 0
	 item 169, weight= 748, color= 0
	 item 170, weight= 752, color= 0
	 item 171, weight= 758, color= 0
	 item 172, weight= 768, color= 0
	 item 173, weight= 800, color= 1
	 item 174, weight= 812, color= 0
	 item 175, weight= 816, color= 0
	 item 176, weight= 824, color= 0
	 item 177, weight= 832, color= 1
	 item 178, weight= 840, color= 0
	 item 179, weight= 844, color= 0
	 item 180, weight= 844, color= 1
	 item 181, weight= 854, color= 0
	 item 182, weight= 860, color= 0
	 item 183, weight= 864, color= 0
	 item 184, weight= 896, color= 1
	 item 185, weight= 896, color= 1
	 item 186, weight= 928, color= 1
	 item 187, weight= 952, color= 1
	 item 188, weight= 952, color= 1
	 item 189, weight= 960, color= 1
	 item 190, weight= 962, color= 0
	 item 191, weight= 976, color= 0
	 item 192, weight= 1072, color= 1
	 item 193, weight= 1072, color= 1
	 item 194, weight= 1104, color= 1
	 item 195, weight= 1104, color= 1
	 item 196, weight= 1112, color= 0
	 item 197, weight= 1112, color= 0
	 item 198, weight= 1112, color= 1
	 item 199, weight= 1112, color= 1
	 item 200, weight= 1112, color= 1
	 item 201, weight= 1114, color= 0
	 item 202, weight= 1114, color= 1
	 item 203, weight= 1114, color= 1
	 item 204, weight= 1122, color= 1
	 item 205, weight= 1124, color= 1
	 item 206, weight= 1124, color= 1
	 item 207, weight= 1130, color= 1
	 item 208, weight= 1142, color= 1
	 item 209, weight= 1157, color= 0
	 item 210, weight= 1158, color= 0
	 item 211, weight= 1164, color= 1
	 item 212, weight= 1172, color= 1
	 item 213, weight= 1176, color= 0
	 item 214, weight= 1183, color= 0
	 item 215, weight= 1198, color= 1
	 item 216, weight= 1204, color= 1
	 item 217, weight= 1204, color= 1
	 item 218, weight= 1215, color= 1
	 item 219, weight= 1224, color= 0
	 item 220, weight= 1234, color= 0
	 item 221, weight= 1247, color= 1
	 item 222, weight= 1253, color= 1
	 item 223, weight= 1260, color= 1
	 item 224, weight= 1282, color= 1
	 item 225, weight= 1288, color= 1
	 item 226, weight= 1293, color= 1
	 item 227, weight= 1302, color= 1
	 item 228, weight= 1313, color= 1
	 item 229, weight= 1319, color= 0
	 item 230, weight= 1324, color= 1
	 item 231, weight= 1326, color= 1
	 item 232, weight= 1328, color= 0
	 item 233, weight= 1332, color= 1
	 item 234, weight= 1351, color= 0
	 item 235, weight= 1352, color= 1
	 item 236, weight= 1353, color= 1
	 item 237, weight= 1362, color= 0
	 item 238, weight= 1364, color= 0
	 item 239, weight= 1371, color= 0
	 item 240, weight= 1373, color= 1
	 item 241, weight= 1380, color= 1
	 item 242, weight= 1381, color= 1
	 item 243, weight= 1384, color= 1
	 item 244, weight= 1393, color= 1
	 item 245, weight= 1405, color= 1
	 item 246, weight= 1431, color= 0
	 item 247, weight= 1438, color= 1
	 item 248, weight= 1441, color= 0
	 item 249, weight= 1446, color= 1
	 item 250, weight= 1452, color= 1
	 item 251, weight= 1459, color= 1
	 item 252, weight= 1467, color= 1
	 item 253, weight= 1473, color= 0
	 item 254, weight= 1476, color= 0
	 item 255, weight= 1480, color= 1
	 item 256, weight= 1482, color= 0
	 item 257, weight= 1502, color= 1
	 item 258, weight= 1522, color= 0
	 item 259, weight= 1544, color= 0
	 item 260, weight= 1563, color= 0
	 item 261, weight= 1564, color= 0
	 item 262, weight= 1573, color= 0
	 item 263, weight= 1583, color= 0
	 item 264, weight= 1588, color= 1
	 item 265, weight= 1597, color= 0
	 item 266, weight= 1601, color= 0
	 item 267, weight= 1610, color= 0
	 item 268, weight= 1613, color= 0
	 item 269, weight= 1617, color= 1
	 item 270, weight= 1622, color= 1
	 item 271, weight= 1624, color= 0
	 item 272, weight= 1637, color= 0
	 item 273, weight= 1641, color= 1
	 item 274, weight= 1648, color= 1
	 item 275, weight= 1669, color= 0
	 item 276, weight= 1693, color= 0
	 item 277, weight= 1704, color= 1
	 item 278, weight= 1716, color= 1
	 item 279, weight= 1724, color= 0
	 item 280, weight= 1730, color= 0
	 item 281, weight= 1742, color= 0
	 item 282, weight= 1763, color= 0
	 item 283, weight= 1797, color= 1
	 item 284, weight= 1806, color= 1
	 item 285, weight= 1816, color= 0
	 item 286, weight= 1824, color= 0
	 item 287, weight= 1847, color= 1
	 item 288, weight= 1857, color= 0
	 item 289, weight= 1874, color= 1
	 item 290, weight= 1882, color= 0
	 item 291, weight= 1884, color= 1
	 item 292, weight= 1896, color= 0
	 item 293, weight= 1909, color= 1
	 item 294, weight= 1924, color= 0
	 item 295, weight= 1966, color= 0
	 item 296, weight= 1972, color= 1
	 item 297, weight= 1981, color= 1
	 item 298, weight= 1986, color= 1
	 item 299, weight= 1992, color= 1
	 item 300, weight= 2015, color= 1
	 item 301, weight= 2048, color= 0
	 item 302, weight= 2051, color= 0
	 item 303, weight= 2082, color= 1
	 item 304, weight= 2100, color= 0
	 item 305, weight= 2124, color= 0
	 item 306, weight= 2125, color= 0
	 item 307, weight= 2151, color= 1
	 item 308, weight= 2152, color= 1
	 item 309, weight= 2182, color= 0
	 item 310, weight= 2186, color= 0
	 item 311, weight= 2202, color= 1
	 item 312, weight= 2232, color= 1
	 item 313, weight= 2266, color= 0
	 item 314, weight= 2271, color= 1
	 item 315, weight= 2297, color= 0
	 item 316, weight= 2340, color= 0
	 item 317, weight= 2345, color= 1
	 item 318, weight= 2364, color= 0
	 item 319, weight= 2370, color= 0
	 item 320, weight= 2392, color= 0
	 item 321, weight= 2396, color= 1
	 item 322, weight= 2424, color= 0
	 item 323, weight= 2438, color= 1
	 item 324, weight= 2447, color= 1
	 item 325, weight= 2521, color= 1
	 item 326, weight= 2560, color= 0
	 item 327, weight= 2574, color= 1
	 item 328, weight= 2584, color= 0
	 item 329, weight= 2642, color= 0
	 item 330, weight= 2667, color= 0
	 item 331, weight= 2684, color= 0
	 item 332, weight= 2692, color= 0
	 item 333, weight= 2724, color= 0
	 item 334, weight= 2724, color= 0
	 item 335, weight= 2733, color= 1
	 item 336, weight= 2818, color= 0
	 item 337, weight= 2824, color= 0
	 item 338, weight= 2840, color= 1
	 item 339, weight= 2886, color= 1
	 item 340, weight= 2901, color= 1
	 item 341, weight= 2987, color= 0
	 item 342, weight= 3064, color= 1
	 item 343, weight= 3081, color= 1
	 item 344, weight= 3084, color= 1
	 item 345, weight= 3092, color= 1
	 item 346, weight= 3124, color= 0
	 item 347, weight= 3182, color= 1
	 item 348, weight= 3202, color= 1
	 item 349, weight= 3226, color= 1
	 item 350, weight= 3229, color= 1
	 item 351, weight= 3242, color= 1
	 item 352, weight= 3275, color= 0
	 item 353, weight= 3288, color= 1
	 item 354, weight= 3306, color= 0
	 item 355, weight= 3362, color= 1
	 item 356, weight= 3402, color= 1
	 item 357, weight= 3551, color= 1
	 item 358, weight= 3556, color= 1
	 item 359, weight= 3564, color= 1
	 item 360, weight= 3596, color= 1
	 item 361, weight= 3656, color= 0
	 item 362, weight= 3661, color= 1
	 item 363, weight= 3686, color= 0
	 item 364, weight= 3754, color= 1
	 item 365, weight= 3793, color= 0
	 item 366, weight= 3992, color= 0
	 item 367, weight= 4040, color= 0
	 item 368, weight= 4061, color= 1
	 item 369, weight= 4108, color= 1
	 item 370, weight= 4132, color= 1
	 item 371, weight= 4222, color= 1
	 item 372, weight= 4226, color= 1
	 item 373, weight= 4242, color= 0
	 item 374, weight= 4275, color= 1
	 item 375, weight= 4306, color= 1
	 item 376, weight= 4312, color= 1
	 item 377, weight= 4324, color= 0
	 item 378, weight= 4504, color= 0
	 item 379, weight= 4520, color= 0
	 item 380, weight= 4728, color= 1
	 item 381, weight= 4771, color= 1
	 item 382, weight= 4780, color= 0
	 item 383, weight= 4818, color= 0
	 item 384, weight= 4821, color= 1
	 item 385, weight= 4823, color= 1
	 item 386, weight= 4886, color= 0
	 item 387, weight= 4976, color= 1
	 item 388, weight= 5012, color= 0
	 item 389, weight= 5384, color= 0
	 item 390, weight= 5431, color= 0
	 item 391, weight= 5512, color= 1
	 item 392, weight= 5556, color= 0
	 item 393, weight= 5564, color= 0
	 item 394, weight= 5571, color= 1
	 item 395, weight= 5573, color= 0
	 item 396, weight= 5576, color= 0
	 item 397, weight= 5577, color= 1
	 item 398, weight= 5578, color= 1
	 item 399, weight= 5580, color= 0
	 item 400, weight= 5581, color= 1
	 item 401, weight= 5582, color= 0
	 item 402, weight= 5599, color= 0
	 item 403, weight= 5690, color= 0
	 item 404, weight= 5856, color= 1
	 item 405, weight= 6608, color= 1
	 item 406, weight= 6697, color= 1
	 item 407, weight= 6698, color= 1
	 item 408, weight= 6700, color= 1
	 item 409, weight= 6701, color= 0
	 item 410, weight= 6702, color= 0
	 item 411, weight= 6705, color= 1
	 item 412, weight= 6709, color= 0
	 item 413, weight= 6712, color= 0
	 item 414, weight= 6716, color= 1
	 item 415, weight= 6732, color= 1
	 item 416, weight= 6936, color= 0
	 item 417, weight= 7128, color= 0
	 item 418, weight= 7513, color= 0
	 item 419, weight= 7530, color= 1
	 item 420, weight= 7534, color= 1
	 item 421, weight= 7609, color= 0
	 item 422, weight= 7614, color= 1
	 item 423, weight= 7617, color= 1
	 item 424, weight= 7660, color= 0
	 item 425, weight= 7669, color= 0
	 item 426, weight= 7692, color= 0
	 item 427, weight= 7736, color= 0
	 item 428, weight= 7976, color= 0
	 item 429, weight= 7992, color= 0
	 item 430, weight= 8204, color= 1
	 item 431, weight= 8226, color= 1
	 item 432, weight= 8263, color= 0
	 item 433, weight= 8279, color= 0
	 item 434, weight= 8306, color= 0
	 item 435, weight= 8322, color= 1
	 item 436, weight= 8330, color= 0
	 item 437, weight= 8436, color= 1
	 item 438, weight= 8468, color= 1
	 item 439, weight= 8519, color= 0
	 item 440, weight= 8552, color= 0
	 item 441, weight= 8760, color= 0
	 item 442, weight= 8841, color= 1
	 item 443, weight= 8890, color= 1
	 item 444, weight= 8968, color= 0
	 item 445, weight= 8970, color= 1
	 item 446, weight= 9001, color= 1
	 item 447, weight= 9016, color= 1
	 item 448, weight= 9084, color= 1
	 item 449, weight= 9116, color= 0
	 item 450, weight= 9132, color= 1
	 item 451, weight= 9133, color= 1
	 item 452, weight= 9358, color= 0
	 item 453, weight= 9426, color= 0
	 item 454, weight= 9463, color= 0
	 item 455, weight= 9464, color= 1
	 item 456, weight= 9506, color= 0
	 item 457, weight= 9519, color= 1
	 item 458, weight= 9522, color= 0
	 item 459, weight= 9530, color= 1
	 item 460, weight= 9554, color= 1
	 item 461, weight= 9578, color= 0
	 item 462, weight= 9652, color= 0
	 item 463, weight= 9684, color= 0
	 item 464, weight= 9716, color= 0
	 item 465, weight= 9720, color= 1
	 item 466, weight= 9809, color= 0
	 item 467, weight= 9911, color= 0
	 item 468, weight= 9930, color= 0
	 item 469, weight= 9992, color= 1
	 item 470, weight= 10014, color= 1
	 item 471, weight= 10097, color= 0
	 item 472, weight= 10113, color= 0
	 item 473, weight= 10124, color= 1
	 item 474, weight= 10132, color= 1
	 item 475, weight= 10164, color= 1
	 item 476, weight= 10180, color= 1
	 item 477, weight= 10193, color= 1
	 item 478, weight= 10216, color= 0
	 item 479, weight= 10226, color= 1
	 item 480, weight= 10306, color= 1
	 item 481, weight= 10367, color= 0
	 item 482, weight= 10424, color= 1
	 item 483, weight= 10457, color= 0
	 item 484, weight= 10470, color= 1
	 item 485, weight= 10524, color= 0
	 item 486, weight= 10536, color= 0
	 item 487, weight= 10550, color= 0
	 item 488, weight= 10556, color= 1
	 item 489, weight= 10579, color= 0
	 item 490, weight= 10588, color= 0
	 item 491, weight= 10637, color= 0
	 item 492, weight= 10664, color= 0
	 item 493, weight= 10669, color= 0
	 item 494, weight= 10674, color= 0
	 item 495, weight= 10688, color= 0
	 item 496, weight= 10728, color= 1
	 item 497, weight= 10754, color= 0
	 item 498, weight= 10770, color= 1
	 item 499, weight= 10778, color= 1
	 item 500, weight= 10813, color= 0
	 item 501, weight= 10824, color= 1
	 item 502, weight= 10843, color= 0
	 item 503, weight= 10852, color= 0
	 item 504, weight= 10876, color= 1
	 item 505, weight= 10930, color= 0
	 item 506, weight= 10933, color= 0
	 item 507, weight= 10975, color= 0
	 item 508, weight= 11010, color= 1
	 item 509, weight= 11015, color= 1
	 item 510, weight= 11016, color= 1
	 item 511, weight= 11034, color= 1
	 item 512, weight= 11092, color= 1
	 item 513, weight= 11103, color= 1
	 item 514, weight= 11124, color= 1
	 item 515, weight= 11128, color= 0
	 item 516, weight= 11140, color= 1
	 item 517, weight= 11146, color= 0
	 item 518, weight= 11165, color= 1
	 item 519, weight= 11177, color= 1
	 item 520, weight= 11224, color= 1
	 item 521, weight= 11226, color= 1
	 item 522, weight= 11237, color= 1
	 item 523, weight= 11277, color= 1
	 item 524, weight= 11306, color= 0
	 item 525, weight= 11318, color= 0
	 item 526, weight= 11332, color= 0
	 item 527, weight= 11340, color= 0
	 item 528, weight= 11352, color= 0
	 item 529, weight= 11361, color= 1
	 item 530, weight= 11382, color= 1
	 item 531, weight= 11391, color= 0
	 item 532, weight= 11425, color= 0
	 item 533, weight= 11429, color= 1
	 item 534, weight= 11448, color= 1
	 item 535, weight= 11450, color= 0
	 item 536, weight= 11453, color= 0
	 item 537, weight= 11457, color= 0
	 item 538, weight= 11462, color= 1
	 item 539, weight= 11473, color= 1
	 item 540, weight= 11477, color= 1
	 item 541, weight= 11492, color= 1
	 item 542, weight= 11493, color= 1
	 item 543, weight= 11517, color= 1
	 item 544, weight= 11524, color= 0
	 item 545, weight= 11544, color= 1
	 item 546, weight= 11570, color= 0
	 item 547, weight= 11594, color= 0
	 item 548, weight= 11624, color= 0
	 item 549, weight= 11625, color= 0
	 item 550, weight= 11628, color= 0
	 item 551, weight= 11633, color= 1
	 item 552, weight= 11643, color= 1
	 item 553, weight= 11652, color= 0
	 item 554, weight= 11657, color= 1
	 item 555, weight= 11670, color= 0
	 item 556, weight= 11694, color= 0
	 item 557, weight= 11707, color= 0
	 item 558, weight= 11721, color= 1
	 item 559, weight= 11726, color= 1
	 item 560, weight= 11736, color= 0
	 item 561, weight= 11737, color= 0
	 item 562, weight= 11740, color= 1
	 item 563, weight= 11745, color= 0
	 item 564, weight= 11749, color= 0
	 item 565, weight= 11758, color= 0
	 item 566, weight= 11764, color= 1
	 item 567, weight= 11769, color= 0
	 item 568, weight= 11784, color= 0
	 item 569, weight= 11796, color= 1
	 item 570, weight= 11802, color= 0
	 item 571, weight= 11808, color= 0
	 item 572, weight= 11812, color= 0
	 item 573, weight= 11817, color= 1
	 item 574, weight= 11830, color= 1
	 item 575, weight= 11833, color= 0
	 item 576, weight= 11841, color= 0
	 item 577, weight= 11845, color= 1
	 item 578, weight= 11854, color= 0
	 item 579, weight= 11864, color= 0
	 item 580, weight= 11873, color= 1
	 item 581, weight= 11884, color= 0
	 item 582, weight= 11889, color= 1
	 item 583, weight= 11897, color= 0
	 item 584, weight= 11914, color= 1
	 item 585, weight= 11928, color= 0
	 item 586, weight= 11935, color= 1
	 item 587, weight= 11948, color= 0
	 item 588, weight= 11956, color= 1
	 item 589, weight= 11958, color= 1
	 item 590, weight= 11959, color= 0
	 item 591, weight= 11973, color= 0
	 item 592, weight= 11988, color= 0
	 item 593, weight= 11992, color= 1
	 item 594, weight= 12004, color= 0
	 item 595, weight= 12005, color= 0
	 item 596, weight= 12006, color= 0
	 item 597, weight= 12022, color= 1
	 item 598, weight= 12038, color= 0
	 item 599, weight= 12044, color= 1
	 item 600, weight= 12050, color= 1
	 item 601, weight= 12052, color= 1

VRPSolver warning: Interval set for resource 1 on source node (when source != sink) is ignored (by definition is [0.0,0.0])
[41m solve [00m
~~~~~~~~~~~~~~~~~~~~~~~~~~~~~~~~~~~~~~~~~~~~~~~~~~~~~~~~~~~~~~~~~~~~~~~~~~~~~~
VRPSolver v0.4.1, 24/03/2021. Web: vrpsolver.math.u-bordeaux.fr
Corresponds to the solver by Pessoa, Sadykov, Uchoa and Vanderbeck (2020)
Paper: dx.doi.org/10.1007/s10107-020-01523-z
USE THIS CODE ONLY FOR ACADEMIC PURPOSES AT YOUR OWN RISK
~~~~~~~~~~~~~~~~~~~~~~~~~~~~~~~~~~~~~~~~~~~~~~~~~~~~~~~~~~~~~~~~~~~~~~~~~~~~~~
BaPCod v053, 24/03/2021, © Inria Bordeaux, France
~~~~~~~~~~~~~~~~~~~~~~~~~~~~~~~~~~~~~~~~~~~~~~~~~~~~~~~~~~~~~~~~~~~~~~~~~~~~~~
VRPSolver parameters:
GlobalTimeLimit = 1800
MaxNbOfBBtreeNodeTreated = 100000
treeSearchStrategy = 1
RCSPstopCutGenTimeThresholdInPricing = 10
RCSPhardTimeThresholdInPricing = 20
RCSPnumberOfBucketsPerVertex = 2000
RCSPdynamicBucketSteps = 0
RCSPuseBidirectionalSearch = 1
RCSPapplyReducedCostFixing = 1
RCSPredCostFixingFalseGap = 0
RCSPmaxNumOfColsPerIteration = 100
RCSPmaxNumOfColsPerExactIteration = 100
RCSPheurLabelingStrategy = 4
StabilizationMinPhaseOfStage = 1
RCSPmaxNumOfLabelsInEnumeration = 100000
RCSPmaxNumOfEnumeratedSolutions = 1000000
RCSPmaxNumOfEnumSolutionsForMIP = 100000
RCSPinitNGneighbourhoodSize = 0
RCSPmaxNGneighbourhoodSize = 0
RCSPrankOneCutsMaxNumPerRound = 100
RCSPrankOneCutsMaxNumRows = -1
RCSPrankOneCutsMemoryType = 2
CutTailingOffThreshold = 0.02
CutTailingOffCounterThreshold = 3
SafeDualBoundScaleFactor = -1
StrongBranchingPhaseOneCandidatesNumber = 100
StrongBranchingPhaseOneTreeSizeEstimRatio = 0.3
StrongBranchingPhaseTwoCandidatesNumber = 1
StrongBranchingPhaseTwoTreeSizeEstimRatio = 0.1
MaxTimeForRestrictedMasterIpHeur = -1
DivingHeurUseDepthLimit = 0
MaxLDSbreadth = 3
MaxLDSdepth = 2
New model incumbent solution 1e+06, TIME = 0h0m0s3t = 3
Model is built TIME = 0h0m4s83t = 483
************************************************************************************************
**** BaB tree root node
**** Local DB = -1e+12, global bounds : [ -1e+12 , 1e+06 ], TIME = 0h0m4s83t = 483
**** 1 open nodes, 0 columns (0 active), 0 dyn. constrs. (0 active), 1204 art. vars. (1204 active)
************************************************************************************************
<DWph=2> <it= 10> <et=11.90> <Mt= 0.01> <Spt= 7.05> <nCl=1000> <DB=-42566629525.9394> <Mlp=702001983.7808> <PB=1000000> 
<DWph=2> <it= 20> <et=19.12> <Mt= 0.02> <Spt= 7.20> <nCl=1000> <DB=-38615779533.8594> <Mlp=684816788.7219> <PB=1000000> 
<DWph=2> <it= 30> <et=26.22> <Mt= 0.03> <Spt= 7.06> <nCl=1000> <DB=-34847807552.1264> <Mlp=666030295.8145> <PB=1000000> 
<DWph=2> <it= 40> <et=33.26> <Mt= 0.05> <Spt= 6.98> <nCl=1000> <DB=-31332719727.2382> <Mlp=643124565.3875> <PB=1000000> 
<DWph=2> <it= 50> <et=40.33> <Mt= 0.08> <Spt= 6.98> <nCl=1000> <DB=-27506930787.2519> <Mlp=618233832.4907> <PB=1000000> 
<DWph=2> <it= 60> <et=47.39> <Mt= 0.09> <Spt= 6.96> <nCl=1000> <DB=-24326007666.8339> <Mlp=595005248.0212> <PB=1000000> 
<DWph=2> <it= 70> <et=54.53> <Mt= 0.20> <Spt= 6.95> <nCl=1000> <DB=-18921970854.6806> <Mlp=570755498.3645> <PB=1000000> 
<DWph=2> <it= 80> <et=61.59> <Mt= 0.31> <Spt= 6.74> <nCl=1000> <DB=-16039511161.0108> <Mlp=547978880.5773> <PB=1000000> 
<DWph=2> <it= 90> <et=68.56> <Mt= 0.37> <Spt= 6.60> <nCl=1000> <DB=-13176063988.5612> <Mlp=525734107.1919> <PB=1000000> 
<DWph=2> <it=100> <et=75.39> <Mt= 0.42> <Spt= 6.40> <nCl=1000> <DB=-10402232173.0879> <Mlp=506292058.1411> <PB=1000000> 
<DWph=2> <it=110> <et=81.80> <Mt= 0.26> <Spt= 6.08> <nCl=1000> <DB=-8164358669.5051> <Mlp=483286022.6837> <PB=1000000> 
<DWph=2> <it=120> <et=88.14> <Mt= 0.25> <Spt= 6.07> <nCl=1000> <DB=-8111045120.0996> <Mlp=462907880.4683> <PB=1000000> 
<DWph=2> <it=130> <et=94.42> <Mt= 0.26> <Spt= 6.02> <nCl=1000> <DB=-6567932530.2060> <Mlp=444059392.3669> <PB=1000000> 
<DWph=2> <it=140> <et=101.15> <Mt= 0.35> <Spt= 6.30> <nCl=1000> <DB=-6142688794.0052> <Mlp=425722670.4514> <PB=1000000> 
<DWph=2> <it=150> <et=107.39> <Mt= 0.28> <Spt= 5.95> <nCl=1000> <DB=-5655446717.8908> <Mlp=397779306.5732> <PB=1000000> 
<DWph=2> <it=160> <et=113.49> <Mt= 0.43> <Spt= 5.66> <nCl=1000> <DB=-4705767707.6300> <Mlp=375746252.5590> <PB=1000000> 
