Application parameters:
  batch  =>  nothing
  instance  =>  "/IN/600_20000_DI_5.txt-Q2"
  ub  =>  1.0e6
  cfg  =>  "/CFG/BPP.cfg"
data = Colored Bin Packing dataset.
number of items = 601
number of colors = 2
capacity = 15712
Items : 
	 item 1, weight= 80, color= 1
	 item 2, weight= 96, color= 1
	 item 3, weight= 116, color= 1
	 item 4, weight= 164, color= 0
	 item 5, weight= 164, color= 1
	 item 6, weight= 176, color= 0
	 item 7, weight= 176, color= 1
	 item 8, weight= 184, color= 0
	 item 9, weight= 208, color= 1
	 item 10, weight= 208, color= 1
	 item 11, weight= 212, color= 1
	 item 12, weight= 228, color= 1
	 item 13, weight= 240, color= 1
	 item 14, weight= 256, color= 0
	 item 15, weight= 256, color= 1
	 item 16, weight= 256, color= 1
	 item 17, weight= 268, color= 0
	 item 18, weight= 270, color= 1
	 item 19, weight= 272, color= 0
	 item 20, weight= 272, color= 0
	 item 21, weight= 272, color= 1
	 item 22, weight= 280, color= 0
	 item 23, weight= 284, color= 0
	 item 24, weight= 288, color= 0
	 item 25, weight= 288, color= 1
	 item 26, weight= 288, color= 1
	 item 27, weight= 292, color= 0
	 item 28, weight= 296, color= 0
	 item 29, weight= 296, color= 0
	 item 30, weight= 300, color= 0
	 item 31, weight= 304, color= 0
	 item 32, weight= 304, color= 0
	 item 33, weight= 304, color= 1
	 item 34, weight= 304, color= 1
	 item 35, weight= 304, color= 1
	 item 36, weight= 312, color= 0
	 item 37, weight= 312, color= 0
	 item 38, weight= 312, color= 1
	 item 39, weight= 320, color= 0
	 item 40, weight= 320, color= 0
	 item 41, weight= 320, color= 0
	 item 42, weight= 320, color= 1
	 item 43, weight= 328, color= 0
	 item 44, weight= 330, color= 0
	 item 45, weight= 336, color= 0
	 item 46, weight= 336, color= 1
	 item 47, weight= 344, color= 1
	 item 48, weight= 344, color= 1
	 item 49, weight= 352, color= 0
	 item 50, weight= 352, color= 0
	 item 51, weight= 352, color= 0
	 item 52, weight= 352, color= 1
	 item 53, weight= 356, color= 1
	 item 54, weight= 360, color= 0
	 item 55, weight= 360, color= 0
	 item 56, weight= 368, color= 0
	 item 57, weight= 370, color= 1
	 item 58, weight= 374, color= 0
	 item 59, weight= 376, color= 0
	 item 60, weight= 376, color= 1
	 item 61, weight= 380, color= 1
	 item 62, weight= 384, color= 1
	 item 63, weight= 384, color= 1
	 item 64, weight= 392, color= 0
	 item 65, weight= 392, color= 0
	 item 66, weight= 396, color= 1
	 item 67, weight= 396, color= 1
	 item 68, weight= 398, color= 0
	 item 69, weight= 400, color= 0
	 item 70, weight= 400, color= 1
	 item 71, weight= 400, color= 1
	 item 72, weight= 400, color= 1
	 item 73, weight= 408, color= 1
	 item 74, weight= 412, color= 1
	 item 75, weight= 414, color= 0
	 item 76, weight= 416, color= 0
	 item 77, weight= 416, color= 1
	 item 78, weight= 416, color= 1
	 item 79, weight= 418, color= 0
	 item 80, weight= 422, color= 1
	 item 81, weight= 422, color= 1
	 item 82, weight= 424, color= 0
	 item 83, weight= 432, color= 1
	 item 84, weight= 432, color= 1
	 item 85, weight= 448, color= 0
	 item 86, weight= 456, color= 0
	 item 87, weight= 456, color= 0
	 item 88, weight= 458, color= 0
	 item 89, weight= 460, color= 1
	 item 90, weight= 464, color= 0
	 item 91, weight= 464, color= 1
	 item 92, weight= 472, color= 0
	 item 93, weight= 472, color= 1
	 item 94, weight= 476, color= 0
	 item 95, weight= 480, color= 1
	 item 96, weight= 484, color= 1
	 item 97, weight= 486, color= 1
	 item 98, weight= 488, color= 0
	 item 99, weight= 496, color= 0
	 item 100, weight= 496, color= 0
	 item 101, weight= 504, color= 0
	 item 102, weight= 504, color= 0
	 item 103, weight= 504, color= 1
	 item 104, weight= 512, color= 1
	 item 105, weight= 516, color= 0
	 item 106, weight= 516, color= 0
	 item 107, weight= 528, color= 0
	 item 108, weight= 532, color= 0
	 item 109, weight= 534, color= 0
	 item 110, weight= 538, color= 0
	 item 111, weight= 540, color= 0
	 item 112, weight= 548, color= 0
	 item 113, weight= 552, color= 0
	 item 114, weight= 552, color= 1
	 item 115, weight= 560, color= 0
	 item 116, weight= 560, color= 0
	 item 117, weight= 560, color= 1
	 item 118, weight= 576, color= 1
	 item 119, weight= 592, color= 1
	 item 120, weight= 592, color= 1
	 item 121, weight= 596, color= 0
	 item 122, weight= 598, color= 1
	 item 123, weight= 606, color= 0
	 item 124, weight= 608, color= 0
	 item 125, weight= 610, color= 0
	 item 126, weight= 624, color= 0
	 item 127, weight= 624, color= 0
	 item 128, weight= 626, color= 0
	 item 129, weight= 632, color= 0
	 item 130, weight= 632, color= 1
	 item 131, weight= 632, color= 1
	 item 132, weight= 640, color= 0
	 item 133, weight= 640, color= 1
	 item 134, weight= 640, color= 1
	 item 135, weight= 644, color= 1
	 item 136, weight= 668, color= 1
	 item 137, weight= 688, color= 1
	 item 138, weight= 692, color= 0
	 item 139, weight= 704, color= 0
	 item 140, weight= 704, color= 1
	 item 141, weight= 716, color= 0
	 item 142, weight= 716, color= 1
	 item 143, weight= 720, color= 0
	 item 144, weight= 720, color= 1
	 item 145, weight= 720, color= 1
	 item 146, weight= 728, color= 0
	 item 147, weight= 736, color= 1
	 item 148, weight= 760, color= 0
	 item 149, weight= 762, color= 1
	 item 150, weight= 768, color= 1
	 item 151, weight= 768, color= 1
	 item 152, weight= 792, color= 0
	 item 153, weight= 796, color= 1
	 item 154, weight= 800, color= 1
	 item 155, weight= 804, color= 0
	 item 156, weight= 804, color= 1
	 item 157, weight= 816, color= 1
	 item 158, weight= 824, color= 1
	 item 159, weight= 824, color= 1
	 item 160, weight= 832, color= 0
	 item 161, weight= 848, color= 1
	 item 162, weight= 880, color= 1
	 item 163, weight= 880, color= 1
	 item 164, weight= 880, color= 1
	 item 165, weight= 888, color= 0
	 item 166, weight= 890, color= 0
	 item 167, weight= 896, color= 1
	 item 168, weight= 900, color= 0
	 item 169, weight= 912, color= 0
	 item 170, weight= 912, color= 0
	 item 171, weight= 944, color= 1
	 item 172, weight= 952, color= 1
	 item 173, weight= 960, color= 0
	 item 174, weight= 960, color= 0
	 item 175, weight= 992, color= 1
	 item 176, weight= 1000, color= 0
	 item 177, weight= 1002, color= 1
	 item 178, weight= 1008, color= 1
	 item 179, weight= 1012, color= 1
	 item 180, weight= 1024, color= 0
	 item 181, weight= 1028, color= 0
	 item 182, weight= 1056, color= 0
	 item 183, weight= 1072, color= 0
	 item 184, weight= 1104, color= 0
	 item 185, weight= 1104, color= 0
	 item 186, weight= 1112, color= 0
	 item 187, weight= 1112, color= 1
	 item 188, weight= 1136, color= 0
	 item 189, weight= 1142, color= 0
	 item 190, weight= 1146, color= 0
	 item 191, weight= 1152, color= 1
	 item 192, weight= 1160, color= 0
	 item 193, weight= 1196, color= 0
	 item 194, weight= 1212, color= 1
	 item 195, weight= 1232, color= 0
	 item 196, weight= 1236, color= 1
	 item 197, weight= 1248, color= 1
	 item 198, weight= 1296, color= 0
	 item 199, weight= 1300, color= 1
	 item 200, weight= 1304, color= 0
	 item 201, weight= 1304, color= 0
	 item 202, weight= 1308, color= 0
	 item 203, weight= 1308, color= 0
	 item 204, weight= 1308, color= 1
	 item 205, weight= 1362, color= 1
	 item 206, weight= 1364, color= 1
	 item 207, weight= 1368, color= 1
	 item 208, weight= 1378, color= 0
	 item 209, weight= 1404, color= 1
	 item 210, weight= 1434, color= 1
	 item 211, weight= 1450, color= 0
	 item 212, weight= 1456, color= 0
	 item 213, weight= 1462, color= 0
	 item 214, weight= 1468, color= 0
	 item 215, weight= 1470, color= 0
	 item 216, weight= 1480, color= 1
	 item 217, weight= 1492, color= 1
	 item 218, weight= 1494, color= 1
	 item 219, weight= 1502, color= 1
	 item 220, weight= 1514, color= 1
	 item 221, weight= 1528, color= 0
	 item 222, weight= 1538, color= 0
	 item 223, weight= 1556, color= 0
	 item 224, weight= 1564, color= 0
	 item 225, weight= 1566, color= 1
	 item 226, weight= 1576, color= 1
	 item 227, weight= 1592, color= 0
	 item 228, weight= 1596, color= 1
	 item 229, weight= 1606, color= 0
	 item 230, weight= 1610, color= 1
	 item 231, weight= 1628, color= 0
	 item 232, weight= 1646, color= 1
	 item 233, weight= 1656, color= 1
	 item 234, weight= 1682, color= 0
	 item 235, weight= 1716, color= 1
	 item 236, weight= 1726, color= 0
	 item 237, weight= 1736, color= 1
	 item 238, weight= 1742, color= 0
	 item 239, weight= 1770, color= 0
	 item 240, weight= 1794, color= 0
	 item 241, weight= 1804, color= 0
	 item 242, weight= 1822, color= 1
	 item 243, weight= 1828, color= 1
	 item 244, weight= 1848, color= 1
	 item 245, weight= 1864, color= 1
	 item 246, weight= 1875, color= 0
	 item 247, weight= 1898, color= 1
	 item 248, weight= 1918, color= 1
	 item 249, weight= 1931, color= 0
	 item 250, weight= 1936, color= 0
	 item 251, weight= 1940, color= 0
	 item 252, weight= 1964, color= 1
	 item 253, weight= 1982, color= 1
	 item 254, weight= 1983, color= 0
	 item 255, weight= 1996, color= 1
	 item 256, weight= 1997, color= 1
	 item 257, weight= 2008, color= 0
	 item 258, weight= 2022, color= 0
	 item 259, weight= 2028, color= 1
	 item 260, weight= 2050, color= 0
	 item 261, weight= 2063, color= 0
	 item 262, weight= 2077, color= 1
	 item 263, weight= 2088, color= 0
	 item 264, weight= 2094, color= 0
	 item 265, weight= 2101, color= 1
	 item 266, weight= 2113, color= 0
	 item 267, weight= 2117, color= 0
	 item 268, weight= 2120, color= 0
	 item 269, weight= 2130, color= 1
	 item 270, weight= 2164, color= 0
	 item 271, weight= 2168, color= 1
	 item 272, weight= 2176, color= 0
	 item 273, weight= 2193, color= 0
	 item 274, weight= 2230, color= 1
	 item 275, weight= 2236, color= 0
	 item 276, weight= 2248, color= 0
	 item 277, weight= 2262, color= 1
	 item 278, weight= 2287, color= 1
	 item 279, weight= 2294, color= 1
	 item 280, weight= 2301, color= 0
	 item 281, weight= 2314, color= 0
	 item 282, weight= 2322, color= 0
	 item 283, weight= 2349, color= 0
	 item 284, weight= 2364, color= 0
	 item 285, weight= 2372, color= 0
	 item 286, weight= 2386, color= 1
	 item 287, weight= 2404, color= 1
	 item 288, weight= 2427, color= 0
	 item 289, weight= 2437, color= 0
	 item 290, weight= 2442, color= 1
	 item 291, weight= 2456, color= 1
	 item 292, weight= 2481, color= 0
	 item 293, weight= 2520, color= 1
	 item 294, weight= 2532, color= 1
	 item 295, weight= 2534, color= 1
	 item 296, weight= 2586, color= 1
	 item 297, weight= 2602, color= 0
	 item 298, weight= 2648, color= 1
	 item 299, weight= 2650, color= 0
	 item 300, weight= 2661, color= 1
	 item 301, weight= 2675, color= 1
	 item 302, weight= 2684, color= 1
	 item 303, weight= 2691, color= 1
	 item 304, weight= 2751, color= 0
	 item 305, weight= 2762, color= 1
	 item 306, weight= 2774, color= 1
	 item 307, weight= 2804, color= 0
	 item 308, weight= 2812, color= 1
	 item 309, weight= 2888, color= 1
	 item 310, weight= 2952, color= 1
	 item 311, weight= 2967, color= 0
	 item 312, weight= 2970, color= 1
	 item 313, weight= 2982, color= 0
	 item 314, weight= 2984, color= 1
	 item 315, weight= 2993, color= 1
	 item 316, weight= 3037, color= 1
	 item 317, weight= 3061, color= 0
	 item 318, weight= 3128, color= 1
	 item 319, weight= 3141, color= 1
	 item 320, weight= 3148, color= 0
	 item 321, weight= 3160, color= 0
	 item 322, weight= 3161, color= 0
	 item 323, weight= 3172, color= 0
	 item 324, weight= 3204, color= 1
	 item 325, weight= 3220, color= 1
	 item 326, weight= 3222, color= 0
	 item 327, weight= 3234, color= 0
	 item 328, weight= 3368, color= 1
	 item 329, weight= 3451, color= 0
	 item 330, weight= 3453, color= 1
	 item 331, weight= 3461, color= 1
	 item 332, weight= 3534, color= 0
	 item 333, weight= 3586, color= 0
	 item 334, weight= 3592, color= 0
	 item 335, weight= 3592, color= 1
	 item 336, weight= 3602, color= 1
	 item 337, weight= 3612, color= 1
	 item 338, weight= 3636, color= 0
	 item 339, weight= 3642, color= 0
	 item 340, weight= 3704, color= 0
	 item 341, weight= 3752, color= 1
	 item 342, weight= 3807, color= 1
	 item 343, weight= 3821, color= 1
	 item 344, weight= 3896, color= 0
	 item 345, weight= 3974, color= 0
	 item 346, weight= 3981, color= 0
	 item 347, weight= 4026, color= 0
	 item 348, weight= 4042, color= 1
	 item 349, weight= 4048, color= 0
	 item 350, weight= 4072, color= 1
	 item 351, weight= 4108, color= 0
	 item 352, weight= 4132, color= 0
	 item 353, weight= 4164, color= 1
	 item 354, weight= 4216, color= 1
	 item 355, weight= 4218, color= 0
	 item 356, weight= 4248, color= 0
	 item 357, weight= 4251, color= 1
	 item 358, weight= 4424, color= 1
	 item 359, weight= 4445, color= 0
	 item 360, weight= 4459, color= 1
	 item 361, weight= 4472, color= 0
	 item 362, weight= 4502, color= 0
	 item 363, weight= 4514, color= 0
	 item 364, weight= 4648, color= 0
	 item 365, weight= 4764, color= 0
	 item 366, weight= 4772, color= 0
	 item 367, weight= 4820, color= 0
	 item 368, weight= 4912, color= 1
	 item 369, weight= 5003, color= 1
	 item 370, weight= 5016, color= 0
	 item 371, weight= 5017, color= 0
	 item 372, weight= 5058, color= 0
	 item 373, weight= 5070, color= 1
	 item 374, weight= 5150, color= 1
	 item 375, weight= 5160, color= 1
	 item 376, weight= 5286, color= 0
	 item 377, weight= 5376, color= 1
	 item 378, weight= 5432, color= 1
	 item 379, weight= 5556, color= 1
	 item 380, weight= 5564, color= 0
	 item 381, weight= 5580, color= 1
	 item 382, weight= 5687, color= 0
	 item 383, weight= 5721, color= 0
	 item 384, weight= 5733, color= 1
	 item 385, weight= 5848, color= 1
	 item 386, weight= 5850, color= 1
	 item 387, weight= 5888, color= 1
	 item 388, weight= 5998, color= 1
	 item 389, weight= 6168, color= 0
	 item 390, weight= 6198, color= 1
	 item 391, weight= 6284, color= 1
	 item 392, weight= 6518, color= 0
	 item 393, weight= 6532, color= 0
	 item 394, weight= 6542, color= 1
	 item 395, weight= 6545, color= 1
	 item 396, weight= 6547, color= 1
	 item 397, weight= 6548, color= 0
	 item 398, weight= 6552, color= 1
	 item 399, weight= 6630, color= 0
	 item 400, weight= 6832, color= 1
	 item 401, weight= 7142, color= 0
	 item 402, weight= 7308, color= 1
	 item 403, weight= 7350, color= 0
	 item 404, weight= 7650, color= 1
	 item 405, weight= 7776, color= 1
	 item 406, weight= 7857, color= 0
	 item 407, weight= 7858, color= 0
	 item 408, weight= 7859, color= 0
	 item 409, weight= 7860, color= 1
	 item 410, weight= 7862, color= 1
	 item 411, weight= 7864, color= 1
	 item 412, weight= 7870, color= 0
	 item 413, weight= 7876, color= 1
	 item 414, weight= 7878, color= 0
	 item 415, weight= 7892, color= 0
	 item 416, weight= 7894, color= 0
	 item 417, weight= 7902, color= 0
	 item 418, weight= 8180, color= 0
	 item 419, weight= 8278, color= 0
	 item 420, weight= 8312, color= 1
	 item 421, weight= 8518, color= 1
	 item 422, weight= 8702, color= 1
	 item 423, weight= 8712, color= 0
	 item 424, weight= 8833, color= 1
	 item 425, weight= 8849, color= 1
	 item 426, weight= 8889, color= 1
	 item 427, weight= 9020, color= 1
	 item 428, weight= 9036, color= 1
	 item 429, weight= 9052, color= 1
	 item 430, weight= 9208, color= 0
	 item 431, weight= 9370, color= 0
	 item 432, weight= 9528, color= 0
	 item 433, weight= 9534, color= 1
	 item 434, weight= 9630, color= 0
	 item 435, weight= 9646, color= 0
	 item 436, weight= 9693, color= 0
	 item 437, weight= 9704, color= 0
	 item 438, weight= 9709, color= 1
	 item 439, weight= 9840, color= 1
	 item 440, weight= 9932, color= 1
	 item 441, weight= 9988, color= 0
	 item 442, weight= 10004, color= 1
	 item 443, weight= 10152, color= 1
	 item 444, weight= 10298, color= 1
	 item 445, weight= 10314, color= 0
	 item 446, weight= 10360, color= 0
	 item 447, weight= 10363, color= 0
	 item 448, weight= 10379, color= 1
	 item 449, weight= 10408, color= 0
	 item 450, weight= 10616, color= 0
	 item 451, weight= 10664, color= 1
	 item 452, weight= 10724, color= 0
	 item 453, weight= 10756, color= 0
	 item 454, weight= 10788, color= 0
	 item 455, weight= 10840, color= 0
	 item 456, weight= 10854, color= 0
	 item 457, weight= 10866, color= 1
	 item 458, weight= 10882, color= 1
	 item 459, weight= 10896, color= 0
	 item 460, weight= 10921, color= 1
	 item 461, weight= 10935, color= 1
	 item 462, weight= 10946, color= 1
	 item 463, weight= 11048, color= 0
	 item 464, weight= 11129, color= 0
	 item 465, weight= 11145, color= 1
	 item 466, weight= 11272, color= 0
	 item 467, weight= 11342, color= 1
	 item 468, weight= 11356, color= 0
	 item 469, weight= 11380, color= 1
	 item 470, weight= 11394, color= 1
	 item 471, weight= 11410, color= 0
	 item 472, weight= 11416, color= 1
	 item 473, weight= 11474, color= 1
	 item 474, weight= 11559, color= 0
	 item 475, weight= 11573, color= 1
	 item 476, weight= 11672, color= 1
	 item 477, weight= 11784, color= 1
	 item 478, weight= 11834, color= 0
	 item 479, weight= 11850, color= 1
	 item 480, weight= 11852, color= 1
	 item 481, weight= 11876, color= 0
	 item 482, weight= 11880, color= 1
	 item 483, weight= 11908, color= 0
	 item 484, weight= 11919, color= 0
	 item 485, weight= 11928, color= 1
	 item 486, weight= 11929, color= 1
	 item 487, weight= 11940, color= 1
	 item 488, weight= 11945, color= 1
	 item 489, weight= 11976, color= 1
	 item 490, weight= 12041, color= 1
	 item 491, weight= 12069, color= 0
	 item 492, weight= 12121, color= 0
	 item 493, weight= 12134, color= 1
	 item 494, weight= 12150, color= 0
	 item 495, weight= 12153, color= 1
	 item 496, weight= 12184, color= 0
	 item 497, weight= 12264, color= 1
	 item 498, weight= 12340, color= 0
	 item 499, weight= 12348, color= 1
	 item 500, weight= 12386, color= 0
	 item 501, weight= 12398, color= 0
	 item 502, weight= 12413, color= 1
	 item 503, weight= 12424, color= 1
	 item 504, weight= 12483, color= 1
	 item 505, weight= 12503, color= 1
	 item 506, weight= 12519, color= 0
	 item 507, weight= 12536, color= 0
	 item 508, weight= 12592, color= 0
	 item 509, weight= 12594, color= 1
	 item 510, weight= 12610, color= 1
	 item 511, weight= 12674, color= 1
	 item 512, weight= 12676, color= 1
	 item 513, weight= 12696, color= 1
	 item 514, weight= 12708, color= 1
	 item 515, weight= 12735, color= 1
	 item 516, weight= 12776, color= 0
	 item 517, weight= 12782, color= 0
	 item 518, weight= 12789, color= 0
	 item 519, weight= 12801, color= 0
	 item 520, weight= 12834, color= 0
	 item 521, weight= 12836, color= 1
	 item 522, weight= 12850, color= 1
	 item 523, weight= 12868, color= 0
	 item 524, weight= 12884, color= 1
	 item 525, weight= 12930, color= 0
	 item 526, weight= 12953, color= 1
	 item 527, weight= 12962, color= 1
	 item 528, weight= 12969, color= 1
	 item 529, weight= 13032, color= 1
	 item 530, weight= 13074, color= 0
	 item 531, weight= 13093, color= 0
	 item 532, weight= 13116, color= 1
	 item 533, weight= 13124, color= 0
	 item 534, weight= 13128, color= 0
	 item 535, weight= 13149, color= 0
	 item 536, weight= 13158, color= 1
	 item 537, weight= 13173, color= 1
	 item 538, weight= 13176, color= 1
	 item 539, weight= 13177, color= 0
	 item 540, weight= 13186, color= 1
	 item 541, weight= 13193, color= 0
	 item 542, weight= 13202, color= 0
	 item 543, weight= 13221, color= 1
	 item 544, weight= 13224, color= 0
	 item 545, weight= 13237, color= 0
	 item 546, weight= 13254, color= 0
	 item 547, weight= 13284, color= 1
	 item 548, weight= 13290, color= 1
	 item 549, weight= 13304, color= 0
	 item 550, weight= 13317, color= 1
	 item 551, weight= 13318, color= 0
	 item 552, weight= 13324, color= 0
	 item 553, weight= 13333, color= 0
	 item 554, weight= 13334, color= 0
	 item 555, weight= 13356, color= 0
	 item 556, weight= 13388, color= 0
	 item 557, weight= 13397, color= 1
	 item 558, weight= 13414, color= 0
	 item 559, weight= 13438, color= 1
	 item 560, weight= 13463, color= 1
	 item 561, weight= 13480, color= 0
	 item 562, weight= 13512, color= 1
	 item 563, weight= 13524, color= 1
	 item 564, weight= 13530, color= 1
	 item 565, weight= 13556, color= 1
	 item 566, weight= 13562, color= 0
	 item 567, weight= 13590, color= 1
	 item 568, weight= 13626, color= 1
	 item 569, weight= 13642, color= 0
	 item 570, weight= 13660, color= 1
	 item 571, weight= 13694, color= 0
	 item 572, weight= 13720, color= 0
	 item 573, weight= 13736, color= 1
	 item 574, weight= 13738, color= 0
	 item 575, weight= 13764, color= 1
	 item 576, weight= 13782, color= 1
	 item 577, weight= 13804, color= 1
	 item 578, weight= 13816, color= 1
	 item 579, weight= 13832, color= 1
	 item 580, weight= 13834, color= 1
	 item 581, weight= 13836, color= 1
	 item 582, weight= 13852, color= 0
	 item 583, weight= 13870, color= 0
	 item 584, weight= 13896, color= 1
	 item 585, weight= 13898, color= 0
	 item 586, weight= 13922, color= 0
	 item 587, weight= 13924, color= 0
	 item 588, weight= 13950, color= 1
	 item 589, weight= 13956, color= 1
	 item 590, weight= 13974, color= 1
	 item 591, weight= 13992, color= 0
	 item 592, weight= 13994, color= 0
	 item 593, weight= 14000, color= 0
	 item 594, weight= 14026, color= 0
	 item 595, weight= 14028, color= 0
	 item 596, weight= 14046, color= 0
	 item 597, weight= 14062, color= 1
	 item 598, weight= 14072, color= 1
	 item 599, weight= 14076, color= 0
	 item 600, weight= 14082, color= 0
	 item 601, weight= 14134, color= 1

VRPSolver warning: Interval set for resource 1 on source node (when source != sink) is ignored (by definition is [0.0,0.0])
[41m solve [00m
~~~~~~~~~~~~~~~~~~~~~~~~~~~~~~~~~~~~~~~~~~~~~~~~~~~~~~~~~~~~~~~~~~~~~~~~~~~~~~
VRPSolver v0.4.1, 24/03/2021. Web: vrpsolver.math.u-bordeaux.fr
Corresponds to the solver by Pessoa, Sadykov, Uchoa and Vanderbeck (2020)
Paper: dx.doi.org/10.1007/s10107-020-01523-z
USE THIS CODE ONLY FOR ACADEMIC PURPOSES AT YOUR OWN RISK
~~~~~~~~~~~~~~~~~~~~~~~~~~~~~~~~~~~~~~~~~~~~~~~~~~~~~~~~~~~~~~~~~~~~~~~~~~~~~~
BaPCod v053, 24/03/2021, © Inria Bordeaux, France
~~~~~~~~~~~~~~~~~~~~~~~~~~~~~~~~~~~~~~~~~~~~~~~~~~~~~~~~~~~~~~~~~~~~~~~~~~~~~~
VRPSolver parameters:
GlobalTimeLimit = 1800
MaxNbOfBBtreeNodeTreated = 100000
treeSearchStrategy = 1
RCSPstopCutGenTimeThresholdInPricing = 10
RCSPhardTimeThresholdInPricing = 20
RCSPnumberOfBucketsPerVertex = 2000
RCSPdynamicBucketSteps = 0
RCSPuseBidirectionalSearch = 1
RCSPapplyReducedCostFixing = 1
RCSPredCostFixingFalseGap = 0
RCSPmaxNumOfColsPerIteration = 100
RCSPmaxNumOfColsPerExactIteration = 100
RCSPheurLabelingStrategy = 4
StabilizationMinPhaseOfStage = 1
RCSPmaxNumOfLabelsInEnumeration = 100000
RCSPmaxNumOfEnumeratedSolutions = 1000000
RCSPmaxNumOfEnumSolutionsForMIP = 100000
RCSPinitNGneighbourhoodSize = 0
RCSPmaxNGneighbourhoodSize = 0
RCSPrankOneCutsMaxNumPerRound = 100
RCSPrankOneCutsMaxNumRows = -1
RCSPrankOneCutsMemoryType = 2
CutTailingOffThreshold = 0.02
CutTailingOffCounterThreshold = 3
SafeDualBoundScaleFactor = -1
StrongBranchingPhaseOneCandidatesNumber = 100
StrongBranchingPhaseOneTreeSizeEstimRatio = 0.3
StrongBranchingPhaseTwoCandidatesNumber = 1
StrongBranchingPhaseTwoTreeSizeEstimRatio = 0.1
MaxTimeForRestrictedMasterIpHeur = -1
DivingHeurUseDepthLimit = 0
MaxLDSbreadth = 3
MaxLDSdepth = 2
New model incumbent solution 1e+06, TIME = 0h0m0s3t = 3
Model is built TIME = 0h0m4s82t = 482
************************************************************************************************
**** BaB tree root node
**** Local DB = -1e+12, global bounds : [ -1e+12 , 1e+06 ], TIME = 0h0m4s82t = 482
**** 1 open nodes, 0 columns (0 active), 0 dyn. constrs. (0 active), 1204 art. vars. (1204 active)
************************************************************************************************
<DWph=2> <it= 10> <et=11.71> <Mt= 0.01> <Spt= 6.87> <nCl=1000> <DB=-49497147833.2705> <Mlp=709020140.0440> <PB=1000000> 
<DWph=2> <it= 20> <et=18.81> <Mt= 0.02> <Spt= 7.08> <nCl=1000> <DB=-40036636027.1332> <Mlp=689502405.0712> <PB=1000000> 
<DWph=2> <it= 30> <et=25.99> <Mt= 0.03> <Spt= 7.14> <nCl=1000> <DB=-34659818982.3918> <Mlp=675249957.5073> <PB=1000000> 
<DWph=2> <it= 40> <et=33.19> <Mt= 0.03> <Spt= 7.15> <nCl=1000> <DB=-31706661708.3519> <Mlp=657199938.5042> <PB=1000000> 
<DWph=2> <it= 50> <et=40.28> <Mt= 0.05> <Spt= 7.04> <nCl=1000> <DB=-27489731958.3211> <Mlp=635934264.5752> <PB=1000000> 
<DWph=2> <it= 60> <et=47.37> <Mt= 0.09> <Spt= 7.00> <nCl=1000> <DB=-23190796053.2709> <Mlp=612016949.2096> <PB=1000000> 
<DWph=2> <it= 70> <et=54.40> <Mt= 0.10> <Spt= 6.91> <nCl=1000> <DB=-19281972890.3883> <Mlp=587901513.2078> <PB=1000000> 
<DWph=2> <it= 80> <et=61.35> <Mt= 0.18> <Spt= 6.77> <nCl=1000> <DB=-16362598932.4305> <Mlp=563535701.9849> <PB=1000000> 
<DWph=2> <it= 90> <et=68.47> <Mt= 0.27> <Spt= 6.85> <nCl=1000> <DB=-13880722737.2330> <Mlp=539165104.0005> <PB=1000000> 
<DWph=2> <it=100> <et=75.19> <Mt= 0.36> <Spt= 6.35> <nCl=1000> <DB=-11022202709.5021> <Mlp=514906672.0218> <PB=1000000> 
<DWph=2> <it=110> <et=81.81> <Mt= 0.23> <Spt= 6.29> <nCl=1000> <DB=-8875491102.6940> <Mlp=494709086.6610> <PB=1000000> 
<DWph=2> <it=120> <et=88.17> <Mt= 0.29> <Spt= 6.07> <nCl=1000> <DB=-7489576982.8372> <Mlp=476949597.5886> <PB=1000000> 
<DWph=2> <it=130> <et=94.51> <Mt= 0.39> <Spt= 5.94> <nCl=1000> <DB=-6754408386.8890> <Mlp=455667430.0833> <PB=1000000> 
<DWph=2> <it=140> <et=100.79> <Mt= 0.42> <Spt= 5.79> <nCl=1000> <DB=-11904231346.0949> <Mlp=430165524.9208> <PB=1000000> 
<DWph=2> <it=150> <et=106.58> <Mt= 0.25> <Spt= 5.54> <nCl=1000> <DB=-5179733166.8766> <Mlp=416569299.9454> <PB=1000000> 
<DWph=2> <it=160> <et=112.57> <Mt= 0.32> <Spt= 5.66> <nCl=1000> <DB=-4473812446.1331> <Mlp=390474503.4727> <PB=1000000> 
