Application parameters:
  batch  =>  nothing
  instance  =>  "/IN/600_20000_DI_31.txt-Q2"
  ub  =>  1.0e6
  cfg  =>  "/CFG/BPP.cfg"
data = Colored Bin Packing dataset.
number of items = 601
number of colors = 2
capacity = 16608
Items : 
	 item 1, weight= 24, color= 1
	 item 2, weight= 58, color= 1
	 item 3, weight= 72, color= 1
	 item 4, weight= 96, color= 0
	 item 5, weight= 96, color= 0
	 item 6, weight= 148, color= 1
	 item 7, weight= 172, color= 0
	 item 8, weight= 176, color= 1
	 item 9, weight= 192, color= 0
	 item 10, weight= 192, color= 1
	 item 11, weight= 192, color= 1
	 item 12, weight= 212, color= 0
	 item 13, weight= 232, color= 0
	 item 14, weight= 240, color= 0
	 item 15, weight= 256, color= 0
	 item 16, weight= 256, color= 1
	 item 17, weight= 264, color= 0
	 item 18, weight= 264, color= 1
	 item 19, weight= 264, color= 1
	 item 20, weight= 272, color= 0
	 item 21, weight= 276, color= 0
	 item 22, weight= 280, color= 0
	 item 23, weight= 280, color= 1
	 item 24, weight= 284, color= 1
	 item 25, weight= 288, color= 0
	 item 26, weight= 288, color= 0
	 item 27, weight= 288, color= 1
	 item 28, weight= 288, color= 1
	 item 29, weight= 292, color= 1
	 item 30, weight= 294, color= 1
	 item 31, weight= 296, color= 0
	 item 32, weight= 298, color= 1
	 item 33, weight= 300, color= 1
	 item 34, weight= 304, color= 0
	 item 35, weight= 304, color= 0
	 item 36, weight= 304, color= 0
	 item 37, weight= 308, color= 1
	 item 38, weight= 312, color= 1
	 item 39, weight= 312, color= 1
	 item 40, weight= 320, color= 0
	 item 41, weight= 320, color= 0
	 item 42, weight= 320, color= 0
	 item 43, weight= 322, color= 0
	 item 44, weight= 328, color= 0
	 item 45, weight= 328, color= 1
	 item 46, weight= 334, color= 0
	 item 47, weight= 336, color= 1
	 item 48, weight= 336, color= 1
	 item 49, weight= 340, color= 1
	 item 50, weight= 344, color= 0
	 item 51, weight= 344, color= 0
	 item 52, weight= 344, color= 0
	 item 53, weight= 346, color= 0
	 item 54, weight= 352, color= 0
	 item 55, weight= 352, color= 0
	 item 56, weight= 364, color= 1
	 item 57, weight= 368, color= 0
	 item 58, weight= 368, color= 1
	 item 59, weight= 372, color= 0
	 item 60, weight= 378, color= 0
	 item 61, weight= 384, color= 0
	 item 62, weight= 384, color= 0
	 item 63, weight= 384, color= 1
	 item 64, weight= 392, color= 0
	 item 65, weight= 392, color= 1
	 item 66, weight= 400, color= 0
	 item 67, weight= 400, color= 1
	 item 68, weight= 408, color= 0
	 item 69, weight= 412, color= 0
	 item 70, weight= 412, color= 0
	 item 71, weight= 414, color= 0
	 item 72, weight= 414, color= 0
	 item 73, weight= 414, color= 1
	 item 74, weight= 416, color= 0
	 item 75, weight= 416, color= 0
	 item 76, weight= 418, color= 1
	 item 77, weight= 418, color= 1
	 item 78, weight= 420, color= 1
	 item 79, weight= 432, color= 0
	 item 80, weight= 440, color= 0
	 item 81, weight= 440, color= 1
	 item 82, weight= 440, color= 1
	 item 83, weight= 440, color= 1
	 item 84, weight= 440, color= 1
	 item 85, weight= 448, color= 0
	 item 86, weight= 448, color= 1
	 item 87, weight= 450, color= 1
	 item 88, weight= 452, color= 0
	 item 89, weight= 452, color= 1
	 item 90, weight= 456, color= 0
	 item 91, weight= 464, color= 1
	 item 92, weight= 464, color= 1
	 item 93, weight= 468, color= 0
	 item 94, weight= 476, color= 1
	 item 95, weight= 480, color= 0
	 item 96, weight= 480, color= 1
	 item 97, weight= 480, color= 1
	 item 98, weight= 484, color= 0
	 item 99, weight= 488, color= 1
	 item 100, weight= 496, color= 1
	 item 101, weight= 510, color= 1
	 item 102, weight= 520, color= 1
	 item 103, weight= 528, color= 0
	 item 104, weight= 528, color= 1
	 item 105, weight= 534, color= 0
	 item 106, weight= 534, color= 1
	 item 107, weight= 538, color= 0
	 item 108, weight= 544, color= 1
	 item 109, weight= 546, color= 0
	 item 110, weight= 546, color= 1
	 item 111, weight= 552, color= 0
	 item 112, weight= 560, color= 0
	 item 113, weight= 560, color= 1
	 item 114, weight= 560, color= 1
	 item 115, weight= 564, color= 0
	 item 116, weight= 572, color= 0
	 item 117, weight= 572, color= 1
	 item 118, weight= 576, color= 0
	 item 119, weight= 592, color= 1
	 item 120, weight= 604, color= 1
	 item 121, weight= 614, color= 0
	 item 122, weight= 620, color= 1
	 item 123, weight= 624, color= 0
	 item 124, weight= 624, color= 1
	 item 125, weight= 624, color= 1
	 item 126, weight= 628, color= 1
	 item 127, weight= 640, color= 0
	 item 128, weight= 672, color= 1
	 item 129, weight= 680, color= 0
	 item 130, weight= 688, color= 1
	 item 131, weight= 688, color= 1
	 item 132, weight= 688, color= 1
	 item 133, weight= 692, color= 1
	 item 134, weight= 704, color= 0
	 item 135, weight= 704, color= 0
	 item 136, weight= 704, color= 1
	 item 137, weight= 720, color= 0
	 item 138, weight= 720, color= 1
	 item 139, weight= 744, color= 0
	 item 140, weight= 754, color= 0
	 item 141, weight= 768, color= 0
	 item 142, weight= 784, color= 1
	 item 143, weight= 800, color= 0
	 item 144, weight= 800, color= 1
	 item 145, weight= 804, color= 0
	 item 146, weight= 804, color= 0
	 item 147, weight= 816, color= 0
	 item 148, weight= 840, color= 0
	 item 149, weight= 850, color= 0
	 item 150, weight= 850, color= 1
	 item 151, weight= 860, color= 1
	 item 152, weight= 864, color= 0
	 item 153, weight= 864, color= 0
	 item 154, weight= 890, color= 1
	 item 155, weight= 904, color= 1
	 item 156, weight= 908, color= 1
	 item 157, weight= 912, color= 0
	 item 158, weight= 912, color= 0
	 item 159, weight= 912, color= 1
	 item 160, weight= 920, color= 1
	 item 161, weight= 956, color= 0
	 item 162, weight= 960, color= 0
	 item 163, weight= 976, color= 0
	 item 164, weight= 986, color= 0
	 item 165, weight= 998, color= 1
	 item 166, weight= 998, color= 1
	 item 167, weight= 1024, color= 1
	 item 168, weight= 1040, color= 0
	 item 169, weight= 1040, color= 0
	 item 170, weight= 1040, color= 1
	 item 171, weight= 1056, color= 0
	 item 172, weight= 1064, color= 1
	 item 173, weight= 1064, color= 1
	 item 174, weight= 1072, color= 1
	 item 175, weight= 1088, color= 1
	 item 176, weight= 1136, color= 1
	 item 177, weight= 1136, color= 1
	 item 178, weight= 1162, color= 1
	 item 179, weight= 1182, color= 1
	 item 180, weight= 1184, color= 0
	 item 181, weight= 1184, color= 0
	 item 182, weight= 1186, color= 0
	 item 183, weight= 1188, color= 0
	 item 184, weight= 1188, color= 1
	 item 185, weight= 1190, color= 0
	 item 186, weight= 1190, color= 1
	 item 187, weight= 1190, color= 1
	 item 188, weight= 1200, color= 0
	 item 189, weight= 1232, color= 0
	 item 190, weight= 1240, color= 0
	 item 191, weight= 1240, color= 1
	 item 192, weight= 1296, color= 1
	 item 193, weight= 1312, color= 1
	 item 194, weight= 1320, color= 0
	 item 195, weight= 1376, color= 0
	 item 196, weight= 1376, color= 1
	 item 197, weight= 1376, color= 1
	 item 198, weight= 1380, color= 0
	 item 199, weight= 1380, color= 1
	 item 200, weight= 1380, color= 1
	 item 201, weight= 1382, color= 0
	 item 202, weight= 1382, color= 1
	 item 203, weight= 1382, color= 1
	 item 204, weight= 1386, color= 1
	 item 205, weight= 1420, color= 0
	 item 206, weight= 1438, color= 1
	 item 207, weight= 1448, color= 1
	 item 208, weight= 1467, color= 0
	 item 209, weight= 1476, color= 0
	 item 210, weight= 1493, color= 0
	 item 211, weight= 1496, color= 0
	 item 212, weight= 1498, color= 1
	 item 213, weight= 1520, color= 1
	 item 214, weight= 1531, color= 1
	 item 215, weight= 1532, color= 0
	 item 216, weight= 1558, color= 1
	 item 217, weight= 1564, color= 0
	 item 218, weight= 1576, color= 1
	 item 219, weight= 1582, color= 0
	 item 220, weight= 1621, color= 1
	 item 221, weight= 1642, color= 1
	 item 222, weight= 1644, color= 0
	 item 223, weight= 1649, color= 1
	 item 224, weight= 1651, color= 1
	 item 225, weight= 1672, color= 1
	 item 226, weight= 1673, color= 0
	 item 227, weight= 1684, color= 0
	 item 228, weight= 1691, color= 0
	 item 229, weight= 1691, color= 0
	 item 230, weight= 1699, color= 1
	 item 231, weight= 1710, color= 0
	 item 232, weight= 1716, color= 0
	 item 233, weight= 1737, color= 1
	 item 234, weight= 1742, color= 1
	 item 235, weight= 1768, color= 1
	 item 236, weight= 1800, color= 0
	 item 237, weight= 1804, color= 1
	 item 238, weight= 1821, color= 0
	 item 239, weight= 1826, color= 0
	 item 240, weight= 1844, color= 1
	 item 241, weight= 1862, color= 1
	 item 242, weight= 1895, color= 1
	 item 243, weight= 1912, color= 0
	 item 244, weight= 1932, color= 1
	 item 245, weight= 1934, color= 0
	 item 246, weight= 1976, color= 1
	 item 247, weight= 1988, color= 1
	 item 248, weight= 1995, color= 0
	 item 249, weight= 2004, color= 0
	 item 250, weight= 2022, color= 1
	 item 251, weight= 2048, color= 1
	 item 252, weight= 2056, color= 1
	 item 253, weight= 2068, color= 1
	 item 254, weight= 2071, color= 1
	 item 255, weight= 2074, color= 1
	 item 256, weight= 2075, color= 0
	 item 257, weight= 2079, color= 1
	 item 258, weight= 2082, color= 1
	 item 259, weight= 2090, color= 1
	 item 260, weight= 2091, color= 0
	 item 261, weight= 2099, color= 0
	 item 262, weight= 2107, color= 1
	 item 263, weight= 2126, color= 1
	 item 264, weight= 2136, color= 0
	 item 265, weight= 2180, color= 0
	 item 266, weight= 2194, color= 0
	 item 267, weight= 2210, color= 0
	 item 268, weight= 2211, color= 0
	 item 269, weight= 2228, color= 0
	 item 270, weight= 2232, color= 1
	 item 271, weight= 2244, color= 1
	 item 272, weight= 2257, color= 1
	 item 273, weight= 2260, color= 1
	 item 274, weight= 2262, color= 0
	 item 275, weight= 2276, color= 1
	 item 276, weight= 2278, color= 1
	 item 277, weight= 2286, color= 1
	 item 278, weight= 2288, color= 0
	 item 279, weight= 2344, color= 1
	 item 280, weight= 2352, color= 1
	 item 281, weight= 2391, color= 1
	 item 282, weight= 2404, color= 0
	 item 283, weight= 2405, color= 0
	 item 284, weight= 2418, color= 1
	 item 285, weight= 2423, color= 1
	 item 286, weight= 2430, color= 1
	 item 287, weight= 2460, color= 0
	 item 288, weight= 2496, color= 1
	 item 289, weight= 2524, color= 0
	 item 290, weight= 2594, color= 0
	 item 291, weight= 2602, color= 0
	 item 292, weight= 2606, color= 0
	 item 293, weight= 2643, color= 1
	 item 294, weight= 2648, color= 0
	 item 295, weight= 2677, color= 0
	 item 296, weight= 2681, color= 1
	 item 297, weight= 2697, color= 1
	 item 298, weight= 2703, color= 1
	 item 299, weight= 2733, color= 0
	 item 300, weight= 2740, color= 0
	 item 301, weight= 2741, color= 1
	 item 302, weight= 2776, color= 1
	 item 303, weight= 2796, color= 1
	 item 304, weight= 2810, color= 0
	 item 305, weight= 2812, color= 1
	 item 306, weight= 2822, color= 1
	 item 307, weight= 2833, color= 0
	 item 308, weight= 2856, color= 1
	 item 309, weight= 2862, color= 1
	 item 310, weight= 2878, color= 0
	 item 311, weight= 2886, color= 0
	 item 312, weight= 2983, color= 0
	 item 313, weight= 2988, color= 1
	 item 314, weight= 3016, color= 1
	 item 315, weight= 3027, color= 0
	 item 316, weight= 3073, color= 1
	 item 317, weight= 3105, color= 1
	 item 318, weight= 3124, color= 0
	 item 319, weight= 3138, color= 1
	 item 320, weight= 3144, color= 1
	 item 321, weight= 3148, color= 1
	 item 322, weight= 3150, color= 0
	 item 323, weight= 3168, color= 0
	 item 324, weight= 3208, color= 0
	 item 325, weight= 3371, color= 0
	 item 326, weight= 3409, color= 1
	 item 327, weight= 3448, color= 0
	 item 328, weight= 3454, color= 0
	 item 329, weight= 3466, color= 0
	 item 330, weight= 3524, color= 0
	 item 331, weight= 3548, color= 0
	 item 332, weight= 3618, color= 1
	 item 333, weight= 3656, color= 1
	 item 334, weight= 3727, color= 1
	 item 335, weight= 3773, color= 1
	 item 336, weight= 3816, color= 0
	 item 337, weight= 3846, color= 0
	 item 338, weight= 4004, color= 1
	 item 339, weight= 4026, color= 1
	 item 340, weight= 4028, color= 0
	 item 341, weight= 4042, color= 0
	 item 342, weight= 4056, color= 1
	 item 343, weight= 4152, color= 0
	 item 344, weight= 4211, color= 1
	 item 345, weight= 4257, color= 0
	 item 346, weight= 4301, color= 0
	 item 347, weight= 4318, color= 1
	 item 348, weight= 4360, color= 1
	 item 349, weight= 4400, color= 0
	 item 350, weight= 4534, color= 0
	 item 351, weight= 4546, color= 0
	 item 352, weight= 4580, color= 0
	 item 353, weight= 4602, color= 0
	 item 354, weight= 4604, color= 1
	 item 355, weight= 4791, color= 1
	 item 356, weight= 4856, color= 0
	 item 357, weight= 4920, color= 1
	 item 358, weight= 4941, color= 0
	 item 359, weight= 4997, color= 0
	 item 360, weight= 5001, color= 0
	 item 361, weight= 5142, color= 1
	 item 362, weight= 5210, color= 1
	 item 363, weight= 5292, color= 1
	 item 364, weight= 5332, color= 1
	 item 365, weight= 5348, color= 0
	 item 366, weight= 5380, color= 0
	 item 367, weight= 5431, color= 1
	 item 368, weight= 5496, color= 0
	 item 369, weight= 5681, color= 0
	 item 370, weight= 5688, color= 0
	 item 371, weight= 5763, color= 0
	 item 372, weight= 5811, color= 0
	 item 373, weight= 5854, color= 0
	 item 374, weight= 5919, color= 0
	 item 375, weight= 5928, color= 0
	 item 376, weight= 5938, color= 1
	 item 377, weight= 5939, color= 1
	 item 378, weight= 5942, color= 0
	 item 379, weight= 5950, color= 1
	 item 380, weight= 5951, color= 1
	 item 381, weight= 5955, color= 1
	 item 382, weight= 5959, color= 1
	 item 383, weight= 6014, color= 0
	 item 384, weight= 6103, color= 0
	 item 385, weight= 6144, color= 1
	 item 386, weight= 6187, color= 0
	 item 387, weight= 6188, color= 1
	 item 388, weight= 6228, color= 1
	 item 389, weight= 6244, color= 0
	 item 390, weight= 6504, color= 1
	 item 391, weight= 6607, color= 1
	 item 392, weight= 6902, color= 0
	 item 393, weight= 6904, color= 1
	 item 394, weight= 6906, color= 0
	 item 395, weight= 6913, color= 1
	 item 396, weight= 6914, color= 1
	 item 397, weight= 6916, color= 0
	 item 398, weight= 6917, color= 1
	 item 399, weight= 6921, color= 0
	 item 400, weight= 6922, color= 0
	 item 401, weight= 7260, color= 0
	 item 402, weight= 7296, color= 1
	 item 403, weight= 7603, color= 0
	 item 404, weight= 8056, color= 0
	 item 405, weight= 8224, color= 1
	 item 406, weight= 8305, color= 0
	 item 407, weight= 8306, color= 0
	 item 408, weight= 8308, color= 1
	 item 409, weight= 8309, color= 0
	 item 410, weight= 8312, color= 1
	 item 411, weight= 8313, color= 0
	 item 412, weight= 8314, color= 1
	 item 413, weight= 8316, color= 0
	 item 414, weight= 8317, color= 0
	 item 415, weight= 8322, color= 0
	 item 416, weight= 8328, color= 1
	 item 417, weight= 8330, color= 0
	 item 418, weight= 8681, color= 1
	 item 419, weight= 8808, color= 0
	 item 420, weight= 9124, color= 0
	 item 421, weight= 9140, color= 1
	 item 422, weight= 9188, color= 1
	 item 423, weight= 9394, color= 1
	 item 424, weight= 9459, color= 0
	 item 425, weight= 9463, color= 0
	 item 426, weight= 9467, color= 0
	 item 427, weight= 9470, color= 0
	 item 428, weight= 9478, color= 1
	 item 429, weight= 9483, color= 0
	 item 430, weight= 9486, color= 1
	 item 431, weight= 9496, color= 1
	 item 432, weight= 9507, color= 0
	 item 433, weight= 9531, color= 1
	 item 434, weight= 9635, color= 0
	 item 435, weight= 9655, color= 0
	 item 436, weight= 9784, color= 0
	 item 437, weight= 9791, color= 0
	 item 438, weight= 10024, color= 1
	 item 439, weight= 10156, color= 0
	 item 440, weight= 10196, color= 0
	 item 441, weight= 10212, color= 0
	 item 442, weight= 10260, color= 1
	 item 443, weight= 10358, color= 0
	 item 444, weight= 10434, color= 1
	 item 445, weight= 10442, color= 0
	 item 446, weight= 10545, color= 0
	 item 447, weight= 10609, color= 0
	 item 448, weight= 10613, color= 0
	 item 449, weight= 10681, color= 1
	 item 450, weight= 10709, color= 0
	 item 451, weight= 10712, color= 0
	 item 452, weight= 10792, color= 1
	 item 453, weight= 10861, color= 1
	 item 454, weight= 11086, color= 0
	 item 455, weight= 11092, color= 1
	 item 456, weight= 11116, color= 0
	 item 457, weight= 11154, color= 1
	 item 458, weight= 11170, color= 1
	 item 459, weight= 11344, color= 0
	 item 460, weight= 11384, color= 0
	 item 461, weight= 11447, color= 0
	 item 462, weight= 11501, color= 1
	 item 463, weight= 11557, color= 1
	 item 464, weight= 11640, color= 1
	 item 465, weight= 11762, color= 1
	 item 466, weight= 11778, color= 1
	 item 467, weight= 11780, color= 0
	 item 468, weight= 11804, color= 0
	 item 469, weight= 11826, color= 0
	 item 470, weight= 11848, color= 1
	 item 471, weight= 11994, color= 1
	 item 472, weight= 12081, color= 1
	 item 473, weight= 12137, color= 1
	 item 474, weight= 12232, color= 0
	 item 475, weight= 12270, color= 1
	 item 476, weight= 12344, color= 1
	 item 477, weight= 12356, color= 0
	 item 478, weight= 12380, color= 1
	 item 479, weight= 12450, color= 1
	 item 480, weight= 12466, color= 1
	 item 481, weight= 12472, color= 0
	 item 482, weight= 12519, color= 1
	 item 483, weight= 12565, color= 0
	 item 484, weight= 12760, color= 0
	 item 485, weight= 12830, color= 0
	 item 486, weight= 12836, color= 0
	 item 487, weight= 12846, color= 0
	 item 488, weight= 12860, color= 0
	 item 489, weight= 12883, color= 0
	 item 490, weight= 12921, color= 1
	 item 491, weight= 12977, color= 1
	 item 492, weight= 13000, color= 0
	 item 493, weight= 13146, color= 1
	 item 494, weight= 13158, color= 0
	 item 495, weight= 13174, color= 1
	 item 496, weight= 13192, color= 0
	 item 497, weight= 13222, color= 0
	 item 498, weight= 13236, color= 0
	 item 499, weight= 13238, color= 1
	 item 500, weight= 13260, color= 1
	 item 501, weight= 13265, color= 1
	 item 502, weight= 13272, color= 0
	 item 503, weight= 13276, color= 0
	 item 504, weight= 13296, color= 0
	 item 505, weight= 13321, color= 0
	 item 506, weight= 13324, color= 0
	 item 507, weight= 13329, color= 0
	 item 508, weight= 13345, color= 1
	 item 509, weight= 13373, color= 1
	 item 510, weight= 13393, color= 1
	 item 511, weight= 13397, color= 0
	 item 512, weight= 13432, color= 1
	 item 513, weight= 13437, color= 1
	 item 514, weight= 13486, color= 1
	 item 515, weight= 13562, color= 1
	 item 516, weight= 13588, color= 0
	 item 517, weight= 13640, color= 1
	 item 518, weight= 13649, color= 1
	 item 519, weight= 13660, color= 0
	 item 520, weight= 13694, color= 1
	 item 521, weight= 13710, color= 1
	 item 522, weight= 13723, color= 0
	 item 523, weight= 13724, color= 0
	 item 524, weight= 13741, color= 0
	 item 525, weight= 13800, color= 0
	 item 526, weight= 13808, color= 1
	 item 527, weight= 13866, color= 1
	 item 528, weight= 13878, color= 1
	 item 529, weight= 13894, color= 0
	 item 530, weight= 13901, color= 0
	 item 531, weight= 13924, color= 0
	 item 532, weight= 13940, color= 0
	 item 533, weight= 13942, color= 1
	 item 534, weight= 13944, color= 1
	 item 535, weight= 13957, color= 1
	 item 536, weight= 13958, color= 0
	 item 537, weight= 14004, color= 0
	 item 538, weight= 14056, color= 1
	 item 539, weight= 14068, color= 0
	 item 540, weight= 14081, color= 0
	 item 541, weight= 14091, color= 0
	 item 542, weight= 14099, color= 1
	 item 543, weight= 14102, color= 0
	 item 544, weight= 14114, color= 1
	 item 545, weight= 14115, color= 0
	 item 546, weight= 14119, color= 1
	 item 547, weight= 14122, color= 1
	 item 548, weight= 14123, color= 1
	 item 549, weight= 14127, color= 0
	 item 550, weight= 14132, color= 1
	 item 551, weight= 14152, color= 0
	 item 552, weight= 14164, color= 1
	 item 553, weight= 14186, color= 0
	 item 554, weight= 14212, color= 1
	 item 555, weight= 14228, color= 0
	 item 556, weight= 14248, color= 0
	 item 557, weight= 14290, color= 0
	 item 558, weight= 14292, color= 1
	 item 559, weight= 14310, color= 0
	 item 560, weight= 14319, color= 1
	 item 561, weight= 14328, color= 0
	 item 562, weight= 14335, color= 1
	 item 563, weight= 14374, color= 1
	 item 564, weight= 14390, color= 1
	 item 565, weight= 14396, color= 0
	 item 566, weight= 14423, color= 0
	 item 567, weight= 14452, color= 0
	 item 568, weight= 14470, color= 0
	 item 569, weight= 14488, color= 1
	 item 570, weight= 14522, color= 1
	 item 571, weight= 14525, color= 1
	 item 572, weight= 14556, color= 0
	 item 573, weight= 14558, color= 1
	 item 574, weight= 14581, color= 1
	 item 575, weight= 14596, color= 0
	 item 576, weight= 14601, color= 1
	 item 577, weight= 14616, color= 0
	 item 578, weight= 14638, color= 1
	 item 579, weight= 14644, color= 1
	 item 580, weight= 14665, color= 1
	 item 581, weight= 14697, color= 0
	 item 582, weight= 14712, color= 1
	 item 583, weight= 14714, color= 1
	 item 584, weight= 14727, color= 1
	 item 585, weight= 14728, color= 0
	 item 586, weight= 14740, color= 1
	 item 587, weight= 14742, color= 0
	 item 588, weight= 14765, color= 0
	 item 589, weight= 14769, color= 1
	 item 590, weight= 14773, color= 1
	 item 591, weight= 14800, color= 1
	 item 592, weight= 14812, color= 1
	 item 593, weight= 14814, color= 0
	 item 594, weight= 14817, color= 0
	 item 595, weight= 14824, color= 1
	 item 596, weight= 14844, color= 1
	 item 597, weight= 14849, color= 1
	 item 598, weight= 14886, color= 0
	 item 599, weight= 14888, color= 0
	 item 600, weight= 14908, color= 1
	 item 601, weight= 14946, color= 1

VRPSolver warning: Interval set for resource 1 on source node (when source != sink) is ignored (by definition is [0.0,0.0])
[41m solve [00m
~~~~~~~~~~~~~~~~~~~~~~~~~~~~~~~~~~~~~~~~~~~~~~~~~~~~~~~~~~~~~~~~~~~~~~~~~~~~~~
VRPSolver v0.4.1, 24/03/2021. Web: vrpsolver.math.u-bordeaux.fr
Corresponds to the solver by Pessoa, Sadykov, Uchoa and Vanderbeck (2020)
Paper: dx.doi.org/10.1007/s10107-020-01523-z
USE THIS CODE ONLY FOR ACADEMIC PURPOSES AT YOUR OWN RISK
~~~~~~~~~~~~~~~~~~~~~~~~~~~~~~~~~~~~~~~~~~~~~~~~~~~~~~~~~~~~~~~~~~~~~~~~~~~~~~
BaPCod v053, 24/03/2021, © Inria Bordeaux, France
~~~~~~~~~~~~~~~~~~~~~~~~~~~~~~~~~~~~~~~~~~~~~~~~~~~~~~~~~~~~~~~~~~~~~~~~~~~~~~
VRPSolver parameters:
GlobalTimeLimit = 1800
MaxNbOfBBtreeNodeTreated = 100000
treeSearchStrategy = 1
RCSPstopCutGenTimeThresholdInPricing = 10
RCSPhardTimeThresholdInPricing = 20
RCSPnumberOfBucketsPerVertex = 2000
RCSPdynamicBucketSteps = 0
RCSPuseBidirectionalSearch = 1
RCSPapplyReducedCostFixing = 1
RCSPredCostFixingFalseGap = 0
RCSPmaxNumOfColsPerIteration = 100
RCSPmaxNumOfColsPerExactIteration = 100
RCSPheurLabelingStrategy = 4
StabilizationMinPhaseOfStage = 1
RCSPmaxNumOfLabelsInEnumeration = 100000
RCSPmaxNumOfEnumeratedSolutions = 1000000
RCSPmaxNumOfEnumSolutionsForMIP = 100000
RCSPinitNGneighbourhoodSize = 0
RCSPmaxNGneighbourhoodSize = 0
RCSPrankOneCutsMaxNumPerRound = 100
RCSPrankOneCutsMaxNumRows = -1
RCSPrankOneCutsMemoryType = 2
CutTailingOffThreshold = 0.02
CutTailingOffCounterThreshold = 3
SafeDualBoundScaleFactor = -1
StrongBranchingPhaseOneCandidatesNumber = 100
StrongBranchingPhaseOneTreeSizeEstimRatio = 0.3
StrongBranchingPhaseTwoCandidatesNumber = 1
StrongBranchingPhaseTwoTreeSizeEstimRatio = 0.1
MaxTimeForRestrictedMasterIpHeur = -1
DivingHeurUseDepthLimit = 0
MaxLDSbreadth = 3
MaxLDSdepth = 2
New model incumbent solution 1e+06, TIME = 0h0m0s3t = 3
Model is built TIME = 0h0m4s67t = 467
************************************************************************************************
**** BaB tree root node
**** Local DB = -1e+12, global bounds : [ -1e+12 , 1e+06 ], TIME = 0h0m4s67t = 467
**** 1 open nodes, 0 columns (0 active), 0 dyn. constrs. (0 active), 1204 art. vars. (1204 active)
************************************************************************************************
<DWph=2> <it= 10> <et=11.38> <Mt= 0.01> <Spt= 6.68> <nCl=1000> <DB=-69818791406.4295> <Mlp=710883629.3491> <PB=1000000> 
<DWph=2> <it= 20> <et=18.80> <Mt= 0.02> <Spt= 7.40> <nCl=1000> <DB=-42311990993.4011> <Mlp=697046457.4699> <PB=1000000> 
<DWph=2> <it= 30> <et=25.98> <Mt= 0.03> <Spt= 7.14> <nCl=1000> <DB=-38982374254.3972> <Mlp=680906163.9295> <PB=1000000> 
<DWph=2> <it= 40> <et=33.20> <Mt= 0.04> <Spt= 7.18> <nCl=1000> <DB=-32748463097.3077> <Mlp=660520161.1340> <PB=1000000> 
<DWph=2> <it= 50> <et=40.53> <Mt= 0.08> <Spt= 7.24> <nCl=1000> <DB=-27912480647.7340> <Mlp=637855583.2507> <PB=1000000> 
<DWph=2> <it= 60> <et=47.99> <Mt= 0.10> <Spt= 7.36> <nCl=1000> <DB=-31215420184.9074> <Mlp=617367314.2451> <PB=1000000> 
<DWph=2> <it= 70> <et=55.42> <Mt= 0.12> <Spt= 7.30> <nCl=1000> <DB=-21582817529.1250> <Mlp=594360874.6481> <PB=1000000> 
<DWph=2> <it= 80> <et=62.56> <Mt= 0.23> <Spt= 6.90> <nCl=1000> <DB=-18181541964.3131> <Mlp=569657438.8406> <PB=1000000> 
<DWph=2> <it= 90> <et=69.64> <Mt= 0.27> <Spt= 6.81> <nCl=1000> <DB=-13874709836.3940> <Mlp=547659563.3285> <PB=1000000> 
<DWph=2> <it=100> <et=76.33> <Mt= 0.29> <Spt= 6.39> <nCl=1000> <DB=-12604245115.6143> <Mlp=526400129.3176> <PB=1000000> 
<DWph=2> <it=110> <et=83.32> <Mt= 0.25> <Spt= 6.64> <nCl=1000> <DB=-9603376586.5339> <Mlp=510926156.8689> <PB=1000000> 
<DWph=2> <it=120> <et=89.93> <Mt= 0.33> <Spt= 6.28> <nCl=1000> <DB=-8414428755.4143> <Mlp=480609511.3830> <PB=1000000> 
<DWph=2> <it=130> <et=96.60> <Mt= 0.34> <Spt= 6.32> <nCl=1000> <DB=-7462897032.8723> <Mlp=469971447.8977> <PB=1000000> 
<DWph=2> <it=140> <et=103.44> <Mt= 0.33> <Spt= 6.41> <nCl=1000> <DB=-6060067942.9676> <Mlp=444702124.3321> <PB=1000000> 
<DWph=2> <it=150> <et=109.71> <Mt= 0.24> <Spt= 6.02> <nCl=1000> <DB=-13786810877.1605> <Mlp=427595710.4480> <PB=1000000> 
