Application parameters:
  batch  =>  nothing
  instance  =>  "/IN/600_20000_DI_14.txt-Q2"
  ub  =>  1.0e6
  cfg  =>  "/CFG/BPP.cfg"
data = Colored Bin Packing dataset.
number of items = 601
number of colors = 2
capacity = 15328
Items : 
	 item 1, weight= 40, color= 0
	 item 2, weight= 72, color= 0
	 item 3, weight= 96, color= 1
	 item 4, weight= 96, color= 1
	 item 5, weight= 96, color= 1
	 item 6, weight= 112, color= 1
	 item 7, weight= 128, color= 0
	 item 8, weight= 152, color= 1
	 item 9, weight= 164, color= 0
	 item 10, weight= 168, color= 1
	 item 11, weight= 176, color= 1
	 item 12, weight= 184, color= 1
	 item 13, weight= 192, color= 0
	 item 14, weight= 192, color= 0
	 item 15, weight= 200, color= 0
	 item 16, weight= 208, color= 0
	 item 17, weight= 210, color= 1
	 item 18, weight= 224, color= 1
	 item 19, weight= 224, color= 1
	 item 20, weight= 224, color= 1
	 item 21, weight= 232, color= 1
	 item 22, weight= 256, color= 0
	 item 23, weight= 256, color= 0
	 item 24, weight= 256, color= 0
	 item 25, weight= 256, color= 0
	 item 26, weight= 256, color= 0
	 item 27, weight= 264, color= 0
	 item 28, weight= 272, color= 0
	 item 29, weight= 272, color= 1
	 item 30, weight= 272, color= 1
	 item 31, weight= 280, color= 0
	 item 32, weight= 280, color= 1
	 item 33, weight= 288, color= 0
	 item 34, weight= 288, color= 1
	 item 35, weight= 292, color= 0
	 item 36, weight= 296, color= 0
	 item 37, weight= 304, color= 0
	 item 38, weight= 304, color= 0
	 item 39, weight= 308, color= 0
	 item 40, weight= 312, color= 1
	 item 41, weight= 314, color= 0
	 item 42, weight= 316, color= 1
	 item 43, weight= 320, color= 1
	 item 44, weight= 320, color= 1
	 item 45, weight= 324, color= 1
	 item 46, weight= 326, color= 1
	 item 47, weight= 328, color= 0
	 item 48, weight= 328, color= 1
	 item 49, weight= 328, color= 1
	 item 50, weight= 330, color= 0
	 item 51, weight= 332, color= 1
	 item 52, weight= 336, color= 1
	 item 53, weight= 344, color= 0
	 item 54, weight= 348, color= 1
	 item 55, weight= 352, color= 0
	 item 56, weight= 352, color= 0
	 item 57, weight= 352, color= 0
	 item 58, weight= 352, color= 1
	 item 59, weight= 356, color= 1
	 item 60, weight= 358, color= 0
	 item 61, weight= 360, color= 0
	 item 62, weight= 360, color= 1
	 item 63, weight= 364, color= 1
	 item 64, weight= 364, color= 1
	 item 65, weight= 378, color= 0
	 item 66, weight= 384, color= 0
	 item 67, weight= 384, color= 1
	 item 68, weight= 388, color= 1
	 item 69, weight= 392, color= 0
	 item 70, weight= 392, color= 1
	 item 71, weight= 400, color= 0
	 item 72, weight= 400, color= 1
	 item 73, weight= 404, color= 0
	 item 74, weight= 404, color= 0
	 item 75, weight= 404, color= 0
	 item 76, weight= 404, color= 0
	 item 77, weight= 408, color= 1
	 item 78, weight= 408, color= 1
	 item 79, weight= 416, color= 1
	 item 80, weight= 416, color= 1
	 item 81, weight= 418, color= 1
	 item 82, weight= 440, color= 0
	 item 83, weight= 440, color= 1
	 item 84, weight= 440, color= 1
	 item 85, weight= 442, color= 0
	 item 86, weight= 444, color= 0
	 item 87, weight= 448, color= 0
	 item 88, weight= 448, color= 0
	 item 89, weight= 448, color= 0
	 item 90, weight= 450, color= 0
	 item 91, weight= 456, color= 0
	 item 92, weight= 456, color= 1
	 item 93, weight= 460, color= 0
	 item 94, weight= 464, color= 1
	 item 95, weight= 472, color= 0
	 item 96, weight= 472, color= 0
	 item 97, weight= 474, color= 0
	 item 98, weight= 480, color= 0
	 item 99, weight= 480, color= 0
	 item 100, weight= 504, color= 0
	 item 101, weight= 504, color= 0
	 item 102, weight= 504, color= 0
	 item 103, weight= 508, color= 0
	 item 104, weight= 512, color= 0
	 item 105, weight= 528, color= 1
	 item 106, weight= 528, color= 1
	 item 107, weight= 532, color= 1
	 item 108, weight= 534, color= 0
	 item 109, weight= 536, color= 0
	 item 110, weight= 544, color= 1
	 item 111, weight= 550, color= 1
	 item 112, weight= 560, color= 0
	 item 113, weight= 560, color= 0
	 item 114, weight= 560, color= 0
	 item 115, weight= 560, color= 1
	 item 116, weight= 576, color= 0
	 item 117, weight= 580, color= 1
	 item 118, weight= 582, color= 0
	 item 119, weight= 582, color= 0
	 item 120, weight= 586, color= 1
	 item 121, weight= 590, color= 0
	 item 122, weight= 608, color= 0
	 item 123, weight= 608, color= 0
	 item 124, weight= 608, color= 1
	 item 125, weight= 624, color= 0
	 item 126, weight= 624, color= 0
	 item 127, weight= 628, color= 0
	 item 128, weight= 628, color= 1
	 item 129, weight= 640, color= 0
	 item 130, weight= 664, color= 0
	 item 131, weight= 672, color= 0
	 item 132, weight= 676, color= 1
	 item 133, weight= 678, color= 0
	 item 134, weight= 682, color= 1
	 item 135, weight= 704, color= 0
	 item 136, weight= 704, color= 0
	 item 137, weight= 704, color= 1
	 item 138, weight= 706, color= 1
	 item 139, weight= 710, color= 0
	 item 140, weight= 710, color= 0
	 item 141, weight= 714, color= 1
	 item 142, weight= 716, color= 1
	 item 143, weight= 716, color= 1
	 item 144, weight= 718, color= 0
	 item 145, weight= 720, color= 1
	 item 146, weight= 728, color= 0
	 item 147, weight= 736, color= 0
	 item 148, weight= 760, color= 0
	 item 149, weight= 760, color= 1
	 item 150, weight= 768, color= 0
	 item 151, weight= 776, color= 0
	 item 152, weight= 776, color= 1
	 item 153, weight= 784, color= 1
	 item 154, weight= 814, color= 0
	 item 155, weight= 816, color= 1
	 item 156, weight= 816, color= 1
	 item 157, weight= 818, color= 1
	 item 158, weight= 818, color= 1
	 item 159, weight= 822, color= 1
	 item 160, weight= 824, color= 1
	 item 161, weight= 826, color= 1
	 item 162, weight= 832, color= 0
	 item 163, weight= 864, color= 0
	 item 164, weight= 880, color= 0
	 item 165, weight= 896, color= 0
	 item 166, weight= 898, color= 1
	 item 167, weight= 904, color= 0
	 item 168, weight= 904, color= 0
	 item 169, weight= 904, color= 1
	 item 170, weight= 920, color= 0
	 item 171, weight= 920, color= 1
	 item 172, weight= 936, color= 0
	 item 173, weight= 944, color= 0
	 item 174, weight= 944, color= 1
	 item 175, weight= 944, color= 1
	 item 176, weight= 948, color= 0
	 item 177, weight= 952, color= 1
	 item 178, weight= 960, color= 1
	 item 179, weight= 976, color= 0
	 item 180, weight= 976, color= 0
	 item 181, weight= 1000, color= 1
	 item 182, weight= 1008, color= 1
	 item 183, weight= 1008, color= 1
	 item 184, weight= 1024, color= 1
	 item 185, weight= 1072, color= 1
	 item 186, weight= 1088, color= 1
	 item 187, weight= 1100, color= 0
	 item 188, weight= 1100, color= 1
	 item 189, weight= 1104, color= 1
	 item 190, weight= 1120, color= 1
	 item 191, weight= 1120, color= 1
	 item 192, weight= 1122, color= 0
	 item 193, weight= 1126, color= 1
	 item 194, weight= 1130, color= 1
	 item 195, weight= 1232, color= 1
	 item 196, weight= 1248, color= 1
	 item 197, weight= 1256, color= 1
	 item 198, weight= 1264, color= 1
	 item 199, weight= 1272, color= 0
	 item 200, weight= 1272, color= 0
	 item 201, weight= 1272, color= 0
	 item 202, weight= 1276, color= 0
	 item 203, weight= 1276, color= 1
	 item 204, weight= 1276, color= 1
	 item 205, weight= 1286, color= 1
	 item 206, weight= 1352, color= 1
	 item 207, weight= 1364, color= 1
	 item 208, weight= 1364, color= 1
	 item 209, weight= 1402, color= 0
	 item 210, weight= 1406, color= 1
	 item 211, weight= 1448, color= 1
	 item 212, weight= 1454, color= 1
	 item 213, weight= 1466, color= 1
	 item 214, weight= 1476, color= 0
	 item 215, weight= 1484, color= 1
	 item 216, weight= 1492, color= 1
	 item 217, weight= 1496, color= 0
	 item 218, weight= 1526, color= 0
	 item 219, weight= 1546, color= 1
	 item 220, weight= 1560, color= 1
	 item 221, weight= 1561, color= 0
	 item 222, weight= 1575, color= 1
	 item 223, weight= 1594, color= 0
	 item 224, weight= 1620, color= 0
	 item 225, weight= 1621, color= 0
	 item 226, weight= 1631, color= 0
	 item 227, weight= 1644, color= 1
	 item 228, weight= 1655, color= 1
	 item 229, weight= 1660, color= 1
	 item 230, weight= 1672, color= 1
	 item 231, weight= 1674, color= 0
	 item 232, weight= 1676, color= 0
	 item 233, weight= 1688, color= 0
	 item 234, weight= 1731, color= 0
	 item 235, weight= 1751, color= 0
	 item 236, weight= 1766, color= 1
	 item 237, weight= 1772, color= 1
	 item 238, weight= 1774, color= 1
	 item 239, weight= 1784, color= 1
	 item 240, weight= 1786, color= 0
	 item 241, weight= 1797, color= 1
	 item 242, weight= 1831, color= 0
	 item 243, weight= 1832, color= 0
	 item 244, weight= 1834, color= 0
	 item 245, weight= 1848, color= 0
	 item 246, weight= 1897, color= 1
	 item 247, weight= 1904, color= 0
	 item 248, weight= 1921, color= 0
	 item 249, weight= 1924, color= 1
	 item 250, weight= 1944, color= 0
	 item 251, weight= 1951, color= 0
	 item 252, weight= 1956, color= 1
	 item 253, weight= 1961, color= 0
	 item 254, weight= 1964, color= 1
	 item 255, weight= 1982, color= 0
	 item 256, weight= 1997, color= 1
	 item 257, weight= 2021, color= 0
	 item 258, weight= 2026, color= 0
	 item 259, weight= 2042, color= 0
	 item 260, weight= 2044, color= 0
	 item 261, weight= 2056, color= 1
	 item 262, weight= 2058, color= 0
	 item 263, weight= 2072, color= 0
	 item 264, weight= 2087, color= 1
	 item 265, weight= 2096, color= 1
	 item 266, weight= 2101, color= 0
	 item 267, weight= 2145, color= 0
	 item 268, weight= 2192, color= 1
	 item 269, weight= 2205, color= 0
	 item 270, weight= 2214, color= 0
	 item 271, weight= 2219, color= 1
	 item 272, weight= 2234, color= 1
	 item 273, weight= 2251, color= 1
	 item 274, weight= 2264, color= 1
	 item 275, weight= 2268, color= 1
	 item 276, weight= 2292, color= 1
	 item 277, weight= 2306, color= 1
	 item 278, weight= 2308, color= 0
	 item 279, weight= 2328, color= 0
	 item 280, weight= 2328, color= 0
	 item 281, weight= 2344, color= 1
	 item 282, weight= 2363, color= 1
	 item 283, weight= 2372, color= 0
	 item 284, weight= 2377, color= 1
	 item 285, weight= 2408, color= 1
	 item 286, weight= 2521, color= 1
	 item 287, weight= 2530, color= 1
	 item 288, weight= 2534, color= 1
	 item 289, weight= 2551, color= 0
	 item 290, weight= 2584, color= 1
	 item 291, weight= 2598, color= 0
	 item 292, weight= 2648, color= 0
	 item 293, weight= 2663, color= 0
	 item 294, weight= 2676, color= 0
	 item 295, weight= 2677, color= 1
	 item 296, weight= 2684, color= 1
	 item 297, weight= 2691, color= 1
	 item 298, weight= 2728, color= 0
	 item 299, weight= 2757, color= 0
	 item 300, weight= 2783, color= 1
	 item 301, weight= 2802, color= 1
	 item 302, weight= 2806, color= 1
	 item 303, weight= 2828, color= 1
	 item 304, weight= 2911, color= 0
	 item 305, weight= 2917, color= 0
	 item 306, weight= 2936, color= 1
	 item 307, weight= 2937, color= 0
	 item 308, weight= 2957, color= 1
	 item 309, weight= 3051, color= 1
	 item 310, weight= 3060, color= 0
	 item 311, weight= 3064, color= 1
	 item 312, weight= 3128, color= 0
	 item 313, weight= 3134, color= 1
	 item 314, weight= 3146, color= 1
	 item 315, weight= 3151, color= 0
	 item 316, weight= 3213, color= 1
	 item 317, weight= 3228, color= 1
	 item 318, weight= 3282, color= 0
	 item 319, weight= 3368, color= 1
	 item 320, weight= 3383, color= 0
	 item 321, weight= 3389, color= 1
	 item 322, weight= 3401, color= 1
	 item 323, weight= 3413, color= 0
	 item 324, weight= 3501, color= 1
	 item 325, weight= 3524, color= 0
	 item 326, weight= 3541, color= 1
	 item 327, weight= 3542, color= 0
	 item 328, weight= 3553, color= 1
	 item 329, weight= 3561, color= 1
	 item 330, weight= 3581, color= 0
	 item 331, weight= 3586, color= 0
	 item 332, weight= 3592, color= 1
	 item 333, weight= 3601, color= 1
	 item 334, weight= 3602, color= 1
	 item 335, weight= 3642, color= 1
	 item 336, weight= 3736, color= 1
	 item 337, weight= 3820, color= 0
	 item 338, weight= 3836, color= 1
	 item 339, weight= 3863, color= 0
	 item 340, weight= 3884, color= 0
	 item 341, weight= 3884, color= 0
	 item 342, weight= 3900, color= 1
	 item 343, weight= 3923, color= 0
	 item 344, weight= 3928, color= 1
	 item 345, weight= 3939, color= 0
	 item 346, weight= 4081, color= 1
	 item 347, weight= 4084, color= 1
	 item 348, weight= 4086, color= 1
	 item 349, weight= 4093, color= 1
	 item 350, weight= 4101, color= 0
	 item 351, weight= 4121, color= 1
	 item 352, weight= 4136, color= 0
	 item 353, weight= 4138, color= 0
	 item 354, weight= 4141, color= 0
	 item 355, weight= 4311, color= 0
	 item 356, weight= 4328, color= 1
	 item 357, weight= 4488, color= 1
	 item 358, weight= 4501, color= 0
	 item 359, weight= 4516, color= 1
	 item 360, weight= 4524, color= 1
	 item 361, weight= 4540, color= 0
	 item 362, weight= 4556, color= 1
	 item 363, weight= 4571, color= 1
	 item 364, weight= 4604, color= 1
	 item 365, weight= 4620, color= 1
	 item 366, weight= 4684, color= 1
	 item 367, weight= 4730, color= 0
	 item 368, weight= 4742, color= 1
	 item 369, weight= 4744, color= 1
	 item 370, weight= 4782, color= 1
	 item 371, weight= 4808, color= 0
	 item 372, weight= 4880, color= 1
	 item 373, weight= 4889, color= 1
	 item 374, weight= 4935, color= 0
	 item 375, weight= 5003, color= 1
	 item 376, weight= 5064, color= 0
	 item 377, weight= 5132, color= 0
	 item 378, weight= 5232, color= 1
	 item 379, weight= 5380, color= 0
	 item 380, weight= 5458, color= 0
	 item 381, weight= 5476, color= 1
	 item 382, weight= 5502, color= 1
	 item 383, weight= 5518, color= 1
	 item 384, weight= 5528, color= 1
	 item 385, weight= 5607, color= 0
	 item 386, weight= 5608, color= 1
	 item 387, weight= 5613, color= 1
	 item 388, weight= 5633, color= 0
	 item 389, weight= 5653, color= 0
	 item 390, weight= 5696, color= 1
	 item 391, weight= 5916, color= 1
	 item 392, weight= 6056, color= 0
	 item 393, weight= 6184, color= 0
	 item 394, weight= 6284, color= 1
	 item 395, weight= 6308, color= 1
	 item 396, weight= 6372, color= 1
	 item 397, weight= 6382, color= 1
	 item 398, weight= 6385, color= 1
	 item 399, weight= 6386, color= 0
	 item 400, weight= 6387, color= 1
	 item 401, weight= 6388, color= 0
	 item 402, weight= 6392, color= 0
	 item 403, weight= 6720, color= 0
	 item 404, weight= 7324, color= 1
	 item 405, weight= 7600, color= 0
	 item 406, weight= 7665, color= 1
	 item 407, weight= 7666, color= 1
	 item 408, weight= 7667, color= 0
	 item 409, weight= 7668, color= 1
	 item 410, weight= 7672, color= 0
	 item 411, weight= 7674, color= 0
	 item 412, weight= 7684, color= 1
	 item 413, weight= 7700, color= 0
	 item 414, weight= 7764, color= 0
	 item 415, weight= 7796, color= 0
	 item 416, weight= 7912, color= 0
	 item 417, weight= 8545, color= 1
	 item 418, weight= 8569, color= 1
	 item 419, weight= 8593, color= 0
	 item 420, weight= 8600, color= 0
	 item 421, weight= 8601, color= 0
	 item 422, weight= 8696, color= 0
	 item 423, weight= 8710, color= 0
	 item 424, weight= 8726, color= 0
	 item 425, weight= 8782, color= 0
	 item 426, weight= 8804, color= 1
	 item 427, weight= 8876, color= 1
	 item 428, weight= 9016, color= 1
	 item 429, weight= 9172, color= 0
	 item 430, weight= 9256, color= 0
	 item 431, weight= 9325, color= 0
	 item 432, weight= 9463, color= 1
	 item 433, weight= 9472, color= 1
	 item 434, weight= 9560, color= 0
	 item 435, weight= 9594, color= 0
	 item 436, weight= 9638, color= 1
	 item 437, weight= 9640, color= 0
	 item 438, weight= 9654, color= 0
	 item 439, weight= 9708, color= 0
	 item 440, weight= 9740, color= 0
	 item 441, weight= 9788, color= 1
	 item 442, weight= 9804, color= 0
	 item 443, weight= 9868, color= 1
	 item 444, weight= 9884, color= 0
	 item 445, weight= 9900, color= 1
	 item 446, weight= 9916, color= 0
	 item 447, weight= 9929, color= 0
	 item 448, weight= 9953, color= 0
	 item 449, weight= 9960, color= 1
	 item 450, weight= 10093, color= 0
	 item 451, weight= 10136, color= 1
	 item 452, weight= 10361, color= 1
	 item 453, weight= 10366, color= 0
	 item 454, weight= 10376, color= 0
	 item 455, weight= 10385, color= 0
	 item 456, weight= 10409, color= 1
	 item 457, weight= 10417, color= 0
	 item 458, weight= 10426, color= 0
	 item 459, weight= 10433, color= 0
	 item 460, weight= 10457, color= 1
	 item 461, weight= 10621, color= 0
	 item 462, weight= 10632, color= 1
	 item 463, weight= 10652, color= 1
	 item 464, weight= 10668, color= 0
	 item 465, weight= 10732, color= 1
	 item 466, weight= 10748, color= 0
	 item 467, weight= 10764, color= 1
	 item 468, weight= 10856, color= 1
	 item 469, weight= 10958, color= 1
	 item 470, weight= 11009, color= 1
	 item 471, weight= 11010, color= 0
	 item 472, weight= 11026, color= 0
	 item 473, weight= 11032, color= 1
	 item 474, weight= 11033, color= 0
	 item 475, weight= 11057, color= 0
	 item 476, weight= 11065, color= 1
	 item 477, weight= 11081, color= 0
	 item 478, weight= 11082, color= 0
	 item 479, weight= 11084, color= 0
	 item 480, weight= 11100, color= 1
	 item 481, weight= 11105, color= 1
	 item 482, weight= 11189, color= 1
	 item 483, weight= 11233, color= 0
	 item 484, weight= 11245, color= 1
	 item 485, weight= 11249, color= 1
	 item 486, weight= 11269, color= 1
	 item 487, weight= 11288, color= 1
	 item 488, weight= 11460, color= 1
	 item 489, weight= 11549, color= 0
	 item 490, weight= 11554, color= 1
	 item 491, weight= 11570, color= 1
	 item 492, weight= 11576, color= 1
	 item 493, weight= 11656, color= 0
	 item 494, weight= 11660, color= 1
	 item 495, weight= 11683, color= 1
	 item 496, weight= 11711, color= 1
	 item 497, weight= 11781, color= 0
	 item 498, weight= 11805, color= 0
	 item 499, weight= 11816, color= 1
	 item 500, weight= 11829, color= 1
	 item 501, weight= 11837, color= 0
	 item 502, weight= 11940, color= 0
	 item 503, weight= 11950, color= 0
	 item 504, weight= 11962, color= 1
	 item 505, weight= 11966, color= 1
	 item 506, weight= 12021, color= 0
	 item 507, weight= 12045, color= 0
	 item 508, weight= 12056, color= 1
	 item 509, weight= 12108, color= 1
	 item 510, weight= 12117, color= 0
	 item 511, weight= 12124, color= 0
	 item 512, weight= 12133, color= 0
	 item 513, weight= 12152, color= 0
	 item 514, weight= 12232, color= 0
	 item 515, weight= 12269, color= 1
	 item 516, weight= 12272, color= 1
	 item 517, weight= 12290, color= 0
	 item 518, weight= 12294, color= 0
	 item 519, weight= 12303, color= 1
	 item 520, weight= 12381, color= 1
	 item 521, weight= 12440, color= 0
	 item 522, weight= 12453, color= 0
	 item 523, weight= 12477, color= 1
	 item 524, weight= 12484, color= 1
	 item 525, weight= 12493, color= 0
	 item 526, weight= 12536, color= 1
	 item 527, weight= 12552, color= 1
	 item 528, weight= 12562, color= 1
	 item 529, weight= 12564, color= 0
	 item 530, weight= 12578, color= 0
	 item 531, weight= 12580, color= 1
	 item 532, weight= 12612, color= 1
	 item 533, weight= 12616, color= 1
	 item 534, weight= 12627, color= 1
	 item 535, weight= 12650, color= 0
	 item 536, weight= 12667, color= 1
	 item 537, weight= 12674, color= 0
	 item 538, weight= 12683, color= 1
	 item 539, weight= 12720, color= 0
	 item 540, weight= 12760, color= 0
	 item 541, weight= 12809, color= 0
	 item 542, weight= 12825, color= 0
	 item 543, weight= 12856, color= 0
	 item 544, weight= 12862, color= 0
	 item 545, weight= 12872, color= 0
	 item 546, weight= 12876, color= 0
	 item 547, weight= 12882, color= 1
	 item 548, weight= 12898, color= 1
	 item 549, weight= 12903, color= 1
	 item 550, weight= 12954, color= 0
	 item 551, weight= 12972, color= 1
	 item 552, weight= 12973, color= 0
	 item 553, weight= 12988, color= 0
	 item 554, weight= 12989, color= 1
	 item 555, weight= 13023, color= 1
	 item 556, weight= 13053, color= 1
	 item 557, weight= 13112, color= 0
	 item 558, weight= 13130, color= 0
	 item 559, weight= 13133, color= 0
	 item 560, weight= 13144, color= 0
	 item 561, weight= 13163, color= 0
	 item 562, weight= 13173, color= 1
	 item 563, weight= 13186, color= 1
	 item 564, weight= 13192, color= 0
	 item 565, weight= 13202, color= 0
	 item 566, weight= 13204, color= 0
	 item 567, weight= 13212, color= 0
	 item 568, weight= 13229, color= 0
	 item 569, weight= 13253, color= 1
	 item 570, weight= 13304, color= 0
	 item 571, weight= 13322, color= 0
	 item 572, weight= 13324, color= 0
	 item 573, weight= 13327, color= 1
	 item 574, weight= 13336, color= 0
	 item 575, weight= 13338, color= 0
	 item 576, weight= 13340, color= 1
	 item 577, weight= 13343, color= 1
	 item 578, weight= 13352, color= 1
	 item 579, weight= 13356, color= 0
	 item 580, weight= 13371, color= 0
	 item 581, weight= 13383, color= 1
	 item 582, weight= 13388, color= 0
	 item 583, weight= 13418, color= 0
	 item 584, weight= 13439, color= 1
	 item 585, weight= 13455, color= 0
	 item 586, weight= 13474, color= 1
	 item 587, weight= 13498, color= 1
	 item 588, weight= 13548, color= 1
	 item 589, weight= 13564, color= 1
	 item 590, weight= 13570, color= 1
	 item 591, weight= 13576, color= 0
	 item 592, weight= 13586, color= 0
	 item 593, weight= 13608, color= 0
	 item 594, weight= 13642, color= 1
	 item 595, weight= 13646, color= 0
	 item 596, weight= 13692, color= 0
	 item 597, weight= 13700, color= 0
	 item 598, weight= 13720, color= 0
	 item 599, weight= 13736, color= 0
	 item 600, weight= 13764, color= 1
	 item 601, weight= 13786, color= 1

VRPSolver warning: Interval set for resource 1 on source node (when source != sink) is ignored (by definition is [0.0,0.0])
[41m solve [00m
~~~~~~~~~~~~~~~~~~~~~~~~~~~~~~~~~~~~~~~~~~~~~~~~~~~~~~~~~~~~~~~~~~~~~~~~~~~~~~
VRPSolver v0.4.1, 24/03/2021. Web: vrpsolver.math.u-bordeaux.fr
Corresponds to the solver by Pessoa, Sadykov, Uchoa and Vanderbeck (2020)
Paper: dx.doi.org/10.1007/s10107-020-01523-z
USE THIS CODE ONLY FOR ACADEMIC PURPOSES AT YOUR OWN RISK
~~~~~~~~~~~~~~~~~~~~~~~~~~~~~~~~~~~~~~~~~~~~~~~~~~~~~~~~~~~~~~~~~~~~~~~~~~~~~~
BaPCod v053, 24/03/2021, © Inria Bordeaux, France
~~~~~~~~~~~~~~~~~~~~~~~~~~~~~~~~~~~~~~~~~~~~~~~~~~~~~~~~~~~~~~~~~~~~~~~~~~~~~~
VRPSolver parameters:
GlobalTimeLimit = 1800
MaxNbOfBBtreeNodeTreated = 100000
treeSearchStrategy = 1
RCSPstopCutGenTimeThresholdInPricing = 10
RCSPhardTimeThresholdInPricing = 20
RCSPnumberOfBucketsPerVertex = 2000
RCSPdynamicBucketSteps = 0
RCSPuseBidirectionalSearch = 1
RCSPapplyReducedCostFixing = 1
RCSPredCostFixingFalseGap = 0
RCSPmaxNumOfColsPerIteration = 100
RCSPmaxNumOfColsPerExactIteration = 100
RCSPheurLabelingStrategy = 4
StabilizationMinPhaseOfStage = 1
RCSPmaxNumOfLabelsInEnumeration = 100000
RCSPmaxNumOfEnumeratedSolutions = 1000000
RCSPmaxNumOfEnumSolutionsForMIP = 100000
RCSPinitNGneighbourhoodSize = 0
RCSPmaxNGneighbourhoodSize = 0
RCSPrankOneCutsMaxNumPerRound = 100
RCSPrankOneCutsMaxNumRows = -1
RCSPrankOneCutsMemoryType = 2
CutTailingOffThreshold = 0.02
CutTailingOffCounterThreshold = 3
SafeDualBoundScaleFactor = -1
StrongBranchingPhaseOneCandidatesNumber = 100
StrongBranchingPhaseOneTreeSizeEstimRatio = 0.3
StrongBranchingPhaseTwoCandidatesNumber = 1
StrongBranchingPhaseTwoTreeSizeEstimRatio = 0.1
MaxTimeForRestrictedMasterIpHeur = -1
DivingHeurUseDepthLimit = 0
MaxLDSbreadth = 3
MaxLDSdepth = 2
New model incumbent solution 1e+06, TIME = 0h0m0s3t = 3
Model is built TIME = 0h0m4s72t = 472
************************************************************************************************
**** BaB tree root node
**** Local DB = -1e+12, global bounds : [ -1e+12 , 1e+06 ], TIME = 0h0m4s73t = 473
**** 1 open nodes, 0 columns (0 active), 0 dyn. constrs. (0 active), 1204 art. vars. (1204 active)
************************************************************************************************
<DWph=2> <it= 10> <et=12.27> <Mt= 0.01> <Spt= 7.52> <nCl=1000> <DB=-53373311255.4129> <Mlp=703786400.1696> <PB=1000000> 
<DWph=2> <it= 20> <et=19.64> <Mt= 0.02> <Spt= 7.35> <nCl=1000> <DB=-44293356257.7808> <Mlp=690899467.1213> <PB=1000000> 
<DWph=2> <it= 30> <et=26.92> <Mt= 0.03> <Spt= 7.24> <nCl=1000> <DB=-36789000120.2040> <Mlp=677042040.8159> <PB=1000000> 
<DWph=2> <it= 40> <et=34.23> <Mt= 0.05> <Spt= 7.26> <nCl=1000> <DB=-31093027192.3043> <Mlp=656335508.1867> <PB=1000000> 
<DWph=2> <it= 50> <et=41.47> <Mt= 0.06> <Spt= 7.16> <nCl=1000> <DB=-26793939405.8653> <Mlp=636233568.8137> <PB=1000000> 
<DWph=2> <it= 60> <et=48.68> <Mt= 0.08> <Spt= 7.13> <nCl=1000> <DB=-23758910283.0357> <Mlp=615825192.6667> <PB=1000000> 
<DWph=2> <it= 70> <et=55.84> <Mt= 0.10> <Spt= 7.05> <nCl=1000> <DB=-19597799973.6038> <Mlp=591404819.1060> <PB=1000000> 
<DWph=2> <it= 80> <et=62.93> <Mt= 0.14> <Spt= 6.95> <nCl=1000> <DB=-16016139034.6531> <Mlp=567994430.9950> <PB=1000000> 
<DWph=2> <it= 90> <et=70.06> <Mt= 0.21> <Spt= 6.92> <nCl=1000> <DB=-13868830870.5834> <Mlp=543515838.5855> <PB=1000000> 
<DWph=2> <it=100> <et=77.07> <Mt= 0.23> <Spt= 6.77> <nCl=1000> <DB=-12451839956.0985> <Mlp=526224205.6168> <PB=1000000> 
<DWph=2> <it=110> <et=84.00> <Mt= 0.23> <Spt= 6.61> <nCl=1000> <DB=-15280892515.9098> <Mlp=510268888.7706> <PB=1000000> 
<DWph=2> <it=120> <et=90.96> <Mt= 0.23> <Spt= 6.72> <nCl=1000> <DB=-9990373606.8274> <Mlp=495759731.4056> <PB=1000000> 
<DWph=2> <it=130> <et=97.43> <Mt= 0.23> <Spt= 6.24> <nCl=1000> <DB=-7498572240.5551> <Mlp=474983506.0106> <PB=1000000> 
<DWph=2> <it=140> <et=103.48> <Mt= 0.22> <Spt= 5.74> <nCl=1000> <DB=-6826882041.4830> <Mlp=468755327.3091> <PB=1000000> 
<DWph=2> <it=150> <et=109.90> <Mt= 0.21> <Spt= 6.21> <nCl=1000> <DB=-6741259563.2022> <Mlp=459095803.7190> <PB=1000000> 
