Academic license - for non-commercial use only - expires 2025-02-09
Gurobi Optimizer version 9.1.2 build v9.1.2rc0 (linux64)
Thread count: 20 physical cores, 40 logical processors, using up to 1 threads
Optimize a model with 1320 rows, 3660 columns and 79260 nonzeros
Model fingerprint: 0xff31bb49
Variable types: 0 continuous, 3660 integer (3660 binary)
Coefficient statistics:
  Matrix range     [1e+00, 1e+03]
  Objective range  [1e+00, 1e+00]
  Bounds range     [1e+00, 1e+00]
  RHS range        [1e+00, 1e+00]

Loaded user MIP start with objective 23

Presolve removed 180 rows and 0 columns
Presolve time: 0.09s
Presolved: 1140 rows, 3660 columns, 68460 nonzeros
Variable types: 0 continuous, 3660 integer (3660 binary)

Root relaxation: objective 2.000000e+01, 330 iterations, 0.01 seconds

    Nodes    |    Current Node    |     Objective Bounds      |     Work
 Expl Unexpl |  Obj  Depth IntInf | Incumbent    BestBd   Gap | It/Node Time

     0     0   20.00000    0   21   23.00000   20.00000  13.0%     -    0s
H    0     0                      22.0000000   20.00000  9.09%     -    0s
     0     0   20.00000    0   43   22.00000   20.00000  9.09%     -    0s
H    0     0                      21.0000000   20.00000  4.76%     -    0s
     0     0   20.00000    0   45   21.00000   20.00000  4.76%     -    0s
     0     0   20.00000    0   22   21.00000   20.00000  4.76%     -    0s
     0     0   20.00000    0   24   21.00000   20.00000  4.76%     -    0s
     0     0   20.00000    0   23   21.00000   20.00000  4.76%     -    0s
     0     0   20.00000    0   29   21.00000   20.00000  4.76%     -    0s
     0     0   20.00000    0   21   21.00000   20.00000  4.76%     -    0s
     0     0   20.00000    0   21   21.00000   20.00000  4.76%     -    0s
     0     2   20.00000    0   19   21.00000   20.00000  4.76%     -    0s
    51    32   20.00000   23   27   21.00000   20.00000  4.76%   189    5s
   326    58   20.00000   66   18   21.00000   20.00000  4.76%  39.1   10s
   743   142   20.00000   22   20   21.00000   20.00000  4.76%  23.8   15s
  1138   239   20.00000   38   20   21.00000   20.00000  4.76%  19.5   20s
  1768   295   20.00000   39   21   21.00000   20.00000  4.76%  16.2   25s
  2006   306   20.00000   44   22   21.00000   20.00000  4.76%  15.8   31s
  2357   340   20.00000   58   20   21.00000   20.00000  4.76%  15.6   35s
  2782   369   20.00000   21   22   21.00000   20.00000  4.76%  14.9   40s
  3032   459   20.00000   64   11   21.00000   20.00000  4.76%  14.8   45s
  3748   541   20.00000   47   21   21.00000   20.00000  4.76%  13.7   50s
  4118   579 infeasible   59        21.00000   20.00000  4.76%  13.5   55s

Cutting planes:
  Gomory: 9
  Cover: 33
  Clique: 4
  MIR: 1
  StrongCG: 1
  Flow cover: 1
  Zero half: 10
  RLT: 12

Explored 4706 nodes (66618 simplex iterations) in 60.00 seconds
Thread count was 1 (of 40 available processors)

Solution count 3: 21 22 23 

Time limit reached
Best objective 2.100000000000e+01, best bound 2.000000000000e+01, gap 4.7619%
0	3660	1320	4706	20	21	60.055
