Academic license - for non-commercial use only - expires 2025-02-09
Gurobi Optimizer version 9.1.2 build v9.1.2rc0 (linux64)
Thread count: 20 physical cores, 40 logical processors, using up to 1 threads
Optimize a model with 11022 rows, 251502 columns and 5522523 nonzeros
Model fingerprint: 0xa68ab6ec
Variable types: 0 continuous, 251502 integer (251502 binary)
Coefficient statistics:
  Matrix range     [1e+00, 1e+03]
  Objective range  [1e+00, 1e+00]
  Bounds range     [1e+00, 1e+00]
  RHS range        [1e+00, 1e+00]

Loaded user MIP start with objective 190

Presolve removed 0 rows and 0 columns (presolve time = 5s) ...
Presolve time: 8.34s
Presolved: 11022 rows, 251502 columns, 5522523 nonzeros
Variable types: 0 continuous, 251502 integer (251502 binary)

Root simplex log...

Iteration    Objective       Primal Inf.    Dual Inf.      Time
       0    0.0000000e+00   1.478400e+04   0.000000e+00     11s
    5168    1.6700000e+02   0.000000e+00   0.000000e+00     12s

Root relaxation: objective 1.670000e+02, 5168 iterations, 3.17 seconds
Total elapsed time = 16.28s

    Nodes    |    Current Node    |     Objective Bounds      |     Work
 Expl Unexpl |  Obj  Depth IntInf | Incumbent    BestBd   Gap | It/Node Time

     0     0  167.00000    0  262  190.00000  167.00000  12.1%     -   19s
H    0     0                     184.0000000  167.00000  9.24%     -   21s
H    0     0                     179.0000000  167.00000  6.70%     -   41s
     0     0  167.00000    0  465  179.00000  167.00000  6.70%     -   44s
H    0     0                     177.0000000  167.00000  5.65%     -   59s

Cutting planes:
  Cover: 5
  Clique: 1
  MIR: 66
  StrongCG: 61
  RLT: 68

Explored 1 nodes (18459 simplex iterations) in 59.14 seconds
Thread count was 1 (of 40 available processors)

Solution count 4: 177 179 184 190 

Time limit reached
Best objective 1.770000000000e+02, best bound 1.670000000000e+02, gap 5.6497%
0	251502	11022	1	167	177	60.372
