Academic license - for non-commercial use only - expires 2025-02-09
Gurobi Optimizer version 9.1.2 build v9.1.2rc0 (linux64)
Thread count: 20 physical cores, 40 logical processors, using up to 1 threads
Optimize a model with 1743 rows, 62250 columns and 434256 nonzeros
Model fingerprint: 0xae90a2d3
Variable types: 0 continuous, 62250 integer (62250 binary)
Coefficient statistics:
  Matrix range     [1e+00, 1e+03]
  Objective range  [1e+00, 1e+00]
  Bounds range     [1e+00, 1e+00]
  RHS range        [1e+00, 1e+00]

Loaded user MIP start with objective 97

Presolve time: 0.35s
Presolved: 1743 rows, 62250 columns, 434256 nonzeros
Variable types: 0 continuous, 62250 integer (62250 binary)

Root relaxation: objective 8.300000e+01, 1868 iterations, 0.17 seconds

    Nodes    |    Current Node    |     Objective Bounds      |     Work
 Expl Unexpl |  Obj  Depth IntInf | Incumbent    BestBd   Gap | It/Node Time

     0     0   83.00000    0  156   97.00000   83.00000  14.4%     -    0s
H    0     0                      91.0000000   83.00000  8.79%     -    1s
     0     0   83.00000    0  253   91.00000   83.00000  8.79%     -    2s
H    0     0                      85.0000000   83.00000  2.35%     -    6s
     0     0   83.00000    0  241   85.00000   83.00000  2.35%     -    7s
     0     0   83.00000    0  156   85.00000   83.00000  2.35%     -    8s
     0     0   83.00000    0  155   85.00000   83.00000  2.35%     -    8s
     0     0   83.00000    0  116   85.00000   83.00000  2.35%     -   10s
     0     0   83.00000    0  132   85.00000   83.00000  2.35%     -   11s
     0     0   83.00000    0  146   85.00000   83.00000  2.35%     -   12s
     0     0   83.00000    0  154   85.00000   83.00000  2.35%     -   12s
     0     0   83.00000    0  127   85.00000   83.00000  2.35%     -   13s
     0     0   83.00000    0  122   85.00000   83.00000  2.35%     -   14s
     0     2   83.00000    0  125   85.00000   83.00000  2.35%     -   20s
     5     3   83.00000    3  128   85.00000   83.00000  2.35%   552   31s
     6     2 infeasible    4        85.00000   83.00000  2.35%   463   40s
     8     2   83.00000    4  123   85.00000   83.00000  2.35%   349   49s
     9     3   83.00000    5  124   85.00000   83.00000  2.35%   311   51s

Cutting planes:
  Cover: 36
  Clique: 21
  MIR: 18
  StrongCG: 18
  RLT: 19

Explored 10 nodes (49002 simplex iterations) in 60.08 seconds
Thread count was 1 (of 40 available processors)

Solution count 3: 85 91 97 

Time limit reached
Best objective 8.500000000000e+01, best bound 8.300000000000e+01, gap 2.3529%
0	62250	1743	10	83	85	60.271
