Academic license - for non-commercial use only - expires 2025-02-09
Gurobi Optimizer version 9.1.2 build v9.1.2rc0 (linux64)
Thread count: 20 physical cores, 40 logical processors, using up to 1 threads
Optimize a model with 5478 rows, 62250 columns and 1364271 nonzeros
Model fingerprint: 0xb27971b8
Variable types: 0 continuous, 62250 integer (62250 binary)
Coefficient statistics:
  Matrix range     [1e+00, 1e+03]
  Objective range  [1e+00, 1e+00]
  Bounds range     [1e+00, 1e+00]
  RHS range        [1e+00, 1e+00]

Loaded user MIP start with objective 94

Presolve time: 1.76s
Presolved: 5478 rows, 62250 columns, 1364271 nonzeros
Variable types: 0 continuous, 62250 integer (62250 binary)

Root relaxation: objective 8.300000e+01, 1977 iterations, 0.31 seconds

    Nodes    |    Current Node    |     Objective Bounds      |     Work
 Expl Unexpl |  Obj  Depth IntInf | Incumbent    BestBd   Gap | It/Node Time

     0     0   83.00000    0  132   94.00000   83.00000  11.7%     -    3s
H    0     0                      91.0000000   83.00000  8.79%     -    3s
H    0     0                      90.0000000   83.00000  7.78%     -    7s
     0     0   83.00000    0  219   90.00000   83.00000  7.78%     -    7s
H    0     0                      86.0000000   83.00000  3.49%     -   13s
     0     0   83.00000    0  227   86.00000   83.00000  3.49%     -   13s
     0     0   83.00000    0  137   86.00000   83.00000  3.49%     -   16s
     0     0   83.00000    0  147   86.00000   83.00000  3.49%     -   17s
     0     0   83.00000    0  133   86.00000   83.00000  3.49%     -   19s
     0     0   83.00000    0  144   86.00000   83.00000  3.49%     -   20s
     0     0   83.00000    0  116   86.00000   83.00000  3.49%     -   23s
     0     0   83.00000    0  132   86.00000   83.00000  3.49%     -   23s
     0     0   83.00000    0  114   86.00000   83.00000  3.49%     -   26s
     0     0   83.00000    0  112   86.00000   83.00000  3.49%     -   27s
     0     2   83.00000    0  106   86.00000   83.00000  3.49%     -   39s
     1     3   83.00000    1  106   86.00000   83.00000  3.49%   595   41s
     2     4   83.00000    2  104   86.00000   83.00000  3.49%   302   46s
     3     5   83.00000    3  105   86.00000   83.00000  3.49%   203   52s
     5     7   83.00000    5  107   86.00000   83.00000  3.49%   124   57s

Cutting planes:
  Cover: 49
  Clique: 15
  MIR: 28
  StrongCG: 30
  RLT: 5

Explored 6 nodes (28930 simplex iterations) in 60.04 seconds
Thread count was 1 (of 40 available processors)

Solution count 4: 86 90 91 94 

Time limit reached
Best objective 8.600000000000e+01, best bound 8.300000000000e+01, gap 3.4884%
0	62250	5478	6	83	86	60.339
