Academic license - for non-commercial use only - expires 2025-02-09
Gurobi Optimizer version 9.1.2 build v9.1.2rc0 (linux64)
Thread count: 20 physical cores, 40 logical processors, using up to 1 threads
Optimize a model with 1743 rows, 62250 columns and 434256 nonzeros
Model fingerprint: 0xc78b953c
Variable types: 0 continuous, 62250 integer (62250 binary)
Coefficient statistics:
  Matrix range     [1e+00, 1e+03]
  Objective range  [1e+00, 1e+00]
  Bounds range     [1e+00, 1e+00]
  RHS range        [1e+00, 1e+00]

Loaded user MIP start with objective 96

Presolve time: 0.35s
Presolved: 1743 rows, 62250 columns, 434256 nonzeros
Variable types: 0 continuous, 62250 integer (62250 binary)

Root relaxation: objective 8.300000e+01, 2200 iterations, 0.21 seconds

    Nodes    |    Current Node    |     Objective Bounds      |     Work
 Expl Unexpl |  Obj  Depth IntInf | Incumbent    BestBd   Gap | It/Node Time

     0     0   83.00000    0  161   96.00000   83.00000  13.5%     -    1s
H    0     0                      93.0000000   83.00000  10.8%     -    4s
     0     0   83.00000    0  257   93.00000   83.00000  10.8%     -    4s
H    0     0                      86.0000000   83.00000  3.49%     -    7s
     0     0   83.00000    0  243   86.00000   83.00000  3.49%     -    7s
     0     0   83.00000    0  160   86.00000   83.00000  3.49%     -    9s
     0     0   83.00000    0  161   86.00000   83.00000  3.49%     -    9s
     0     0   83.00000    0  128   86.00000   83.00000  3.49%     -   11s
     0     0   83.00000    0  136   86.00000   83.00000  3.49%     -   11s
     0     0   83.00000    0  123   86.00000   83.00000  3.49%     -   13s
     0     0   83.00000    0  128   86.00000   83.00000  3.49%     -   13s
     0     0   83.00000    0  116   86.00000   83.00000  3.49%     -   14s
     0     0   83.00000    0  113   86.00000   83.00000  3.49%     -   15s
     0     2   83.00000    0  112   86.00000   83.00000  3.49%     -   26s
    26    24   83.00000   19  116   86.00000   83.00000  3.49%   339   30s
H  154   150                      85.0000000   83.00000  2.35%  73.7   37s
   259   255   84.00000  228  134   85.00000   83.00000  2.35%  47.0   40s
   428   424   84.00000  397  108   85.00000   83.00000  2.35%  30.8   47s
   477   473   84.00000  446  103   85.00000   83.00000  2.35%  28.0   51s
   666   662   84.00000  635  108   85.00000   83.00000  2.35%  21.3   55s
   765   761   84.00000  734  101   85.00000   83.00000  2.35%  19.1   60s

Cutting planes:
  Cover: 43
  Clique: 9
  MIR: 14
  StrongCG: 12
  RLT: 5

Explored 766 nodes (62807 simplex iterations) in 60.01 seconds
Thread count was 1 (of 40 available processors)

Solution count 4: 85 86 93 96 

Time limit reached
Best objective 8.500000000000e+01, best bound 8.300000000000e+01, gap 2.3529%
0	62250	1743	766	83	85	60.2
