Academic license - for non-commercial use only - expires 2025-02-09
Gurobi Optimizer version 9.1.2 build v9.1.2rc0 (linux64)
Thread count: 20 physical cores, 40 logical processors, using up to 1 threads
Optimize a model with 3507 rows, 251502 columns and 1757508 nonzeros
Model fingerprint: 0x995edcb5
Variable types: 0 continuous, 251502 integer (251502 binary)
Coefficient statistics:
  Matrix range     [1e+00, 1e+03]
  Objective range  [1e+00, 1e+00]
  Bounds range     [1e+00, 1e+00]
  RHS range        [1e+00, 1e+00]

Loaded user MIP start with objective 190

Presolve time: 1.81s
Presolved: 3507 rows, 251502 columns, 1757508 nonzeros
Variable types: 0 continuous, 251502 integer (251502 binary)

Root relaxation: objective 1.670000e+02, 2983 iterations, 0.42 seconds
Total elapsed time = 6.29s

    Nodes    |    Current Node    |     Objective Bounds      |     Work
 Expl Unexpl |  Obj  Depth IntInf | Incumbent    BestBd   Gap | It/Node Time

     0     0  167.00000    0  300  190.00000  167.00000  12.1%     -    7s
H    0     0                     183.0000000  167.00000  8.74%     -   20s
     0     0  167.00000    0  450  183.00000  167.00000  8.74%     -   22s
H    0     0                     182.0000000  167.00000  8.24%     -   35s
     0     0  167.00000    0  492  182.00000  167.00000  8.24%     -   35s
     0     0  167.00000    0  344  182.00000  167.00000  8.24%     -   43s
     0     0  167.00000    0  338  182.00000  167.00000  8.24%     -   44s
     0     0  167.00000    0  307  182.00000  167.00000  8.24%     -   49s
     0     0  167.00000    0  360  182.00000  167.00000  8.24%     -   53s
     0     0  167.00000    0  338  182.00000  167.00000  8.24%     -   60s

Cutting planes:
  Cover: 73
  Clique: 23
  MIR: 102
  StrongCG: 91

Explored 1 nodes (78285 simplex iterations) in 60.02 seconds
Thread count was 1 (of 40 available processors)

Solution count 3: 182 183 190 

Time limit reached
Best objective 1.820000000000e+02, best bound 1.670000000000e+02, gap 8.2418%
0	251502	3507	1	167	182	60.613
