Academic license - for non-commercial use only - expires 2025-02-09
Gurobi Optimizer version 9.1.2 build v9.1.2rc0 (linux64)
Thread count: 20 physical cores, 40 logical processors, using up to 1 threads
Optimize a model with 420 rows, 3660 columns and 25260 nonzeros
Model fingerprint: 0x6f15cc63
Variable types: 0 continuous, 3660 integer (3660 binary)
Coefficient statistics:
  Matrix range     [1e+00, 1e+03]
  Objective range  [1e+00, 1e+00]
  Bounds range     [1e+00, 1e+00]
  RHS range        [1e+00, 1e+00]

Loaded user MIP start with objective 24

Presolve time: 0.03s
Presolved: 420 rows, 3660 columns, 25260 nonzeros
Variable types: 0 continuous, 3660 integer (3660 binary)

Root relaxation: objective 2.000000e+01, 337 iterations, 0.01 seconds

    Nodes    |    Current Node    |     Objective Bounds      |     Work
 Expl Unexpl |  Obj  Depth IntInf | Incumbent    BestBd   Gap | It/Node Time

     0     0   20.00000    0   26   24.00000   20.00000  16.7%     -    0s
H    0     0                      22.0000000   20.00000  9.09%     -    0s
     0     0   20.00000    0   55   22.00000   20.00000  9.09%     -    0s
H    0     0                      21.0000000   20.00000  4.76%     -    0s
     0     0   20.00000    0   73   21.00000   20.00000  4.76%     -    0s
     0     0   20.00000    0   28   21.00000   20.00000  4.76%     -    0s
     0     0   20.00000    0   46   21.00000   20.00000  4.76%     -    0s
     0     0   20.00000    0   42   21.00000   20.00000  4.76%     -    0s
     0     2   20.00000    0   26   21.00000   20.00000  4.76%     -    0s
    54    21   20.00000   31   35   21.00000   20.00000  4.76%   199    5s
   207    39   20.00000   45   11   21.00000   20.00000  4.76%  73.7   10s
   357    34 infeasible   43        21.00000   20.00000  4.76%  52.1   15s
   446    48   20.00000   57   18   21.00000   20.00000  4.76%  46.7   20s
   588    40   20.00000   45   21   21.00000   20.00000  4.76%  41.0   25s
   721    61   20.00000   58   19   21.00000   20.00000  4.76%  37.7   30s
   865    53   20.00000   46   22   21.00000   20.00000  4.76%  35.6   35s
  1027    54   20.00000   50   18   21.00000   20.00000  4.76%  33.0   40s
  1161    55 infeasible   46        21.00000   20.00000  4.76%  32.3   45s
  1306    48   20.00000   53   25   21.00000   20.00000  4.76%  31.4   50s
  1479    32 infeasible   39        21.00000   20.00000  4.76%  30.4   55s

Cutting planes:
  Gomory: 5
  Cover: 17
  Clique: 1
  Flow cover: 1
  Zero half: 7
  RLT: 11

Explored 1660 nodes (53119 simplex iterations) in 60.00 seconds
Thread count was 1 (of 40 available processors)

Solution count 3: 21 22 24 

Time limit reached
Best objective 2.100000000000e+01, best bound 2.000000000000e+01, gap 4.7619%
0	3660	420	1660	20	21	60.043
