Academic license - for non-commercial use only - expires 2025-02-09
Gurobi Optimizer version 9.1.2 build v9.1.2rc0 (linux64)
Thread count: 20 physical cores, 40 logical processors, using up to 1 threads
Optimize a model with 7219 rows, 315650 columns and 1571945 nonzeros
Model fingerprint: 0xbd175b03
Variable types: 0 continuous, 315650 integer (0 binary)
Coefficient statistics:
  Matrix range     [1e+00, 1e+00]
  Objective range  [1e+00, 1e+00]
  Bounds range     [2e+02, 2e+02]
  RHS range        [1e+00, 1e+00]

Warning: Completing partial solution with 315380 unfixed non-continuous variables out of 315650
User MIP start produced solution with objective 86 (0.58s)
Loaded user MIP start with objective 86

Presolve removed 61 rows and 1838 columns
Presolve time: 4.85s
Presolved: 7158 rows, 313812 columns, 1557689 nonzeros
Variable types: 0 continuous, 313812 integer (311499 binary)

Root simplex log...

Iteration    Objective       Primal Inf.    Dual Inf.      Time
       0    0.0000000e+00   2.020000e+02   0.000000e+00      6s
    8268    4.2000151e+01   2.991461e+03   0.000000e+00     10s
   11098    5.4000128e+01   9.714195e+02   0.000000e+00     15s
   14208    5.9000176e+01   3.137473e+02   0.000000e+00     20s
   15978    6.3000189e+01   8.255685e+02   0.000000e+00     25s
   18443    6.3000276e+01   3.786519e+03   0.000000e+00     30s
   22018    6.3000373e+01   8.426460e+02   0.000000e+00     35s
   25208    6.3000447e+01   8.802260e+02   0.000000e+00     40s
   28948    6.3000566e+01   2.274688e+04   0.000000e+00     45s
   32688    6.3000677e+01   8.380462e+03   0.000000e+00     50s
   36538    6.3000803e+01   7.505936e+03   0.000000e+00     55s

Root relaxation: time limit, 41085 iterations, 54.39 seconds

    Nodes    |    Current Node    |     Objective Bounds      |     Work
 Expl Unexpl |  Obj  Depth IntInf | Incumbent    BestBd   Gap | It/Node Time

     0     0          -    0        86.00000    0.00000   100%     -   60s

Explored 0 nodes (41085 simplex iterations) in 60.02 seconds
Thread count was 1 (of 40 available processors)

Solution count 1: 86 

Time limit reached
Best objective 8.600000000000e+01, best bound 0.000000000000e+00, gap 100.0000%
0	315650	7219	0	0	86	60.665
