Academic license - for non-commercial use only - expires 2025-02-09
Gurobi Optimizer version 9.1.2 build v9.1.2rc0 (linux64)
Thread count: 20 physical cores, 40 logical processors, using up to 1 threads
Optimize a model with 7098 rows, 307701 columns and 1532797 nonzeros
Model fingerprint: 0x988867cc
Variable types: 0 continuous, 307701 integer (0 binary)
Coefficient statistics:
  Matrix range     [1e+00, 1e+00]
  Objective range  [1e+00, 1e+00]
  Bounds range     [2e+02, 2e+02]
  RHS range        [1e+00, 1e+00]

Warning: Completing partial solution with 307434 unfixed non-continuous variables out of 307701
User MIP start produced solution with objective 86 (0.56s)
Loaded user MIP start with objective 86

Presolve removed 35 rows and 611 columns
Presolve time: 4.43s
Presolved: 7063 rows, 307090 columns, 1526666 nonzeros
Variable types: 0 continuous, 307090 integer (304803 binary)

Root simplex log...

Iteration    Objective       Primal Inf.    Dual Inf.      Time
       0    0.0000000e+00   2.020000e+02   0.000000e+00      5s
    7669    4.9000027e+01   2.282387e+02   0.000000e+00     10s
    9653    5.7000043e+01   1.263473e+03   0.000000e+00     15s
   12385    6.4000064e+01   1.007761e+03   0.000000e+00     20s
   13523    6.4000075e+01   1.198230e+03   0.000000e+00     25s
   14537    6.4000084e+01   6.287677e+02   0.000000e+00     30s
   15595    6.4000094e+01   6.352967e+02   0.000000e+00     35s
   17729    6.4000157e+01   4.399761e+02   0.000000e+00     40s
   21185    6.4000235e+01   9.636201e+02   0.000000e+00     45s
   24533    6.4000308e+01   3.636579e+03   0.000000e+00     50s
   27449    6.4000368e+01   8.137965e+02   0.000000e+00     55s

Root relaxation: time limit, 30008 iterations, 54.83 seconds

    Nodes    |    Current Node    |     Objective Bounds      |     Work
 Expl Unexpl |  Obj  Depth IntInf | Incumbent    BestBd   Gap | It/Node Time

     0     0          -    0        86.00000    0.00000   100%     -   60s

Explored 0 nodes (30008 simplex iterations) in 60.06 seconds
Thread count was 1 (of 40 available processors)

Solution count 1: 86 

Time limit reached
Best objective 8.600000000000e+01, best bound 0.000000000000e+00, gap 100.0000%
0	307701	7098	0	0	86	60.697
