Academic license - for non-commercial use only - expires 2025-02-09
Gurobi Optimizer version 9.1.2 build v9.1.2rc0 (linux64)
Thread count: 20 physical cores, 40 logical processors, using up to 1 threads
Optimize a model with 7158 rows, 311888 columns and 1553359 nonzeros
Model fingerprint: 0x94fb9b85
Variable types: 0 continuous, 311888 integer (0 binary)
Coefficient statistics:
  Matrix range     [1e+00, 1e+00]
  Objective range  [1e+00, 1e+00]
  Bounds range     [2e+02, 2e+02]
  RHS range        [1e+00, 1e+00]

Warning: Completing partial solution with 311624 unfixed non-continuous variables out of 311888
User MIP start produced solution with objective 86 (0.57s)
Loaded user MIP start with objective 86

Presolve removed 50 rows and 2042 columns (presolve time = 5s) ...
Presolve removed 50 rows and 2042 columns
Presolve time: 6.40s
Presolved: 7108 rows, 309846 columns, 1540252 nonzeros
Variable types: 0 continuous, 309846 integer (307549 binary)

Root simplex log...

Iteration    Objective       Primal Inf.    Dual Inf.      Time
       0    0.0000000e+00   2.020000e+02   0.000000e+00      7s
    7901    2.2666836e+01   2.353855e+03   0.000000e+00     10s
   12836    4.9000189e+01   1.981832e+03   0.000000e+00     15s
   15081    5.8000184e+01   7.918167e+02   0.000000e+00     20s
   16796    6.4000183e+01   1.077350e+03   0.000000e+00     25s
   18176    6.4000200e+01   5.679519e+02   0.000000e+00     30s
   19201    6.4000209e+01   2.215443e+02   0.000000e+00     35s
   20106    6.4000216e+01   4.468841e+02   0.000000e+00     40s
   22896    6.4000291e+01   5.146048e+02   0.000000e+00     45s
   25591    6.4000338e+01   1.856047e+03   0.000000e+00     50s
   28121    6.4000379e+01   3.611950e+03   0.000000e+00     55s

Root relaxation: time limit, 30492 iterations, 52.83 seconds

    Nodes    |    Current Node    |     Objective Bounds      |     Work
 Expl Unexpl |  Obj  Depth IntInf | Incumbent    BestBd   Gap | It/Node Time

     0     0          -    0        86.00000    0.00000   100%     -   60s

Explored 0 nodes (30492 simplex iterations) in 60.05 seconds
Thread count was 1 (of 40 available processors)

Solution count 1: 86 

Time limit reached
Best objective 8.600000000000e+01, best bound 0.000000000000e+00, gap 100.0000%
0	311888	7158	0	0	86	60.684
