Academic license - for non-commercial use only - expires 2025-02-09
Gurobi Optimizer version 9.1.2 build v9.1.2rc0 (linux64)
Thread count: 20 physical cores, 40 logical processors, using up to 1 threads
Optimize a model with 19176 rows, 1658663 columns and 8273131 nonzeros
Model fingerprint: 0x809a46c4
Variable types: 0 continuous, 1658663 integer (0 binary)
Coefficient statistics:
  Matrix range     [1e+00, 1e+00]
  Objective range  [1e+00, 1e+00]
  Bounds range     [4e+02, 4e+02]
  RHS range        [1e+00, 1e+00]

Warning: Completing partial solution with 1658145 unfixed non-continuous variables out of 1658663
User MIP start produced solution with objective 168 (3.56s)
Loaded user MIP start with objective 168
Processed MIP start in 3.62 seconds

Presolve removed 1 rows and 1 columns (presolve time = 5s) ...
Presolve removed 1 rows and 1 columns (presolve time = 10s) ...
Presolve removed 174 rows and 10079 columns (presolve time = 15s) ...
Presolve removed 231 rows and 10136 columns (presolve time = 20s) ...
Presolve removed 235 rows and 10745 columns (presolve time = 25s) ...
Presolve removed 236 rows and 10748 columns (presolve time = 33s) ...
Presolve removed 236 rows and 10748 columns (presolve time = 35s) ...
Presolve removed 236 rows and 10748 columns
Presolve time: 35.31s
Presolved: 18940 rows, 1647915 columns, 8174776 nonzeros
Variable types: 0 continuous, 1647915 integer (1641753 binary)

Root simplex log...

Iteration    Objective       Primal Inf.    Dual Inf.      Time
       0    0.0000000e+00   4.030000e+02   0.000000e+00     44s
    2315    2.3872922e-06   5.927130e+02   0.000000e+00     45s
    9882    6.5000145e+01   2.124859e+03   0.000000e+00     50s
   13514    6.8000171e+01   1.325742e+03   0.000000e+00     55s

Root relaxation: time limit, 14778 iterations, 16.94 seconds

    Nodes    |    Current Node    |     Objective Bounds      |     Work
 Expl Unexpl |  Obj  Depth IntInf | Incumbent    BestBd   Gap | It/Node Time

     0     0          -    0       168.00000    0.00000   100%     -   57s

Explored 0 nodes (14778 simplex iterations) in 57.13 seconds
Thread count was 1 (of 40 available processors)

Solution count 1: 168 

Time limit reached
Best objective 1.680000000000e+02, best bound 0.000000000000e+00, gap 100.0000%
0	1658663	19176	0	0	168	60.952
