Academic license - for non-commercial use only - expires 2025-02-09
Gurobi Optimizer version 9.1.2 build v9.1.2rc0 (linux64)
Thread count: 20 physical cores, 40 logical processors, using up to 1 threads
Optimize a model with 47184 rows, 6100833 columns and 30462592 nonzeros
Model fingerprint: 0xa35b4f89
Variable types: 0 continuous, 6100833 integer (0 binary)
Coefficient statistics:
  Matrix range     [1e+00, 1e+00]
  Objective range  [1e+00, 1e+00]
  Bounds range     [6e+02, 6e+02]
  RHS range        [1e+00, 1e+00]

Warning: Completing partial solution with 6100038 unfixed non-continuous variables out of 6100833
User MIP start produced solution with objective 247 (14.83s)
Loaded user MIP start with objective 247
Processed MIP start in 14.96 seconds

Presolve removed 0 rows and 0 columns (presolve time = 7s) ...
Presolve removed 1 rows and 1 columns (presolve time = 11s) ...
Presolve removed 1 rows and 1 columns (presolve time = 20s) ...
Presolve removed 1 rows and 1 columns (presolve time = 25s) ...
Presolve removed 1 rows and 1 columns (presolve time = 30s) ...
Presolve removed 1 rows and 1 columns
Presolve time: 30.78s

Explored 0 nodes (0 simplex iterations) in 46.37 seconds
Thread count was 1 (of 40 available processors)

Solution count 1: 247 

Time limit reached
Best objective 2.470000000000e+02, best bound -, gap -
0	6100833	47184	0	-1e+100	247	63.245
