Academic license - for non-commercial use only - expires 2025-02-09
Gurobi Optimizer version 9.1.2 build v9.1.2rc0 (linux64)
Thread count: 20 physical cores, 40 logical processors, using up to 1 threads
Optimize a model with 14007 rows, 4006002 columns and 28030008 nonzeros
Model fingerprint: 0x7edeb49d
Variable types: 0 continuous, 4006002 integer (4006002 binary)
Coefficient statistics:
  Matrix range     [1e+00, 1e+06]
  Objective range  [1e+00, 1e+00]
  Bounds range     [1e+00, 1e+00]
  RHS range        [1e+00, 1e+00]

Loaded user MIP start with objective 754

Presolve removed 0 rows and 0 columns (presolve time = 12s) ...
Presolve removed 0 rows and 0 columns (presolve time = 16s) ...
Presolve removed 0 rows and 0 columns (presolve time = 20s) ...
Presolve removed 0 rows and 0 columns (presolve time = 25s) ...
Presolve removed 0 rows and 0 columns (presolve time = 30s) ...
Presolve removed 0 rows and 0 columns (presolve time = 40s) ...
Presolve time: 44.79s
Presolved: 14007 rows, 4006002 columns, 28030008 nonzeros
Variable types: 0 continuous, 4006002 integer (4006002 binary)

Root relaxation: time limit, 0 iterations, 5.14 seconds

Explored 0 nodes (0 simplex iterations) in 53.93 seconds
Thread count was 1 (of 40 available processors)

Solution count 1: 754 

Time limit reached
Best objective 7.540000000000e+02, best bound 0.000000000000e+00, gap 100.0000%
0	4006002	14007	0	0	754	63.66
