Academic license - for non-commercial use only - expires 2025-02-09
Gurobi Optimizer version 9.1.2 build v9.1.2rc0 (linux64)
Thread count: 20 physical cores, 40 logical processors, using up to 1 threads
Optimize a model with 44022 rows, 4006002 columns and 88090023 nonzeros
Model fingerprint: 0xa9157d1e
Variable types: 0 continuous, 4006002 integer (4006002 binary)
Coefficient statistics:
  Matrix range     [1e+00, 1e+06]
  Objective range  [1e+00, 1e+00]
  Bounds range     [1e+00, 1e+00]
  RHS range        [1e+00, 1e+00]

Loaded user MIP start with objective 754

Presolve removed 0 rows and 0 columns (presolve time = 7s) ...
Presolve removed 0 rows and 0 columns (presolve time = 31s) ...
Presolve removed 0 rows and 0 columns (presolve time = 44s) ...
Presolve time: 44.32s

Explored 0 nodes (0 simplex iterations) in 46.11 seconds
Thread count was 1 (of 40 available processors)

Solution count 1: 754 

Time limit reached
Best objective 7.540000000000e+02, best bound -, gap -
0	4006002	44022	0	-1e+100	754	67.246
