Academic license - for non-commercial use only - expires 2025-02-09
Gurobi Optimizer version 9.1.2 build v9.1.2rc0 (linux64)
Thread count: 20 physical cores, 40 logical processors, using up to 1 threads
Optimize a model with 14508 rows, 18134196 columns and 54353568 nonzeros
Model fingerprint: 0x4386eb3f
Variable types: 0 continuous, 18134196 integer (0 binary)
Coefficient statistics:
  Matrix range     [1e+00, 1e+00]
  Objective range  [1e+00, 1e+00]
  Bounds range     [1e+04, 1e+04]
  RHS range        [1e+00, 1e+00]

Warning: Completing partial solution with 18123696 unfixed non-continuous variables out of 18134196
User MIP start produced solution with objective 4768 (27.36s)
Loaded user MIP start with objective 4768
Processed MIP start in 29.14 seconds

Presolve removed 0 rows and 0 columns (presolve time = 6s) ...
Presolve time: 6.11s

Explored 0 nodes (0 simplex iterations) in 36.76 seconds
Thread count was 1 (of 40 available processors)

Solution count 1: 4768 

Time limit reached
Best objective 4.768000000000e+03, best bound -, gap -
0	18134196	14508	0	-1e+100	4768	90.325
