Academic license - for non-commercial use only - expires 2025-02-09
Gurobi Optimizer version 9.1.2 build v9.1.2rc0 (linux64)
Thread count: 20 physical cores, 40 logical processors, using up to 1 threads
Optimize a model with 19882 rows, 17006452 columns and 50945575 nonzeros
Model fingerprint: 0x75a15431
Variable types: 0 continuous, 17006452 integer (0 binary)
Coefficient statistics:
  Matrix range     [1e+00, 1e+00]
  Objective range  [1e+00, 1e+00]
  Bounds range     [2e+03, 2e+03]
  RHS range        [1e+00, 1e+00]

Warning: Completing partial solution with 17004182 unfixed non-continuous variables out of 17006452
User MIP start produced solution with objective 956 (35.45s)
Loaded user MIP start with objective 956
Processed MIP start in 36.44 seconds

Presolve removed 0 rows and 0 columns (presolve time = 8s) ...
Presolve time: 7.95s

Explored 0 nodes (0 simplex iterations) in 45.93 seconds
Thread count was 1 (of 40 available processors)

Solution count 1: 956 

Time limit reached
Best objective 9.560000000000e+02, best bound -, gap -
0	17006452	19882	0	-1e+100	956	74.278
