Application parameters:
  batch  =>  nothing
  instance  =>  "/IN/201_2500_DI_16.txt-Q2Half"
  ub  =>  1.0e6
  cfg  =>  "/CFG/BPP.cfg"
data = Colored Bin Packing dataset.
number of items = 202
number of colors = 2
capacity = 2472
Items : 
	 item 1, weight= 8, color= 0
	 item 2, weight= 8, color= 0
	 item 3, weight= 8, color= 0
	 item 4, weight= 16, color= 0
	 item 5, weight= 24, color= 0
	 item 6, weight= 32, color= 0
	 item 7, weight= 32, color= 0
	 item 8, weight= 36, color= 0
	 item 9, weight= 40, color= 0
	 item 10, weight= 40, color= 0
	 item 11, weight= 44, color= 0
	 item 12, weight= 48, color= 0
	 item 13, weight= 48, color= 0
	 item 14, weight= 48, color= 0
	 item 15, weight= 52, color= 0
	 item 16, weight= 56, color= 0
	 item 17, weight= 56, color= 0
	 item 18, weight= 64, color= 0
	 item 19, weight= 64, color= 0
	 item 20, weight= 64, color= 0
	 item 21, weight= 64, color= 0
	 item 22, weight= 68, color= 0
	 item 23, weight= 72, color= 0
	 item 24, weight= 72, color= 0
	 item 25, weight= 72, color= 0
	 item 26, weight= 72, color= 0
	 item 27, weight= 74, color= 0
	 item 28, weight= 74, color= 0
	 item 29, weight= 76, color= 0
	 item 30, weight= 80, color= 0
	 item 31, weight= 84, color= 0
	 item 32, weight= 84, color= 0
	 item 33, weight= 84, color= 0
	 item 34, weight= 86, color= 0
	 item 35, weight= 88, color= 0
	 item 36, weight= 88, color= 1
	 item 37, weight= 96, color= 0
	 item 38, weight= 96, color= 0
	 item 39, weight= 96, color= 0
	 item 40, weight= 98, color= 0
	 item 41, weight= 100, color= 0
	 item 42, weight= 100, color= 0
	 item 43, weight= 100, color= 0
	 item 44, weight= 104, color= 0
	 item 45, weight= 108, color= 0
	 item 46, weight= 112, color= 0
	 item 47, weight= 114, color= 0
	 item 48, weight= 114, color= 0
	 item 49, weight= 120, color= 0
	 item 50, weight= 120, color= 0
	 item 51, weight= 132, color= 0
	 item 52, weight= 132, color= 0
	 item 53, weight= 134, color= 0
	 item 54, weight= 134, color= 0
	 item 55, weight= 136, color= 0
	 item 56, weight= 136, color= 0
	 item 57, weight= 152, color= 0
	 item 58, weight= 152, color= 0
	 item 59, weight= 156, color= 0
	 item 60, weight= 158, color= 0
	 item 61, weight= 164, color= 0
	 item 62, weight= 176, color= 0
	 item 63, weight= 176, color= 0
	 item 64, weight= 200, color= 0
	 item 65, weight= 200, color= 0
	 item 66, weight= 204, color= 0
	 item 67, weight= 204, color= 0
	 item 68, weight= 204, color= 0
	 item 69, weight= 204, color= 0
	 item 70, weight= 214, color= 1
	 item 71, weight= 228, color= 1
	 item 72, weight= 236, color= 1
	 item 73, weight= 242, color= 1
	 item 74, weight= 262, color= 1
	 item 75, weight= 272, color= 0
	 item 76, weight= 272, color= 0
	 item 77, weight= 276, color= 1
	 item 78, weight= 300, color= 1
	 item 79, weight= 302, color= 1
	 item 80, weight= 322, color= 1
	 item 81, weight= 331, color= 1
	 item 82, weight= 332, color= 1
	 item 83, weight= 342, color= 1
	 item 84, weight= 364, color= 1
	 item 85, weight= 367, color= 1
	 item 86, weight= 373, color= 1
	 item 87, weight= 381, color= 1
	 item 88, weight= 382, color= 1
	 item 89, weight= 384, color= 1
	 item 90, weight= 385, color= 1
	 item 91, weight= 404, color= 1
	 item 92, weight= 427, color= 1
	 item 93, weight= 433, color= 1
	 item 94, weight= 434, color= 1
	 item 95, weight= 444, color= 1
	 item 96, weight= 462, color= 1
	 item 97, weight= 462, color= 1
	 item 98, weight= 484, color= 1
	 item 99, weight= 491, color= 1
	 item 100, weight= 497, color= 1
	 item 101, weight= 501, color= 1
	 item 102, weight= 504, color= 1
	 item 103, weight= 514, color= 1
	 item 104, weight= 538, color= 1
	 item 105, weight= 540, color= 1
	 item 106, weight= 546, color= 1
	 item 107, weight= 546, color= 1
	 item 108, weight= 567, color= 1
	 item 109, weight= 573, color= 1
	 item 110, weight= 576, color= 1
	 item 111, weight= 581, color= 1
	 item 112, weight= 604, color= 1
	 item 113, weight= 618, color= 1
	 item 114, weight= 662, color= 1
	 item 115, weight= 667, color= 1
	 item 116, weight= 673, color= 1
	 item 117, weight= 681, color= 1
	 item 118, weight= 684, color= 1
	 item 119, weight= 685, color= 1
	 item 120, weight= 766, color= 1
	 item 121, weight= 770, color= 1
	 item 122, weight= 780, color= 1
	 item 123, weight= 787, color= 1
	 item 124, weight= 793, color= 1
	 item 125, weight= 840, color= 1
	 item 126, weight= 842, color= 1
	 item 127, weight= 881, color= 1
	 item 128, weight= 892, color= 1
	 item 129, weight= 923, color= 1
	 item 130, weight= 930, color= 1
	 item 131, weight= 1000, color= 1
	 item 132, weight= 1018, color= 1
	 item 133, weight= 1022, color= 1
	 item 134, weight= 1027, color= 1
	 item 135, weight= 1028, color= 1
	 item 136, weight= 1029, color= 1
	 item 137, weight= 1030, color= 1
	 item 138, weight= 1227, color= 1
	 item 139, weight= 1237, color= 1
	 item 140, weight= 1238, color= 1
	 item 141, weight= 1239, color= 1
	 item 142, weight= 1241, color= 1
	 item 143, weight= 1244, color= 1
	 item 144, weight= 1246, color= 1
	 item 145, weight= 1254, color= 1
	 item 146, weight= 1404, color= 1
	 item 147, weight= 1415, color= 1
	 item 148, weight= 1417, color= 1
	 item 149, weight= 1458, color= 1
	 item 150, weight= 1466, color= 1
	 item 151, weight= 1521, color= 1
	 item 152, weight= 1529, color= 1
	 item 153, weight= 1540, color= 1
	 item 154, weight= 1552, color= 1
	 item 155, weight= 1554, color= 1
	 item 156, weight= 1638, color= 1
	 item 157, weight= 1651, color= 1
	 item 158, weight= 1652, color= 1
	 item 159, weight= 1657, color= 1
	 item 160, weight= 1665, color= 1
	 item 161, weight= 1673, color= 1
	 item 162, weight= 1704, color= 1
	 item 163, weight= 1710, color= 1
	 item 164, weight= 1734, color= 1
	 item 165, weight= 1748, color= 1
	 item 166, weight= 1777, color= 1
	 item 167, weight= 1785, color= 1
	 item 168, weight= 1793, color= 1
	 item 169, weight= 1818, color= 1
	 item 170, weight= 1828, color= 1
	 item 171, weight= 1850, color= 1
	 item 172, weight= 1858, color= 1
	 item 173, weight= 1871, color= 1
	 item 174, weight= 1877, color= 1
	 item 175, weight= 1882, color= 1
	 item 176, weight= 1885, color= 1
	 item 177, weight= 1892, color= 1
	 item 178, weight= 1922, color= 1
	 item 179, weight= 1948, color= 1
	 item 180, weight= 1953, color= 1
	 item 181, weight= 1961, color= 1
	 item 182, weight= 1974, color= 1
	 item 183, weight= 1982, color= 1
	 item 184, weight= 1996, color= 1
	 item 185, weight= 2011, color= 1
	 item 186, weight= 2017, color= 1
	 item 187, weight= 2018, color= 1
	 item 188, weight= 2025, color= 1
	 item 189, weight= 2033, color= 1
	 item 190, weight= 2036, color= 1
	 item 191, weight= 2062, color= 1
	 item 192, weight= 2076, color= 1
	 item 193, weight= 2077, color= 1
	 item 194, weight= 2102, color= 1
	 item 195, weight= 2116, color= 1
	 item 196, weight= 2138, color= 1
	 item 197, weight= 2148, color= 1
	 item 198, weight= 2158, color= 1
	 item 199, weight= 2182, color= 1
	 item 200, weight= 2204, color= 1
	 item 201, weight= 2212, color= 1
	 item 202, weight= 2218, color= 1

VRPSolver warning: Interval set for resource 1 on source node (when source != sink) is ignored (by definition is [0.0,0.0])
VRPSolver warning: Interval set for resource 2 on source node (when source != sink) is ignored (by definition is [0.0,0.0])
VRPSolver warning: Interval set for resource 3 on source node (when source != sink) is ignored (by definition is [0.0,0.0])
[41m solve [00m
~~~~~~~~~~~~~~~~~~~~~~~~~~~~~~~~~~~~~~~~~~~~~~~~~~~~~~~~~~~~~~~~~~~~~~~~~~~~~~
VRPSolver v0.4.1, 24/03/2021. Web: vrpsolver.math.u-bordeaux.fr
Corresponds to the solver by Pessoa, Sadykov, Uchoa and Vanderbeck (2020)
Paper: dx.doi.org/10.1007/s10107-020-01523-z
USE THIS CODE ONLY FOR ACADEMIC PURPOSES AT YOUR OWN RISK
~~~~~~~~~~~~~~~~~~~~~~~~~~~~~~~~~~~~~~~~~~~~~~~~~~~~~~~~~~~~~~~~~~~~~~~~~~~~~~
BaPCod v053, 24/03/2021, © Inria Bordeaux, France
~~~~~~~~~~~~~~~~~~~~~~~~~~~~~~~~~~~~~~~~~~~~~~~~~~~~~~~~~~~~~~~~~~~~~~~~~~~~~~
VRPSolver parameters:
GlobalTimeLimit = 60
MaxNbOfBBtreeNodeTreated = 100000
treeSearchStrategy = 1
RCSPstopCutGenTimeThresholdInPricing = 10
RCSPhardTimeThresholdInPricing = 20
RCSPnumberOfBucketsPerVertex = 2000
RCSPdynamicBucketSteps = 0
RCSPuseBidirectionalSearch = 1
RCSPapplyReducedCostFixing = 1
RCSPredCostFixingFalseGap = 0
RCSPmaxNumOfColsPerIteration = 100
RCSPmaxNumOfColsPerExactIteration = 100
RCSPheurLabelingStrategy = 4
StabilizationMinPhaseOfStage = 1
RCSPmaxNumOfLabelsInEnumeration = 100000
RCSPmaxNumOfEnumeratedSolutions = 1000000
RCSPmaxNumOfEnumSolutionsForMIP = 100000
RCSPinitNGneighbourhoodSize = 0
RCSPmaxNGneighbourhoodSize = 0
RCSPrankOneCutsMaxNumPerRound = 100
RCSPrankOneCutsMaxNumRows = -1
RCSPrankOneCutsMemoryType = 2
CutTailingOffThreshold = 0.02
CutTailingOffCounterThreshold = 3
SafeDualBoundScaleFactor = -1
StrongBranchingPhaseOneCandidatesNumber = 100
StrongBranchingPhaseOneTreeSizeEstimRatio = 0.3
StrongBranchingPhaseTwoCandidatesNumber = 1
StrongBranchingPhaseTwoTreeSizeEstimRatio = 0.1
MaxTimeForRestrictedMasterIpHeur = -1
DivingHeurUseDepthLimit = 0
MaxLDSbreadth = 3
MaxLDSdepth = 2
New model incumbent solution 1e+06, TIME = 0h0m0s3t = 3
Model is built TIME = 0h0m1s77t = 177
************************************************************************************************
**** BaB tree root node
**** Local DB = -1e+12, global bounds : [ -1e+12 , 1e+06 ], TIME = 0h0m1s77t = 177
**** 1 open nodes, 0 columns (0 active), 0 dyn. constrs. (0 active), 406 art. vars. (406 active)
************************************************************************************************
<DWph=2> <it= 10> <et=3.56> <Mt= 0.00> <Spt= 1.77> <nCl=1000> <DB=-1025554409.2060> <Mlp=174000010.7500> <PB=1000000> 
<DWph=2> <it= 20> <et=5.34> <Mt= 0.03> <Spt= 1.75> <nCl=1000> <DB=-2536514863.9196> <Mlp=122280015.9000> <PB=1000000> 
<DWph=2> <it= 30> <et=7.43> <Mt= 0.11> <Spt= 1.99> <nCl=1000> <DB=-931158742.6323> <Mlp=91928869.2528> <PB=1000000> 
<DWph=2> <it= 40> <et=9.52> <Mt= 0.15> <Spt= 1.93> <nCl=1000> <DB=-915034121.6601> <Mlp=82979062.5129> <PB=1000000> 
<DWph=2> <it= 50> <et=11.68> <Mt= 0.19> <Spt= 1.97> <nCl=1000> <DB=-471302469.7428> <Mlp=74671791.1798> <PB=1000000> 
<DWph=2> <it= 60> <et=13.78> <Mt= 0.23> <Spt= 1.88> <nCl=1000> <DB=-644533626.5750> <Mlp=67374323.4863> <PB=1000000> 
<DWph=2> <it= 70> <et=16.07> <Mt= 0.32> <Spt= 1.95> <nCl=1000> <DB=-265961911.7314> <Mlp=57836908.0238> <PB=1000000> 
<DWph=2> <it= 80> <et=18.43> <Mt= 0.35> <Spt= 2.02> <nCl=1000> <DB=-228156531.7900> <Mlp=37131843.9094> <PB=1000000> 
<DWph=2> <it= 90> <et=21.58> <Mt= 0.28> <Spt= 2.86> <nCl=944> <DB= -228.0930> <Mlp=   68.9264> <PB=1000000> 
<DWph=2> <it=100> <et=23.60> <Mt= 0.20> <Spt= 1.82> <nCl=1000> <DB=    8.8711> <Mlp=   67.4077> <PB=1000000> 
<DWph=2> <it=110> <et=25.81> <Mt= 0.32> <Spt= 1.75> <nCl=884> <DB=   58.7368> <Mlp=   65.1564> <PB=1000000> 
<DWph=2> <it=120> <et=27.14> <Mt= 0.19> <Spt= 1.14> <nCl=438> <DB=   64.9045> <Mlp=   65.0272> <PB=1000000> 
<DWph=2> <it=129> <et=28.53> <Mt= 0.05> <Spt= 1.34> <nCl= 16> <DB=   65.0268> <Mlp=   65.0268> <PB=1000000> 
<DWph=1> <it=130> <et=28.93> <Mt= 0.00> <Spt= 0.40> <nCl=100> <DB=   63.8854> <Mlp=   65.0268> <PB=1000000> 
<DWph=1> <it=140> <et=31.92> <Mt= 0.19> <Spt= 2.80> <nCl=865> <DB=   64.9497> <Mlp=   65.0003> <PB=1000000> 
<DWph=1> <it=150> <et=34.84> <Mt= 0.09> <Spt= 2.81> <nCl=164> <DB=   65.0000> <Mlp=   65.0000> <PB=1000000> 
<DWph=0> <it=156> <et=39.83> <Mt= 0.05> <Spt= 4.95> <nCl=185> <DB=   65.0000> <Mlp=   65.0000> <PB=1000000> 
Reduced cost fixing for graph G_1... took 13.88 sec., 227976 buck. arcs remain (100% from prev., 34.1% from max.)
Run enumeration... took 1 sec. and not succeeded.
ColGenEvalAlg final dual bound: 65 (rounded: 65)
----------- Diving heuristic started -----------
<DWph=2> <it=  1> <et=54.76> <Mt= 0.00> <Spt= 0.00> <nCl=  0> <DB=   65.0000> <Mlp=   65.0000> <PB=1000000> 
<DWph=1> <it=  2> <et=54.76> <Mt= 0.00> <Spt= 0.00> <nCl=  0> <DB=   65.0000> <Mlp=   65.0000> <PB=1000000> 
---- Diving heuristic node with dive number = 0, fix depth = 0 and tabu list size = 0
Fixed projected solution = [x_1_0_1_OspV=1, x_1_49_1_OspV=1, x_1_113_1_OspV=1, x_1_164_1_OspV=1]
<DWph=2> <it=  1> <et=54.84> <Mt= 0.00> <Spt= 0.00> <nCl=  0> <DB=   65.0000> <Mlp=   65.0000> <PB=1000000> 
<DWph=1> <it=  2> <et=54.84> <Mt= 0.01> <Spt= 0.00> <nCl=  0> <DB=   65.0000> <Mlp=   65.0000> <PB=1000000> 
---- Diving heuristic node with dive number = 0, fix depth = 0 and tabu list size = 0
Fixed projected solution = [x_1_0_1_OspV=1, x_1_2_1_OspV=1, x_1_138_1_OspV=1, x_1_139_1_OspV=1]
<DWph=2> <it=  1> <et=54.91> <Mt= 0.00> <Spt= 0.00> <nCl=  0> <DB=   65.0000> <Mlp=   65.0000> <PB=1000000> 
<DWph=1> <it=  2> <et=54.91> <Mt= 0.00> <Spt= 0.00> <nCl=  0> <DB=   65.0000> <Mlp=   65.0000> <PB=1000000> 
---- Diving heuristic node with dive number = 0, fix depth = 0 and tabu list size = 0
Fixed projected solution = [x_1_0_1_OspV=1, x_1_19_1_OspV=1, x_1_121_1_OspV=1, x_1_156_1_OspV=1]
<DWph=2> <it=  1> <et=54.97> <Mt= 0.01> <Spt= 0.00> <nCl=  0> <DB=   65.0000> <Mlp=   65.0000> <PB=1000000> 
<DWph=1> <it=  2> <et=54.98> <Mt= 0.00> <Spt= 0.00> <nCl=  0> <DB=   65.0000> <Mlp=   65.0000> <PB=1000000> 
---- Diving heuristic node with dive number = 0, fix depth = 0 and tabu list size = 0
Fixed projected solution = [x_1_0_1_OspV=1, x_1_50_1_OspV=1, x_1_112_1_OspV=1, x_1_165_1_OspV=1]
<DWph=2> <it=  1> <et=55.04> <Mt= 0.00> <Spt= 0.00> <nCl=  0> <DB=   65.0000> <Mlp=   65.0000> <PB=1000000> 
<DWph=1> <it=  2> <et=55.04> <Mt= 0.00> <Spt= 0.00> <nCl=  0> <DB=   65.0000> <Mlp=   65.0000> <PB=1000000> 
---- Diving heuristic node with dive number = 0, fix depth = 0 and tabu list size = 0
Fixed projected solution = [x_1_0_1_OspV=1, x_1_67_1_OspV=1, x_1_134_1_OspV=1, x_1_142_1_OspV=1]
<DWph=2> <it=  1> <et=55.11> <Mt= 0.01> <Spt= 0.00> <nCl=  0> <DB=   65.0000> <Mlp=   65.0000> <PB=1000000> 
<DWph=1> <it=  2> <et=55.11> <Mt= 0.00> <Spt= 0.00> <nCl=  0> <DB=   65.0000> <Mlp=   65.0000> <PB=1000000> 
---- Diving heuristic node with dive number = 0, fix depth = 0 and tabu list size = 0
Fixed projected solution = [x_1_0_1_OspV=1, x_1_42_1_OspV=1, x_1_114_1_OspV=1, x_1_163_1_OspV=1]
<DWph=2> <it=  1> <et=55.18> <Mt= 0.00> <Spt= 0.00> <nCl=  0> <DB=   65.0000> <Mlp=   65.0000> <PB=1000000> 
<DWph=1> <it=  2> <et=55.18> <Mt= 0.00> <Spt= 0.00> <nCl=  0> <DB=   65.0000> <Mlp=   65.0000> <PB=1000000> 
---- Diving heuristic node with dive number = 0, fix depth = 0 and tabu list size = 0
Fixed projected solution = [x_1_0_1_OspV=1, x_1_68_1_OspV=1, x_1_136_1_OspV=1, x_1_141_1_OspV=1]
<DWph=2> <it=  1> <et=55.24> <Mt= 0.01> <Spt= 0.00> <nCl=  0> <DB=   65.0000> <Mlp=   65.0000> <PB=1000000> 
<DWph=1> <it=  2> <et=55.25> <Mt= 0.00> <Spt= 0.00> <nCl=  0> <DB=   65.0000> <Mlp=   65.0000> <PB=1000000> 
---- Diving heuristic node with dive number = 0, fix depth = 0 and tabu list size = 0
Fixed projected solution = [x_1_0_1_OspV=1, x_1_20_1_OspV=1, x_1_82_1_OspV=1, x_1_192_1_OspV=1]
<DWph=2> <it=  1> <et=55.31> <Mt= 0.00> <Spt= 0.00> <nCl=  0> <DB=   65.0000> <Mlp=   65.0000> <PB=1000000> 
<DWph=1> <it=  2> <et=55.31> <Mt= 0.00> <Spt= 0.00> <nCl=  0> <DB=   65.0000> <Mlp=   65.0000> <PB=1000000> 
---- Diving heuristic node with dive number = 0, fix depth = 0 and tabu list size = 0
Fixed projected solution = [x_1_0_1_OspV=1, x_1_31_1_OspV=1, x_1_104_1_OspV=1, x_1_171_1_OspV=1]
<DWph=2> <it=  1> <et=55.38> <Mt= 0.01> <Spt= 0.00> <nCl=  0> <DB=   65.0000> <Mlp=   65.0000> <PB=1000000> 
<DWph=1> <it=  2> <et=55.38> <Mt= 0.00> <Spt= 0.00> <nCl=  0> <DB=   65.0000> <Mlp=   65.0000> <PB=1000000> 
---- Diving heuristic node with dive number = 0, fix depth = 0 and tabu list size = 0
Fixed projected solution = [x_1_0_1_OspV=1, x_1_28_1_OspV=1, x_1_87_1_OspV=1, x_1_186_1_OspV=1]
<DWph=2> <it=  1> <et=55.45> <Mt= 0.00> <Spt= 0.00> <nCl=  0> <DB=   65.0000> <Mlp=   65.0000> <PB=1000000> 
<DWph=1> <it=  2> <et=55.45> <Mt= 0.01> <Spt= 0.00> <nCl=  0> <DB=   65.0000> <Mlp=   65.0000> <PB=1000000> 
---- Diving heuristic node with dive number = 0, fix depth = 0 and tabu list size = 0
Fixed projected solution = [x_1_0_1_OspV=1, x_1_65_1_OspV=1, x_1_135_1_OspV=1, x_1_143_1_OspV=1]
<DWph=2> <it=  1> <et=55.51> <Mt= 0.00> <Spt= 0.00> <nCl=  0> <DB=   65.0000> <Mlp=   65.0000> <PB=1000000> 
<DWph=1> <it=  2> <et=55.52> <Mt= 0.00> <Spt= 0.00> <nCl=  0> <DB=   65.0000> <Mlp=   65.0000> <PB=1000000> 
---- Diving heuristic node with dive number = 0, fix depth = 0 and tabu list size = 0
Fixed projected solution = [x_1_0_1_OspV=1, x_1_11_1_OspV=1, x_1_106_1_OspV=1, x_1_175_1_OspV=1]
<DWph=2> <it=  1> <et=55.58> <Mt= 0.00> <Spt= 0.00> <nCl=  0> <DB=   65.0000> <Mlp=   65.0000> <PB=1000000> 
<DWph=1> <it=  2> <et=55.58> <Mt= 0.01> <Spt= 0.00> <nCl=  0> <DB=   65.0000> <Mlp=   65.0000> <PB=1000000> 
---- Diving heuristic node with dive number = 0, fix depth = 0 and tabu list size = 0
Fixed projected solution = [x_1_0_1_OspV=1, x_1_59_1_OspV=1, x_1_123_1_OspV=1, x_1_152_1_OspV=1]
<DWph=2> <it=  1> <et=55.65> <Mt= 0.00> <Spt= 0.00> <nCl=  0> <DB=   65.0000> <Mlp=   65.0000> <PB=1000000> 
<DWph=1> <it=  2> <et=55.65> <Mt= 0.00> <Spt= 0.00> <nCl=  0> <DB=   65.0000> <Mlp=   65.0000> <PB=1000000> 
---- Diving heuristic node with dive number = 0, fix depth = 0 and tabu list size = 0
Fixed projected solution = [x_1_0_1_OspV=1, x_1_6_1_OspV=1, x_1_79_1_OspV=1, x_1_196_1_OspV=1]
<DWph=2> <it=  1> <et=55.72> <Mt= 0.00> <Spt= 0.00> <nCl=  0> <DB=   65.0000> <Mlp=   65.0000> <PB=1000000> 
<DWph=1> <it=  2> <et=55.72> <Mt= 0.01> <Spt= 0.00> <nCl=  0> <DB=   65.0000> <Mlp=   65.0000> <PB=1000000> 
---- Diving heuristic node with dive number = 0, fix depth = 0 and tabu list size = 0
Fixed projected solution = [x_1_0_1_OspV=1, x_1_26_1_OspV=1, x_1_88_1_OspV=1, x_1_187_1_OspV=1]
<DWph=2> <it=  1> <et=55.78> <Mt= 0.00> <Spt= 0.00> <nCl=  0> <DB=   65.0000> <Mlp=   65.0000> <PB=1000000> 
<DWph=1> <it=  2> <et=55.78> <Mt= 0.00> <Spt= 0.00> <nCl=  0> <DB=   65.0000> <Mlp=   65.0000> <PB=1000000> 
---- Diving heuristic node with dive number = 0, fix depth = 0 and tabu list size = 0
Fixed projected solution = [x_1_0_1_OspV=1, x_1_66_1_OspV=1, x_1_137_1_OspV=1, x_1_140_1_OspV=1]
<DWph=2> <it=  1> <et=55.85> <Mt= 0.01> <Spt= 0.00> <nCl=  0> <DB=   65.0000> <Mlp=   65.0000> <PB=1000000> 
<DWph=1> <it=  2> <et=55.85> <Mt= 0.00> <Spt= 0.00> <nCl=  0> <DB=   65.0000> <Mlp=   65.0000> <PB=1000000> 
---- Diving heuristic node with dive number = 0, fix depth = 0 and tabu list size = 0
Fixed projected solution = [x_1_0_1_OspV=1, x_1_34_1_OspV=1, x_1_93_1_OspV=1, x_1_180_1_OspV=1]
<DWph=2> <it=  1> <et=55.92> <Mt= 0.00> <Spt= 0.00> <nCl=  0> <DB=   65.0000> <Mlp=   65.0000> <PB=1000000> 
<DWph=1> <it=  2> <et=55.92> <Mt= 0.00> <Spt= 0.00> <nCl=  0> <DB=   65.0000> <Mlp=   65.0000> <PB=1000000> 
---- Diving heuristic node with dive number = 0, fix depth = 0 and tabu list size = 0
Fixed projected solution = [x_1_0_1_OspV=1, x_1_61_1_OspV=1, x_1_126_1_OspV=1, x_1_150_1_OspV=1]
<DWph=2> <it=  1> <et=55.98> <Mt= 0.01> <Spt= 0.00> <nCl=  0> <DB=   65.0000> <Mlp=   65.0000> <PB=1000000> 
<DWph=1> <it=  2> <et=55.99> <Mt= 0.00> <Spt= 0.00> <nCl=  0> <DB=   65.0000> <Mlp=   65.0000> <PB=1000000> 
---- Diving heuristic node with dive number = 0, fix depth = 0 and tabu list size = 0
Fixed projected solution = [x_1_0_1_OspV=1, x_1_40_1_OspV=1, x_1_100_1_OspV=1, x_1_174_1_OspV=1]
<DWph=2> <it=  1> <et=56.05> <Mt= 0.00> <Spt= 0.00> <nCl=  0> <DB=   65.0000> <Mlp=   65.0000> <PB=1000000> 
<DWph=1> <it=  2> <et=56.05> <Mt= 0.00> <Spt= 0.00> <nCl=  0> <DB=   65.0000> <Mlp=   65.0000> <PB=1000000> 
---- Diving heuristic node with dive number = 0, fix depth = 0 and tabu list size = 0
Fixed projected solution = [x_1_0_1_OspV=1, x_1_17_1_OspV=1, x_1_78_1_OspV=1, x_1_195_1_OspV=1]
<DWph=2> <it=  1> <et=56.12> <Mt= 0.01> <Spt= 0.00> <nCl=  0> <DB=   65.0000> <Mlp=   65.0000> <PB=1000000> 
<DWph=1> <it=  2> <et=56.12> <Mt= 0.00> <Spt= 0.00> <nCl=  0> <DB=   65.0000> <Mlp=   65.0000> <PB=1000000> 
---- Diving heuristic node with dive number = 0, fix depth = 0 and tabu list size = 0
Fixed projected solution = [x_1_0_1_OspV=1, x_1_41_1_OspV=1, x_1_101_1_OspV=1, x_1_173_1_OspV=1]
<DWph=2> <it=  1> <et=56.19> <Mt= 0.00> <Spt= 0.00> <nCl=  0> <DB=   65.0000> <Mlp=   65.0000> <PB=1000000> 
<DWph=1> <it=  2> <et=56.19> <Mt= 0.00> <Spt= 0.00> <nCl=  0> <DB=   65.0000> <Mlp=   65.0000> <PB=1000000> 
---- Diving heuristic node with dive number = 0, fix depth = 0 and tabu list size = 0
Fixed projected solution = [x_1_0_1_OspV=1, x_1_32_1_OspV=1, x_1_92_1_OspV=1, x_1_181_1_OspV=1]
<DWph=2> <it=  1> <et=56.25> <Mt= 0.01> <Spt= 0.00> <nCl=  0> <DB=   65.0000> <Mlp=   65.0000> <PB=1000000> 
<DWph=1> <it=  2> <et=56.25> <Mt= 0.00> <Spt= 0.00> <nCl=  0> <DB=   65.0000> <Mlp=   65.0000> <PB=1000000> 
---- Diving heuristic node with dive number = 0, fix depth = 0 and tabu list size = 0
Fixed projected solution = [x_1_0_1_OspV=1, x_1_15_1_OspV=1, x_1_74_1_OspV=1, x_1_198_1_OspV=1]
<DWph=2> <it=  1> <et=56.32> <Mt= 0.00> <Spt= 0.00> <nCl=  0> <DB=   65.0000> <Mlp=   65.0000> <PB=1000000> 
<DWph=1> <it=  2> <et=56.32> <Mt= 0.00> <Spt= 0.00> <nCl=  0> <DB=   65.0000> <Mlp=   65.0000> <PB=1000000> 
---- Diving heuristic node with dive number = 0, fix depth = 0 and tabu list size = 0
Fixed projected solution = [x_1_0_1_OspV=1, x_1_13_1_OspV=1, x_1_73_1_OspV=1, x_1_199_1_OspV=1]
<DWph=2> <it=  1> <et=56.39> <Mt= 0.01> <Spt= 0.00> <nCl=  0> <DB=   65.0000> <Mlp=   65.0000> <PB=1000000> 
<DWph=1> <it=  2> <et=56.39> <Mt= 0.00> <Spt= 0.00> <nCl=  0> <DB=   65.0000> <Mlp=   65.0000> <PB=1000000> 
---- Diving heuristic node with dive number = 0, fix depth = 0 and tabu list size = 0
Fixed projected solution = [x_1_0_1_OspV=1, x_1_12_1_OspV=1, x_1_80_1_OspV=1, x_1_194_1_OspV=1]
<DWph=2> <it=  1> <et=56.45> <Mt= 0.00> <Spt= 0.00> <nCl=  0> <DB=   65.0000> <Mlp=   65.0000> <PB=1000000> 
<DWph=1> <it=  2> <et=56.46> <Mt= 0.00> <Spt= 0.00> <nCl=  0> <DB=   65.0000> <Mlp=   65.0000> <PB=1000000> 
---- Diving heuristic node with dive number = 0, fix depth = 0 and tabu list size = 0
Fixed projected solution = [x_1_0_1_OspV=1, x_1_63_1_OspV=1, x_1_128_1_OspV=1, x_1_146_1_OspV=1]
<DWph=2> <it=  1> <et=56.52> <Mt= 0.01> <Spt= 0.00> <nCl=  0> <DB=   65.0000> <Mlp=   65.0000> <PB=1000000> 
<DWph=1> <it=  2> <et=56.52> <Mt= 0.00> <Spt= 0.00> <nCl=  0> <DB=   65.0000> <Mlp=   65.0000> <PB=1000000> 
---- Diving heuristic node with dive number = 0, fix depth = 0 and tabu list size = 0
Fixed projected solution = [x_1_0_1_OspV=1, x_1_47_1_OspV=1, x_1_109_1_OspV=1, x_1_167_1_OspV=1]
<DWph=2> <it=  1> <et=56.59> <Mt= 0.00> <Spt= 0.00> <nCl=  0> <DB=   65.0000> <Mlp=   65.0000> <PB=1000000> 
<DWph=1> <it=  2> <et=56.59> <Mt= 0.01> <Spt= 0.00> <nCl=  0> <DB=   65.0000> <Mlp=   65.0000> <PB=1000000> 
---- Diving heuristic node with dive number = 0, fix depth = 0 and tabu list size = 0
Fixed projected solution = [x_1_0_1_OspV=1, x_1_58_1_OspV=1, x_1_122_1_OspV=1, x_1_153_1_OspV=1]
<DWph=2> <it=  1> <et=56.66> <Mt= 0.00> <Spt= 0.00> <nCl=  0> <DB=   65.0000> <Mlp=   65.0000> <PB=1000000> 
<DWph=1> <it=  2> <et=56.66> <Mt= 0.00> <Spt= 0.00> <nCl=  0> <DB=   65.0000> <Mlp=   65.0000> <PB=1000000> 
---- Diving heuristic node with dive number = 0, fix depth = 0 and tabu list size = 0
Fixed projected solution = [x_1_0_1_OspV=1, x_1_35_1_OspV=1, x_1_96_1_OspV=1, x_1_178_1_OspV=1]
<DWph=2> <it=  1> <et=56.72> <Mt= 0.00> <Spt= 0.00> <nCl=  0> <DB=   65.0000> <Mlp=   65.0000> <PB=1000000> 
<DWph=1> <it=  2> <et=56.72> <Mt= 0.01> <Spt= 0.00> <nCl=  0> <DB=   65.0000> <Mlp=   65.0000> <PB=1000000> 
---- Diving heuristic node with dive number = 0, fix depth = 0 and tabu list size = 0
Fixed projected solution = [x_1_0_1_OspV=1, x_1_60_1_OspV=1, x_1_124_1_OspV=1, x_1_151_1_OspV=1]
<DWph=2> <it=  1> <et=56.79> <Mt= 0.00> <Spt= 0.00> <nCl=  0> <DB=   65.0000> <Mlp=   65.0000> <PB=1000000> 
<DWph=1> <it=  2> <et=56.79> <Mt= 0.00> <Spt= 0.00> <nCl=  0> <DB=   65.0000> <Mlp=   65.0000> <PB=1000000> 
---- Diving heuristic node with dive number = 0, fix depth = 0 and tabu list size = 0
Fixed projected solution = [x_1_0_1_OspV=1, x_1_52_1_OspV=1, x_1_129_1_OspV=1, x_1_148_1_OspV=1]
<DWph=2> <it=  1> <et=56.86> <Mt= 0.01> <Spt= 0.00> <nCl=  0> <DB=   65.0000> <Mlp=   65.0000> <PB=1000000> 
<DWph=1> <it=  2> <et=56.86> <Mt= 0.00> <Spt= 0.00> <nCl=  0> <DB=   65.0000> <Mlp=   65.0000> <PB=1000000> 
---- Diving heuristic node with dive number = 0, fix depth = 0 and tabu list size = 0
Fixed projected solution = [x_1_0_1_OspV=1, x_1_54_1_OspV=1, x_1_117_1_OspV=1, x_1_159_1_OspV=1]
<DWph=2> <it=  1> <et=56.92> <Mt= 0.00> <Spt= 0.00> <nCl=  0> <DB=   65.0000> <Mlp=   65.0000> <PB=1000000> 
<DWph=1> <it=  2> <et=56.93> <Mt= 0.00> <Spt= 0.00> <nCl=  0> <DB=   65.0000> <Mlp=   65.0000> <PB=1000000> 
---- Diving heuristic node with dive number = 0, fix depth = 0 and tabu list size = 0
Fixed projected solution = [x_1_0_1_OspV=1, x_1_55_1_OspV=1, x_1_118_1_OspV=1, x_1_158_1_OspV=1]
<DWph=2> <it=  1> <et=56.99> <Mt= 0.01> <Spt= 0.00> <nCl=  0> <DB=   65.0000> <Mlp=   65.0000> <PB=1000000> 
<DWph=1> <it=  2> <et=56.99> <Mt= 0.00> <Spt= 0.00> <nCl=  0> <DB=   65.0000> <Mlp=   65.0000> <PB=1000000> 
---- Diving heuristic node with dive number = 0, fix depth = 0 and tabu list size = 0
Fixed projected solution = [x_1_0_1_OspV=1, x_1_44_1_OspV=1, x_1_105_1_OspV=1, x_1_170_1_OspV=1]
<DWph=2> <it=  1> <et=57.06> <Mt= 0.00> <Spt= 0.00> <nCl=  0> <DB=   65.0000> <Mlp=   65.0000> <PB=1000000> 
<DWph=1> <it=  2> <et=57.06> <Mt= 0.00> <Spt= 0.00> <nCl=  0> <DB=   65.0000> <Mlp=   65.0000> <PB=1000000> 
---- Diving heuristic node with dive number = 0, fix depth = 0 and tabu list size = 0
Fixed projected solution = [x_1_0_1_OspV=1, x_1_14_1_OspV=1, x_1_77_1_OspV=1, x_1_197_1_OspV=1]
<DWph=2> <it=  1> <et=57.13> <Mt= 0.01> <Spt= 0.00> <nCl=  0> <DB=   65.0000> <Mlp=   65.0000> <PB=1000000> 
<DWph=1> <it=  2> <et=57.13> <Mt= 0.00> <Spt= 0.00> <nCl=  0> <DB=   65.0000> <Mlp=   65.0000> <PB=1000000> 
---- Diving heuristic node with dive number = 0, fix depth = 0 and tabu list size = 0
Fixed projected solution = [x_1_0_1_OspV=1, x_1_51_1_OspV=1, x_1_115_1_OspV=1, x_1_161_1_OspV=1]
<DWph=2> <it=  1> <et=57.19> <Mt= 0.00> <Spt= 0.00> <nCl=  0> <DB=   65.0000> <Mlp=   65.0000> <PB=1000000> 
<DWph=1> <it=  2> <et=57.19> <Mt= 0.00> <Spt= 0.00> <nCl=  0> <DB=   65.0000> <Mlp=   65.0000> <PB=1000000> 
---- Diving heuristic node with dive number = 0, fix depth = 0 and tabu list size = 0
Fixed projected solution = [x_1_0_1_OspV=1, x_1_62_1_OspV=1, x_1_127_1_OspV=1, x_1_147_1_OspV=1]
<DWph=2> <it=  1> <et=57.26> <Mt= 0.01> <Spt= 0.00> <nCl=  0> <DB=   65.0000> <Mlp=   65.0000> <PB=1000000> 
<DWph=1> <it=  2> <et=57.26> <Mt= 0.00> <Spt= 0.00> <nCl=  0> <DB=   65.0000> <Mlp=   65.0000> <PB=1000000> 
---- Diving heuristic node with dive number = 0, fix depth = 0 and tabu list size = 0
Fixed projected solution = [x_1_0_1_OspV=1, x_1_57_1_OspV=1, x_1_120_1_OspV=1, x_1_155_1_OspV=1]
<DWph=2> <it=  1> <et=57.33> <Mt= 0.00> <Spt= 0.00> <nCl=  0> <DB=   65.0000> <Mlp=   65.0000> <PB=1000000> 
<DWph=1> <it=  2> <et=57.33> <Mt= 0.00> <Spt= 0.00> <nCl=  0> <DB=   65.0000> <Mlp=   65.0000> <PB=1000000> 
---- Diving heuristic node with dive number = 0, fix depth = 0 and tabu list size = 0
Fixed projected solution = [x_1_0_1_OspV=1, x_1_29_1_OspV=1, x_1_90_1_OspV=1, x_1_185_1_OspV=1]
<DWph=2> <it=  1> <et=57.39> <Mt= 0.01> <Spt= 0.00> <nCl=  0> <DB=   65.0000> <Mlp=   65.0000> <PB=1000000> 
<DWph=1> <it=  2> <et=57.40> <Mt= 0.00> <Spt= 0.00> <nCl=  0> <DB=   65.0000> <Mlp=   65.0000> <PB=1000000> 
---- Diving heuristic node with dive number = 0, fix depth = 0 and tabu list size = 0
Fixed projected solution = [x_1_0_1_OspV=1, x_1_27_1_OspV=1, x_1_86_1_OspV=1, x_1_188_1_OspV=1]
<DWph=2> <it=  1> <et=57.46> <Mt= 0.00> <Spt= 0.00> <nCl=  0> <DB=   65.0000> <Mlp=   65.0000> <PB=1000000> 
<DWph=1> <it=  2> <et=57.46> <Mt= 0.00> <Spt= 0.00> <nCl=  0> <DB=   65.0000> <Mlp=   65.0000> <PB=1000000> 
---- Diving heuristic node with dive number = 0, fix depth = 0 and tabu list size = 0
Fixed projected solution = [x_1_0_1_OspV=1, x_1_33_1_OspV=1, x_1_130_1_OspV=1, x_1_149_1_OspV=1]
<DWph=2> <it=  1> <et=57.53> <Mt= 0.01> <Spt= 0.00> <nCl=  0> <DB=   65.0000> <Mlp=   65.0000> <PB=1000000> 
<DWph=1> <it=  2> <et=57.53> <Mt= 0.00> <Spt= 0.00> <nCl=  0> <DB=   65.0000> <Mlp=   65.0000> <PB=1000000> 
---- Diving heuristic node with dive number = 0, fix depth = 0 and tabu list size = 0
Fixed projected solution = [x_1_0_1_OspV=1, x_1_64_1_OspV=1, x_1_132_1_OspV=1, x_1_145_1_OspV=1]
<DWph=2> <it=  1> <et=57.59> <Mt= 0.00> <Spt= 0.00> <nCl=  0> <DB=   65.0000> <Mlp=   65.0000> <PB=1000000> 
<DWph=1> <it=  2> <et=57.60> <Mt= 0.00> <Spt= 0.00> <nCl=  0> <DB=   65.0000> <Mlp=   65.0000> <PB=1000000> 
---- Diving heuristic node with dive number = 0, fix depth = 0 and tabu list size = 0
Fixed projected solution = [x_1_0_1_OspV=1, x_1_56_1_OspV=1, x_1_119_1_OspV=1, x_1_157_1_OspV=1]
<DWph=2> <it=  1> <et=57.66> <Mt= 0.01> <Spt= 0.00> <nCl=  0> <DB=   65.0000> <Mlp=   65.0000> <PB=1000000> 
<DWph=1> <it=  2> <et=57.66> <Mt= 0.00> <Spt= 0.00> <nCl=  0> <DB=   65.0000> <Mlp=   65.0000> <PB=1000000> 
---- Diving heuristic node with dive number = 0, fix depth = 0 and tabu list size = 0
Fixed projected solution = [x_1_0_1_OspV=1, x_1_48_1_OspV=1, x_1_111_1_OspV=1, x_1_166_1_OspV=1]
<DWph=2> <it=  1> <et=57.73> <Mt= 0.00> <Spt= 0.00> <nCl=  0> <DB=   65.0000> <Mlp=   65.0000> <PB=1000000> 
<DWph=1> <it=  2> <et=57.73> <Mt= 0.01> <Spt= 0.00> <nCl=  0> <DB=   65.0000> <Mlp=   65.0000> <PB=1000000> 
---- Diving heuristic node with dive number = 0, fix depth = 0 and tabu list size = 0
Fixed projected solution = [x_1_0_1_OspV=1, x_1_53_1_OspV=1, x_1_116_1_OspV=1, x_1_160_1_OspV=1]
<DWph=2> <it=  1> <et=57.80> <Mt= 0.00> <Spt= 0.00> <nCl=  0> <DB=   65.0000> <Mlp=   65.0000> <PB=1000000> 
<DWph=1> <it=  2> <et=57.80> <Mt= 0.00> <Spt= 0.00> <nCl=  0> <DB=   65.0000> <Mlp=   65.0000> <PB=1000000> 
---- Diving heuristic node with dive number = 0, fix depth = 0 and tabu list size = 0
Fixed projected solution = [x_1_0_1_OspV=1, x_1_16_1_OspV=1, x_1_94_1_OspV=1, x_1_183_1_OspV=1]
<DWph=2> <it=  1> <et=57.86> <Mt= 0.00> <Spt= 0.00> <nCl=  0> <DB=   65.0000> <Mlp=   65.0000> <PB=1000000> 
<DWph=1> <it=  2> <et=57.86> <Mt= 0.01> <Spt= 0.00> <nCl=  0> <DB=   65.0000> <Mlp=   65.0000> <PB=1000000> 
---- Diving heuristic node with dive number = 0, fix depth = 0 and tabu list size = 0
Fixed projected solution = [x_1_0_1_OspV=1, x_1_22_1_OspV=1, x_1_83_1_OspV=1, x_1_191_1_OspV=1]
<DWph=2> <it=  1> <et=57.93> <Mt= 0.00> <Spt= 0.00> <nCl=  0> <DB=   65.0000> <Mlp=   65.0000> <PB=1000000> 
<DWph=1> <it=  2> <et=57.93> <Mt= 0.00> <Spt= 0.00> <nCl=  0> <DB=   65.0000> <Mlp=   65.0000> <PB=1000000> 
---- Diving heuristic node with dive number = 0, fix depth = 0 and tabu list size = 0
Fixed projected solution = [x_1_0_1_OspV=1, x_1_39_1_OspV=1, x_1_99_1_OspV=1, x_1_176_1_OspV=1]
<DWph=2> <it=  1> <et=58.00> <Mt= 0.00> <Spt= 0.00> <nCl=  0> <DB=   65.0000> <Mlp=   65.0000> <PB=1000000> 
<DWph=1> <it=  2> <et=58.00> <Mt= 0.01> <Spt= 0.00> <nCl=  0> <DB=   65.0000> <Mlp=   65.0000> <PB=1000000> 
---- Diving heuristic node with dive number = 0, fix depth = 0 and tabu list size = 0
Fixed projected solution = [x_1_0_1_OspV=1, x_1_8_1_OspV=1, x_1_97_1_OspV=1, x_1_182_1_OspV=1]
<DWph=2> <it=  1> <et=58.06> <Mt= 0.00> <Spt= 0.00> <nCl=  0> <DB=   65.0000> <Mlp=   65.0000> <PB=1000000> 
<DWph=1> <it=  2> <et=58.07> <Mt= 0.00> <Spt= 0.00> <nCl=  0> <DB=   65.0000> <Mlp=   65.0000> <PB=1000000> 
---- Diving heuristic node with dive number = 0, fix depth = 0 and tabu list size = 0
Fixed projected solution = [x_1_0_1_OspV=1, x_1_43_1_OspV=1, x_1_103_1_OspV=1, x_1_172_1_OspV=1]
<DWph=2> <it=  1> <et=58.13> <Mt= 0.01> <Spt= 0.00> <nCl=  0> <DB=   65.0000> <Mlp=   65.0000> <PB=1000000> 
<DWph=1> <it=  2> <et=58.13> <Mt= 0.00> <Spt= 0.00> <nCl=  0> <DB=   65.0000> <Mlp=   65.0000> <PB=1000000> 
---- Diving heuristic node with dive number = 0, fix depth = 0 and tabu list size = 0
Fixed projected solution = [x_1_0_1_OspV=1, x_1_69_1_OspV=1, x_1_133_1_OspV=1, x_1_144_1_OspV=1]
<DWph=2> <it=  1> <et=58.20> <Mt= 0.00> <Spt= 0.00> <nCl=  0> <DB=   65.0000> <Mlp=   65.0000> <PB=1000000> 
<DWph=1> <it=  2> <et=58.20> <Mt= 0.00> <Spt= 0.00> <nCl=  0> <DB=   65.0000> <Mlp=   65.0000> <PB=1000000> 
---- Diving heuristic node with dive number = 0, fix depth = 0 and tabu list size = 0
Fixed projected solution = [x_1_0_1_OspV=1, x_1_45_1_OspV=1, x_1_107_1_OspV=1, x_1_169_1_OspV=1]
<DWph=2> <it=  1> <et=58.26> <Mt= 0.01> <Spt= 0.00> <nCl=  0> <DB=   65.0000> <Mlp=   65.0000> <PB=1000000> 
<DWph=1> <it=  2> <et=58.27> <Mt= 0.00> <Spt= 0.00> <nCl=  0> <DB=   65.0000> <Mlp=   65.0000> <PB=1000000> 
---- Diving heuristic node with dive number = 0, fix depth = 1 and tabu list size = 0
Fixed projected solution = [x_1_0_1_OspV=1, x_1_37_1_OspV=1, x_1_98_1_OspV=1, x_1_177_1_OspV=1]
<DWph=2> <it=  9> <et=60.10> <Mt= 0.38> <Spt= 1.37> <nCl=800> <DB=   64.0015> <Mlp=   65.0000> <PB=1000000> 
SEARCH IS INTERRUPTED as the time limit is reached. 
<DWph=1> <it=  9> <et=60.10> <Mt= 0.00> <Spt= 0.00> <nCl=  0> <DB=   65.0000> <Mlp=   65.0000> <PB=1000000> 
---- Diving heuristic node with dive number = 1, fix depth = 1 and tabu list size = 1
Fixed projected solution = [x_1_0_1_OspV=1, x_1_23_1_OspV=1, x_1_91_1_OspV=1, x_1_184_1_OspV=1]
---- Diving heuristic node with dive number = 2, fix depth = 1 and tabu list size = 2
Fixed projected solution = [x_1_0_1_OspV=1, x_1_5_1_OspV=1, x_1_72_1_OspV=1, x_1_201_1_OspV=1]
---- Diving heuristic node with dive number = 3, fix depth = 1 and tabu list size = 3
Fixed projected solution = [x_1_0_1_OspV=1, x_1_10_1_OspV=1, x_1_70_1_OspV=1, x_1_202_1_OspV=1]
**** Strong branching phase 1 is started *****
**** Strong branching phase 3 is started *****
************************************************************************************************
Search is finished, global bounds : [ 65 , 1e+06 ], TIME = 0h1m1s22t = 6122
************************************************************************************************
statistics_cols: instance & :Optimal & cutoff & :bcRecRootDb & :bcTimeRootEval & :bcCountNodeProc & :bcRecBestDb & :bcRecBestInc & :bcTimeMain \\
statistics: 201_2500_DI_16 & 0 & 1.0e6 & 65.00 & 54.76 & 1 & 65.00 & -- & 61.22 \\
########################################################
Solution not found
########################################################
