Application parameters:
  batch  =>  nothing
  instance  =>  "/IN/201_2500_DI_1.txt-Q2Half"
  ub  =>  1.0e6
  cfg  =>  "/CFG/BPP.cfg"
data = Colored Bin Packing dataset.
number of items = 202
number of colors = 2
capacity = 2464
Items : 
	 item 1, weight= 2, color= 0
	 item 2, weight= 8, color= 0
	 item 3, weight= 8, color= 0
	 item 4, weight= 28, color= 0
	 item 5, weight= 40, color= 0
	 item 6, weight= 40, color= 0
	 item 7, weight= 40, color= 0
	 item 8, weight= 40, color= 0
	 item 9, weight= 40, color= 0
	 item 10, weight= 40, color= 0
	 item 11, weight= 44, color= 0
	 item 12, weight= 48, color= 0
	 item 13, weight= 48, color= 0
	 item 14, weight= 48, color= 0
	 item 15, weight= 48, color= 0
	 item 16, weight= 48, color= 0
	 item 17, weight= 50, color= 0
	 item 18, weight= 52, color= 0
	 item 19, weight= 56, color= 0
	 item 20, weight= 60, color= 0
	 item 21, weight= 60, color= 0
	 item 22, weight= 64, color= 0
	 item 23, weight= 64, color= 0
	 item 24, weight= 64, color= 0
	 item 25, weight= 66, color= 0
	 item 26, weight= 72, color= 0
	 item 27, weight= 72, color= 0
	 item 28, weight= 72, color= 0
	 item 29, weight= 72, color= 0
	 item 30, weight= 74, color= 0
	 item 31, weight= 76, color= 0
	 item 32, weight= 76, color= 0
	 item 33, weight= 76, color= 0
	 item 34, weight= 80, color= 0
	 item 35, weight= 80, color= 0
	 item 36, weight= 80, color= 0
	 item 37, weight= 82, color= 0
	 item 38, weight= 84, color= 0
	 item 39, weight= 88, color= 0
	 item 40, weight= 88, color= 0
	 item 41, weight= 90, color= 0
	 item 42, weight= 96, color= 0
	 item 43, weight= 96, color= 0
	 item 44, weight= 96, color= 0
	 item 45, weight= 100, color= 0
	 item 46, weight= 102, color= 0
	 item 47, weight= 104, color= 0
	 item 48, weight= 108, color= 0
	 item 49, weight= 112, color= 1
	 item 50, weight= 116, color= 0
	 item 51, weight= 120, color= 0
	 item 52, weight= 120, color= 0
	 item 53, weight= 124, color= 0
	 item 54, weight= 132, color= 0
	 item 55, weight= 136, color= 0
	 item 56, weight= 136, color= 0
	 item 57, weight= 148, color= 0
	 item 58, weight= 152, color= 0
	 item 59, weight= 152, color= 0
	 item 60, weight= 152, color= 0
	 item 61, weight= 172, color= 0
	 item 62, weight= 172, color= 0
	 item 63, weight= 174, color= 0
	 item 64, weight= 176, color= 0
	 item 65, weight= 182, color= 0
	 item 66, weight= 200, color= 0
	 item 67, weight= 200, color= 0
	 item 68, weight= 204, color= 0
	 item 69, weight= 204, color= 0
	 item 70, weight= 214, color= 1
	 item 71, weight= 234, color= 1
	 item 72, weight= 236, color= 1
	 item 73, weight= 244, color= 1
	 item 74, weight= 244, color= 1
	 item 75, weight= 252, color= 1
	 item 76, weight= 253, color= 1
	 item 77, weight= 258, color= 1
	 item 78, weight= 272, color= 0
	 item 79, weight= 272, color= 1
	 item 80, weight= 281, color= 1
	 item 81, weight= 282, color= 1
	 item 82, weight= 305, color= 1
	 item 83, weight= 308, color= 1
	 item 84, weight= 314, color= 1
	 item 85, weight= 332, color= 1
	 item 86, weight= 338, color= 1
	 item 87, weight= 338, color= 1
	 item 88, weight= 339, color= 1
	 item 89, weight= 364, color= 1
	 item 90, weight= 370, color= 1
	 item 91, weight= 371, color= 1
	 item 92, weight= 378, color= 1
	 item 93, weight= 382, color= 1
	 item 94, weight= 384, color= 1
	 item 95, weight= 390, color= 1
	 item 96, weight= 398, color= 1
	 item 97, weight= 404, color= 1
	 item 98, weight= 406, color= 1
	 item 99, weight= 411, color= 1
	 item 100, weight= 444, color= 1
	 item 101, weight= 454, color= 1
	 item 102, weight= 459, color= 1
	 item 103, weight= 482, color= 1
	 item 104, weight= 484, color= 1
	 item 105, weight= 490, color= 1
	 item 106, weight= 498, color= 1
	 item 107, weight= 504, color= 1
	 item 108, weight= 515, color= 1
	 item 109, weight= 518, color= 1
	 item 110, weight= 540, color= 1
	 item 111, weight= 550, color= 1
	 item 112, weight= 576, color= 1
	 item 113, weight= 583, color= 1
	 item 114, weight= 604, color= 1
	 item 115, weight= 622, color= 1
	 item 116, weight= 626, color= 1
	 item 117, weight= 665, color= 1
	 item 118, weight= 684, color= 1
	 item 119, weight= 698, color= 1
	 item 120, weight= 758, color= 1
	 item 121, weight= 763, color= 1
	 item 122, weight= 780, color= 1
	 item 123, weight= 782, color= 1
	 item 124, weight= 782, color= 1
	 item 125, weight= 840, color= 1
	 item 126, weight= 874, color= 1
	 item 127, weight= 881, color= 1
	 item 128, weight= 882, color= 1
	 item 129, weight= 892, color= 1
	 item 130, weight= 902, color= 1
	 item 131, weight= 920, color= 0
	 item 132, weight= 978, color= 1
	 item 133, weight= 1022, color= 1
	 item 134, weight= 1023, color= 1
	 item 135, weight= 1026, color= 1
	 item 136, weight= 1028, color= 1
	 item 137, weight= 1049, color= 1
	 item 138, weight= 1079, color= 1
	 item 139, weight= 1233, color= 1
	 item 140, weight= 1234, color= 1
	 item 141, weight= 1236, color= 1
	 item 142, weight= 1237, color= 1
	 item 143, weight= 1242, color= 1
	 item 144, weight= 1383, color= 1
	 item 145, weight= 1396, color= 1
	 item 146, weight= 1406, color= 1
	 item 147, weight= 1409, color= 1
	 item 148, weight= 1410, color= 1
	 item 149, weight= 1418, color= 1
	 item 150, weight= 1450, color= 1
	 item 151, weight= 1530, color= 1
	 item 152, weight= 1532, color= 1
	 item 153, weight= 1544, color= 1
	 item 154, weight= 1549, color= 1
	 item 155, weight= 1558, color= 1
	 item 156, weight= 1598, color= 1
	 item 157, weight= 1630, color= 1
	 item 158, weight= 1644, color= 1
	 item 159, weight= 1667, color= 1
	 item 160, weight= 1696, color= 1
	 item 161, weight= 1714, color= 1
	 item 162, weight= 1722, color= 1
	 item 163, weight= 1740, color= 1
	 item 164, weight= 1765, color= 1
	 item 165, weight= 1806, color= 1
	 item 166, weight= 1820, color= 1
	 item 167, weight= 1846, color= 1
	 item 168, weight= 1847, color= 1
	 item 169, weight= 1870, color= 1
	 item 170, weight= 1884, color= 1
	 item 171, weight= 1915, color= 1
	 item 172, weight= 1922, color= 1
	 item 173, weight= 1934, color= 1
	 item 174, weight= 1940, color= 1
	 item 175, weight= 1942, color= 1
	 item 176, weight= 1971, color= 1
	 item 177, weight= 1978, color= 1
	 item 178, weight= 1988, color= 1
	 item 179, weight= 1990, color= 1
	 item 180, weight= 1998, color= 1
	 item 181, weight= 2006, color= 1
	 item 182, weight= 2014, color= 1
	 item 183, weight= 2019, color= 1
	 item 184, weight= 2028, color= 1
	 item 185, weight= 2054, color= 1
	 item 186, weight= 2059, color= 1
	 item 187, weight= 2062, color= 1
	 item 188, weight= 2068, color= 1
	 item 189, weight= 2090, color= 1
	 item 190, weight= 2098, color= 1
	 item 191, weight= 2099, color= 1
	 item 192, weight= 2108, color= 1
	 item 193, weight= 2127, color= 1
	 item 194, weight= 2130, color= 1
	 item 195, weight= 2158, color= 1
	 item 196, weight= 2161, color= 1
	 item 197, weight= 2164, color= 1
	 item 198, weight= 2172, color= 1
	 item 199, weight= 2180, color= 1
	 item 200, weight= 2186, color= 1
	 item 201, weight= 2188, color= 1
	 item 202, weight= 2210, color= 1

VRPSolver warning: Interval set for resource 1 on source node (when source != sink) is ignored (by definition is [0.0,0.0])
VRPSolver warning: Interval set for resource 2 on source node (when source != sink) is ignored (by definition is [0.0,0.0])
VRPSolver warning: Interval set for resource 3 on source node (when source != sink) is ignored (by definition is [0.0,0.0])
[41m solve [00m
~~~~~~~~~~~~~~~~~~~~~~~~~~~~~~~~~~~~~~~~~~~~~~~~~~~~~~~~~~~~~~~~~~~~~~~~~~~~~~
VRPSolver v0.4.1, 24/03/2021. Web: vrpsolver.math.u-bordeaux.fr
Corresponds to the solver by Pessoa, Sadykov, Uchoa and Vanderbeck (2020)
Paper: dx.doi.org/10.1007/s10107-020-01523-z
USE THIS CODE ONLY FOR ACADEMIC PURPOSES AT YOUR OWN RISK
~~~~~~~~~~~~~~~~~~~~~~~~~~~~~~~~~~~~~~~~~~~~~~~~~~~~~~~~~~~~~~~~~~~~~~~~~~~~~~
BaPCod v053, 24/03/2021, © Inria Bordeaux, France
~~~~~~~~~~~~~~~~~~~~~~~~~~~~~~~~~~~~~~~~~~~~~~~~~~~~~~~~~~~~~~~~~~~~~~~~~~~~~~
VRPSolver parameters:
GlobalTimeLimit = 60
MaxNbOfBBtreeNodeTreated = 100000
treeSearchStrategy = 1
RCSPstopCutGenTimeThresholdInPricing = 10
RCSPhardTimeThresholdInPricing = 20
RCSPnumberOfBucketsPerVertex = 2000
RCSPdynamicBucketSteps = 0
RCSPuseBidirectionalSearch = 1
RCSPapplyReducedCostFixing = 1
RCSPredCostFixingFalseGap = 0
RCSPmaxNumOfColsPerIteration = 100
RCSPmaxNumOfColsPerExactIteration = 100
RCSPheurLabelingStrategy = 4
StabilizationMinPhaseOfStage = 1
RCSPmaxNumOfLabelsInEnumeration = 100000
RCSPmaxNumOfEnumeratedSolutions = 1000000
RCSPmaxNumOfEnumSolutionsForMIP = 100000
RCSPinitNGneighbourhoodSize = 0
RCSPmaxNGneighbourhoodSize = 0
RCSPrankOneCutsMaxNumPerRound = 100
RCSPrankOneCutsMaxNumRows = -1
RCSPrankOneCutsMemoryType = 2
CutTailingOffThreshold = 0.02
CutTailingOffCounterThreshold = 3
SafeDualBoundScaleFactor = -1
StrongBranchingPhaseOneCandidatesNumber = 100
StrongBranchingPhaseOneTreeSizeEstimRatio = 0.3
StrongBranchingPhaseTwoCandidatesNumber = 1
StrongBranchingPhaseTwoTreeSizeEstimRatio = 0.1
MaxTimeForRestrictedMasterIpHeur = -1
DivingHeurUseDepthLimit = 0
MaxLDSbreadth = 3
MaxLDSdepth = 2
New model incumbent solution 1e+06, TIME = 0h0m0s3t = 3
Model is built TIME = 0h0m1s80t = 180
************************************************************************************************
**** BaB tree root node
**** Local DB = -1e+12, global bounds : [ -1e+12 , 1e+06 ], TIME = 0h0m1s80t = 180
**** 1 open nodes, 0 columns (0 active), 0 dyn. constrs. (0 active), 406 art. vars. (406 active)
************************************************************************************************
<DWph=2> <it= 10> <et=3.64> <Mt= 0.00> <Spt= 1.82> <nCl=1000> <DB=-3135026431.4527> <Mlp=157200022.0000> <PB=1000000> 
<DWph=2> <it= 20> <et=5.57> <Mt= 0.04> <Spt= 1.89> <nCl=1000> <DB=-1812447866.3338> <Mlp=101492568.3096> <PB=1000000> 
<DWph=2> <it= 30> <et=7.58> <Mt= 0.09> <Spt= 1.92> <nCl=1000> <DB=-1198233437.1122> <Mlp=89163137.5611> <PB=1000000> 
<DWph=2> <it= 40> <et=9.69> <Mt= 0.12> <Spt= 1.98> <nCl=1000> <DB=-620998176.3183> <Mlp=71509706.2112> <PB=1000000> 
<DWph=2> <it= 50> <et=11.98> <Mt= 0.18> <Spt= 2.12> <nCl=1000> <DB=-1080808278.6704> <Mlp=64898840.5910> <PB=1000000> 
<DWph=2> <it= 60> <et=14.35> <Mt= 0.17> <Spt= 2.21> <nCl=1000> <DB=-389447844.2591> <Mlp=58977026.4905> <PB=1000000> 
<DWph=2> <it= 70> <et=16.73> <Mt= 0.17> <Spt= 2.20> <nCl=1000> <DB=-386870976.1921> <Mlp=52433840.1580> <PB=1000000> 
<DWph=2> <it= 80> <et=19.18> <Mt= 0.21> <Spt= 2.24> <nCl=1000> <DB=-275979923.4350> <Mlp=41028046.6536> <PB=1000000> 
<DWph=2> <it= 90> <et=22.29> <Mt= 0.38> <Spt= 2.72> <nCl=980> <DB=  -90.6005> <Mlp=   71.3205> <PB=1000000> 
<DWph=2> <it=100> <et=24.33> <Mt= 0.33> <Spt= 1.71> <nCl=1000> <DB=   11.1845> <Mlp=   68.3990> <PB=1000000> 
<DWph=2> <it=110> <et=26.70> <Mt= 0.33> <Spt= 1.91> <nCl=913> <DB=   52.8020> <Mlp=   65.3998> <PB=1000000> 
<DWph=2> <it=120> <et=28.25> <Mt= 0.25> <Spt= 1.29> <nCl=684> <DB=   64.6365> <Mlp=   65.0248> <PB=1000000> 
<DWph=2> <it=130> <et=29.58> <Mt= 0.10> <Spt= 1.23> <nCl=199> <DB=   64.9990> <Mlp=   65.0150> <PB=1000000> 
<DWph=2> <it=134> <et=30.27> <Mt= 0.02> <Spt= 0.66> <nCl=  7> <DB=   65.0149> <Mlp=   65.0149> <PB=1000000> 
<DWph=1> <it=140> <et=32.13> <Mt= 0.10> <Spt= 1.76> <nCl=439> <DB=   64.8120> <Mlp=   65.0023> <PB=1000000> 
<DWph=1> <it=143> <et=33.22> <Mt= 0.03> <Spt= 1.06> <nCl= 19> <DB=   65.0008> <Mlp=   65.0008> <PB=1000000> 
<DWph=0> <it=150> <et=39.15> <Mt= 0.10> <Spt= 5.82> <nCl=582> <DB=   64.9957> <Mlp=   65.0000> <PB=1000000> 
<DWph=0> <it=151> <et=39.16> <Mt= 0.02> <Spt= 0.00> <nCl=  0> <DB=   64.9957> <Mlp=   65.0000> <PB=65> 
ColGenEvalAlg final dual bound: 64.9957 (rounded: 65)
New model incumbent solution 65, TIME = 0h0m39s22t = 3922
************************************************************************************************
Search is finished, global bounds : [ 65 , 65 ], TIME = 0h0m39s22t = 3922
************************************************************************************************
[32mBaPCod : solution defined.[00m
statistics_cols: instance & :Optimal & cutoff & :bcRecRootDb & :bcTimeRootEval & :bcCountNodeProc & :bcRecBestDb & :bcRecBestInc & :bcTimeMain \\
statistics: 201_2500_DI_1 & 1 & 1.0e6 & 65.00 & 39.22 & 1 & 65.00 & 65 & 39.22 \\
########################################################
bin_id=1: 96(0) 484(1) 1884(1) 
bin_id=2: 104(0) 540(1) 1820(1) 
bin_id=3: 204(0) 1026(1) 1234(1) 
bin_id=4: 116(0) 583(1) 1765(1) 
bin_id=5: 48(0) 308(1) 2108(1) 
bin_id=6: 40(0) 244(1) 2180(1) 
bin_id=7: 2(0) 1079(1) 1383(1) 
bin_id=8: 920(0) 1544(1) 
bin_id=9: 172(0) 874(1) 1418(1) 
bin_id=10: 80(0) 406(1) 1978(1) 
bin_id=11: 182(0) 1049(1) 1233(1) 
bin_id=12: 124(0) 626(1) 1714(1) 
bin_id=13: 204(0) 1023(1) 1237(1) 
bin_id=14: 40(0) 490(1) 1934(1) 
bin_id=15: 82(0) 411(1) 1971(1) 
bin_id=16: 48(0) 244(1) 2172(1) 
bin_id=17: 176(0) 892(1) 1396(1) 
bin_id=18: 44(0) 234(1) 2186(1) 
bin_id=19: 136(0) 698(1) 1630(1) 
bin_id=20: 76(0) 398(1) 1990(1) 
bin_id=21: 64(0) 338(1) 2062(1) 
bin_id=22: 40(0) 214(1) 2210(1) 
bin_id=23: 100(0) 518(1) 1846(1) 
bin_id=24: 72(0) 404(1) 1988(1) 
bin_id=25: 52(0) 282(1) 2130(1) 
bin_id=26: 60(0) 305(1) 2099(1) 
bin_id=27: 200(0) 1028(1) 1236(1) 
bin_id=28: 40(0) 236(1) 2188(1) 
bin_id=29: 50(0) 253(1) 2161(1) 
bin_id=30: 76(0) 390(1) 1998(1) 
bin_id=31: 60(0) 314(1) 2090(1) 
bin_id=32: 152(0) 763(1) 1549(1) 
bin_id=33: 56(0) 281(1) 2127(1) 
bin_id=34: 88(0) 454(1) 1922(1) 
bin_id=35: 72(0) 364(1) 2028(1) 
bin_id=36: 90(0) 459(1) 1915(1) 
bin_id=37: 64(0) 332(1) 2068(1) 
bin_id=38: 28(0) 338(1) 2098(1) 
bin_id=39: 48(0) 258(1) 2158(1) 
bin_id=40: 40(0) 370(1) 2054(1) 
bin_id=41: 120(0) 604(1) 1740(1) 
bin_id=42: 74(0) 371(1) 2019(1) 
bin_id=43: 80(0) 978(1) 1406(1) 
bin_id=44: 132(0) 665(1) 1667(1) 
bin_id=45: 72(0) 378(1) 2014(1) 
bin_id=46: 66(0) 339(1) 2059(1) 
bin_id=47: 102(0) 515(1) 1847(1) 
bin_id=48: 148(0) 758(1) 1558(1) 
bin_id=49: 96(0) 498(1) 1870(1) 
bin_id=50: 120(0) 622(1) 1722(1) 
bin_id=51: 108(0) 550(1) 1806(1) 
bin_id=52: 80(0) 444(1) 1940(1) 
bin_id=53: 76(0) 382(1) 2006(1) 
bin_id=54: 40(0) 482(1) 1942(1) 
bin_id=55: 136(0) 684(1) 1644(1) 
bin_id=56: 48(0) 252(1) 2164(1) 
bin_id=57: 174(0) 881(1) 1409(1) 
bin_id=58: 152(0) 782(1) 1530(1) 
bin_id=59: 200(0) 1022(1) 1242(1) 
bin_id=60: 152(0) 780(1) 1532(1) 
bin_id=61: 48(0) 64(0) 272(1) 384(1) 1696(1) 
bin_id=62: 172(0) 882(1) 1410(1) 
bin_id=63: 84(0) 782(1) 1598(1) 
bin_id=64: 8(0) 8(0) 96(0) 902(1) 1450(1) 
bin_id=65: 72(0) 88(0) 112(1) 272(0) 504(1) 576(1) 840(1) 
Objective value: 65.0
########################################################
