Application parameters:
  batch  =>  nothing
  instance  =>  "/IN/201_2500_DI_49.txt-Q2Half"
  ub  =>  1.0e6
  cfg  =>  "/CFG/BPP.cfg"
data = Colored Bin Packing dataset.
number of items = 202
number of colors = 2
capacity = 2472
Items : 
	 item 1, weight= 8, color= 0
	 item 2, weight= 8, color= 0
	 item 3, weight= 16, color= 0
	 item 4, weight= 16, color= 0
	 item 5, weight= 22, color= 0
	 item 6, weight= 24, color= 0
	 item 7, weight= 26, color= 0
	 item 8, weight= 32, color= 0
	 item 9, weight= 36, color= 0
	 item 10, weight= 40, color= 0
	 item 11, weight= 44, color= 0
	 item 12, weight= 48, color= 0
	 item 13, weight= 48, color= 0
	 item 14, weight= 48, color= 0
	 item 15, weight= 52, color= 0
	 item 16, weight= 54, color= 0
	 item 17, weight= 54, color= 0
	 item 18, weight= 60, color= 0
	 item 19, weight= 60, color= 0
	 item 20, weight= 64, color= 0
	 item 21, weight= 64, color= 0
	 item 22, weight= 64, color= 0
	 item 23, weight= 64, color= 0
	 item 24, weight= 72, color= 0
	 item 25, weight= 72, color= 0
	 item 26, weight= 72, color= 0
	 item 27, weight= 74, color= 0
	 item 28, weight= 74, color= 0
	 item 29, weight= 76, color= 0
	 item 30, weight= 80, color= 0
	 item 31, weight= 84, color= 0
	 item 32, weight= 86, color= 0
	 item 33, weight= 86, color= 0
	 item 34, weight= 88, color= 0
	 item 35, weight= 88, color= 0
	 item 36, weight= 88, color= 0
	 item 37, weight= 88, color= 0
	 item 38, weight= 96, color= 0
	 item 39, weight= 96, color= 1
	 item 40, weight= 98, color= 0
	 item 41, weight= 104, color= 0
	 item 42, weight= 108, color= 0
	 item 43, weight= 112, color= 0
	 item 44, weight= 112, color= 0
	 item 45, weight= 112, color= 0
	 item 46, weight= 120, color= 0
	 item 47, weight= 120, color= 0
	 item 48, weight= 128, color= 0
	 item 49, weight= 128, color= 0
	 item 50, weight= 130, color= 0
	 item 51, weight= 132, color= 0
	 item 52, weight= 132, color= 0
	 item 53, weight= 136, color= 0
	 item 54, weight= 144, color= 0
	 item 55, weight= 148, color= 0
	 item 56, weight= 150, color= 0
	 item 57, weight= 150, color= 0
	 item 58, weight= 160, color= 0
	 item 59, weight= 160, color= 0
	 item 60, weight= 160, color= 0
	 item 61, weight= 176, color= 0
	 item 62, weight= 176, color= 0
	 item 63, weight= 180, color= 0
	 item 64, weight= 192, color= 0
	 item 65, weight= 196, color= 0
	 item 66, weight= 200, color= 0
	 item 67, weight= 204, color= 0
	 item 68, weight= 204, color= 0
	 item 69, weight= 204, color= 0
	 item 70, weight= 214, color= 1
	 item 71, weight= 226, color= 1
	 item 72, weight= 244, color= 1
	 item 73, weight= 258, color= 1
	 item 74, weight= 272, color= 0
	 item 75, weight= 272, color= 1
	 item 76, weight= 273, color= 1
	 item 77, weight= 276, color= 1
	 item 78, weight= 278, color= 1
	 item 79, weight= 281, color= 1
	 item 80, weight= 284, color= 1
	 item 81, weight= 297, color= 1
	 item 82, weight= 302, color= 1
	 item 83, weight= 307, color= 1
	 item 84, weight= 318, color= 1
	 item 85, weight= 329, color= 1
	 item 86, weight= 340, color= 1
	 item 87, weight= 349, color= 1
	 item 88, weight= 364, color= 1
	 item 89, weight= 365, color= 1
	 item 90, weight= 366, color= 1
	 item 91, weight= 370, color= 1
	 item 92, weight= 371, color= 1
	 item 93, weight= 379, color= 1
	 item 94, weight= 383, color= 1
	 item 95, weight= 384, color= 0
	 item 96, weight= 425, color= 1
	 item 97, weight= 431, color= 1
	 item 98, weight= 436, color= 1
	 item 99, weight= 439, color= 1
	 item 100, weight= 446, color= 1
	 item 101, weight= 450, color= 1
	 item 102, weight= 476, color= 1
	 item 103, weight= 491, color= 1
	 item 104, weight= 497, color= 1
	 item 105, weight= 504, color= 1
	 item 106, weight= 542, color= 1
	 item 107, weight= 546, color= 1
	 item 108, weight= 561, color= 1
	 item 109, weight= 567, color= 1
	 item 110, weight= 572, color= 1
	 item 111, weight= 576, color= 1
	 item 112, weight= 596, color= 1
	 item 113, weight= 644, color= 1
	 item 114, weight= 645, color= 1
	 item 115, weight= 651, color= 1
	 item 116, weight= 658, color= 1
	 item 117, weight= 662, color= 1
	 item 118, weight= 670, color= 1
	 item 119, weight= 686, color= 1
	 item 120, weight= 724, color= 1
	 item 121, weight= 747, color= 1
	 item 122, weight= 753, color= 1
	 item 123, weight= 761, color= 1
	 item 124, weight= 810, color= 1
	 item 125, weight= 828, color= 1
	 item 126, weight= 830, color= 1
	 item 127, weight= 840, color= 1
	 item 128, weight= 881, color= 1
	 item 129, weight= 883, color= 1
	 item 130, weight= 948, color= 1
	 item 131, weight= 978, color= 1
	 item 132, weight= 998, color= 1
	 item 133, weight= 1000, color= 1
	 item 134, weight= 1022, color= 1
	 item 135, weight= 1028, color= 1
	 item 136, weight= 1029, color= 1
	 item 137, weight= 1031, color= 1
	 item 138, weight= 1054, color= 1
	 item 139, weight= 1237, color= 1
	 item 140, weight= 1238, color= 1
	 item 141, weight= 1239, color= 1
	 item 142, weight= 1244, color= 1
	 item 143, weight= 1246, color= 1
	 item 144, weight= 1278, color= 1
	 item 145, weight= 1302, color= 1
	 item 146, weight= 1404, color= 1
	 item 147, weight= 1413, color= 1
	 item 148, weight= 1415, color= 1
	 item 149, weight= 1482, color= 1
	 item 150, weight= 1484, color= 1
	 item 151, weight= 1502, color= 1
	 item 152, weight= 1552, color= 1
	 item 153, weight= 1561, color= 1
	 item 154, weight= 1569, color= 1
	 item 155, weight= 1577, color= 1
	 item 156, weight= 1604, color= 1
	 item 157, weight= 1650, color= 1
	 item 158, weight= 1670, color= 1
	 item 159, weight= 1678, color= 1
	 item 160, weight= 1686, color= 1
	 item 161, weight= 1691, color= 1
	 item 162, weight= 1699, color= 1
	 item 163, weight= 1704, color= 1
	 item 164, weight= 1708, color= 1
	 item 165, weight= 1788, color= 1
	 item 166, weight= 1793, color= 1
	 item 167, weight= 1799, color= 1
	 item 168, weight= 1818, color= 1
	 item 169, weight= 1826, color= 1
	 item 170, weight= 1860, color= 1
	 item 171, weight= 1877, color= 1
	 item 172, weight= 1885, color= 1
	 item 173, weight= 1908, color= 1
	 item 174, weight= 1934, color= 1
	 item 175, weight= 1938, color= 1
	 item 176, weight= 1947, color= 1
	 item 177, weight= 1955, color= 1
	 item 178, weight= 1956, color= 1
	 item 179, weight= 1963, color= 1
	 item 180, weight= 2013, color= 1
	 item 181, weight= 2019, color= 1
	 item 182, weight= 2027, color= 1
	 item 183, weight= 2030, color= 1
	 item 184, weight= 2034, color= 1
	 item 185, weight= 2035, color= 1
	 item 186, weight= 2044, color= 1
	 item 187, weight= 2068, color= 1
	 item 188, weight= 2079, color= 1
	 item 189, weight= 2097, color= 1
	 item 190, weight= 2105, color= 1
	 item 191, weight= 2110, color= 1
	 item 192, weight= 2118, color= 1
	 item 193, weight= 2137, color= 1
	 item 194, weight= 2140, color= 1
	 item 195, weight= 2142, color= 1
	 item 196, weight= 2145, color= 1
	 item 197, weight= 2148, color= 1
	 item 198, weight= 2153, color= 1
	 item 199, weight= 2166, color= 1
	 item 200, weight= 2202, color= 1
	 item 201, weight= 2204, color= 1
	 item 202, weight= 2218, color= 1

VRPSolver warning: Interval set for resource 1 on source node (when source != sink) is ignored (by definition is [0.0,0.0])
VRPSolver warning: Interval set for resource 2 on source node (when source != sink) is ignored (by definition is [0.0,0.0])
VRPSolver warning: Interval set for resource 3 on source node (when source != sink) is ignored (by definition is [0.0,0.0])
[41m solve [00m
~~~~~~~~~~~~~~~~~~~~~~~~~~~~~~~~~~~~~~~~~~~~~~~~~~~~~~~~~~~~~~~~~~~~~~~~~~~~~~
VRPSolver v0.4.1, 24/03/2021. Web: vrpsolver.math.u-bordeaux.fr
Corresponds to the solver by Pessoa, Sadykov, Uchoa and Vanderbeck (2020)
Paper: dx.doi.org/10.1007/s10107-020-01523-z
USE THIS CODE ONLY FOR ACADEMIC PURPOSES AT YOUR OWN RISK
~~~~~~~~~~~~~~~~~~~~~~~~~~~~~~~~~~~~~~~~~~~~~~~~~~~~~~~~~~~~~~~~~~~~~~~~~~~~~~
BaPCod v053, 24/03/2021, © Inria Bordeaux, France
~~~~~~~~~~~~~~~~~~~~~~~~~~~~~~~~~~~~~~~~~~~~~~~~~~~~~~~~~~~~~~~~~~~~~~~~~~~~~~
VRPSolver parameters:
GlobalTimeLimit = 60
MaxNbOfBBtreeNodeTreated = 100000
treeSearchStrategy = 1
RCSPstopCutGenTimeThresholdInPricing = 10
RCSPhardTimeThresholdInPricing = 20
RCSPnumberOfBucketsPerVertex = 2000
RCSPdynamicBucketSteps = 0
RCSPuseBidirectionalSearch = 1
RCSPapplyReducedCostFixing = 1
RCSPredCostFixingFalseGap = 0
RCSPmaxNumOfColsPerIteration = 100
RCSPmaxNumOfColsPerExactIteration = 100
RCSPheurLabelingStrategy = 4
StabilizationMinPhaseOfStage = 1
RCSPmaxNumOfLabelsInEnumeration = 100000
RCSPmaxNumOfEnumeratedSolutions = 1000000
RCSPmaxNumOfEnumSolutionsForMIP = 100000
RCSPinitNGneighbourhoodSize = 0
RCSPmaxNGneighbourhoodSize = 0
RCSPrankOneCutsMaxNumPerRound = 100
RCSPrankOneCutsMaxNumRows = -1
RCSPrankOneCutsMemoryType = 2
CutTailingOffThreshold = 0.02
CutTailingOffCounterThreshold = 3
SafeDualBoundScaleFactor = -1
StrongBranchingPhaseOneCandidatesNumber = 100
StrongBranchingPhaseOneTreeSizeEstimRatio = 0.3
StrongBranchingPhaseTwoCandidatesNumber = 1
StrongBranchingPhaseTwoTreeSizeEstimRatio = 0.1
MaxTimeForRestrictedMasterIpHeur = -1
DivingHeurUseDepthLimit = 0
MaxLDSbreadth = 3
MaxLDSdepth = 2
New model incumbent solution 1e+06, TIME = 0h0m0s3t = 3
Model is built TIME = 0h0m1s80t = 180
************************************************************************************************
**** BaB tree root node
**** Local DB = -1e+12, global bounds : [ -1e+12 , 1e+06 ], TIME = 0h0m1s81t = 181
**** 1 open nodes, 0 columns (0 active), 0 dyn. constrs. (0 active), 406 art. vars. (406 active)
************************************************************************************************
<DWph=2> <it= 10> <et=3.48> <Mt= 0.00> <Spt= 1.66> <nCl=1000> <DB=-1330104818.3937> <Mlp=168000021.0000> <PB=1000000> 
<DWph=2> <it= 20> <et=5.13> <Mt= 0.03> <Spt= 1.62> <nCl=1000> <DB=-2402802826.4771> <Mlp=116192329.6346> <PB=1000000> 
<DWph=2> <it= 30> <et=7.11> <Mt= 0.07> <Spt= 1.91> <nCl=1000> <DB=-1517211217.8791> <Mlp=91427709.9467> <PB=1000000> 
<DWph=2> <it= 40> <et=9.19> <Mt= 0.11> <Spt= 1.97> <nCl=1000> <DB=-961496818.8957> <Mlp=78802987.5210> <PB=1000000> 
<DWph=2> <it= 50> <et=11.36> <Mt= 0.14> <Spt= 2.03> <nCl=1000> <DB=-782277188.7265> <Mlp=70522933.1705> <PB=1000000> 
<DWph=2> <it= 60> <et=13.57> <Mt= 0.15> <Spt= 2.06> <nCl=1000> <DB=-393966065.8751> <Mlp=66515886.8245> <PB=1000000> 
<DWph=2> <it= 70> <et=15.87> <Mt= 0.19> <Spt= 2.11> <nCl=1000> <DB=-310554451.4093> <Mlp=57505145.4437> <PB=1000000> 
<DWph=2> <it= 80> <et=18.14> <Mt= 0.19> <Spt= 2.08> <nCl=1000> <DB=-273430040.8569> <Mlp=50023336.3510> <PB=1000000> 
<DWph=2> <it= 90> <et=20.74> <Mt= 0.49> <Spt= 2.11> <nCl=1000> <DB=-261503803.6974> <Mlp=24291489.0771> <PB=1000000> 
<DWph=2> <it=100> <et=23.76> <Mt= 0.54> <Spt= 2.46> <nCl=891> <DB= -241.2461> <Mlp=   67.9914> <PB=1000000> 
<DWph=2> <it=110> <et=25.78> <Mt= 0.21> <Spt= 1.69> <nCl=1000> <DB=   28.8232> <Mlp=   66.2198> <PB=1000000> 
<DWph=2> <it=120> <et=27.61> <Mt= 0.29> <Spt= 1.54> <nCl=940> <DB=   63.9563> <Mlp=   65.0498> <PB=1000000> 
<DWph=2> <it=129> <et=28.94> <Mt= 0.09> <Spt= 1.23> <nCl=144> <DB=   65.0313> <Mlp=   65.0313> <PB=1000000> 
<DWph=1> <it=130> <et=29.37> <Mt= 0.01> <Spt= 0.43> <nCl=100> <DB=   63.9615> <Mlp=   65.0313> <PB=1000000> 
<DWph=1> <it=140> <et=32.41> <Mt= 0.20> <Spt= 2.84> <nCl=979> <DB=   64.8952> <Mlp=   65.0006> <PB=1000000> 
<DWph=1> <it=149> <et=35.21> <Mt= 0.10> <Spt= 2.59> <nCl=143> <DB=   65.0000> <Mlp=   65.0000> <PB=1000000> 
<DWph=0> <it=150> <et=36.37> <Mt= 0.00> <Spt= 1.16> <nCl=100> <DB=   64.9629> <Mlp=   65.0000> <PB=1000000> 
<DWph=0> <it=151> <et=36.39> <Mt= 0.02> <Spt= 0.00> <nCl=  0> <DB=   64.9629> <Mlp=   65.0000> <PB=65> 
ColGenEvalAlg final dual bound: 64.9629 (rounded: 65)
New model incumbent solution 65, TIME = 0h0m36s45t = 3645
************************************************************************************************
Search is finished, global bounds : [ 65 , 65 ], TIME = 0h0m36s45t = 3645
************************************************************************************************
[32mBaPCod : solution defined.[00m
statistics_cols: instance & :Optimal & cutoff & :bcRecRootDb & :bcTimeRootEval & :bcCountNodeProc & :bcRecBestDb & :bcRecBestInc & :bcTimeMain \\
statistics: 201_2500_DI_49 & 1 & 1.0e6 & 65.00 & 36.45 & 1 & 65.00 & 65 & 36.45 \\
########################################################
bin_id=1: 74(0) 371(1) 2027(1) 
bin_id=2: 144(0) 724(1) 1604(1) 
bin_id=3: 74(0) 379(1) 2019(1) 
bin_id=4: 204(0) 1029(1) 1239(1) 
bin_id=5: 160(0) 828(1) 1484(1) 
bin_id=6: 64(0) 340(1) 2068(1) 
bin_id=7: 48(0) 276(1) 2148(1) 
bin_id=8: 112(0) 561(1) 1799(1) 
bin_id=9: 36(0) 318(1) 2118(1) 
bin_id=10: 132(0) 670(1) 1670(1) 
bin_id=11: 180(0) 1054(1) 1238(1) 
bin_id=12: 86(0) 431(1) 1955(1) 
bin_id=13: 112(0) 567(1) 1793(1) 
bin_id=14: 176(0) 881(1) 1415(1) 
bin_id=15: 54(0) 281(1) 2137(1) 
bin_id=16: 72(0) 370(1) 2030(1) 
bin_id=17: 88(0) 450(1) 1934(1) 
bin_id=18: 148(0) 747(1) 1577(1) 
bin_id=19: 16(0) 596(1) 1860(1) 
bin_id=20: 88(0) 446(1) 1938(1) 
bin_id=21: 98(0) 497(1) 1877(1) 
bin_id=22: 44(0) 226(1) 2202(1) 
bin_id=23: 128(0) 645(1) 1699(1) 
bin_id=24: 60(0) 302(1) 2110(1) 
bin_id=25: 84(0) 425(1) 1963(1) 
bin_id=26: 80(0) 436(1) 1956(1) 
bin_id=27: 204(0) 1031(1) 1237(1) 
bin_id=28: 24(0) 244(1) 2204(1) 
bin_id=29: 48(0) 284(1) 2140(1) 
bin_id=30: 52(0) 278(1) 2142(1) 
bin_id=31: 150(0) 761(1) 1561(1) 
bin_id=32: 104(0) 542(1) 1826(1) 
bin_id=33: 196(0) 998(1) 1278(1) 
bin_id=34: 72(0) 365(1) 2035(1) 
bin_id=35: 120(0) 948(1) 1404(1) 
bin_id=36: 150(0) 753(1) 1569(1) 
bin_id=37: 64(0) 364(1) 2044(1) 
bin_id=38: 96(0) 491(1) 1885(1) 
bin_id=39: 136(0) 686(1) 1650(1) 
bin_id=40: 160(0) 810(1) 1502(1) 
bin_id=41: 112(0) 572(1) 1788(1) 
bin_id=42: 60(0) 307(1) 2105(1) 
bin_id=43: 176(0) 883(1) 1413(1) 
bin_id=44: 8(0) 88(0) 96(1) 978(1) 1302(1) 
bin_id=45: 128(0) 658(1) 1686(1) 
bin_id=46: 88(0) 476(1) 1908(1) 
bin_id=47: 26(0) 349(1) 2097(1) 
bin_id=48: 64(0) 329(1) 2079(1) 
bin_id=49: 130(0) 651(1) 1691(1) 
bin_id=50: 22(0) 297(1) 2153(1) 
bin_id=51: 76(0) 383(1) 2013(1) 
bin_id=52: 132(0) 662(1) 1678(1) 
bin_id=53: 86(0) 439(1) 1947(1) 
bin_id=54: 108(0) 546(1) 1818(1) 
bin_id=55: 54(0) 273(1) 2145(1) 
bin_id=56: 48(0) 258(1) 2166(1) 
bin_id=57: 200(0) 1028(1) 1244(1) 
bin_id=58: 204(0) 1022(1) 1246(1) 
bin_id=59: 120(0) 644(1) 1708(1) 
bin_id=60: 72(0) 366(1) 2034(1) 
bin_id=61: 16(0) 64(0) 840(1) 1552(1) 
bin_id=62: 192(0) 576(1) 1704(1) 
bin_id=63: 160(0) 830(1) 1482(1) 
bin_id=64: 8(0) 32(0) 214(1) 2218(1) 
bin_id=65: 40(0) 272(0) 272(1) 384(0) 504(1) 1000(1) 
Objective value: 65.0
########################################################
