Application parameters:
  batch  =>  nothing
  instance  =>  "/IN/201_2500_DI_3.txt-Q2Half"
  ub  =>  1.0e6
  cfg  =>  "/CFG/BPP.cfg"
data = Colored Bin Packing dataset.
number of items = 202
number of colors = 2
capacity = 2456
Items : 
	 item 1, weight= 4, color= 0
	 item 2, weight= 8, color= 0
	 item 3, weight= 8, color= 0
	 item 4, weight= 16, color= 0
	 item 5, weight= 32, color= 0
	 item 6, weight= 36, color= 0
	 item 7, weight= 40, color= 0
	 item 8, weight= 40, color= 0
	 item 9, weight= 40, color= 0
	 item 10, weight= 44, color= 0
	 item 11, weight= 48, color= 0
	 item 12, weight= 48, color= 0
	 item 13, weight= 48, color= 0
	 item 14, weight= 48, color= 0
	 item 15, weight= 48, color= 0
	 item 16, weight= 52, color= 0
	 item 17, weight= 52, color= 0
	 item 18, weight= 56, color= 0
	 item 19, weight= 60, color= 0
	 item 20, weight= 64, color= 0
	 item 21, weight= 64, color= 0
	 item 22, weight= 64, color= 0
	 item 23, weight= 68, color= 0
	 item 24, weight= 68, color= 0
	 item 25, weight= 72, color= 0
	 item 26, weight= 76, color= 0
	 item 27, weight= 76, color= 0
	 item 28, weight= 76, color= 0
	 item 29, weight= 80, color= 0
	 item 30, weight= 84, color= 0
	 item 31, weight= 86, color= 0
	 item 32, weight= 86, color= 0
	 item 33, weight= 88, color= 0
	 item 34, weight= 88, color= 0
	 item 35, weight= 88, color= 0
	 item 36, weight= 88, color= 0
	 item 37, weight= 92, color= 0
	 item 38, weight= 92, color= 0
	 item 39, weight= 96, color= 0
	 item 40, weight= 104, color= 0
	 item 41, weight= 104, color= 0
	 item 42, weight= 104, color= 0
	 item 43, weight= 104, color= 0
	 item 44, weight= 108, color= 0
	 item 45, weight= 112, color= 0
	 item 46, weight= 112, color= 0
	 item 47, weight= 112, color= 0
	 item 48, weight= 120, color= 0
	 item 49, weight= 122, color= 0
	 item 50, weight= 128, color= 0
	 item 51, weight= 128, color= 0
	 item 52, weight= 132, color= 0
	 item 53, weight= 140, color= 0
	 item 54, weight= 142, color= 0
	 item 55, weight= 142, color= 1
	 item 56, weight= 144, color= 0
	 item 57, weight= 144, color= 0
	 item 58, weight= 150, color= 0
	 item 59, weight= 156, color= 1
	 item 60, weight= 164, color= 1
	 item 61, weight= 172, color= 0
	 item 62, weight= 174, color= 0
	 item 63, weight= 174, color= 0
	 item 64, weight= 176, color= 0
	 item 65, weight= 184, color= 0
	 item 66, weight= 200, color= 0
	 item 67, weight= 204, color= 0
	 item 68, weight= 204, color= 0
	 item 69, weight= 204, color= 0
	 item 70, weight= 214, color= 1
	 item 71, weight= 220, color= 0
	 item 72, weight= 226, color= 1
	 item 73, weight= 232, color= 1
	 item 74, weight= 236, color= 1
	 item 75, weight= 242, color= 1
	 item 76, weight= 262, color= 1
	 item 77, weight= 272, color= 0
	 item 78, weight= 280, color= 0
	 item 79, weight= 284, color= 0
	 item 80, weight= 292, color= 1
	 item 81, weight= 314, color= 1
	 item 82, weight= 322, color= 1
	 item 83, weight= 349, color= 1
	 item 84, weight= 354, color= 1
	 item 85, weight= 356, color= 1
	 item 86, weight= 364, color= 1
	 item 87, weight= 384, color= 1
	 item 88, weight= 387, color= 1
	 item 89, weight= 389, color= 1
	 item 90, weight= 394, color= 1
	 item 91, weight= 425, color= 1
	 item 92, weight= 435, color= 1
	 item 93, weight= 436, color= 1
	 item 94, weight= 439, color= 1
	 item 95, weight= 444, color= 1
	 item 96, weight= 446, color= 1
	 item 97, weight= 467, color= 1
	 item 98, weight= 474, color= 0
	 item 99, weight= 478, color= 1
	 item 100, weight= 497, color= 1
	 item 101, weight= 512, color= 1
	 item 102, weight= 524, color= 0
	 item 103, weight= 530, color= 1
	 item 104, weight= 531, color= 1
	 item 105, weight= 541, color= 1
	 item 106, weight= 548, color= 1
	 item 107, weight= 568, color= 1
	 item 108, weight= 574, color= 1
	 item 109, weight= 596, color= 1
	 item 110, weight= 607, color= 1
	 item 111, weight= 621, color= 1
	 item 112, weight= 650, color= 1
	 item 113, weight= 650, color= 1
	 item 114, weight= 668, color= 1
	 item 115, weight= 678, color= 1
	 item 116, weight= 705, color= 1
	 item 117, weight= 715, color= 1
	 item 118, weight= 719, color= 1
	 item 119, weight= 724, color= 1
	 item 120, weight= 742, color= 1
	 item 121, weight= 751, color= 1
	 item 122, weight= 786, color= 1
	 item 123, weight= 833, color= 1
	 item 124, weight= 840, color= 1
	 item 125, weight= 842, color= 1
	 item 126, weight= 844, color= 1
	 item 127, weight= 863, color= 1
	 item 128, weight= 873, color= 1
	 item 129, weight= 877, color= 1
	 item 130, weight= 884, color= 1
	 item 131, weight= 916, color= 1
	 item 132, weight= 938, color= 1
	 item 133, weight= 976, color= 1
	 item 134, weight= 1020, color= 1
	 item 135, weight= 1021, color= 1
	 item 136, weight= 1022, color= 1
	 item 137, weight= 1023, color= 1
	 item 138, weight= 1142, color= 1
	 item 139, weight= 1229, color= 1
	 item 140, weight= 1230, color= 1
	 item 141, weight= 1231, color= 1
	 item 142, weight= 1236, color= 1
	 item 143, weight= 1238, color= 1
	 item 144, weight= 1334, color= 1
	 item 145, weight= 1364, color= 1
	 item 146, weight= 1405, color= 1
	 item 147, weight= 1409, color= 1
	 item 148, weight= 1421, color= 1
	 item 149, weight= 1450, color= 1
	 item 150, weight= 1468, color= 1
	 item 151, weight= 1500, color= 1
	 item 152, weight= 1514, color= 1
	 item 153, weight= 1536, color= 1
	 item 154, weight= 1555, color= 1
	 item 155, weight= 1570, color= 1
	 item 156, weight= 1571, color= 1
	 item 157, weight= 1588, color= 1
	 item 158, weight= 1595, color= 1
	 item 159, weight= 1599, color= 1
	 item 160, weight= 1611, color= 1
	 item 161, weight= 1646, color= 1
	 item 162, weight= 1660, color= 1
	 item 163, weight= 1678, color= 1
	 item 164, weight= 1696, color= 1
	 item 165, weight= 1713, color= 1
	 item 166, weight= 1729, color= 1
	 item 167, weight= 1748, color= 1
	 item 168, weight= 1754, color= 1
	 item 169, weight= 1770, color= 1
	 item 170, weight= 1804, color= 1
	 item 171, weight= 1807, color= 1
	 item 172, weight= 1821, color= 1
	 item 173, weight= 1822, color= 1
	 item 174, weight= 1836, color= 1
	 item 175, weight= 1887, color= 1
	 item 176, weight= 1890, color= 1
	 item 177, weight= 1897, color= 1
	 item 178, weight= 1922, color= 1
	 item 179, weight= 1924, color= 1
	 item 180, weight= 1931, color= 1
	 item 181, weight= 1935, color= 1
	 item 182, weight= 1940, color= 1
	 item 183, weight= 1947, color= 1
	 item 184, weight= 1974, color= 1
	 item 185, weight= 1986, color= 1
	 item 186, weight= 1993, color= 1
	 item 187, weight= 2003, color= 1
	 item 188, weight= 2028, color= 1
	 item 189, weight= 2034, color= 1
	 item 190, weight= 2036, color= 1
	 item 191, weight= 2039, color= 1
	 item 192, weight= 2074, color= 1
	 item 193, weight= 2106, color= 1
	 item 194, weight= 2108, color= 1
	 item 195, weight= 2124, color= 1
	 item 196, weight= 2146, color= 1
	 item 197, weight= 2166, color= 1
	 item 198, weight= 2180, color= 1
	 item 199, weight= 2186, color= 1
	 item 200, weight= 2192, color= 1
	 item 201, weight= 2196, color= 1
	 item 202, weight= 2202, color= 1

VRPSolver warning: Interval set for resource 1 on source node (when source != sink) is ignored (by definition is [0.0,0.0])
VRPSolver warning: Interval set for resource 2 on source node (when source != sink) is ignored (by definition is [0.0,0.0])
VRPSolver warning: Interval set for resource 3 on source node (when source != sink) is ignored (by definition is [0.0,0.0])
[41m solve [00m
~~~~~~~~~~~~~~~~~~~~~~~~~~~~~~~~~~~~~~~~~~~~~~~~~~~~~~~~~~~~~~~~~~~~~~~~~~~~~~
VRPSolver v0.4.1, 24/03/2021. Web: vrpsolver.math.u-bordeaux.fr
Corresponds to the solver by Pessoa, Sadykov, Uchoa and Vanderbeck (2020)
Paper: dx.doi.org/10.1007/s10107-020-01523-z
USE THIS CODE ONLY FOR ACADEMIC PURPOSES AT YOUR OWN RISK
~~~~~~~~~~~~~~~~~~~~~~~~~~~~~~~~~~~~~~~~~~~~~~~~~~~~~~~~~~~~~~~~~~~~~~~~~~~~~~
BaPCod v053, 24/03/2021, © Inria Bordeaux, France
~~~~~~~~~~~~~~~~~~~~~~~~~~~~~~~~~~~~~~~~~~~~~~~~~~~~~~~~~~~~~~~~~~~~~~~~~~~~~~
VRPSolver parameters:
GlobalTimeLimit = 60
MaxNbOfBBtreeNodeTreated = 100000
treeSearchStrategy = 1
RCSPstopCutGenTimeThresholdInPricing = 10
RCSPhardTimeThresholdInPricing = 20
RCSPnumberOfBucketsPerVertex = 2000
RCSPdynamicBucketSteps = 0
RCSPuseBidirectionalSearch = 1
RCSPapplyReducedCostFixing = 1
RCSPredCostFixingFalseGap = 0
RCSPmaxNumOfColsPerIteration = 100
RCSPmaxNumOfColsPerExactIteration = 100
RCSPheurLabelingStrategy = 4
StabilizationMinPhaseOfStage = 1
RCSPmaxNumOfLabelsInEnumeration = 100000
RCSPmaxNumOfEnumeratedSolutions = 1000000
RCSPmaxNumOfEnumSolutionsForMIP = 100000
RCSPinitNGneighbourhoodSize = 0
RCSPmaxNGneighbourhoodSize = 0
RCSPrankOneCutsMaxNumPerRound = 100
RCSPrankOneCutsMaxNumRows = -1
RCSPrankOneCutsMemoryType = 2
CutTailingOffThreshold = 0.02
CutTailingOffCounterThreshold = 3
SafeDualBoundScaleFactor = -1
StrongBranchingPhaseOneCandidatesNumber = 100
StrongBranchingPhaseOneTreeSizeEstimRatio = 0.3
StrongBranchingPhaseTwoCandidatesNumber = 1
StrongBranchingPhaseTwoTreeSizeEstimRatio = 0.1
MaxTimeForRestrictedMasterIpHeur = -1
DivingHeurUseDepthLimit = 0
MaxLDSbreadth = 3
MaxLDSdepth = 2
New model incumbent solution 1e+06, TIME = 0h0m0s3t = 3
Model is built TIME = 0h0m1s69t = 169
************************************************************************************************
**** BaB tree root node
**** Local DB = -1e+12, global bounds : [ -1e+12 , 1e+06 ], TIME = 0h0m1s69t = 169
**** 1 open nodes, 0 columns (0 active), 0 dyn. constrs. (0 active), 406 art. vars. (406 active)
************************************************************************************************
<DWph=2> <it= 10> <et=3.25> <Mt= 0.00> <Spt= 1.55> <nCl=1000> <DB=-1508823507.8347> <Mlp=172800013.0000> <PB=1000000> 
<DWph=2> <it= 20> <et=4.90> <Mt= 0.03> <Spt= 1.62> <nCl=1000> <DB=-1790132475.3367> <Mlp=127800015.7778> <PB=1000000> 
<DWph=2> <it= 30> <et=6.73> <Mt= 0.08> <Spt= 1.74> <nCl=1000> <DB=-1537639923.6111> <Mlp=94242254.2611> <PB=1000000> 
<DWph=2> <it= 40> <et=8.69> <Mt= 0.14> <Spt= 1.83> <nCl=1000> <DB=-841548356.3449> <Mlp=82051052.1882> <PB=1000000> 
<DWph=2> <it= 50> <et=10.64> <Mt= 0.18> <Spt= 1.77> <nCl=1000> <DB=-585225823.8053> <Mlp=73619746.9930> <PB=1000000> 
<DWph=2> <it= 60> <et=12.64> <Mt= 0.25> <Spt= 1.75> <nCl=1000> <DB=-773960636.7671> <Mlp=64920144.1867> <PB=1000000> 
<DWph=2> <it= 70> <et=14.88> <Mt= 0.33> <Spt= 1.90> <nCl=1000> <DB=-245356582.9969> <Mlp=50146966.7431> <PB=1000000> 
<DWph=2> <it= 80> <et=17.29> <Mt= 0.41> <Spt= 2.00> <nCl=1000> <DB=-208034015.7624> <Mlp=26314275.5779> <PB=1000000> 
<DWph=2> <it= 90> <et=20.29> <Mt= 0.34> <Spt= 2.65> <nCl=984> <DB=  -19.4453> <Mlp=   67.6023> <PB=1000000> 
<DWph=2> <it=100> <et=22.42> <Mt= 0.43> <Spt= 1.71> <nCl=963> <DB=   59.6671> <Mlp=   65.1613> <PB=1000000> 
<DWph=2> <it=110> <et=23.90> <Mt= 0.25> <Spt= 1.10> <nCl=909> <DB=   64.5568> <Mlp=   65.0168> <PB=1000000> 
<DWph=2> <it=120> <et=25.16> <Mt= 0.13> <Spt= 1.12> <nCl=217> <DB=   64.7858> <Mlp=   65.0078> <PB=1000000> 
<DWph=2> <it=130> <et=26.46> <Mt= 0.09> <Spt= 1.22> <nCl= 39> <DB=   65.0047> <Mlp=   65.0060> <PB=1000000> 
<DWph=2> <it=132> <et=26.80> <Mt= 0.01> <Spt= 0.32> <nCl=  1> <DB=   65.0060> <Mlp=   65.0060> <PB=1000000> 
<DWph=1> <it=137> <et=28.48> <Mt= 0.10> <Spt= 1.58> <nCl=320> <DB=   65.0008> <Mlp=   65.0008> <PB=1000000> 
<DWph=0> <it=140> <et=30.99> <Mt= 0.04> <Spt= 2.48> <nCl=215> <DB=   64.9291> <Mlp=   65.0001> <PB=1000000> 
<DWph=0> <it=143> <et=33.21> <Mt= 0.02> <Spt= 2.19> <nCl=101> <DB=   65.0000> <Mlp=   65.0000> <PB=1000000> 
Reduced cost fixing for graph G_1... took 13.86 sec., 226919 buck. arcs remain (100% from prev., 34.1% from max.)
Run enumeration... took 0.76 sec. and not succeeded.
ColGenEvalAlg final dual bound: 65 (rounded: 65)
----------- Diving heuristic started -----------
<DWph=2> <it=  1> <et=47.89> <Mt= 0.00> <Spt= 0.00> <nCl=  0> <DB=   65.0000> <Mlp=   65.0000> <PB=1000000> 
<DWph=1> <it=  2> <et=47.90> <Mt= 0.00> <Spt= 0.00> <nCl=  0> <DB=   65.0000> <Mlp=   65.0000> <PB=1000000> 
---- Diving heuristic node with dive number = 0, fix depth = 0 and tabu list size = 0
Fixed projected solution = [x_1_0_1_OspV=1, x_1_32_1_OspV=1, x_1_92_1_OspV=1, x_1_181_1_OspV=1]
<DWph=2> <it=  1> <et=47.98> <Mt= 0.01> <Spt= 0.00> <nCl=  0> <DB=   65.0000> <Mlp=   65.0000> <PB=1000000> 
<DWph=1> <it=  2> <et=47.98> <Mt= 0.00> <Spt= 0.00> <nCl=  0> <DB=   65.0000> <Mlp=   65.0000> <PB=1000000> 
---- Diving heuristic node with dive number = 0, fix depth = 0 and tabu list size = 0
Fixed projected solution = [x_1_0_1_OspV=1, x_1_35_1_OspV=1, x_1_99_1_OspV=1, x_1_176_1_OspV=1]
<DWph=2> <it=  1> <et=48.05> <Mt= 0.00> <Spt= 0.00> <nCl=  0> <DB=   65.0000> <Mlp=   65.0000> <PB=1000000> 
<DWph=1> <it=  2> <et=48.05> <Mt= 0.00> <Spt= 0.00> <nCl=  0> <DB=   65.0000> <Mlp=   65.0000> <PB=1000000> 
---- Diving heuristic node with dive number = 0, fix depth = 0 and tabu list size = 0
Fixed projected solution = [x_1_0_1_OspV=1, x_1_44_1_OspV=1, x_1_105_1_OspV=1, x_1_171_1_OspV=1]
<DWph=2> <it=  1> <et=48.12> <Mt= 0.01> <Spt= 0.00> <nCl=  0> <DB=   65.0000> <Mlp=   65.0000> <PB=1000000> 
<DWph=1> <it=  2> <et=48.13> <Mt= 0.00> <Spt= 0.00> <nCl=  0> <DB=   65.0000> <Mlp=   65.0000> <PB=1000000> 
---- Diving heuristic node with dive number = 0, fix depth = 0 and tabu list size = 0
Fixed projected solution = [x_1_0_1_OspV=1, x_1_68_1_OspV=1, x_1_137_1_OspV=1, x_1_139_1_OspV=1]
<DWph=2> <it=  1> <et=48.19> <Mt= 0.00> <Spt= 0.00> <nCl=  0> <DB=   65.0000> <Mlp=   65.0000> <PB=1000000> 
<DWph=1> <it=  2> <et=48.20> <Mt= 0.01> <Spt= 0.00> <nCl=  0> <DB=   65.0000> <Mlp=   65.0000> <PB=1000000> 
---- Diving heuristic node with dive number = 0, fix depth = 0 and tabu list size = 0
Fixed projected solution = [x_1_0_1_OspV=1, x_1_25_1_OspV=1, x_1_100_1_OspV=1, x_1_175_1_OspV=1]
<DWph=2> <it=  1> <et=48.26> <Mt= 0.00> <Spt= 0.00> <nCl=  0> <DB=   65.0000> <Mlp=   65.0000> <PB=1000000> 
<DWph=1> <it=  2> <et=48.27> <Mt= 0.00> <Spt= 0.00> <nCl=  0> <DB=   65.0000> <Mlp=   65.0000> <PB=1000000> 
---- Diving heuristic node with dive number = 0, fix depth = 0 and tabu list size = 0
Fixed projected solution = [x_1_0_1_OspV=1, x_1_67_1_OspV=1, x_1_135_1_OspV=1, x_1_141_1_OspV=1]
<DWph=2> <it=  1> <et=48.33> <Mt= 0.01> <Spt= 0.00> <nCl=  0> <DB=   65.0000> <Mlp=   65.0000> <PB=1000000> 
<DWph=1> <it=  2> <et=48.34> <Mt= 0.00> <Spt= 0.00> <nCl=  0> <DB=   65.0000> <Mlp=   65.0000> <PB=1000000> 
---- Diving heuristic node with dive number = 0, fix depth = 0 and tabu list size = 0
Fixed projected solution = [x_1_0_1_OspV=1, x_1_58_1_OspV=1, x_1_121_1_OspV=1, x_1_154_1_OspV=1]
<DWph=2> <it=  1> <et=48.40> <Mt= 0.00> <Spt= 0.00> <nCl=  0> <DB=   65.0000> <Mlp=   65.0000> <PB=1000000> 
<DWph=1> <it=  2> <et=48.41> <Mt= 0.00> <Spt= 0.00> <nCl=  0> <DB=   65.0000> <Mlp=   65.0000> <PB=1000000> 
---- Diving heuristic node with dive number = 0, fix depth = 1 and tabu list size = 0
Fixed projected solution = [x_1_0_1_OspV=1, x_1_69_1_OspV=1, x_1_136_1_OspV=1, x_1_140_1_OspV=1]
<DWph=2> <it=  1> <et=48.46> <Mt= 0.01> <Spt= 0.00> <nCl=  0> <DB=   65.0000> <Mlp=   65.0000> <PB=1000000> 
<DWph=1> <it=  2> <et=48.46> <Mt= 0.00> <Spt= 0.00> <nCl=  0> <DB=   65.0000> <Mlp=   65.0000> <PB=1000000> 
---- Diving heuristic node with dive number = 0, fix depth = 2 and tabu list size = 0
Fixed projected solution = [x_1_0_1_OspV=1, x_1_53_1_OspV=1, x_1_116_1_OspV=1, x_1_160_1_OspV=1]
<DWph=2> <it=  1> <et=48.54> <Mt= 0.02> <Spt= 0.00> <nCl=  0> <DB=   65.0000> <Mlp=   65.0000> <PB=1000000> 
<DWph=1> <it=  2> <et=48.54> <Mt= 0.00> <Spt= 0.00> <nCl=  0> <DB=   65.0000> <Mlp=   65.0000> <PB=1000000> 
---- Diving heuristic node with dive number = 0, fix depth = 3 and tabu list size = 0
Fixed projected solution = [x_1_0_1_OspV=1, x_1_23_1_OspV=1, x_1_83_1_OspV=1, x_1_191_1_OspV=1]
<DWph=2> <it=  1> <et=48.57> <Mt= 0.01> <Spt= 0.00> <nCl=  0> <DB=   65.0000> <Mlp=   65.0000> <PB=1000000> 
<DWph=1> <it=  2> <et=48.58> <Mt= 0.00> <Spt= 0.00> <nCl=  0> <DB=   65.0000> <Mlp=   65.0000> <PB=1000000> 
---- Diving heuristic node with dive number = 0, fix depth = 4 and tabu list size = 0
Fixed projected solution = [x_1_0_1_OspV=1, x_1_40_1_OspV=1, x_1_106_1_OspV=1, x_1_170_1_OspV=1]
<DWph=2> <it=  1> <et=48.61> <Mt= 0.02> <Spt= 0.00> <nCl=  0> <DB=   65.0000> <Mlp=   65.0000> <PB=1000000> 
<DWph=1> <it=  2> <et=48.61> <Mt= 0.00> <Spt= 0.00> <nCl=  0> <DB=   65.0000> <Mlp=   65.0000> <PB=1000000> 
---- Diving heuristic node with dive number = 0, fix depth = 4 and tabu list size = 0
Fixed projected solution = [x_1_0_1_OspV=1, x_1_42_1_OspV=1, x_1_104_1_OspV=1, x_1_172_1_OspV=1]
<DWph=2> <it=  1> <et=48.63> <Mt= 0.01> <Spt= 0.00> <nCl=  0> <DB=   65.0000> <Mlp=   65.0000> <PB=1000000> 
<DWph=1> <it=  2> <et=48.63> <Mt= 0.00> <Spt= 0.00> <nCl=  0> <DB=   65.0000> <Mlp=   65.0000> <PB=1000000> 
---- Diving heuristic node with dive number = 0, fix depth = 5 and tabu list size = 0
Fixed projected solution = [x_1_0_1_OspV=1, x_1_5_1_OspV=1, x_1_73_1_OspV=1, x_1_200_1_OspV=1]
<DWph=2> <it=  1> <et=48.66> <Mt= 0.02> <Spt= 0.00> <nCl=  0> <DB=   65.0000> <Mlp=   65.0000> <PB=1000000> 
<DWph=1> <it=  2> <et=48.66> <Mt= 0.00> <Spt= 0.00> <nCl=  0> <DB=   65.0000> <Mlp=   65.0000> <PB=1000000> 
---- Diving heuristic node with dive number = 0, fix depth = 6 and tabu list size = 0
Fixed projected solution = [x_1_0_1_OspV=1, x_1_41_1_OspV=1, x_1_103_1_OspV=1, x_1_173_1_OspV=1]
<DWph=2> <it=  1> <et=48.70> <Mt= 0.02> <Spt= 0.00> <nCl=  0> <DB=   65.0000> <Mlp=   65.0000> <PB=1000000> 
<DWph=1> <it=  2> <et=48.70> <Mt= 0.00> <Spt= 0.00> <nCl=  0> <DB=   65.0000> <Mlp=   65.0000> <PB=1000000> 
---- Diving heuristic node with dive number = 0, fix depth = 7 and tabu list size = 0
Fixed projected solution = [x_1_0_1_OspV=1, x_1_33_1_OspV=1, x_1_96_1_OspV=1, x_1_178_1_OspV=1]
<DWph=2> <it=  1> <et=48.73> <Mt= 0.01> <Spt= 0.00> <nCl=  0> <DB=   65.0000> <Mlp=   65.0000> <PB=1000000> 
<DWph=1> <it=  2> <et=48.73> <Mt= 0.01> <Spt= 0.00> <nCl=  0> <DB=   65.0000> <Mlp=   65.0000> <PB=1000000> 
---- Diving heuristic node with dive number = 0, fix depth = 8 and tabu list size = 0
Fixed projected solution = [x_1_0_1_OspV=1, x_1_62_1_OspV=1, x_1_128_1_OspV=1, x_1_147_1_OspV=1]
<DWph=2> <it=  1> <et=48.76> <Mt= 0.01> <Spt= 0.00> <nCl=  0> <DB=   65.0000> <Mlp=   65.0000> <PB=1000000> 
<DWph=1> <it=  2> <et=48.76> <Mt= 0.00> <Spt= 0.00> <nCl=  0> <DB=   65.0000> <Mlp=   65.0000> <PB=1000000> 
---- Diving heuristic node with dive number = 0, fix depth = 9 and tabu list size = 0
Fixed projected solution = [x_1_0_1_OspV=1, x_1_61_1_OspV=1, x_1_127_1_OspV=1, x_1_148_1_OspV=1]
<DWph=2> <it=  1> <et=48.78> <Mt= 0.02> <Spt= 0.00> <nCl=  0> <DB=   65.0000> <Mlp=   65.0000> <PB=1000000> 
<DWph=1> <it=  2> <et=48.79> <Mt= 0.00> <Spt= 0.00> <nCl=  0> <DB=   65.0000> <Mlp=   65.0000> <PB=1000000> 
---- Diving heuristic node with dive number = 0, fix depth = 10 and tabu list size = 0
Fixed projected solution = [x_1_0_1_OspV=1, x_1_63_1_OspV=1, x_1_129_1_OspV=1, x_1_146_1_OspV=1]
<DWph=2> <it=  1> <et=48.82> <Mt= 0.02> <Spt= 0.00> <nCl=  0> <DB=   65.0000> <Mlp=   65.0000> <PB=1000000> 
<DWph=1> <it=  2> <et=48.82> <Mt= 0.00> <Spt= 0.00> <nCl=  0> <DB=   65.0000> <Mlp=   65.0000> <PB=1000000> 
---- Diving heuristic node with dive number = 0, fix depth = 11 and tabu list size = 0
Fixed projected solution = [x_1_0_1_OspV=1, x_1_31_1_OspV=1, x_1_94_1_OspV=1, x_1_180_1_OspV=1]
<DWph=2> <it=  1> <et=48.87> <Mt= 0.03> <Spt= 0.00> <nCl=  0> <DB=   65.0000> <Mlp=   65.0000> <PB=1000000> 
<DWph=1> <it=  2> <et=48.87> <Mt= 0.00> <Spt= 0.00> <nCl=  0> <DB=   65.0000> <Mlp=   65.0000> <PB=1000000> 
---- Diving heuristic node with dive number = 0, fix depth = 11 and tabu list size = 0
Fixed projected solution = [x_1_0_1_OspV=1, x_1_30_1_OspV=1, x_1_91_1_OspV=1, x_1_183_1_OspV=1]
<DWph=2> <it=  1> <et=48.88> <Mt= 0.00> <Spt= 0.00> <nCl=  0> <DB=   65.0000> <Mlp=   65.0000> <PB=1000000> 
<DWph=1> <it=  2> <et=48.88> <Mt= 0.00> <Spt= 0.00> <nCl=  0> <DB=   65.0000> <Mlp=   65.0000> <PB=1000000> 
---- Diving heuristic node with dive number = 0, fix depth = 11 and tabu list size = 0
Fixed projected solution = [x_1_0_1_OspV=1, x_1_26_1_OspV=1, x_1_88_1_OspV=1, x_1_186_1_OspV=1]
<DWph=2> <it=  1> <et=48.90> <Mt= 0.01> <Spt= 0.00> <nCl=  0> <DB=   65.0000> <Mlp=   65.0000> <PB=1000000> 
<DWph=1> <it=  2> <et=48.90> <Mt= 0.00> <Spt= 0.00> <nCl=  0> <DB=   65.0000> <Mlp=   65.0000> <PB=1000000> 
---- Diving heuristic node with dive number = 0, fix depth = 12 and tabu list size = 0
Fixed projected solution = [x_1_0_1_OspV=1, x_1_56_1_OspV=1, x_1_119_1_OspV=1, x_1_157_1_OspV=1]
<DWph=2> <it=  1> <et=48.95> <Mt= 0.03> <Spt= 0.00> <nCl=  0> <DB=   65.0000> <Mlp=   65.0000> <PB=1000000> 
<DWph=1> <it=  2> <et=48.95> <Mt= 0.00> <Spt= 0.00> <nCl=  0> <DB=   65.0000> <Mlp=   65.0000> <PB=1000000> 
---- Diving heuristic node with dive number = 0, fix depth = 13 and tabu list size = 0
Fixed projected solution = [x_1_0_1_OspV=1, x_1_19_1_OspV=1, x_1_82_1_OspV=1, x_1_192_1_OspV=1]
<DWph=2> <it=  1> <et=49.02> <Mt= 0.06> <Spt= 0.00> <nCl=  0> <DB=   65.0000> <Mlp=   65.0000> <PB=1000000> 
<DWph=1> <it=  2> <et=49.02> <Mt= 0.01> <Spt= 0.00> <nCl=  0> <DB=   65.0000> <Mlp=   65.0000> <PB=1000000> 
---- Diving heuristic node with dive number = 0, fix depth = 14 and tabu list size = 0
Fixed projected solution = [x_1_0_1_OspV=1, x_1_6_1_OspV=1, x_1_81_1_OspV=1, x_1_193_1_OspV=1]
<DWph=2> <it=  2> <et=49.26> <Mt= 0.06> <Spt= 0.16> <nCl=100> <DB=   64.9663> <Mlp=   65.0000> <PB=1000000> 
<DWph=1> <it=  3> <et=49.27> <Mt= 0.00> <Spt= 0.00> <nCl=  0> <DB=   65.0000> <Mlp=   65.0000> <PB=1000000> 
---- Diving heuristic node with dive number = 0, fix depth = 15 and tabu list size = 0
Fixed projected solution = [x_1_0_1_OspV=1, x_1_28_1_OspV=1, x_1_90_1_OspV=1, x_1_185_1_OspV=1]
<DWph=2> <it=  1> <et=49.32> <Mt= 0.04> <Spt= 0.00> <nCl=  0> <DB=   65.0000> <Mlp=   65.0000> <PB=1000000> 
<DWph=1> <it=  2> <et=49.32> <Mt= 0.00> <Spt= 0.00> <nCl=  0> <DB=   65.0000> <Mlp=   65.0000> <PB=1000000> 
---- Diving heuristic node with dive number = 0, fix depth = 16 and tabu list size = 0
Fixed projected solution = [x_1_0_1_OspV=1, x_1_14_1_OspV=1, x_1_76_1_OspV=1, x_1_196_1_OspV=1]
<DWph=2> <it=  1> <et=49.36> <Mt= 0.02> <Spt= 0.00> <nCl=  0> <DB=   65.0000> <Mlp=   65.0000> <PB=1000000> 
<DWph=1> <it=  2> <et=49.36> <Mt= 0.00> <Spt= 0.00> <nCl=  0> <DB=   65.0000> <Mlp=   65.0000> <PB=1000000> 
---- Diving heuristic node with dive number = 0, fix depth = 17 and tabu list size = 0
Fixed projected solution = [x_1_0_1_OspV=1, x_1_43_1_OspV=1, x_1_130_1_OspV=1, x_1_150_1_OspV=1]
<DWph=2> <it=  1> <et=49.42> <Mt= 0.05> <Spt= 0.00> <nCl=  0> <DB=   65.0000> <Mlp=   65.0000> <PB=1000000> 
<DWph=1> <it=  2> <et=49.42> <Mt= 0.00> <Spt= 0.00> <nCl=  0> <DB=   65.0000> <Mlp=   65.0000> <PB=1000000> 
---- Diving heuristic node with dive number = 0, fix depth = 18 and tabu list size = 0
Fixed projected solution = [x_1_0_1_OspV=1, x_1_34_1_OspV=1, x_1_95_1_OspV=1, x_1_179_1_OspV=1]
<DWph=2> <it=  1> <et=49.48> <Mt= 0.05> <Spt= 0.00> <nCl=  0> <DB=   65.0000> <Mlp=   65.0000> <PB=1000000> 
<DWph=1> <it=  2> <et=49.48> <Mt= 0.00> <Spt= 0.00> <nCl=  0> <DB=   65.0000> <Mlp=   65.0000> <PB=1000000> 
---- Diving heuristic node with dive number = 0, fix depth = 19 and tabu list size = 0
Fixed projected solution = [x_1_0_1_OspV=1, x_1_46_1_OspV=1, x_1_108_1_OspV=1, x_1_169_1_OspV=1]
<DWph=2> <it=  1> <et=49.55> <Mt= 0.05> <Spt= 0.00> <nCl=  0> <DB=   65.0000> <Mlp=   65.0000> <PB=1000000> 
<DWph=1> <it=  2> <et=49.55> <Mt= 0.00> <Spt= 0.00> <nCl=  0> <DB=   65.0000> <Mlp=   65.0000> <PB=1000000> 
---- Diving heuristic node with dive number = 0, fix depth = 20 and tabu list size = 0
Fixed projected solution = [x_1_0_1_OspV=1, x_1_37_1_OspV=1, x_1_97_1_OspV=1, x_1_177_1_OspV=1]
<DWph=2> <it=  1> <et=49.59> <Mt= 0.03> <Spt= 0.00> <nCl=  0> <DB=   65.0000> <Mlp=   65.0000> <PB=1000000> 
<DWph=1> <it=  2> <et=49.59> <Mt= 0.00> <Spt= 0.00> <nCl=  0> <DB=   65.0000> <Mlp=   65.0000> <PB=1000000> 
---- Diving heuristic node with dive number = 0, fix depth = 21 and tabu list size = 0
Fixed projected solution = [x_1_0_1_OspV=1, x_1_38_1_OspV=1, x_1_114_1_OspV=1, x_1_164_1_OspV=1]
<DWph=2> <it=  1> <et=49.63> <Mt= 0.02> <Spt= 0.00> <nCl=  0> <DB=   65.0000> <Mlp=   65.0000> <PB=1000000> 
<DWph=1> <it=  2> <et=49.63> <Mt= 0.00> <Spt= 0.00> <nCl=  0> <DB=   65.0000> <Mlp=   65.0000> <PB=1000000> 
---- Diving heuristic node with dive number = 0, fix depth = 22 and tabu list size = 0
Fixed projected solution = [x_1_0_1_OspV=1, x_1_47_1_OspV=1, x_1_109_1_OspV=1, x_1_167_1_OspV=1]
<DWph=2> <it=  1> <et=49.70> <Mt= 0.06> <Spt= 0.00> <nCl=  0> <DB=   65.0000> <Mlp=   65.0000> <PB=1000000> 
<DWph=1> <it=  2> <et=49.70> <Mt= 0.00> <Spt= 0.00> <nCl=  0> <DB=   65.0000> <Mlp=   65.0000> <PB=1000000> 
---- Diving heuristic node with dive number = 0, fix depth = 23 and tabu list size = 0
Fixed projected solution = [x_1_0_1_OspV=1, x_1_21_1_OspV=1, x_1_89_1_OspV=1, x_1_187_1_OspV=1]
<DWph=2> <it=  1> <et=49.77> <Mt= 0.06> <Spt= 0.00> <nCl=  0> <DB=   65.0000> <Mlp=   65.0000> <PB=1000000> 
<DWph=1> <it=  2> <et=49.77> <Mt= 0.00> <Spt= 0.00> <nCl=  0> <DB=   65.0000> <Mlp=   65.0000> <PB=1000000> 
---- Diving heuristic node with dive number = 0, fix depth = 24 and tabu list size = 0
Fixed projected solution = [x_1_0_1_OspV=1, x_1_52_1_OspV=1, x_1_115_1_OspV=1, x_1_161_1_OspV=1]
<DWph=2> <it=  2> <et=50.00> <Mt= 0.09> <Spt= 0.13> <nCl=100> <DB=   64.9321> <Mlp=   65.0000> <PB=1000000> 
<DWph=1> <it=  3> <et=50.01> <Mt= 0.00> <Spt= 0.00> <nCl=  0> <DB=   65.0000> <Mlp=   65.0000> <PB=1000000> 
---- Diving heuristic node with dive number = 0, fix depth = 25 and tabu list size = 0
Fixed projected solution = [x_1_0_1_OspV=1, x_1_13_1_OspV=1, x_1_75_1_OspV=1, x_1_197_1_OspV=1]
<DWph=2> <it=  1> <et=50.05> <Mt= 0.03> <Spt= 0.00> <nCl=  0> <DB=   65.0000> <Mlp=   65.0000> <PB=1000000> 
<DWph=1> <it=  2> <et=50.05> <Mt= 0.00> <Spt= 0.00> <nCl=  0> <DB=   65.0000> <Mlp=   65.0000> <PB=1000000> 
---- Diving heuristic node with dive number = 0, fix depth = 26 and tabu list size = 0
Fixed projected solution = [x_1_0_1_OspV=1, x_1_29_1_OspV=1, x_1_124_1_OspV=1, x_1_153_1_OspV=1]
<DWph=2> <it=  5> <et=50.71> <Mt= 0.13> <Spt= 0.51> <nCl=185> <DB=   64.9974> <Mlp=   65.0000> <PB=1000000> 
<DWph=1> <it=  6> <et=50.71> <Mt= 0.01> <Spt= 0.00> <nCl=  0> <DB=   65.0000> <Mlp=   65.0000> <PB=1000000> 
---- Diving heuristic node with dive number = 0, fix depth = 27 and tabu list size = 0
Fixed projected solution = [x_1_0_1_OspV=1, x_1_8_1_OspV=1, x_1_70_1_OspV=1, x_1_202_1_OspV=1]
<DWph=2> <it=  1> <et=50.78> <Mt= 0.05> <Spt= 0.00> <nCl=  0> <DB=   65.0000> <Mlp=   65.0000> <PB=1000000> 
<DWph=1> <it=  2> <et=50.78> <Mt= 0.00> <Spt= 0.00> <nCl=  0> <DB=   65.0000> <Mlp=   65.0000> <PB=1000000> 
---- Diving heuristic node with dive number = 0, fix depth = 28 and tabu list size = 0
Fixed projected solution = [x_1_0_1_OspV=1, x_1_45_1_OspV=1, x_1_126_1_OspV=1, x_1_151_1_OspV=1]
<DWph=2> <it=  8> <et=52.05> <Mt= 0.12> <Spt= 1.13> <nCl= 71> <DB=   64.9353> <Mlp=   65.0000> <PB=1000000> 
<DWph=1> <it=  9> <et=52.05> <Mt= 0.00> <Spt= 0.00> <nCl=  0> <DB=   65.0000> <Mlp=   65.0000> <PB=1000000> 
---- Diving heuristic node with dive number = 0, fix depth = 29 and tabu list size = 0
Fixed projected solution = [x_1_0_1_OspV=1, x_1_27_1_OspV=1, x_1_138_1_OspV=1, x_1_143_1_OspV=1]
<DWph=2> <it=  1> <et=52.15> <Mt= 0.07> <Spt= 0.00> <nCl=  0> <DB=   65.0000> <Mlp=   65.0000> <PB=1000000> 
<DWph=1> <it=  2> <et=52.15> <Mt= 0.00> <Spt= 0.00> <nCl=  0> <DB=   65.0000> <Mlp=   65.0000> <PB=1000000> 
---- Diving heuristic node with dive number = 0, fix depth = 30 and tabu list size = 0
Fixed projected solution = [x_1_0_1_OspV=1, x_1_3_1_OspV=1, x_1_118_1_OspV=1, x_1_166_1_OspV=1]
<DWph=2> <it= 10> <et=54.14> <Mt= 0.16> <Spt= 1.77> <nCl= 69> <DB=   64.9592> <Mlp=   65.0001> <PB=1000000> 
<DWph=2> <it= 12> <et=54.28> <Mt= 0.02> <Spt= 0.13> <nCl= 13> <DB=   64.9506> <Mlp=   65.0000> <PB=1000000> 
<DWph=1> <it= 13> <et=54.28> <Mt= 0.00> <Spt= 0.00> <nCl=  0> <DB=   65.0000> <Mlp=   65.0000> <PB=1000000> 
---- Diving heuristic node with dive number = 0, fix depth = 31 and tabu list size = 0
Fixed projected solution = [x_1_0_1_OspV=1, x_1_2_1_OspV=1, x_1_98_1_OspV=1, x_1_184_1_OspV=1]
<DWph=2> <it=  1> <et=54.35> <Mt= 0.05> <Spt= 0.00> <nCl=  0> <DB=   65.0000> <Mlp=   65.0000> <PB=1000000> 
<DWph=1> <it=  2> <et=54.35> <Mt= 0.00> <Spt= 0.00> <nCl=  0> <DB=   65.0000> <Mlp=   65.0000> <PB=1000000> 
---- Diving heuristic node with dive number = 0, fix depth = 31 and tabu list size = 0
Fixed projected solution = [x_1_0_1_OspV=1, x_1_54_1_OspV=1, x_1_117_1_OspV=1, x_1_159_1_OspV=1]
<DWph=2> <it=  1> <et=54.37> <Mt= 0.00> <Spt= 0.00> <nCl=  0> <DB=   65.0000> <Mlp=   65.0000> <PB=1000000> 
<DWph=1> <it=  2> <et=54.37> <Mt= 0.00> <Spt= 0.00> <nCl=  0> <DB=   65.0000> <Mlp=   65.0000> <PB=1000000> 
---- Diving heuristic node with dive number = 0, fix depth = 31 and tabu list size = 0
Fixed projected solution = [x_1_0_1_OspV=1, x_1_50_1_OspV=1, x_1_112_1_OspV=1, x_1_163_1_OspV=1]
<DWph=2> <it=  1> <et=54.38> <Mt= 0.00> <Spt= 0.00> <nCl=  0> <DB=   65.0000> <Mlp=   65.0000> <PB=1000000> 
<DWph=1> <it=  2> <et=54.38> <Mt= 0.00> <Spt= 0.00> <nCl=  0> <DB=   65.0000> <Mlp=   65.0000> <PB=1000000> 
---- Diving heuristic node with dive number = 0, fix depth = 32 and tabu list size = 0
Fixed projected solution = [x_1_0_1_OspV=1, x_1_24_1_OspV=1, x_1_84_1_OspV=1, x_1_189_1_OspV=1]
<DWph=2> <it=  1> <et=54.45> <Mt= 0.06> <Spt= 0.00> <nCl=  0> <DB=   65.0000> <Mlp=   65.0000> <PB=1000000> 
<DWph=1> <it=  2> <et=54.45> <Mt= 0.00> <Spt= 0.00> <nCl=  0> <DB=   65.0000> <Mlp=   65.0000> <PB=1000000> 
---- Diving heuristic node with dive number = 0, fix depth = 32 and tabu list size = 0
Fixed projected solution = [x_1_0_1_OspV=1, x_1_51_1_OspV=1, x_1_55_1_OspV=1, x_1_199_1_OspV=1]
<DWph=2> <it=  1> <et=54.47> <Mt= 0.00> <Spt= 0.00> <nCl=  0> <DB=   65.0000> <Mlp=   65.0000> <PB=1000000> 
<DWph=1> <it=  2> <et=54.47> <Mt= 0.00> <Spt= 0.00> <nCl=  0> <DB=   65.0000> <Mlp=   65.0000> <PB=1000000> 
---- Diving heuristic node with dive number = 0, fix depth = 32 and tabu list size = 0
Fixed projected solution = [x_1_0_1_OspV=1, x_1_49_1_OspV=1, x_1_72_1_OspV=1, x_1_194_1_OspV=1]
<DWph=2> <it=  1> <et=54.48> <Mt= 0.01> <Spt= 0.00> <nCl=  0> <DB=   65.0000> <Mlp=   65.0000> <PB=1000000> 
<DWph=1> <it=  2> <et=54.48> <Mt= 0.00> <Spt= 0.00> <nCl=  0> <DB=   65.0000> <Mlp=   65.0000> <PB=1000000> 
---- Diving heuristic node with dive number = 0, fix depth = 33 and tabu list size = 0
Fixed projected solution = [x_1_0_1_OspV=1, x_1_71_1_OspV=1, x_1_122_1_OspV=1, x_1_149_1_OspV=1]
<DWph=2> <it=  3> <et=54.87> <Mt= 0.12> <Spt= 0.25> <nCl=178> <DB=   64.7954> <Mlp=   65.0000> <PB=1000000> 
<DWph=1> <it=  4> <et=54.87> <Mt= 0.00> <Spt= 0.00> <nCl=  0> <DB=   65.0000> <Mlp=   65.0000> <PB=1000000> 
---- Diving heuristic node with dive number = 0, fix depth = 34 and tabu list size = 0
Fixed projected solution = [x_1_0_1_OspV=1, x_1_9_1_OspV=1, x_1_80_1_OspV=1, x_1_195_1_OspV=1]
<DWph=2> <it=  1> <et=54.90> <Mt= 0.01> <Spt= 0.00> <nCl=  0> <DB=   65.0000> <Mlp=   65.0000> <PB=1000000> 
<DWph=1> <it=  2> <et=54.90> <Mt= 0.00> <Spt= 0.00> <nCl=  0> <DB=   65.0000> <Mlp=   65.0000> <PB=1000000> 
---- Diving heuristic node with dive number = 0, fix depth = 35 and tabu list size = 0
Fixed projected solution = [x_1_0_1_OspV=1, x_1_17_1_OspV=1, x_1_113_1_OspV=1, x_1_168_1_OspV=1]
<DWph=2> <it= 10> <et=56.44> <Mt= 0.25> <Spt= 1.28> <nCl=419> <DB=   64.9893> <Mlp=   65.0002> <PB=1000000> 
<DWph=2> <it= 20> <et=57.93> <Mt= 0.06> <Spt= 1.43> <nCl=114> <DB=   64.9350> <Mlp=   65.0001> <PB=1000000> 
<DWph=2> <it= 27> <et=58.75> <Mt= 0.05> <Spt= 0.76> <nCl= 40> <DB=   64.8959> <Mlp=   65.0000> <PB=1000000> 
<DWph=1> <it= 28> <et=58.75> <Mt= 0.00> <Spt= 0.00> <nCl=  0> <DB=   65.0000> <Mlp=   65.0000> <PB=1000000> 
---- Diving heuristic node with dive number = 0, fix depth = 35 and tabu list size = 0
Fixed projected solution = [x_1_0_1_OspV=1, x_1_16_1_OspV=1, x_1_123_1_OspV=1, x_1_156_1_OspV=1]
<DWph=2> <it=  1> <et=58.77> <Mt= 0.00> <Spt= 0.00> <nCl=  0> <DB=   65.0000> <Mlp=   65.0000> <PB=1000000> 
<DWph=1> <it=  2> <et=58.77> <Mt= 0.01> <Spt= 0.00> <nCl=  0> <DB=   65.0000> <Mlp=   65.0000> <PB=1000000> 
---- Diving heuristic node with dive number = 0, fix depth = 36 and tabu list size = 0
Fixed projected solution = [x_1_0_1_OspV=1, x_1_20_1_OspV=1, x_1_85_1_OspV=1, x_1_190_1_OspV=1]
<DWph=2> <it=  4> <et=59.33> <Mt= 0.15> <Spt= 0.38> <nCl= 95> <DB=   64.9257> <Mlp=   65.0000> <PB=1000000> 
<DWph=1> <it=  5> <et=59.33> <Mt= 0.01> <Spt= 0.00> <nCl=  0> <DB=   65.0000> <Mlp=   65.0000> <PB=1000000> 
---- Diving heuristic node with dive number = 0, fix depth = 37 and tabu list size = 0
Fixed projected solution = [x_1_0_1_OspV=1, x_1_39_1_OspV=1, x_1_60_1_OspV=1, x_1_201_1_OspV=1]
<DWph=2> <it= 10> <et=61.09> <Mt= 0.36> <Spt= 1.38> <nCl=504> <DB=   64.9993> <Mlp=   65.0007> <PB=1000000> 
Global time limit is reached during column generation
SEARCH IS INTERRUPTED as the time limit is reached. 
---- Diving heuristic node with dive number = 1, fix depth = 2 and tabu list size = 1
Fixed projected solution = [x_1_0_1_OspV=1, x_1_23_1_OspV=1, x_1_83_1_OspV=1, x_1_191_1_OspV=1]
---- Diving heuristic node with dive number = 2, fix depth = 2 and tabu list size = 2
Fixed projected solution = [x_1_0_1_OspV=1, x_1_40_1_OspV=1, x_1_106_1_OspV=1, x_1_170_1_OspV=1]
---- Diving heuristic node with dive number = 3, fix depth = 2 and tabu list size = 3
Fixed projected solution = [x_1_0_1_OspV=1, x_1_42_1_OspV=1, x_1_104_1_OspV=1, x_1_172_1_OspV=1]
---- Diving heuristic node with dive number = 4, fix depth = 1 and tabu list size = 1
Fixed projected solution = [x_1_0_1_OspV=1, x_1_53_1_OspV=1, x_1_116_1_OspV=1, x_1_160_1_OspV=1]
---- Diving heuristic node with dive number = 5, fix depth = 1 and tabu list size = 2
Fixed projected solution = [x_1_0_1_OspV=1, x_1_23_1_OspV=1, x_1_83_1_OspV=1, x_1_191_1_OspV=1]
---- Diving heuristic node with dive number = 6, fix depth = 1 and tabu list size = 3
Fixed projected solution = [x_1_0_1_OspV=1, x_1_40_1_OspV=1, x_1_106_1_OspV=1, x_1_170_1_OspV=1]
**** Strong branching phase 1 is started *****
**** Strong branching phase 3 is started *****
************************************************************************************************
Search is finished, global bounds : [ 65 , 1e+06 ], TIME = 0h1m2s64t = 6264
************************************************************************************************
statistics_cols: instance & :Optimal & cutoff & :bcRecRootDb & :bcTimeRootEval & :bcCountNodeProc & :bcRecBestDb & :bcRecBestInc & :bcTimeMain \\
statistics: 201_2500_DI_3 & 0 & 1.0e6 & 65.00 & 47.89 & 1 & 65.00 & -- & 62.64 \\
########################################################
Solution not found
########################################################
