Application parameters:
  batch  =>  nothing
  instance  =>  "/IN/201_2500_DI_7.txt-Q2Half"
  ub  =>  1.0e6
  cfg  =>  "/CFG/BPP.cfg"
data = Colored Bin Packing dataset.
number of items = 202
number of colors = 2
capacity = 2472
Items : 
	 item 1, weight= 8, color= 0
	 item 2, weight= 8, color= 0
	 item 3, weight= 8, color= 0
	 item 4, weight= 16, color= 0
	 item 5, weight= 18, color= 0
	 item 6, weight= 20, color= 0
	 item 7, weight= 20, color= 0
	 item 8, weight= 32, color= 0
	 item 9, weight= 34, color= 0
	 item 10, weight= 40, color= 0
	 item 11, weight= 44, color= 0
	 item 12, weight= 48, color= 0
	 item 13, weight= 48, color= 0
	 item 14, weight= 48, color= 0
	 item 15, weight= 52, color= 0
	 item 16, weight= 52, color= 0
	 item 17, weight= 52, color= 0
	 item 18, weight= 52, color= 0
	 item 19, weight= 56, color= 0
	 item 20, weight= 56, color= 0
	 item 21, weight= 56, color= 0
	 item 22, weight= 62, color= 0
	 item 23, weight= 64, color= 0
	 item 24, weight= 64, color= 0
	 item 25, weight= 64, color= 0
	 item 26, weight= 68, color= 0
	 item 27, weight= 72, color= 0
	 item 28, weight= 72, color= 0
	 item 29, weight= 76, color= 0
	 item 30, weight= 76, color= 0
	 item 31, weight= 80, color= 0
	 item 32, weight= 82, color= 0
	 item 33, weight= 84, color= 0
	 item 34, weight= 86, color= 0
	 item 35, weight= 88, color= 0
	 item 36, weight= 92, color= 0
	 item 37, weight= 92, color= 0
	 item 38, weight= 96, color= 0
	 item 39, weight= 96, color= 0
	 item 40, weight= 96, color= 0
	 item 41, weight= 98, color= 0
	 item 42, weight= 102, color= 0
	 item 43, weight= 104, color= 0
	 item 44, weight= 112, color= 0
	 item 45, weight= 112, color= 0
	 item 46, weight= 112, color= 0
	 item 47, weight= 116, color= 0
	 item 48, weight= 116, color= 0
	 item 49, weight= 124, color= 0
	 item 50, weight= 128, color= 0
	 item 51, weight= 132, color= 0
	 item 52, weight= 132, color= 0
	 item 53, weight= 132, color= 0
	 item 54, weight= 144, color= 0
	 item 55, weight= 144, color= 0
	 item 56, weight= 148, color= 0
	 item 57, weight= 152, color= 0
	 item 58, weight= 152, color= 0
	 item 59, weight= 160, color= 0
	 item 60, weight= 168, color= 0
	 item 61, weight= 172, color= 0
	 item 62, weight= 176, color= 0
	 item 63, weight= 176, color= 0
	 item 64, weight= 200, color= 0
	 item 65, weight= 200, color= 1
	 item 66, weight= 204, color= 0
	 item 67, weight= 204, color= 0
	 item 68, weight= 204, color= 0
	 item 69, weight= 204, color= 0
	 item 70, weight= 230, color= 1
	 item 71, weight= 244, color= 1
	 item 72, weight= 244, color= 1
	 item 73, weight= 252, color= 1
	 item 74, weight= 262, color= 1
	 item 75, weight= 267, color= 1
	 item 76, weight= 272, color= 0
	 item 77, weight= 272, color= 0
	 item 78, weight= 278, color= 1
	 item 79, weight= 289, color= 1
	 item 80, weight= 298, color= 1
	 item 81, weight= 308, color= 1
	 item 82, weight= 313, color= 1
	 item 83, weight= 324, color= 1
	 item 84, weight= 342, color= 1
	 item 85, weight= 343, color= 1
	 item 86, weight= 366, color= 1
	 item 87, weight= 374, color= 1
	 item 88, weight= 384, color= 0
	 item 89, weight= 389, color= 1
	 item 90, weight= 396, color= 1
	 item 91, weight= 397, color= 1
	 item 92, weight= 401, color= 1
	 item 93, weight= 402, color= 1
	 item 94, weight= 419, color= 1
	 item 95, weight= 428, color= 1
	 item 96, weight= 434, color= 1
	 item 97, weight= 435, color= 1
	 item 98, weight= 459, color= 1
	 item 99, weight= 474, color= 1
	 item 100, weight= 482, color= 1
	 item 101, weight= 489, color= 1
	 item 102, weight= 495, color= 1
	 item 103, weight= 504, color= 1
	 item 104, weight= 511, color= 1
	 item 105, weight= 516, color= 1
	 item 106, weight= 530, color= 1
	 item 107, weight= 548, color= 1
	 item 108, weight= 567, color= 1
	 item 109, weight= 572, color= 1
	 item 110, weight= 576, color= 0
	 item 111, weight= 581, color= 1
	 item 112, weight= 590, color= 1
	 item 113, weight= 622, color= 1
	 item 114, weight= 644, color= 1
	 item 115, weight= 647, color= 1
	 item 116, weight= 662, color= 1
	 item 117, weight= 665, color= 1
	 item 118, weight= 667, color= 1
	 item 119, weight= 702, color= 1
	 item 120, weight= 726, color= 1
	 item 121, weight= 732, color= 1
	 item 122, weight= 762, color= 1
	 item 123, weight= 765, color= 1
	 item 124, weight= 767, color= 1
	 item 125, weight= 836, color= 1
	 item 126, weight= 840, color= 1
	 item 127, weight= 842, color= 1
	 item 128, weight= 878, color= 1
	 item 129, weight= 885, color= 1
	 item 130, weight= 887, color= 1
	 item 131, weight= 956, color= 1
	 item 132, weight= 1000, color= 1
	 item 133, weight= 1018, color= 1
	 item 134, weight= 1022, color= 1
	 item 135, weight= 1028, color= 1
	 item 136, weight= 1029, color= 1
	 item 137, weight= 1030, color= 1
	 item 138, weight= 1031, color= 1
	 item 139, weight= 1237, color= 1
	 item 140, weight= 1238, color= 1
	 item 141, weight= 1239, color= 1
	 item 142, weight= 1244, color= 1
	 item 143, weight= 1246, color= 1
	 item 144, weight= 1254, color= 1
	 item 145, weight= 1404, color= 1
	 item 146, weight= 1409, color= 1
	 item 147, weight= 1411, color= 1
	 item 148, weight= 1422, color= 1
	 item 149, weight= 1462, color= 1
	 item 150, weight= 1476, color= 1
	 item 151, weight= 1552, color= 1
	 item 152, weight= 1553, color= 1
	 item 153, weight= 1555, color= 1
	 item 154, weight= 1562, color= 1
	 item 155, weight= 1596, color= 1
	 item 156, weight= 1602, color= 1
	 item 157, weight= 1673, color= 1
	 item 158, weight= 1675, color= 1
	 item 159, weight= 1678, color= 1
	 item 160, weight= 1700, color= 1
	 item 161, weight= 1704, color= 1
	 item 162, weight= 1718, color= 1
	 item 163, weight= 1726, color= 1
	 item 164, weight= 1766, color= 1
	 item 165, weight= 1773, color= 1
	 item 166, weight= 1775, color= 1
	 item 167, weight= 1788, color= 1
	 item 168, weight= 1793, color= 1
	 item 169, weight= 1838, color= 1
	 item 170, weight= 1859, color= 1
	 item 171, weight= 1860, color= 1
	 item 172, weight= 1879, color= 1
	 item 173, weight= 1887, color= 1
	 item 174, weight= 1898, color= 1
	 item 175, weight= 1906, color= 1
	 item 176, weight= 1916, color= 1
	 item 177, weight= 1951, color= 1
	 item 178, weight= 1954, color= 1
	 item 179, weight= 1964, color= 1
	 item 180, weight= 1971, color= 1
	 item 181, weight= 1979, color= 1
	 item 182, weight= 1994, color= 1
	 item 183, weight= 2004, color= 1
	 item 184, weight= 2007, color= 1
	 item 185, weight= 2026, color= 1
	 item 186, weight= 2051, color= 1
	 item 187, weight= 2057, color= 1
	 item 188, weight= 2061, color= 1
	 item 189, weight= 2066, color= 1
	 item 190, weight= 2084, color= 1
	 item 191, weight= 2086, color= 1
	 item 192, weight= 2097, color= 1
	 item 193, weight= 2108, color= 1
	 item 194, weight= 2118, color= 1
	 item 195, weight= 2127, color= 1
	 item 196, weight= 2142, color= 1
	 item 197, weight= 2153, color= 1
	 item 198, weight= 2162, color= 1
	 item 199, weight= 2172, color= 1
	 item 200, weight= 2180, color= 1
	 item 201, weight= 2188, color= 1
	 item 202, weight= 2198, color= 1

VRPSolver warning: Interval set for resource 1 on source node (when source != sink) is ignored (by definition is [0.0,0.0])
VRPSolver warning: Interval set for resource 2 on source node (when source != sink) is ignored (by definition is [0.0,0.0])
VRPSolver warning: Interval set for resource 3 on source node (when source != sink) is ignored (by definition is [0.0,0.0])
[41m solve [00m
~~~~~~~~~~~~~~~~~~~~~~~~~~~~~~~~~~~~~~~~~~~~~~~~~~~~~~~~~~~~~~~~~~~~~~~~~~~~~~
VRPSolver v0.4.1, 24/03/2021. Web: vrpsolver.math.u-bordeaux.fr
Corresponds to the solver by Pessoa, Sadykov, Uchoa and Vanderbeck (2020)
Paper: dx.doi.org/10.1007/s10107-020-01523-z
USE THIS CODE ONLY FOR ACADEMIC PURPOSES AT YOUR OWN RISK
~~~~~~~~~~~~~~~~~~~~~~~~~~~~~~~~~~~~~~~~~~~~~~~~~~~~~~~~~~~~~~~~~~~~~~~~~~~~~~
BaPCod v053, 24/03/2021, © Inria Bordeaux, France
~~~~~~~~~~~~~~~~~~~~~~~~~~~~~~~~~~~~~~~~~~~~~~~~~~~~~~~~~~~~~~~~~~~~~~~~~~~~~~
VRPSolver parameters:
GlobalTimeLimit = 60
MaxNbOfBBtreeNodeTreated = 100000
treeSearchStrategy = 1
RCSPstopCutGenTimeThresholdInPricing = 10
RCSPhardTimeThresholdInPricing = 20
RCSPnumberOfBucketsPerVertex = 2000
RCSPdynamicBucketSteps = 0
RCSPuseBidirectionalSearch = 1
RCSPapplyReducedCostFixing = 1
RCSPredCostFixingFalseGap = 0
RCSPmaxNumOfColsPerIteration = 100
RCSPmaxNumOfColsPerExactIteration = 100
RCSPheurLabelingStrategy = 4
StabilizationMinPhaseOfStage = 1
RCSPmaxNumOfLabelsInEnumeration = 100000
RCSPmaxNumOfEnumeratedSolutions = 1000000
RCSPmaxNumOfEnumSolutionsForMIP = 100000
RCSPinitNGneighbourhoodSize = 0
RCSPmaxNGneighbourhoodSize = 0
RCSPrankOneCutsMaxNumPerRound = 100
RCSPrankOneCutsMaxNumRows = -1
RCSPrankOneCutsMemoryType = 2
CutTailingOffThreshold = 0.02
CutTailingOffCounterThreshold = 3
SafeDualBoundScaleFactor = -1
StrongBranchingPhaseOneCandidatesNumber = 100
StrongBranchingPhaseOneTreeSizeEstimRatio = 0.3
StrongBranchingPhaseTwoCandidatesNumber = 1
StrongBranchingPhaseTwoTreeSizeEstimRatio = 0.1
MaxTimeForRestrictedMasterIpHeur = -1
DivingHeurUseDepthLimit = 0
MaxLDSbreadth = 3
MaxLDSdepth = 2
New model incumbent solution 1e+06, TIME = 0h0m0s3t = 3
Model is built TIME = 0h0m1s68t = 168
************************************************************************************************
**** BaB tree root node
**** Local DB = -1e+12, global bounds : [ -1e+12 , 1e+06 ], TIME = 0h0m1s68t = 168
**** 1 open nodes, 0 columns (0 active), 0 dyn. constrs. (0 active), 406 art. vars. (406 active)
************************************************************************************************
<DWph=2> <it= 10> <et=3.31> <Mt= 0.00> <Spt= 1.61> <nCl=1000> <DB=-2555847335.4952> <Mlp=168600014.5000> <PB=1000000> 
<DWph=2> <it= 20> <et=5.29> <Mt= 0.03> <Spt= 1.96> <nCl=1000> <DB=-2069618657.5163> <Mlp=111981140.4837> <PB=1000000> 
<DWph=2> <it= 30> <et=7.52> <Mt= 0.08> <Spt= 2.14> <nCl=1000> <DB=-1295047320.2651> <Mlp=87815565.6799> <PB=1000000> 
<DWph=2> <it= 40> <et=9.69> <Mt= 0.13> <Spt= 2.04> <nCl=1000> <DB=-977070755.7456> <Mlp=74749306.5092> <PB=1000000> 
<DWph=2> <it= 50> <et=11.99> <Mt= 0.15> <Spt= 2.16> <nCl=1000> <DB=-491256469.6351> <Mlp=65692875.3139> <PB=1000000> 
<DWph=2> <it= 60> <et=14.33> <Mt= 0.19> <Spt= 2.14> <nCl=1000> <DB=-455055719.3456> <Mlp=55679131.8451> <PB=1000000> 
<DWph=2> <it= 70> <et=16.75> <Mt= 0.23> <Spt= 2.19> <nCl=1000> <DB=-284945633.6921> <Mlp=39171252.8091> <PB=1000000> 
<DWph=2> <it= 80> <et=19.74> <Mt= 0.29> <Spt= 2.70> <nCl=1000> <DB= -128.0321> <Mlp=   71.1394> <PB=1000000> 
<DWph=2> <it= 90> <et=21.82> <Mt= 0.24> <Spt= 1.83> <nCl=1000> <DB=   21.6507> <Mlp=   67.5021> <PB=1000000> 
<DWph=2> <it=100> <et=23.94> <Mt= 0.38> <Spt= 1.75> <nCl=947> <DB=   60.0370> <Mlp=   65.0961> <PB=1000000> 
<DWph=2> <it=110> <et=25.40> <Mt= 0.21> <Spt= 1.12> <nCl=888> <DB=   64.8607> <Mlp=   65.0074> <PB=1000000> 
<DWph=2> <it=120> <et=26.72> <Mt= 0.08> <Spt= 1.24> <nCl= 86> <DB=   65.0004> <Mlp=   65.0059> <PB=1000000> 
<DWph=2> <it=121> <et=26.96> <Mt= 0.01> <Spt= 0.23> <nCl=  0> <DB=   65.0059> <Mlp=   65.0059> <PB=1000000> 
<DWph=1> <it=130> <et=29.60> <Mt= 0.13> <Spt= 2.51> <nCl=440> <DB=   64.9943> <Mlp=   65.0001> <PB=1000000> 
<DWph=1> <it=133> <et=30.63> <Mt= 0.01> <Spt= 1.01> <nCl=  7> <DB=   65.0000> <Mlp=   65.0000> <PB=1000000> 
<DWph=0> <it=138> <et=34.65> <Mt= 0.03> <Spt= 4.01> <nCl=167> <DB=   65.0000> <Mlp=   65.0000> <PB=1000000> 
Reduced cost fixing for graph G_1... took 14.78 sec., 229330 buck. arcs remain (100% from prev., 33.8% from max.)
Run enumeration... took 1.01 sec. and not succeeded.
ColGenEvalAlg final dual bound: 65 (rounded: 65)
----------- Diving heuristic started -----------
<DWph=2> <it=  1> <et=50.51> <Mt= 0.00> <Spt= 0.00> <nCl=  0> <DB=   65.0000> <Mlp=   65.0000> <PB=1000000> 
<DWph=1> <it=  2> <et=50.51> <Mt= 0.00> <Spt= 0.00> <nCl=  0> <DB=   65.0000> <Mlp=   65.0000> <PB=1000000> 
---- Diving heuristic node with dive number = 0, fix depth = 0 and tabu list size = 0
Fixed projected solution = [x_1_0_1_OspV=1, x_1_64_1_OspV=1, x_1_133_1_OspV=1, x_1_144_1_OspV=1]
<DWph=2> <it=  1> <et=50.59> <Mt= 0.00> <Spt= 0.00> <nCl=  0> <DB=   65.0000> <Mlp=   65.0000> <PB=1000000> 
<DWph=1> <it=  2> <et=50.59> <Mt= 0.01> <Spt= 0.00> <nCl=  0> <DB=   65.0000> <Mlp=   65.0000> <PB=1000000> 
---- Diving heuristic node with dive number = 0, fix depth = 0 and tabu list size = 0
Fixed projected solution = [x_1_0_1_OspV=1, x_1_55_1_OspV=1, x_1_120_1_OspV=1, x_1_156_1_OspV=1]
<DWph=2> <it=  1> <et=50.66> <Mt= 0.00> <Spt= 0.00> <nCl=  0> <DB=   65.0000> <Mlp=   65.0000> <PB=1000000> 
<DWph=1> <it=  2> <et=50.66> <Mt= 0.00> <Spt= 0.00> <nCl=  0> <DB=   65.0000> <Mlp=   65.0000> <PB=1000000> 
---- Diving heuristic node with dive number = 0, fix depth = 0 and tabu list size = 0
Fixed projected solution = [x_1_0_1_OspV=1, x_1_29_1_OspV=1, x_1_93_1_OspV=1, x_1_182_1_OspV=1]
<DWph=2> <it=  1> <et=50.73> <Mt= 0.00> <Spt= 0.00> <nCl=  0> <DB=   65.0000> <Mlp=   65.0000> <PB=1000000> 
<DWph=1> <it=  2> <et=50.73> <Mt= 0.01> <Spt= 0.00> <nCl=  0> <DB=   65.0000> <Mlp=   65.0000> <PB=1000000> 
---- Diving heuristic node with dive number = 0, fix depth = 0 and tabu list size = 0
Fixed projected solution = [x_1_0_1_OspV=1, x_1_21_1_OspV=1, x_1_80_1_OspV=1, x_1_194_1_OspV=1]
<DWph=2> <it=  1> <et=50.79> <Mt= 0.00> <Spt= 0.00> <nCl=  0> <DB=   65.0000> <Mlp=   65.0000> <PB=1000000> 
<DWph=1> <it=  2> <et=50.80> <Mt= 0.00> <Spt= 0.00> <nCl=  0> <DB=   65.0000> <Mlp=   65.0000> <PB=1000000> 
---- Diving heuristic node with dive number = 0, fix depth = 0 and tabu list size = 0
Fixed projected solution = [x_1_0_1_OspV=1, x_1_36_1_OspV=1, x_1_100_1_OspV=1, x_1_174_1_OspV=1]
<DWph=2> <it=  1> <et=50.86> <Mt= 0.01> <Spt= 0.00> <nCl=  0> <DB=   65.0000> <Mlp=   65.0000> <PB=1000000> 
<DWph=1> <it=  2> <et=50.86> <Mt= 0.00> <Spt= 0.00> <nCl=  0> <DB=   65.0000> <Mlp=   65.0000> <PB=1000000> 
---- Diving heuristic node with dive number = 0, fix depth = 0 and tabu list size = 0
Fixed projected solution = [x_1_0_1_OspV=1, x_1_5_1_OspV=1, x_1_91_1_OspV=1, x_1_187_1_OspV=1]
<DWph=2> <it=  1> <et=50.93> <Mt= 0.00> <Spt= 0.00> <nCl=  0> <DB=   65.0000> <Mlp=   65.0000> <PB=1000000> 
<DWph=1> <it=  2> <et=50.93> <Mt= 0.00> <Spt= 0.00> <nCl=  0> <DB=   65.0000> <Mlp=   65.0000> <PB=1000000> 
---- Diving heuristic node with dive number = 0, fix depth = 0 and tabu list size = 0
Fixed projected solution = [x_1_0_1_OspV=1, x_1_62_1_OspV=1, x_1_130_1_OspV=1, x_1_146_1_OspV=1]
<DWph=2> <it=  1> <et=51.00> <Mt= 0.01> <Spt= 0.00> <nCl=  0> <DB=   65.0000> <Mlp=   65.0000> <PB=1000000> 
<DWph=1> <it=  2> <et=51.00> <Mt= 0.00> <Spt= 0.00> <nCl=  0> <DB=   65.0000> <Mlp=   65.0000> <PB=1000000> 
---- Diving heuristic node with dive number = 0, fix depth = 0 and tabu list size = 0
Fixed projected solution = [x_1_0_1_OspV=1, x_1_25_1_OspV=1, x_1_84_1_OspV=1, x_1_189_1_OspV=1]
<DWph=2> <it=  1> <et=51.07> <Mt= 0.00> <Spt= 0.00> <nCl=  0> <DB=   65.0000> <Mlp=   65.0000> <PB=1000000> 
<DWph=1> <it=  2> <et=51.07> <Mt= 0.00> <Spt= 0.00> <nCl=  0> <DB=   65.0000> <Mlp=   65.0000> <PB=1000000> 
---- Diving heuristic node with dive number = 0, fix depth = 0 and tabu list size = 0
Fixed projected solution = [x_1_0_1_OspV=1, x_1_16_1_OspV=1, x_1_119_1_OspV=1, x_1_162_1_OspV=1]
<DWph=2> <it=  1> <et=51.14> <Mt= 0.01> <Spt= 0.00> <nCl=  0> <DB=   65.0000> <Mlp=   65.0000> <PB=1000000> 
<DWph=1> <it=  2> <et=51.14> <Mt= 0.00> <Spt= 0.00> <nCl=  0> <DB=   65.0000> <Mlp=   65.0000> <PB=1000000> 
---- Diving heuristic node with dive number = 0, fix depth = 0 and tabu list size = 0
Fixed projected solution = [x_1_0_1_OspV=1, x_1_63_1_OspV=1, x_1_129_1_OspV=1, x_1_147_1_OspV=1]
<DWph=2> <it=  1> <et=51.21> <Mt= 0.00> <Spt= 0.00> <nCl=  0> <DB=   65.0000> <Mlp=   65.0000> <PB=1000000> 
<DWph=1> <it=  2> <et=51.21> <Mt= 0.01> <Spt= 0.00> <nCl=  0> <DB=   65.0000> <Mlp=   65.0000> <PB=1000000> 
---- Diving heuristic node with dive number = 0, fix depth = 0 and tabu list size = 0
Fixed projected solution = [x_1_0_1_OspV=1, x_1_67_1_OspV=1, x_1_136_1_OspV=1, x_1_141_1_OspV=1]
<DWph=2> <it=  1> <et=51.28> <Mt= 0.00> <Spt= 0.00> <nCl=  0> <DB=   65.0000> <Mlp=   65.0000> <PB=1000000> 
<DWph=1> <it=  2> <et=51.28> <Mt= 0.00> <Spt= 0.00> <nCl=  0> <DB=   65.0000> <Mlp=   65.0000> <PB=1000000> 
---- Diving heuristic node with dive number = 0, fix depth = 0 and tabu list size = 0
Fixed projected solution = [x_1_0_1_OspV=1, x_1_33_1_OspV=1, x_1_96_1_OspV=1, x_1_178_1_OspV=1]
<DWph=2> <it=  1> <et=51.34> <Mt= 0.01> <Spt= 0.00> <nCl=  0> <DB=   65.0000> <Mlp=   65.0000> <PB=1000000> 
<DWph=1> <it=  2> <et=51.35> <Mt= 0.00> <Spt= 0.00> <nCl=  0> <DB=   65.0000> <Mlp=   65.0000> <PB=1000000> 
---- Diving heuristic node with dive number = 0, fix depth = 0 and tabu list size = 0
Fixed projected solution = [x_1_0_1_OspV=1, x_1_41_1_OspV=1, x_1_102_1_OspV=1, x_1_172_1_OspV=1]
<DWph=2> <it=  1> <et=51.41> <Mt= 0.00> <Spt= 0.00> <nCl=  0> <DB=   65.0000> <Mlp=   65.0000> <PB=1000000> 
<DWph=1> <it=  2> <et=51.42> <Mt= 0.00> <Spt= 0.00> <nCl=  0> <DB=   65.0000> <Mlp=   65.0000> <PB=1000000> 
---- Diving heuristic node with dive number = 0, fix depth = 0 and tabu list size = 0
Fixed projected solution = [x_1_0_1_OspV=1, x_1_20_1_OspV=1, x_1_79_1_OspV=1, x_1_195_1_OspV=1]
<DWph=2> <it=  1> <et=51.48> <Mt= 0.01> <Spt= 0.00> <nCl=  0> <DB=   65.0000> <Mlp=   65.0000> <PB=1000000> 
<DWph=1> <it=  2> <et=51.48> <Mt= 0.00> <Spt= 0.00> <nCl=  0> <DB=   65.0000> <Mlp=   65.0000> <PB=1000000> 
---- Diving heuristic node with dive number = 0, fix depth = 0 and tabu list size = 0
Fixed projected solution = [x_1_0_1_OspV=1, x_1_15_1_OspV=1, x_1_75_1_OspV=1, x_1_197_1_OspV=1]
<DWph=2> <it=  1> <et=51.55> <Mt= 0.00> <Spt= 0.00> <nCl=  0> <DB=   65.0000> <Mlp=   65.0000> <PB=1000000> 
<DWph=1> <it=  2> <et=51.55> <Mt= 0.01> <Spt= 0.00> <nCl=  0> <DB=   65.0000> <Mlp=   65.0000> <PB=1000000> 
---- Diving heuristic node with dive number = 0, fix depth = 0 and tabu list size = 0
Fixed projected solution = [x_1_0_1_OspV=1, x_1_11_1_OspV=1, x_1_70_1_OspV=1, x_1_202_1_OspV=1]
<DWph=2> <it=  1> <et=51.62> <Mt= 0.00> <Spt= 0.00> <nCl=  0> <DB=   65.0000> <Mlp=   65.0000> <PB=1000000> 
<DWph=1> <it=  2> <et=51.62> <Mt= 0.00> <Spt= 0.00> <nCl=  0> <DB=   65.0000> <Mlp=   65.0000> <PB=1000000> 
---- Diving heuristic node with dive number = 0, fix depth = 0 and tabu list size = 0
Fixed projected solution = [x_1_0_1_OspV=1, x_1_46_1_OspV=1, x_1_109_1_OspV=1, x_1_167_1_OspV=1]
<DWph=2> <it=  1> <et=51.69> <Mt= 0.00> <Spt= 0.00> <nCl=  0> <DB=   65.0000> <Mlp=   65.0000> <PB=1000000> 
<DWph=1> <it=  2> <et=51.69> <Mt= 0.01> <Spt= 0.00> <nCl=  0> <DB=   65.0000> <Mlp=   65.0000> <PB=1000000> 
---- Diving heuristic node with dive number = 0, fix depth = 0 and tabu list size = 0
Fixed projected solution = [x_1_0_1_OspV=1, x_1_13_1_OspV=1, x_1_74_1_OspV=1, x_1_198_1_OspV=1]
<DWph=2> <it=  1> <et=51.76> <Mt= 0.00> <Spt= 0.00> <nCl=  0> <DB=   65.0000> <Mlp=   65.0000> <PB=1000000> 
<DWph=1> <it=  2> <et=51.76> <Mt= 0.00> <Spt= 0.00> <nCl=  0> <DB=   65.0000> <Mlp=   65.0000> <PB=1000000> 
---- Diving heuristic node with dive number = 0, fix depth = 0 and tabu list size = 0
Fixed projected solution = [x_1_0_1_OspV=1, x_1_42_1_OspV=1, x_1_104_1_OspV=1, x_1_170_1_OspV=1]
<DWph=2> <it=  1> <et=51.83> <Mt= 0.01> <Spt= 0.00> <nCl=  0> <DB=   65.0000> <Mlp=   65.0000> <PB=1000000> 
<DWph=1> <it=  2> <et=51.83> <Mt= 0.00> <Spt= 0.00> <nCl=  0> <DB=   65.0000> <Mlp=   65.0000> <PB=1000000> 
---- Diving heuristic node with dive number = 0, fix depth = 0 and tabu list size = 0
Fixed projected solution = [x_1_0_1_OspV=1, x_1_34_1_OspV=1, x_1_97_1_OspV=1, x_1_177_1_OspV=1]
<DWph=2> <it=  1> <et=51.90> <Mt= 0.00> <Spt= 0.00> <nCl=  0> <DB=   65.0000> <Mlp=   65.0000> <PB=1000000> 
<DWph=1> <it=  2> <et=51.90> <Mt= 0.00> <Spt= 0.00> <nCl=  0> <DB=   65.0000> <Mlp=   65.0000> <PB=1000000> 
---- Diving heuristic node with dive number = 0, fix depth = 0 and tabu list size = 0
Fixed projected solution = [x_1_0_1_OspV=1, x_1_32_1_OspV=1, x_1_94_1_OspV=1, x_1_180_1_OspV=1]
<DWph=2> <it=  1> <et=51.96> <Mt= 0.01> <Spt= 0.00> <nCl=  0> <DB=   65.0000> <Mlp=   65.0000> <PB=1000000> 
<DWph=1> <it=  2> <et=51.97> <Mt= 0.00> <Spt= 0.00> <nCl=  0> <DB=   65.0000> <Mlp=   65.0000> <PB=1000000> 
---- Diving heuristic node with dive number = 0, fix depth = 0 and tabu list size = 0
Fixed projected solution = [x_1_0_1_OspV=1, x_1_9_1_OspV=1, x_1_98_1_OspV=1, x_1_181_1_OspV=1]
<DWph=2> <it=  1> <et=52.03> <Mt= 0.00> <Spt= 0.00> <nCl=  0> <DB=   65.0000> <Mlp=   65.0000> <PB=1000000> 
<DWph=1> <it=  2> <et=52.04> <Mt= 0.01> <Spt= 0.00> <nCl=  0> <DB=   65.0000> <Mlp=   65.0000> <PB=1000000> 
---- Diving heuristic node with dive number = 0, fix depth = 0 and tabu list size = 0
Fixed projected solution = [x_1_0_1_OspV=1, x_1_56_1_OspV=1, x_1_122_1_OspV=1, x_1_154_1_OspV=1]
<DWph=2> <it=  1> <et=52.10> <Mt= 0.00> <Spt= 0.00> <nCl=  0> <DB=   65.0000> <Mlp=   65.0000> <PB=1000000> 
<DWph=1> <it=  2> <et=52.10> <Mt= 0.00> <Spt= 0.00> <nCl=  0> <DB=   65.0000> <Mlp=   65.0000> <PB=1000000> 
---- Diving heuristic node with dive number = 0, fix depth = 0 and tabu list size = 0
Fixed projected solution = [x_1_0_1_OspV=1, x_1_37_1_OspV=1, x_1_99_1_OspV=1, x_1_175_1_OspV=1]
<DWph=2> <it=  1> <et=52.17> <Mt= 0.01> <Spt= 0.00> <nCl=  0> <DB=   65.0000> <Mlp=   65.0000> <PB=1000000> 
<DWph=1> <it=  2> <et=52.17> <Mt= 0.00> <Spt= 0.00> <nCl=  0> <DB=   65.0000> <Mlp=   65.0000> <PB=1000000> 
---- Diving heuristic node with dive number = 0, fix depth = 0 and tabu list size = 0
Fixed projected solution = [x_1_0_1_OspV=1, x_1_18_1_OspV=1, x_1_78_1_OspV=1, x_1_196_1_OspV=1]
<DWph=2> <it=  1> <et=52.24> <Mt= 0.00> <Spt= 0.00> <nCl=  0> <DB=   65.0000> <Mlp=   65.0000> <PB=1000000> 
<DWph=1> <it=  2> <et=52.24> <Mt= 0.00> <Spt= 0.00> <nCl=  0> <DB=   65.0000> <Mlp=   65.0000> <PB=1000000> 
---- Diving heuristic node with dive number = 0, fix depth = 0 and tabu list size = 0
Fixed projected solution = [x_1_0_1_OspV=1, x_1_43_1_OspV=1, x_1_106_1_OspV=1, x_1_169_1_OspV=1]
<DWph=2> <it=  1> <et=52.31> <Mt= 0.01> <Spt= 0.00> <nCl=  0> <DB=   65.0000> <Mlp=   65.0000> <PB=1000000> 
<DWph=1> <it=  2> <et=52.31> <Mt= 0.00> <Spt= 0.00> <nCl=  0> <DB=   65.0000> <Mlp=   65.0000> <PB=1000000> 
---- Diving heuristic node with dive number = 0, fix depth = 0 and tabu list size = 0
Fixed projected solution = [x_1_0_1_OspV=1, x_1_22_1_OspV=1, x_1_82_1_OspV=1, x_1_192_1_OspV=1]
<DWph=2> <it=  1> <et=52.38> <Mt= 0.00> <Spt= 0.00> <nCl=  0> <DB=   65.0000> <Mlp=   65.0000> <PB=1000000> 
<DWph=1> <it=  2> <et=52.38> <Mt= 0.00> <Spt= 0.00> <nCl=  0> <DB=   65.0000> <Mlp=   65.0000> <PB=1000000> 
---- Diving heuristic node with dive number = 0, fix depth = 1 and tabu list size = 0
Fixed projected solution = [x_1_0_1_OspV=1, x_1_48_1_OspV=1, x_1_112_1_OspV=1, x_1_164_1_OspV=1]
<DWph=2> <it=  1> <et=52.46> <Mt= 0.03> <Spt= 0.00> <nCl=  0> <DB=   65.0000> <Mlp=   65.0000> <PB=1000000> 
<DWph=1> <it=  2> <et=52.46> <Mt= 0.00> <Spt= 0.00> <nCl=  0> <DB=   65.0000> <Mlp=   65.0000> <PB=1000000> 
---- Diving heuristic node with dive number = 0, fix depth = 2 and tabu list size = 0
Fixed projected solution = [x_1_0_1_OspV=1, x_1_51_1_OspV=1, x_1_116_1_OspV=1, x_1_159_1_OspV=1]
<DWph=2> <it=  1> <et=52.56> <Mt= 0.04> <Spt= 0.00> <nCl=  0> <DB=   65.0000> <Mlp=   65.0000> <PB=1000000> 
<DWph=1> <it=  2> <et=52.56> <Mt= 0.00> <Spt= 0.00> <nCl=  0> <DB=   65.0000> <Mlp=   65.0000> <PB=1000000> 
---- Diving heuristic node with dive number = 0, fix depth = 2 and tabu list size = 0
Fixed projected solution = [x_1_0_1_OspV=1, x_1_53_1_OspV=1, x_1_117_1_OspV=1, x_1_158_1_OspV=1]
<DWph=2> <it=  1> <et=52.57> <Mt= 0.00> <Spt= 0.00> <nCl=  0> <DB=   65.0000> <Mlp=   65.0000> <PB=1000000> 
<DWph=1> <it=  2> <et=52.57> <Mt= 0.00> <Spt= 0.00> <nCl=  0> <DB=   65.0000> <Mlp=   65.0000> <PB=1000000> 
---- Diving heuristic node with dive number = 0, fix depth = 3 and tabu list size = 0
Fixed projected solution = [x_1_0_1_OspV=1, x_1_69_1_OspV=1, x_1_138_1_OspV=1, x_1_139_1_OspV=1]
<DWph=2> <it=  1> <et=52.62> <Mt= 0.03> <Spt= 0.00> <nCl=  0> <DB=   65.0000> <Mlp=   65.0000> <PB=1000000> 
<DWph=1> <it=  2> <et=52.62> <Mt= 0.00> <Spt= 0.00> <nCl=  0> <DB=   65.0000> <Mlp=   65.0000> <PB=1000000> 
---- Diving heuristic node with dive number = 0, fix depth = 4 and tabu list size = 0
Fixed projected solution = [x_1_0_1_OspV=1, x_1_40_1_OspV=1, x_1_101_1_OspV=1, x_1_173_1_OspV=1]
<DWph=2> <it=  1> <et=52.67> <Mt= 0.05> <Spt= 0.00> <nCl=  0> <DB=   65.0000> <Mlp=   65.0000> <PB=1000000> 
<DWph=1> <it=  2> <et=52.68> <Mt= 0.00> <Spt= 0.00> <nCl=  0> <DB=   65.0000> <Mlp=   65.0000> <PB=1000000> 
---- Diving heuristic node with dive number = 0, fix depth = 5 and tabu list size = 0
Fixed projected solution = [x_1_0_1_OspV=1, x_1_47_1_OspV=1, x_1_111_1_OspV=1, x_1_166_1_OspV=1]
<DWph=2> <it=  1> <et=52.73> <Mt= 0.04> <Spt= 0.00> <nCl=  0> <DB=   65.0000> <Mlp=   65.0000> <PB=1000000> 
<DWph=1> <it=  2> <et=52.73> <Mt= 0.00> <Spt= 0.00> <nCl=  0> <DB=   65.0000> <Mlp=   65.0000> <PB=1000000> 
---- Diving heuristic node with dive number = 0, fix depth = 6 and tabu list size = 0
Fixed projected solution = [x_1_0_1_OspV=1, x_1_66_1_OspV=1, x_1_134_1_OspV=1, x_1_143_1_OspV=1]
<DWph=2> <it=  1> <et=52.77> <Mt= 0.03> <Spt= 0.00> <nCl=  0> <DB=   65.0000> <Mlp=   65.0000> <PB=1000000> 
<DWph=1> <it=  2> <et=52.78> <Mt= 0.00> <Spt= 0.00> <nCl=  0> <DB=   65.0000> <Mlp=   65.0000> <PB=1000000> 
---- Diving heuristic node with dive number = 0, fix depth = 6 and tabu list size = 0
Fixed projected solution = [x_1_0_1_OspV=1, x_1_7_1_OspV=1, x_1_86_1_OspV=1, x_1_191_1_OspV=1]
<DWph=2> <it=  1> <et=52.79> <Mt= 0.01> <Spt= 0.00> <nCl=  0> <DB=   65.0000> <Mlp=   65.0000> <PB=1000000> 
<DWph=1> <it=  2> <et=52.79> <Mt= 0.00> <Spt= 0.00> <nCl=  0> <DB=   65.0000> <Mlp=   65.0000> <PB=1000000> 
---- Diving heuristic node with dive number = 0, fix depth = 7 and tabu list size = 0
Fixed projected solution = [x_1_0_1_OspV=1, x_1_58_1_OspV=1, x_1_124_1_OspV=1, x_1_152_1_OspV=1]
<DWph=2> <it=  1> <et=52.88> <Mt= 0.08> <Spt= 0.00> <nCl=  0> <DB=   65.0000> <Mlp=   65.0000> <PB=1000000> 
<DWph=1> <it=  2> <et=52.89> <Mt= 0.00> <Spt= 0.00> <nCl=  0> <DB=   65.0000> <Mlp=   65.0000> <PB=1000000> 
---- Diving heuristic node with dive number = 0, fix depth = 7 and tabu list size = 0
Fixed projected solution = [x_1_0_1_OspV=1, x_1_39_1_OspV=1, x_1_105_1_OspV=1, x_1_171_1_OspV=1]
<DWph=2> <it=  1> <et=52.90> <Mt= 0.00> <Spt= 0.00> <nCl=  0> <DB=   65.0000> <Mlp=   65.0000> <PB=1000000> 
<DWph=1> <it=  2> <et=52.90> <Mt= 0.00> <Spt= 0.00> <nCl=  0> <DB=   65.0000> <Mlp=   65.0000> <PB=1000000> 
---- Diving heuristic node with dive number = 0, fix depth = 8 and tabu list size = 0
Fixed projected solution = [x_1_0_1_OspV=1, x_1_1_1_OspV=1, x_1_107_1_OspV=1, x_1_176_1_OspV=1]
<DWph=2> <it=  1> <et=52.93> <Mt= 0.02> <Spt= 0.00> <nCl=  0> <DB=   65.0000> <Mlp=   65.0000> <PB=1000000> 
<DWph=1> <it=  2> <et=52.93> <Mt= 0.00> <Spt= 0.00> <nCl=  0> <DB=   65.0000> <Mlp=   65.0000> <PB=1000000> 
---- Diving heuristic node with dive number = 0, fix depth = 9 and tabu list size = 0
Fixed projected solution = [x_1_0_1_OspV=1, x_1_19_1_OspV=1, x_1_81_1_OspV=1, x_1_193_1_OspV=1]
<DWph=2> <it=  1> <et=52.97> <Mt= 0.02> <Spt= 0.00> <nCl=  0> <DB=   65.0000> <Mlp=   65.0000> <PB=1000000> 
<DWph=1> <it=  2> <et=52.97> <Mt= 0.00> <Spt= 0.00> <nCl=  0> <DB=   65.0000> <Mlp=   65.0000> <PB=1000000> 
---- Diving heuristic node with dive number = 0, fix depth = 9 and tabu list size = 0
Fixed projected solution = [x_1_0_1_OspV=1, x_1_59_1_OspV=1, x_1_125_1_OspV=1, x_1_150_1_OspV=1]
<DWph=2> <it=  1> <et=52.98> <Mt= 0.01> <Spt= 0.00> <nCl=  0> <DB=   65.0000> <Mlp=   65.0000> <PB=1000000> 
<DWph=1> <it=  2> <et=52.98> <Mt= 0.00> <Spt= 0.00> <nCl=  0> <DB=   65.0000> <Mlp=   65.0000> <PB=1000000> 
---- Diving heuristic node with dive number = 0, fix depth = 10 and tabu list size = 0
Fixed projected solution = [x_1_0_1_OspV=1, x_1_31_1_OspV=1, x_1_126_1_OspV=1, x_1_151_1_OspV=1]
<DWph=2> <it=  1> <et=53.03> <Mt= 0.03> <Spt= 0.00> <nCl=  0> <DB=   65.0000> <Mlp=   65.0000> <PB=1000000> 
<DWph=1> <it=  2> <et=53.03> <Mt= 0.01> <Spt= 0.00> <nCl=  0> <DB=   65.0000> <Mlp=   65.0000> <PB=1000000> 
---- Diving heuristic node with dive number = 0, fix depth = 10 and tabu list size = 0
Fixed projected solution = [x_1_0_1_OspV=1, x_1_54_1_OspV=1, x_1_121_1_OspV=1, x_1_155_1_OspV=1]
<DWph=2> <it=  1> <et=53.05> <Mt= 0.00> <Spt= 0.00> <nCl=  0> <DB=   65.0000> <Mlp=   65.0000> <PB=1000000> 
<DWph=1> <it=  2> <et=53.05> <Mt= 0.00> <Spt= 0.00> <nCl=  0> <DB=   65.0000> <Mlp=   65.0000> <PB=1000000> 
---- Diving heuristic node with dive number = 0, fix depth = 11 and tabu list size = 0
Fixed projected solution = [x_1_0_1_OspV=1, x_1_12_1_OspV=1, x_1_73_1_OspV=1, x_1_199_1_OspV=1]
<DWph=2> <it=  1> <et=53.13> <Mt= 0.07> <Spt= 0.00> <nCl=  0> <DB=   65.0000> <Mlp=   65.0000> <PB=1000000> 
<DWph=1> <it=  2> <et=53.13> <Mt= 0.00> <Spt= 0.00> <nCl=  0> <DB=   65.0000> <Mlp=   65.0000> <PB=1000000> 
---- Diving heuristic node with dive number = 0, fix depth = 11 and tabu list size = 0
Fixed projected solution = [x_1_0_1_OspV=1, x_1_26_1_OspV=1, x_1_85_1_OspV=1, x_1_188_1_OspV=1]
<DWph=2> <it=  1> <et=53.15> <Mt= 0.00> <Spt= 0.00> <nCl=  0> <DB=   65.0000> <Mlp=   65.0000> <PB=1000000> 
<DWph=1> <it=  2> <et=53.15> <Mt= 0.01> <Spt= 0.00> <nCl=  0> <DB=   65.0000> <Mlp=   65.0000> <PB=1000000> 
---- Diving heuristic node with dive number = 0, fix depth = 11 and tabu list size = 0
Fixed projected solution = [x_1_0_1_OspV=1, x_1_52_1_OspV=1, x_1_118_1_OspV=1, x_1_157_1_OspV=1]
<DWph=2> <it=  1> <et=53.16> <Mt= 0.00> <Spt= 0.00> <nCl=  0> <DB=   65.0000> <Mlp=   65.0000> <PB=1000000> 
<DWph=1> <it=  2> <et=53.16> <Mt= 0.00> <Spt= 0.00> <nCl=  0> <DB=   65.0000> <Mlp=   65.0000> <PB=1000000> 
---- Diving heuristic node with dive number = 0, fix depth = 11 and tabu list size = 0
Fixed projected solution = [x_1_0_1_OspV=1, x_1_17_1_OspV=1, x_1_115_1_OspV=1, x_1_165_1_OspV=1]
<DWph=2> <it=  1> <et=53.18> <Mt= 0.00> <Spt= 0.00> <nCl=  0> <DB=   65.0000> <Mlp=   65.0000> <PB=1000000> 
<DWph=1> <it=  2> <et=53.18> <Mt= 0.00> <Spt= 0.00> <nCl=  0> <DB=   65.0000> <Mlp=   65.0000> <PB=1000000> 
---- Diving heuristic node with dive number = 0, fix depth = 11 and tabu list size = 0
Fixed projected solution = [x_1_0_1_OspV=1, x_1_77_1_OspV=1, x_1_131_1_OspV=1, x_1_142_1_OspV=1]
<DWph=2> <it=  1> <et=53.19> <Mt= 0.01> <Spt= 0.00> <nCl=  0> <DB=   65.0000> <Mlp=   65.0000> <PB=1000000> 
<DWph=1> <it=  2> <et=53.19> <Mt= 0.00> <Spt= 0.00> <nCl=  0> <DB=   65.0000> <Mlp=   65.0000> <PB=1000000> 
---- Diving heuristic node with dive number = 0, fix depth = 11 and tabu list size = 0
Fixed projected solution = [x_1_0_1_OspV=1, x_1_57_1_OspV=1, x_1_123_1_OspV=1, x_1_153_1_OspV=1]
<DWph=2> <it=  1> <et=53.20> <Mt= 0.00> <Spt= 0.00> <nCl=  0> <DB=   65.0000> <Mlp=   65.0000> <PB=1000000> 
<DWph=1> <it=  2> <et=53.21> <Mt= 0.00> <Spt= 0.00> <nCl=  0> <DB=   65.0000> <Mlp=   65.0000> <PB=1000000> 
---- Diving heuristic node with dive number = 0, fix depth = 11 and tabu list size = 0
Fixed projected solution = [x_1_0_1_OspV=1, x_1_60_1_OspV=1, x_1_127_1_OspV=1, x_1_149_1_OspV=1]
<DWph=2> <it=  1> <et=53.22> <Mt= 0.00> <Spt= 0.00> <nCl=  0> <DB=   65.0000> <Mlp=   65.0000> <PB=1000000> 
<DWph=1> <it=  2> <et=53.22> <Mt= 0.00> <Spt= 0.00> <nCl=  0> <DB=   65.0000> <Mlp=   65.0000> <PB=1000000> 
---- Diving heuristic node with dive number = 0, fix depth = 11 and tabu list size = 0
Fixed projected solution = [x_1_0_1_OspV=1, x_1_10_1_OspV=1, x_1_135_1_OspV=1, x_1_145_1_OspV=1]
<DWph=2> <it=  1> <et=53.23> <Mt= 0.00> <Spt= 0.00> <nCl=  0> <DB=   65.0000> <Mlp=   65.0000> <PB=1000000> 
<DWph=1> <it=  2> <et=53.23> <Mt= 0.01> <Spt= 0.00> <nCl=  0> <DB=   65.0000> <Mlp=   65.0000> <PB=1000000> 
---- Diving heuristic node with dive number = 0, fix depth = 11 and tabu list size = 0
Fixed projected solution = [x_1_0_1_OspV=1, x_1_8_1_OspV=1, x_1_89_1_OspV=1, x_1_186_1_OspV=1]
<DWph=2> <it=  1> <et=53.25> <Mt= 0.00> <Spt= 0.00> <nCl=  0> <DB=   65.0000> <Mlp=   65.0000> <PB=1000000> 
<DWph=1> <it=  2> <et=53.25> <Mt= 0.00> <Spt= 0.00> <nCl=  0> <DB=   65.0000> <Mlp=   65.0000> <PB=1000000> 
---- Diving heuristic node with dive number = 0, fix depth = 11 and tabu list size = 0
Fixed projected solution = [x_1_0_1_OspV=1, x_1_2_1_OspV=1, x_1_88_1_OspV=1, x_1_103_1_OspV=1, x_1_110_1_OspV=1, x_1_132_1_OspV=1]
<DWph=2> <it=  1> <et=53.26> <Mt= 0.00> <Spt= 0.00> <nCl=  0> <DB=   65.0000> <Mlp=   65.0000> <PB=1000000> 
<DWph=1> <it=  2> <et=53.26> <Mt= 0.00> <Spt= 0.00> <nCl=  0> <DB=   65.0000> <Mlp=   65.0000> <PB=1000000> 
---- Diving heuristic node with dive number = 0, fix depth = 12 and tabu list size = 0
Fixed projected solution = [x_1_0_1_OspV=1, x_1_49_1_OspV=1, x_1_114_1_OspV=1, x_1_161_1_OspV=1]
<DWph=2> <it= 10> <et=55.58> <Mt= 0.60> <Spt= 1.71> <nCl=1000> <DB=   63.5995> <Mlp=   65.0090> <PB=1000000> 
<DWph=2> <it= 20> <et=57.10> <Mt= 0.12> <Spt= 1.34> <nCl=383> <DB=   64.9810> <Mlp=   65.0026> <PB=1000000> 
<DWph=2> <it= 30> <et=59.02> <Mt= 0.05> <Spt= 1.86> <nCl= 78> <DB=   64.9892> <Mlp=   65.0023> <PB=1000000> 
<DWph=2> <it= 40> <et=60.91> <Mt= 0.07> <Spt= 1.82> <nCl=118> <DB=   64.8812> <Mlp=   65.0016> <PB=1000000> 
Global time limit is reached during column generation
SEARCH IS INTERRUPTED as the time limit is reached. 
---- Diving heuristic node with dive number = 1, fix depth = 2 and tabu list size = 1
Fixed projected solution = [x_1_0_1_OspV=1, x_1_53_1_OspV=1, x_1_117_1_OspV=1, x_1_158_1_OspV=1]
---- Diving heuristic node with dive number = 2, fix depth = 2 and tabu list size = 2
Fixed projected solution = [x_1_0_1_OspV=1, x_1_47_1_OspV=1, x_1_111_1_OspV=1, x_1_166_1_OspV=1]
---- Diving heuristic node with dive number = 3, fix depth = 2 and tabu list size = 3
Fixed projected solution = [x_1_0_1_OspV=1, x_1_77_1_OspV=1, x_1_131_1_OspV=1, x_1_142_1_OspV=1]
---- Diving heuristic node with dive number = 4, fix depth = 1 and tabu list size = 1
Fixed projected solution = [x_1_0_1_OspV=1, x_1_51_1_OspV=1, x_1_116_1_OspV=1, x_1_159_1_OspV=1]
---- Diving heuristic node with dive number = 5, fix depth = 1 and tabu list size = 2
Fixed projected solution = [x_1_0_1_OspV=1, x_1_53_1_OspV=1, x_1_117_1_OspV=1, x_1_158_1_OspV=1]
---- Diving heuristic node with dive number = 6, fix depth = 1 and tabu list size = 3
Fixed projected solution = [x_1_0_1_OspV=1, x_1_47_1_OspV=1, x_1_111_1_OspV=1, x_1_166_1_OspV=1]
**** Strong branching phase 1 is started *****
**** Strong branching phase 3 is started *****
************************************************************************************************
Search is finished, global bounds : [ 65 , 1e+06 ], TIME = 0h1m2s34t = 6234
************************************************************************************************
statistics_cols: instance & :Optimal & cutoff & :bcRecRootDb & :bcTimeRootEval & :bcCountNodeProc & :bcRecBestDb & :bcRecBestInc & :bcTimeMain \\
statistics: 201_2500_DI_7 & 0 & 1.0e6 & 65.00 & 50.50 & 1 & 65.00 & -- & 62.34 \\
########################################################
Solution not found
########################################################
