Application parameters:
  batch  =>  nothing
  instance  =>  "/IN/201_2500_DI_44.txt-Q2Half"
  ub  =>  1.0e6
  cfg  =>  "/CFG/BPP.cfg"
data = Colored Bin Packing dataset.
number of items = 202
number of colors = 2
capacity = 2036
Items : 
	 item 1, weight= 4, color= 0
	 item 2, weight= 4, color= 0
	 item 3, weight= 20, color= 0
	 item 4, weight= 28, color= 0
	 item 5, weight= 32, color= 0
	 item 6, weight= 34, color= 0
	 item 7, weight= 36, color= 0
	 item 8, weight= 36, color= 0
	 item 9, weight= 38, color= 0
	 item 10, weight= 38, color= 0
	 item 11, weight= 38, color= 0
	 item 12, weight= 40, color= 0
	 item 13, weight= 40, color= 0
	 item 14, weight= 40, color= 0
	 item 15, weight= 40, color= 0
	 item 16, weight= 40, color= 0
	 item 17, weight= 40, color= 0
	 item 18, weight= 42, color= 0
	 item 19, weight= 42, color= 0
	 item 20, weight= 44, color= 0
	 item 21, weight= 46, color= 0
	 item 22, weight= 48, color= 0
	 item 23, weight= 48, color= 0
	 item 24, weight= 48, color= 0
	 item 25, weight= 48, color= 0
	 item 26, weight= 48, color= 0
	 item 27, weight= 50, color= 0
	 item 28, weight= 52, color= 0
	 item 29, weight= 56, color= 0
	 item 30, weight= 58, color= 0
	 item 31, weight= 62, color= 0
	 item 32, weight= 62, color= 0
	 item 33, weight= 64, color= 0
	 item 34, weight= 64, color= 0
	 item 35, weight= 64, color= 0
	 item 36, weight= 64, color= 1
	 item 37, weight= 72, color= 0
	 item 38, weight= 72, color= 0
	 item 39, weight= 76, color= 0
	 item 40, weight= 76, color= 0
	 item 41, weight= 76, color= 0
	 item 42, weight= 78, color= 0
	 item 43, weight= 78, color= 0
	 item 44, weight= 78, color= 0
	 item 45, weight= 80, color= 0
	 item 46, weight= 84, color= 0
	 item 47, weight= 88, color= 0
	 item 48, weight= 96, color= 0
	 item 49, weight= 96, color= 0
	 item 50, weight= 98, color= 0
	 item 51, weight= 98, color= 0
	 item 52, weight= 98, color= 0
	 item 53, weight= 100, color= 0
	 item 54, weight= 100, color= 0
	 item 55, weight= 116, color= 0
	 item 56, weight= 116, color= 0
	 item 57, weight= 118, color= 0
	 item 58, weight= 130, color= 0
	 item 59, weight= 132, color= 0
	 item 60, weight= 136, color= 0
	 item 61, weight= 138, color= 0
	 item 62, weight= 142, color= 0
	 item 63, weight= 142, color= 0
	 item 64, weight= 142, color= 0
	 item 65, weight= 144, color= 0
	 item 66, weight= 148, color= 0
	 item 67, weight= 168, color= 0
	 item 68, weight= 168, color= 0
	 item 69, weight= 168, color= 0
	 item 70, weight= 173, color= 1
	 item 71, weight= 178, color= 1
	 item 72, weight= 191, color= 1
	 item 73, weight= 193, color= 1
	 item 74, weight= 194, color= 1
	 item 75, weight= 197, color= 1
	 item 76, weight= 201, color= 1
	 item 77, weight= 213, color= 1
	 item 78, weight= 214, color= 1
	 item 79, weight= 217, color= 1
	 item 80, weight= 218, color= 1
	 item 81, weight= 220, color= 1
	 item 82, weight= 228, color= 0
	 item 83, weight= 228, color= 1
	 item 84, weight= 229, color= 1
	 item 85, weight= 242, color= 1
	 item 86, weight= 243, color= 1
	 item 87, weight= 244, color= 1
	 item 88, weight= 257, color= 1
	 item 89, weight= 278, color= 1
	 item 90, weight= 289, color= 1
	 item 91, weight= 294, color= 1
	 item 92, weight= 295, color= 1
	 item 93, weight= 311, color= 1
	 item 94, weight= 311, color= 1
	 item 95, weight= 315, color= 1
	 item 96, weight= 316, color= 1
	 item 97, weight= 323, color= 1
	 item 98, weight= 334, color= 1
	 item 99, weight= 334, color= 1
	 item 100, weight= 361, color= 1
	 item 101, weight= 366, color= 1
	 item 102, weight= 382, color= 1
	 item 103, weight= 391, color= 1
	 item 104, weight= 395, color= 1
	 item 105, weight= 399, color= 1
	 item 106, weight= 402, color= 1
	 item 107, weight= 407, color= 1
	 item 108, weight= 417, color= 1
	 item 109, weight= 424, color= 1
	 item 110, weight= 450, color= 1
	 item 111, weight= 472, color= 1
	 item 112, weight= 481, color= 1
	 item 113, weight= 482, color= 1
	 item 114, weight= 491, color= 1
	 item 115, weight= 493, color= 1
	 item 116, weight= 495, color= 1
	 item 117, weight= 499, color= 1
	 item 118, weight= 507, color= 1
	 item 119, weight= 522, color= 1
	 item 120, weight= 581, color= 1
	 item 121, weight= 590, color= 1
	 item 122, weight= 591, color= 1
	 item 123, weight= 606, color= 1
	 item 124, weight= 650, color= 1
	 item 125, weight= 678, color= 1
	 item 126, weight= 684, color= 1
	 item 127, weight= 691, color= 1
	 item 128, weight= 701, color= 1
	 item 129, weight= 713, color= 1
	 item 130, weight= 713, color= 1
	 item 131, weight= 717, color= 1
	 item 132, weight= 721, color= 1
	 item 133, weight= 721, color= 1
	 item 134, weight= 754, color= 1
	 item 135, weight= 756, color= 0
	 item 136, weight= 846, color= 1
	 item 137, weight= 847, color= 1
	 item 138, weight= 849, color= 1
	 item 139, weight= 1019, color= 1
	 item 140, weight= 1021, color= 1
	 item 141, weight= 1022, color= 1
	 item 142, weight= 1134, color= 1
	 item 143, weight= 1171, color= 1
	 item 144, weight= 1173, color= 1
	 item 145, weight= 1177, color= 1
	 item 146, weight= 1181, color= 1
	 item 147, weight= 1193, color= 1
	 item 148, weight= 1197, color= 1
	 item 149, weight= 1209, color= 1
	 item 150, weight= 1226, color= 1
	 item 151, weight= 1280, color= 1
	 item 152, weight= 1302, color= 1
	 item 153, weight= 1327, color= 1
	 item 154, weight= 1330, color= 1
	 item 155, weight= 1339, color= 1
	 item 156, weight= 1390, color= 1
	 item 157, weight= 1404, color= 1
	 item 158, weight= 1414, color= 1
	 item 159, weight= 1429, color= 1
	 item 160, weight= 1439, color= 1
	 item 161, weight= 1443, color= 1
	 item 162, weight= 1447, color= 1
	 item 163, weight= 1458, color= 1
	 item 164, weight= 1459, color= 1
	 item 165, weight= 1498, color= 1
	 item 166, weight= 1539, color= 1
	 item 167, weight= 1549, color= 1
	 item 168, weight= 1558, color= 1
	 item 169, weight= 1559, color= 1
	 item 170, weight= 1563, color= 1
	 item 171, weight= 1567, color= 1
	 item 172, weight= 1571, color= 1
	 item 173, weight= 1578, color= 1
	 item 174, weight= 1598, color= 1
	 item 175, weight= 1603, color= 1
	 item 176, weight= 1638, color= 1
	 item 177, weight= 1649, color= 1
	 item 178, weight= 1659, color= 1
	 item 179, weight= 1663, color= 1
	 item 180, weight= 1674, color= 1
	 item 181, weight= 1679, color= 1
	 item 182, weight= 1683, color= 1
	 item 183, weight= 1686, color= 1
	 item 184, weight= 1699, color= 1
	 item 185, weight= 1706, color= 1
	 item 186, weight= 1729, color= 1
	 item 187, weight= 1745, color= 1
	 item 188, weight= 1746, color= 1
	 item 189, weight= 1752, color= 1
	 item 190, weight= 1763, color= 1
	 item 191, weight= 1776, color= 1
	 item 192, weight= 1777, color= 1
	 item 193, weight= 1778, color= 1
	 item 194, weight= 1781, color= 1
	 item 195, weight= 1782, color= 1
	 item 196, weight= 1797, color= 1
	 item 197, weight= 1801, color= 1
	 item 198, weight= 1805, color= 1
	 item 199, weight= 1806, color= 1
	 item 200, weight= 1809, color= 1
	 item 201, weight= 1826, color= 1
	 item 202, weight= 1829, color= 1

VRPSolver warning: Interval set for resource 1 on source node (when source != sink) is ignored (by definition is [0.0,0.0])
VRPSolver warning: Interval set for resource 2 on source node (when source != sink) is ignored (by definition is [0.0,0.0])
VRPSolver warning: Interval set for resource 3 on source node (when source != sink) is ignored (by definition is [0.0,0.0])
[41m solve [00m
~~~~~~~~~~~~~~~~~~~~~~~~~~~~~~~~~~~~~~~~~~~~~~~~~~~~~~~~~~~~~~~~~~~~~~~~~~~~~~
VRPSolver v0.4.1, 24/03/2021. Web: vrpsolver.math.u-bordeaux.fr
Corresponds to the solver by Pessoa, Sadykov, Uchoa and Vanderbeck (2020)
Paper: dx.doi.org/10.1007/s10107-020-01523-z
USE THIS CODE ONLY FOR ACADEMIC PURPOSES AT YOUR OWN RISK
~~~~~~~~~~~~~~~~~~~~~~~~~~~~~~~~~~~~~~~~~~~~~~~~~~~~~~~~~~~~~~~~~~~~~~~~~~~~~~
BaPCod v053, 24/03/2021, © Inria Bordeaux, France
~~~~~~~~~~~~~~~~~~~~~~~~~~~~~~~~~~~~~~~~~~~~~~~~~~~~~~~~~~~~~~~~~~~~~~~~~~~~~~
VRPSolver parameters:
GlobalTimeLimit = 60
MaxNbOfBBtreeNodeTreated = 100000
treeSearchStrategy = 1
RCSPstopCutGenTimeThresholdInPricing = 10
RCSPhardTimeThresholdInPricing = 20
RCSPnumberOfBucketsPerVertex = 2000
RCSPdynamicBucketSteps = 0
RCSPuseBidirectionalSearch = 1
RCSPapplyReducedCostFixing = 1
RCSPredCostFixingFalseGap = 0
RCSPmaxNumOfColsPerIteration = 100
RCSPmaxNumOfColsPerExactIteration = 100
RCSPheurLabelingStrategy = 4
StabilizationMinPhaseOfStage = 1
RCSPmaxNumOfLabelsInEnumeration = 100000
RCSPmaxNumOfEnumeratedSolutions = 1000000
RCSPmaxNumOfEnumSolutionsForMIP = 100000
RCSPinitNGneighbourhoodSize = 0
RCSPmaxNGneighbourhoodSize = 0
RCSPrankOneCutsMaxNumPerRound = 100
RCSPrankOneCutsMaxNumRows = -1
RCSPrankOneCutsMemoryType = 2
CutTailingOffThreshold = 0.02
CutTailingOffCounterThreshold = 3
SafeDualBoundScaleFactor = -1
StrongBranchingPhaseOneCandidatesNumber = 100
StrongBranchingPhaseOneTreeSizeEstimRatio = 0.3
StrongBranchingPhaseTwoCandidatesNumber = 1
StrongBranchingPhaseTwoTreeSizeEstimRatio = 0.1
MaxTimeForRestrictedMasterIpHeur = -1
DivingHeurUseDepthLimit = 0
MaxLDSbreadth = 3
MaxLDSdepth = 2
New model incumbent solution 1e+06, TIME = 0h0m0s3t = 3
Model is built TIME = 0h0m1s64t = 164
************************************************************************************************
**** BaB tree root node
**** Local DB = -1e+12, global bounds : [ -1e+12 , 1e+06 ], TIME = 0h0m1s64t = 164
**** 1 open nodes, 0 columns (0 active), 0 dyn. constrs. (0 active), 406 art. vars. (406 active)
************************************************************************************************
<DWph=2> <it= 10> <et=2.93> <Mt= 0.00> <Spt= 1.27> <nCl=1000> <DB=-462339245.2757> <Mlp=169800022.5000> <PB=1000000> 
<DWph=2> <it= 20> <et=4.38> <Mt= 0.03> <Spt= 1.42> <nCl=1000> <DB=-2066083894.4671> <Mlp=105964368.3088> <PB=1000000> 
<DWph=2> <it= 30> <et=6.14> <Mt= 0.08> <Spt= 1.68> <nCl=1000> <DB=-1003282455.3995> <Mlp=89701275.8155> <PB=1000000> 
<DWph=2> <it= 40> <et=8.03> <Mt= 0.13> <Spt= 1.76> <nCl=1000> <DB=-746693441.6305> <Mlp=75753326.7606> <PB=1000000> 
<DWph=2> <it= 50> <et=10.05> <Mt= 0.20> <Spt= 1.82> <nCl=1000> <DB=-307469841.4549> <Mlp=62136375.6415> <PB=1000000> 
<DWph=2> <it= 60> <et=11.98> <Mt= 0.16> <Spt= 1.77> <nCl=1000> <DB=-337118032.0490> <Mlp=53909910.1289> <PB=1000000> 
<DWph=2> <it= 70> <et=13.86> <Mt= 0.16> <Spt= 1.72> <nCl=1000> <DB=-250798623.6114> <Mlp=40781805.5109> <PB=1000000> 
<DWph=2> <it= 80> <et=15.73> <Mt= 0.18> <Spt= 1.69> <nCl=1000> <DB=-213601904.1629> <Mlp=11219426.0406> <PB=1000000> 
<DWph=2> <it= 90> <et=17.77> <Mt= 0.26> <Spt= 1.78> <nCl=796> <DB= -138.9957> <Mlp=   70.0668> <PB=1000000> 
<DWph=2> <it=100> <et=19.51> <Mt= 0.23> <Spt= 1.50> <nCl=1000> <DB=   11.0433> <Mlp=   67.3397> <PB=1000000> 
<DWph=2> <it=110> <et=21.37> <Mt= 0.24> <Spt= 1.49> <nCl=983> <DB=   49.8262> <Mlp=   65.4989> <PB=1000000> 
<DWph=2> <it=120> <et=22.78> <Mt= 0.24> <Spt= 1.16> <nCl=823> <DB=   64.6896> <Mlp=   65.0298> <PB=1000000> 
<DWph=2> <it=127> <et=23.63> <Mt= 0.07> <Spt= 0.78> <nCl= 96> <DB=   65.0230> <Mlp=   65.0230> <PB=1000000> 
<DWph=1> <it=130> <et=24.45> <Mt= 0.05> <Spt= 0.77> <nCl=300> <DB=   64.5267> <Mlp=   65.0093> <PB=1000000> 
<DWph=1> <it=136> <et=26.07> <Mt= 0.08> <Spt= 1.54> <nCl=354> <DB=   65.0010> <Mlp=   65.0010> <PB=1000000> 
<DWph=0> <it=140> <et=29.41> <Mt= 0.06> <Spt= 3.29> <nCl=303> <DB=   64.9498> <Mlp=   65.0001> <PB=1000000> 
<DWph=0> <it=145> <et=32.84> <Mt= 0.04> <Spt= 3.38> <nCl=115> <DB=   65.0000> <Mlp=   65.0000> <PB=1000000> 
Reduced cost fixing for graph G_1... took 10.44 sec., 198664 buck. arcs remain (100% from prev., 34.9% from max.)
Run enumeration... took 0.67 sec. and not succeeded.
ColGenEvalAlg final dual bound: 65 (rounded: 65)
----------- Diving heuristic started -----------
<DWph=2> <it=  1> <et=44.00> <Mt= 0.00> <Spt= 0.00> <nCl=  0> <DB=   65.0000> <Mlp=   65.0000> <PB=1000000> 
<DWph=1> <it=  2> <et=44.01> <Mt= 0.00> <Spt= 0.00> <nCl=  0> <DB=   65.0000> <Mlp=   65.0000> <PB=1000000> 
---- Diving heuristic node with dive number = 0, fix depth = 0 and tabu list size = 0
Fixed projected solution = [x_1_0_1_OspV=1, x_1_67_1_OspV=1, x_1_137_1_OspV=1, x_1_140_1_OspV=1]
<DWph=2> <it=  1> <et=44.08> <Mt= 0.00> <Spt= 0.00> <nCl=  0> <DB=   65.0000> <Mlp=   65.0000> <PB=1000000> 
<DWph=1> <it=  2> <et=44.08> <Mt= 0.01> <Spt= 0.00> <nCl=  0> <DB=   65.0000> <Mlp=   65.0000> <PB=1000000> 
---- Diving heuristic node with dive number = 0, fix depth = 0 and tabu list size = 0
Fixed projected solution = [x_1_0_1_OspV=1, x_1_51_1_OspV=1, x_1_117_1_OspV=1, x_1_160_1_OspV=1]
<DWph=2> <it=  1> <et=44.14> <Mt= 0.00> <Spt= 0.00> <nCl=  0> <DB=   65.0000> <Mlp=   65.0000> <PB=1000000> 
<DWph=1> <it=  2> <et=44.14> <Mt= 0.00> <Spt= 0.00> <nCl=  0> <DB=   65.0000> <Mlp=   65.0000> <PB=1000000> 
---- Diving heuristic node with dive number = 0, fix depth = 0 and tabu list size = 0
Fixed projected solution = [x_1_0_1_OspV=1, x_1_19_1_OspV=1, x_1_79_1_OspV=1, x_1_192_1_OspV=1]
<DWph=2> <it=  1> <et=44.20> <Mt= 0.00> <Spt= 0.00> <nCl=  0> <DB=   65.0000> <Mlp=   65.0000> <PB=1000000> 
<DWph=1> <it=  2> <et=44.20> <Mt= 0.01> <Spt= 0.00> <nCl=  0> <DB=   65.0000> <Mlp=   65.0000> <PB=1000000> 
---- Diving heuristic node with dive number = 0, fix depth = 0 and tabu list size = 0
Fixed projected solution = [x_1_0_1_OspV=1, x_1_44_1_OspV=1, x_1_105_1_OspV=1, x_1_169_1_OspV=1]
<DWph=2> <it=  1> <et=44.27> <Mt= 0.00> <Spt= 0.00> <nCl=  0> <DB=   65.0000> <Mlp=   65.0000> <PB=1000000> 
<DWph=1> <it=  2> <et=44.27> <Mt= 0.00> <Spt= 0.00> <nCl=  0> <DB=   65.0000> <Mlp=   65.0000> <PB=1000000> 
---- Diving heuristic node with dive number = 0, fix depth = 0 and tabu list size = 0
Fixed projected solution = [x_1_0_1_OspV=1, x_1_6_1_OspV=1, x_1_70_1_OspV=1, x_1_202_1_OspV=1]
<DWph=2> <it=  1> <et=44.33> <Mt= 0.01> <Spt= 0.00> <nCl=  0> <DB=   65.0000> <Mlp=   65.0000> <PB=1000000> 
<DWph=1> <it=  2> <et=44.33> <Mt= 0.00> <Spt= 0.00> <nCl=  0> <DB=   65.0000> <Mlp=   65.0000> <PB=1000000> 
---- Diving heuristic node with dive number = 0, fix depth = 0 and tabu list size = 0
Fixed projected solution = [x_1_0_1_OspV=1, x_1_34_1_OspV=1, x_1_97_1_OspV=1, x_1_177_1_OspV=1]
<DWph=2> <it=  1> <et=44.39> <Mt= 0.00> <Spt= 0.00> <nCl=  0> <DB=   65.0000> <Mlp=   65.0000> <PB=1000000> 
<DWph=1> <it=  2> <et=44.39> <Mt= 0.00> <Spt= 0.00> <nCl=  0> <DB=   65.0000> <Mlp=   65.0000> <PB=1000000> 
---- Diving heuristic node with dive number = 0, fix depth = 0 and tabu list size = 0
Fixed projected solution = [x_1_0_1_OspV=1, x_1_21_1_OspV=1, x_1_93_1_OspV=1, x_1_181_1_OspV=1]
<DWph=2> <it=  1> <et=44.45> <Mt= 0.01> <Spt= 0.00> <nCl=  0> <DB=   65.0000> <Mlp=   65.0000> <PB=1000000> 
<DWph=1> <it=  2> <et=44.46> <Mt= 0.00> <Spt= 0.00> <nCl=  0> <DB=   65.0000> <Mlp=   65.0000> <PB=1000000> 
---- Diving heuristic node with dive number = 0, fix depth = 0 and tabu list size = 0
Fixed projected solution = [x_1_0_1_OspV=1, x_1_31_1_OspV=1, x_1_94_1_OspV=1, x_1_179_1_OspV=1]
<DWph=2> <it=  1> <et=44.52> <Mt= 0.00> <Spt= 0.00> <nCl=  0> <DB=   65.0000> <Mlp=   65.0000> <PB=1000000> 
<DWph=1> <it=  2> <et=44.52> <Mt= 0.00> <Spt= 0.00> <nCl=  0> <DB=   65.0000> <Mlp=   65.0000> <PB=1000000> 
---- Diving heuristic node with dive number = 0, fix depth = 0 and tabu list size = 0
Fixed projected solution = [x_1_0_1_OspV=1, x_1_20_1_OspV=1, x_1_84_1_OspV=1, x_1_190_1_OspV=1]
<DWph=2> <it=  1> <et=44.58> <Mt= 0.01> <Spt= 0.00> <nCl=  0> <DB=   65.0000> <Mlp=   65.0000> <PB=1000000> 
<DWph=1> <it=  2> <et=44.58> <Mt= 0.00> <Spt= 0.00> <nCl=  0> <DB=   65.0000> <Mlp=   65.0000> <PB=1000000> 
---- Diving heuristic node with dive number = 0, fix depth = 0 and tabu list size = 0
Fixed projected solution = [x_1_0_1_OspV=1, x_1_30_1_OspV=1, x_1_92_1_OspV=1, x_1_182_1_OspV=1]
<DWph=2> <it=  1> <et=44.64> <Mt= 0.00> <Spt= 0.00> <nCl=  0> <DB=   65.0000> <Mlp=   65.0000> <PB=1000000> 
<DWph=1> <it=  2> <et=44.64> <Mt= 0.01> <Spt= 0.00> <nCl=  0> <DB=   65.0000> <Mlp=   65.0000> <PB=1000000> 
---- Diving heuristic node with dive number = 0, fix depth = 0 and tabu list size = 0
Fixed projected solution = [x_1_0_1_OspV=1, x_1_11_1_OspV=1, x_1_75_1_OspV=1, x_1_197_1_OspV=1]
<DWph=2> <it=  1> <et=44.70> <Mt= 0.00> <Spt= 0.00> <nCl=  0> <DB=   65.0000> <Mlp=   65.0000> <PB=1000000> 
<DWph=1> <it=  2> <et=44.71> <Mt= 0.00> <Spt= 0.00> <nCl=  0> <DB=   65.0000> <Mlp=   65.0000> <PB=1000000> 
---- Diving heuristic node with dive number = 0, fix depth = 0 and tabu list size = 0
Fixed projected solution = [x_1_0_1_OspV=1, x_1_43_1_OspV=1, x_1_103_1_OspV=1, x_1_171_1_OspV=1]
<DWph=2> <it=  1> <et=44.77> <Mt= 0.00> <Spt= 0.00> <nCl=  0> <DB=   65.0000> <Mlp=   65.0000> <PB=1000000> 
<DWph=1> <it=  2> <et=44.77> <Mt= 0.01> <Spt= 0.00> <nCl=  0> <DB=   65.0000> <Mlp=   65.0000> <PB=1000000> 
---- Diving heuristic node with dive number = 0, fix depth = 0 and tabu list size = 0
Fixed projected solution = [x_1_0_1_OspV=1, x_1_9_1_OspV=1, x_1_73_1_OspV=1, x_1_198_1_OspV=1]
<DWph=2> <it=  1> <et=44.83> <Mt= 0.00> <Spt= 0.00> <nCl=  0> <DB=   65.0000> <Mlp=   65.0000> <PB=1000000> 
<DWph=1> <it=  2> <et=44.83> <Mt= 0.00> <Spt= 0.00> <nCl=  0> <DB=   65.0000> <Mlp=   65.0000> <PB=1000000> 
---- Diving heuristic node with dive number = 0, fix depth = 0 and tabu list size = 0
Fixed projected solution = [x_1_0_1_OspV=1, x_1_42_1_OspV=1, x_1_104_1_OspV=1, x_1_170_1_OspV=1]
<DWph=2> <it=  1> <et=44.89> <Mt= 0.01> <Spt= 0.00> <nCl=  0> <DB=   65.0000> <Mlp=   65.0000> <PB=1000000> 
<DWph=1> <it=  2> <et=44.89> <Mt= 0.00> <Spt= 0.00> <nCl=  0> <DB=   65.0000> <Mlp=   65.0000> <PB=1000000> 
---- Diving heuristic node with dive number = 0, fix depth = 0 and tabu list size = 0
Fixed projected solution = [x_1_0_1_OspV=1, x_1_18_1_OspV=1, x_1_77_1_OspV=1, x_1_194_1_OspV=1]
<DWph=2> <it=  1> <et=44.96> <Mt= 0.00> <Spt= 0.00> <nCl=  0> <DB=   65.0000> <Mlp=   65.0000> <PB=1000000> 
<DWph=1> <it=  2> <et=44.96> <Mt= 0.00> <Spt= 0.00> <nCl=  0> <DB=   65.0000> <Mlp=   65.0000> <PB=1000000> 
---- Diving heuristic node with dive number = 0, fix depth = 0 and tabu list size = 0
Fixed projected solution = [x_1_0_1_OspV=1, x_1_32_1_OspV=1, x_1_95_1_OspV=1, x_1_178_1_OspV=1]
<DWph=2> <it=  1> <et=45.02> <Mt= 0.01> <Spt= 0.00> <nCl=  0> <DB=   65.0000> <Mlp=   65.0000> <PB=1000000> 
<DWph=1> <it=  2> <et=45.02> <Mt= 0.00> <Spt= 0.00> <nCl=  0> <DB=   65.0000> <Mlp=   65.0000> <PB=1000000> 
---- Diving heuristic node with dive number = 0, fix depth = 0 and tabu list size = 0
Fixed projected solution = [x_1_0_1_OspV=1, x_1_58_1_OspV=1, x_1_129_1_OspV=1, x_1_147_1_OspV=1]
<DWph=2> <it=  1> <et=45.08> <Mt= 0.00> <Spt= 0.00> <nCl=  0> <DB=   65.0000> <Mlp=   65.0000> <PB=1000000> 
<DWph=1> <it=  2> <et=45.08> <Mt= 0.00> <Spt= 0.00> <nCl=  0> <DB=   65.0000> <Mlp=   65.0000> <PB=1000000> 
---- Diving heuristic node with dive number = 0, fix depth = 0 and tabu list size = 0
Fixed projected solution = [x_1_0_1_OspV=1, x_1_47_1_OspV=1, x_1_110_1_OspV=1, x_1_165_1_OspV=1]
<DWph=2> <it=  1> <et=45.14> <Mt= 0.01> <Spt= 0.00> <nCl=  0> <DB=   65.0000> <Mlp=   65.0000> <PB=1000000> 
<DWph=1> <it=  2> <et=45.14> <Mt= 0.00> <Spt= 0.00> <nCl=  0> <DB=   65.0000> <Mlp=   65.0000> <PB=1000000> 
---- Diving heuristic node with dive number = 0, fix depth = 0 and tabu list size = 0
Fixed projected solution = [x_1_0_1_OspV=1, x_1_52_1_OspV=1, x_1_116_1_OspV=1, x_1_161_1_OspV=1]
<DWph=2> <it=  1> <et=45.21> <Mt= 0.00> <Spt= 0.00> <nCl=  0> <DB=   65.0000> <Mlp=   65.0000> <PB=1000000> 
<DWph=1> <it=  2> <et=45.21> <Mt= 0.00> <Spt= 0.00> <nCl=  0> <DB=   65.0000> <Mlp=   65.0000> <PB=1000000> 
---- Diving heuristic node with dive number = 0, fix depth = 0 and tabu list size = 0
Fixed projected solution = [x_1_0_1_OspV=1, x_1_60_1_OspV=1, x_1_127_1_OspV=1, x_1_149_1_OspV=1]
<DWph=2> <it=  1> <et=45.27> <Mt= 0.01> <Spt= 0.00> <nCl=  0> <DB=   65.0000> <Mlp=   65.0000> <PB=1000000> 
<DWph=1> <it=  2> <et=45.27> <Mt= 0.00> <Spt= 0.00> <nCl=  0> <DB=   65.0000> <Mlp=   65.0000> <PB=1000000> 
---- Diving heuristic node with dive number = 0, fix depth = 0 and tabu list size = 0
Fixed projected solution = [x_1_0_1_OspV=1, x_1_27_1_OspV=1, x_1_88_1_OspV=1, x_1_186_1_OspV=1]
<DWph=2> <it=  1> <et=45.33> <Mt= 0.00> <Spt= 0.00> <nCl=  0> <DB=   65.0000> <Mlp=   65.0000> <PB=1000000> 
<DWph=1> <it=  2> <et=45.33> <Mt= 0.01> <Spt= 0.00> <nCl=  0> <DB=   65.0000> <Mlp=   65.0000> <PB=1000000> 
---- Diving heuristic node with dive number = 0, fix depth = 0 and tabu list size = 0
Fixed projected solution = [x_1_0_1_OspV=1, x_1_10_1_OspV=1, x_1_76_1_OspV=1, x_1_196_1_OspV=1]
<DWph=2> <it=  1> <et=45.39> <Mt= 0.00> <Spt= 0.00> <nCl=  0> <DB=   65.0000> <Mlp=   65.0000> <PB=1000000> 
<DWph=1> <it=  2> <et=45.40> <Mt= 0.00> <Spt= 0.00> <nCl=  0> <DB=   65.0000> <Mlp=   65.0000> <PB=1000000> 
---- Diving heuristic node with dive number = 0, fix depth = 0 and tabu list size = 0
Fixed projected solution = [x_1_0_1_OspV=1, x_1_50_1_OspV=1, x_1_114_1_OspV=1, x_1_162_1_OspV=1]
<DWph=2> <it=  1> <et=45.46> <Mt= 0.01> <Spt= 0.00> <nCl=  0> <DB=   65.0000> <Mlp=   65.0000> <PB=1000000> 
<DWph=1> <it=  2> <et=45.46> <Mt= 0.00> <Spt= 0.00> <nCl=  0> <DB=   65.0000> <Mlp=   65.0000> <PB=1000000> 
---- Diving heuristic node with dive number = 0, fix depth = 0 and tabu list size = 0
Fixed projected solution = [x_1_0_1_OspV=1, x_1_63_1_OspV=1, x_1_130_1_OspV=1, x_1_146_1_OspV=1]
<DWph=2> <it=  1> <et=45.52> <Mt= 0.00> <Spt= 0.00> <nCl=  0> <DB=   65.0000> <Mlp=   65.0000> <PB=1000000> 
<DWph=1> <it=  2> <et=45.52> <Mt= 0.00> <Spt= 0.00> <nCl=  0> <DB=   65.0000> <Mlp=   65.0000> <PB=1000000> 
---- Diving heuristic node with dive number = 0, fix depth = 1 and tabu list size = 0
Fixed projected solution = [x_1_0_1_OspV=1, x_1_25_1_OspV=1, x_1_86_1_OspV=1, x_1_187_1_OspV=1]
<DWph=2> <it=  1> <et=45.57> <Mt= 0.01> <Spt= 0.00> <nCl=  0> <DB=   65.0000> <Mlp=   65.0000> <PB=1000000> 
<DWph=1> <it=  2> <et=45.57> <Mt= 0.00> <Spt= 0.00> <nCl=  0> <DB=   65.0000> <Mlp=   65.0000> <PB=1000000> 
---- Diving heuristic node with dive number = 0, fix depth = 2 and tabu list size = 0
Fixed projected solution = [x_1_0_1_OspV=1, x_1_45_1_OspV=1, x_1_107_1_OspV=1, x_1_167_1_OspV=1]
<DWph=2> <it=  1> <et=45.63> <Mt= 0.00> <Spt= 0.00> <nCl=  0> <DB=   65.0000> <Mlp=   65.0000> <PB=1000000> 
<DWph=1> <it=  2> <et=45.63> <Mt= 0.00> <Spt= 0.00> <nCl=  0> <DB=   65.0000> <Mlp=   65.0000> <PB=1000000> 
---- Diving heuristic node with dive number = 0, fix depth = 3 and tabu list size = 0
Fixed projected solution = [x_1_0_1_OspV=1, x_1_53_1_OspV=1, x_1_119_1_OspV=1, x_1_158_1_OspV=1]
<DWph=2> <it=  1> <et=45.66> <Mt= 0.02> <Spt= 0.00> <nCl=  0> <DB=   65.0000> <Mlp=   65.0000> <PB=1000000> 
<DWph=1> <it=  2> <et=45.66> <Mt= 0.00> <Spt= 0.00> <nCl=  0> <DB=   65.0000> <Mlp=   65.0000> <PB=1000000> 
---- Diving heuristic node with dive number = 0, fix depth = 3 and tabu list size = 0
Fixed projected solution = [x_1_0_1_OspV=1, x_1_54_1_OspV=1, x_1_118_1_OspV=1, x_1_159_1_OspV=1]
<DWph=2> <it=  1> <et=45.68> <Mt= 0.00> <Spt= 0.00> <nCl=  0> <DB=   65.0000> <Mlp=   65.0000> <PB=1000000> 
<DWph=1> <it=  2> <et=45.68> <Mt= 0.00> <Spt= 0.00> <nCl=  0> <DB=   65.0000> <Mlp=   65.0000> <PB=1000000> 
---- Diving heuristic node with dive number = 0, fix depth = 4 and tabu list size = 0
Fixed projected solution = [x_1_0_1_OspV=1, x_1_12_1_OspV=1, x_1_81_1_OspV=1, x_1_191_1_OspV=1]
<DWph=2> <it=  1> <et=45.70> <Mt= 0.01> <Spt= 0.00> <nCl=  0> <DB=   65.0000> <Mlp=   65.0000> <PB=1000000> 
<DWph=1> <it=  2> <et=45.70> <Mt= 0.01> <Spt= 0.00> <nCl=  0> <DB=   65.0000> <Mlp=   65.0000> <PB=1000000> 
---- Diving heuristic node with dive number = 0, fix depth = 5 and tabu list size = 0
Fixed projected solution = [x_1_0_1_OspV=1, x_1_7_1_OspV=1, x_1_72_1_OspV=1, x_1_200_1_OspV=1]
<DWph=2> <it=  1> <et=45.73> <Mt= 0.01> <Spt= 0.00> <nCl=  0> <DB=   65.0000> <Mlp=   65.0000> <PB=1000000> 
<DWph=1> <it=  2> <et=45.73> <Mt= 0.00> <Spt= 0.00> <nCl=  0> <DB=   65.0000> <Mlp=   65.0000> <PB=1000000> 
---- Diving heuristic node with dive number = 0, fix depth = 6 and tabu list size = 0
Fixed projected solution = [x_1_0_1_OspV=1, x_1_56_1_OspV=1, x_1_120_1_OspV=1, x_1_155_1_OspV=1]
<DWph=2> <it=  1> <et=45.76> <Mt= 0.02> <Spt= 0.00> <nCl=  0> <DB=   65.0000> <Mlp=   65.0000> <PB=1000000> 
<DWph=1> <it=  2> <et=45.76> <Mt= 0.00> <Spt= 0.00> <nCl=  0> <DB=   65.0000> <Mlp=   65.0000> <PB=1000000> 
---- Diving heuristic node with dive number = 0, fix depth = 7 and tabu list size = 0
Fixed projected solution = [x_1_0_1_OspV=1, x_1_46_1_OspV=1, x_1_124_1_OspV=1, x_1_152_1_OspV=1]
<DWph=2> <it=  1> <et=45.79> <Mt= 0.02> <Spt= 0.00> <nCl=  0> <DB=   65.0000> <Mlp=   65.0000> <PB=1000000> 
<DWph=1> <it=  2> <et=45.79> <Mt= 0.01> <Spt= 0.00> <nCl=  0> <DB=   65.0000> <Mlp=   65.0000> <PB=1000000> 
---- Diving heuristic node with dive number = 0, fix depth = 8 and tabu list size = 0
Fixed projected solution = [x_1_0_1_OspV=1, x_1_16_1_OspV=1, x_1_78_1_OspV=1, x_1_195_1_OspV=1]
<DWph=2> <it=  1> <et=45.82> <Mt= 0.01> <Spt= 0.00> <nCl=  0> <DB=   65.0000> <Mlp=   65.0000> <PB=1000000> 
<DWph=1> <it=  2> <et=45.82> <Mt= 0.00> <Spt= 0.00> <nCl=  0> <DB=   65.0000> <Mlp=   65.0000> <PB=1000000> 
---- Diving heuristic node with dive number = 0, fix depth = 9 and tabu list size = 0
Fixed projected solution = [x_1_0_1_OspV=1, x_1_14_1_OspV=1, x_1_87_1_OspV=1, x_1_189_1_OspV=1]
<DWph=2> <it=  1> <et=45.85> <Mt= 0.02> <Spt= 0.00> <nCl=  0> <DB=   65.0000> <Mlp=   65.0000> <PB=1000000> 
<DWph=1> <it=  2> <et=45.85> <Mt= 0.00> <Spt= 0.00> <nCl=  0> <DB=   65.0000> <Mlp=   65.0000> <PB=1000000> 
---- Diving heuristic node with dive number = 0, fix depth = 10 and tabu list size = 0
Fixed projected solution = [x_1_0_1_OspV=1, x_1_55_1_OspV=1, x_1_121_1_OspV=1, x_1_154_1_OspV=1]
<DWph=2> <it=  1> <et=45.89> <Mt= 0.02> <Spt= 0.00> <nCl=  0> <DB=   65.0000> <Mlp=   65.0000> <PB=1000000> 
<DWph=1> <it=  2> <et=45.89> <Mt= 0.00> <Spt= 0.00> <nCl=  0> <DB=   65.0000> <Mlp=   65.0000> <PB=1000000> 
---- Diving heuristic node with dive number = 0, fix depth = 11 and tabu list size = 0
Fixed projected solution = [x_1_0_1_OspV=1, x_1_59_1_OspV=1, x_1_125_1_OspV=1, x_1_150_1_OspV=1]
<DWph=2> <it=  1> <et=45.92> <Mt= 0.02> <Spt= 0.00> <nCl=  0> <DB=   65.0000> <Mlp=   65.0000> <PB=1000000> 
<DWph=1> <it=  2> <et=45.92> <Mt= 0.00> <Spt= 0.00> <nCl=  0> <DB=   65.0000> <Mlp=   65.0000> <PB=1000000> 
---- Diving heuristic node with dive number = 0, fix depth = 12 and tabu list size = 0
Fixed projected solution = [x_1_0_1_OspV=1, x_1_49_1_OspV=1, x_1_112_1_OspV=1, x_1_164_1_OspV=1]
<DWph=2> <it=  1> <et=45.94> <Mt= 0.02> <Spt= 0.00> <nCl=  0> <DB=   65.0000> <Mlp=   65.0000> <PB=1000000> 
<DWph=1> <it=  2> <et=45.94> <Mt= 0.00> <Spt= 0.00> <nCl=  0> <DB=   65.0000> <Mlp=   65.0000> <PB=1000000> 
---- Diving heuristic node with dive number = 0, fix depth = 13 and tabu list size = 0
Fixed projected solution = [x_1_0_1_OspV=1, x_1_48_1_OspV=1, x_1_113_1_OspV=1, x_1_163_1_OspV=1]
<DWph=2> <it=  1> <et=45.96> <Mt= 0.00> <Spt= 0.00> <nCl=  0> <DB=   65.0000> <Mlp=   65.0000> <PB=1000000> 
<DWph=1> <it=  2> <et=45.96> <Mt= 0.00> <Spt= 0.00> <nCl=  0> <DB=   65.0000> <Mlp=   65.0000> <PB=1000000> 
---- Diving heuristic node with dive number = 0, fix depth = 14 and tabu list size = 0
Fixed projected solution = [x_1_0_1_OspV=1, x_1_28_1_OspV=1, x_1_89_1_OspV=1, x_1_185_1_OspV=1]
<DWph=2> <it=  1> <et=46.02> <Mt= 0.05> <Spt= 0.00> <nCl=  0> <DB=   65.0000> <Mlp=   65.0000> <PB=1000000> 
<DWph=1> <it=  2> <et=46.02> <Mt= 0.00> <Spt= 0.00> <nCl=  0> <DB=   65.0000> <Mlp=   65.0000> <PB=1000000> 
---- Diving heuristic node with dive number = 0, fix depth = 15 and tabu list size = 0
Fixed projected solution = [x_1_0_1_OspV=1, x_1_69_1_OspV=1, x_1_138_1_OspV=1, x_1_139_1_OspV=1]
<DWph=2> <it=  6> <et=46.78> <Mt= 0.17> <Spt= 0.55> <nCl=500> <DB=   64.7841> <Mlp=   65.0000> <PB=1000000> 
<DWph=1> <it=  7> <et=46.78> <Mt= 0.00> <Spt= 0.00> <nCl=  0> <DB=   65.0000> <Mlp=   65.0000> <PB=1000000> 
---- Diving heuristic node with dive number = 0, fix depth = 15 and tabu list size = 0
Fixed projected solution = [x_1_0_1_OspV=1, x_1_5_1_OspV=1, x_1_71_1_OspV=1, x_1_201_1_OspV=1]
<DWph=2> <it=  1> <et=46.80> <Mt= 0.00> <Spt= 0.00> <nCl=  0> <DB=   65.0000> <Mlp=   65.0000> <PB=1000000> 
<DWph=1> <it=  2> <et=46.80> <Mt= 0.00> <Spt= 0.00> <nCl=  0> <DB=   65.0000> <Mlp=   65.0000> <PB=1000000> 
---- Diving heuristic node with dive number = 0, fix depth = 15 and tabu list size = 0
Fixed projected solution = [x_1_0_1_OspV=1, x_1_29_1_OspV=1, x_1_91_1_OspV=1, x_1_183_1_OspV=1]
<DWph=2> <it=  1> <et=46.81> <Mt= 0.00> <Spt= 0.00> <nCl=  0> <DB=   65.0000> <Mlp=   65.0000> <PB=1000000> 
<DWph=1> <it=  2> <et=46.81> <Mt= 0.00> <Spt= 0.00> <nCl=  0> <DB=   65.0000> <Mlp=   65.0000> <PB=1000000> 
---- Diving heuristic node with dive number = 0, fix depth = 16 and tabu list size = 0
Fixed projected solution = [x_1_0_1_OspV=1, x_1_39_1_OspV=1, x_1_106_1_OspV=1, x_1_168_1_OspV=1]
<DWph=2> <it= 10> <et=48.17> <Mt= 0.14> <Spt= 1.21> <nCl=477> <DB=   64.9960> <Mlp=   65.0001> <PB=1000000> 
<DWph=2> <it= 14> <et=48.75> <Mt= 0.03> <Spt= 0.55> <nCl= 54> <DB=   64.9513> <Mlp=   65.0000> <PB=1000000> 
<DWph=1> <it= 16> <et=49.02> <Mt= 0.02> <Spt= 0.25> <nCl= 88> <DB=   64.9566> <Mlp=   65.0000> <PB=1000000> 
---- Diving heuristic node with dive number = 0, fix depth = 17 and tabu list size = 0
Fixed projected solution = [x_1_0_1_OspV=1, x_1_68_1_OspV=1, x_1_136_1_OspV=1, x_1_141_1_OspV=1]
<DWph=2> <it=  1> <et=49.05> <Mt= 0.00> <Spt= 0.00> <nCl=  0> <DB=   65.0000> <Mlp=   65.0000> <PB=1000000> 
<DWph=1> <it=  2> <et=49.05> <Mt= 0.00> <Spt= 0.00> <nCl=  0> <DB=   65.0000> <Mlp=   65.0000> <PB=1000000> 
---- Diving heuristic node with dive number = 0, fix depth = 17 and tabu list size = 0
Fixed projected solution = [x_1_0_1_OspV=1, x_1_15_1_OspV=1, x_1_123_1_OspV=1, x_1_156_1_OspV=1]
<DWph=2> <it=  1> <et=49.06> <Mt= 0.01> <Spt= 0.00> <nCl=  0> <DB=   65.0000> <Mlp=   65.0000> <PB=1000000> 
<DWph=1> <it=  2> <et=49.07> <Mt= 0.00> <Spt= 0.00> <nCl=  0> <DB=   65.0000> <Mlp=   65.0000> <PB=1000000> 
---- Diving heuristic node with dive number = 0, fix depth = 18 and tabu list size = 0
Fixed projected solution = [x_1_0_1_OspV=1, x_1_64_1_OspV=1, x_1_133_1_OspV=1, x_1_144_1_OspV=1]
<DWph=2> <it=  3> <et=49.44> <Mt= 0.14> <Spt= 0.22> <nCl=200> <DB=   64.8838> <Mlp=   65.0000> <PB=1000000> 
<DWph=1> <it=  4> <et=49.44> <Mt= 0.00> <Spt= 0.00> <nCl=  0> <DB=   65.0000> <Mlp=   65.0000> <PB=1000000> 
---- Diving heuristic node with dive number = 0, fix depth = 19 and tabu list size = 0
Fixed projected solution = [x_1_0_1_OspV=1, x_1_4_1_OspV=1, x_1_99_1_OspV=1, x_1_180_1_OspV=1]
<DWph=2> <it= 10> <et=50.79> <Mt= 0.12> <Spt= 1.21> <nCl=138> <DB=   64.9649> <Mlp=   65.0000> <PB=1000000> 
<DWph=2> <it= 20> <et=52.06> <Mt= 0.05> <Spt= 1.21> <nCl= 40> <DB=   64.9913> <Mlp=   65.0000> <PB=1000000> 
<DWph=2> <it= 21> <et=52.06> <Mt= 0.01> <Spt= 0.00> <nCl=  0> <DB=   64.9913> <Mlp=   65.0000> <PB=1000000> 
<DWph=1> <it= 22> <et=52.07> <Mt= 0.00> <Spt= 0.00> <nCl=  0> <DB=   65.0000> <Mlp=   65.0000> <PB=1000000> 
---- Diving heuristic node with dive number = 0, fix depth = 19 and tabu list size = 0
Fixed projected solution = [x_1_0_1_OspV=1, x_1_37_1_OspV=1, x_1_101_1_OspV=1, x_1_174_1_OspV=1]
<DWph=2> <it=  1> <et=52.09> <Mt= 0.00> <Spt= 0.00> <nCl=  0> <DB=   65.0000> <Mlp=   65.0000> <PB=1000000> 
<DWph=1> <it=  2> <et=52.09> <Mt= 0.00> <Spt= 0.00> <nCl=  0> <DB=   65.0000> <Mlp=   65.0000> <PB=1000000> 
---- Diving heuristic node with dive number = 0, fix depth = 19 and tabu list size = 0
Fixed projected solution = [x_1_0_1_OspV=1, x_1_38_1_OspV=1, x_1_100_1_OspV=1, x_1_175_1_OspV=1]
<DWph=2> <it=  1> <et=52.10> <Mt= 0.01> <Spt= 0.00> <nCl=  0> <DB=   65.0000> <Mlp=   65.0000> <PB=1000000> 
<DWph=1> <it=  2> <et=52.11> <Mt= 0.00> <Spt= 0.00> <nCl=  0> <DB=   65.0000> <Mlp=   65.0000> <PB=1000000> 
---- Diving heuristic node with dive number = 0, fix depth = 20 and tabu list size = 0
Fixed projected solution = [x_1_0_1_OspV=1, x_1_22_1_OspV=1, x_1_90_1_OspV=1, x_1_184_1_OspV=1]
<DWph=2> <it=  5> <et=52.61> <Mt= 0.04> <Spt= 0.44> <nCl= 31> <DB=   64.9866> <Mlp=   65.0000> <PB=1000000> 
<DWph=1> <it=  6> <et=52.61> <Mt= 0.00> <Spt= 0.00> <nCl=  0> <DB=   65.0000> <Mlp=   65.0000> <PB=1000000> 
---- Diving heuristic node with dive number = 0, fix depth = 21 and tabu list size = 0
Fixed projected solution = [x_1_0_1_OspV=1, x_1_23_1_OspV=1, x_1_85_1_OspV=1, x_1_188_1_OspV=1]
<DWph=2> <it=  1> <et=52.63> <Mt= 0.01> <Spt= 0.00> <nCl=  0> <DB=   65.0000> <Mlp=   65.0000> <PB=1000000> 
<DWph=1> <it=  2> <et=52.63> <Mt= 0.00> <Spt= 0.00> <nCl=  0> <DB=   65.0000> <Mlp=   65.0000> <PB=1000000> 
---- Diving heuristic node with dive number = 0, fix depth = 22 and tabu list size = 0
Fixed projected solution = [x_1_0_1_OspV=1, x_1_13_1_OspV=1, x_1_80_1_OspV=1, x_1_193_1_OspV=1]
<DWph=2> <it=  6> <et=53.50> <Mt= 0.20> <Spt= 0.65> <nCl=500> <DB=   62.5449> <Mlp=   65.0000> <PB=1000000> 
<DWph=1> <it=  7> <et=53.50> <Mt= 0.00> <Spt= 0.00> <nCl=  0> <DB=   65.0000> <Mlp=   65.0000> <PB=1000000> 
---- Diving heuristic node with dive number = 0, fix depth = 22 and tabu list size = 0
Fixed projected solution = [x_1_0_1_OspV=1, x_1_57_1_OspV=1, x_1_122_1_OspV=1, x_1_153_1_OspV=1]
<DWph=2> <it=  1> <et=53.52> <Mt= 0.00> <Spt= 0.00> <nCl=  0> <DB=   65.0000> <Mlp=   65.0000> <PB=1000000> 
<DWph=1> <it=  2> <et=53.52> <Mt= 0.00> <Spt= 0.00> <nCl=  0> <DB=   65.0000> <Mlp=   65.0000> <PB=1000000> 
---- Diving heuristic node with dive number = 0, fix depth = 22 and tabu list size = 0
Fixed projected solution = [x_1_0_1_OspV=1, x_1_1_1_OspV=1, x_1_115_1_OspV=1, x_1_166_1_OspV=1]
<DWph=2> <it=  1> <et=53.54> <Mt= 0.01> <Spt= 0.00> <nCl=  0> <DB=   65.0000> <Mlp=   65.0000> <PB=1000000> 
<DWph=1> <it=  2> <et=53.54> <Mt= 0.00> <Spt= 0.00> <nCl=  0> <DB=   65.0000> <Mlp=   65.0000> <PB=1000000> 
---- Diving heuristic node with dive number = 0, fix depth = 22 and tabu list size = 0
Fixed projected solution = [x_1_0_1_OspV=1, x_1_8_1_OspV=1, x_1_74_1_OspV=1, x_1_199_1_OspV=1]
<DWph=2> <it=  1> <et=53.56> <Mt= 0.00> <Spt= 0.00> <nCl=  0> <DB=   65.0000> <Mlp=   65.0000> <PB=1000000> 
<DWph=1> <it=  2> <et=53.56> <Mt= 0.00> <Spt= 0.00> <nCl=  0> <DB=   65.0000> <Mlp=   65.0000> <PB=1000000> 
---- Diving heuristic node with dive number = 0, fix depth = 22 and tabu list size = 0
Fixed projected solution = [x_1_0_1_OspV=1, x_1_33_1_OspV=1, x_1_98_1_OspV=1, x_1_176_1_OspV=1]
<DWph=2> <it=  1> <et=53.58> <Mt= 0.01> <Spt= 0.00> <nCl=  0> <DB=   65.0000> <Mlp=   65.0000> <PB=1000000> 
<DWph=1> <it=  2> <et=53.58> <Mt= 0.00> <Spt= 0.00> <nCl=  0> <DB=   65.0000> <Mlp=   65.0000> <PB=1000000> 
---- Diving heuristic node with dive number = 0, fix depth = 22 and tabu list size = 0
Fixed projected solution = [x_1_0_1_OspV=1, x_1_65_1_OspV=1, x_1_132_1_OspV=1, x_1_143_1_OspV=1]
<DWph=2> <it=  1> <et=53.60> <Mt= 0.00> <Spt= 0.00> <nCl=  0> <DB=   65.0000> <Mlp=   65.0000> <PB=1000000> 
<DWph=1> <it=  2> <et=53.60> <Mt= 0.00> <Spt= 0.00> <nCl=  0> <DB=   65.0000> <Mlp=   65.0000> <PB=1000000> 
---- Diving heuristic node with dive number = 0, fix depth = 22 and tabu list size = 0
Fixed projected solution = [x_1_0_1_OspV=1, x_1_61_1_OspV=1, x_1_128_1_OspV=1, x_1_148_1_OspV=1]
<DWph=2> <it=  1> <et=53.62> <Mt= 0.00> <Spt= 0.00> <nCl=  0> <DB=   65.0000> <Mlp=   65.0000> <PB=1000000> 
<DWph=1> <it=  2> <et=53.62> <Mt= 0.00> <Spt= 0.00> <nCl=  0> <DB=   65.0000> <Mlp=   65.0000> <PB=1000000> 
---- Diving heuristic node with dive number = 0, fix depth = 22 and tabu list size = 0
Fixed projected solution = [x_1_0_1_OspV=1, x_1_66_1_OspV=1, x_1_134_1_OspV=1, x_1_142_1_OspV=1]
<DWph=2> <it=  1> <et=53.64> <Mt= 0.01> <Spt= 0.00> <nCl=  0> <DB=   65.0000> <Mlp=   65.0000> <PB=1000000> 
<DWph=1> <it=  2> <et=53.64> <Mt= 0.00> <Spt= 0.00> <nCl=  0> <DB=   65.0000> <Mlp=   65.0000> <PB=1000000> 
---- Diving heuristic node with dive number = 0, fix depth = 22 and tabu list size = 0
Fixed projected solution = [x_1_0_1_OspV=1, x_1_62_1_OspV=1, x_1_131_1_OspV=1, x_1_145_1_OspV=1]
<DWph=2> <it=  1> <et=53.66> <Mt= 0.00> <Spt= 0.00> <nCl=  0> <DB=   65.0000> <Mlp=   65.0000> <PB=1000000> 
<DWph=1> <it=  2> <et=53.66> <Mt= 0.00> <Spt= 0.00> <nCl=  0> <DB=   65.0000> <Mlp=   65.0000> <PB=1000000> 
---- Diving heuristic node with dive number = 0, fix depth = 23 and tabu list size = 0
Fixed projected solution = [x_1_0_1_OspV=1, x_1_24_1_OspV=1, x_1_108_1_OspV=1, x_1_172_1_OspV=1]
<DWph=2> <it= 10> <et=56.43> <Mt= 1.01> <Spt= 1.75> <nCl=1000> <DB=-37494902.2864> <Mlp=527408.8086> <PB=1000000> 
<DWph=2> <it= 20> <et=59.05> <Mt= 0.66> <Spt= 1.88> <nCl=1000> <DB=-8628681.1758> <Mlp=104036.2022> <PB=1000000> 
<DWph=2> <it= 30> <et=60.49> <Mt= 0.42> <Spt= 1.02> <nCl=650> <DB=   64.8404> <Mlp=   65.0000> <PB=65> 
SEARCH IS INTERRUPTED as the time limit is reached. 
New model incumbent solution 65, TIME = 0h1m0s50t = 6050
************************************************************************************************
Search is finished, global bounds : [ 65 , 65 ], TIME = 0h1m0s51t = 6051
************************************************************************************************
[32mBaPCod : solution defined.[00m
statistics_cols: instance & :Optimal & cutoff & :bcRecRootDb & :bcTimeRootEval & :bcCountNodeProc & :bcRecBestDb & :bcRecBestInc & :bcTimeMain \\
statistics: 201_2500_DI_44 & 1 & 1.0e6 & 65.00 & 44.00 & 1 & 65.00 & 65 & 60.51 \\
########################################################
bin_id=1: 142(0) 721(1) 1173(1) 
bin_id=2: 168(0) 847(1) 1021(1) 
bin_id=3: 28(0) 334(1) 1674(1) 
bin_id=4: 98(0) 499(1) 1439(1) 
bin_id=5: 48(0) 417(1) 1571(1) 
bin_id=6: 48(0) 289(1) 1699(1) 
bin_id=7: 40(0) 214(1) 1782(1) 
bin_id=8: 76(0) 402(1) 1558(1) 
bin_id=9: 42(0) 217(1) 1777(1) 
bin_id=10: 78(0) 399(1) 1559(1) 
bin_id=11: 80(0) 407(1) 1549(1) 
bin_id=12: 34(0) 173(1) 1829(1) 
bin_id=13: 64(0) 323(1) 1649(1) 
bin_id=14: 168(0) 849(1) 1019(1) 
bin_id=15: 46(0) 311(1) 1679(1) 
bin_id=16: 96(0) 482(1) 1458(1) 
bin_id=17: 100(0) 522(1) 1414(1) 
bin_id=18: 36(0) 191(1) 1809(1) 
bin_id=19: 40(0) 244(1) 1752(1) 
bin_id=20: 118(0) 591(1) 1327(1) 
bin_id=21: 62(0) 311(1) 1663(1) 
bin_id=22: 4(0) 493(1) 1539(1) 
bin_id=23: 76(0) 382(1) 1578(1) 
bin_id=24: 44(0) 229(1) 1763(1) 
bin_id=25: 48(0) 242(1) 1746(1) 
bin_id=26: 58(0) 295(1) 1683(1) 
bin_id=27: 38(0) 197(1) 1801(1) 
bin_id=28: 168(0) 846(1) 1022(1) 
bin_id=29: 78(0) 391(1) 1567(1) 
bin_id=30: 38(0) 193(1) 1805(1) 
bin_id=31: 72(0) 366(1) 1598(1) 
bin_id=32: 36(0) 194(1) 1806(1) 
bin_id=33: 78(0) 395(1) 1563(1) 
bin_id=34: 42(0) 213(1) 1781(1) 
bin_id=35: 62(0) 315(1) 1659(1) 
bin_id=36: 48(0) 243(1) 1745(1) 
bin_id=37: 130(0) 713(1) 1193(1) 
bin_id=38: 116(0) 581(1) 1339(1) 
bin_id=39: 88(0) 450(1) 1498(1) 
bin_id=40: 98(0) 495(1) 1443(1) 
bin_id=41: 100(0) 507(1) 1429(1) 
bin_id=42: 64(0) 334(1) 1638(1) 
bin_id=43: 96(0) 481(1) 1459(1) 
bin_id=44: 40(0) 606(1) 1390(1) 
bin_id=45: 136(0) 691(1) 1209(1) 
bin_id=46: 40(0) 218(1) 1778(1) 
bin_id=47: 50(0) 257(1) 1729(1) 
bin_id=48: 144(0) 721(1) 1171(1) 
bin_id=49: 32(0) 178(1) 1826(1) 
bin_id=50: 52(0) 278(1) 1706(1) 
bin_id=51: 40(0) 220(1) 1776(1) 
bin_id=52: 38(0) 201(1) 1797(1) 
bin_id=53: 56(0) 294(1) 1686(1) 
bin_id=54: 138(0) 701(1) 1197(1) 
bin_id=55: 756(0) 1280(1) 
bin_id=56: 98(0) 491(1) 1447(1) 
bin_id=57: 142(0) 713(1) 1181(1) 
bin_id=58: 116(0) 590(1) 1330(1) 
bin_id=59: 84(0) 650(1) 1302(1) 
bin_id=60: 20(0) 64(1) 76(0) 472(1) 1404(1) 
bin_id=61: 72(0) 361(1) 1603(1) 
bin_id=62: 132(0) 678(1) 1226(1) 
bin_id=63: 148(0) 754(1) 1134(1) 
bin_id=64: 142(0) 717(1) 1177(1) 
bin_id=65: 4(0) 40(0) 48(0) 64(0) 228(0) 228(1) 316(1) 424(1) 684(1) 
Objective value: 65.0
########################################################
