Application parameters:
  batch  =>  nothing
  instance  =>  "/IN/201_2500_DI_5.txt-Q2Half"
  ub  =>  1.0e6
  cfg  =>  "/CFG/BPP.cfg"
data = Colored Bin Packing dataset.
number of items = 202
number of colors = 2
capacity = 2456
Items : 
	 item 1, weight= 2, color= 0
	 item 2, weight= 8, color= 0
	 item 3, weight= 8, color= 0
	 item 4, weight= 16, color= 0
	 item 5, weight= 20, color= 0
	 item 6, weight= 24, color= 0
	 item 7, weight= 28, color= 0
	 item 8, weight= 32, color= 0
	 item 9, weight= 40, color= 0
	 item 10, weight= 44, color= 0
	 item 11, weight= 48, color= 0
	 item 12, weight= 48, color= 0
	 item 13, weight= 48, color= 0
	 item 14, weight= 48, color= 0
	 item 15, weight= 48, color= 0
	 item 16, weight= 50, color= 0
	 item 17, weight= 56, color= 0
	 item 18, weight= 56, color= 0
	 item 19, weight= 56, color= 0
	 item 20, weight= 56, color= 0
	 item 21, weight= 64, color= 0
	 item 22, weight= 64, color= 0
	 item 23, weight= 64, color= 0
	 item 24, weight= 64, color= 0
	 item 25, weight= 74, color= 0
	 item 26, weight= 76, color= 0
	 item 27, weight= 76, color= 0
	 item 28, weight= 76, color= 0
	 item 29, weight= 80, color= 0
	 item 30, weight= 80, color= 0
	 item 31, weight= 88, color= 0
	 item 32, weight= 88, color= 0
	 item 33, weight= 88, color= 0
	 item 34, weight= 88, color= 0
	 item 35, weight= 88, color= 0
	 item 36, weight= 88, color= 0
	 item 37, weight= 88, color= 0
	 item 38, weight= 90, color= 0
	 item 39, weight= 90, color= 0
	 item 40, weight= 92, color= 0
	 item 41, weight= 96, color= 0
	 item 42, weight= 104, color= 0
	 item 43, weight= 104, color= 0
	 item 44, weight= 106, color= 0
	 item 45, weight= 106, color= 0
	 item 46, weight= 108, color= 1
	 item 47, weight= 112, color= 0
	 item 48, weight= 120, color= 0
	 item 49, weight= 120, color= 0
	 item 50, weight= 124, color= 0
	 item 51, weight= 126, color= 0
	 item 52, weight= 126, color= 0
	 item 53, weight= 128, color= 0
	 item 54, weight= 128, color= 0
	 item 55, weight= 144, color= 0
	 item 56, weight= 144, color= 0
	 item 57, weight= 144, color= 1
	 item 58, weight= 148, color= 0
	 item 59, weight= 148, color= 0
	 item 60, weight= 152, color= 0
	 item 61, weight= 160, color= 0
	 item 62, weight= 164, color= 1
	 item 63, weight= 172, color= 0
	 item 64, weight= 176, color= 0
	 item 65, weight= 200, color= 0
	 item 66, weight= 200, color= 0
	 item 67, weight= 204, color= 0
	 item 68, weight= 204, color= 0
	 item 69, weight= 204, color= 0
	 item 70, weight= 226, color= 0
	 item 71, weight= 226, color= 1
	 item 72, weight= 228, color= 0
	 item 73, weight= 232, color= 1
	 item 74, weight= 242, color= 1
	 item 75, weight= 253, color= 1
	 item 76, weight= 260, color= 1
	 item 77, weight= 262, color= 1
	 item 78, weight= 272, color= 1
	 item 79, weight= 280, color= 0
	 item 80, weight= 282, color= 1
	 item 81, weight= 289, color= 1
	 item 82, weight= 300, color= 1
	 item 83, weight= 330, color= 1
	 item 84, weight= 330, color= 1
	 item 85, weight= 331, color= 1
	 item 86, weight= 342, color= 1
	 item 87, weight= 348, color= 1
	 item 88, weight= 381, color= 1
	 item 89, weight= 384, color= 1
	 item 90, weight= 386, color= 1
	 item 91, weight= 389, color= 1
	 item 92, weight= 398, color= 1
	 item 93, weight= 402, color= 0
	 item 94, weight= 404, color= 1
	 item 95, weight= 436, color= 1
	 item 96, weight= 443, color= 1
	 item 97, weight= 444, color= 1
	 item 98, weight= 449, color= 1
	 item 99, weight= 453, color= 1
	 item 100, weight= 457, color= 1
	 item 101, weight= 458, color= 1
	 item 102, weight= 460, color= 1
	 item 103, weight= 470, color= 1
	 item 104, weight= 476, color= 0
	 item 105, weight= 512, color= 1
	 item 106, weight= 524, color= 1
	 item 107, weight= 525, color= 1
	 item 108, weight= 535, color= 1
	 item 109, weight= 539, color= 1
	 item 110, weight= 542, color= 1
	 item 111, weight= 554, color= 1
	 item 112, weight= 568, color= 1
	 item 113, weight= 580, color= 1
	 item 114, weight= 618, color= 1
	 item 115, weight= 620, color= 1
	 item 116, weight= 631, color= 1
	 item 117, weight= 633, color= 1
	 item 118, weight= 637, color= 1
	 item 119, weight= 654, color= 1
	 item 120, weight= 684, color= 1
	 item 121, weight= 729, color= 1
	 item 122, weight= 730, color= 1
	 item 123, weight= 751, color= 1
	 item 124, weight= 756, color= 1
	 item 125, weight= 774, color= 1
	 item 126, weight= 828, color= 1
	 item 127, weight= 840, color= 1
	 item 128, weight= 861, color= 1
	 item 129, weight= 866, color= 1
	 item 130, weight= 887, color= 1
	 item 131, weight= 916, color= 1
	 item 132, weight= 918, color= 1
	 item 133, weight= 976, color= 1
	 item 134, weight= 1018, color= 1
	 item 135, weight= 1020, color= 1
	 item 136, weight= 1021, color= 1
	 item 137, weight= 1022, color= 1
	 item 138, weight= 1023, color= 1
	 item 139, weight= 1229, color= 1
	 item 140, weight= 1230, color= 1
	 item 141, weight= 1231, color= 1
	 item 142, weight= 1236, color= 1
	 item 143, weight= 1238, color= 1
	 item 144, weight= 1364, color= 1
	 item 145, weight= 1421, color= 1
	 item 146, weight= 1423, color= 1
	 item 147, weight= 1426, color= 1
	 item 148, weight= 1442, color= 1
	 item 149, weight= 1468, color= 1
	 item 150, weight= 1530, color= 1
	 item 151, weight= 1536, color= 1
	 item 152, weight= 1556, color= 1
	 item 153, weight= 1557, color= 1
	 item 154, weight= 1582, color= 1
	 item 155, weight= 1583, color= 1
	 item 156, weight= 1644, color= 1
	 item 157, weight= 1674, color= 1
	 item 158, weight= 1693, color= 1
	 item 159, weight= 1696, color= 1
	 item 160, weight= 1697, color= 1
	 item 161, weight= 1701, color= 1
	 item 162, weight= 1716, color= 1
	 item 163, weight= 1718, color= 1
	 item 164, weight= 1764, color= 1
	 item 165, weight= 1794, color= 1
	 item 166, weight= 1810, color= 1
	 item 167, weight= 1811, color= 1
	 item 168, weight= 1815, color= 1
	 item 169, weight= 1827, color= 1
	 item 170, weight= 1852, color= 1
	 item 171, weight= 1892, color= 1
	 item 172, weight= 1894, color= 1
	 item 173, weight= 1908, color= 1
	 item 174, weight= 1909, color= 1
	 item 175, weight= 1910, color= 1
	 item 176, weight= 1913, color= 1
	 item 177, weight= 1924, color= 1
	 item 178, weight= 1925, color= 1
	 item 179, weight= 1940, color= 1
	 item 180, weight= 1978, color= 1
	 item 181, weight= 1991, color= 1
	 item 182, weight= 1994, color= 1
	 item 183, weight= 2001, color= 1
	 item 184, weight= 2002, color= 1
	 item 185, weight= 2005, color= 1
	 item 186, weight= 2028, color= 1
	 item 187, weight= 2044, color= 1
	 item 188, weight= 2050, color= 1
	 item 189, weight= 2061, color= 1
	 item 190, weight= 2062, color= 1
	 item 191, weight= 2100, color= 1
	 item 192, weight= 2106, color= 1
	 item 193, weight= 2111, color= 1
	 item 194, weight= 2118, color= 1
	 item 195, weight= 2146, color= 1
	 item 196, weight= 2148, color= 1
	 item 197, weight= 2153, color= 1
	 item 198, weight= 2166, color= 1
	 item 199, weight= 2186, color= 1
	 item 200, weight= 2188, color= 1
	 item 201, weight= 2192, color= 1
	 item 202, weight= 2202, color= 1

VRPSolver warning: Interval set for resource 1 on source node (when source != sink) is ignored (by definition is [0.0,0.0])
VRPSolver warning: Interval set for resource 2 on source node (when source != sink) is ignored (by definition is [0.0,0.0])
VRPSolver warning: Interval set for resource 3 on source node (when source != sink) is ignored (by definition is [0.0,0.0])
[41m solve [00m
~~~~~~~~~~~~~~~~~~~~~~~~~~~~~~~~~~~~~~~~~~~~~~~~~~~~~~~~~~~~~~~~~~~~~~~~~~~~~~
VRPSolver v0.4.1, 24/03/2021. Web: vrpsolver.math.u-bordeaux.fr
Corresponds to the solver by Pessoa, Sadykov, Uchoa and Vanderbeck (2020)
Paper: dx.doi.org/10.1007/s10107-020-01523-z
USE THIS CODE ONLY FOR ACADEMIC PURPOSES AT YOUR OWN RISK
~~~~~~~~~~~~~~~~~~~~~~~~~~~~~~~~~~~~~~~~~~~~~~~~~~~~~~~~~~~~~~~~~~~~~~~~~~~~~~
BaPCod v053, 24/03/2021, © Inria Bordeaux, France
~~~~~~~~~~~~~~~~~~~~~~~~~~~~~~~~~~~~~~~~~~~~~~~~~~~~~~~~~~~~~~~~~~~~~~~~~~~~~~
VRPSolver parameters:
GlobalTimeLimit = 60
MaxNbOfBBtreeNodeTreated = 100000
treeSearchStrategy = 1
RCSPstopCutGenTimeThresholdInPricing = 10
RCSPhardTimeThresholdInPricing = 20
RCSPnumberOfBucketsPerVertex = 2000
RCSPdynamicBucketSteps = 0
RCSPuseBidirectionalSearch = 1
RCSPapplyReducedCostFixing = 1
RCSPredCostFixingFalseGap = 0
RCSPmaxNumOfColsPerIteration = 100
RCSPmaxNumOfColsPerExactIteration = 100
RCSPheurLabelingStrategy = 4
StabilizationMinPhaseOfStage = 1
RCSPmaxNumOfLabelsInEnumeration = 100000
RCSPmaxNumOfEnumeratedSolutions = 1000000
RCSPmaxNumOfEnumSolutionsForMIP = 100000
RCSPinitNGneighbourhoodSize = 0
RCSPmaxNGneighbourhoodSize = 0
RCSPrankOneCutsMaxNumPerRound = 100
RCSPrankOneCutsMaxNumRows = -1
RCSPrankOneCutsMemoryType = 2
CutTailingOffThreshold = 0.02
CutTailingOffCounterThreshold = 3
SafeDualBoundScaleFactor = -1
StrongBranchingPhaseOneCandidatesNumber = 100
StrongBranchingPhaseOneTreeSizeEstimRatio = 0.3
StrongBranchingPhaseTwoCandidatesNumber = 1
StrongBranchingPhaseTwoTreeSizeEstimRatio = 0.1
MaxTimeForRestrictedMasterIpHeur = -1
DivingHeurUseDepthLimit = 0
MaxLDSbreadth = 3
MaxLDSdepth = 2
New model incumbent solution 1e+06, TIME = 0h0m0s3t = 3
Model is built TIME = 0h0m1s68t = 168
************************************************************************************************
**** BaB tree root node
**** Local DB = -1e+12, global bounds : [ -1e+12 , 1e+06 ], TIME = 0h0m1s68t = 168
**** 1 open nodes, 0 columns (0 active), 0 dyn. constrs. (0 active), 406 art. vars. (406 active)
************************************************************************************************
<DWph=2> <it= 10> <et=3.50> <Mt= 0.00> <Spt= 1.80> <nCl=1000> <DB=-880246734.3349> <Mlp=174150013.5417> <PB=1000000> 
<DWph=2> <it= 20> <et=5.38> <Mt= 0.04> <Spt= 1.84> <nCl=1000> <DB=-2074983364.1103> <Mlp=106616433.8897> <PB=1000000> 
<DWph=2> <it= 30> <et=7.41> <Mt= 0.08> <Spt= 1.96> <nCl=1000> <DB=-1201107029.8928> <Mlp=82931227.3717> <PB=1000000> 
<DWph=2> <it= 40> <et=9.67> <Mt= 0.13> <Spt= 2.12> <nCl=1000> <DB=-751371311.2373> <Mlp=70702780.4191> <PB=1000000> 
<DWph=2> <it= 50> <et=12.10> <Mt= 0.17> <Spt= 2.26> <nCl=1000> <DB=-501830967.3726> <Mlp=63682002.3692> <PB=1000000> 
<DWph=2> <it= 60> <et=14.46> <Mt= 0.19> <Spt= 2.17> <nCl=1000> <DB=-653452194.7786> <Mlp=56583988.3136> <PB=1000000> 
<DWph=2> <it= 70> <et=16.84> <Mt= 0.23> <Spt= 2.15> <nCl=1000> <DB=-368147047.4791> <Mlp=42462921.4131> <PB=1000000> 
<DWph=2> <it= 80> <et=20.05> <Mt= 0.51> <Spt= 2.69> <nCl=1000> <DB= -500.2190> <Mlp=   71.7389> <PB=1000000> 
<DWph=2> <it= 90> <et=22.10> <Mt= 0.24> <Spt= 1.81> <nCl=965> <DB=  -17.1979> <Mlp=   69.3239> <PB=1000000> 
<DWph=2> <it=100> <et=24.53> <Mt= 0.45> <Spt= 1.98> <nCl=974> <DB=   43.2415> <Mlp=   65.6572> <PB=1000000> 
<DWph=2> <it=110> <et=26.31> <Mt= 0.29> <Spt= 1.38> <nCl=885> <DB=   64.1945> <Mlp=   65.0268> <PB=1000000> 
<DWph=2> <it=120> <et=27.71> <Mt= 0.13> <Spt= 1.26> <nCl=329> <DB=   64.7019> <Mlp=   65.0108> <PB=1000000> 
<DWph=2> <it=130> <et=29.11> <Mt= 0.08> <Spt= 1.32> <nCl=121> <DB=   64.9531> <Mlp=   65.0071> <PB=1000000> 
<DWph=2> <it=136> <et=30.03> <Mt= 0.04> <Spt= 0.88> <nCl= 13> <DB=   65.0067> <Mlp=   65.0067> <PB=1000000> 
<DWph=1> <it=140> <et=31.29> <Mt= 0.06> <Spt= 1.19> <nCl=356> <DB=   64.8581> <Mlp=   65.0001> <PB=1000000> 
<DWph=1> <it=142> <et=32.10> <Mt= 0.02> <Spt= 0.79> <nCl= 25> <DB=   65.0000> <Mlp=   65.0000> <PB=1000000> 
<DWph=0> <it=145> <et=34.89> <Mt= 0.01> <Spt= 2.78> <nCl= 10> <DB=   65.0000> <Mlp=   65.0000> <PB=1000000> 
Reduced cost fixing for graph G_1... took 17.51 sec., 229115 buck. arcs remain (100% from prev., 33.8% from max.)
Run enumeration... took 0.71 sec. and not succeeded.
ColGenEvalAlg final dual bound: 65 (rounded: 65)
----------- Diving heuristic started -----------
<DWph=2> <it=  1> <et=53.16> <Mt= 0.00> <Spt= 0.00> <nCl=  0> <DB=   65.0000> <Mlp=   65.0000> <PB=1000000> 
<DWph=1> <it=  2> <et=53.16> <Mt= 0.01> <Spt= 0.00> <nCl=  0> <DB=   65.0000> <Mlp=   65.0000> <PB=1000000> 
---- Diving heuristic node with dive number = 0, fix depth = 0 and tabu list size = 0
Fixed projected solution = [x_1_0_1_OspV=1, x_1_69_1_OspV=1, x_1_137_1_OspV=1, x_1_140_1_OspV=1]
<DWph=2> <it=  1> <et=53.24> <Mt= 0.00> <Spt= 0.00> <nCl=  0> <DB=   65.0000> <Mlp=   65.0000> <PB=1000000> 
<DWph=1> <it=  2> <et=53.24> <Mt= 0.00> <Spt= 0.00> <nCl=  0> <DB=   65.0000> <Mlp=   65.0000> <PB=1000000> 
---- Diving heuristic node with dive number = 0, fix depth = 0 and tabu list size = 0
Fixed projected solution = [x_1_0_1_OspV=1, x_1_19_1_OspV=1, x_1_81_1_OspV=1, x_1_193_1_OspV=1]
<DWph=2> <it=  1> <et=53.31> <Mt= 0.00> <Spt= 0.00> <nCl=  0> <DB=   65.0000> <Mlp=   65.0000> <PB=1000000> 
<DWph=1> <it=  2> <et=53.31> <Mt= 0.01> <Spt= 0.00> <nCl=  0> <DB=   65.0000> <Mlp=   65.0000> <PB=1000000> 
---- Diving heuristic node with dive number = 0, fix depth = 0 and tabu list size = 0
Fixed projected solution = [x_1_0_1_OspV=1, x_1_66_1_OspV=1, x_1_134_1_OspV=1, x_1_143_1_OspV=1]
<DWph=2> <it=  1> <et=53.38> <Mt= 0.00> <Spt= 0.00> <nCl=  0> <DB=   65.0000> <Mlp=   65.0000> <PB=1000000> 
<DWph=1> <it=  2> <et=53.38> <Mt= 0.00> <Spt= 0.00> <nCl=  0> <DB=   65.0000> <Mlp=   65.0000> <PB=1000000> 
---- Diving heuristic node with dive number = 0, fix depth = 0 and tabu list size = 0
Fixed projected solution = [x_1_0_1_OspV=1, x_1_16_1_OspV=1, x_1_75_1_OspV=1, x_1_197_1_OspV=1]
<DWph=2> <it=  1> <et=53.45> <Mt= 0.01> <Spt= 0.00> <nCl=  0> <DB=   65.0000> <Mlp=   65.0000> <PB=1000000> 
<DWph=1> <it=  2> <et=53.45> <Mt= 0.00> <Spt= 0.00> <nCl=  0> <DB=   65.0000> <Mlp=   65.0000> <PB=1000000> 
---- Diving heuristic node with dive number = 0, fix depth = 0 and tabu list size = 0
Fixed projected solution = [x_1_0_1_OspV=1, x_1_13_1_OspV=1, x_1_74_1_OspV=1, x_1_198_1_OspV=1]
<DWph=2> <it=  1> <et=53.52> <Mt= 0.00> <Spt= 0.00> <nCl=  0> <DB=   65.0000> <Mlp=   65.0000> <PB=1000000> 
<DWph=1> <it=  2> <et=53.52> <Mt= 0.00> <Spt= 0.00> <nCl=  0> <DB=   65.0000> <Mlp=   65.0000> <PB=1000000> 
---- Diving heuristic node with dive number = 0, fix depth = 0 and tabu list size = 0
Fixed projected solution = [x_1_0_1_OspV=1, x_1_68_1_OspV=1, x_1_136_1_OspV=1, x_1_141_1_OspV=1]
<DWph=2> <it=  1> <et=53.58> <Mt= 0.01> <Spt= 0.00> <nCl=  0> <DB=   65.0000> <Mlp=   65.0000> <PB=1000000> 
<DWph=1> <it=  2> <et=53.59> <Mt= 0.00> <Spt= 0.00> <nCl=  0> <DB=   65.0000> <Mlp=   65.0000> <PB=1000000> 
---- Diving heuristic node with dive number = 0, fix depth = 0 and tabu list size = 0
Fixed projected solution = [x_1_0_1_OspV=1, x_1_14_1_OspV=1, x_1_76_1_OspV=1, x_1_196_1_OspV=1]
<DWph=2> <it=  1> <et=53.65> <Mt= 0.00> <Spt= 0.00> <nCl=  0> <DB=   65.0000> <Mlp=   65.0000> <PB=1000000> 
<DWph=1> <it=  2> <et=53.65> <Mt= 0.00> <Spt= 0.00> <nCl=  0> <DB=   65.0000> <Mlp=   65.0000> <PB=1000000> 
---- Diving heuristic node with dive number = 0, fix depth = 0 and tabu list size = 0
Fixed projected solution = [x_1_0_1_OspV=1, x_1_67_1_OspV=1, x_1_138_1_OspV=1, x_1_139_1_OspV=1]
<DWph=2> <it=  1> <et=53.72> <Mt= 0.01> <Spt= 0.00> <nCl=  0> <DB=   65.0000> <Mlp=   65.0000> <PB=1000000> 
<DWph=1> <it=  2> <et=53.72> <Mt= 0.00> <Spt= 0.00> <nCl=  0> <DB=   65.0000> <Mlp=   65.0000> <PB=1000000> 
---- Diving heuristic node with dive number = 0, fix depth = 0 and tabu list size = 0
Fixed projected solution = [x_1_0_1_OspV=1, x_1_41_1_OspV=1, x_1_132_1_OspV=1, x_1_148_1_OspV=1]
<DWph=2> <it=  1> <et=53.79> <Mt= 0.00> <Spt= 0.00> <nCl=  0> <DB=   65.0000> <Mlp=   65.0000> <PB=1000000> 
<DWph=1> <it=  2> <et=53.79> <Mt= 0.00> <Spt= 0.00> <nCl=  0> <DB=   65.0000> <Mlp=   65.0000> <PB=1000000> 
---- Diving heuristic node with dive number = 0, fix depth = 0 and tabu list size = 0
Fixed projected solution = [x_1_0_1_OspV=1, x_1_59_1_OspV=1, x_1_130_1_OspV=1, x_1_145_1_OspV=1]
<DWph=2> <it=  1> <et=53.86> <Mt= 0.01> <Spt= 0.00> <nCl=  0> <DB=   65.0000> <Mlp=   65.0000> <PB=1000000> 
<DWph=1> <it=  2> <et=53.86> <Mt= 0.00> <Spt= 0.00> <nCl=  0> <DB=   65.0000> <Mlp=   65.0000> <PB=1000000> 
---- Diving heuristic node with dive number = 0, fix depth = 0 and tabu list size = 0
Fixed projected solution = [x_1_0_1_OspV=1, x_1_65_1_OspV=1, x_1_135_1_OspV=1, x_1_142_1_OspV=1]
<DWph=2> <it=  1> <et=53.93> <Mt= 0.00> <Spt= 0.00> <nCl=  0> <DB=   65.0000> <Mlp=   65.0000> <PB=1000000> 
<DWph=1> <it=  2> <et=53.93> <Mt= 0.00> <Spt= 0.00> <nCl=  0> <DB=   65.0000> <Mlp=   65.0000> <PB=1000000> 
---- Diving heuristic node with dive number = 0, fix depth = 0 and tabu list size = 0
Fixed projected solution = [x_1_0_1_OspV=1, x_1_60_1_OspV=1, x_1_125_1_OspV=1, x_1_150_1_OspV=1]
<DWph=2> <it=  1> <et=54.00> <Mt= 0.01> <Spt= 0.00> <nCl=  0> <DB=   65.0000> <Mlp=   65.0000> <PB=1000000> 
<DWph=1> <it=  2> <et=54.00> <Mt= 0.00> <Spt= 0.00> <nCl=  0> <DB=   65.0000> <Mlp=   65.0000> <PB=1000000> 
---- Diving heuristic node with dive number = 0, fix depth = 0 and tabu list size = 0
Fixed projected solution = [x_1_0_1_OspV=1, x_1_63_1_OspV=1, x_1_128_1_OspV=1, x_1_146_1_OspV=1]
<DWph=2> <it=  1> <et=54.06> <Mt= 0.00> <Spt= 0.00> <nCl=  0> <DB=   65.0000> <Mlp=   65.0000> <PB=1000000> 
<DWph=1> <it=  2> <et=54.07> <Mt= 0.00> <Spt= 0.00> <nCl=  0> <DB=   65.0000> <Mlp=   65.0000> <PB=1000000> 
---- Diving heuristic node with dive number = 0, fix depth = 1 and tabu list size = 0
Fixed projected solution = [x_1_0_1_OspV=1, x_1_58_1_OspV=1, x_1_123_1_OspV=1, x_1_153_1_OspV=1]
<DWph=2> <it=  1> <et=54.13> <Mt= 0.01> <Spt= 0.00> <nCl=  0> <DB=   65.0000> <Mlp=   65.0000> <PB=1000000> 
<DWph=1> <it=  2> <et=54.13> <Mt= 0.00> <Spt= 0.00> <nCl=  0> <DB=   65.0000> <Mlp=   65.0000> <PB=1000000> 
---- Diving heuristic node with dive number = 0, fix depth = 2 and tabu list size = 0
Fixed projected solution = [x_1_0_1_OspV=1, x_1_22_1_OspV=1, x_1_84_1_OspV=1, x_1_190_1_OspV=1]
<DWph=2> <it=  1> <et=54.20> <Mt= 0.02> <Spt= 0.00> <nCl=  0> <DB=   65.0000> <Mlp=   65.0000> <PB=1000000> 
<DWph=1> <it=  2> <et=54.20> <Mt= 0.00> <Spt= 0.00> <nCl=  0> <DB=   65.0000> <Mlp=   65.0000> <PB=1000000> 
---- Diving heuristic node with dive number = 0, fix depth = 3 and tabu list size = 0
Fixed projected solution = [x_1_0_1_OspV=1, x_1_5_1_OspV=1, x_1_83_1_OspV=1, x_1_192_1_OspV=1]
<DWph=2> <it=  1> <et=54.23> <Mt= 0.01> <Spt= 0.00> <nCl=  0> <DB=   65.0000> <Mlp=   65.0000> <PB=1000000> 
<DWph=1> <it=  2> <et=54.23> <Mt= 0.00> <Spt= 0.00> <nCl=  0> <DB=   65.0000> <Mlp=   65.0000> <PB=1000000> 
---- Diving heuristic node with dive number = 0, fix depth = 4 and tabu list size = 0
Fixed projected solution = [x_1_0_1_OspV=1, x_1_25_1_OspV=1, x_1_88_1_OspV=1, x_1_183_1_OspV=1]
<DWph=2> <it=  1> <et=54.27> <Mt= 0.03> <Spt= 0.00> <nCl=  0> <DB=   65.0000> <Mlp=   65.0000> <PB=1000000> 
<DWph=1> <it=  2> <et=54.27> <Mt= 0.00> <Spt= 0.00> <nCl=  0> <DB=   65.0000> <Mlp=   65.0000> <PB=1000000> 
---- Diving heuristic node with dive number = 0, fix depth = 5 and tabu list size = 0
Fixed projected solution = [x_1_0_1_OspV=1, x_1_8_1_OspV=1, x_1_73_1_OspV=1, x_1_201_1_OspV=1]
<DWph=2> <it=  1> <et=54.31> <Mt= 0.02> <Spt= 0.00> <nCl=  0> <DB=   65.0000> <Mlp=   65.0000> <PB=1000000> 
<DWph=1> <it=  2> <et=54.31> <Mt= 0.00> <Spt= 0.00> <nCl=  0> <DB=   65.0000> <Mlp=   65.0000> <PB=1000000> 
---- Diving heuristic node with dive number = 0, fix depth = 6 and tabu list size = 0
Fixed projected solution = [x_1_0_1_OspV=1, x_1_104_1_OspV=1, x_1_111_1_OspV=1, x_1_147_1_OspV=1]
<DWph=2> <it=  1> <et=54.33> <Mt= 0.02> <Spt= 0.00> <nCl=  0> <DB=   65.0000> <Mlp=   65.0000> <PB=1000000> 
<DWph=1> <it=  2> <et=54.34> <Mt= 0.00> <Spt= 0.00> <nCl=  0> <DB=   65.0000> <Mlp=   65.0000> <PB=1000000> 
---- Diving heuristic node with dive number = 0, fix depth = 7 and tabu list size = 0
Fixed projected solution = [x_1_0_1_OspV=1, x_1_33_1_OspV=1, x_1_96_1_OspV=1, x_1_178_1_OspV=1]
<DWph=2> <it=  1> <et=54.38> <Mt= 0.03> <Spt= 0.00> <nCl=  0> <DB=   65.0000> <Mlp=   65.0000> <PB=1000000> 
<DWph=1> <it=  2> <et=54.38> <Mt= 0.00> <Spt= 0.00> <nCl=  0> <DB=   65.0000> <Mlp=   65.0000> <PB=1000000> 
---- Diving heuristic node with dive number = 0, fix depth = 7 and tabu list size = 0
Fixed projected solution = [x_1_0_1_OspV=1, x_1_1_1_OspV=1, x_1_98_1_OspV=1, x_1_185_1_OspV=1]
<DWph=2> <it=  1> <et=54.39> <Mt= 0.00> <Spt= 0.00> <nCl=  0> <DB=   65.0000> <Mlp=   65.0000> <PB=1000000> 
<DWph=1> <it=  2> <et=54.39> <Mt= 0.00> <Spt= 0.00> <nCl=  0> <DB=   65.0000> <Mlp=   65.0000> <PB=1000000> 
---- Diving heuristic node with dive number = 0, fix depth = 8 and tabu list size = 0
Fixed projected solution = [x_1_0_1_OspV=1, x_1_28_1_OspV=1, x_1_91_1_OspV=1, x_1_181_1_OspV=1]
<DWph=2> <it=  1> <et=54.43> <Mt= 0.02> <Spt= 0.00> <nCl=  0> <DB=   65.0000> <Mlp=   65.0000> <PB=1000000> 
<DWph=1> <it=  2> <et=54.43> <Mt= 0.00> <Spt= 0.00> <nCl=  0> <DB=   65.0000> <Mlp=   65.0000> <PB=1000000> 
---- Diving heuristic node with dive number = 0, fix depth = 9 and tabu list size = 0
Fixed projected solution = [x_1_0_1_OspV=1, x_1_31_1_OspV=1, x_1_102_1_OspV=1, x_1_173_1_OspV=1]
<DWph=2> <it=  1> <et=54.47> <Mt= 0.03> <Spt= 0.00> <nCl=  0> <DB=   65.0000> <Mlp=   65.0000> <PB=1000000> 
<DWph=1> <it=  2> <et=54.47> <Mt= 0.00> <Spt= 0.00> <nCl=  0> <DB=   65.0000> <Mlp=   65.0000> <PB=1000000> 
---- Diving heuristic node with dive number = 0, fix depth = 10 and tabu list size = 0
Fixed projected solution = [x_1_0_1_OspV=1, x_1_56_1_OspV=1, x_1_121_1_OspV=1, x_1_155_1_OspV=1]
<DWph=2> <it=  1> <et=54.51> <Mt= 0.03> <Spt= 0.00> <nCl=  0> <DB=   65.0000> <Mlp=   65.0000> <PB=1000000> 
<DWph=1> <it=  2> <et=54.51> <Mt= 0.00> <Spt= 0.00> <nCl=  0> <DB=   65.0000> <Mlp=   65.0000> <PB=1000000> 
---- Diving heuristic node with dive number = 0, fix depth = 11 and tabu list size = 0
Fixed projected solution = [x_1_0_1_OspV=1, x_1_15_1_OspV=1, x_1_77_1_OspV=1, x_1_195_1_OspV=1]
<DWph=2> <it=  1> <et=54.53> <Mt= 0.01> <Spt= 0.00> <nCl=  0> <DB=   65.0000> <Mlp=   65.0000> <PB=1000000> 
<DWph=1> <it=  2> <et=54.53> <Mt= 0.01> <Spt= 0.00> <nCl=  0> <DB=   65.0000> <Mlp=   65.0000> <PB=1000000> 
---- Diving heuristic node with dive number = 0, fix depth = 12 and tabu list size = 0
Fixed projected solution = [x_1_0_1_OspV=1, x_1_39_1_OspV=1, x_1_100_1_OspV=1, x_1_174_1_OspV=1]
<DWph=2> <it=  1> <et=54.56> <Mt= 0.01> <Spt= 0.00> <nCl=  0> <DB=   65.0000> <Mlp=   65.0000> <PB=1000000> 
<DWph=1> <it=  2> <et=54.56> <Mt= 0.00> <Spt= 0.00> <nCl=  0> <DB=   65.0000> <Mlp=   65.0000> <PB=1000000> 
---- Diving heuristic node with dive number = 0, fix depth = 13 and tabu list size = 0
Fixed projected solution = [x_1_0_1_OspV=1, x_1_43_1_OspV=1, x_1_62_1_OspV=1, x_1_200_1_OspV=1]
<DWph=2> <it=  1> <et=54.61> <Mt= 0.04> <Spt= 0.00> <nCl=  0> <DB=   65.0000> <Mlp=   65.0000> <PB=1000000> 
<DWph=1> <it=  2> <et=54.61> <Mt= 0.00> <Spt= 0.00> <nCl=  0> <DB=   65.0000> <Mlp=   65.0000> <PB=1000000> 
---- Diving heuristic node with dive number = 0, fix depth = 14 and tabu list size = 0
Fixed projected solution = [x_1_0_1_OspV=1, x_1_70_1_OspV=1, x_1_129_1_OspV=1, x_1_144_1_OspV=1]
<DWph=2> <it=  4> <et=55.13> <Mt= 0.08> <Spt= 0.42> <nCl=115> <DB=   64.9671> <Mlp=   65.0000> <PB=1000000> 
<DWph=1> <it=  5> <et=55.13> <Mt= 0.00> <Spt= 0.00> <nCl=  0> <DB=   65.0000> <Mlp=   65.0000> <PB=1000000> 
---- Diving heuristic node with dive number = 0, fix depth = 15 and tabu list size = 0
Fixed projected solution = [x_1_0_1_OspV=1, x_1_51_1_OspV=1, x_1_57_1_OspV=1, x_1_199_1_OspV=1]
<DWph=2> <it=  1> <et=55.16> <Mt= 0.02> <Spt= 0.00> <nCl=  0> <DB=   65.0000> <Mlp=   65.0000> <PB=1000000> 
<DWph=1> <it=  2> <et=55.16> <Mt= 0.00> <Spt= 0.00> <nCl=  0> <DB=   65.0000> <Mlp=   65.0000> <PB=1000000> 
---- Diving heuristic node with dive number = 0, fix depth = 16 and tabu list size = 0
Fixed projected solution = [x_1_0_1_OspV=1, x_1_37_1_OspV=1, x_1_97_1_OspV=1, x_1_177_1_OspV=1]
<DWph=2> <it=  1> <et=55.19> <Mt= 0.01> <Spt= 0.00> <nCl=  0> <DB=   65.0000> <Mlp=   65.0000> <PB=1000000> 
<DWph=1> <it=  2> <et=55.19> <Mt= 0.00> <Spt= 0.00> <nCl=  0> <DB=   65.0000> <Mlp=   65.0000> <PB=1000000> 
---- Diving heuristic node with dive number = 0, fix depth = 17 and tabu list size = 0
Fixed projected solution = [x_1_0_1_OspV=1, x_1_55_1_OspV=1, x_1_122_1_OspV=1, x_1_154_1_OspV=1]
<DWph=1> <it= 11> <et=56.47> <Mt= 0.11> <Spt= 1.16> <nCl= 56> <DB=   65.0000> <Mlp=   65.0000> <PB=1000000> 
---- Diving heuristic node with dive number = 0, fix depth = 18 and tabu list size = 0
Fixed projected solution = [x_1_0_1_OspV=1, x_1_48_1_OspV=1, x_1_114_1_OspV=1, x_1_163_1_OspV=1]
<DWph=2> <it= 10> <et=58.72> <Mt= 0.09> <Spt= 2.09> <nCl= 40> <DB=   64.9785> <Mlp=   65.0000> <PB=1000000> 
<DWph=2> <it= 12> <et=59.11> <Mt= 0.01> <Spt= 0.39> <nCl=  3> <DB=   65.0000> <Mlp=   65.0000> <PB=1000000> 
<DWph=1> <it= 14> <et=59.44> <Mt= 0.01> <Spt= 0.32> <nCl= 96> <DB=   64.8601> <Mlp=   65.0000> <PB=1000000> 
---- Diving heuristic node with dive number = 0, fix depth = 18 and tabu list size = 0
Fixed projected solution = [x_1_0_1_OspV=1, x_1_42_1_OspV=1, x_1_107_1_OspV=1, x_1_169_1_OspV=1]
<DWph=2> <it=  1> <et=59.46> <Mt= 0.00> <Spt= 0.00> <nCl=  0> <DB=   65.0000> <Mlp=   65.0000> <PB=1000000> 
<DWph=1> <it=  2> <et=59.46> <Mt= 0.00> <Spt= 0.00> <nCl=  0> <DB=   65.0000> <Mlp=   65.0000> <PB=1000000> 
---- Diving heuristic node with dive number = 0, fix depth = 18 and tabu list size = 0
Fixed projected solution = [x_1_0_1_OspV=1, x_1_49_1_OspV=1, x_1_110_1_OspV=1, x_1_165_1_OspV=1]
<DWph=2> <it=  1> <et=59.48> <Mt= 0.00> <Spt= 0.00> <nCl=  0> <DB=   65.0000> <Mlp=   65.0000> <PB=1000000> 
<DWph=1> <it=  2> <et=59.48> <Mt= 0.00> <Spt= 0.00> <nCl=  0> <DB=   65.0000> <Mlp=   65.0000> <PB=1000000> 
---- Diving heuristic node with dive number = 0, fix depth = 19 and tabu list size = 0
Fixed projected solution = [x_1_0_1_OspV=1, x_1_38_1_OspV=1, x_1_99_1_OspV=1, x_1_176_1_OspV=1]
<DWph=2> <it=  1> <et=59.50> <Mt= 0.02> <Spt= 0.00> <nCl=  0> <DB=   65.0000> <Mlp=   65.0000> <PB=1000000> 
<DWph=1> <it=  2> <et=59.50> <Mt= 0.00> <Spt= 0.00> <nCl=  0> <DB=   65.0000> <Mlp=   65.0000> <PB=1000000> 
---- Diving heuristic node with dive number = 0, fix depth = 20 and tabu list size = 0
Fixed projected solution = [x_1_0_1_OspV=1, x_1_53_1_OspV=1, x_1_119_1_OspV=1, x_1_157_1_OspV=1]
<DWph=2> <it=  1> <et=59.55> <Mt= 0.03> <Spt= 0.00> <nCl=  0> <DB=   65.0000> <Mlp=   65.0000> <PB=1000000> 
<DWph=1> <it=  2> <et=59.55> <Mt= 0.00> <Spt= 0.00> <nCl=  0> <DB=   65.0000> <Mlp=   65.0000> <PB=1000000> 
---- Diving heuristic node with dive number = 0, fix depth = 20 and tabu list size = 0
Fixed projected solution = [x_1_0_1_OspV=1, x_1_29_1_OspV=1, x_1_95_1_OspV=1, x_1_179_1_OspV=1]
<DWph=2> <it=  1> <et=59.56> <Mt= 0.00> <Spt= 0.00> <nCl=  0> <DB=   65.0000> <Mlp=   65.0000> <PB=1000000> 
<DWph=1> <it=  2> <et=59.56> <Mt= 0.00> <Spt= 0.00> <nCl=  0> <DB=   65.0000> <Mlp=   65.0000> <PB=1000000> 
---- Diving heuristic node with dive number = 0, fix depth = 21 and tabu list size = 0
Fixed projected solution = [x_1_0_1_OspV=1, x_1_9_1_OspV=1, x_1_106_1_OspV=1, x_1_171_1_OspV=1]
<DWph=2> <it=  1> <et=59.60> <Mt= 0.03> <Spt= 0.00> <nCl=  0> <DB=   65.0000> <Mlp=   65.0000> <PB=1000000> 
<DWph=1> <it=  2> <et=59.60> <Mt= 0.00> <Spt= 0.00> <nCl=  0> <DB=   65.0000> <Mlp=   65.0000> <PB=1000000> 
---- Diving heuristic node with dive number = 0, fix depth = 22 and tabu list size = 0
Fixed projected solution = [x_1_0_1_OspV=1, x_1_64_1_OspV=1, x_1_103_1_OspV=1, x_1_166_1_OspV=1]
<DWph=2> <it=  1> <et=59.63> <Mt= 0.02> <Spt= 0.00> <nCl=  0> <DB=   65.0000> <Mlp=   65.0000> <PB=1000000> 
<DWph=1> <it=  2> <et=59.63> <Mt= 0.00> <Spt= 0.00> <nCl=  0> <DB=   65.0000> <Mlp=   65.0000> <PB=1000000> 
---- Diving heuristic node with dive number = 0, fix depth = 23 and tabu list size = 0
Fixed projected solution = [x_1_0_1_OspV=1, x_1_7_1_OspV=1, x_1_71_1_OspV=1, x_1_202_1_OspV=1]
<DWph=2> <it=  3> <et=60.09> <Mt= 0.11> <Spt= 0.33> <nCl=105> <DB=   64.9791> <Mlp=   65.0000> <PB=1000000> 
SEARCH IS INTERRUPTED as the time limit is reached. 
<DWph=1> <it=  3> <et=60.09> <Mt= 0.00> <Spt= 0.00> <nCl=  0> <DB=   65.0000> <Mlp=   65.0000> <PB=1000000> 
---- Diving heuristic node with dive number = 1, fix depth = 2 and tabu list size = 1
Fixed projected solution = [x_1_0_1_OspV=1, x_1_5_1_OspV=1, x_1_83_1_OspV=1, x_1_192_1_OspV=1]
---- Diving heuristic node with dive number = 2, fix depth = 2 and tabu list size = 2
Fixed projected solution = [x_1_0_1_OspV=1, x_1_25_1_OspV=1, x_1_88_1_OspV=1, x_1_183_1_OspV=1]
---- Diving heuristic node with dive number = 3, fix depth = 2 and tabu list size = 3
Fixed projected solution = [x_1_0_1_OspV=1, x_1_8_1_OspV=1, x_1_73_1_OspV=1, x_1_201_1_OspV=1]
---- Diving heuristic node with dive number = 4, fix depth = 1 and tabu list size = 1
Fixed projected solution = [x_1_0_1_OspV=1, x_1_5_1_OspV=1, x_1_83_1_OspV=1, x_1_192_1_OspV=1]
---- Diving heuristic node with dive number = 5, fix depth = 1 and tabu list size = 2
Fixed projected solution = [x_1_0_1_OspV=1, x_1_22_1_OspV=1, x_1_84_1_OspV=1, x_1_190_1_OspV=1]
---- Diving heuristic node with dive number = 6, fix depth = 1 and tabu list size = 3
Fixed projected solution = [x_1_0_1_OspV=1, x_1_25_1_OspV=1, x_1_88_1_OspV=1, x_1_183_1_OspV=1]
**** Strong branching phase 1 is started *****
**** Strong branching phase 3 is started *****
************************************************************************************************
Search is finished, global bounds : [ 65 , 1e+06 ], TIME = 0h1m1s46t = 6146
************************************************************************************************
statistics_cols: instance & :Optimal & cutoff & :bcRecRootDb & :bcTimeRootEval & :bcCountNodeProc & :bcRecBestDb & :bcRecBestInc & :bcTimeMain \\
statistics: 201_2500_DI_5 & 0 & 1.0e6 & 65.00 & 53.16 & 1 & 65.00 & -- & 61.46 \\
########################################################
Solution not found
########################################################
