Application parameters:
  batch  =>  nothing
  instance  =>  "/IN/402_10000_DI_35.txt-Q2Half"
  ub  =>  1.0e6
  cfg  =>  "/CFG/BPP.cfg"
data = Colored Bin Packing dataset.
number of items = 403
number of colors = 2
capacity = 8136
Items : 
	 item 1, weight= 18, color= 0
	 item 2, weight= 20, color= 0
	 item 3, weight= 40, color= 0
	 item 4, weight= 42, color= 0
	 item 5, weight= 78, color= 0
	 item 6, weight= 80, color= 0
	 item 7, weight= 104, color= 0
	 item 8, weight= 116, color= 0
	 item 9, weight= 116, color= 0
	 item 10, weight= 120, color= 0
	 item 11, weight= 136, color= 0
	 item 12, weight= 136, color= 0
	 item 13, weight= 136, color= 0
	 item 14, weight= 140, color= 0
	 item 15, weight= 144, color= 0
	 item 16, weight= 144, color= 0
	 item 17, weight= 144, color= 0
	 item 18, weight= 144, color= 0
	 item 19, weight= 144, color= 0
	 item 20, weight= 152, color= 0
	 item 21, weight= 152, color= 0
	 item 22, weight= 156, color= 0
	 item 23, weight= 156, color= 0
	 item 24, weight= 160, color= 0
	 item 25, weight= 160, color= 0
	 item 26, weight= 166, color= 0
	 item 27, weight= 168, color= 0
	 item 28, weight= 172, color= 0
	 item 29, weight= 172, color= 0
	 item 30, weight= 180, color= 0
	 item 31, weight= 184, color= 0
	 item 32, weight= 184, color= 0
	 item 33, weight= 184, color= 0
	 item 34, weight= 192, color= 0
	 item 35, weight= 192, color= 0
	 item 36, weight= 194, color= 0
	 item 37, weight= 198, color= 0
	 item 38, weight= 200, color= 0
	 item 39, weight= 200, color= 0
	 item 40, weight= 208, color= 0
	 item 41, weight= 208, color= 0
	 item 42, weight= 208, color= 0
	 item 43, weight= 210, color= 0
	 item 44, weight= 212, color= 0
	 item 45, weight= 212, color= 0
	 item 46, weight= 214, color= 0
	 item 47, weight= 216, color= 0
	 item 48, weight= 216, color= 0
	 item 49, weight= 220, color= 0
	 item 50, weight= 222, color= 0
	 item 51, weight= 224, color= 0
	 item 52, weight= 228, color= 0
	 item 53, weight= 230, color= 0
	 item 54, weight= 230, color= 0
	 item 55, weight= 240, color= 0
	 item 56, weight= 240, color= 0
	 item 57, weight= 244, color= 0
	 item 58, weight= 248, color= 0
	 item 59, weight= 250, color= 0
	 item 60, weight= 252, color= 0
	 item 61, weight= 258, color= 0
	 item 62, weight= 260, color= 0
	 item 63, weight= 264, color= 0
	 item 64, weight= 264, color= 0
	 item 65, weight= 268, color= 0
	 item 66, weight= 270, color= 0
	 item 67, weight= 276, color= 0
	 item 68, weight= 282, color= 0
	 item 69, weight= 288, color= 0
	 item 70, weight= 292, color= 0
	 item 71, weight= 296, color= 0
	 item 72, weight= 300, color= 0
	 item 73, weight= 304, color= 0
	 item 74, weight= 310, color= 0
	 item 75, weight= 314, color= 0
	 item 76, weight= 318, color= 0
	 item 77, weight= 328, color= 0
	 item 78, weight= 336, color= 0
	 item 79, weight= 336, color= 0
	 item 80, weight= 336, color= 0
	 item 81, weight= 340, color= 0
	 item 82, weight= 342, color= 0
	 item 83, weight= 344, color= 0
	 item 84, weight= 344, color= 0
	 item 85, weight= 348, color= 0
	 item 86, weight= 360, color= 0
	 item 87, weight= 372, color= 0
	 item 88, weight= 374, color= 0
	 item 89, weight= 384, color= 0
	 item 90, weight= 384, color= 0
	 item 91, weight= 388, color= 0
	 item 92, weight= 388, color= 0
	 item 93, weight= 392, color= 0
	 item 94, weight= 396, color= 0
	 item 95, weight= 408, color= 0
	 item 96, weight= 408, color= 0
	 item 97, weight= 410, color= 0
	 item 98, weight= 412, color= 0
	 item 99, weight= 414, color= 0
	 item 100, weight= 418, color= 0
	 item 101, weight= 422, color= 0
	 item 102, weight= 440, color= 0
	 item 103, weight= 444, color= 0
	 item 104, weight= 448, color= 0
	 item 105, weight= 448, color= 0
	 item 106, weight= 452, color= 0
	 item 107, weight= 456, color= 0
	 item 108, weight= 456, color= 0
	 item 109, weight= 460, color= 0
	 item 110, weight= 462, color= 0
	 item 111, weight= 480, color= 0
	 item 112, weight= 480, color= 0
	 item 113, weight= 496, color= 0
	 item 114, weight= 508, color= 0
	 item 115, weight= 512, color= 0
	 item 116, weight= 512, color= 0
	 item 117, weight= 520, color= 0
	 item 118, weight= 528, color= 0
	 item 119, weight= 530, color= 0
	 item 120, weight= 532, color= 0
	 item 121, weight= 532, color= 0
	 item 122, weight= 536, color= 0
	 item 123, weight= 560, color= 0
	 item 124, weight= 576, color= 0
	 item 125, weight= 580, color= 0
	 item 126, weight= 596, color= 0
	 item 127, weight= 598, color= 0
	 item 128, weight= 608, color= 0
	 item 129, weight= 640, color= 0
	 item 130, weight= 656, color= 1
	 item 131, weight= 664, color= 0
	 item 132, weight= 668, color= 0
	 item 133, weight= 672, color= 0
	 item 134, weight= 676, color= 0
	 item 135, weight= 676, color= 0
	 item 136, weight= 676, color= 0
	 item 137, weight= 676, color= 0
	 item 138, weight= 684, color= 1
	 item 139, weight= 698, color= 1
	 item 140, weight= 710, color= 1
	 item 141, weight= 722, color= 1
	 item 142, weight= 728, color= 1
	 item 143, weight= 732, color= 1
	 item 144, weight= 748, color= 1
	 item 145, weight= 760, color= 1
	 item 146, weight= 764, color= 1
	 item 147, weight= 774, color= 1
	 item 148, weight= 782, color= 1
	 item 149, weight= 790, color= 1
	 item 150, weight= 804, color= 1
	 item 151, weight= 814, color= 1
	 item 152, weight= 828, color= 1
	 item 153, weight= 846, color= 1
	 item 154, weight= 860, color= 1
	 item 155, weight= 874, color= 1
	 item 156, weight= 882, color= 1
	 item 157, weight= 914, color= 1
	 item 158, weight= 922, color= 1
	 item 159, weight= 924, color= 1
	 item 160, weight= 932, color= 1
	 item 161, weight= 982, color= 1
	 item 162, weight= 993, color= 1
	 item 163, weight= 1008, color= 1
	 item 164, weight= 1010, color= 1
	 item 165, weight= 1020, color= 1
	 item 166, weight= 1041, color= 1
	 item 167, weight= 1042, color= 1
	 item 168, weight= 1047, color= 1
	 item 169, weight= 1052, color= 1
	 item 170, weight= 1059, color= 1
	 item 171, weight= 1078, color= 1
	 item 172, weight= 1084, color= 1
	 item 173, weight= 1110, color= 1
	 item 174, weight= 1115, color= 1
	 item 175, weight= 1120, color= 1
	 item 176, weight= 1124, color= 1
	 item 177, weight= 1142, color= 1
	 item 178, weight= 1148, color= 1
	 item 179, weight= 1149, color= 1
	 item 180, weight= 1202, color= 1
	 item 181, weight= 1203, color= 1
	 item 182, weight= 1238, color= 1
	 item 183, weight= 1244, color= 1
	 item 184, weight= 1247, color= 1
	 item 185, weight= 1253, color= 1
	 item 186, weight= 1272, color= 1
	 item 187, weight= 1274, color= 1
	 item 188, weight= 1276, color= 1
	 item 189, weight= 1278, color= 1
	 item 190, weight= 1299, color= 1
	 item 191, weight= 1302, color= 1
	 item 192, weight= 1353, color= 1
	 item 193, weight= 1356, color= 1
	 item 194, weight= 1357, color= 1
	 item 195, weight= 1358, color= 1
	 item 196, weight= 1390, color= 1
	 item 197, weight= 1412, color= 1
	 item 198, weight= 1419, color= 1
	 item 199, weight= 1468, color= 1
	 item 200, weight= 1478, color= 1
	 item 201, weight= 1495, color= 1
	 item 202, weight= 1498, color= 1
	 item 203, weight= 1499, color= 1
	 item 204, weight= 1510, color= 1
	 item 205, weight= 1520, color= 0
	 item 206, weight= 1559, color= 1
	 item 207, weight= 1564, color= 1
	 item 208, weight= 1571, color= 1
	 item 209, weight= 1591, color= 1
	 item 210, weight= 1638, color= 1
	 item 211, weight= 1660, color= 1
	 item 212, weight= 1682, color= 1
	 item 213, weight= 1687, color= 1
	 item 214, weight= 1692, color= 1
	 item 215, weight= 1710, color= 1
	 item 216, weight= 1721, color= 1
	 item 217, weight= 1721, color= 1
	 item 218, weight= 1742, color= 1
	 item 219, weight= 1809, color= 1
	 item 220, weight= 1811, color= 1
	 item 221, weight= 1861, color= 1
	 item 222, weight= 1875, color= 1
	 item 223, weight= 1922, color= 1
	 item 224, weight= 1932, color= 1
	 item 225, weight= 1942, color= 1
	 item 226, weight= 1958, color= 1
	 item 227, weight= 1964, color= 1
	 item 228, weight= 1990, color= 1
	 item 229, weight= 2022, color= 1
	 item 230, weight= 2045, color= 1
	 item 231, weight= 2059, color= 1
	 item 232, weight= 2060, color= 1
	 item 233, weight= 2079, color= 1
	 item 234, weight= 2091, color= 1
	 item 235, weight= 2218, color= 1
	 item 236, weight= 2230, color= 1
	 item 237, weight= 2260, color= 1
	 item 238, weight= 2278, color= 1
	 item 239, weight= 2278, color= 1
	 item 240, weight= 2292, color= 1
	 item 241, weight= 2305, color= 1
	 item 242, weight= 2319, color= 1
	 item 243, weight= 2347, color= 1
	 item 244, weight= 2412, color= 1
	 item 245, weight= 2436, color= 1
	 item 246, weight= 2503, color= 1
	 item 247, weight= 2550, color= 1
	 item 248, weight= 2562, color= 1
	 item 249, weight= 2566, color= 1
	 item 250, weight= 2568, color= 1
	 item 251, weight= 2596, color= 1
	 item 252, weight= 2643, color= 1
	 item 253, weight= 2657, color= 1
	 item 254, weight= 2669, color= 1
	 item 255, weight= 2684, color= 1
	 item 256, weight= 2890, color= 1
	 item 257, weight= 2900, color= 1
	 item 258, weight= 2910, color= 1
	 item 259, weight= 2983, color= 1
	 item 260, weight= 2997, color= 1
	 item 261, weight= 3040, color= 1
	 item 262, weight= 3052, color= 1
	 item 263, weight= 3204, color= 1
	 item 264, weight= 3322, color= 1
	 item 265, weight= 3342, color= 1
	 item 266, weight= 3382, color= 1
	 item 267, weight= 3388, color= 1
	 item 268, weight= 3389, color= 1
	 item 269, weight= 3390, color= 1
	 item 270, weight= 3391, color= 1
	 item 271, weight= 3518, color= 1
	 item 272, weight= 3576, color= 1
	 item 273, weight= 4024, color= 1
	 item 274, weight= 4069, color= 1
	 item 275, weight= 4070, color= 1
	 item 276, weight= 4071, color= 1
	 item 277, weight= 4076, color= 1
	 item 278, weight= 4078, color= 1
	 item 279, weight= 4086, color= 1
	 item 280, weight= 4126, color= 1
	 item 281, weight= 4150, color= 1
	 item 282, weight= 4292, color= 1
	 item 283, weight= 4476, color= 1
	 item 284, weight= 4541, color= 1
	 item 285, weight= 4557, color= 1
	 item 286, weight= 4646, color= 1
	 item 287, weight= 4660, color= 1
	 item 288, weight= 4686, color= 1
	 item 289, weight= 4916, color= 1
	 item 290, weight= 4935, color= 1
	 item 291, weight= 4949, color= 1
	 item 292, weight= 4965, color= 1
	 item 293, weight= 5028, color= 1
	 item 294, weight= 5058, color= 1
	 item 295, weight= 5072, color= 1
	 item 296, weight= 5078, color= 1
	 item 297, weight= 5118, color= 1
	 item 298, weight= 5220, color= 1
	 item 299, weight= 5244, color= 1
	 item 300, weight= 5289, color= 1
	 item 301, weight= 5355, color= 1
	 item 302, weight= 5367, color= 1
	 item 303, weight= 5371, color= 1
	 item 304, weight= 5388, color= 1
	 item 305, weight= 5406, color= 1
	 item 306, weight= 5428, color= 1
	 item 307, weight= 5446, color= 1
	 item 308, weight= 5462, color= 1
	 item 309, weight= 5478, color= 1
	 item 310, weight= 5627, color= 1
	 item 311, weight= 5643, color= 1
	 item 312, weight= 5667, color= 1
	 item 313, weight= 5668, color= 1
	 item 314, weight= 5683, color= 1
	 item 315, weight= 5750, color= 1
	 item 316, weight= 5780, color= 1
	 item 317, weight= 5790, color= 1
	 item 318, weight= 5806, color= 1
	 item 319, weight= 5820, color= 1
	 item 320, weight= 5822, color= 1
	 item 321, weight= 5830, color= 1
	 item 322, weight= 5887, color= 1
	 item 323, weight= 5903, color= 1
	 item 324, weight= 6046, color= 1
	 item 325, weight= 6071, color= 1
	 item 326, weight= 6073, color= 1
	 item 327, weight= 6086, color= 1
	 item 328, weight= 6097, color= 1
	 item 329, weight= 6108, color= 1
	 item 330, weight= 6113, color= 1
	 item 331, weight= 6118, color= 1
	 item 332, weight= 6148, color= 1
	 item 333, weight= 6227, color= 1
	 item 334, weight= 6251, color= 1
	 item 335, weight= 6267, color= 1
	 item 336, weight= 6268, color= 1
	 item 337, weight= 6283, color= 1
	 item 338, weight= 6286, color= 1
	 item 339, weight= 6326, color= 1
	 item 340, weight= 6342, color= 1
	 item 341, weight= 6380, color= 1
	 item 342, weight= 6411, color= 1
	 item 343, weight= 6435, color= 1
	 item 344, weight= 6460, color= 1
	 item 345, weight= 6470, color= 1
	 item 346, weight= 6471, color= 1
	 item 347, weight= 6510, color= 1
	 item 348, weight= 6513, color= 1
	 item 349, weight= 6516, color= 1
	 item 350, weight= 6520, color= 1
	 item 351, weight= 6542, color= 1
	 item 352, weight= 6574, color= 1
	 item 353, weight= 6579, color= 1
	 item 354, weight= 6606, color= 1
	 item 355, weight= 6612, color= 1
	 item 356, weight= 6633, color= 1
	 item 357, weight= 6652, color= 1
	 item 358, weight= 6654, color= 1
	 item 359, weight= 6670, color= 1
	 item 360, weight= 6694, color= 1
	 item 361, weight= 6695, color= 1
	 item 362, weight= 6719, color= 1
	 item 363, weight= 6759, color= 1
	 item 364, weight= 6764, color= 1
	 item 365, weight= 6766, color= 1
	 item 366, weight= 6796, color= 1
	 item 367, weight= 6799, color= 1
	 item 368, weight= 6806, color= 1
	 item 369, weight= 6836, color= 1
	 item 370, weight= 6846, color= 1
	 item 371, weight= 6867, color= 1
	 item 372, weight= 6876, color= 1
	 item 373, weight= 6886, color= 1
	 item 374, weight= 6887, color= 1
	 item 375, weight= 6916, color= 1
	 item 376, weight= 6926, color= 1
	 item 377, weight= 6945, color= 1
	 item 378, weight= 6962, color= 1
	 item 379, weight= 6969, color= 1
	 item 380, weight= 7011, color= 1
	 item 381, weight= 7020, color= 1
	 item 382, weight= 7028, color= 1
	 item 383, weight= 7030, color= 1
	 item 384, weight= 7042, color= 1
	 item 385, weight= 7082, color= 1
	 item 386, weight= 7090, color= 1
	 item 387, weight= 7122, color= 1
	 item 388, weight= 7140, color= 1
	 item 389, weight= 7148, color= 1
	 item 390, weight= 7162, color= 1
	 item 391, weight= 7180, color= 1
	 item 392, weight= 7190, color= 1
	 item 393, weight= 7198, color= 1
	 item 394, weight= 7220, color= 1
	 item 395, weight= 7232, color= 1
	 item 396, weight= 7244, color= 1
	 item 397, weight= 7246, color= 1
	 item 398, weight= 7260, color= 1
	 item 399, weight= 7264, color= 1
	 item 400, weight= 7270, color= 1
	 item 401, weight= 7286, color= 1
	 item 402, weight= 7302, color= 1
	 item 403, weight= 7316, color= 1

VRPSolver warning: Interval set for resource 1 on source node (when source != sink) is ignored (by definition is [0.0,0.0])
VRPSolver warning: Interval set for resource 2 on source node (when source != sink) is ignored (by definition is [0.0,0.0])
VRPSolver warning: Interval set for resource 3 on source node (when source != sink) is ignored (by definition is [0.0,0.0])
[41m solve [00m
~~~~~~~~~~~~~~~~~~~~~~~~~~~~~~~~~~~~~~~~~~~~~~~~~~~~~~~~~~~~~~~~~~~~~~~~~~~~~~
VRPSolver v0.4.1, 24/03/2021. Web: vrpsolver.math.u-bordeaux.fr
Corresponds to the solver by Pessoa, Sadykov, Uchoa and Vanderbeck (2020)
Paper: dx.doi.org/10.1007/s10107-020-01523-z
USE THIS CODE ONLY FOR ACADEMIC PURPOSES AT YOUR OWN RISK
~~~~~~~~~~~~~~~~~~~~~~~~~~~~~~~~~~~~~~~~~~~~~~~~~~~~~~~~~~~~~~~~~~~~~~~~~~~~~~
BaPCod v053, 24/03/2021, © Inria Bordeaux, France
~~~~~~~~~~~~~~~~~~~~~~~~~~~~~~~~~~~~~~~~~~~~~~~~~~~~~~~~~~~~~~~~~~~~~~~~~~~~~~
VRPSolver parameters:
GlobalTimeLimit = 60
MaxNbOfBBtreeNodeTreated = 100000
treeSearchStrategy = 1
RCSPstopCutGenTimeThresholdInPricing = 10
RCSPhardTimeThresholdInPricing = 20
RCSPnumberOfBucketsPerVertex = 2000
RCSPdynamicBucketSteps = 0
RCSPuseBidirectionalSearch = 1
RCSPapplyReducedCostFixing = 1
RCSPredCostFixingFalseGap = 0
RCSPmaxNumOfColsPerIteration = 100
RCSPmaxNumOfColsPerExactIteration = 100
RCSPheurLabelingStrategy = 4
StabilizationMinPhaseOfStage = 1
RCSPmaxNumOfLabelsInEnumeration = 100000
RCSPmaxNumOfEnumeratedSolutions = 1000000
RCSPmaxNumOfEnumSolutionsForMIP = 100000
RCSPinitNGneighbourhoodSize = 0
RCSPmaxNGneighbourhoodSize = 0
RCSPrankOneCutsMaxNumPerRound = 100
RCSPrankOneCutsMaxNumRows = -1
RCSPrankOneCutsMemoryType = 2
CutTailingOffThreshold = 0.02
CutTailingOffCounterThreshold = 3
SafeDualBoundScaleFactor = -1
StrongBranchingPhaseOneCandidatesNumber = 100
StrongBranchingPhaseOneTreeSizeEstimRatio = 0.3
StrongBranchingPhaseTwoCandidatesNumber = 1
StrongBranchingPhaseTwoTreeSizeEstimRatio = 0.1
MaxTimeForRestrictedMasterIpHeur = -1
DivingHeurUseDepthLimit = 0
MaxLDSbreadth = 3
MaxLDSdepth = 2
New model incumbent solution 1e+06, TIME = 0h0m0s3t = 3
Model is built TIME = 0h0m2s66t = 266
************************************************************************************************
**** BaB tree root node
**** Local DB = -1e+12, global bounds : [ -1e+12 , 1e+06 ], TIME = 0h0m2s66t = 266
**** 1 open nodes, 0 columns (0 active), 0 dyn. constrs. (0 active), 808 art. vars. (808 active)
************************************************************************************************
<DWph=2> <it= 10> <et=7.72> <Mt= 0.01> <Spt= 5.03> <nCl=1000> <DB=-1530104012.1924> <Mlp=396000037.0000> <PB=1000000> 
<DWph=2> <it= 20> <et=13.04> <Mt= 0.02> <Spt= 5.30> <nCl=1000> <DB=-1727129765.3729> <Mlp=318400056.3333> <PB=1000000> 
<DWph=2> <it= 30> <et=18.53> <Mt= 0.07> <Spt= 5.43> <nCl=1000> <DB=-5153136733.6242> <Mlp=244888299.2059> <PB=1000000> 
<DWph=2> <it= 40> <et=24.80> <Mt= 0.17> <Spt= 6.08> <nCl=1000> <DB=-3789098225.0256> <Mlp=209892366.4744> <PB=1000000> 
<DWph=2> <it= 50> <et=31.24> <Mt= 0.23> <Spt= 6.21> <nCl=1000> <DB=-2399795116.0733> <Mlp=193893102.1573> <PB=1000000> 
<DWph=2> <it= 60> <et=37.96> <Mt= 0.44> <Spt= 6.28> <nCl=1000> <DB=-2058628356.7526> <Mlp=170826033.9447> <PB=1000000> 
<DWph=2> <it= 70> <et=45.85> <Mt= 0.64> <Spt= 7.26> <nCl=1000> <DB=-1207353388.9585> <Mlp=160259721.9691> <PB=1000000> 
<DWph=2> <it= 80> <et=54.15> <Mt= 0.75> <Spt= 7.54> <nCl=1000> <DB=-1340419396.2766> <Mlp=147525625.2628> <PB=1000000> 
<DWph=2> <it= 90> <et=62.76> <Mt= 0.67> <Spt= 7.95> <nCl=1000> <DB=-814814983.8186> <Mlp=141131642.8929> <PB=1000000> 
Global time limit is reached during column generation
SEARCH IS INTERRUPTED as the time limit is reached. 
ColGenEvalAlg final dual bound: -1e+12 (rounded: -1e+12)
************************************************************************************************
Search is finished, global bounds : [ -1e+12 , 1e+06 ], TIME = 0h1m2s92t = 6292
************************************************************************************************
statistics_cols: instance & :Optimal & cutoff & :bcRecRootDb & :bcTimeRootEval & :bcCountNodeProc & :bcRecBestDb & :bcRecBestInc & :bcTimeMain \\
statistics: 402_10000_DI_35 & 0 & 1.0e6 & -999999999901.00 & 62.89 & 1 & 0.00 & -- & 62.92 \\
########################################################
Solution not found
########################################################
