Application parameters:
  batch  =>  nothing
  instance  =>  "/IN/402_10000_DI_29.txt-Q2Half"
  ub  =>  1.0e6
  cfg  =>  "/CFG/BPP.cfg"
data = Colored Bin Packing dataset.
number of items = 403
number of colors = 2
capacity = 7512
Items : 
	 item 1, weight= 16, color= 0
	 item 2, weight= 28, color= 0
	 item 3, weight= 32, color= 0
	 item 4, weight= 56, color= 0
	 item 5, weight= 56, color= 0
	 item 6, weight= 56, color= 0
	 item 7, weight= 66, color= 0
	 item 8, weight= 96, color= 0
	 item 9, weight= 96, color= 0
	 item 10, weight= 104, color= 0
	 item 11, weight= 108, color= 0
	 item 12, weight= 112, color= 0
	 item 13, weight= 120, color= 0
	 item 14, weight= 120, color= 0
	 item 15, weight= 120, color= 0
	 item 16, weight= 128, color= 0
	 item 17, weight= 128, color= 0
	 item 18, weight= 128, color= 0
	 item 19, weight= 130, color= 0
	 item 20, weight= 132, color= 0
	 item 21, weight= 136, color= 0
	 item 22, weight= 138, color= 0
	 item 23, weight= 140, color= 0
	 item 24, weight= 144, color= 0
	 item 25, weight= 146, color= 0
	 item 26, weight= 148, color= 0
	 item 27, weight= 152, color= 0
	 item 28, weight= 152, color= 0
	 item 29, weight= 154, color= 0
	 item 30, weight= 156, color= 0
	 item 31, weight= 156, color= 0
	 item 32, weight= 158, color= 0
	 item 33, weight= 162, color= 0
	 item 34, weight= 162, color= 0
	 item 35, weight= 166, color= 0
	 item 36, weight= 166, color= 0
	 item 37, weight= 166, color= 0
	 item 38, weight= 168, color= 0
	 item 39, weight= 168, color= 0
	 item 40, weight= 170, color= 0
	 item 41, weight= 172, color= 0
	 item 42, weight= 176, color= 0
	 item 43, weight= 184, color= 0
	 item 44, weight= 184, color= 0
	 item 45, weight= 184, color= 0
	 item 46, weight= 186, color= 0
	 item 47, weight= 188, color= 0
	 item 48, weight= 188, color= 0
	 item 49, weight= 188, color= 0
	 item 50, weight= 192, color= 0
	 item 51, weight= 192, color= 0
	 item 52, weight= 192, color= 0
	 item 53, weight= 192, color= 0
	 item 54, weight= 200, color= 0
	 item 55, weight= 204, color= 0
	 item 56, weight= 206, color= 0
	 item 57, weight= 208, color= 0
	 item 58, weight= 210, color= 0
	 item 59, weight= 212, color= 0
	 item 60, weight= 216, color= 0
	 item 61, weight= 216, color= 0
	 item 62, weight= 222, color= 0
	 item 63, weight= 224, color= 0
	 item 64, weight= 224, color= 0
	 item 65, weight= 232, color= 0
	 item 66, weight= 232, color= 0
	 item 67, weight= 236, color= 0
	 item 68, weight= 236, color= 0
	 item 69, weight= 238, color= 0
	 item 70, weight= 240, color= 0
	 item 71, weight= 244, color= 0
	 item 72, weight= 248, color= 0
	 item 73, weight= 256, color= 0
	 item 74, weight= 264, color= 0
	 item 75, weight= 268, color= 0
	 item 76, weight= 272, color= 0
	 item 77, weight= 276, color= 0
	 item 78, weight= 278, color= 0
	 item 79, weight= 280, color= 0
	 item 80, weight= 280, color= 0
	 item 81, weight= 280, color= 0
	 item 82, weight= 288, color= 0
	 item 83, weight= 296, color= 0
	 item 84, weight= 304, color= 0
	 item 85, weight= 312, color= 0
	 item 86, weight= 312, color= 0
	 item 87, weight= 314, color= 0
	 item 88, weight= 316, color= 0
	 item 89, weight= 320, color= 0
	 item 90, weight= 328, color= 0
	 item 91, weight= 336, color= 0
	 item 92, weight= 344, color= 0
	 item 93, weight= 348, color= 0
	 item 94, weight= 348, color= 0
	 item 95, weight= 348, color= 0
	 item 96, weight= 352, color= 1
	 item 97, weight= 356, color= 0
	 item 98, weight= 356, color= 0
	 item 99, weight= 356, color= 0
	 item 100, weight= 368, color= 0
	 item 101, weight= 368, color= 0
	 item 102, weight= 392, color= 0
	 item 103, weight= 400, color= 0
	 item 104, weight= 404, color= 0
	 item 105, weight= 404, color= 0
	 item 106, weight= 406, color= 0
	 item 107, weight= 408, color= 0
	 item 108, weight= 412, color= 0
	 item 109, weight= 416, color= 0
	 item 110, weight= 424, color= 0
	 item 111, weight= 424, color= 0
	 item 112, weight= 464, color= 0
	 item 113, weight= 464, color= 0
	 item 114, weight= 464, color= 0
	 item 115, weight= 464, color= 0
	 item 116, weight= 466, color= 0
	 item 117, weight= 468, color= 0
	 item 118, weight= 472, color= 0
	 item 119, weight= 476, color= 0
	 item 120, weight= 504, color= 0
	 item 121, weight= 512, color= 0
	 item 122, weight= 532, color= 0
	 item 123, weight= 532, color= 0
	 item 124, weight= 532, color= 0
	 item 125, weight= 536, color= 0
	 item 126, weight= 538, color= 0
	 item 127, weight= 538, color= 0
	 item 128, weight= 540, color= 0
	 item 129, weight= 544, color= 1
	 item 130, weight= 576, color= 0
	 item 131, weight= 592, color= 0
	 item 132, weight= 608, color= 0
	 item 133, weight= 624, color= 0
	 item 134, weight= 624, color= 0
	 item 135, weight= 624, color= 0
	 item 136, weight= 624, color= 0
	 item 137, weight= 624, color= 0
	 item 138, weight= 642, color= 1
	 item 139, weight= 644, color= 1
	 item 140, weight= 651, color= 1
	 item 141, weight= 670, color= 1
	 item 142, weight= 684, color= 1
	 item 143, weight= 694, color= 1
	 item 144, weight= 699, color= 1
	 item 145, weight= 701, color= 1
	 item 146, weight= 722, color= 1
	 item 147, weight= 724, color= 1
	 item 148, weight= 737, color= 1
	 item 149, weight= 737, color= 1
	 item 150, weight= 745, color= 1
	 item 151, weight= 764, color= 1
	 item 152, weight= 778, color= 1
	 item 153, weight= 780, color= 1
	 item 154, weight= 782, color= 1
	 item 155, weight= 785, color= 1
	 item 156, weight= 789, color= 1
	 item 157, weight= 791, color= 1
	 item 158, weight= 811, color= 1
	 item 159, weight= 815, color= 1
	 item 160, weight= 826, color= 1
	 item 161, weight= 831, color= 1
	 item 162, weight= 839, color= 1
	 item 163, weight= 846, color= 1
	 item 164, weight= 852, color= 1
	 item 165, weight= 859, color= 1
	 item 166, weight= 871, color= 1
	 item 167, weight= 884, color= 1
	 item 168, weight= 897, color= 1
	 item 169, weight= 914, color= 1
	 item 170, weight= 929, color= 1
	 item 171, weight= 932, color= 1
	 item 172, weight= 934, color= 1
	 item 173, weight= 935, color= 1
	 item 174, weight= 936, color= 0
	 item 175, weight= 946, color= 1
	 item 176, weight= 954, color= 1
	 item 177, weight= 962, color= 1
	 item 178, weight= 962, color= 1
	 item 179, weight= 963, color= 1
	 item 180, weight= 972, color= 1
	 item 181, weight= 980, color= 1
	 item 182, weight= 990, color= 1
	 item 183, weight= 1021, color= 1
	 item 184, weight= 1024, color= 1
	 item 185, weight= 1028, color= 1
	 item 186, weight= 1055, color= 1
	 item 187, weight= 1066, color= 1
	 item 188, weight= 1070, color= 1
	 item 189, weight= 1087, color= 1
	 item 190, weight= 1092, color= 1
	 item 191, weight= 1102, color= 1
	 item 192, weight= 1136, color= 1
	 item 193, weight= 1140, color= 1
	 item 194, weight= 1143, color= 1
	 item 195, weight= 1163, color= 1
	 item 196, weight= 1182, color= 1
	 item 197, weight= 1194, color= 1
	 item 198, weight= 1201, color= 1
	 item 199, weight= 1202, color= 1
	 item 200, weight= 1220, color= 1
	 item 201, weight= 1242, color= 1
	 item 202, weight= 1245, color= 1
	 item 203, weight= 1292, color= 1
	 item 204, weight= 1338, color= 1
	 item 205, weight= 1347, color= 1
	 item 206, weight= 1350, color= 1
	 item 207, weight= 1372, color= 1
	 item 208, weight= 1380, color= 1
	 item 209, weight= 1387, color= 1
	 item 210, weight= 1393, color= 1
	 item 211, weight= 1420, color= 1
	 item 212, weight= 1422, color= 1
	 item 213, weight= 1432, color= 0
	 item 214, weight= 1468, color= 1
	 item 215, weight= 1530, color= 1
	 item 216, weight= 1563, color= 1
	 item 217, weight= 1566, color= 1
	 item 218, weight= 1577, color= 1
	 item 219, weight= 1581, color= 1
	 item 220, weight= 1610, color= 1
	 item 221, weight= 1612, color= 1
	 item 222, weight= 1620, color= 1
	 item 223, weight= 1661, color= 1
	 item 224, weight= 1668, color= 1
	 item 225, weight= 1692, color= 1
	 item 226, weight= 1742, color= 1
	 item 227, weight= 1746, color= 1
	 item 228, weight= 1754, color= 1
	 item 229, weight= 1762, color= 1
	 item 230, weight= 1783, color= 1
	 item 231, weight= 1789, color= 1
	 item 232, weight= 1802, color= 1
	 item 233, weight= 1860, color= 1
	 item 234, weight= 1964, color= 1
	 item 235, weight= 2022, color= 1
	 item 236, weight= 2026, color= 1
	 item 237, weight= 2031, color= 1
	 item 238, weight= 2037, color= 1
	 item 239, weight= 2044, color= 1
	 item 240, weight= 2066, color= 1
	 item 241, weight= 2092, color= 1
	 item 242, weight= 2148, color= 1
	 item 243, weight= 2180, color= 1
	 item 244, weight= 2329, color= 1
	 item 245, weight= 2335, color= 1
	 item 246, weight= 2342, color= 1
	 item 247, weight= 2346, color= 1
	 item 248, weight= 2380, color= 1
	 item 249, weight= 2386, color= 1
	 item 250, weight= 2492, color= 1
	 item 251, weight= 2520, color= 1
	 item 252, weight= 2524, color= 1
	 item 253, weight= 2588, color= 1
	 item 254, weight= 2666, color= 1
	 item 255, weight= 2674, color= 1
	 item 256, weight= 2682, color= 1
	 item 257, weight= 2687, color= 1
	 item 258, weight= 2693, color= 1
	 item 259, weight= 2701, color= 1
	 item 260, weight= 2722, color= 1
	 item 261, weight= 2722, color= 1
	 item 262, weight= 2726, color= 1
	 item 263, weight= 2784, color= 1
	 item 264, weight= 2916, color= 1
	 item 265, weight= 2988, color= 1
	 item 266, weight= 3052, color= 1
	 item 267, weight= 3124, color= 1
	 item 268, weight= 3126, color= 1
	 item 269, weight= 3129, color= 1
	 item 270, weight= 3130, color= 1
	 item 271, weight= 3131, color= 1
	 item 272, weight= 3296, color= 1
	 item 273, weight= 3720, color= 1
	 item 274, weight= 3757, color= 1
	 item 275, weight= 3758, color= 1
	 item 276, weight= 3759, color= 1
	 item 277, weight= 3762, color= 1
	 item 278, weight= 3764, color= 1
	 item 279, weight= 3852, color= 1
	 item 280, weight= 4020, color= 1
	 item 281, weight= 4156, color= 1
	 item 282, weight= 4246, color= 1
	 item 283, weight= 4250, color= 1
	 item 284, weight= 4273, color= 1
	 item 285, weight= 4281, color= 1
	 item 286, weight= 4289, color= 1
	 item 287, weight= 4298, color= 1
	 item 288, weight= 4306, color= 1
	 item 289, weight= 4314, color= 1
	 item 290, weight= 4322, color= 1
	 item 291, weight= 4412, color= 1
	 item 292, weight= 4484, color= 1
	 item 293, weight= 4650, color= 1
	 item 294, weight= 4660, color= 1
	 item 295, weight= 4696, color= 1
	 item 296, weight= 4698, color= 1
	 item 297, weight= 4706, color= 1
	 item 298, weight= 4711, color= 1
	 item 299, weight= 4719, color= 1
	 item 300, weight= 4796, color= 1
	 item 301, weight= 4940, color= 1
	 item 302, weight= 5004, color= 1
	 item 303, weight= 5034, color= 1
	 item 304, weight= 5060, color= 1
	 item 305, weight= 5069, color= 1
	 item 306, weight= 5077, color= 1
	 item 307, weight= 5082, color= 1
	 item 308, weight= 5090, color= 1
	 item 309, weight= 5156, color= 1
	 item 310, weight= 5236, color= 1
	 item 311, weight= 5284, color= 1
	 item 312, weight= 5354, color= 1
	 item 313, weight= 5367, color= 1
	 item 314, weight= 5373, color= 1
	 item 315, weight= 5402, color= 1
	 item 316, weight= 5410, color= 1
	 item 317, weight= 5418, color= 1
	 item 318, weight= 5426, color= 1
	 item 319, weight= 5484, color= 1
	 item 320, weight= 5516, color= 1
	 item 321, weight= 5580, color= 1
	 item 322, weight= 5612, color= 1
	 item 323, weight= 5615, color= 1
	 item 324, weight= 5621, color= 1
	 item 325, weight= 5629, color= 1
	 item 326, weight= 5634, color= 1
	 item 327, weight= 5637, color= 1
	 item 328, weight= 5678, color= 1
	 item 329, weight= 5756, color= 1
	 item 330, weight= 5810, color= 1
	 item 331, weight= 5812, color= 1
	 item 332, weight= 5841, color= 1
	 item 333, weight= 5846, color= 1
	 item 334, weight= 5849, color= 1
	 item 335, weight= 5860, color= 1
	 item 336, weight= 5894, color= 1
	 item 337, weight= 5910, color= 1
	 item 338, weight= 5964, color= 1
	 item 339, weight= 6000, color= 1
	 item 340, weight= 6011, color= 1
	 item 341, weight= 6019, color= 1
	 item 342, weight= 6026, color= 1
	 item 343, weight= 6052, color= 1
	 item 344, weight= 6073, color= 1
	 item 345, weight= 6074, color= 1
	 item 346, weight= 6082, color= 1
	 item 347, weight= 6084, color= 1
	 item 348, weight= 6098, color= 1
	 item 349, weight= 6117, color= 1
	 item 350, weight= 6148, color= 1
	 item 351, weight= 6194, color= 1
	 item 352, weight= 6203, color= 1
	 item 353, weight= 6204, color= 1
	 item 354, weight= 6219, color= 1
	 item 355, weight= 6230, color= 1
	 item 356, weight= 6238, color= 1
	 item 357, weight= 6247, color= 1
	 item 358, weight= 6284, color= 1
	 item 359, weight= 6287, color= 1
	 item 360, weight= 6340, color= 1
	 item 361, weight= 6348, color= 1
	 item 362, weight= 6357, color= 1
	 item 363, weight= 6358, color= 1
	 item 364, weight= 6362, color= 1
	 item 365, weight= 6370, color= 1
	 item 366, weight= 6378, color= 1
	 item 367, weight= 6391, color= 1
	 item 368, weight= 6394, color= 1
	 item 369, weight= 6396, color= 1
	 item 370, weight= 6399, color= 1
	 item 371, weight= 6452, color= 1
	 item 372, weight= 6469, color= 1
	 item 373, weight= 6478, color= 1
	 item 374, weight= 6483, color= 1
	 item 375, weight= 6490, color= 1
	 item 376, weight= 6492, color= 1
	 item 377, weight= 6498, color= 1
	 item 378, weight= 6503, color= 1
	 item 379, weight= 6507, color= 1
	 item 380, weight= 6515, color= 1
	 item 381, weight= 6535, color= 1
	 item 382, weight= 6539, color= 1
	 item 383, weight= 6563, color= 1
	 item 384, weight= 6571, color= 1
	 item 385, weight= 6574, color= 1
	 item 386, weight= 6582, color= 1
	 item 387, weight= 6588, color= 1
	 item 388, weight= 6596, color= 1
	 item 389, weight= 6619, color= 1
	 item 390, weight= 6629, color= 1
	 item 391, weight= 6650, color= 1
	 item 392, weight= 6657, color= 1
	 item 393, weight= 6658, color= 1
	 item 394, weight= 6668, color= 1
	 item 395, weight= 6675, color= 1
	 item 396, weight= 6682, color= 1
	 item 397, weight= 6700, color= 1
	 item 398, weight= 6703, color= 1
	 item 399, weight= 6710, color= 1
	 item 400, weight= 6731, color= 1
	 item 401, weight= 6740, color= 1
	 item 402, weight= 6742, color= 1
	 item 403, weight= 6759, color= 1

VRPSolver warning: Interval set for resource 1 on source node (when source != sink) is ignored (by definition is [0.0,0.0])
VRPSolver warning: Interval set for resource 2 on source node (when source != sink) is ignored (by definition is [0.0,0.0])
VRPSolver warning: Interval set for resource 3 on source node (when source != sink) is ignored (by definition is [0.0,0.0])
[41m solve [00m
~~~~~~~~~~~~~~~~~~~~~~~~~~~~~~~~~~~~~~~~~~~~~~~~~~~~~~~~~~~~~~~~~~~~~~~~~~~~~~
VRPSolver v0.4.1, 24/03/2021. Web: vrpsolver.math.u-bordeaux.fr
Corresponds to the solver by Pessoa, Sadykov, Uchoa and Vanderbeck (2020)
Paper: dx.doi.org/10.1007/s10107-020-01523-z
USE THIS CODE ONLY FOR ACADEMIC PURPOSES AT YOUR OWN RISK
~~~~~~~~~~~~~~~~~~~~~~~~~~~~~~~~~~~~~~~~~~~~~~~~~~~~~~~~~~~~~~~~~~~~~~~~~~~~~~
BaPCod v053, 24/03/2021, © Inria Bordeaux, France
~~~~~~~~~~~~~~~~~~~~~~~~~~~~~~~~~~~~~~~~~~~~~~~~~~~~~~~~~~~~~~~~~~~~~~~~~~~~~~
VRPSolver parameters:
GlobalTimeLimit = 60
MaxNbOfBBtreeNodeTreated = 100000
treeSearchStrategy = 1
RCSPstopCutGenTimeThresholdInPricing = 10
RCSPhardTimeThresholdInPricing = 20
RCSPnumberOfBucketsPerVertex = 2000
RCSPdynamicBucketSteps = 0
RCSPuseBidirectionalSearch = 1
RCSPapplyReducedCostFixing = 1
RCSPredCostFixingFalseGap = 0
RCSPmaxNumOfColsPerIteration = 100
RCSPmaxNumOfColsPerExactIteration = 100
RCSPheurLabelingStrategy = 4
StabilizationMinPhaseOfStage = 1
RCSPmaxNumOfLabelsInEnumeration = 100000
RCSPmaxNumOfEnumeratedSolutions = 1000000
RCSPmaxNumOfEnumSolutionsForMIP = 100000
RCSPinitNGneighbourhoodSize = 0
RCSPmaxNGneighbourhoodSize = 0
RCSPrankOneCutsMaxNumPerRound = 100
RCSPrankOneCutsMaxNumRows = -1
RCSPrankOneCutsMemoryType = 2
CutTailingOffThreshold = 0.02
CutTailingOffCounterThreshold = 3
SafeDualBoundScaleFactor = -1
StrongBranchingPhaseOneCandidatesNumber = 100
StrongBranchingPhaseOneTreeSizeEstimRatio = 0.3
StrongBranchingPhaseTwoCandidatesNumber = 1
StrongBranchingPhaseTwoTreeSizeEstimRatio = 0.1
MaxTimeForRestrictedMasterIpHeur = -1
DivingHeurUseDepthLimit = 0
MaxLDSbreadth = 3
MaxLDSdepth = 2
New model incumbent solution 1e+06, TIME = 0h0m0s3t = 3
Model is built TIME = 0h0m2s95t = 295
************************************************************************************************
**** BaB tree root node
**** Local DB = -1e+12, global bounds : [ -1e+12 , 1e+06 ], TIME = 0h0m2s95t = 295
**** 1 open nodes, 0 columns (0 active), 0 dyn. constrs. (0 active), 808 art. vars. (808 active)
************************************************************************************************
<DWph=2> <it= 10> <et=8.97> <Mt= 0.01> <Spt= 6.00> <nCl=1000> <DB=-1958662823.4723> <Mlp=420600028.5000> <PB=1000000> 
<DWph=2> <it= 20> <et=15.25> <Mt= 0.01> <Spt= 6.26> <nCl=1000> <DB=-2566893463.5795> <Mlp=345466713.0778> <PB=1000000> 
<DWph=2> <it= 30> <et=21.64> <Mt= 0.05> <Spt= 6.34> <nCl=1000> <DB=-2554733276.5197> <Mlp=291336827.8774> <PB=1000000> 
<DWph=2> <it= 40> <et=27.76> <Mt= 0.16> <Spt= 5.96> <nCl=1000> <DB=-3151364764.5065> <Mlp=221102078.0379> <PB=1000000> 
<DWph=2> <it= 50> <et=36.13> <Mt= 0.31> <Spt= 8.06> <nCl=1000> <DB=-2646504138.9152> <Mlp=198327505.9497> <PB=1000000> 
<DWph=2> <it= 60> <et=44.45> <Mt= 0.44> <Spt= 7.87> <nCl=1000> <DB=-2962938286.2863> <Mlp=185707542.4964> <PB=1000000> 
<DWph=2> <it= 70> <et=53.28> <Mt= 0.60> <Spt= 8.23> <nCl=1000> <DB=-2264749266.8514> <Mlp=169778909.0829> <PB=1000000> 
<DWph=2> <it= 80> <et=63.40> <Mt= 0.68> <Spt= 9.44> <nCl=1000> <DB=-1606318713.7774> <Mlp=160119825.5593> <PB=1000000> 
Global time limit is reached during column generation
SEARCH IS INTERRUPTED as the time limit is reached. 
ColGenEvalAlg final dual bound: -1e+12 (rounded: -1e+12)
************************************************************************************************
Search is finished, global bounds : [ -1e+12 , 1e+06 ], TIME = 0h1m3s57t = 6357
************************************************************************************************
statistics_cols: instance & :Optimal & cutoff & :bcRecRootDb & :bcTimeRootEval & :bcCountNodeProc & :bcRecBestDb & :bcRecBestInc & :bcTimeMain \\
statistics: 402_10000_DI_29 & 0 & 1.0e6 & -999999999901.00 & 63.54 & 1 & 0.00 & -- & 63.57 \\
########################################################
Solution not found
########################################################
