Application parameters:
  batch  =>  nothing
  instance  =>  "/IN/600_20000_DI_23.txt-Q2Half"
  ub  =>  1.0e6
  cfg  =>  "/CFG/BPP.cfg"
data = Colored Bin Packing dataset.
number of items = 601
number of colors = 2
capacity = 16480
Items : 
	 item 1, weight= 48, color= 0
	 item 2, weight= 68, color= 0
	 item 3, weight= 92, color= 0
	 item 4, weight= 92, color= 0
	 item 5, weight= 96, color= 0
	 item 6, weight= 120, color= 0
	 item 7, weight= 144, color= 0
	 item 8, weight= 168, color= 0
	 item 9, weight= 176, color= 0
	 item 10, weight= 210, color= 0
	 item 11, weight= 216, color= 0
	 item 12, weight= 216, color= 0
	 item 13, weight= 252, color= 0
	 item 14, weight= 264, color= 0
	 item 15, weight= 272, color= 0
	 item 16, weight= 272, color= 0
	 item 17, weight= 272, color= 0
	 item 18, weight= 272, color= 0
	 item 19, weight= 272, color= 0
	 item 20, weight= 280, color= 0
	 item 21, weight= 288, color= 0
	 item 22, weight= 288, color= 0
	 item 23, weight= 288, color= 0
	 item 24, weight= 288, color= 0
	 item 25, weight= 296, color= 0
	 item 26, weight= 296, color= 0
	 item 27, weight= 300, color= 0
	 item 28, weight= 304, color= 0
	 item 29, weight= 304, color= 0
	 item 30, weight= 304, color= 0
	 item 31, weight= 304, color= 0
	 item 32, weight= 308, color= 0
	 item 33, weight= 312, color= 0
	 item 34, weight= 320, color= 0
	 item 35, weight= 320, color= 0
	 item 36, weight= 324, color= 0
	 item 37, weight= 332, color= 0
	 item 38, weight= 336, color= 0
	 item 39, weight= 340, color= 0
	 item 40, weight= 342, color= 0
	 item 41, weight= 344, color= 0
	 item 42, weight= 344, color= 0
	 item 43, weight= 346, color= 0
	 item 44, weight= 348, color= 0
	 item 45, weight= 352, color= 0
	 item 46, weight= 352, color= 0
	 item 47, weight= 352, color= 0
	 item 48, weight= 354, color= 0
	 item 49, weight= 358, color= 0
	 item 50, weight= 362, color= 0
	 item 51, weight= 362, color= 0
	 item 52, weight= 366, color= 0
	 item 53, weight= 368, color= 0
	 item 54, weight= 368, color= 0
	 item 55, weight= 368, color= 0
	 item 56, weight= 370, color= 0
	 item 57, weight= 374, color= 0
	 item 58, weight= 376, color= 0
	 item 59, weight= 376, color= 0
	 item 60, weight= 378, color= 0
	 item 61, weight= 382, color= 0
	 item 62, weight= 384, color= 0
	 item 63, weight= 384, color= 0
	 item 64, weight= 386, color= 0
	 item 65, weight= 392, color= 0
	 item 66, weight= 394, color= 0
	 item 67, weight= 396, color= 0
	 item 68, weight= 396, color= 0
	 item 69, weight= 398, color= 0
	 item 70, weight= 404, color= 0
	 item 71, weight= 404, color= 0
	 item 72, weight= 408, color= 0
	 item 73, weight= 408, color= 0
	 item 74, weight= 408, color= 0
	 item 75, weight= 414, color= 0
	 item 76, weight= 416, color= 0
	 item 77, weight= 416, color= 0
	 item 78, weight= 428, color= 0
	 item 79, weight= 432, color= 0
	 item 80, weight= 432, color= 0
	 item 81, weight= 436, color= 0
	 item 82, weight= 440, color= 0
	 item 83, weight= 448, color= 0
	 item 84, weight= 448, color= 0
	 item 85, weight= 452, color= 0
	 item 86, weight= 456, color= 0
	 item 87, weight= 464, color= 0
	 item 88, weight= 472, color= 0
	 item 89, weight= 474, color= 0
	 item 90, weight= 476, color= 0
	 item 91, weight= 480, color= 0
	 item 92, weight= 480, color= 0
	 item 93, weight= 496, color= 0
	 item 94, weight= 496, color= 0
	 item 95, weight= 496, color= 0
	 item 96, weight= 512, color= 0
	 item 97, weight= 514, color= 0
	 item 98, weight= 518, color= 0
	 item 99, weight= 528, color= 0
	 item 100, weight= 528, color= 0
	 item 101, weight= 532, color= 0
	 item 102, weight= 536, color= 0
	 item 103, weight= 540, color= 0
	 item 104, weight= 544, color= 0
	 item 105, weight= 544, color= 0
	 item 106, weight= 560, color= 0
	 item 107, weight= 560, color= 0
	 item 108, weight= 560, color= 0
	 item 109, weight= 560, color= 0
	 item 110, weight= 562, color= 0
	 item 111, weight= 566, color= 0
	 item 112, weight= 570, color= 0
	 item 113, weight= 570, color= 0
	 item 114, weight= 574, color= 0
	 item 115, weight= 574, color= 0
	 item 116, weight= 578, color= 0
	 item 117, weight= 584, color= 0
	 item 118, weight= 584, color= 0
	 item 119, weight= 586, color= 0
	 item 120, weight= 592, color= 0
	 item 121, weight= 592, color= 0
	 item 122, weight= 600, color= 0
	 item 123, weight= 608, color= 0
	 item 124, weight= 616, color= 0
	 item 125, weight= 624, color= 0
	 item 126, weight= 632, color= 0
	 item 127, weight= 636, color= 0
	 item 128, weight= 640, color= 0
	 item 129, weight= 640, color= 0
	 item 130, weight= 646, color= 0
	 item 131, weight= 648, color= 0
	 item 132, weight= 652, color= 0
	 item 133, weight= 672, color= 0
	 item 134, weight= 680, color= 0
	 item 135, weight= 688, color= 0
	 item 136, weight= 688, color= 0
	 item 137, weight= 712, color= 0
	 item 138, weight= 712, color= 0
	 item 139, weight= 716, color= 0
	 item 140, weight= 718, color= 0
	 item 141, weight= 720, color= 0
	 item 142, weight= 724, color= 0
	 item 143, weight= 736, color= 0
	 item 144, weight= 742, color= 0
	 item 145, weight= 752, color= 0
	 item 146, weight= 768, color= 0
	 item 147, weight= 768, color= 0
	 item 148, weight= 776, color= 0
	 item 149, weight= 784, color= 0
	 item 150, weight= 800, color= 0
	 item 151, weight= 800, color= 0
	 item 152, weight= 804, color= 0
	 item 153, weight= 808, color= 0
	 item 154, weight= 812, color= 0
	 item 155, weight= 816, color= 0
	 item 156, weight= 832, color= 0
	 item 157, weight= 832, color= 0
	 item 158, weight= 872, color= 0
	 item 159, weight= 880, color= 0
	 item 160, weight= 880, color= 0
	 item 161, weight= 880, color= 0
	 item 162, weight= 888, color= 0
	 item 163, weight= 908, color= 0
	 item 164, weight= 910, color= 0
	 item 165, weight= 912, color= 0
	 item 166, weight= 912, color= 0
	 item 167, weight= 914, color= 0
	 item 168, weight= 916, color= 0
	 item 169, weight= 918, color= 0
	 item 170, weight= 924, color= 0
	 item 171, weight= 944, color= 0
	 item 172, weight= 944, color= 1
	 item 173, weight= 992, color= 0
	 item 174, weight= 1016, color= 0
	 item 175, weight= 1040, color= 0
	 item 176, weight= 1040, color= 0
	 item 177, weight= 1042, color= 0
	 item 178, weight= 1042, color= 0
	 item 179, weight= 1044, color= 0
	 item 180, weight= 1046, color= 0
	 item 181, weight= 1050, color= 0
	 item 182, weight= 1072, color= 1
	 item 183, weight= 1120, color= 1
	 item 184, weight= 1168, color= 0
	 item 185, weight= 1176, color= 0
	 item 186, weight= 1176, color= 1
	 item 187, weight= 1184, color= 0
	 item 188, weight= 1184, color= 0
	 item 189, weight= 1188, color= 0
	 item 190, weight= 1196, color= 0
	 item 191, weight= 1196, color= 0
	 item 192, weight= 1196, color= 0
	 item 193, weight= 1216, color= 0
	 item 194, weight= 1232, color= 0
	 item 195, weight= 1296, color= 1
	 item 196, weight= 1360, color= 0
	 item 197, weight= 1360, color= 1
	 item 198, weight= 1368, color= 0
	 item 199, weight= 1368, color= 0
	 item 200, weight= 1368, color= 0
	 item 201, weight= 1372, color= 0
	 item 202, weight= 1372, color= 0
	 item 203, weight= 1372, color= 0
	 item 204, weight= 1376, color= 0
	 item 205, weight= 1380, color= 0
	 item 206, weight= 1384, color= 1
	 item 207, weight= 1432, color= 1
	 item 208, weight= 1450, color= 1
	 item 209, weight= 1484, color= 1
	 item 210, weight= 1490, color= 1
	 item 211, weight= 1496, color= 1
	 item 212, weight= 1502, color= 1
	 item 213, weight= 1524, color= 1
	 item 214, weight= 1528, color= 1
	 item 215, weight= 1542, color= 1
	 item 216, weight= 1554, color= 1
	 item 217, weight= 1564, color= 1
	 item 218, weight= 1576, color= 1
	 item 219, weight= 1588, color= 1
	 item 220, weight= 1602, color= 1
	 item 221, weight= 1622, color= 1
	 item 222, weight= 1658, color= 1
	 item 223, weight= 1662, color= 1
	 item 224, weight= 1672, color= 1
	 item 225, weight= 1692, color= 1
	 item 226, weight= 1702, color= 1
	 item 227, weight= 1721, color= 1
	 item 228, weight= 1732, color= 1
	 item 229, weight= 1741, color= 1
	 item 230, weight= 1742, color= 1
	 item 231, weight= 1752, color= 1
	 item 232, weight= 1762, color= 1
	 item 233, weight= 1768, color= 1
	 item 234, weight= 1777, color= 1
	 item 235, weight= 1792, color= 1
	 item 236, weight= 1796, color= 1
	 item 237, weight= 1797, color= 1
	 item 238, weight= 1813, color= 1
	 item 239, weight= 1816, color= 1
	 item 240, weight= 1817, color= 1
	 item 241, weight= 1837, color= 1
	 item 242, weight= 1842, color= 1
	 item 243, weight= 1857, color= 1
	 item 244, weight= 1859, color= 1
	 item 245, weight= 1862, color= 1
	 item 246, weight= 1876, color= 1
	 item 247, weight= 1881, color= 1
	 item 248, weight= 1882, color= 0
	 item 249, weight= 1893, color= 1
	 item 250, weight= 1913, color= 1
	 item 251, weight= 1916, color= 1
	 item 252, weight= 1928, color= 1
	 item 253, weight= 1933, color= 1
	 item 254, weight= 1970, color= 1
	 item 255, weight= 1973, color= 1
	 item 256, weight= 1978, color= 1
	 item 257, weight= 1982, color= 1
	 item 258, weight= 1984, color= 0
	 item 259, weight= 1998, color= 1
	 item 260, weight= 2008, color= 1
	 item 261, weight= 2022, color= 1
	 item 262, weight= 2051, color= 1
	 item 263, weight= 2060, color= 1
	 item 264, weight= 2073, color= 1
	 item 265, weight= 2088, color= 1
	 item 266, weight= 2124, color= 1
	 item 267, weight= 2138, color= 1
	 item 268, weight= 2149, color= 1
	 item 269, weight= 2170, color= 1
	 item 270, weight= 2190, color= 1
	 item 271, weight= 2200, color= 1
	 item 272, weight= 2211, color= 1
	 item 273, weight= 2246, color= 1
	 item 274, weight= 2254, color= 1
	 item 275, weight= 2260, color= 1
	 item 276, weight= 2261, color= 1
	 item 277, weight= 2284, color= 1
	 item 278, weight= 2300, color= 0
	 item 279, weight= 2328, color= 0
	 item 280, weight= 2336, color= 1
	 item 281, weight= 2374, color= 1
	 item 282, weight= 2375, color= 1
	 item 283, weight= 2402, color= 1
	 item 284, weight= 2418, color= 1
	 item 285, weight= 2428, color= 1
	 item 286, weight= 2431, color= 1
	 item 287, weight= 2484, color= 1
	 item 288, weight= 2552, color= 1
	 item 289, weight= 2567, color= 1
	 item 290, weight= 2568, color= 1
	 item 291, weight= 2581, color= 1
	 item 292, weight= 2601, color= 1
	 item 293, weight= 2642, color= 1
	 item 294, weight= 2670, color= 0
	 item 295, weight= 2673, color= 1
	 item 296, weight= 2678, color= 1
	 item 297, weight= 2684, color= 1
	 item 298, weight= 2710, color= 1
	 item 299, weight= 2724, color= 1
	 item 300, weight= 2726, color= 1
	 item 301, weight= 2803, color= 1
	 item 302, weight= 2808, color= 1
	 item 303, weight= 2808, color= 1
	 item 304, weight= 2821, color= 1
	 item 305, weight= 2840, color= 1
	 item 306, weight= 2841, color= 1
	 item 307, weight= 2857, color= 1
	 item 308, weight= 2861, color= 1
	 item 309, weight= 2877, color= 1
	 item 310, weight= 2881, color= 1
	 item 311, weight= 2888, color= 1
	 item 312, weight= 2897, color= 1
	 item 313, weight= 2922, color= 1
	 item 314, weight= 2937, color= 1
	 item 315, weight= 2942, color= 1
	 item 316, weight= 2965, color= 1
	 item 317, weight= 3004, color= 1
	 item 318, weight= 3012, color= 1
	 item 319, weight= 3076, color= 1
	 item 320, weight= 3139, color= 1
	 item 321, weight= 3144, color= 1
	 item 322, weight= 3178, color= 1
	 item 323, weight= 3198, color= 1
	 item 324, weight= 3207, color= 1
	 item 325, weight= 3227, color= 1
	 item 326, weight= 3236, color= 1
	 item 327, weight= 3241, color= 1
	 item 328, weight= 3246, color= 1
	 item 329, weight= 3265, color= 1
	 item 330, weight= 3288, color= 1
	 item 331, weight= 3388, color= 1
	 item 332, weight= 3428, color= 1
	 item 333, weight= 3460, color= 1
	 item 334, weight= 3464, color= 1
	 item 335, weight= 3566, color= 1
	 item 336, weight= 3571, color= 1
	 item 337, weight= 3586, color= 1
	 item 338, weight= 3601, color= 1
	 item 339, weight= 3601, color= 1
	 item 340, weight= 3626, color= 1
	 item 341, weight= 3688, color= 1
	 item 342, weight= 3771, color= 1
	 item 343, weight= 3852, color= 1
	 item 344, weight= 3892, color= 1
	 item 345, weight= 3896, color= 1
	 item 346, weight= 3924, color= 1
	 item 347, weight= 4005, color= 1
	 item 348, weight= 4022, color= 1
	 item 349, weight= 4042, color= 1
	 item 350, weight= 4051, color= 1
	 item 351, weight= 4082, color= 0
	 item 352, weight= 4087, color= 1
	 item 353, weight= 4184, color= 1
	 item 354, weight= 4200, color= 1
	 item 355, weight= 4412, color= 1
	 item 356, weight= 4440, color= 1
	 item 357, weight= 4452, color= 1
	 item 358, weight= 4488, color= 1
	 item 359, weight= 4543, color= 1
	 item 360, weight= 4561, color= 1
	 item 361, weight= 4566, color= 1
	 item 362, weight= 4581, color= 1
	 item 363, weight= 4586, color= 1
	 item 364, weight= 4601, color= 1
	 item 365, weight= 4626, color= 1
	 item 366, weight= 4730, color= 1
	 item 367, weight= 4776, color= 1
	 item 368, weight= 4964, color= 1
	 item 369, weight= 5084, color= 1
	 item 370, weight= 5203, color= 1
	 item 371, weight= 5208, color= 1
	 item 372, weight= 5213, color= 1
	 item 373, weight= 5221, color= 1
	 item 374, weight= 5222, color= 1
	 item 375, weight= 5233, color= 1
	 item 376, weight= 5253, color= 1
	 item 377, weight= 5346, color= 1
	 item 378, weight= 5387, color= 1
	 item 379, weight= 5416, color= 1
	 item 380, weight= 5532, color= 1
	 item 381, weight= 5648, color= 1
	 item 382, weight= 5656, color= 1
	 item 383, weight= 5884, color= 1
	 item 384, weight= 5892, color= 1
	 item 385, weight= 5924, color= 1
	 item 386, weight= 5938, color= 1
	 item 387, weight= 5944, color= 1
	 item 388, weight= 5958, color= 1
	 item 389, weight= 5985, color= 1
	 item 390, weight= 5987, color= 1
	 item 391, weight= 5998, color= 1
	 item 392, weight= 6160, color= 1
	 item 393, weight= 6160, color= 1
	 item 394, weight= 6184, color= 1
	 item 395, weight= 6552, color= 1
	 item 396, weight= 6844, color= 1
	 item 397, weight= 6852, color= 1
	 item 398, weight= 6862, color= 1
	 item 399, weight= 6865, color= 1
	 item 400, weight= 6866, color= 1
	 item 401, weight= 6867, color= 1
	 item 402, weight= 6868, color= 1
	 item 403, weight= 6872, color= 1
	 item 404, weight= 7184, color= 1
	 item 405, weight= 8128, color= 1
	 item 406, weight= 8241, color= 1
	 item 407, weight= 8242, color= 1
	 item 408, weight= 8243, color= 1
	 item 409, weight= 8244, color= 1
	 item 410, weight= 8248, color= 1
	 item 411, weight= 8250, color= 1
	 item 412, weight= 8260, color= 1
	 item 413, weight= 8276, color= 1
	 item 414, weight= 8632, color= 1
	 item 415, weight= 9064, color= 1
	 item 416, weight= 9104, color= 1
	 item 417, weight= 9286, color= 1
	 item 418, weight= 9297, color= 1
	 item 419, weight= 9299, color= 1
	 item 420, weight= 9334, color= 1
	 item 421, weight= 9352, color= 1
	 item 422, weight= 9358, color= 1
	 item 423, weight= 9380, color= 1
	 item 424, weight= 9412, color= 1
	 item 425, weight= 9428, color= 1
	 item 426, weight= 9704, color= 1
	 item 427, weight= 9992, color= 1
	 item 428, weight= 10177, color= 1
	 item 429, weight= 10201, color= 1
	 item 430, weight= 10214, color= 1
	 item 431, weight= 10217, color= 1
	 item 432, weight= 10225, color= 1
	 item 433, weight= 10232, color= 1
	 item 434, weight= 10237, color= 1
	 item 435, weight= 10262, color= 1
	 item 436, weight= 10332, color= 1
	 item 437, weight= 10380, color= 1
	 item 438, weight= 10524, color= 1
	 item 439, weight= 10760, color= 1
	 item 440, weight= 10806, color= 1
	 item 441, weight= 10930, color= 1
	 item 442, weight= 10961, color= 1
	 item 443, weight= 10978, color= 1
	 item 444, weight= 10985, color= 1
	 item 445, weight= 11001, color= 1
	 item 446, weight= 11002, color= 1
	 item 447, weight= 11009, color= 1
	 item 448, weight= 11029, color= 1
	 item 449, weight= 11112, color= 1
	 item 450, weight= 11140, color= 1
	 item 451, weight= 11160, color= 1
	 item 452, weight= 11188, color= 1
	 item 453, weight= 11448, color= 1
	 item 454, weight= 11464, color= 1
	 item 455, weight= 11586, color= 1
	 item 456, weight= 11621, color= 1
	 item 457, weight= 11634, color= 1
	 item 458, weight= 11651, color= 1
	 item 459, weight= 11658, color= 1
	 item 460, weight= 11675, color= 1
	 item 461, weight= 11772, color= 1
	 item 462, weight= 11812, color= 1
	 item 463, weight= 11816, color= 1
	 item 464, weight= 11860, color= 1
	 item 465, weight= 12056, color= 1
	 item 466, weight= 12130, color= 1
	 item 467, weight= 12159, color= 1
	 item 468, weight= 12161, color= 1
	 item 469, weight= 12178, color= 1
	 item 470, weight= 12197, color= 1
	 item 471, weight= 12202, color= 1
	 item 472, weight= 12328, color= 1
	 item 473, weight= 12332, color= 1
	 item 474, weight= 12372, color= 1
	 item 475, weight= 12420, color= 1
	 item 476, weight= 12552, color= 1
	 item 477, weight= 12563, color= 1
	 item 478, weight= 12586, color= 1
	 item 479, weight= 12593, color= 1
	 item 480, weight= 12617, color= 1
	 item 481, weight= 12633, color= 1
	 item 482, weight= 12646, color= 1
	 item 483, weight= 12670, color= 1
	 item 484, weight= 12712, color= 1
	 item 485, weight= 12796, color= 1
	 item 486, weight= 12836, color= 1
	 item 487, weight= 12868, color= 1
	 item 488, weight= 12884, color= 1
	 item 489, weight= 12923, color= 1
	 item 490, weight= 12954, color= 1
	 item 491, weight= 12957, color= 1
	 item 492, weight= 12974, color= 1
	 item 493, weight= 12981, color= 1
	 item 494, weight= 13005, color= 1
	 item 495, weight= 13025, color= 1
	 item 496, weight= 13029, color= 1
	 item 497, weight= 13032, color= 1
	 item 498, weight= 13049, color= 1
	 item 499, weight= 13053, color= 1
	 item 500, weight= 13073, color= 1
	 item 501, weight= 13077, color= 1
	 item 502, weight= 13080, color= 1
	 item 503, weight= 13097, color= 1
	 item 504, weight= 13112, color= 1
	 item 505, weight= 13117, color= 1
	 item 506, weight= 13128, color= 1
	 item 507, weight= 13210, color= 1
	 item 508, weight= 13220, color= 1
	 item 509, weight= 13230, color= 1
	 item 510, weight= 13264, color= 1
	 item 511, weight= 13268, color= 1
	 item 512, weight= 13278, color= 1
	 item 513, weight= 13310, color= 1
	 item 514, weight= 13361, color= 1
	 item 515, weight= 13385, color= 1
	 item 516, weight= 13401, color= 1
	 item 517, weight= 13416, color= 1
	 item 518, weight= 13432, color= 1
	 item 519, weight= 13500, color= 1
	 item 520, weight= 13572, color= 1
	 item 521, weight= 13582, color= 1
	 item 522, weight= 13586, color= 1
	 item 523, weight= 13597, color= 1
	 item 524, weight= 13602, color= 1
	 item 525, weight= 13631, color= 1
	 item 526, weight= 13634, color= 1
	 item 527, weight= 13651, color= 1
	 item 528, weight= 13688, color= 1
	 item 529, weight= 13740, color= 1
	 item 530, weight= 13767, color= 1
	 item 531, weight= 13772, color= 1
	 item 532, weight= 13778, color= 1
	 item 533, weight= 13829, color= 1
	 item 534, weight= 13830, color= 1
	 item 535, weight= 13848, color= 1
	 item 536, weight= 13854, color= 1
	 item 537, weight= 13878, color= 1
	 item 538, weight= 13903, color= 1
	 item 539, weight= 13940, color= 1
	 item 540, weight= 13964, color= 1
	 item 541, weight= 13976, color= 1
	 item 542, weight= 13993, color= 1
	 item 543, weight= 14012, color= 1
	 item 544, weight= 14021, color= 1
	 item 545, weight= 14054, color= 1
	 item 546, weight= 14086, color= 1
	 item 547, weight= 14088, color= 1
	 item 548, weight= 14102, color= 1
	 item 549, weight= 14110, color= 1
	 item 550, weight= 14113, color= 1
	 item 551, weight= 14161, color= 1
	 item 552, weight= 14168, color= 1
	 item 553, weight= 14174, color= 1
	 item 554, weight= 14185, color= 1
	 item 555, weight= 14188, color= 1
	 item 556, weight= 14209, color= 1
	 item 557, weight= 14222, color= 1
	 item 558, weight= 14225, color= 1
	 item 559, weight= 14236, color= 1
	 item 560, weight= 14250, color= 1
	 item 561, weight= 14253, color= 1
	 item 562, weight= 14270, color= 1
	 item 563, weight= 14277, color= 1
	 item 564, weight= 14301, color= 1
	 item 565, weight= 14305, color= 1
	 item 566, weight= 14312, color= 1
	 item 567, weight= 14325, color= 1
	 item 568, weight= 14336, color= 1
	 item 569, weight= 14349, color= 1
	 item 570, weight= 14360, color= 1
	 item 571, weight= 14369, color= 1
	 item 572, weight= 14370, color= 1
	 item 573, weight= 14380, color= 1
	 item 574, weight= 14390, color= 1
	 item 575, weight= 14393, color= 1
	 item 576, weight= 14394, color= 1
	 item 577, weight= 14404, color= 1
	 item 578, weight= 14417, color= 1
	 item 579, weight= 14438, color= 1
	 item 580, weight= 14452, color= 1
	 item 581, weight= 14486, color= 1
	 item 582, weight= 14488, color= 1
	 item 583, weight= 14534, color= 1
	 item 584, weight= 14558, color= 1
	 item 585, weight= 14580, color= 1
	 item 586, weight= 14584, color= 1
	 item 587, weight= 14600, color= 1
	 item 588, weight= 14612, color= 1
	 item 589, weight= 14630, color= 1
	 item 590, weight= 14646, color= 1
	 item 591, weight= 14648, color= 1
	 item 592, weight= 14660, color= 1
	 item 593, weight= 14678, color= 1
	 item 594, weight= 14694, color= 1
	 item 595, weight= 14696, color= 1
	 item 596, weight= 14708, color= 1
	 item 597, weight= 14742, color= 1
	 item 598, weight= 14754, color= 1
	 item 599, weight= 14776, color= 1
	 item 600, weight= 14824, color= 1
	 item 601, weight= 14828, color= 1

VRPSolver warning: Interval set for resource 1 on source node (when source != sink) is ignored (by definition is [0.0,0.0])
VRPSolver warning: Interval set for resource 2 on source node (when source != sink) is ignored (by definition is [0.0,0.0])
VRPSolver warning: Interval set for resource 3 on source node (when source != sink) is ignored (by definition is [0.0,0.0])
[41m solve [00m
~~~~~~~~~~~~~~~~~~~~~~~~~~~~~~~~~~~~~~~~~~~~~~~~~~~~~~~~~~~~~~~~~~~~~~~~~~~~~~
VRPSolver v0.4.1, 24/03/2021. Web: vrpsolver.math.u-bordeaux.fr
Corresponds to the solver by Pessoa, Sadykov, Uchoa and Vanderbeck (2020)
Paper: dx.doi.org/10.1007/s10107-020-01523-z
USE THIS CODE ONLY FOR ACADEMIC PURPOSES AT YOUR OWN RISK
~~~~~~~~~~~~~~~~~~~~~~~~~~~~~~~~~~~~~~~~~~~~~~~~~~~~~~~~~~~~~~~~~~~~~~~~~~~~~~
BaPCod v053, 24/03/2021, © Inria Bordeaux, France
~~~~~~~~~~~~~~~~~~~~~~~~~~~~~~~~~~~~~~~~~~~~~~~~~~~~~~~~~~~~~~~~~~~~~~~~~~~~~~
VRPSolver parameters:
GlobalTimeLimit = 60
MaxNbOfBBtreeNodeTreated = 100000
treeSearchStrategy = 1
RCSPstopCutGenTimeThresholdInPricing = 10
RCSPhardTimeThresholdInPricing = 20
RCSPnumberOfBucketsPerVertex = 2000
RCSPdynamicBucketSteps = 0
RCSPuseBidirectionalSearch = 1
RCSPapplyReducedCostFixing = 1
RCSPredCostFixingFalseGap = 0
RCSPmaxNumOfColsPerIteration = 100
RCSPmaxNumOfColsPerExactIteration = 100
RCSPheurLabelingStrategy = 4
StabilizationMinPhaseOfStage = 1
RCSPmaxNumOfLabelsInEnumeration = 100000
RCSPmaxNumOfEnumeratedSolutions = 1000000
RCSPmaxNumOfEnumSolutionsForMIP = 100000
RCSPinitNGneighbourhoodSize = 0
RCSPmaxNGneighbourhoodSize = 0
RCSPrankOneCutsMaxNumPerRound = 100
RCSPrankOneCutsMaxNumRows = -1
RCSPrankOneCutsMemoryType = 2
CutTailingOffThreshold = 0.02
CutTailingOffCounterThreshold = 3
SafeDualBoundScaleFactor = -1
StrongBranchingPhaseOneCandidatesNumber = 100
StrongBranchingPhaseOneTreeSizeEstimRatio = 0.3
StrongBranchingPhaseTwoCandidatesNumber = 1
StrongBranchingPhaseTwoTreeSizeEstimRatio = 0.1
MaxTimeForRestrictedMasterIpHeur = -1
DivingHeurUseDepthLimit = 0
MaxLDSbreadth = 3
MaxLDSdepth = 2
New model incumbent solution 1e+06, TIME = 0h0m0s3t = 3
Model is built TIME = 0h0m3s98t = 398
************************************************************************************************
**** BaB tree root node
**** Local DB = -1e+12, global bounds : [ -1e+12 , 1e+06 ], TIME = 0h0m3s98t = 398
**** 1 open nodes, 0 columns (0 active), 0 dyn. constrs. (0 active), 1204 art. vars. (1204 active)
************************************************************************************************
<DWph=2> <it= 10> <et=13.79> <Mt= 0.01> <Spt= 9.78> <nCl=1000> <DB=-1468766917.7979> <Mlp=646800040.0000> <PB=1000000> 
<DWph=2> <it= 20> <et=24.36> <Mt= 0.02> <Spt=10.55> <nCl=1000> <DB=-2439865769.6573> <Mlp=590400063.0000> <PB=1000000> 
<DWph=2> <it= 30> <et=35.27> <Mt= 0.02> <Spt=10.88> <nCl=1000> <DB=-1544478895.6622> <Mlp=543600084.0000> <PB=1000000> 
<DWph=2> <it= 40> <et=45.58> <Mt= 0.04> <Spt=10.26> <nCl=993> <DB=-2058908041.8146> <Mlp=487800092.5000> <PB=1000000> 
<DWph=2> <it= 50> <et=55.34> <Mt= 0.11> <Spt= 9.65> <nCl=1000> <DB=-8343332973.0842> <Mlp=404300093.1250> <PB=1000000> 
