Application parameters:
  batch  =>  nothing
  instance  =>  "/IN/Falkenauer_t60_14.txt-Q2Half"
  ub  =>  1.0e6
  cfg  =>  "/CFG/BPP.cfg"
data = Colored Bin Packing dataset.
number of items = 60
number of colors = 2
capacity = 1000
Items : 
	 item 1, weight= 250, color= 0
	 item 2, weight= 251, color= 0
	 item 3, weight= 251, color= 0
	 item 4, weight= 252, color= 0
	 item 5, weight= 254, color= 0
	 item 6, weight= 254, color= 0
	 item 7, weight= 257, color= 1
	 item 8, weight= 257, color= 1
	 item 9, weight= 258, color= 0
	 item 10, weight= 259, color= 0
	 item 11, weight= 260, color= 0
	 item 12, weight= 260, color= 0
	 item 13, weight= 262, color= 1
	 item 14, weight= 264, color= 0
	 item 15, weight= 266, color= 0
	 item 16, weight= 269, color= 0
	 item 17, weight= 270, color= 0
	 item 18, weight= 270, color= 1
	 item 19, weight= 272, color= 1
	 item 20, weight= 273, color= 0
	 item 21, weight= 274, color= 0
	 item 22, weight= 277, color= 1
	 item 23, weight= 278, color= 1
	 item 24, weight= 279, color= 0
	 item 25, weight= 281, color= 1
	 item 26, weight= 282, color= 0
	 item 27, weight= 282, color= 1
	 item 28, weight= 300, color= 0
	 item 29, weight= 303, color= 1
	 item 30, weight= 309, color= 1
	 item 31, weight= 311, color= 0
	 item 32, weight= 311, color= 1
	 item 33, weight= 327, color= 1
	 item 34, weight= 334, color= 1
	 item 35, weight= 336, color= 1
	 item 36, weight= 336, color= 1
	 item 37, weight= 340, color= 1
	 item 38, weight= 353, color= 1
	 item 39, weight= 360, color= 1
	 item 40, weight= 361, color= 1
	 item 41, weight= 365, color= 1
	 item 42, weight= 366, color= 1
	 item 43, weight= 367, color= 1
	 item 44, weight= 367, color= 1
	 item 45, weight= 389, color= 1
	 item 46, weight= 399, color= 1
	 item 47, weight= 400, color= 1
	 item 48, weight= 412, color= 1
	 item 49, weight= 415, color= 1
	 item 50, weight= 415, color= 1
	 item 51, weight= 429, color= 1
	 item 52, weight= 448, color= 1
	 item 53, weight= 450, color= 1
	 item 54, weight= 460, color= 1
	 item 55, weight= 464, color= 1
	 item 56, weight= 470, color= 1
	 item 57, weight= 474, color= 1
	 item 58, weight= 484, color= 1
	 item 59, weight= 491, color= 1
	 item 60, weight= 492, color= 1

VRPSolver warning: Interval set for resource 1 on source node (when source != sink) is ignored (by definition is [0.0,0.0])
[41m solve [00m
~~~~~~~~~~~~~~~~~~~~~~~~~~~~~~~~~~~~~~~~~~~~~~~~~~~~~~~~~~~~~~~~~~~~~~~~~~~~~~
VRPSolver v0.4.1, 24/03/2021. Web: vrpsolver.math.u-bordeaux.fr
Corresponds to the solver by Pessoa, Sadykov, Uchoa and Vanderbeck (2020)
Paper: dx.doi.org/10.1007/s10107-020-01523-z
USE THIS CODE ONLY FOR ACADEMIC PURPOSES AT YOUR OWN RISK
~~~~~~~~~~~~~~~~~~~~~~~~~~~~~~~~~~~~~~~~~~~~~~~~~~~~~~~~~~~~~~~~~~~~~~~~~~~~~~
BaPCod v053, 24/03/2021, © Inria Bordeaux, France
~~~~~~~~~~~~~~~~~~~~~~~~~~~~~~~~~~~~~~~~~~~~~~~~~~~~~~~~~~~~~~~~~~~~~~~~~~~~~~
VRPSolver parameters:
GlobalTimeLimit = 1800
MaxNbOfBBtreeNodeTreated = 100000
treeSearchStrategy = 1
RCSPstopCutGenTimeThresholdInPricing = 10
RCSPhardTimeThresholdInPricing = 20
RCSPnumberOfBucketsPerVertex = 2000
RCSPdynamicBucketSteps = 0
RCSPuseBidirectionalSearch = 1
RCSPapplyReducedCostFixing = 1
RCSPredCostFixingFalseGap = 0
RCSPmaxNumOfColsPerIteration = 100
RCSPmaxNumOfColsPerExactIteration = 100
RCSPheurLabelingStrategy = 4
StabilizationMinPhaseOfStage = 1
RCSPmaxNumOfLabelsInEnumeration = 100000
RCSPmaxNumOfEnumeratedSolutions = 1000000
RCSPmaxNumOfEnumSolutionsForMIP = 100000
RCSPinitNGneighbourhoodSize = 0
RCSPmaxNGneighbourhoodSize = 0
RCSPrankOneCutsMaxNumPerRound = 100
RCSPrankOneCutsMaxNumRows = -1
RCSPrankOneCutsMemoryType = 2
CutTailingOffThreshold = 0.02
CutTailingOffCounterThreshold = 3
SafeDualBoundScaleFactor = -1
StrongBranchingPhaseOneCandidatesNumber = 100
StrongBranchingPhaseOneTreeSizeEstimRatio = 0.3
StrongBranchingPhaseTwoCandidatesNumber = 1
StrongBranchingPhaseTwoTreeSizeEstimRatio = 0.1
MaxTimeForRestrictedMasterIpHeur = -1
DivingHeurUseDepthLimit = 0
MaxLDSbreadth = 3
MaxLDSdepth = 2
New model incumbent solution 1e+06, TIME = 0h0m0s3t = 3
Model is built TIME = 0h0m1s29t = 129
************************************************************************************************
**** BaB tree root node
**** Local DB = -1e+12, global bounds : [ -1e+12 , 1e+06 ], TIME = 0h0m1s29t = 129
**** 1 open nodes, 0 columns (0 active), 0 dyn. constrs. (0 active), 122 art. vars. (122 active)
************************************************************************************************
<DWph=2> <it= 10> <et=1.42> <Mt= 0.00> <Spt= 0.12> <nCl=1000> <DB=-54894112.4922> <Mlp=10080022.8000> <PB=1000000> 
<DWph=2> <it= 20> <et=1.55> <Mt= 0.01> <Spt= 0.12> <nCl=674> <DB=  -36.0000> <Mlp=   24.0000> <PB=1000000> 
<DWph=2> <it= 30> <et=1.68> <Mt= 0.00> <Spt= 0.12> <nCl=722> <DB=   -5.1113> <Mlp=   21.0000> <PB=1000000> 
<DWph=2> <it= 40> <et=1.81> <Mt= 0.02> <Spt= 0.12> <nCl=479> <DB=   18.5810> <Mlp=   20.0315> <PB=1000000> 
<DWph=2> <it= 43> <et=1.87> <Mt= 0.00> <Spt= 0.06> <nCl=  6> <DB=   20.0000> <Mlp=   20.0000> <PB=20> 
<DWph=1> <it= 44> <et=1.90> <Mt= 0.00> <Spt= 0.02> <nCl=  0> <DB=   20.0000> <Mlp=   20.0000> <PB=20> 
<DWph=0> <it= 45> <et=1.91> <Mt= 0.00> <Spt= 0.02> <nCl=  0> <DB=   20.0000> <Mlp=   20.0000> <PB=20> 
ColGenEvalAlg final dual bound: 20 (rounded: 20)
New model incumbent solution 20, TIME = 0h0m1s92t = 192
************************************************************************************************
Search is finished, global bounds : [ 20 , 20 ], TIME = 0h0m1s92t = 192
************************************************************************************************
[32mBaPCod : solution defined.[00m
statistics_cols: instance & :Optimal & cutoff & :bcRecRootDb & :bcTimeRootEval & :bcCountNodeProc & :bcRecBestDb & :bcRecBestInc & :bcTimeMain \\
statistics: Falkenauer_t60_14 & 1 & 1.0e6 & 20.00 & 1.92 & 1 & 20.00 & 20 & 1.92 \\
########################################################
bin_id=1: 251(0) 257(1) 492(1) 
bin_id=2: 264(0) 336(1) 400(1) 
bin_id=3: 273(0) 277(1) 450(1) 
bin_id=4: 260(0) 270(1) 470(1) 
bin_id=5: 254(0) 262(1) 484(1) 
bin_id=6: 258(0) 278(1) 464(1) 
bin_id=7: 252(0) 257(1) 491(1) 
bin_id=8: 274(0) 327(1) 399(1) 
bin_id=9: 311(0) 336(1) 353(1) 
bin_id=10: 254(0) 272(1) 474(1) 
bin_id=11: 260(0) 311(1) 429(1) 
bin_id=12: 269(0) 365(1) 366(1) 
bin_id=13: 250(0) 361(1) 389(1) 
bin_id=14: 251(0) 334(1) 415(1) 
bin_id=15: 259(0) 281(1) 460(1) 
bin_id=16: 282(0) 303(1) 415(1) 
bin_id=17: 279(0) 309(1) 412(1) 
bin_id=18: 300(0) 340(1) 360(1) 
bin_id=19: 270(0) 282(1) 448(1) 
bin_id=20: 266(0) 367(1) 367(1) 
Objective value: 20.0
########################################################
