Application parameters:
  batch  =>  nothing
  instance  =>  "/IN/Falkenauer_t60_02.txt-Q2Half"
  ub  =>  1.0e6
  cfg  =>  "/CFG/BPP.cfg"
data = Colored Bin Packing dataset.
number of items = 60
number of colors = 2
capacity = 1000
Items : 
	 item 1, weight= 250, color= 0
	 item 2, weight= 250, color= 0
	 item 3, weight= 250, color= 0
	 item 4, weight= 251, color= 0
	 item 5, weight= 251, color= 0
	 item 6, weight= 252, color= 1
	 item 7, weight= 252, color= 1
	 item 8, weight= 254, color= 0
	 item 9, weight= 256, color= 1
	 item 10, weight= 259, color= 0
	 item 11, weight= 260, color= 0
	 item 12, weight= 260, color= 0
	 item 13, weight= 261, color= 0
	 item 14, weight= 261, color= 0
	 item 15, weight= 262, color= 0
	 item 16, weight= 263, color= 1
	 item 17, weight= 266, color= 0
	 item 18, weight= 267, color= 1
	 item 19, weight= 267, color= 1
	 item 20, weight= 267, color= 1
	 item 21, weight= 268, color= 0
	 item 22, weight= 271, color= 0
	 item 23, weight= 276, color= 0
	 item 24, weight= 277, color= 1
	 item 25, weight= 279, color= 0
	 item 26, weight= 280, color= 0
	 item 27, weight= 281, color= 1
	 item 28, weight= 284, color= 1
	 item 29, weight= 288, color= 0
	 item 30, weight= 288, color= 0
	 item 31, weight= 305, color= 1
	 item 32, weight= 308, color= 1
	 item 33, weight= 326, color= 1
	 item 34, weight= 328, color= 1
	 item 35, weight= 339, color= 1
	 item 36, weight= 345, color= 1
	 item 37, weight= 350, color= 1
	 item 38, weight= 350, color= 1
	 item 39, weight= 352, color= 1
	 item 40, weight= 354, color= 1
	 item 41, weight= 362, color= 1
	 item 42, weight= 367, color= 1
	 item 43, weight= 369, color= 1
	 item 44, weight= 378, color= 1
	 item 45, weight= 390, color= 1
	 item 46, weight= 398, color= 1
	 item 47, weight= 400, color= 1
	 item 48, weight= 401, color= 1
	 item 49, weight= 429, color= 1
	 item 50, weight= 430, color= 1
	 item 51, weight= 436, color= 1
	 item 52, weight= 459, color= 1
	 item 53, weight= 464, color= 1
	 item 54, weight= 476, color= 1
	 item 55, weight= 479, color= 1
	 item 56, weight= 482, color= 1
	 item 57, weight= 482, color= 1
	 item 58, weight= 494, color= 1
	 item 59, weight= 498, color= 1
	 item 60, weight= 498, color= 1

VRPSolver warning: Interval set for resource 1 on source node (when source != sink) is ignored (by definition is [0.0,0.0])
VRPSolver warning: Interval set for resource 2 on source node (when source != sink) is ignored (by definition is [0.0,0.0])
VRPSolver warning: Interval set for resource 3 on source node (when source != sink) is ignored (by definition is [0.0,0.0])
[41m solve [00m
~~~~~~~~~~~~~~~~~~~~~~~~~~~~~~~~~~~~~~~~~~~~~~~~~~~~~~~~~~~~~~~~~~~~~~~~~~~~~~
VRPSolver v0.4.1, 24/03/2021. Web: vrpsolver.math.u-bordeaux.fr
Corresponds to the solver by Pessoa, Sadykov, Uchoa and Vanderbeck (2020)
Paper: dx.doi.org/10.1007/s10107-020-01523-z
USE THIS CODE ONLY FOR ACADEMIC PURPOSES AT YOUR OWN RISK
~~~~~~~~~~~~~~~~~~~~~~~~~~~~~~~~~~~~~~~~~~~~~~~~~~~~~~~~~~~~~~~~~~~~~~~~~~~~~~
BaPCod v053, 24/03/2021, © Inria Bordeaux, France
~~~~~~~~~~~~~~~~~~~~~~~~~~~~~~~~~~~~~~~~~~~~~~~~~~~~~~~~~~~~~~~~~~~~~~~~~~~~~~
VRPSolver parameters:
GlobalTimeLimit = 60
MaxNbOfBBtreeNodeTreated = 100000
treeSearchStrategy = 1
RCSPstopCutGenTimeThresholdInPricing = 10
RCSPhardTimeThresholdInPricing = 20
RCSPnumberOfBucketsPerVertex = 2000
RCSPdynamicBucketSteps = 0
RCSPuseBidirectionalSearch = 1
RCSPapplyReducedCostFixing = 1
RCSPredCostFixingFalseGap = 0
RCSPmaxNumOfColsPerIteration = 100
RCSPmaxNumOfColsPerExactIteration = 100
RCSPheurLabelingStrategy = 4
StabilizationMinPhaseOfStage = 1
RCSPmaxNumOfLabelsInEnumeration = 100000
RCSPmaxNumOfEnumeratedSolutions = 1000000
RCSPmaxNumOfEnumSolutionsForMIP = 100000
RCSPinitNGneighbourhoodSize = 0
RCSPmaxNGneighbourhoodSize = 0
RCSPrankOneCutsMaxNumPerRound = 100
RCSPrankOneCutsMaxNumRows = -1
RCSPrankOneCutsMemoryType = 2
CutTailingOffThreshold = 0.02
CutTailingOffCounterThreshold = 3
SafeDualBoundScaleFactor = -1
StrongBranchingPhaseOneCandidatesNumber = 100
StrongBranchingPhaseOneTreeSizeEstimRatio = 0.3
StrongBranchingPhaseTwoCandidatesNumber = 1
StrongBranchingPhaseTwoTreeSizeEstimRatio = 0.1
MaxTimeForRestrictedMasterIpHeur = -1
DivingHeurUseDepthLimit = 0
MaxLDSbreadth = 3
MaxLDSdepth = 2
New model incumbent solution 1e+06, TIME = 0h0m0s3t = 3
Model is built TIME = 0h0m1s27t = 127
************************************************************************************************
**** BaB tree root node
**** Local DB = -1e+12, global bounds : [ -1e+12 , 1e+06 ], TIME = 0h0m1s27t = 127
**** 1 open nodes, 0 columns (0 active), 0 dyn. constrs. (0 active), 122 art. vars. (122 active)
************************************************************************************************
<DWph=2> <it= 10> <et=1.40> <Mt= 0.00> <Spt= 0.12> <nCl=921> <DB=-67214700.8212> <Mlp=2215404.0000> <PB=1000000> 
<DWph=2> <it= 20> <et=1.53> <Mt= 0.01> <Spt= 0.12> <nCl=174> <DB=   18.2359> <Mlp=   20.0357> <PB=1000000> 
<DWph=2> <it= 22> <et=1.57> <Mt= 0.00> <Spt= 0.04> <nCl=  8> <DB=   20.0000> <Mlp=   20.0000> <PB=20> 
<DWph=1> <it= 23> <et=1.59> <Mt= 0.00> <Spt= 0.02> <nCl=  0> <DB=   20.0000> <Mlp=   20.0000> <PB=20> 
<DWph=0> <it= 24> <et=1.60> <Mt= 0.00> <Spt= 0.01> <nCl=  0> <DB=   20.0000> <Mlp=   20.0000> <PB=20> 
ColGenEvalAlg final dual bound: 20 (rounded: 20)
New model incumbent solution 20, TIME = 0h0m1s61t = 161
************************************************************************************************
Search is finished, global bounds : [ 20 , 20 ], TIME = 0h0m1s61t = 161
************************************************************************************************
[32mBaPCod : solution defined.[00m
statistics_cols: instance & :Optimal & cutoff & :bcRecRootDb & :bcTimeRootEval & :bcCountNodeProc & :bcRecBestDb & :bcRecBestInc & :bcTimeMain \\
statistics: Falkenauer_t60_02 & 1 & 1.0e6 & 20.00 & 1.61 & 1 & 20.00 & 20 & 1.61 \\
########################################################
bin_id=1: 268(0) 354(1) 378(1) 
bin_id=2: 262(0) 308(1) 430(1) 
bin_id=3: 266(0) 305(1) 429(1) 
bin_id=4: 251(0) 267(1) 482(1) 
bin_id=5: 261(0) 263(1) 476(1) 
bin_id=6: 250(0) 252(1) 498(1) 
bin_id=7: 250(0) 256(1) 494(1) 
bin_id=8: 276(0) 326(1) 398(1) 
bin_id=9: 279(0) 352(1) 369(1) 
bin_id=10: 280(0) 284(1) 436(1) 
bin_id=11: 260(0) 350(1) 390(1) 
bin_id=12: 259(0) 277(1) 464(1) 
bin_id=13: 250(0) 252(1) 498(1) 
bin_id=14: 254(0) 267(1) 479(1) 
bin_id=15: 251(0) 267(1) 482(1) 
bin_id=16: 260(0) 281(1) 459(1) 
bin_id=17: 288(0) 345(1) 367(1) 
bin_id=18: 288(0) 350(1) 362(1) 
bin_id=19: 261(0) 339(1) 400(1) 
bin_id=20: 271(0) 328(1) 401(1) 
Objective value: 20.0
########################################################
