Application parameters:
  batch  =>  nothing
  instance  =>  "/IN/Falkenauer_t249_02.txt-Q2Half"
  ub  =>  1.0e6
  cfg  =>  "/CFG/BPP.cfg"
data = Colored Bin Packing dataset.
number of items = 249
number of colors = 2
capacity = 1000
Items : 
	 item 1, weight= 250, color= 0
	 item 2, weight= 250, color= 0
	 item 3, weight= 250, color= 0
	 item 4, weight= 250, color= 0
	 item 5, weight= 250, color= 0
	 item 6, weight= 250, color= 0
	 item 7, weight= 251, color= 0
	 item 8, weight= 252, color= 0
	 item 9, weight= 252, color= 0
	 item 10, weight= 252, color= 0
	 item 11, weight= 252, color= 1
	 item 12, weight= 253, color= 0
	 item 13, weight= 253, color= 0
	 item 14, weight= 253, color= 0
	 item 15, weight= 253, color= 0
	 item 16, weight= 254, color= 0
	 item 17, weight= 254, color= 0
	 item 18, weight= 254, color= 0
	 item 19, weight= 254, color= 0
	 item 20, weight= 255, color= 0
	 item 21, weight= 255, color= 0
	 item 22, weight= 255, color= 0
	 item 23, weight= 255, color= 0
	 item 24, weight= 256, color= 0
	 item 25, weight= 256, color= 0
	 item 26, weight= 256, color= 0
	 item 27, weight= 256, color= 1
	 item 28, weight= 256, color= 1
	 item 29, weight= 257, color= 0
	 item 30, weight= 257, color= 0
	 item 31, weight= 257, color= 0
	 item 32, weight= 257, color= 1
	 item 33, weight= 258, color= 0
	 item 34, weight= 258, color= 0
	 item 35, weight= 259, color= 0
	 item 36, weight= 259, color= 0
	 item 37, weight= 259, color= 0
	 item 38, weight= 259, color= 0
	 item 39, weight= 260, color= 0
	 item 40, weight= 260, color= 0
	 item 41, weight= 260, color= 0
	 item 42, weight= 260, color= 1
	 item 43, weight= 261, color= 1
	 item 44, weight= 262, color= 0
	 item 45, weight= 263, color= 0
	 item 46, weight= 263, color= 0
	 item 47, weight= 263, color= 0
	 item 48, weight= 263, color= 1
	 item 49, weight= 264, color= 0
	 item 50, weight= 264, color= 0
	 item 51, weight= 264, color= 0
	 item 52, weight= 264, color= 1
	 item 53, weight= 265, color= 0
	 item 54, weight= 265, color= 1
	 item 55, weight= 266, color= 1
	 item 56, weight= 267, color= 0
	 item 57, weight= 269, color= 0
	 item 58, weight= 269, color= 0
	 item 59, weight= 269, color= 0
	 item 60, weight= 269, color= 1
	 item 61, weight= 270, color= 0
	 item 62, weight= 270, color= 0
	 item 63, weight= 270, color= 0
	 item 64, weight= 271, color= 0
	 item 65, weight= 271, color= 0
	 item 66, weight= 271, color= 0
	 item 67, weight= 271, color= 1
	 item 68, weight= 271, color= 1
	 item 69, weight= 272, color= 0
	 item 70, weight= 272, color= 0
	 item 71, weight= 273, color= 0
	 item 72, weight= 273, color= 1
	 item 73, weight= 274, color= 1
	 item 74, weight= 274, color= 1
	 item 75, weight= 276, color= 0
	 item 76, weight= 278, color= 0
	 item 77, weight= 278, color= 1
	 item 78, weight= 279, color= 1
	 item 79, weight= 280, color= 0
	 item 80, weight= 280, color= 0
	 item 81, weight= 280, color= 0
	 item 82, weight= 281, color= 0
	 item 83, weight= 281, color= 0
	 item 84, weight= 281, color= 0
	 item 85, weight= 281, color= 1
	 item 86, weight= 281, color= 1
	 item 87, weight= 281, color= 1
	 item 88, weight= 282, color= 0
	 item 89, weight= 283, color= 1
	 item 90, weight= 285, color= 0
	 item 91, weight= 285, color= 0
	 item 92, weight= 285, color= 1
	 item 93, weight= 286, color= 0
	 item 94, weight= 286, color= 1
	 item 95, weight= 286, color= 1
	 item 96, weight= 287, color= 0
	 item 97, weight= 287, color= 0
	 item 98, weight= 287, color= 1
	 item 99, weight= 288, color= 0
	 item 100, weight= 288, color= 1
	 item 101, weight= 290, color= 0
	 item 102, weight= 290, color= 0
	 item 103, weight= 290, color= 0
	 item 104, weight= 290, color= 1
	 item 105, weight= 292, color= 0
	 item 106, weight= 294, color= 1
	 item 107, weight= 296, color= 0
	 item 108, weight= 297, color= 1
	 item 109, weight= 298, color= 1
	 item 110, weight= 299, color= 1
	 item 111, weight= 300, color= 0
	 item 112, weight= 300, color= 1
	 item 113, weight= 301, color= 1
	 item 114, weight= 302, color= 1
	 item 115, weight= 303, color= 1
	 item 116, weight= 304, color= 1
	 item 117, weight= 307, color= 0
	 item 118, weight= 308, color= 0
	 item 119, weight= 310, color= 1
	 item 120, weight= 311, color= 1
	 item 121, weight= 311, color= 1
	 item 122, weight= 311, color= 1
	 item 123, weight= 311, color= 1
	 item 124, weight= 314, color= 0
	 item 125, weight= 315, color= 1
	 item 126, weight= 317, color= 0
	 item 127, weight= 318, color= 1
	 item 128, weight= 319, color= 1
	 item 129, weight= 319, color= 1
	 item 130, weight= 322, color= 1
	 item 131, weight= 323, color= 1
	 item 132, weight= 324, color= 1
	 item 133, weight= 324, color= 1
	 item 134, weight= 324, color= 1
	 item 135, weight= 326, color= 1
	 item 136, weight= 329, color= 1
	 item 137, weight= 329, color= 1
	 item 138, weight= 329, color= 1
	 item 139, weight= 332, color= 1
	 item 140, weight= 333, color= 1
	 item 141, weight= 333, color= 1
	 item 142, weight= 335, color= 1
	 item 143, weight= 335, color= 1
	 item 144, weight= 339, color= 1
	 item 145, weight= 339, color= 1
	 item 146, weight= 340, color= 1
	 item 147, weight= 343, color= 1
	 item 148, weight= 345, color= 1
	 item 149, weight= 345, color= 1
	 item 150, weight= 346, color= 1
	 item 151, weight= 346, color= 1
	 item 152, weight= 349, color= 1
	 item 153, weight= 350, color= 1
	 item 154, weight= 350, color= 1
	 item 155, weight= 351, color= 1
	 item 156, weight= 353, color= 1
	 item 157, weight= 356, color= 1
	 item 158, weight= 356, color= 1
	 item 159, weight= 357, color= 1
	 item 160, weight= 357, color= 1
	 item 161, weight= 360, color= 1
	 item 162, weight= 362, color= 1
	 item 163, weight= 362, color= 1
	 item 164, weight= 363, color= 1
	 item 165, weight= 365, color= 1
	 item 166, weight= 366, color= 1
	 item 167, weight= 367, color= 1
	 item 168, weight= 367, color= 1
	 item 169, weight= 368, color= 1
	 item 170, weight= 368, color= 1
	 item 171, weight= 369, color= 1
	 item 172, weight= 372, color= 1
	 item 173, weight= 373, color= 1
	 item 174, weight= 373, color= 1
	 item 175, weight= 373, color= 1
	 item 176, weight= 373, color= 1
	 item 177, weight= 374, color= 1
	 item 178, weight= 374, color= 1
	 item 179, weight= 374, color= 1
	 item 180, weight= 374, color= 1
	 item 181, weight= 375, color= 1
	 item 182, weight= 377, color= 1
	 item 183, weight= 377, color= 1
	 item 184, weight= 381, color= 1
	 item 185, weight= 382, color= 1
	 item 186, weight= 383, color= 1
	 item 187, weight= 384, color= 1
	 item 188, weight= 387, color= 1
	 item 189, weight= 387, color= 1
	 item 190, weight= 390, color= 1
	 item 191, weight= 390, color= 1
	 item 192, weight= 390, color= 1
	 item 193, weight= 391, color= 1
	 item 194, weight= 391, color= 1
	 item 195, weight= 392, color= 1
	 item 196, weight= 392, color= 1
	 item 197, weight= 394, color= 1
	 item 198, weight= 396, color= 1
	 item 199, weight= 397, color= 1
	 item 200, weight= 397, color= 1
	 item 201, weight= 401, color= 1
	 item 202, weight= 401, color= 1
	 item 203, weight= 403, color= 1
	 item 204, weight= 405, color= 1
	 item 205, weight= 407, color= 1
	 item 206, weight= 407, color= 1
	 item 207, weight= 410, color= 1
	 item 208, weight= 413, color= 1
	 item 209, weight= 414, color= 1
	 item 210, weight= 414, color= 1
	 item 211, weight= 419, color= 1
	 item 212, weight= 421, color= 1
	 item 213, weight= 421, color= 1
	 item 214, weight= 424, color= 1
	 item 215, weight= 430, color= 1
	 item 216, weight= 431, color= 1
	 item 217, weight= 433, color= 1
	 item 218, weight= 433, color= 1
	 item 219, weight= 434, color= 1
	 item 220, weight= 441, color= 1
	 item 221, weight= 442, color= 1
	 item 222, weight= 443, color= 1
	 item 223, weight= 443, color= 1
	 item 224, weight= 445, color= 1
	 item 225, weight= 448, color= 1
	 item 226, weight= 449, color= 1
	 item 227, weight= 450, color= 1
	 item 228, weight= 453, color= 1
	 item 229, weight= 456, color= 1
	 item 230, weight= 457, color= 1
	 item 231, weight= 458, color= 1
	 item 232, weight= 459, color= 1
	 item 233, weight= 459, color= 1
	 item 234, weight= 461, color= 1
	 item 235, weight= 463, color= 1
	 item 236, weight= 466, color= 1
	 item 237, weight= 467, color= 1
	 item 238, weight= 469, color= 1
	 item 239, weight= 476, color= 1
	 item 240, weight= 477, color= 1
	 item 241, weight= 481, color= 1
	 item 242, weight= 484, color= 1
	 item 243, weight= 484, color= 1
	 item 244, weight= 487, color= 1
	 item 245, weight= 488, color= 1
	 item 246, weight= 490, color= 1
	 item 247, weight= 494, color= 1
	 item 248, weight= 494, color= 1
	 item 249, weight= 496, color= 1

VRPSolver warning: Interval set for resource 1 on source node (when source != sink) is ignored (by definition is [0.0,0.0])
VRPSolver warning: Interval set for resource 2 on source node (when source != sink) is ignored (by definition is [0.0,0.0])
VRPSolver warning: Interval set for resource 3 on source node (when source != sink) is ignored (by definition is [0.0,0.0])
[41m solve [00m
~~~~~~~~~~~~~~~~~~~~~~~~~~~~~~~~~~~~~~~~~~~~~~~~~~~~~~~~~~~~~~~~~~~~~~~~~~~~~~
VRPSolver v0.4.1, 24/03/2021. Web: vrpsolver.math.u-bordeaux.fr
Corresponds to the solver by Pessoa, Sadykov, Uchoa and Vanderbeck (2020)
Paper: dx.doi.org/10.1007/s10107-020-01523-z
USE THIS CODE ONLY FOR ACADEMIC PURPOSES AT YOUR OWN RISK
~~~~~~~~~~~~~~~~~~~~~~~~~~~~~~~~~~~~~~~~~~~~~~~~~~~~~~~~~~~~~~~~~~~~~~~~~~~~~~
BaPCod v053, 24/03/2021, © Inria Bordeaux, France
~~~~~~~~~~~~~~~~~~~~~~~~~~~~~~~~~~~~~~~~~~~~~~~~~~~~~~~~~~~~~~~~~~~~~~~~~~~~~~
VRPSolver parameters:
GlobalTimeLimit = 60
MaxNbOfBBtreeNodeTreated = 100000
treeSearchStrategy = 1
RCSPstopCutGenTimeThresholdInPricing = 10
RCSPhardTimeThresholdInPricing = 20
RCSPnumberOfBucketsPerVertex = 2000
RCSPdynamicBucketSteps = 0
RCSPuseBidirectionalSearch = 1
RCSPapplyReducedCostFixing = 1
RCSPredCostFixingFalseGap = 0
RCSPmaxNumOfColsPerIteration = 100
RCSPmaxNumOfColsPerExactIteration = 100
RCSPheurLabelingStrategy = 4
StabilizationMinPhaseOfStage = 1
RCSPmaxNumOfLabelsInEnumeration = 100000
RCSPmaxNumOfEnumeratedSolutions = 1000000
RCSPmaxNumOfEnumSolutionsForMIP = 100000
RCSPinitNGneighbourhoodSize = 0
RCSPmaxNGneighbourhoodSize = 0
RCSPrankOneCutsMaxNumPerRound = 100
RCSPrankOneCutsMaxNumRows = -1
RCSPrankOneCutsMemoryType = 2
CutTailingOffThreshold = 0.02
CutTailingOffCounterThreshold = 3
SafeDualBoundScaleFactor = -1
StrongBranchingPhaseOneCandidatesNumber = 100
StrongBranchingPhaseOneTreeSizeEstimRatio = 0.3
StrongBranchingPhaseTwoCandidatesNumber = 1
StrongBranchingPhaseTwoTreeSizeEstimRatio = 0.1
MaxTimeForRestrictedMasterIpHeur = -1
DivingHeurUseDepthLimit = 0
MaxLDSbreadth = 3
MaxLDSdepth = 2
New model incumbent solution 1e+06, TIME = 0h0m0s3t = 3
Model is built TIME = 0h0m1s64t = 164
************************************************************************************************
**** BaB tree root node
**** Local DB = -1e+12, global bounds : [ -1e+12 , 1e+06 ], TIME = 0h0m1s64t = 164
**** 1 open nodes, 0 columns (0 active), 0 dyn. constrs. (0 active), 500 art. vars. (500 active)
************************************************************************************************
<DWph=2> <it= 10> <et=2.37> <Mt= 0.01> <Spt= 0.70> <nCl=1000> <DB=-619798938.7241> <Mlp=184200032.5000> <PB=1000000> 
<DWph=2> <it= 20> <et=3.09> <Mt= 0.01> <Spt= 0.71> <nCl=1000> <DB=-613789703.7200> <Mlp=59100075.7500> <PB=1000000> 
<DWph=2> <it= 30> <et=3.88> <Mt= 0.07> <Spt= 0.72> <nCl=1000> <DB=-283868244.6644> <Mlp=11401471.4988> <PB=1000000> 
<DWph=2> <it= 40> <et=4.79> <Mt= 0.12> <Spt= 0.79> <nCl=845> <DB=  -26.9466> <Mlp=   85.5000> <PB=1000000> 
<DWph=2> <it= 50> <et=5.65> <Mt= 0.13> <Spt= 0.73> <nCl=788> <DB=  -17.4211> <Mlp=   84.0000> <PB=1000000> 
<DWph=2> <it= 60> <et=6.63> <Mt= 0.09> <Spt= 0.88> <nCl=692> <DB=   83.6154> <Mlp=   83.6154> <PB=1000000> 
<DWph=1> <it= 70> <et=7.63> <Mt= 0.15> <Spt= 0.84> <nCl=780> <DB=   83.0000> <Mlp=   83.0000> <PB=1000000> 
<DWph=0> <it= 71> <et=7.71> <Mt= 0.00> <Spt= 0.08> <nCl=  0> <DB=   83.0000> <Mlp=   83.0000> <PB=1000000> 
Reduced cost fixing for graph G_1... took 1.3 sec., 144372 buck. arcs remain (100% from prev., 38.3% from max.)
Run enumeration... took 1.26 sec. and not succeeded.
ColGenEvalAlg final dual bound: 83 (rounded: 83)
----------- Diving heuristic started -----------
<DWph=2> <it=  1> <et=10.33> <Mt= 0.00> <Spt= 0.00> <nCl=  0> <DB=   83.0000> <Mlp=   83.0000> <PB=1000000> 
<DWph=1> <it=  2> <et=10.33> <Mt= 0.00> <Spt= 0.00> <nCl=  0> <DB=   83.0000> <Mlp=   83.0000> <PB=1000000> 
---- Diving heuristic node with dive number = 0, fix depth = 0 and tabu list size = 0
Fixed projected solution = [x_1_0_1_OspV=1, x_1_37_1_OspV=1, x_1_148_1_OspV=1, x_1_198_1_OspV=1]
<DWph=2> <it=  1> <et=10.37> <Mt= 0.01> <Spt= 0.00> <nCl=  0> <DB=   83.0000> <Mlp=   83.0000> <PB=1000000> 
<DWph=1> <it=  2> <et=10.37> <Mt= 0.00> <Spt= 0.00> <nCl=  0> <DB=   83.0000> <Mlp=   83.0000> <PB=1000000> 
---- Diving heuristic node with dive number = 0, fix depth = 0 and tabu list size = 0
Fixed projected solution = [x_1_0_1_OspV=1, x_1_62_1_OspV=1, x_1_141_1_OspV=1, x_1_200_1_OspV=1]
<DWph=2> <it=  1> <et=10.42> <Mt= 0.00> <Spt= 0.00> <nCl=  0> <DB=   83.0000> <Mlp=   83.0000> <PB=1000000> 
<DWph=1> <it=  2> <et=10.42> <Mt= 0.00> <Spt= 0.00> <nCl=  0> <DB=   83.0000> <Mlp=   83.0000> <PB=1000000> 
---- Diving heuristic node with dive number = 0, fix depth = 0 and tabu list size = 0
Fixed projected solution = [x_1_0_1_OspV=1, x_1_29_1_OspV=1, x_1_104_1_OspV=1, x_1_228_1_OspV=1]
<DWph=2> <it=  1> <et=10.47> <Mt= 0.00> <Spt= 0.00> <nCl=  0> <DB=   83.0000> <Mlp=   83.0000> <PB=1000000> 
<DWph=1> <it=  2> <et=10.47> <Mt= 0.00> <Spt= 0.00> <nCl=  0> <DB=   83.0000> <Mlp=   83.0000> <PB=1000000> 
---- Diving heuristic node with dive number = 0, fix depth = 0 and tabu list size = 0
Fixed projected solution = [x_1_0_1_OspV=1, x_1_41_1_OspV=1, x_1_87_1_OspV=1, x_1_232_1_OspV=1]
<DWph=2> <it=  1> <et=10.52> <Mt= 0.01> <Spt= 0.00> <nCl=  0> <DB=   83.0000> <Mlp=   83.0000> <PB=1000000> 
<DWph=1> <it=  2> <et=10.53> <Mt= 0.00> <Spt= 0.00> <nCl=  0> <DB=   83.0000> <Mlp=   83.0000> <PB=1000000> 
---- Diving heuristic node with dive number = 0, fix depth = 0 and tabu list size = 0
Fixed projected solution = [x_1_0_1_OspV=1, x_1_57_1_OspV=1, x_1_144_1_OspV=1, x_1_195_1_OspV=1]
<DWph=2> <it=  1> <et=10.61> <Mt= 0.00> <Spt= 0.00> <nCl=  0> <DB=   83.0000> <Mlp=   83.0000> <PB=1000000> 
<DWph=1> <it=  2> <et=10.61> <Mt= 0.00> <Spt= 0.00> <nCl=  0> <DB=   83.0000> <Mlp=   83.0000> <PB=1000000> 
---- Diving heuristic node with dive number = 0, fix depth = 0 and tabu list size = 0
Fixed projected solution = [x_1_0_1_OspV=1, x_1_80_1_OspV=1, x_1_156_1_OspV=1, x_1_167_1_OspV=1]
<DWph=2> <it=  1> <et=10.66> <Mt= 0.01> <Spt= 0.00> <nCl=  0> <DB=   83.0000> <Mlp=   83.0000> <PB=1000000> 
<DWph=1> <it=  2> <et=10.66> <Mt= 0.00> <Spt= 0.00> <nCl=  0> <DB=   83.0000> <Mlp=   83.0000> <PB=1000000> 
---- Diving heuristic node with dive number = 0, fix depth = 0 and tabu list size = 0
Fixed projected solution = [x_1_0_1_OspV=1, x_1_12_1_OspV=1, x_1_32_1_OspV=1, x_1_246_1_OspV=1]
<DWph=2> <it=  1> <et=10.70> <Mt= 0.00> <Spt= 0.00> <nCl=  0> <DB=   83.0000> <Mlp=   83.0000> <PB=1000000> 
<DWph=1> <it=  2> <et=10.71> <Mt= 0.00> <Spt= 0.00> <nCl=  0> <DB=   83.0000> <Mlp=   83.0000> <PB=1000000> 
---- Diving heuristic node with dive number = 0, fix depth = 0 and tabu list size = 0
Fixed projected solution = [x_1_0_1_OspV=1, x_1_79_1_OspV=1, x_1_136_1_OspV=1, x_1_194_1_OspV=1]
<DWph=2> <it=  1> <et=10.75> <Mt= 0.00> <Spt= 0.00> <nCl=  0> <DB=   83.0000> <Mlp=   83.0000> <PB=1000000> 
<DWph=1> <it=  2> <et=10.75> <Mt= 0.00> <Spt= 0.00> <nCl=  0> <DB=   83.0000> <Mlp=   83.0000> <PB=1000000> 
---- Diving heuristic node with dive number = 0, fix depth = 0 and tabu list size = 0
Fixed projected solution = [x_1_0_1_OspV=1, x_1_9_1_OspV=1, x_1_11_1_OspV=1, x_1_249_1_OspV=1]
<DWph=2> <it=  1> <et=10.80> <Mt= 0.01> <Spt= 0.00> <nCl=  0> <DB=   83.0000> <Mlp=   83.0000> <PB=1000000> 
<DWph=1> <it=  2> <et=10.80> <Mt= 0.00> <Spt= 0.00> <nCl=  0> <DB=   83.0000> <Mlp=   83.0000> <PB=1000000> 
---- Diving heuristic node with dive number = 0, fix depth = 0 and tabu list size = 0
Fixed projected solution = [x_1_0_1_OspV=1, x_1_84_1_OspV=1, x_1_150_1_OspV=1, x_1_176_1_OspV=1]
<DWph=2> <it=  1> <et=10.85> <Mt= 0.00> <Spt= 0.00> <nCl=  0> <DB=   83.0000> <Mlp=   83.0000> <PB=1000000> 
<DWph=1> <it=  2> <et=10.85> <Mt= 0.00> <Spt= 0.00> <nCl=  0> <DB=   83.0000> <Mlp=   83.0000> <PB=1000000> 
---- Diving heuristic node with dive number = 0, fix depth = 0 and tabu list size = 0
Fixed projected solution = [x_1_0_1_OspV=1, x_1_45_1_OspV=1, x_1_73_1_OspV=1, x_1_235_1_OspV=1]
<DWph=2> <it=  1> <et=10.89> <Mt= 0.00> <Spt= 0.00> <nCl=  0> <DB=   83.0000> <Mlp=   83.0000> <PB=1000000> 
<DWph=1> <it=  2> <et=10.89> <Mt= 0.00> <Spt= 0.00> <nCl=  0> <DB=   83.0000> <Mlp=   83.0000> <PB=1000000> 
---- Diving heuristic node with dive number = 0, fix depth = 0 and tabu list size = 0
Fixed projected solution = [x_1_0_1_OspV=1, x_1_35_1_OspV=1, x_1_74_1_OspV=1, x_1_237_1_OspV=1]
<DWph=2> <it=  1> <et=10.94> <Mt= 0.01> <Spt= 0.00> <nCl=  0> <DB=   83.0000> <Mlp=   83.0000> <PB=1000000> 
<DWph=1> <it=  2> <et=10.94> <Mt= 0.00> <Spt= 0.00> <nCl=  0> <DB=   83.0000> <Mlp=   83.0000> <PB=1000000> 
---- Diving heuristic node with dive number = 0, fix depth = 1 and tabu list size = 0
Fixed projected solution = [x_1_0_1_OspV=1, x_1_63_1_OspV=1, x_1_147_1_OspV=1, x_1_189_1_OspV=1]
<DWph=2> <it=  1> <et=10.98> <Mt= 0.00> <Spt= 0.00> <nCl=  0> <DB=   83.0000> <Mlp=   83.0000> <PB=1000000> 
<DWph=1> <it=  2> <et=10.98> <Mt= 0.00> <Spt= 0.00> <nCl=  0> <DB=   83.0000> <Mlp=   83.0000> <PB=1000000> 
---- Diving heuristic node with dive number = 0, fix depth = 2 and tabu list size = 0
Fixed projected solution = [x_1_0_1_OspV=1, x_1_23_1_OspV=1, x_1_172_1_OspV=1, x_1_173_1_OspV=1]
<DWph=2> <it=  1> <et=11.02> <Mt= 0.00> <Spt= 0.00> <nCl=  0> <DB=   83.0000> <Mlp=   83.0000> <PB=1000000> 
<DWph=1> <it=  2> <et=11.02> <Mt= 0.01> <Spt= 0.00> <nCl=  0> <DB=   83.0000> <Mlp=   83.0000> <PB=1000000> 
---- Diving heuristic node with dive number = 0, fix depth = 3 and tabu list size = 0
Fixed projected solution = [x_1_0_1_OspV=1, x_1_36_1_OspV=1, x_1_146_1_OspV=1, x_1_201_1_OspV=1]
<DWph=2> <it=  1> <et=11.03> <Mt= 0.00> <Spt= 0.00> <nCl=  0> <DB=   83.0000> <Mlp=   83.0000> <PB=1000000> 
<DWph=1> <it=  2> <et=11.03> <Mt= 0.00> <Spt= 0.00> <nCl=  0> <DB=   83.0000> <Mlp=   83.0000> <PB=1000000> 
---- Diving heuristic node with dive number = 0, fix depth = 4 and tabu list size = 0
Fixed projected solution = [x_1_0_1_OspV=1, x_1_1_1_OspV=1, x_1_55_1_OspV=1, x_1_242_1_OspV=1]
<DWph=2> <it=  1> <et=11.04> <Mt= 0.00> <Spt= 0.00> <nCl=  0> <DB=   83.0000> <Mlp=   83.0000> <PB=1000000> 
<DWph=1> <it=  2> <et=11.04> <Mt= 0.00> <Spt= 0.00> <nCl=  0> <DB=   83.0000> <Mlp=   83.0000> <PB=1000000> 
---- Diving heuristic node with dive number = 0, fix depth = 5 and tabu list size = 0
Fixed projected solution = [x_1_0_1_OspV=1, x_1_75_1_OspV=1, x_1_153_1_OspV=1, x_1_179_1_OspV=1]
<DWph=2> <it=  1> <et=11.05> <Mt= 0.00> <Spt= 0.00> <nCl=  0> <DB=   83.0000> <Mlp=   83.0000> <PB=1000000> 
<DWph=1> <it=  2> <et=11.05> <Mt= 0.00> <Spt= 0.00> <nCl=  0> <DB=   83.0000> <Mlp=   83.0000> <PB=1000000> 
---- Diving heuristic node with dive number = 0, fix depth = 6 and tabu list size = 0
Fixed projected solution = [x_1_0_1_OspV=1, x_1_51_1_OspV=1, x_1_100_1_OspV=1, x_1_225_1_OspV=1]
<DWph=2> <it=  1> <et=11.06> <Mt= 0.01> <Spt= 0.00> <nCl=  0> <DB=   83.0000> <Mlp=   83.0000> <PB=1000000> 
<DWph=1> <it=  2> <et=11.06> <Mt= 0.00> <Spt= 0.00> <nCl=  0> <DB=   83.0000> <Mlp=   83.0000> <PB=1000000> 
---- Diving heuristic node with dive number = 0, fix depth = 7 and tabu list size = 0
Fixed projected solution = [x_1_0_1_OspV=1, x_1_17_1_OspV=1, x_1_162_1_OspV=1, x_1_187_1_OspV=1]
<DWph=2> <it=  1> <et=11.07> <Mt= 0.01> <Spt= 0.00> <nCl=  0> <DB=   83.0000> <Mlp=   83.0000> <PB=1000000> 
<DWph=1> <it=  2> <et=11.07> <Mt= 0.00> <Spt= 0.00> <nCl=  0> <DB=   83.0000> <Mlp=   83.0000> <PB=1000000> 
---- Diving heuristic node with dive number = 0, fix depth = 8 and tabu list size = 0
Fixed projected solution = [x_1_0_1_OspV=1, x_1_14_1_OspV=1, x_1_94_1_OspV=1, x_1_234_1_OspV=1]
<DWph=2> <it=  1> <et=11.08> <Mt= 0.00> <Spt= 0.00> <nCl=  0> <DB=   83.0000> <Mlp=   83.0000> <PB=1000000> 
<DWph=1> <it=  2> <et=11.08> <Mt= 0.00> <Spt= 0.00> <nCl=  0> <DB=   83.0000> <Mlp=   83.0000> <PB=1000000> 
---- Diving heuristic node with dive number = 0, fix depth = 9 and tabu list size = 0
Fixed projected solution = [x_1_0_1_OspV=1, x_1_22_1_OspV=1, x_1_163_1_OspV=1, x_1_186_1_OspV=1]
<DWph=2> <it=  1> <et=11.10> <Mt= 0.01> <Spt= 0.00> <nCl=  0> <DB=   83.0000> <Mlp=   83.0000> <PB=1000000> 
<DWph=1> <it=  2> <et=11.10> <Mt= 0.00> <Spt= 0.00> <nCl=  0> <DB=   83.0000> <Mlp=   83.0000> <PB=1000000> 
---- Diving heuristic node with dive number = 0, fix depth = 10 and tabu list size = 0
Fixed projected solution = [x_1_0_1_OspV=1, x_1_70_1_OspV=1, x_1_155_1_OspV=1, x_1_183_1_OspV=1]
<DWph=2> <it=  1> <et=11.11> <Mt= 0.01> <Spt= 0.00> <nCl=  0> <DB=   83.0000> <Mlp=   83.0000> <PB=1000000> 
<DWph=1> <it=  2> <et=11.11> <Mt= 0.00> <Spt= 0.00> <nCl=  0> <DB=   83.0000> <Mlp=   83.0000> <PB=1000000> 
---- Diving heuristic node with dive number = 0, fix depth = 11 and tabu list size = 0
Fixed projected solution = [x_1_0_1_OspV=1, x_1_18_1_OspV=1, x_1_157_1_OspV=1, x_1_190_1_OspV=1]
<DWph=2> <it=  1> <et=11.12> <Mt= 0.00> <Spt= 0.00> <nCl=  0> <DB=   83.0000> <Mlp=   83.0000> <PB=1000000> 
<DWph=1> <it=  2> <et=11.12> <Mt= 0.00> <Spt= 0.00> <nCl=  0> <DB=   83.0000> <Mlp=   83.0000> <PB=1000000> 
---- Diving heuristic node with dive number = 0, fix depth = 12 and tabu list size = 0
Fixed projected solution = [x_1_0_1_OspV=1, x_1_56_1_OspV=1, x_1_165_1_OspV=1, x_1_169_1_OspV=1]
<DWph=2> <it=  1> <et=11.13> <Mt= 0.01> <Spt= 0.00> <nCl=  0> <DB=   83.0000> <Mlp=   83.0000> <PB=1000000> 
<DWph=1> <it=  2> <et=11.13> <Mt= 0.00> <Spt= 0.00> <nCl=  0> <DB=   83.0000> <Mlp=   83.0000> <PB=1000000> 
---- Diving heuristic node with dive number = 0, fix depth = 13 and tabu list size = 0
Fixed projected solution = [x_1_0_1_OspV=1, x_1_59_1_OspV=1, x_1_154_1_OspV=1, x_1_184_1_OspV=1]
<DWph=2> <it=  1> <et=11.14> <Mt= 0.00> <Spt= 0.00> <nCl=  0> <DB=   83.0000> <Mlp=   83.0000> <PB=1000000> 
<DWph=1> <it=  2> <et=11.14> <Mt= 0.00> <Spt= 0.00> <nCl=  0> <DB=   83.0000> <Mlp=   83.0000> <PB=1000000> 
---- Diving heuristic node with dive number = 0, fix depth = 14 and tabu list size = 0
Fixed projected solution = [x_1_0_1_OspV=1, x_1_99_1_OspV=1, x_1_127_1_OspV=1, x_1_197_1_OspV=1]
<DWph=2> <it=  1> <et=11.15> <Mt= 0.01> <Spt= 0.00> <nCl=  0> <DB=   83.0000> <Mlp=   83.0000> <PB=1000000> 
<DWph=1> <it=  2> <et=11.15> <Mt= 0.00> <Spt= 0.00> <nCl=  0> <DB=   83.0000> <Mlp=   83.0000> <PB=1000000> 
---- Diving heuristic node with dive number = 0, fix depth = 15 and tabu list size = 0
Fixed projected solution = [x_1_0_1_OspV=1, x_1_25_1_OspV=1, x_1_98_1_OspV=1, x_1_230_1_OspV=1]
<DWph=2> <it=  1> <et=11.17> <Mt= 0.01> <Spt= 0.00> <nCl=  0> <DB=   83.0000> <Mlp=   83.0000> <PB=1000000> 
<DWph=1> <it=  2> <et=11.17> <Mt= 0.00> <Spt= 0.00> <nCl=  0> <DB=   83.0000> <Mlp=   83.0000> <PB=1000000> 
---- Diving heuristic node with dive number = 0, fix depth = 16 and tabu list size = 0
Fixed projected solution = [x_1_0_1_OspV=1, x_1_82_1_OspV=1, x_1_149_1_OspV=1, x_1_178_1_OspV=1]
<DWph=2> <it=  1> <et=11.19> <Mt= 0.02> <Spt= 0.00> <nCl=  0> <DB=   83.0000> <Mlp=   83.0000> <PB=1000000> 
<DWph=1> <it=  2> <et=11.19> <Mt= 0.00> <Spt= 0.00> <nCl=  0> <DB=   83.0000> <Mlp=   83.0000> <PB=1000000> 
---- Diving heuristic node with dive number = 0, fix depth = 17 and tabu list size = 0
Fixed projected solution = [x_1_0_1_OspV=1, x_1_8_1_OspV=1, x_1_52_1_OspV=1, x_1_243_1_OspV=1]
<DWph=2> <it=  1> <et=11.21> <Mt= 0.01> <Spt= 0.00> <nCl=  0> <DB=   83.0000> <Mlp=   83.0000> <PB=1000000> 
<DWph=1> <it=  2> <et=11.21> <Mt= 0.00> <Spt= 0.00> <nCl=  0> <DB=   83.0000> <Mlp=   83.0000> <PB=1000000> 
---- Diving heuristic node with dive number = 0, fix depth = 18 and tabu list size = 0
Fixed projected solution = [x_1_0_1_OspV=1, x_1_20_1_OspV=1, x_1_120_1_OspV=1, x_1_219_1_OspV=1]
<DWph=2> <it=  1> <et=11.22> <Mt= 0.01> <Spt= 0.00> <nCl=  0> <DB=   83.0000> <Mlp=   83.0000> <PB=1000000> 
<DWph=1> <it=  2> <et=11.23> <Mt= 0.00> <Spt= 0.00> <nCl=  0> <DB=   83.0000> <Mlp=   83.0000> <PB=1000000> 
---- Diving heuristic node with dive number = 0, fix depth = 19 and tabu list size = 0
Fixed projected solution = [x_1_0_1_OspV=1, x_1_77_1_OspV=1, x_1_83_1_OspV=1, x_1_220_1_OspV=1]
<DWph=2> <it=  1> <et=11.25> <Mt= 0.02> <Spt= 0.00> <nCl=  0> <DB=   83.0000> <Mlp=   83.0000> <PB=1000000> 
<DWph=1> <it=  2> <et=11.25> <Mt= 0.00> <Spt= 0.00> <nCl=  0> <DB=   83.0000> <Mlp=   83.0000> <PB=1000000> 
---- Diving heuristic node with dive number = 0, fix depth = 20 and tabu list size = 0
Fixed projected solution = [x_1_0_1_OspV=1, x_1_40_1_OspV=1, x_1_166_1_OspV=1, x_1_180_1_OspV=1]
<DWph=2> <it=  1> <et=11.28> <Mt= 0.03> <Spt= 0.00> <nCl=  0> <DB=   83.0000> <Mlp=   83.0000> <PB=1000000> 
<DWph=1> <it=  2> <et=11.28> <Mt= 0.00> <Spt= 0.00> <nCl=  0> <DB=   83.0000> <Mlp=   83.0000> <PB=1000000> 
---- Diving heuristic node with dive number = 0, fix depth = 21 and tabu list size = 0
Fixed projected solution = [x_1_0_1_OspV=1, x_1_47_1_OspV=1, x_1_85_1_OspV=1, x_1_229_1_OspV=1]
<DWph=2> <it=  1> <et=11.32> <Mt= 0.03> <Spt= 0.00> <nCl=  0> <DB=   83.0000> <Mlp=   83.0000> <PB=1000000> 
<DWph=1> <it=  2> <et=11.32> <Mt= 0.00> <Spt= 0.00> <nCl=  0> <DB=   83.0000> <Mlp=   83.0000> <PB=1000000> 
---- Diving heuristic node with dive number = 0, fix depth = 21 and tabu list size = 0
Fixed projected solution = [x_1_0_1_OspV=1, x_1_3_1_OspV=1, x_1_60_1_OspV=1, x_1_241_1_OspV=1]
<DWph=2> <it=  1> <et=11.32> <Mt= 0.00> <Spt= 0.00> <nCl=  0> <DB=   83.0000> <Mlp=   83.0000> <PB=1000000> 
<DWph=1> <it=  2> <et=11.32> <Mt= 0.00> <Spt= 0.00> <nCl=  0> <DB=   83.0000> <Mlp=   83.0000> <PB=1000000> 
---- Diving heuristic node with dive number = 0, fix depth = 21 and tabu list size = 0
Fixed projected solution = [x_1_0_1_OspV=1, x_1_5_1_OspV=1, x_1_28_1_OspV=1, x_1_247_1_OspV=1]
<DWph=2> <it=  1> <et=11.33> <Mt= 0.00> <Spt= 0.00> <nCl=  0> <DB=   83.0000> <Mlp=   83.0000> <PB=1000000> 
<DWph=1> <it=  2> <et=11.33> <Mt= 0.00> <Spt= 0.00> <nCl=  0> <DB=   83.0000> <Mlp=   83.0000> <PB=1000000> 
---- Diving heuristic node with dive number = 0, fix depth = 21 and tabu list size = 0
Fixed projected solution = [x_1_0_1_OspV=1, x_1_13_1_OspV=1, x_1_68_1_OspV=1, x_1_239_1_OspV=1]
<DWph=2> <it=  1> <et=11.34> <Mt= 0.00> <Spt= 0.00> <nCl=  0> <DB=   83.0000> <Mlp=   83.0000> <PB=1000000> 
<DWph=1> <it=  2> <et=11.34> <Mt= 0.00> <Spt= 0.00> <nCl=  0> <DB=   83.0000> <Mlp=   83.0000> <PB=1000000> 
---- Diving heuristic node with dive number = 0, fix depth = 21 and tabu list size = 0
Fixed projected solution = [x_1_0_1_OspV=1, x_1_4_1_OspV=1, x_1_27_1_OspV=1, x_1_248_1_OspV=1]
<DWph=2> <it=  1> <et=11.34> <Mt= 0.01> <Spt= 0.00> <nCl=  0> <DB=   83.0000> <Mlp=   83.0000> <PB=1000000> 
<DWph=1> <it=  2> <et=11.35> <Mt= 0.00> <Spt= 0.00> <nCl=  0> <DB=   83.0000> <Mlp=   83.0000> <PB=1000000> 
---- Diving heuristic node with dive number = 0, fix depth = 21 and tabu list size = 0
Fixed projected solution = [x_1_0_1_OspV=1, x_1_6_1_OspV=1, x_1_86_1_OspV=1, x_1_238_1_OspV=1]
<DWph=2> <it=  1> <et=11.35> <Mt= 0.00> <Spt= 0.00> <nCl=  0> <DB=   83.0000> <Mlp=   83.0000> <PB=1000000> 
<DWph=1> <it=  2> <et=11.35> <Mt= 0.00> <Spt= 0.00> <nCl=  0> <DB=   83.0000> <Mlp=   83.0000> <PB=1000000> 
---- Diving heuristic node with dive number = 0, fix depth = 22 and tabu list size = 0
Fixed projected solution = [x_1_0_1_OspV=1, x_1_19_1_OspV=1, x_1_108_1_OspV=1, x_1_226_1_OspV=1]
<DWph=2> <it=  1> <et=11.38> <Mt= 0.02> <Spt= 0.00> <nCl=  0> <DB=   83.0000> <Mlp=   83.0000> <PB=1000000> 
<DWph=1> <it=  2> <et=11.38> <Mt= 0.00> <Spt= 0.00> <nCl=  0> <DB=   83.0000> <Mlp=   83.0000> <PB=1000000> 
---- Diving heuristic node with dive number = 0, fix depth = 23 and tabu list size = 0
Fixed projected solution = [x_1_0_1_OspV=1, x_1_71_1_OspV=1, x_1_132_1_OspV=1, x_1_203_1_OspV=1]
<DWph=2> <it=  1> <et=11.40> <Mt= 0.01> <Spt= 0.00> <nCl=  0> <DB=   83.0000> <Mlp=   83.0000> <PB=1000000> 
<DWph=1> <it=  2> <et=11.40> <Mt= 0.00> <Spt= 0.00> <nCl=  0> <DB=   83.0000> <Mlp=   83.0000> <PB=1000000> 
---- Diving heuristic node with dive number = 0, fix depth = 24 and tabu list size = 0
Fixed projected solution = [x_1_0_1_OspV=1, x_1_102_1_OspV=1, x_1_128_1_OspV=1, x_1_193_1_OspV=1]
<DWph=2> <it=  1> <et=11.42> <Mt= 0.02> <Spt= 0.00> <nCl=  0> <DB=   83.0000> <Mlp=   83.0000> <PB=1000000> 
<DWph=1> <it=  2> <et=11.42> <Mt= 0.00> <Spt= 0.00> <nCl=  0> <DB=   83.0000> <Mlp=   83.0000> <PB=1000000> 
---- Diving heuristic node with dive number = 0, fix depth = 25 and tabu list size = 0
Fixed projected solution = [x_1_0_1_OspV=1, x_1_53_1_OspV=1, x_1_114_1_OspV=1, x_1_217_1_OspV=1]
<DWph=2> <it=  2> <et=11.57> <Mt= 0.04> <Spt= 0.10> <nCl=100> <DB=   74.8472> <Mlp=   83.0000> <PB=1000000> 
<DWph=1> <it=  3> <et=11.57> <Mt= 0.00> <Spt= 0.00> <nCl=  0> <DB=   83.0000> <Mlp=   83.0000> <PB=1000000> 
---- Diving heuristic node with dive number = 0, fix depth = 25 and tabu list size = 0
Fixed projected solution = [x_1_0_1_OspV=1, x_1_105_1_OspV=1, x_1_121_1_OspV=1, x_1_199_1_OspV=1]
<DWph=2> <it=  1> <et=11.58> <Mt= 0.00> <Spt= 0.00> <nCl=  0> <DB=   83.0000> <Mlp=   83.0000> <PB=1000000> 
<DWph=1> <it=  2> <et=11.58> <Mt= 0.00> <Spt= 0.00> <nCl=  0> <DB=   83.0000> <Mlp=   83.0000> <PB=1000000> 
---- Diving heuristic node with dive number = 0, fix depth = 25 and tabu list size = 0
Fixed projected solution = [x_1_0_1_OspV=1, x_1_69_1_OspV=1, x_1_161_1_OspV=1, x_1_170_1_OspV=1]
<DWph=2> <it=  1> <et=11.59> <Mt= 0.00> <Spt= 0.00> <nCl=  0> <DB=   83.0000> <Mlp=   83.0000> <PB=1000000> 
<DWph=1> <it=  2> <et=11.59> <Mt= 0.01> <Spt= 0.00> <nCl=  0> <DB=   83.0000> <Mlp=   83.0000> <PB=1000000> 
---- Diving heuristic node with dive number = 0, fix depth = 26 and tabu list size = 0
Fixed projected solution = [x_1_0_1_OspV=1, x_1_58_1_OspV=1, x_1_134_1_OspV=1, x_1_205_1_OspV=1]
<DWph=2> <it=  1> <et=11.62> <Mt= 0.02> <Spt= 0.00> <nCl=  0> <DB=   83.0000> <Mlp=   83.0000> <PB=1000000> 
<DWph=1> <it=  2> <et=11.62> <Mt= 0.00> <Spt= 0.00> <nCl=  0> <DB=   83.0000> <Mlp=   83.0000> <PB=1000000> 
---- Diving heuristic node with dive number = 0, fix depth = 27 and tabu list size = 0
Fixed projected solution = [x_1_0_1_OspV=1, x_1_110_1_OspV=1, x_1_111_1_OspV=1, x_1_202_1_OspV=1]
<DWph=2> <it=  2> <et=11.75> <Mt= 0.05> <Spt= 0.08> <nCl=100> <DB=   82.0473> <Mlp=   83.0000> <PB=1000000> 
<DWph=1> <it=  3> <et=11.75> <Mt= 0.00> <Spt= 0.00> <nCl=  0> <DB=   83.0000> <Mlp=   83.0000> <PB=1000000> 
---- Diving heuristic node with dive number = 0, fix depth = 28 and tabu list size = 0
Fixed projected solution = [x_1_0_1_OspV=1, x_1_103_1_OspV=1, x_1_140_1_OspV=1, x_1_182_1_OspV=1]
<DWph=2> <it=  1> <et=11.78> <Mt= 0.02> <Spt= 0.00> <nCl=  0> <DB=   83.0000> <Mlp=   83.0000> <PB=1000000> 
<DWph=1> <it=  2> <et=11.78> <Mt= 0.00> <Spt= 0.00> <nCl=  0> <DB=   83.0000> <Mlp=   83.0000> <PB=1000000> 
---- Diving heuristic node with dive number = 0, fix depth = 29 and tabu list size = 0
Fixed projected solution = [x_1_0_1_OspV=1, x_1_38_1_OspV=1, x_1_152_1_OspV=1, x_1_196_1_OspV=1]
<DWph=2> <it=  2> <et=11.92> <Mt= 0.06> <Spt= 0.07> <nCl=100> <DB=   82.8234> <Mlp=   83.0000> <PB=1000000> 
<DWph=1> <it=  3> <et=11.92> <Mt= 0.00> <Spt= 0.00> <nCl=  0> <DB=   83.0000> <Mlp=   83.0000> <PB=1000000> 
---- Diving heuristic node with dive number = 0, fix depth = 29 and tabu list size = 0
Fixed projected solution = [x_1_0_1_OspV=1, x_1_30_1_OspV=1, x_1_112_1_OspV=1, x_1_222_1_OspV=1]
<DWph=2> <it=  1> <et=11.93> <Mt= 0.00> <Spt= 0.00> <nCl=  0> <DB=   83.0000> <Mlp=   83.0000> <PB=1000000> 
<DWph=1> <it=  2> <et=11.93> <Mt= 0.01> <Spt= 0.00> <nCl=  0> <DB=   83.0000> <Mlp=   83.0000> <PB=1000000> 
---- Diving heuristic node with dive number = 0, fix depth = 30 and tabu list size = 0
Fixed projected solution = [x_1_0_1_OspV=1, x_1_119_1_OspV=1, x_1_126_1_OspV=1, x_1_174_1_OspV=1]
<DWph=2> <it=  1> <et=11.96> <Mt= 0.02> <Spt= 0.00> <nCl=  0> <DB=   83.0000> <Mlp=   83.0000> <PB=1000000> 
<DWph=1> <it=  2> <et=11.96> <Mt= 0.00> <Spt= 0.00> <nCl=  0> <DB=   83.0000> <Mlp=   83.0000> <PB=1000000> 
---- Diving heuristic node with dive number = 0, fix depth = 31 and tabu list size = 0
Fixed projected solution = [x_1_0_1_OspV=1, x_1_81_1_OspV=1, x_1_159_1_OspV=1, x_1_164_1_OspV=1]
<DWph=2> <it=  1> <et=11.99> <Mt= 0.02> <Spt= 0.00> <nCl=  0> <DB=   83.0000> <Mlp=   83.0000> <PB=1000000> 
<DWph=1> <it=  2> <et=11.99> <Mt= 0.00> <Spt= 0.00> <nCl=  0> <DB=   83.0000> <Mlp=   83.0000> <PB=1000000> 
---- Diving heuristic node with dive number = 0, fix depth = 32 and tabu list size = 0
Fixed projected solution = [x_1_0_1_OspV=1, x_1_93_1_OspV=1, x_1_133_1_OspV=1, x_1_191_1_OspV=1]
<DWph=2> <it=  1> <et=12.03> <Mt= 0.04> <Spt= 0.00> <nCl=  0> <DB=   83.0000> <Mlp=   83.0000> <PB=1000000> 
<DWph=1> <it=  2> <et=12.03> <Mt= 0.00> <Spt= 0.00> <nCl=  0> <DB=   83.0000> <Mlp=   83.0000> <PB=1000000> 
---- Diving heuristic node with dive number = 0, fix depth = 33 and tabu list size = 0
Fixed projected solution = [x_1_0_1_OspV=1, x_1_50_1_OspV=1, x_1_115_1_OspV=1, x_1_218_1_OspV=1]
<DWph=2> <it=  2> <et=12.17> <Mt= 0.05> <Spt= 0.08> <nCl=100> <DB=   82.5119> <Mlp=   83.0000> <PB=1000000> 
<DWph=1> <it=  3> <et=12.17> <Mt= 0.01> <Spt= 0.00> <nCl=  0> <DB=   83.0000> <Mlp=   83.0000> <PB=1000000> 
---- Diving heuristic node with dive number = 0, fix depth = 34 and tabu list size = 0
Fixed projected solution = [x_1_0_1_OspV=1, x_1_46_1_OspV=1, x_1_106_1_OspV=1, x_1_223_1_OspV=1]
<DWph=2> <it=  2> <et=12.32> <Mt= 0.05> <Spt= 0.08> <nCl=100> <DB=   82.7079> <Mlp=   83.0000> <PB=1000000> 
<DWph=1> <it=  3> <et=12.32> <Mt= 0.01> <Spt= 0.00> <nCl=  0> <DB=   83.0000> <Mlp=   83.0000> <PB=1000000> 
---- Diving heuristic node with dive number = 0, fix depth = 35 and tabu list size = 0
Fixed projected solution = [x_1_0_1_OspV=1, x_1_16_1_OspV=1, x_1_125_1_OspV=1, x_1_216_1_OspV=1]
<DWph=2> <it=  3> <et=12.53> <Mt= 0.05> <Spt= 0.15> <nCl= 92> <DB=   82.7917> <Mlp=   83.0000> <PB=1000000> 
<DWph=1> <it=  4> <et=12.53> <Mt= 0.00> <Spt= 0.00> <nCl=  0> <DB=   83.0000> <Mlp=   83.0000> <PB=1000000> 
---- Diving heuristic node with dive number = 0, fix depth = 35 and tabu list size = 0
Fixed projected solution = [x_1_0_1_OspV=1, x_1_91_1_OspV=1, x_1_92_1_OspV=1, x_1_215_1_OspV=1]
<DWph=2> <it=  1> <et=12.54> <Mt= 0.00> <Spt= 0.00> <nCl=  0> <DB=   83.0000> <Mlp=   83.0000> <PB=1000000> 
<DWph=1> <it=  2> <et=12.55> <Mt= 0.00> <Spt= 0.00> <nCl=  0> <DB=   83.0000> <Mlp=   83.0000> <PB=1000000> 
---- Diving heuristic node with dive number = 0, fix depth = 35 and tabu list size = 0
Fixed projected solution = [x_1_0_1_OspV=1, x_1_96_1_OspV=1, x_1_151_1_OspV=1, x_1_168_1_OspV=1]
<DWph=2> <it=  1> <et=12.55> <Mt= 0.00> <Spt= 0.00> <nCl=  0> <DB=   83.0000> <Mlp=   83.0000> <PB=1000000> 
<DWph=1> <it=  2> <et=12.55> <Mt= 0.01> <Spt= 0.00> <nCl=  0> <DB=   83.0000> <Mlp=   83.0000> <PB=1000000> 
---- Diving heuristic node with dive number = 0, fix depth = 36 and tabu list size = 0
Fixed projected solution = [x_1_0_1_OspV=1, x_1_33_1_OspV=1, x_1_138_1_OspV=1, x_1_208_1_OspV=1]
<DWph=2> <it=  5> <et=12.92> <Mt= 0.05> <Spt= 0.30> <nCl= 44> <DB=   82.9273> <Mlp=   83.0000> <PB=1000000> 
<DWph=1> <it=  6> <et=12.92> <Mt= 0.00> <Spt= 0.00> <nCl=  0> <DB=   83.0000> <Mlp=   83.0000> <PB=1000000> 
---- Diving heuristic node with dive number = 0, fix depth = 36 and tabu list size = 0
Fixed projected solution = [x_1_0_1_OspV=1, x_1_31_1_OspV=1, x_1_129_1_OspV=1, x_1_214_1_OspV=1]
<DWph=2> <it=  1> <et=12.93> <Mt= 0.00> <Spt= 0.00> <nCl=  0> <DB=   83.0000> <Mlp=   83.0000> <PB=1000000> 
<DWph=1> <it=  2> <et=12.93> <Mt= 0.00> <Spt= 0.00> <nCl=  0> <DB=   83.0000> <Mlp=   83.0000> <PB=1000000> 
---- Diving heuristic node with dive number = 0, fix depth = 36 and tabu list size = 0
Fixed projected solution = [x_1_0_1_OspV=1, x_1_54_1_OspV=1, x_1_101_1_OspV=1, x_1_224_1_OspV=1]
<DWph=2> <it=  1> <et=12.94> <Mt= 0.00> <Spt= 0.00> <nCl=  0> <DB=   83.0000> <Mlp=   83.0000> <PB=1000000> 
<DWph=1> <it=  2> <et=12.94> <Mt= 0.01> <Spt= 0.00> <nCl=  0> <DB=   83.0000> <Mlp=   83.0000> <PB=1000000> 
---- Diving heuristic node with dive number = 0, fix depth = 36 and tabu list size = 0
Fixed projected solution = [x_1_0_1_OspV=1, x_1_88_1_OspV=1, x_1_116_1_OspV=1, x_1_210_1_OspV=1]
<DWph=2> <it=  1> <et=12.95> <Mt= 0.00> <Spt= 0.00> <nCl=  0> <DB=   83.0000> <Mlp=   83.0000> <PB=1000000> 
<DWph=1> <it=  2> <et=12.95> <Mt= 0.00> <Spt= 0.00> <nCl=  0> <DB=   83.0000> <Mlp=   83.0000> <PB=1000000> 
---- Diving heuristic node with dive number = 0, fix depth = 36 and tabu list size = 0
Fixed projected solution = [x_1_0_1_OspV=1, x_1_34_1_OspV=1, x_1_139_1_OspV=1, x_1_207_1_OspV=1]
<DWph=2> <it=  1> <et=12.95> <Mt= 0.00> <Spt= 0.00> <nCl=  0> <DB=   83.0000> <Mlp=   83.0000> <PB=1000000> 
<DWph=1> <it=  2> <et=12.96> <Mt= 0.00> <Spt= 0.00> <nCl=  0> <DB=   83.0000> <Mlp=   83.0000> <PB=1000000> 
---- Diving heuristic node with dive number = 0, fix depth = 37 and tabu list size = 0
Fixed projected solution = [x_1_0_1_OspV=1, x_1_15_1_OspV=1, x_1_175_1_OspV=1, x_1_177_1_OspV=1]
<DWph=2> <it= 10> <et=14.03> <Mt= 0.15> <Spt= 0.92> <nCl=186> <DB=   82.8153> <Mlp=   83.0181> <PB=1000000> 
<DWph=2> <it= 17> <et=14.89> <Mt= 0.01> <Spt= 0.84> <nCl= 10> <DB=   83.0181> <Mlp=   83.0181> <PB=1000000> 
<DWph=1> <it= 20> <et=15.15> <Mt= 0.03> <Spt= 0.23> <nCl=225> <DB=   80.4326> <Mlp=   83.0097> <PB=1000000> 
<DWph=1> <it= 28> <et=15.99> <Mt= 0.05> <Spt= 0.79> <nCl=109> <DB=   83.0052> <Mlp=   83.0052> <PB=1000000> 
---- Diving heuristic node with dive number = 0, fix depth = 38 and tabu list size = 0
Fixed projected solution = [x_1_0_1_OspV=1, x_1_24_1_OspV=1, x_1_131_1_OspV=1, x_1_213_1_OspV=1]
<DWph=2> <it=  2> <et=16.32> <Mt= 0.02> <Spt= 0.30> <nCl=  1> <DB=   83.0053> <Mlp=   83.0053> <PB=1000000> 
<DWph=1> <it=  3> <et=16.48> <Mt= 0.00> <Spt= 0.16> <nCl=  0> <DB=   83.0053> <Mlp=   83.0053> <PB=1000000> 
---- Diving heuristic node with dive number = 0, fix depth = 39 and tabu list size = 0
Fixed projected solution = [x_1_0_1_OspV=1, x_1_2_1_OspV=1, x_1_48_1_OspV=1, x_1_244_1_OspV=1]
<DWph=2> <it=  1> <et=16.65> <Mt= 0.01> <Spt= 0.14> <nCl=  0> <DB=   83.0053> <Mlp=   83.0053> <PB=1000000> 
<DWph=1> <it=  2> <et=16.81> <Mt= 0.00> <Spt= 0.16> <nCl=  0> <DB=   83.0053> <Mlp=   83.0053> <PB=1000000> 
---- Diving heuristic node with dive number = 0, fix depth = 40 and tabu list size = 0
Fixed projected solution = [x_1_0_1_OspV=1, x_1_10_1_OspV=1, x_1_42_1_OspV=1, x_1_245_1_OspV=1]
<DWph=2> <it=  6> <et=17.53> <Mt= 0.05> <Spt= 0.66> <nCl= 64> <DB=   83.0057> <Mlp=   83.0057> <PB=1000000> 
<DWph=1> <it=  9> <et=17.84> <Mt= 0.01> <Spt= 0.31> <nCl= 15> <DB=   83.0057> <Mlp=   83.0057> <PB=1000000> 
---- Diving heuristic node with dive number = 0, fix depth = 41 and tabu list size = 0
Fixed projected solution = [x_1_0_1_OspV=1, x_1_43_1_OspV=1, x_1_44_1_OspV=1, x_1_240_1_OspV=1]
<DWph=2> <it=  1> <et=18.01> <Mt= 0.01> <Spt= 0.14> <nCl=  0> <DB=   83.0062> <Mlp=   83.0062> <PB=1000000> 
<DWph=1> <it=  2> <et=18.17> <Mt= 0.00> <Spt= 0.16> <nCl=  0> <DB=   83.0062> <Mlp=   83.0062> <PB=1000000> 
---- Diving heuristic node with dive number = 0, fix depth = 42 and tabu list size = 0
Fixed projected solution = [x_1_0_1_OspV=1, x_1_66_1_OspV=1, x_1_78_1_OspV=1, x_1_227_1_OspV=1]
<DWph=2> <it=  5> <et=18.75> <Mt= 0.05> <Spt= 0.52> <nCl= 29> <DB=   83.0073> <Mlp=   83.0073> <PB=1000000> 
<DWph=1> <it=  7> <et=19.06> <Mt= 0.00> <Spt= 0.31> <nCl=  2> <DB=   83.0073> <Mlp=   83.0073> <PB=1000000> 
---- Diving heuristic node with dive number = 0, fix depth = 43 and tabu list size = 0
Fixed projected solution = [x_1_0_1_OspV=1, x_1_76_1_OspV=1, x_1_113_1_OspV=1, x_1_212_1_OspV=1]
<DWph=2> <it=  8> <et=20.11> <Mt= 0.05> <Spt= 0.98> <nCl= 38> <DB=   83.0074> <Mlp=   83.0074> <PB=1000000> 
<DWph=1> <it= 10> <et=20.29> <Mt= 0.01> <Spt= 0.17> <nCl= 51> <DB=   82.0801> <Mlp=   83.0074> <PB=1000000> 
<DWph=1> <it= 17> <et=21.06> <Mt= 0.02> <Spt= 0.75> <nCl= 32> <DB=   83.0074> <Mlp=   83.0074> <PB=1000000> 
---- Diving heuristic node with dive number = 0, fix depth = 43 and tabu list size = 0
Fixed projected solution = [x_1_0_1_OspV=1, x_1_72_1_OspV=1, x_1_90_1_OspV=1, x_1_221_1_OspV=1]
<DWph=2> <it=  1> <et=21.23> <Mt= 0.00> <Spt= 0.15> <nCl=  0> <DB=   83.0074> <Mlp=   83.0074> <PB=1000000> 
<DWph=1> <it=  2> <et=21.40> <Mt= 0.00> <Spt= 0.16> <nCl=  0> <DB=   83.0074> <Mlp=   83.0074> <PB=1000000> 
---- Diving heuristic node with dive number = 0, fix depth = 44 and tabu list size = 0
Fixed projected solution = [x_1_0_1_OspV=1, x_1_7_1_OspV=1, x_1_89_1_OspV=1, x_1_236_1_OspV=1]
<DWph=2> <it=  2> <et=21.79> <Mt= 0.09> <Spt= 0.30> <nCl=100> <DB=   83.0079> <Mlp=   83.0079> <PB=1000000> 
<DWph=1> <it=  3> <et=21.95> <Mt= 0.00> <Spt= 0.16> <nCl=  0> <DB=   83.0079> <Mlp=   83.0079> <PB=1000000> 
---- Diving heuristic node with dive number = 0, fix depth = 45 and tabu list size = 0
Fixed projected solution = [x_1_0_1_OspV=1, x_1_65_1_OspV=1, x_1_145_1_OspV=1, x_1_192_1_OspV=1]
<DWph=2> <it=  1> <et=22.14> <Mt= 0.03> <Spt= 0.15> <nCl=  0> <DB=   83.0079> <Mlp=   83.0079> <PB=1000000> 
<DWph=1> <it=  2> <et=22.30> <Mt= 0.00> <Spt= 0.15> <nCl=  0> <DB=   83.0079> <Mlp=   83.0079> <PB=1000000> 
---- Diving heuristic node with dive number = 0, fix depth = 46 and tabu list size = 0
Fixed projected solution = [x_1_0_1_OspV=1, x_1_61_1_OspV=1, x_1_122_1_OspV=1, x_1_211_1_OspV=1]
<DWph=2> <it= 10> <et=23.42> <Mt= 0.13> <Spt= 0.98> <nCl=126> <DB=   82.0576> <Mlp=   83.0164> <PB=1000000> 
<DWph=2> <it= 14> <et=23.89> <Mt= 0.01> <Spt= 0.45> <nCl= 11> <DB=   83.0164> <Mlp=   83.0164> <PB=1000000> 
<DWph=1> <it= 20> <et=24.48> <Mt= 0.03> <Spt= 0.56> <nCl=212> <DB=   83.0130> <Mlp=   83.0130> <PB=1000000> 
---- Diving heuristic node with dive number = 0, fix depth = 47 and tabu list size = 0
Fixed projected solution = [x_1_0_1_OspV=1, x_1_21_1_OspV=1, x_1_95_1_OspV=1, x_1_233_1_OspV=1]
<DWph=2> <it=  1> <et=24.64> <Mt= 0.01> <Spt= 0.14> <nCl=  0> <DB=   83.0130> <Mlp=   83.0130> <PB=1000000> 
<DWph=1> <it=  2> <et=24.80> <Mt= 0.00> <Spt= 0.16> <nCl=  0> <DB=   83.0130> <Mlp=   83.0130> <PB=1000000> 
---- Diving heuristic node with dive number = 0, fix depth = 48 and tabu list size = 0
Fixed projected solution = [x_1_0_1_OspV=1, x_1_64_1_OspV=1, x_1_67_1_OspV=1, x_1_231_1_OspV=1]
<DWph=2> <it=  6> <et=25.64> <Mt= 0.16> <Spt= 0.66> <nCl=234> <DB=   83.0213> <Mlp=   83.0213> <PB=1000000> 
<DWph=1> <it=  7> <et=25.79> <Mt= 0.01> <Spt= 0.15> <nCl=  0> <DB=   83.0213> <Mlp=   83.0213> <PB=1000000> 
---- Diving heuristic node with dive number = 0, fix depth = 49 and tabu list size = 0
Fixed projected solution = [x_1_0_1_OspV=1, x_1_49_1_OspV=1, x_1_137_1_OspV=1, x_1_206_1_OspV=1]
<DWph=2> <it=  9> <et=26.68> <Mt= 0.06> <Spt= 0.81> <nCl= 67> <DB=   83.0312> <Mlp=   83.0312> <PB=1000000> 
<DWph=1> <it= 10> <et=26.76> <Mt= 0.01> <Spt= 0.07> <nCl= 45> <DB=   66.8125> <Mlp=   83.0312> <PB=1000000> 
<DWph=1> <it= 14> <et=27.16> <Mt= 0.01> <Spt= 0.38> <nCl=  8> <DB=   83.0286> <Mlp=   83.0286> <PB=1000000> 
---- Diving heuristic node with dive number = 0, fix depth = 50 and tabu list size = 0
Fixed projected solution = [x_1_0_1_OspV=1, x_1_39_1_OspV=1, x_1_142_1_OspV=1, x_1_204_1_OspV=1]
<DWph=2> <it=  1> <et=27.36> <Mt= 0.05> <Spt= 0.15> <nCl=  0> <DB=   83.0400> <Mlp=   83.0400> <PB=1000000> 
<DWph=1> <it=  3> <et=27.58> <Mt= 0.00> <Spt= 0.21> <nCl=  5> <DB=   83.0400> <Mlp=   83.0400> <PB=1000000> 
---- Diving heuristic node with dive number = 0, fix depth = 51 and tabu list size = 0
Fixed projected solution = [x_1_0_1_OspV=1, x_1_97_1_OspV=1, x_1_109_1_OspV=1, x_1_209_1_OspV=1]
<DWph=2> <it= 10> <et=28.61> <Mt= 0.17> <Spt= 0.79> <nCl=532> <DB=   83.0708> <Mlp=   83.1053> <PB=1000000> 
<DWph=2> <it= 19> <et=29.51> <Mt= 0.03> <Spt= 0.86> <nCl=213> <DB=   83.0909> <Mlp=   83.0909> <PB=1000000> 
<DWph=1> <it= 20> <et=29.58> <Mt= 0.00> <Spt= 0.07> <nCl=100> <DB=   43.3636> <Mlp=   83.0909> <PB=1000000> 
<DWph=1> <it= 27> <et=30.18> <Mt= 0.02> <Spt= 0.59> <nCl= 89> <DB=   83.0909> <Mlp=   83.0909> <PB=1000000> 
---- Diving heuristic node with dive number = 0, fix depth = 52 and tabu list size = 0
Fixed projected solution = [x_1_0_1_OspV=1, x_1_26_1_OspV=1, x_1_160_1_OspV=1, x_1_188_1_OspV=1]
<DWph=2> <it=  7> <et=30.94> <Mt= 0.03> <Spt= 0.71> <nCl= 19> <DB=   83.1111> <Mlp=   83.1111> <PB=1000000> 
<DWph=1> <it= 10> <et=31.16> <Mt= 0.01> <Spt= 0.22> <nCl= 49> <DB=   64.7449> <Mlp=   83.1111> <PB=1000000> 
<DWph=1> <it= 11> <et=31.31> <Mt= 0.00> <Spt= 0.14> <nCl=  0> <DB=   83.1111> <Mlp=   83.1111> <PB=1000000> 
---- Diving heuristic node with dive number = 0, fix depth = 53 and tabu list size = 0
Fixed projected solution = [x_1_0_1_OspV=1, x_1_118_1_OspV=1, x_1_143_1_OspV=1, x_1_158_1_OspV=1]
<DWph=2> <it= 10> <et=32.24> <Mt= 0.06> <Spt= 0.85> <nCl= 49> <DB=   76.7818> <Mlp=   83.2000> <PB=1000000> 
<DWph=2> <it= 12> <et=32.52> <Mt= 0.01> <Spt= 0.28> <nCl=  1> <DB=   83.2000> <Mlp=   83.2000> <PB=1000000> 
<DWph=1> <it= 20> <et=33.09> <Mt= 0.01> <Spt= 0.54> <nCl= 15> <DB=   49.4000> <Mlp=   83.2000> <PB=1000000> 
<DWph=1> <it= 21> <et=33.30> <Mt= 0.01> <Spt= 0.21> <nCl=  0> <DB=   83.2000> <Mlp=   83.2000> <PB=1000000> 
---- Diving heuristic node with dive number = 0, fix depth = 54 and tabu list size = 0
Fixed projected solution = [x_1_0_1_OspV=1, x_1_123_1_OspV=1, x_1_124_1_OspV=1, x_1_181_1_OspV=1]
<DWph=2> <it= 10> <et=34.09> <Mt= 0.08> <Spt= 0.70> <nCl=295> <DB=   75.7158> <Mlp=   83.3333> <PB=1000000> 
<DWph=2> <it= 20> <et=34.89> <Mt= 0.03> <Spt= 0.76> <nCl= 35> <DB=   83.2693> <Mlp=   83.3333> <PB=1000000> 
<DWph=2> <it= 22> <et=35.31> <Mt= 0.00> <Spt= 0.42> <nCl=  1> <DB=   83.3333> <Mlp=   83.3333> <PB=1000000> 
<DWph=1> <it= 30> <et=35.89> <Mt= 0.02> <Spt= 0.55> <nCl= 97> <DB=   83.3333> <Mlp=   83.3333> <PB=1000000> 
---- Diving heuristic node with dive number = 0, fix depth = 55 and tabu list size = 0
Fixed projected solution = [x_1_0_1_OspV=1, x_1_107_1_OspV=1, x_1_135_1_OspV=1, x_1_171_1_OspV=1]
<DWph=2> <it= 10> <et=36.69> <Mt= 0.09> <Spt= 0.70> <nCl=204> <DB=   41.4727> <Mlp=   84.0000> <PB=84> 
<DWph=2> <it= 20> <et=37.70> <Mt= 0.02> <Spt= 0.99> <nCl= 16> <DB=   84.0000> <Mlp=   84.0000> <PB=84> 
<DWph=1> <it= 22> <et=38.05> <Mt= 0.01> <Spt= 0.34> <nCl=  1> <DB=   84.0000> <Mlp=   84.0000> <PB=84> 
---- Diving heuristic node with dive number = 1, fix depth = 2 and tabu list size = 1
Fixed projected solution = [x_1_0_1_OspV=1, x_1_51_1_OspV=1, x_1_100_1_OspV=1, x_1_225_1_OspV=1]
<DWph=2> <it=  1> <et=38.21> <Mt= 0.00> <Spt= 0.00> <nCl=  0> <DB=   83.0000> <Mlp=   83.0000> <PB=84> 
<DWph=1> <it=  2> <et=38.21> <Mt= 0.00> <Spt= 0.00> <nCl=  0> <DB=   83.0000> <Mlp=   83.0000> <PB=84> 
---- Diving heuristic node with dive number = 1, fix depth = 2 and tabu list size = 1
Fixed projected solution = [x_1_0_1_OspV=1, x_1_25_1_OspV=1, x_1_98_1_OspV=1, x_1_230_1_OspV=1]
<DWph=2> <it=  1> <et=38.22> <Mt= 0.01> <Spt= 0.00> <nCl=  0> <DB=   83.0000> <Mlp=   83.0000> <PB=84> 
<DWph=1> <it=  2> <et=38.22> <Mt= 0.00> <Spt= 0.00> <nCl=  0> <DB=   83.0000> <Mlp=   83.0000> <PB=84> 
---- Diving heuristic node with dive number = 1, fix depth = 3 and tabu list size = 1
Fixed projected solution = [x_1_0_1_OspV=1, x_1_75_1_OspV=1, x_1_153_1_OspV=1, x_1_179_1_OspV=1]
<DWph=2> <it=  1> <et=38.23> <Mt= 0.00> <Spt= 0.00> <nCl=  0> <DB=   83.0000> <Mlp=   83.0000> <PB=84> 
<DWph=1> <it=  2> <et=38.23> <Mt= 0.00> <Spt= 0.00> <nCl=  0> <DB=   83.0000> <Mlp=   83.0000> <PB=84> 
---- Diving heuristic node with dive number = 1, fix depth = 4 and tabu list size = 1
Fixed projected solution = [x_1_0_1_OspV=1, x_1_36_1_OspV=1, x_1_146_1_OspV=1, x_1_201_1_OspV=1]
<DWph=2> <it=  1> <et=38.25> <Mt= 0.01> <Spt= 0.00> <nCl=  0> <DB=   83.0000> <Mlp=   83.0000> <PB=84> 
<DWph=1> <it=  2> <et=38.25> <Mt= 0.00> <Spt= 0.00> <nCl=  0> <DB=   83.0000> <Mlp=   83.0000> <PB=84> 
---- Diving heuristic node with dive number = 1, fix depth = 5 and tabu list size = 1
Fixed projected solution = [x_1_0_1_OspV=1, x_1_18_1_OspV=1, x_1_157_1_OspV=1, x_1_190_1_OspV=1]
<DWph=2> <it=  1> <et=38.26> <Mt= 0.00> <Spt= 0.00> <nCl=  0> <DB=   83.0000> <Mlp=   83.0000> <PB=84> 
<DWph=1> <it=  2> <et=38.26> <Mt= 0.00> <Spt= 0.00> <nCl=  0> <DB=   83.0000> <Mlp=   83.0000> <PB=84> 
---- Diving heuristic node with dive number = 1, fix depth = 6 and tabu list size = 1
Fixed projected solution = [x_1_0_1_OspV=1, x_1_1_1_OspV=1, x_1_55_1_OspV=1, x_1_242_1_OspV=1]
<DWph=2> <it=  1> <et=38.28> <Mt= 0.01> <Spt= 0.00> <nCl=  0> <DB=   83.0000> <Mlp=   83.0000> <PB=84> 
<DWph=1> <it=  2> <et=38.28> <Mt= 0.00> <Spt= 0.00> <nCl=  0> <DB=   83.0000> <Mlp=   83.0000> <PB=84> 
---- Diving heuristic node with dive number = 1, fix depth = 6 and tabu list size = 1
Fixed projected solution = [x_1_0_1_OspV=1, x_1_23_1_OspV=1, x_1_172_1_OspV=1, x_1_173_1_OspV=1]
<DWph=2> <it=  1> <et=38.29> <Mt= 0.00> <Spt= 0.00> <nCl=  0> <DB=   83.0000> <Mlp=   83.0000> <PB=84> 
<DWph=1> <it=  2> <et=38.29> <Mt= 0.00> <Spt= 0.00> <nCl=  0> <DB=   83.0000> <Mlp=   83.0000> <PB=84> 
---- Diving heuristic node with dive number = 1, fix depth = 7 and tabu list size = 1
Fixed projected solution = [x_1_0_1_OspV=1, x_1_8_1_OspV=1, x_1_52_1_OspV=1, x_1_243_1_OspV=1]
<DWph=2> <it=  1> <et=38.30> <Mt= 0.01> <Spt= 0.00> <nCl=  0> <DB=   83.0000> <Mlp=   83.0000> <PB=84> 
<DWph=1> <it=  2> <et=38.30> <Mt= 0.00> <Spt= 0.00> <nCl=  0> <DB=   83.0000> <Mlp=   83.0000> <PB=84> 
---- Diving heuristic node with dive number = 1, fix depth = 8 and tabu list size = 1
Fixed projected solution = [x_1_0_1_OspV=1, x_1_17_1_OspV=1, x_1_162_1_OspV=1, x_1_187_1_OspV=1]
<DWph=2> <it=  1> <et=38.32> <Mt= 0.01> <Spt= 0.00> <nCl=  0> <DB=   83.0000> <Mlp=   83.0000> <PB=84> 
<DWph=1> <it=  2> <et=38.32> <Mt= 0.00> <Spt= 0.00> <nCl=  0> <DB=   83.0000> <Mlp=   83.0000> <PB=84> 
---- Diving heuristic node with dive number = 1, fix depth = 9 and tabu list size = 1
Fixed projected solution = [x_1_0_1_OspV=1, x_1_22_1_OspV=1, x_1_163_1_OspV=1, x_1_186_1_OspV=1]
<DWph=2> <it=  1> <et=38.34> <Mt= 0.01> <Spt= 0.00> <nCl=  0> <DB=   83.0000> <Mlp=   83.0000> <PB=84> 
<DWph=1> <it=  2> <et=38.34> <Mt= 0.00> <Spt= 0.00> <nCl=  0> <DB=   83.0000> <Mlp=   83.0000> <PB=84> 
---- Diving heuristic node with dive number = 1, fix depth = 9 and tabu list size = 1
Fixed projected solution = [x_1_0_1_OspV=1, x_1_70_1_OspV=1, x_1_155_1_OspV=1, x_1_183_1_OspV=1]
<DWph=2> <it=  1> <et=38.35> <Mt= 0.00> <Spt= 0.00> <nCl=  0> <DB=   83.0000> <Mlp=   83.0000> <PB=84> 
<DWph=1> <it=  2> <et=38.35> <Mt= 0.00> <Spt= 0.00> <nCl=  0> <DB=   83.0000> <Mlp=   83.0000> <PB=84> 
---- Diving heuristic node with dive number = 1, fix depth = 10 and tabu list size = 1
Fixed projected solution = [x_1_0_1_OspV=1, x_1_56_1_OspV=1, x_1_165_1_OspV=1, x_1_169_1_OspV=1]
<DWph=2> <it=  1> <et=38.36> <Mt= 0.00> <Spt= 0.00> <nCl=  0> <DB=   83.0000> <Mlp=   83.0000> <PB=84> 
<DWph=1> <it=  2> <et=38.36> <Mt= 0.00> <Spt= 0.00> <nCl=  0> <DB=   83.0000> <Mlp=   83.0000> <PB=84> 
---- Diving heuristic node with dive number = 1, fix depth = 11 and tabu list size = 1
Fixed projected solution = [x_1_0_1_OspV=1, x_1_59_1_OspV=1, x_1_154_1_OspV=1, x_1_184_1_OspV=1]
<DWph=2> <it=  1> <et=38.38> <Mt= 0.01> <Spt= 0.00> <nCl=  0> <DB=   83.0000> <Mlp=   83.0000> <PB=84> 
<DWph=1> <it=  2> <et=38.38> <Mt= 0.01> <Spt= 0.00> <nCl=  0> <DB=   83.0000> <Mlp=   83.0000> <PB=84> 
---- Diving heuristic node with dive number = 1, fix depth = 12 and tabu list size = 1
Fixed projected solution = [x_1_0_1_OspV=1, x_1_20_1_OspV=1, x_1_120_1_OspV=1, x_1_219_1_OspV=1]
<DWph=2> <it=  1> <et=38.39> <Mt= 0.00> <Spt= 0.00> <nCl=  0> <DB=   83.0000> <Mlp=   83.0000> <PB=84> 
<DWph=1> <it=  2> <et=38.39> <Mt= 0.00> <Spt= 0.00> <nCl=  0> <DB=   83.0000> <Mlp=   83.0000> <PB=84> 
---- Diving heuristic node with dive number = 1, fix depth = 13 and tabu list size = 1
Fixed projected solution = [x_1_0_1_OspV=1, x_1_97_1_OspV=1, x_1_131_1_OspV=1, x_1_192_1_OspV=1]
<DWph=2> <it=  1> <et=38.41> <Mt= 0.01> <Spt= 0.00> <nCl=  0> <DB=   83.0000> <Mlp=   83.0000> <PB=84> 
<DWph=1> <it=  2> <et=38.41> <Mt= 0.00> <Spt= 0.00> <nCl=  0> <DB=   83.0000> <Mlp=   83.0000> <PB=84> 
---- Diving heuristic node with dive number = 1, fix depth = 14 and tabu list size = 1
Fixed projected solution = [x_1_0_1_OspV=1, x_1_110_1_OspV=1, x_1_111_1_OspV=1, x_1_202_1_OspV=1]
<DWph=2> <it=  1> <et=38.44> <Mt= 0.02> <Spt= 0.00> <nCl=  0> <DB=   83.0000> <Mlp=   83.0000> <PB=84> 
<DWph=1> <it=  2> <et=38.44> <Mt= 0.00> <Spt= 0.00> <nCl=  0> <DB=   83.0000> <Mlp=   83.0000> <PB=84> 
---- Diving heuristic node with dive number = 1, fix depth = 15 and tabu list size = 1
Fixed projected solution = [x_1_0_1_OspV=1, x_1_82_1_OspV=1, x_1_149_1_OspV=1, x_1_178_1_OspV=1]
<DWph=2> <it=  1> <et=38.45> <Mt= 0.01> <Spt= 0.00> <nCl=  0> <DB=   83.0000> <Mlp=   83.0000> <PB=84> 
<DWph=1> <it=  2> <et=38.45> <Mt= 0.00> <Spt= 0.00> <nCl=  0> <DB=   83.0000> <Mlp=   83.0000> <PB=84> 
---- Diving heuristic node with dive number = 1, fix depth = 16 and tabu list size = 1
Fixed projected solution = [x_1_0_1_OspV=1, x_1_77_1_OspV=1, x_1_83_1_OspV=1, x_1_220_1_OspV=1]
<DWph=2> <it=  1> <et=38.48> <Mt= 0.02> <Spt= 0.00> <nCl=  0> <DB=   83.0000> <Mlp=   83.0000> <PB=84> 
<DWph=1> <it=  2> <et=38.48> <Mt= 0.00> <Spt= 0.00> <nCl=  0> <DB=   83.0000> <Mlp=   83.0000> <PB=84> 
---- Diving heuristic node with dive number = 1, fix depth = 17 and tabu list size = 1
Fixed projected solution = [x_1_0_1_OspV=1, x_1_96_1_OspV=1, x_1_145_1_OspV=1, x_1_177_1_OspV=1]
<DWph=2> <it=  1> <et=38.52> <Mt= 0.03> <Spt= 0.00> <nCl=  0> <DB=   83.0000> <Mlp=   83.0000> <PB=84> 
<DWph=1> <it=  2> <et=38.52> <Mt= 0.00> <Spt= 0.00> <nCl=  0> <DB=   83.0000> <Mlp=   83.0000> <PB=84> 
---- Diving heuristic node with dive number = 1, fix depth = 17 and tabu list size = 1
Fixed projected solution = [x_1_0_1_OspV=1, x_1_5_1_OspV=1, x_1_28_1_OspV=1, x_1_247_1_OspV=1]
<DWph=2> <it=  1> <et=38.53> <Mt= 0.00> <Spt= 0.00> <nCl=  0> <DB=   83.0000> <Mlp=   83.0000> <PB=84> 
<DWph=1> <it=  2> <et=38.53> <Mt= 0.00> <Spt= 0.00> <nCl=  0> <DB=   83.0000> <Mlp=   83.0000> <PB=84> 
---- Diving heuristic node with dive number = 1, fix depth = 17 and tabu list size = 1
Fixed projected solution = [x_1_0_1_OspV=1, x_1_4_1_OspV=1, x_1_27_1_OspV=1, x_1_248_1_OspV=1]
<DWph=2> <it=  1> <et=38.54> <Mt= 0.00> <Spt= 0.00> <nCl=  0> <DB=   83.0000> <Mlp=   83.0000> <PB=84> 
<DWph=1> <it=  2> <et=38.54> <Mt= 0.01> <Spt= 0.00> <nCl=  0> <DB=   83.0000> <Mlp=   83.0000> <PB=84> 
---- Diving heuristic node with dive number = 1, fix depth = 18 and tabu list size = 1
Fixed projected solution = [x_1_0_1_OspV=1, x_1_38_1_OspV=1, x_1_152_1_OspV=1, x_1_196_1_OspV=1]
<DWph=2> <it=  1> <et=38.58> <Mt= 0.03> <Spt= 0.00> <nCl=  0> <DB=   83.0000> <Mlp=   83.0000> <PB=84> 
<DWph=1> <it=  2> <et=38.58> <Mt= 0.00> <Spt= 0.00> <nCl=  0> <DB=   83.0000> <Mlp=   83.0000> <PB=84> 
---- Diving heuristic node with dive number = 1, fix depth = 19 and tabu list size = 1
Fixed projected solution = [x_1_0_1_OspV=1, x_1_31_1_OspV=1, x_1_137_1_OspV=1, x_1_210_1_OspV=1]
<DWph=2> <it=  2> <et=38.70> <Mt= 0.03> <Spt= 0.08> <nCl=100> <DB=   74.0433> <Mlp=   83.0000> <PB=84> 
<DWph=1> <it=  3> <et=38.70> <Mt= 0.00> <Spt= 0.00> <nCl=  0> <DB=   83.0000> <Mlp=   83.0000> <PB=84> 
---- Diving heuristic node with dive number = 1, fix depth = 19 and tabu list size = 1
Fixed projected solution = [x_1_0_1_OspV=1, x_1_95_1_OspV=1, x_1_101_1_OspV=1, x_1_214_1_OspV=1]
<DWph=2> <it=  1> <et=38.72> <Mt= 0.01> <Spt= 0.00> <nCl=  0> <DB=   83.0000> <Mlp=   83.0000> <PB=84> 
<DWph=1> <it=  2> <et=38.72> <Mt= 0.00> <Spt= 0.00> <nCl=  0> <DB=   83.0000> <Mlp=   83.0000> <PB=84> 
---- Diving heuristic node with dive number = 1, fix depth = 20 and tabu list size = 1
Fixed projected solution = [x_1_0_1_OspV=1, x_1_49_1_OspV=1, x_1_130_1_OspV=1, x_1_209_1_OspV=1]
<DWph=2> <it=  1> <et=38.73> <Mt= 0.00> <Spt= 0.00> <nCl=  0> <DB=   83.0000> <Mlp=   83.0000> <PB=84> 
<DWph=1> <it=  2> <et=38.73> <Mt= 0.00> <Spt= 0.00> <nCl=  0> <DB=   83.0000> <Mlp=   83.0000> <PB=84> 
---- Diving heuristic node with dive number = 1, fix depth = 21 and tabu list size = 1
Fixed projected solution = [x_1_0_1_OspV=1, x_1_119_1_OspV=1, x_1_126_1_OspV=1, x_1_174_1_OspV=1]
<DWph=2> <it=  1> <et=38.77> <Mt= 0.03> <Spt= 0.00> <nCl=  0> <DB=   83.0000> <Mlp=   83.0000> <PB=84> 
<DWph=1> <it=  2> <et=38.77> <Mt= 0.00> <Spt= 0.00> <nCl=  0> <DB=   83.0000> <Mlp=   83.0000> <PB=84> 
---- Diving heuristic node with dive number = 1, fix depth = 22 and tabu list size = 1
Fixed projected solution = [x_1_0_1_OspV=1, x_1_54_1_OspV=1, x_1_103_1_OspV=1, x_1_224_1_OspV=1]
<DWph=2> <it=  1> <et=38.80> <Mt= 0.02> <Spt= 0.00> <nCl=  0> <DB=   83.0000> <Mlp=   83.0000> <PB=84> 
<DWph=1> <it=  2> <et=38.80> <Mt= 0.00> <Spt= 0.00> <nCl=  0> <DB=   83.0000> <Mlp=   83.0000> <PB=84> 
---- Diving heuristic node with dive number = 1, fix depth = 23 and tabu list size = 1
Fixed projected solution = [x_1_0_1_OspV=1, x_1_107_1_OspV=1, x_1_138_1_OspV=1, x_1_181_1_OspV=1]
<DWph=2> <it=  1> <et=38.82> <Mt= 0.02> <Spt= 0.00> <nCl=  0> <DB=   83.0000> <Mlp=   83.0000> <PB=84> 
<DWph=1> <it=  2> <et=38.82> <Mt= 0.00> <Spt= 0.00> <nCl=  0> <DB=   83.0000> <Mlp=   83.0000> <PB=84> 
---- Diving heuristic node with dive number = 1, fix depth = 24 and tabu list size = 1
Fixed projected solution = [x_1_0_1_OspV=1, x_1_30_1_OspV=1, x_1_112_1_OspV=1, x_1_222_1_OspV=1]
<DWph=2> <it=  1> <et=38.86> <Mt= 0.03> <Spt= 0.00> <nCl=  0> <DB=   83.0000> <Mlp=   83.0000> <PB=84> 
<DWph=1> <it=  2> <et=38.86> <Mt= 0.00> <Spt= 0.00> <nCl=  0> <DB=   83.0000> <Mlp=   83.0000> <PB=84> 
---- Diving heuristic node with dive number = 1, fix depth = 25 and tabu list size = 1
Fixed projected solution = [x_1_0_1_OspV=1, x_1_47_1_OspV=1, x_1_85_1_OspV=1, x_1_229_1_OspV=1]
<DWph=2> <it=  1> <et=38.89> <Mt= 0.02> <Spt= 0.00> <nCl=  0> <DB=   83.0000> <Mlp=   83.0000> <PB=84> 
<DWph=1> <it=  2> <et=38.89> <Mt= 0.00> <Spt= 0.00> <nCl=  0> <DB=   83.0000> <Mlp=   83.0000> <PB=84> 
---- Diving heuristic node with dive number = 1, fix depth = 25 and tabu list size = 1
Fixed projected solution = [x_1_0_1_OspV=1, x_1_3_1_OspV=1, x_1_60_1_OspV=1, x_1_241_1_OspV=1]
<DWph=2> <it=  1> <et=38.90> <Mt= 0.01> <Spt= 0.00> <nCl=  0> <DB=   83.0000> <Mlp=   83.0000> <PB=84> 
<DWph=1> <it=  2> <et=38.90> <Mt= 0.00> <Spt= 0.00> <nCl=  0> <DB=   83.0000> <Mlp=   83.0000> <PB=84> 
---- Diving heuristic node with dive number = 1, fix depth = 26 and tabu list size = 1
Fixed projected solution = [x_1_0_1_OspV=1, x_1_13_1_OspV=1, x_1_68_1_OspV=1, x_1_239_1_OspV=1]
<DWph=2> <it=  1> <et=38.93> <Mt= 0.01> <Spt= 0.00> <nCl=  0> <DB=   83.0000> <Mlp=   83.0000> <PB=84> 
<DWph=1> <it=  2> <et=38.93> <Mt= 0.00> <Spt= 0.00> <nCl=  0> <DB=   83.0000> <Mlp=   83.0000> <PB=84> 
---- Diving heuristic node with dive number = 1, fix depth = 27 and tabu list size = 1
Fixed projected solution = [x_1_0_1_OspV=1, x_1_19_1_OspV=1, x_1_108_1_OspV=1, x_1_226_1_OspV=1]
<DWph=2> <it=  2> <et=39.04> <Mt= 0.04> <Spt= 0.07> <nCl=100> <DB=   82.3499> <Mlp=   83.0000> <PB=84> 
<DWph=1> <it=  3> <et=39.05> <Mt= 0.00> <Spt= 0.00> <nCl=  0> <DB=   83.0000> <Mlp=   83.0000> <PB=84> 
---- Diving heuristic node with dive number = 1, fix depth = 28 and tabu list size = 1
Fixed projected solution = [x_1_0_1_OspV=1, x_1_71_1_OspV=1, x_1_134_1_OspV=1, x_1_203_1_OspV=1]
<DWph=2> <it=  1> <et=39.08> <Mt= 0.01> <Spt= 0.00> <nCl=  0> <DB=   83.0000> <Mlp=   83.0000> <PB=84> 
<DWph=1> <it=  2> <et=39.08> <Mt= 0.00> <Spt= 0.00> <nCl=  0> <DB=   83.0000> <Mlp=   83.0000> <PB=84> 
---- Diving heuristic node with dive number = 1, fix depth = 29 and tabu list size = 1
Fixed projected solution = [x_1_0_1_OspV=1, x_1_61_1_OspV=1, x_1_123_1_OspV=1, x_1_211_1_OspV=1]
<DWph=2> <it=  1> <et=39.10> <Mt= 0.02> <Spt= 0.00> <nCl=  0> <DB=   83.0000> <Mlp=   83.0000> <PB=84> 
<DWph=1> <it=  2> <et=39.10> <Mt= 0.00> <Spt= 0.00> <nCl=  0> <DB=   83.0000> <Mlp=   83.0000> <PB=84> 
---- Diving heuristic node with dive number = 1, fix depth = 30 and tabu list size = 1
Fixed projected solution = [x_1_0_1_OspV=1, x_1_53_1_OspV=1, x_1_114_1_OspV=1, x_1_217_1_OspV=1]
<DWph=2> <it=  1> <et=39.13> <Mt= 0.02> <Spt= 0.00> <nCl=  0> <DB=   83.0000> <Mlp=   83.0000> <PB=84> 
<DWph=1> <it=  2> <et=39.13> <Mt= 0.00> <Spt= 0.00> <nCl=  0> <DB=   83.0000> <Mlp=   83.0000> <PB=84> 
---- Diving heuristic node with dive number = 1, fix depth = 31 and tabu list size = 1
Fixed projected solution = [x_1_0_1_OspV=1, x_1_58_1_OspV=1, x_1_132_1_OspV=1, x_1_205_1_OspV=1]
<DWph=2> <it=  1> <et=39.17> <Mt= 0.03> <Spt= 0.00> <nCl=  0> <DB=   83.0000> <Mlp=   83.0000> <PB=84> 
<DWph=1> <it=  2> <et=39.17> <Mt= 0.00> <Spt= 0.00> <nCl=  0> <DB=   83.0000> <Mlp=   83.0000> <PB=84> 
---- Diving heuristic node with dive number = 1, fix depth = 32 and tabu list size = 1
Fixed projected solution = [x_1_0_1_OspV=1, x_1_81_1_OspV=1, x_1_159_1_OspV=1, x_1_164_1_OspV=1]
<DWph=2> <it=  1> <et=39.21> <Mt= 0.03> <Spt= 0.00> <nCl=  0> <DB=   83.0000> <Mlp=   83.0000> <PB=84> 
<DWph=1> <it=  2> <et=39.21> <Mt= 0.00> <Spt= 0.00> <nCl=  0> <DB=   83.0000> <Mlp=   83.0000> <PB=84> 
---- Diving heuristic node with dive number = 1, fix depth = 33 and tabu list size = 1
Fixed projected solution = [x_1_0_1_OspV=1, x_1_44_1_OspV=1, x_1_78_1_OspV=1, x_1_233_1_OspV=1]
<DWph=2> <it=  1> <et=39.25> <Mt= 0.04> <Spt= 0.00> <nCl=  0> <DB=   83.0000> <Mlp=   83.0000> <PB=84> 
<DWph=1> <it=  2> <et=39.25> <Mt= 0.00> <Spt= 0.00> <nCl=  0> <DB=   83.0000> <Mlp=   83.0000> <PB=84> 
---- Diving heuristic node with dive number = 1, fix depth = 33 and tabu list size = 1
Fixed projected solution = [x_1_0_1_OspV=1, x_1_26_1_OspV=1, x_1_89_1_OspV=1, x_1_234_1_OspV=1]
<DWph=2> <it=  1> <et=39.26> <Mt= 0.00> <Spt= 0.00> <nCl=  0> <DB=   83.0000> <Mlp=   83.0000> <PB=84> 
<DWph=1> <it=  2> <et=39.26> <Mt= 0.00> <Spt= 0.00> <nCl=  0> <DB=   83.0000> <Mlp=   83.0000> <PB=84> 
---- Diving heuristic node with dive number = 1, fix depth = 33 and tabu list size = 1
Fixed projected solution = [x_1_0_1_OspV=1, x_1_10_1_OspV=1, x_1_109_1_OspV=1, x_1_227_1_OspV=1]
<DWph=2> <it=  1> <et=39.27> <Mt= 0.00> <Spt= 0.00> <nCl=  0> <DB=   83.0000> <Mlp=   83.0000> <PB=84> 
<DWph=1> <it=  2> <et=39.27> <Mt= 0.01> <Spt= 0.00> <nCl=  0> <DB=   83.0000> <Mlp=   83.0000> <PB=84> 
---- Diving heuristic node with dive number = 1, fix depth = 33 and tabu list size = 1
Fixed projected solution = [x_1_0_1_OspV=1, x_1_7_1_OspV=1, x_1_43_1_OspV=1, x_1_245_1_OspV=1]
<DWph=2> <it=  1> <et=39.28> <Mt= 0.00> <Spt= 0.00> <nCl=  0> <DB=   83.0000> <Mlp=   83.0000> <PB=84> 
<DWph=1> <it=  2> <et=39.28> <Mt= 0.00> <Spt= 0.00> <nCl=  0> <DB=   83.0000> <Mlp=   83.0000> <PB=84> 
---- Diving heuristic node with dive number = 1, fix depth = 34 and tabu list size = 1
Fixed projected solution = [x_1_0_1_OspV=1, x_1_102_1_OspV=1, x_1_140_1_OspV=1, x_1_182_1_OspV=1]
<DWph=2> <it=  1> <et=39.32> <Mt= 0.03> <Spt= 0.00> <nCl=  0> <DB=   83.0000> <Mlp=   83.0000> <PB=84> 
<DWph=1> <it=  2> <et=39.32> <Mt= 0.00> <Spt= 0.00> <nCl=  0> <DB=   83.0000> <Mlp=   83.0000> <PB=84> 
---- Diving heuristic node with dive number = 1, fix depth = 35 and tabu list size = 1
Fixed projected solution = [x_1_0_1_OspV=1, x_1_2_1_OspV=1, x_1_72_1_OspV=1, x_1_240_1_OspV=1]
<DWph=2> <it=  2> <et=39.45> <Mt= 0.04> <Spt= 0.08> <nCl=100> <DB=   82.5033> <Mlp=   83.0000> <PB=84> 
<DWph=1> <it=  3> <et=39.45> <Mt= 0.00> <Spt= 0.00> <nCl=  0> <DB=   83.0000> <Mlp=   83.0000> <PB=84> 
---- Diving heuristic node with dive number = 1, fix depth = 36 and tabu list size = 1
Fixed projected solution = [x_1_0_1_OspV=1, x_1_91_1_OspV=1, x_1_92_1_OspV=1, x_1_215_1_OspV=1]
<DWph=2> <it=  2> <et=39.59> <Mt= 0.05> <Spt= 0.07> <nCl=100> <DB=   82.4558> <Mlp=   83.0000> <PB=84> 
<DWph=1> <it=  3> <et=39.59> <Mt= 0.00> <Spt= 0.00> <nCl=  0> <DB=   83.0000> <Mlp=   83.0000> <PB=84> 
---- Diving heuristic node with dive number = 1, fix depth = 37 and tabu list size = 1
Fixed projected solution = [x_1_0_1_OspV=1, x_1_16_1_OspV=1, x_1_125_1_OspV=1, x_1_216_1_OspV=1]
<DWph=2> <it=  1> <et=39.63> <Mt= 0.03> <Spt= 0.00> <nCl=  0> <DB=   83.0000> <Mlp=   83.0000> <PB=84> 
<DWph=1> <it=  2> <et=39.63> <Mt= 0.00> <Spt= 0.00> <nCl=  0> <DB=   83.0000> <Mlp=   83.0000> <PB=84> 
---- Diving heuristic node with dive number = 1, fix depth = 37 and tabu list size = 1
Fixed projected solution = [x_1_0_1_OspV=1, x_1_39_1_OspV=1, x_1_129_1_OspV=1, x_1_213_1_OspV=1]
<DWph=2> <it=  1> <et=39.64> <Mt= 0.01> <Spt= 0.00> <nCl=  0> <DB=   83.0000> <Mlp=   83.0000> <PB=84> 
<DWph=1> <it=  2> <et=39.65> <Mt= 0.00> <Spt= 0.00> <nCl=  0> <DB=   83.0000> <Mlp=   83.0000> <PB=84> 
---- Diving heuristic node with dive number = 1, fix depth = 38 and tabu list size = 1
Fixed projected solution = [x_1_0_1_OspV=1, x_1_14_1_OspV=1, x_1_158_1_OspV=1, x_1_193_1_OspV=1]
<DWph=2> <it=  5> <et=40.33> <Mt= 0.06> <Spt= 0.61> <nCl=159> <DB=   83.0010> <Mlp=   83.0010> <PB=84> 
<DWph=1> <it=  7> <et=40.41> <Mt= 0.01> <Spt= 0.08> <nCl=100> <DB=   82.2345> <Mlp=   83.0000> <PB=84> 
---- Diving heuristic node with dive number = 1, fix depth = 39 and tabu list size = 1
Fixed projected solution = [x_1_0_1_OspV=1, x_1_66_1_OspV=1, x_1_67_1_OspV=1, x_1_231_1_OspV=1]
<DWph=2> <it=  5> <et=40.96> <Mt= 0.07> <Spt= 0.45> <nCl= 16> <DB=   82.8815> <Mlp=   83.0007> <PB=84> 
<DWph=1> <it=  7> <et=41.04> <Mt= 0.00> <Spt= 0.08> <nCl= 60> <DB=   82.5178> <Mlp=   83.0000> <PB=84> 
---- Diving heuristic node with dive number = 1, fix depth = 39 and tabu list size = 1
Fixed projected solution = [x_1_0_1_OspV=1, x_1_21_1_OspV=1, x_1_139_1_OspV=1, x_1_208_1_OspV=1]
<DWph=2> <it=  1> <et=41.06> <Mt= 0.01> <Spt= 0.00> <nCl=  0> <DB=   83.0000> <Mlp=   83.0000> <PB=84> 
<DWph=1> <it=  2> <et=41.06> <Mt= 0.00> <Spt= 0.00> <nCl=  0> <DB=   83.0000> <Mlp=   83.0000> <PB=84> 
---- Diving heuristic node with dive number = 1, fix depth = 39 and tabu list size = 1
Fixed projected solution = [x_1_0_1_OspV=1, x_1_88_1_OspV=1, x_1_121_1_OspV=1, x_1_206_1_OspV=1]
<DWph=2> <it=  1> <et=41.07> <Mt= 0.00> <Spt= 0.00> <nCl=  0> <DB=   83.0000> <Mlp=   83.0000> <PB=84> 
<DWph=1> <it=  2> <et=41.07> <Mt= 0.00> <Spt= 0.00> <nCl=  0> <DB=   83.0000> <Mlp=   83.0000> <PB=84> 
---- Diving heuristic node with dive number = 1, fix depth = 39 and tabu list size = 1
Fixed projected solution = [x_1_0_1_OspV=1, x_1_69_1_OspV=1, x_1_94_1_OspV=1, x_1_221_1_OspV=1]
<DWph=2> <it=  1> <et=41.08> <Mt= 0.00> <Spt= 0.00> <nCl=  0> <DB=   83.0000> <Mlp=   83.0000> <PB=84> 
<DWph=1> <it=  2> <et=41.08> <Mt= 0.00> <Spt= 0.00> <nCl=  0> <DB=   83.0000> <Mlp=   83.0000> <PB=84> 
---- Diving heuristic node with dive number = 1, fix depth = 40 and tabu list size = 1
Fixed projected solution = [x_1_0_1_OspV=1, x_1_50_1_OspV=1, x_1_115_1_OspV=1, x_1_218_1_OspV=1]
<DWph=2> <it=  9> <et=42.04> <Mt= 0.11> <Spt= 0.84> <nCl=177> <DB=   83.0023> <Mlp=   83.0023> <PB=84> 
<DWph=1> <it= 10> <et=42.12> <Mt= 0.00> <Spt= 0.08> <nCl= 87> <DB=   81.0738> <Mlp=   83.0023> <PB=84> 
<DWph=1> <it= 16> <et=42.78> <Mt= 0.03> <Spt= 0.62> <nCl=113> <DB=   83.0020> <Mlp=   83.0020> <PB=84> 
---- Diving heuristic node with dive number = 1, fix depth = 41 and tabu list size = 1
Fixed projected solution = [x_1_0_1_OspV=1, x_1_40_1_OspV=1, x_1_143_1_OspV=1, x_1_204_1_OspV=1]
<DWph=2> <it=  5> <et=43.46> <Mt= 0.05> <Spt= 0.62> <nCl= 67> <DB=   83.0020> <Mlp=   83.0020> <PB=84> 
<DWph=1> <it= 10> <et=43.87> <Mt= 0.01> <Spt= 0.39> <nCl= 52> <DB=   82.9632> <Mlp=   83.0020> <PB=84> 
<DWph=1> <it= 11> <et=44.03> <Mt= 0.01> <Spt= 0.16> <nCl=  0> <DB=   83.0020> <Mlp=   83.0020> <PB=84> 
---- Diving heuristic node with dive number = 1, fix depth = 42 and tabu list size = 1
Fixed projected solution = [x_1_0_1_OspV=1, x_1_48_1_OspV=1, x_1_64_1_OspV=1, x_1_236_1_OspV=1]
<DWph=2> <it=  6> <et=44.79> <Mt= 0.05> <Spt= 0.69> <nCl= 17> <DB=   83.0021> <Mlp=   83.0021> <PB=84> 
<DWph=1> <it=  9> <et=45.20> <Mt= 0.01> <Spt= 0.39> <nCl=  6> <DB=   83.0020> <Mlp=   83.0020> <PB=84> 
---- Diving heuristic node with dive number = 1, fix depth = 43 and tabu list size = 1
Fixed projected solution = [x_1_0_1_OspV=1, x_1_6_1_OspV=1, x_1_86_1_OspV=1, x_1_238_1_OspV=1]
<DWph=2> <it= 10> <et=46.32> <Mt= 0.12> <Spt= 0.85> <nCl=253> <DB=   82.8885> <Mlp=   83.0021> <PB=84> 
<DWph=2> <it= 15> <et=47.01> <Mt= 0.01> <Spt= 0.67> <nCl= 24> <DB=   83.0021> <Mlp=   83.0021> <PB=84> 
<DWph=1> <it= 20> <et=47.48> <Mt= 0.01> <Spt= 0.46> <nCl=145> <DB=   83.0021> <Mlp=   83.0021> <PB=84> 
---- Diving heuristic node with dive number = 1, fix depth = 44 and tabu list size = 1
Fixed projected solution = [x_1_0_1_OspV=1, x_1_15_1_OspV=1, x_1_42_1_OspV=1, x_1_244_1_OspV=1]
<DWph=2> <it=  5> <et=48.13> <Mt= 0.04> <Spt= 0.60> <nCl=120> <DB=   83.0029> <Mlp=   83.0029> <PB=84> 
<DWph=1> <it=  6> <et=48.29> <Mt= 0.00> <Spt= 0.15> <nCl=  0> <DB=   83.0029> <Mlp=   83.0029> <PB=84> 
---- Diving heuristic node with dive number = 1, fix depth = 45 and tabu list size = 1
Fixed projected solution = [x_1_0_1_OspV=1, x_1_24_1_OspV=1, x_1_160_1_OspV=1, x_1_188_1_OspV=1]
<DWph=2> <it=  4> <et=48.80> <Mt= 0.05> <Spt= 0.44> <nCl= 30> <DB=   83.0049> <Mlp=   83.0049> <PB=84> 
<DWph=1> <it= 10> <et=49.34> <Mt= 0.02> <Spt= 0.53> <nCl= 46> <DB=   83.0043> <Mlp=   83.0043> <PB=84> 
---- Diving heuristic node with dive number = 1, fix depth = 46 and tabu list size = 1
Fixed projected solution = [x_1_0_1_OspV=1, x_1_46_1_OspV=1, x_1_106_1_OspV=1, x_1_223_1_OspV=1]
<DWph=2> <it=  7> <et=50.15> <Mt= 0.05> <Spt= 0.74> <nCl=116> <DB=   83.0056> <Mlp=   83.0056> <PB=84> 
<DWph=1> <it= 10> <et=50.45> <Mt= 0.01> <Spt= 0.29> <nCl=  4> <DB=   83.0056> <Mlp=   83.0056> <PB=84> 
---- Diving heuristic node with dive number = 1, fix depth = 47 and tabu list size = 1
Fixed projected solution = [x_1_0_1_OspV=1, x_1_76_1_OspV=1, x_1_113_1_OspV=1, x_1_212_1_OspV=1]
<DWph=2> <it= 10> <et=51.41> <Mt= 0.04> <Spt= 0.90> <nCl=436> <DB=   82.7333> <Mlp=   83.0066> <PB=84> 
<DWph=2> <it= 14> <et=51.94> <Mt= 0.01> <Spt= 0.51> <nCl= 10> <DB=   83.0066> <Mlp=   83.0066> <PB=84> 
<DWph=1> <it= 18> <et=52.32> <Mt= 0.01> <Spt= 0.37> <nCl= 30> <DB=   83.0066> <Mlp=   83.0066> <PB=84> 
---- Diving heuristic node with dive number = 1, fix depth = 48 and tabu list size = 1
Fixed projected solution = [x_1_0_1_OspV=1, x_1_65_1_OspV=1, x_1_142_1_OspV=1, x_1_197_1_OspV=1]
<DWph=2> <it=  9> <et=53.32> <Mt= 0.03> <Spt= 0.96> <nCl= 16> <DB=   83.0068> <Mlp=   83.0068> <PB=84> 
<DWph=1> <it= 10> <et=53.39> <Mt= 0.00> <Spt= 0.07> <nCl=  5> <DB=   81.8082> <Mlp=   83.0068> <PB=84> 
<DWph=1> <it= 11> <et=53.62> <Mt= 0.00> <Spt= 0.22> <nCl=  0> <DB=   83.0068> <Mlp=   83.0068> <PB=84> 
---- Diving heuristic node with dive number = 1, fix depth = 49 and tabu list size = 1
Fixed projected solution = [x_1_0_1_OspV=1, x_1_93_1_OspV=1, x_1_116_1_OspV=1, x_1_207_1_OspV=1]
<DWph=2> <it=  9> <et=54.64> <Mt= 0.06> <Spt= 0.96> <nCl=120> <DB=   83.0087> <Mlp=   83.0087> <PB=84> 
<DWph=1> <it= 10> <et=54.72> <Mt= 0.00> <Spt= 0.07> <nCl=  1> <DB=   81.4957> <Mlp=   83.0087> <PB=84> 
<DWph=1> <it= 12> <et=54.94> <Mt= 0.00> <Spt= 0.22> <nCl=  2> <DB=   83.0087> <Mlp=   83.0087> <PB=84> 
---- Diving heuristic node with dive number = 1, fix depth = 50 and tabu list size = 1
Fixed projected solution = [x_1_0_1_OspV=1, x_1_99_1_OspV=1, x_1_151_1_OspV=1, x_1_166_1_OspV=1]
<DWph=2> <it= 10> <et=55.97> <Mt= 0.14> <Spt= 0.88> <nCl=303> <DB=   78.6483> <Mlp=   83.0164> <PB=84> 
<DWph=2> <it= 15> <et=56.58> <Mt= 0.01> <Spt= 0.59> <nCl= 35> <DB=   83.0154> <Mlp=   83.0154> <PB=84> 
<DWph=1> <it= 18> <et=56.88> <Mt= 0.01> <Spt= 0.29> <nCl= 24> <DB=   83.0154> <Mlp=   83.0154> <PB=84> 
---- Diving heuristic node with dive number = 1, fix depth = 51 and tabu list size = 1
Fixed projected solution = [x_1_0_1_OspV=1, x_1_90_1_OspV=1, x_1_133_1_OspV=1, x_1_191_1_OspV=1]
<DWph=2> <it=  7> <et=57.71> <Mt= 0.08> <Spt= 0.73> <nCl=120> <DB=   83.0244> <Mlp=   83.0244> <PB=84> 
<DWph=1> <it= 10> <et=58.01> <Mt= 0.01> <Spt= 0.29> <nCl= 21> <DB=   83.0244> <Mlp=   83.0244> <PB=84> 
---- Diving heuristic node with dive number = 1, fix depth = 52 and tabu list size = 1
Fixed projected solution = [x_1_0_1_OspV=1, x_1_105_1_OspV=1, x_1_122_1_OspV=1, x_1_199_1_OspV=1]
<DWph=2> <it=  5> <et=58.60> <Mt= 0.06> <Spt= 0.51> <nCl=116> <DB=   83.0500> <Mlp=   83.0500> <PB=84> 
<DWph=1> <it=  8> <et=58.96> <Mt= 0.01> <Spt= 0.36> <nCl=  9> <DB=   83.0500> <Mlp=   83.0500> <PB=84> 
---- Diving heuristic node with dive number = 1, fix depth = 53 and tabu list size = 1
Fixed projected solution = [x_1_0_1_OspV=1, x_1_34_1_OspV=1, x_1_161_1_OspV=1, x_1_185_1_OspV=1]
<DWph=2> <it= 10> <et=59.84> <Mt= 0.07> <Spt= 0.80> <nCl=209> <DB=   83.0791> <Mlp=   83.1250> <PB=84> 
<DWph=2> <it= 13> <et=60.21> <Mt= 0.00> <Spt= 0.36> <nCl= 16> <DB=   83.1111> <Mlp=   83.1111> <PB=84> 
SEARCH IS INTERRUPTED as the time limit is reached. 
<DWph=1> <it= 13> <et=60.21> <Mt= 0.00> <Spt= 0.00> <nCl=  0> <DB=   83.0000> <Mlp=   83.1111> <PB=84> 
---- Diving heuristic node with dive number = 2, fix depth = 2 and tabu list size = 2
Fixed projected solution = [x_1_0_1_OspV=1, x_1_25_1_OspV=1, x_1_98_1_OspV=1, x_1_230_1_OspV=1]
---- Diving heuristic node with dive number = 3, fix depth = 2 and tabu list size = 3
Fixed projected solution = [x_1_0_1_OspV=1, x_1_75_1_OspV=1, x_1_153_1_OspV=1, x_1_179_1_OspV=1]
---- Diving heuristic node with dive number = 4, fix depth = 1 and tabu list size = 1
Fixed projected solution = [x_1_0_1_OspV=1, x_1_51_1_OspV=1, x_1_100_1_OspV=1, x_1_225_1_OspV=1]
---- Diving heuristic node with dive number = 5, fix depth = 1 and tabu list size = 2
Fixed projected solution = [x_1_0_1_OspV=1, x_1_25_1_OspV=1, x_1_98_1_OspV=1, x_1_230_1_OspV=1]
---- Diving heuristic node with dive number = 6, fix depth = 1 and tabu list size = 3
Fixed projected solution = [x_1_0_1_OspV=1, x_1_23_1_OspV=1, x_1_172_1_OspV=1, x_1_173_1_OspV=1]
**** Strong branching phase 1 is started *****
**** Strong branching phase 3 is started *****
New model incumbent solution 84, TIME = 0h1m1s14t = 6114
************************************************************************************************
Search is finished, global bounds : [ 83 , 84 ], TIME = 0h1m1s14t = 6114
************************************************************************************************
[32mBaPCod : solution defined.[00m
statistics_cols: instance & :Optimal & cutoff & :bcRecRootDb & :bcTimeRootEval & :bcCountNodeProc & :bcRecBestDb & :bcRecBestInc & :bcTimeMain \\
statistics: Falkenauer_t249_02 & 0 & 1.0e6 & 83.00 & 10.32 & 1 & 83.00 & 84 & 61.14 \\
########################################################
bin_id=1: 253(0) 373(1) 374(1) 
bin_id=2: 255(0) 372(1) 373(1) 
bin_id=3: 267(0) 365(1) 368(1) 
bin_id=4: 255(0) 362(1) 383(1) 
bin_id=5: 254(0) 362(1) 384(1) 
bin_id=6: 254(0) 356(1) 390(1) 
bin_id=7: 272(0) 351(1) 377(1) 
bin_id=8: 276(0) 350(1) 374(1) 
bin_id=9: 259(0) 349(1) 392(1) 
bin_id=10: 259(0) 345(1) 396(1) 
bin_id=11: 270(0) 343(1) 387(1) 
bin_id=12: 259(0) 340(1) 401(1) 
bin_id=13: 270(0) 333(1) 397(1) 
bin_id=14: 258(0) 329(1) 413(1) 
bin_id=15: 254(0) 315(1) 431(1) 
bin_id=16: 257(0) 319(1) 424(1) 
bin_id=17: 257(0) 300(1) 443(1) 
bin_id=18: 257(0) 290(1) 453(1) 
bin_id=19: 264(0) 288(1) 448(1) 
bin_id=20: 256(0) 287(1) 457(1) 
bin_id=21: 260(0) 281(1) 459(1) 
bin_id=22: 263(0) 281(1) 456(1) 
bin_id=23: 252(0) 260(1) 488(1) 
bin_id=24: 287(0) 298(1) 414(1) 
bin_id=25: 286(0) 324(1) 390(1) 
bin_id=26: 290(0) 319(1) 391(1) 
bin_id=27: 265(1) 290(0) 445(1) 
bin_id=28: 250(0) 269(1) 481(1) 
bin_id=29: 250(0) 266(1) 484(1) 
bin_id=30: 269(0) 350(1) 381(1) 
bin_id=31: 269(0) 324(1) 407(1) 
bin_id=32: 269(0) 339(1) 392(1) 
bin_id=33: 252(0) 264(1) 484(1) 
bin_id=34: 261(1) 262(0) 477(1) 
bin_id=35: 250(0) 263(1) 487(1) 
bin_id=36: 290(0) 333(1) 377(1) 
bin_id=37: 254(0) 297(1) 449(1) 
bin_id=38: 285(0) 285(1) 430(1) 
bin_id=39: 280(0) 353(1) 367(1) 
bin_id=40: 278(1) 281(0) 441(1) 
bin_id=41: 253(0) 257(1) 490(1) 
bin_id=42: 260(0) 366(1) 374(1) 
bin_id=43: 260(0) 335(1) 405(1) 
bin_id=44: 250(0) 256(1) 494(1) 
bin_id=45: 253(0) 271(1) 476(1) 
bin_id=46: 280(0) 329(1) 391(1) 
bin_id=47: 264(0) 303(1) 433(1) 
bin_id=48: 256(0) 323(1) 421(1) 
bin_id=49: 250(0) 256(1) 494(1) 
bin_id=50: 265(0) 302(1) 433(1) 
bin_id=51: 250(0) 281(1) 469(1) 
bin_id=52: 253(0) 286(1) 461(1) 
bin_id=53: 292(0) 311(1) 397(1) 
bin_id=54: 310(1) 317(0) 373(1) 
bin_id=55: 255(0) 311(1) 434(1) 
bin_id=56: 299(1) 300(0) 401(1) 
bin_id=57: 252(0) 252(1) 496(1) 
bin_id=58: 281(0) 346(1) 373(1) 
bin_id=59: 264(0) 329(1) 407(1) 
bin_id=60: 287(0) 346(1) 367(1) 
bin_id=61: 288(0) 318(1) 394(1) 
bin_id=62: 273(0) 324(1) 403(1) 
bin_id=63: 281(0) 345(1) 374(1) 
bin_id=64: 272(0) 360(1) 368(1) 
bin_id=65: 280(0) 357(1) 363(1) 
bin_id=66: 263(0) 274(1) 463(1) 
bin_id=67: 282(0) 304(1) 414(1) 
bin_id=68: 278(0) 301(1) 421(1) 
bin_id=69: 259(0) 274(1) 467(1) 
bin_id=70: 311(1) 314(0) 375(1) 
bin_id=71: 270(0) 311(1) 419(1) 
bin_id=72: 263(0) 294(1) 443(1) 
bin_id=73: 271(0) 279(1) 450(1) 
bin_id=74: 273(1) 285(0) 442(1) 
bin_id=75: 251(0) 283(1) 466(1) 
bin_id=76: 258(0) 332(1) 410(1) 
bin_id=77: 255(0) 286(1) 459(1) 
bin_id=78: 271(0) 271(1) 458(1) 
bin_id=79: 271(0) 339(1) 390(1) 
bin_id=80: 256(0) 357(1) 387(1) 
bin_id=81: 308(0) 335(1) 356(1) 
bin_id=82: 296(0) 326(1) 369(1) 
bin_id=83: 307(0) 382(1) 
bin_id=84: 322(1) 
Objective value: 84.0
########################################################
