Application parameters:
  batch  =>  nothing
  instance  =>  "/IN/Falkenauer_t501_13.txt-Q2Half"
  ub  =>  1.0e6
  cfg  =>  "/CFG/BPP.cfg"
data = Colored Bin Packing dataset.
number of items = 501
number of colors = 2
capacity = 1000
Items : 
	 item 1, weight= 250, color= 0
	 item 2, weight= 250, color= 0
	 item 3, weight= 250, color= 0
	 item 4, weight= 250, color= 0
	 item 5, weight= 250, color= 0
	 item 6, weight= 250, color= 0
	 item 7, weight= 250, color= 0
	 item 8, weight= 250, color= 0
	 item 9, weight= 250, color= 0
	 item 10, weight= 251, color= 0
	 item 11, weight= 251, color= 0
	 item 12, weight= 251, color= 0
	 item 13, weight= 251, color= 0
	 item 14, weight= 251, color= 0
	 item 15, weight= 251, color= 1
	 item 16, weight= 251, color= 1
	 item 17, weight= 252, color= 0
	 item 18, weight= 252, color= 0
	 item 19, weight= 252, color= 0
	 item 20, weight= 252, color= 0
	 item 21, weight= 252, color= 0
	 item 22, weight= 252, color= 0
	 item 23, weight= 252, color= 0
	 item 24, weight= 252, color= 0
	 item 25, weight= 252, color= 0
	 item 26, weight= 252, color= 0
	 item 27, weight= 252, color= 0
	 item 28, weight= 252, color= 0
	 item 29, weight= 253, color= 0
	 item 30, weight= 253, color= 0
	 item 31, weight= 253, color= 0
	 item 32, weight= 253, color= 1
	 item 33, weight= 253, color= 1
	 item 34, weight= 254, color= 0
	 item 35, weight= 254, color= 0
	 item 36, weight= 254, color= 0
	 item 37, weight= 254, color= 0
	 item 38, weight= 254, color= 0
	 item 39, weight= 254, color= 0
	 item 40, weight= 254, color= 0
	 item 41, weight= 254, color= 1
	 item 42, weight= 254, color= 1
	 item 43, weight= 254, color= 1
	 item 44, weight= 255, color= 0
	 item 45, weight= 255, color= 0
	 item 46, weight= 255, color= 0
	 item 47, weight= 255, color= 0
	 item 48, weight= 255, color= 0
	 item 49, weight= 255, color= 0
	 item 50, weight= 255, color= 1
	 item 51, weight= 256, color= 0
	 item 52, weight= 256, color= 0
	 item 53, weight= 256, color= 0
	 item 54, weight= 256, color= 0
	 item 55, weight= 256, color= 0
	 item 56, weight= 256, color= 0
	 item 57, weight= 256, color= 1
	 item 58, weight= 256, color= 1
	 item 59, weight= 257, color= 0
	 item 60, weight= 257, color= 0
	 item 61, weight= 257, color= 0
	 item 62, weight= 257, color= 0
	 item 63, weight= 257, color= 0
	 item 64, weight= 257, color= 1
	 item 65, weight= 258, color= 0
	 item 66, weight= 258, color= 0
	 item 67, weight= 258, color= 0
	 item 68, weight= 258, color= 0
	 item 69, weight= 258, color= 0
	 item 70, weight= 258, color= 1
	 item 71, weight= 258, color= 1
	 item 72, weight= 259, color= 0
	 item 73, weight= 259, color= 0
	 item 74, weight= 259, color= 0
	 item 75, weight= 259, color= 0
	 item 76, weight= 260, color= 0
	 item 77, weight= 260, color= 0
	 item 78, weight= 260, color= 0
	 item 79, weight= 260, color= 0
	 item 80, weight= 260, color= 0
	 item 81, weight= 260, color= 0
	 item 82, weight= 261, color= 0
	 item 83, weight= 261, color= 0
	 item 84, weight= 261, color= 0
	 item 85, weight= 261, color= 0
	 item 86, weight= 261, color= 0
	 item 87, weight= 261, color= 1
	 item 88, weight= 261, color= 1
	 item 89, weight= 261, color= 1
	 item 90, weight= 262, color= 0
	 item 91, weight= 262, color= 0
	 item 92, weight= 262, color= 0
	 item 93, weight= 262, color= 0
	 item 94, weight= 262, color= 0
	 item 95, weight= 262, color= 0
	 item 96, weight= 262, color= 1
	 item 97, weight= 263, color= 0
	 item 98, weight= 263, color= 0
	 item 99, weight= 263, color= 0
	 item 100, weight= 263, color= 1
	 item 101, weight= 263, color= 1
	 item 102, weight= 263, color= 1
	 item 103, weight= 263, color= 1
	 item 104, weight= 264, color= 0
	 item 105, weight= 264, color= 0
	 item 106, weight= 264, color= 1
	 item 107, weight= 264, color= 1
	 item 108, weight= 265, color= 0
	 item 109, weight= 265, color= 0
	 item 110, weight= 265, color= 0
	 item 111, weight= 265, color= 1
	 item 112, weight= 265, color= 1
	 item 113, weight= 266, color= 0
	 item 114, weight= 266, color= 0
	 item 115, weight= 266, color= 0
	 item 116, weight= 266, color= 0
	 item 117, weight= 267, color= 0
	 item 118, weight= 267, color= 0
	 item 119, weight= 268, color= 0
	 item 120, weight= 268, color= 0
	 item 121, weight= 268, color= 0
	 item 122, weight= 268, color= 0
	 item 123, weight= 269, color= 0
	 item 124, weight= 269, color= 0
	 item 125, weight= 269, color= 0
	 item 126, weight= 269, color= 0
	 item 127, weight= 269, color= 1
	 item 128, weight= 269, color= 1
	 item 129, weight= 270, color= 0
	 item 130, weight= 270, color= 0
	 item 131, weight= 270, color= 0
	 item 132, weight= 270, color= 1
	 item 133, weight= 271, color= 0
	 item 134, weight= 271, color= 0
	 item 135, weight= 271, color= 0
	 item 136, weight= 271, color= 1
	 item 137, weight= 272, color= 0
	 item 138, weight= 272, color= 0
	 item 139, weight= 272, color= 0
	 item 140, weight= 272, color= 0
	 item 141, weight= 272, color= 1
	 item 142, weight= 272, color= 1
	 item 143, weight= 272, color= 1
	 item 144, weight= 273, color= 0
	 item 145, weight= 273, color= 0
	 item 146, weight= 273, color= 0
	 item 147, weight= 273, color= 0
	 item 148, weight= 273, color= 1
	 item 149, weight= 273, color= 1
	 item 150, weight= 274, color= 0
	 item 151, weight= 274, color= 0
	 item 152, weight= 275, color= 0
	 item 153, weight= 275, color= 1
	 item 154, weight= 276, color= 0
	 item 155, weight= 276, color= 0
	 item 156, weight= 276, color= 0
	 item 157, weight= 276, color= 1
	 item 158, weight= 277, color= 0
	 item 159, weight= 277, color= 1
	 item 160, weight= 278, color= 0
	 item 161, weight= 278, color= 0
	 item 162, weight= 278, color= 0
	 item 163, weight= 278, color= 0
	 item 164, weight= 278, color= 0
	 item 165, weight= 278, color= 1
	 item 166, weight= 278, color= 1
	 item 167, weight= 278, color= 1
	 item 168, weight= 278, color= 1
	 item 169, weight= 279, color= 0
	 item 170, weight= 279, color= 1
	 item 171, weight= 279, color= 1
	 item 172, weight= 280, color= 0
	 item 173, weight= 280, color= 0
	 item 174, weight= 281, color= 1
	 item 175, weight= 281, color= 1
	 item 176, weight= 281, color= 1
	 item 177, weight= 282, color= 0
	 item 178, weight= 282, color= 0
	 item 179, weight= 283, color= 0
	 item 180, weight= 283, color= 0
	 item 181, weight= 283, color= 1
	 item 182, weight= 283, color= 1
	 item 183, weight= 283, color= 1
	 item 184, weight= 284, color= 0
	 item 185, weight= 284, color= 0
	 item 186, weight= 284, color= 0
	 item 187, weight= 284, color= 0
	 item 188, weight= 284, color= 1
	 item 189, weight= 284, color= 1
	 item 190, weight= 285, color= 0
	 item 191, weight= 285, color= 1
	 item 192, weight= 285, color= 1
	 item 193, weight= 285, color= 1
	 item 194, weight= 286, color= 0
	 item 195, weight= 286, color= 0
	 item 196, weight= 286, color= 0
	 item 197, weight= 286, color= 0
	 item 198, weight= 287, color= 0
	 item 199, weight= 287, color= 0
	 item 200, weight= 288, color= 0
	 item 201, weight= 288, color= 0
	 item 202, weight= 288, color= 1
	 item 203, weight= 289, color= 0
	 item 204, weight= 289, color= 0
	 item 205, weight= 289, color= 0
	 item 206, weight= 289, color= 1
	 item 207, weight= 289, color= 1
	 item 208, weight= 291, color= 0
	 item 209, weight= 291, color= 0
	 item 210, weight= 291, color= 1
	 item 211, weight= 291, color= 1
	 item 212, weight= 292, color= 0
	 item 213, weight= 292, color= 1
	 item 214, weight= 293, color= 0
	 item 215, weight= 293, color= 1
	 item 216, weight= 293, color= 1
	 item 217, weight= 294, color= 0
	 item 218, weight= 294, color= 1
	 item 219, weight= 295, color= 0
	 item 220, weight= 295, color= 1
	 item 221, weight= 295, color= 1
	 item 222, weight= 296, color= 1
	 item 223, weight= 296, color= 1
	 item 224, weight= 297, color= 1
	 item 225, weight= 297, color= 1
	 item 226, weight= 299, color= 0
	 item 227, weight= 299, color= 0
	 item 228, weight= 299, color= 1
	 item 229, weight= 299, color= 1
	 item 230, weight= 299, color= 1
	 item 231, weight= 299, color= 1
	 item 232, weight= 300, color= 1
	 item 233, weight= 301, color= 1
	 item 234, weight= 301, color= 1
	 item 235, weight= 302, color= 0
	 item 236, weight= 302, color= 1
	 item 237, weight= 302, color= 1
	 item 238, weight= 303, color= 0
	 item 239, weight= 303, color= 1
	 item 240, weight= 303, color= 1
	 item 241, weight= 303, color= 1
	 item 242, weight= 305, color= 1
	 item 243, weight= 306, color= 0
	 item 244, weight= 306, color= 1
	 item 245, weight= 307, color= 1
	 item 246, weight= 307, color= 1
	 item 247, weight= 308, color= 0
	 item 248, weight= 309, color= 1
	 item 249, weight= 310, color= 1
	 item 250, weight= 310, color= 1
	 item 251, weight= 310, color= 1
	 item 252, weight= 311, color= 0
	 item 253, weight= 311, color= 1
	 item 254, weight= 311, color= 1
	 item 255, weight= 312, color= 1
	 item 256, weight= 313, color= 1
	 item 257, weight= 313, color= 1
	 item 258, weight= 313, color= 1
	 item 259, weight= 313, color= 1
	 item 260, weight= 313, color= 1
	 item 261, weight= 314, color= 1
	 item 262, weight= 314, color= 1
	 item 263, weight= 315, color= 0
	 item 264, weight= 315, color= 1
	 item 265, weight= 316, color= 1
	 item 266, weight= 316, color= 1
	 item 267, weight= 316, color= 1
	 item 268, weight= 317, color= 0
	 item 269, weight= 320, color= 0
	 item 270, weight= 322, color= 1
	 item 271, weight= 322, color= 1
	 item 272, weight= 323, color= 1
	 item 273, weight= 324, color= 1
	 item 274, weight= 324, color= 1
	 item 275, weight= 324, color= 1
	 item 276, weight= 325, color= 1
	 item 277, weight= 325, color= 1
	 item 278, weight= 326, color= 1
	 item 279, weight= 326, color= 1
	 item 280, weight= 328, color= 1
	 item 281, weight= 329, color= 1
	 item 282, weight= 329, color= 1
	 item 283, weight= 330, color= 0
	 item 284, weight= 330, color= 1
	 item 285, weight= 331, color= 1
	 item 286, weight= 332, color= 1
	 item 287, weight= 333, color= 1
	 item 288, weight= 333, color= 1
	 item 289, weight= 335, color= 1
	 item 290, weight= 335, color= 1
	 item 291, weight= 335, color= 1
	 item 292, weight= 336, color= 1
	 item 293, weight= 336, color= 1
	 item 294, weight= 337, color= 1
	 item 295, weight= 340, color= 1
	 item 296, weight= 340, color= 1
	 item 297, weight= 341, color= 1
	 item 298, weight= 346, color= 1
	 item 299, weight= 349, color= 1
	 item 300, weight= 350, color= 1
	 item 301, weight= 350, color= 1
	 item 302, weight= 350, color= 1
	 item 303, weight= 351, color= 1
	 item 304, weight= 351, color= 1
	 item 305, weight= 351, color= 1
	 item 306, weight= 352, color= 1
	 item 307, weight= 353, color= 1
	 item 308, weight= 353, color= 1
	 item 309, weight= 353, color= 1
	 item 310, weight= 354, color= 1
	 item 311, weight= 354, color= 1
	 item 312, weight= 354, color= 1
	 item 313, weight= 355, color= 1
	 item 314, weight= 355, color= 1
	 item 315, weight= 355, color= 1
	 item 316, weight= 355, color= 1
	 item 317, weight= 356, color= 1
	 item 318, weight= 356, color= 1
	 item 319, weight= 356, color= 1
	 item 320, weight= 356, color= 1
	 item 321, weight= 357, color= 1
	 item 322, weight= 357, color= 1
	 item 323, weight= 357, color= 1
	 item 324, weight= 358, color= 1
	 item 325, weight= 358, color= 1
	 item 326, weight= 359, color= 1
	 item 327, weight= 361, color= 1
	 item 328, weight= 361, color= 1
	 item 329, weight= 362, color= 1
	 item 330, weight= 362, color= 1
	 item 331, weight= 363, color= 1
	 item 332, weight= 363, color= 1
	 item 333, weight= 363, color= 1
	 item 334, weight= 364, color= 1
	 item 335, weight= 364, color= 1
	 item 336, weight= 365, color= 1
	 item 337, weight= 365, color= 1
	 item 338, weight= 365, color= 1
	 item 339, weight= 365, color= 1
	 item 340, weight= 366, color= 1
	 item 341, weight= 366, color= 1
	 item 342, weight= 366, color= 1
	 item 343, weight= 367, color= 1
	 item 344, weight= 367, color= 1
	 item 345, weight= 367, color= 1
	 item 346, weight= 367, color= 1
	 item 347, weight= 367, color= 1
	 item 348, weight= 367, color= 1
	 item 349, weight= 368, color= 1
	 item 350, weight= 369, color= 1
	 item 351, weight= 369, color= 1
	 item 352, weight= 369, color= 1
	 item 353, weight= 370, color= 1
	 item 354, weight= 370, color= 1
	 item 355, weight= 370, color= 1
	 item 356, weight= 371, color= 1
	 item 357, weight= 372, color= 1
	 item 358, weight= 372, color= 1
	 item 359, weight= 372, color= 1
	 item 360, weight= 373, color= 1
	 item 361, weight= 374, color= 1
	 item 362, weight= 375, color= 1
	 item 363, weight= 375, color= 1
	 item 364, weight= 376, color= 1
	 item 365, weight= 376, color= 1
	 item 366, weight= 376, color= 1
	 item 367, weight= 376, color= 1
	 item 368, weight= 377, color= 1
	 item 369, weight= 377, color= 1
	 item 370, weight= 377, color= 1
	 item 371, weight= 378, color= 1
	 item 372, weight= 379, color= 1
	 item 373, weight= 379, color= 1
	 item 374, weight= 380, color= 1
	 item 375, weight= 382, color= 1
	 item 376, weight= 383, color= 1
	 item 377, weight= 383, color= 1
	 item 378, weight= 383, color= 1
	 item 379, weight= 384, color= 1
	 item 380, weight= 385, color= 1
	 item 381, weight= 387, color= 1
	 item 382, weight= 387, color= 1
	 item 383, weight= 387, color= 1
	 item 384, weight= 388, color= 1
	 item 385, weight= 389, color= 1
	 item 386, weight= 389, color= 1
	 item 387, weight= 389, color= 1
	 item 388, weight= 391, color= 1
	 item 389, weight= 392, color= 1
	 item 390, weight= 393, color= 1
	 item 391, weight= 396, color= 1
	 item 392, weight= 397, color= 1
	 item 393, weight= 399, color= 1
	 item 394, weight= 400, color= 1
	 item 395, weight= 400, color= 1
	 item 396, weight= 402, color= 1
	 item 397, weight= 403, color= 1
	 item 398, weight= 404, color= 1
	 item 399, weight= 405, color= 1
	 item 400, weight= 405, color= 1
	 item 401, weight= 406, color= 1
	 item 402, weight= 407, color= 1
	 item 403, weight= 410, color= 1
	 item 404, weight= 411, color= 1
	 item 405, weight= 411, color= 1
	 item 406, weight= 411, color= 1
	 item 407, weight= 412, color= 1
	 item 408, weight= 413, color= 1
	 item 409, weight= 413, color= 1
	 item 410, weight= 413, color= 1
	 item 411, weight= 414, color= 1
	 item 412, weight= 414, color= 1
	 item 413, weight= 416, color= 1
	 item 414, weight= 417, color= 1
	 item 415, weight= 418, color= 1
	 item 416, weight= 419, color= 1
	 item 417, weight= 419, color= 1
	 item 418, weight= 419, color= 1
	 item 419, weight= 421, color= 1
	 item 420, weight= 423, color= 1
	 item 421, weight= 426, color= 1
	 item 422, weight= 427, color= 1
	 item 423, weight= 427, color= 1
	 item 424, weight= 428, color= 1
	 item 425, weight= 428, color= 1
	 item 426, weight= 428, color= 1
	 item 427, weight= 429, color= 1
	 item 428, weight= 430, color= 1
	 item 429, weight= 431, color= 1
	 item 430, weight= 431, color= 1
	 item 431, weight= 432, color= 1
	 item 432, weight= 434, color= 1
	 item 433, weight= 434, color= 1
	 item 434, weight= 434, color= 1
	 item 435, weight= 436, color= 1
	 item 436, weight= 437, color= 1
	 item 437, weight= 439, color= 1
	 item 438, weight= 439, color= 1
	 item 439, weight= 440, color= 1
	 item 440, weight= 441, color= 1
	 item 441, weight= 442, color= 1
	 item 442, weight= 443, color= 1
	 item 443, weight= 445, color= 1
	 item 444, weight= 446, color= 1
	 item 445, weight= 446, color= 1
	 item 446, weight= 447, color= 1
	 item 447, weight= 447, color= 1
	 item 448, weight= 447, color= 1
	 item 449, weight= 449, color= 1
	 item 450, weight= 450, color= 1
	 item 451, weight= 451, color= 1
	 item 452, weight= 454, color= 1
	 item 453, weight= 454, color= 1
	 item 454, weight= 455, color= 1
	 item 455, weight= 456, color= 1
	 item 456, weight= 456, color= 1
	 item 457, weight= 457, color= 1
	 item 458, weight= 458, color= 1
	 item 459, weight= 459, color= 1
	 item 460, weight= 462, color= 1
	 item 461, weight= 462, color= 1
	 item 462, weight= 463, color= 1
	 item 463, weight= 463, color= 1
	 item 464, weight= 464, color= 1
	 item 465, weight= 465, color= 1
	 item 466, weight= 465, color= 1
	 item 467, weight= 465, color= 1
	 item 468, weight= 465, color= 1
	 item 469, weight= 466, color= 1
	 item 470, weight= 467, color= 1
	 item 471, weight= 468, color= 1
	 item 472, weight= 469, color= 1
	 item 473, weight= 469, color= 1
	 item 474, weight= 471, color= 1
	 item 475, weight= 473, color= 1
	 item 476, weight= 473, color= 1
	 item 477, weight= 474, color= 1
	 item 478, weight= 476, color= 1
	 item 479, weight= 477, color= 1
	 item 480, weight= 480, color= 1
	 item 481, weight= 480, color= 1
	 item 482, weight= 481, color= 1
	 item 483, weight= 482, color= 1
	 item 484, weight= 482, color= 1
	 item 485, weight= 482, color= 1
	 item 486, weight= 483, color= 1
	 item 487, weight= 485, color= 1
	 item 488, weight= 489, color= 1
	 item 489, weight= 490, color= 1
	 item 490, weight= 491, color= 1
	 item 491, weight= 491, color= 1
	 item 492, weight= 491, color= 1
	 item 493, weight= 492, color= 1
	 item 494, weight= 492, color= 1
	 item 495, weight= 493, color= 1
	 item 496, weight= 493, color= 1
	 item 497, weight= 495, color= 1
	 item 498, weight= 495, color= 1
	 item 499, weight= 495, color= 1
	 item 500, weight= 498, color= 1
	 item 501, weight= 499, color= 1

VRPSolver warning: Interval set for resource 1 on source node (when source != sink) is ignored (by definition is [0.0,0.0])
VRPSolver warning: Interval set for resource 2 on source node (when source != sink) is ignored (by definition is [0.0,0.0])
VRPSolver warning: Interval set for resource 3 on source node (when source != sink) is ignored (by definition is [0.0,0.0])
[41m solve [00m
~~~~~~~~~~~~~~~~~~~~~~~~~~~~~~~~~~~~~~~~~~~~~~~~~~~~~~~~~~~~~~~~~~~~~~~~~~~~~~
VRPSolver v0.4.1, 24/03/2021. Web: vrpsolver.math.u-bordeaux.fr
Corresponds to the solver by Pessoa, Sadykov, Uchoa and Vanderbeck (2020)
Paper: dx.doi.org/10.1007/s10107-020-01523-z
USE THIS CODE ONLY FOR ACADEMIC PURPOSES AT YOUR OWN RISK
~~~~~~~~~~~~~~~~~~~~~~~~~~~~~~~~~~~~~~~~~~~~~~~~~~~~~~~~~~~~~~~~~~~~~~~~~~~~~~
BaPCod v053, 24/03/2021, © Inria Bordeaux, France
~~~~~~~~~~~~~~~~~~~~~~~~~~~~~~~~~~~~~~~~~~~~~~~~~~~~~~~~~~~~~~~~~~~~~~~~~~~~~~
VRPSolver parameters:
GlobalTimeLimit = 60
MaxNbOfBBtreeNodeTreated = 100000
treeSearchStrategy = 1
RCSPstopCutGenTimeThresholdInPricing = 10
RCSPhardTimeThresholdInPricing = 20
RCSPnumberOfBucketsPerVertex = 2000
RCSPdynamicBucketSteps = 0
RCSPuseBidirectionalSearch = 1
RCSPapplyReducedCostFixing = 1
RCSPredCostFixingFalseGap = 0
RCSPmaxNumOfColsPerIteration = 100
RCSPmaxNumOfColsPerExactIteration = 100
RCSPheurLabelingStrategy = 4
StabilizationMinPhaseOfStage = 1
RCSPmaxNumOfLabelsInEnumeration = 100000
RCSPmaxNumOfEnumeratedSolutions = 1000000
RCSPmaxNumOfEnumSolutionsForMIP = 100000
RCSPinitNGneighbourhoodSize = 0
RCSPmaxNGneighbourhoodSize = 0
RCSPrankOneCutsMaxNumPerRound = 100
RCSPrankOneCutsMaxNumRows = -1
RCSPrankOneCutsMemoryType = 2
CutTailingOffThreshold = 0.02
CutTailingOffCounterThreshold = 3
SafeDualBoundScaleFactor = -1
StrongBranchingPhaseOneCandidatesNumber = 100
StrongBranchingPhaseOneTreeSizeEstimRatio = 0.3
StrongBranchingPhaseTwoCandidatesNumber = 1
StrongBranchingPhaseTwoTreeSizeEstimRatio = 0.1
MaxTimeForRestrictedMasterIpHeur = -1
DivingHeurUseDepthLimit = 0
MaxLDSbreadth = 3
MaxLDSdepth = 2
New model incumbent solution 1e+06, TIME = 0h0m0s3t = 3
Model is built TIME = 0h0m2s16t = 216
************************************************************************************************
**** BaB tree root node
**** Local DB = -1e+12, global bounds : [ -1e+12 , 1e+06 ], TIME = 0h0m2s16t = 216
**** 1 open nodes, 0 columns (0 active), 0 dyn. constrs. (0 active), 1004 art. vars. (1004 active)
************************************************************************************************
<DWph=2> <it= 10> <et=3.82> <Mt= 0.01> <Spt= 1.64> <nCl=1000> <DB=-1226923208.4959> <Mlp=474600038.5000> <PB=1000000> 
<DWph=2> <it= 20> <et=5.51> <Mt= 0.02> <Spt= 1.66> <nCl=1000> <DB=-1218488137.9256> <Mlp=363000074.5000> <PB=1000000> 
<DWph=2> <it= 30> <et=7.22> <Mt= 0.02> <Spt= 1.69> <nCl=1000> <DB=-1211082618.4214> <Mlp=232500120.2500> <PB=1000000> 
<DWph=2> <it= 40> <et=8.94> <Mt= 0.03> <Spt= 1.69> <nCl=1000> <DB=-1206373091.7504> <Mlp=117300155.9167> <PB=1000000> 
<DWph=2> <it= 50> <et=10.84> <Mt= 0.06> <Spt= 1.83> <nCl=1000> <DB=-807359372.9957> <Mlp=45771598.6032> <PB=1000000> 
<DWph=2> <it= 60> <et=12.63> <Mt= 0.14> <Spt= 1.64> <nCl=1000> <DB=-597273791.5499> <Mlp=14298291.6245> <PB=1000000> 
<DWph=2> <it= 70> <et=14.91> <Mt= 0.31> <Spt= 1.97> <nCl=980> <DB= -114.5289> <Mlp=  177.8420> <PB=1000000> 
<DWph=2> <it= 80> <et=17.15> <Mt= 0.56> <Spt= 1.67> <nCl=1000> <DB=  109.9216> <Mlp=  171.9846> <PB=1000000> 
<DWph=2> <it= 90> <et=19.25> <Mt= 0.36> <Spt= 1.72> <nCl=752> <DB=  165.0038> <Mlp=  171.1395> <PB=1000000> 
<DWph=2> <it=100> <et=21.38> <Mt= 0.36> <Spt= 1.76> <nCl=924> <DB=   57.2048> <Mlp=  170.3750> <PB=1000000> 
<DWph=2> <it=104> <et=22.68> <Mt= 0.10> <Spt= 1.20> <nCl= 89> <DB=  170.1667> <Mlp=  170.1667> <PB=1000000> 
<DWph=1> <it=110> <et=24.02> <Mt= 0.19> <Spt= 1.01> <nCl=600> <DB=   86.5202> <Mlp=  169.5000> <PB=1000000> 
<DWph=1> <it=120> <et=26.53> <Mt= 0.72> <Spt= 1.77> <nCl=890> <DB=  130.0189> <Mlp=  167.9023> <PB=1000000> 
<DWph=1> <it=130> <et=29.07> <Mt= 0.69> <Spt= 1.84> <nCl=642> <DB=  159.2603> <Mlp=  167.0555> <PB=1000000> 
<DWph=1> <it=136> <et=30.85> <Mt= 0.23> <Spt= 1.54> <nCl=383> <DB=  167.0000> <Mlp=  167.0000> <PB=1000000> 
<DWph=0> <it=137> <et=31.04> <Mt= 0.00> <Spt= 0.19> <nCl=  0> <DB=  167.0000> <Mlp=  167.0000> <PB=1000000> 
Reduced cost fixing for graph G_1... took 3.93 sec., 340386 buck. arcs remain (100% from prev., 41.4% from max.)
Run enumeration... took 0.72 sec. and not succeeded.
ColGenEvalAlg final dual bound: 167 (rounded: 167)
----------- Diving heuristic started -----------
<DWph=2> <it=  1> <et=35.79> <Mt= 0.01> <Spt= 0.00> <nCl=  0> <DB=  167.0000> <Mlp=  167.0000> <PB=1000000> 
<DWph=1> <it=  2> <et=35.79> <Mt= 0.00> <Spt= 0.00> <nCl=  0> <DB=  167.0000> <Mlp=  167.0000> <PB=1000000> 
---- Diving heuristic node with dive number = 0, fix depth = 0 and tabu list size = 0
Fixed projected solution = [x_1_0_1_OspV=1, x_1_116_1_OspV=1, x_1_343_1_OspV=1, x_1_344_1_OspV=1]
<DWph=2> <it=  1> <et=35.89> <Mt= 0.00> <Spt= 0.00> <nCl=  0> <DB=  167.0000> <Mlp=  167.0000> <PB=1000000> 
<DWph=1> <it=  2> <et=35.89> <Mt= 0.00> <Spt= 0.00> <nCl=  0> <DB=  167.0000> <Mlp=  167.0000> <PB=1000000> 
---- Diving heuristic node with dive number = 0, fix depth = 0 and tabu list size = 0
Fixed projected solution = [x_1_0_1_OspV=1, x_1_122_1_OspV=1, x_1_341_1_OspV=1, x_1_342_1_OspV=1]
<DWph=2> <it=  1> <et=35.98> <Mt= 0.01> <Spt= 0.00> <nCl=  0> <DB=  167.0000> <Mlp=  167.0000> <PB=1000000> 
<DWph=1> <it=  2> <et=35.99> <Mt= 0.00> <Spt= 0.00> <nCl=  0> <DB=  167.0000> <Mlp=  167.0000> <PB=1000000> 
---- Diving heuristic node with dive number = 0, fix depth = 0 and tabu list size = 0
Fixed projected solution = [x_1_0_1_OspV=1, x_1_118_1_OspV=1, x_1_323_1_OspV=1, x_1_367_1_OspV=1]
<DWph=2> <it=  1> <et=36.08> <Mt= 0.00> <Spt= 0.00> <nCl=  0> <DB=  167.0000> <Mlp=  167.0000> <PB=1000000> 
<DWph=1> <it=  2> <et=36.08> <Mt= 0.01> <Spt= 0.00> <nCl=  0> <DB=  167.0000> <Mlp=  167.0000> <PB=1000000> 
---- Diving heuristic node with dive number = 0, fix depth = 0 and tabu list size = 0
Fixed projected solution = [x_1_0_1_OspV=1, x_1_3_1_OspV=1, x_1_322_1_OspV=1, x_1_390_1_OspV=1]
<DWph=2> <it=  1> <et=36.18> <Mt= 0.00> <Spt= 0.00> <nCl=  0> <DB=  167.0000> <Mlp=  167.0000> <PB=1000000> 
<DWph=1> <it=  2> <et=36.18> <Mt= 0.00> <Spt= 0.00> <nCl=  0> <DB=  167.0000> <Mlp=  167.0000> <PB=1000000> 
---- Diving heuristic node with dive number = 0, fix depth = 0 and tabu list size = 0
Fixed projected solution = [x_1_0_1_OspV=1, x_1_113_1_OspV=1, x_1_294_1_OspV=1, x_1_392_1_OspV=1]
<DWph=2> <it=  1> <et=36.27> <Mt= 0.01> <Spt= 0.00> <nCl=  0> <DB=  167.0000> <Mlp=  167.0000> <PB=1000000> 
<DWph=1> <it=  2> <et=36.28> <Mt= 0.00> <Spt= 0.00> <nCl=  0> <DB=  167.0000> <Mlp=  167.0000> <PB=1000000> 
---- Diving heuristic node with dive number = 0, fix depth = 0 and tabu list size = 0
Fixed projected solution = [x_1_0_1_OspV=1, x_1_120_1_OspV=1, x_1_293_1_OspV=1, x_1_391_1_OspV=1]
<DWph=2> <it=  1> <et=36.37> <Mt= 0.00> <Spt= 0.00> <nCl=  0> <DB=  167.0000> <Mlp=  167.0000> <PB=1000000> 
<DWph=1> <it=  2> <et=36.37> <Mt= 0.00> <Spt= 0.00> <nCl=  0> <DB=  167.0000> <Mlp=  167.0000> <PB=1000000> 
---- Diving heuristic node with dive number = 0, fix depth = 0 and tabu list size = 0
Fixed projected solution = [x_1_0_1_OspV=1, x_1_45_1_OspV=1, x_1_266_1_OspV=1, x_1_427_1_OspV=1]
<DWph=2> <it=  1> <et=36.47> <Mt= 0.01> <Spt= 0.00> <nCl=  0> <DB=  167.0000> <Mlp=  167.0000> <PB=1000000> 
<DWph=1> <it=  2> <et=36.47> <Mt= 0.00> <Spt= 0.00> <nCl=  0> <DB=  167.0000> <Mlp=  167.0000> <PB=1000000> 
---- Diving heuristic node with dive number = 0, fix depth = 0 and tabu list size = 0
Fixed projected solution = [x_1_0_1_OspV=1, x_1_69_1_OspV=1, x_1_261_1_OspV=1, x_1_425_1_OspV=1]
<DWph=2> <it=  1> <et=36.56> <Mt= 0.00> <Spt= 0.00> <nCl=  0> <DB=  167.0000> <Mlp=  167.0000> <PB=1000000> 
<DWph=1> <it=  2> <et=36.57> <Mt= 0.01> <Spt= 0.00> <nCl=  0> <DB=  167.0000> <Mlp=  167.0000> <PB=1000000> 
---- Diving heuristic node with dive number = 0, fix depth = 0 and tabu list size = 0
Fixed projected solution = [x_1_0_1_OspV=1, x_1_55_1_OspV=1, x_1_257_1_OspV=1, x_1_429_1_OspV=1]
<DWph=2> <it=  1> <et=36.66> <Mt= 0.00> <Spt= 0.00> <nCl=  0> <DB=  167.0000> <Mlp=  167.0000> <PB=1000000> 
<DWph=1> <it=  2> <et=36.66> <Mt= 0.00> <Spt= 0.00> <nCl=  0> <DB=  167.0000> <Mlp=  167.0000> <PB=1000000> 
---- Diving heuristic node with dive number = 0, fix depth = 0 and tabu list size = 0
Fixed projected solution = [x_1_0_1_OspV=1, x_1_44_1_OspV=1, x_1_253_1_OspV=1, x_1_433_1_OspV=1]
<DWph=2> <it=  1> <et=36.76> <Mt= 0.01> <Spt= 0.00> <nCl=  0> <DB=  167.0000> <Mlp=  167.0000> <PB=1000000> 
<DWph=1> <it=  2> <et=36.76> <Mt= 0.00> <Spt= 0.00> <nCl=  0> <DB=  167.0000> <Mlp=  167.0000> <PB=1000000> 
---- Diving heuristic node with dive number = 0, fix depth = 0 and tabu list size = 0
Fixed projected solution = [x_1_0_1_OspV=1, x_1_29_1_OspV=1, x_1_251_1_OspV=1, x_1_436_1_OspV=1]
<DWph=2> <it=  1> <et=36.86> <Mt= 0.00> <Spt= 0.00> <nCl=  0> <DB=  167.0000> <Mlp=  167.0000> <PB=1000000> 
<DWph=1> <it=  2> <et=36.86> <Mt= 0.00> <Spt= 0.00> <nCl=  0> <DB=  167.0000> <Mlp=  167.0000> <PB=1000000> 
---- Diving heuristic node with dive number = 0, fix depth = 0 and tabu list size = 0
Fixed projected solution = [x_1_0_1_OspV=1, x_1_54_1_OspV=1, x_1_250_1_OspV=1, x_1_434_1_OspV=1]
<DWph=2> <it=  1> <et=36.95> <Mt= 0.01> <Spt= 0.00> <nCl=  0> <DB=  167.0000> <Mlp=  167.0000> <PB=1000000> 
<DWph=1> <it=  2> <et=36.96> <Mt= 0.00> <Spt= 0.00> <nCl=  0> <DB=  167.0000> <Mlp=  167.0000> <PB=1000000> 
---- Diving heuristic node with dive number = 0, fix depth = 0 and tabu list size = 0
Fixed projected solution = [x_1_0_1_OspV=1, x_1_34_1_OspV=1, x_1_206_1_OspV=1, x_1_457_1_OspV=1]
<DWph=2> <it=  1> <et=37.05> <Mt= 0.00> <Spt= 0.00> <nCl=  0> <DB=  167.0000> <Mlp=  167.0000> <PB=1000000> 
<DWph=1> <it=  2> <et=37.05> <Mt= 0.01> <Spt= 0.00> <nCl=  0> <DB=  167.0000> <Mlp=  167.0000> <PB=1000000> 
---- Diving heuristic node with dive number = 0, fix depth = 0 and tabu list size = 0
Fixed projected solution = [x_1_0_1_OspV=1, x_1_92_1_OspV=1, x_1_141_1_OspV=1, x_1_469_1_OspV=1]
<DWph=2> <it=  1> <et=37.15> <Mt= 0.00> <Spt= 0.00> <nCl=  0> <DB=  167.0000> <Mlp=  167.0000> <PB=1000000> 
<DWph=1> <it=  2> <et=37.15> <Mt= 0.00> <Spt= 0.00> <nCl=  0> <DB=  167.0000> <Mlp=  167.0000> <PB=1000000> 
---- Diving heuristic node with dive number = 0, fix depth = 0 and tabu list size = 0
Fixed projected solution = [x_1_0_1_OspV=1, x_1_195_1_OspV=1, x_1_255_1_OspV=1, x_1_396_1_OspV=1]
<DWph=2> <it=  1> <et=37.24> <Mt= 0.01> <Spt= 0.00> <nCl=  0> <DB=  167.0000> <Mlp=  167.0000> <PB=1000000> 
<DWph=1> <it=  2> <et=37.25> <Mt= 0.00> <Spt= 0.00> <nCl=  0> <DB=  167.0000> <Mlp=  167.0000> <PB=1000000> 
---- Diving heuristic node with dive number = 0, fix depth = 0 and tabu list size = 0
Fixed projected solution = [x_1_0_1_OspV=1, x_1_91_1_OspV=1, x_1_349_1_OspV=1, x_1_353_1_OspV=1]
<DWph=2> <it=  1> <et=37.35> <Mt= 0.00> <Spt= 0.00> <nCl=  0> <DB=  167.0000> <Mlp=  167.0000> <PB=1000000> 
<DWph=1> <it=  2> <et=37.35> <Mt= 0.00> <Spt= 0.00> <nCl=  0> <DB=  167.0000> <Mlp=  167.0000> <PB=1000000> 
---- Diving heuristic node with dive number = 0, fix depth = 0 and tabu list size = 0
Fixed projected solution = [x_1_0_1_OspV=1, x_1_194_1_OspV=1, x_1_248_1_OspV=1, x_1_399_1_OspV=1]
<DWph=2> <it=  1> <et=37.48> <Mt= 0.01> <Spt= 0.00> <nCl=  0> <DB=  167.0000> <Mlp=  167.0000> <PB=1000000> 
<DWph=1> <it=  2> <et=37.49> <Mt= 0.00> <Spt= 0.00> <nCl=  0> <DB=  167.0000> <Mlp=  167.0000> <PB=1000000> 
---- Diving heuristic node with dive number = 0, fix depth = 0 and tabu list size = 0
Fixed projected solution = [x_1_0_1_OspV=1, x_1_189_1_OspV=1, x_1_190_1_OspV=1, x_1_430_1_OspV=1]
<DWph=2> <it=  1> <et=37.58> <Mt= 0.01> <Spt= 0.00> <nCl=  0> <DB=  167.0000> <Mlp=  167.0000> <PB=1000000> 
<DWph=1> <it=  2> <et=37.58> <Mt= 0.00> <Spt= 0.00> <nCl=  0> <DB=  167.0000> <Mlp=  167.0000> <PB=1000000> 
---- Diving heuristic node with dive number = 0, fix depth = 0 and tabu list size = 0
Fixed projected solution = [x_1_0_1_OspV=1, x_1_19_1_OspV=1, x_1_58_1_OspV=1, x_1_493_1_OspV=1]
<DWph=2> <it=  1> <et=37.68> <Mt= 0.00> <Spt= 0.00> <nCl=  0> <DB=  167.0000> <Mlp=  167.0000> <PB=1000000> 
<DWph=1> <it=  2> <et=37.68> <Mt= 0.00> <Spt= 0.00> <nCl=  0> <DB=  167.0000> <Mlp=  167.0000> <PB=1000000> 
---- Diving heuristic node with dive number = 0, fix depth = 0 and tabu list size = 0
Fixed projected solution = [x_1_0_1_OspV=1, x_1_219_1_OspV=1, x_1_220_1_OspV=1, x_1_403_1_OspV=1]
<DWph=2> <it=  1> <et=37.78> <Mt= 0.01> <Spt= 0.00> <nCl=  0> <DB=  167.0000> <Mlp=  167.0000> <PB=1000000> 
<DWph=1> <it=  2> <et=37.78> <Mt= 0.00> <Spt= 0.00> <nCl=  0> <DB=  167.0000> <Mlp=  167.0000> <PB=1000000> 
---- Diving heuristic node with dive number = 0, fix depth = 0 and tabu list size = 0
Fixed projected solution = [x_1_0_1_OspV=1, x_1_37_1_OspV=1, x_1_41_1_OspV=1, x_1_494_1_OspV=1]
<DWph=2> <it=  1> <et=37.87> <Mt= 0.00> <Spt= 0.00> <nCl=  0> <DB=  167.0000> <Mlp=  167.0000> <PB=1000000> 
<DWph=1> <it=  2> <et=37.88> <Mt= 0.00> <Spt= 0.00> <nCl=  0> <DB=  167.0000> <Mlp=  167.0000> <PB=1000000> 
---- Diving heuristic node with dive number = 0, fix depth = 0 and tabu list size = 0
Fixed projected solution = [x_1_0_1_OspV=1, x_1_99_1_OspV=1, x_1_100_1_OspV=1, x_1_477_1_OspV=1]
<DWph=2> <it=  1> <et=37.97> <Mt= 0.01> <Spt= 0.00> <nCl=  0> <DB=  167.0000> <Mlp=  167.0000> <PB=1000000> 
<DWph=1> <it=  2> <et=37.97> <Mt= 0.00> <Spt= 0.00> <nCl=  0> <DB=  167.0000> <Mlp=  167.0000> <PB=1000000> 
---- Diving heuristic node with dive number = 0, fix depth = 0 and tabu list size = 0
Fixed projected solution = [x_1_0_1_OspV=1, x_1_5_1_OspV=1, x_1_132_1_OspV=1, x_1_480_1_OspV=1]
<DWph=2> <it=  1> <et=38.07> <Mt= 0.01> <Spt= 0.00> <nCl=  0> <DB=  167.0000> <Mlp=  167.0000> <PB=1000000> 
<DWph=1> <it=  2> <et=38.07> <Mt= 0.00> <Spt= 0.00> <nCl=  0> <DB=  167.0000> <Mlp=  167.0000> <PB=1000000> 
---- Diving heuristic node with dive number = 0, fix depth = 0 and tabu list size = 0
Fixed projected solution = [x_1_0_1_OspV=1, x_1_98_1_OspV=1, x_1_210_1_OspV=1, x_1_445_1_OspV=1]
<DWph=2> <it=  1> <et=38.16> <Mt= 0.00> <Spt= 0.00> <nCl=  0> <DB=  167.0000> <Mlp=  167.0000> <PB=1000000> 
<DWph=1> <it=  2> <et=38.17> <Mt= 0.00> <Spt= 0.00> <nCl=  0> <DB=  167.0000> <Mlp=  167.0000> <PB=1000000> 
---- Diving heuristic node with dive number = 0, fix depth = 0 and tabu list size = 0
Fixed projected solution = [x_1_0_1_OspV=1, x_1_186_1_OspV=1, x_1_254_1_OspV=1, x_1_400_1_OspV=1]
<DWph=2> <it=  1> <et=38.26> <Mt= 0.01> <Spt= 0.00> <nCl=  0> <DB=  167.0000> <Mlp=  167.0000> <PB=1000000> 
<DWph=1> <it=  2> <et=38.26> <Mt= 0.00> <Spt= 0.00> <nCl=  0> <DB=  167.0000> <Mlp=  167.0000> <PB=1000000> 
---- Diving heuristic node with dive number = 0, fix depth = 0 and tabu list size = 0
Fixed projected solution = [x_1_0_1_OspV=1, x_1_14_1_OspV=1, x_1_16_1_OspV=1, x_1_500_1_OspV=1]
<DWph=2> <it=  1> <et=38.36> <Mt= 0.00> <Spt= 0.00> <nCl=  0> <DB=  167.0000> <Mlp=  167.0000> <PB=1000000> 
<DWph=1> <it=  2> <et=38.36> <Mt= 0.01> <Spt= 0.00> <nCl=  0> <DB=  167.0000> <Mlp=  167.0000> <PB=1000000> 
---- Diving heuristic node with dive number = 0, fix depth = 0 and tabu list size = 0
Fixed projected solution = [x_1_0_1_OspV=1, x_1_198_1_OspV=1, x_1_236_1_OspV=1, x_1_405_1_OspV=1]
<DWph=2> <it=  1> <et=38.46> <Mt= 0.00> <Spt= 0.00> <nCl=  0> <DB=  167.0000> <Mlp=  167.0000> <PB=1000000> 
<DWph=1> <it=  2> <et=38.46> <Mt= 0.00> <Spt= 0.00> <nCl=  0> <DB=  167.0000> <Mlp=  167.0000> <PB=1000000> 
---- Diving heuristic node with dive number = 0, fix depth = 0 and tabu list size = 0
Fixed projected solution = [x_1_0_1_OspV=1, x_1_1_1_OspV=1, x_1_15_1_OspV=1, x_1_501_1_OspV=1]
<DWph=2> <it=  1> <et=38.56> <Mt= 0.01> <Spt= 0.00> <nCl=  0> <DB=  167.0000> <Mlp=  167.0000> <PB=1000000> 
<DWph=1> <it=  2> <et=38.56> <Mt= 0.00> <Spt= 0.00> <nCl=  0> <DB=  167.0000> <Mlp=  167.0000> <PB=1000000> 
---- Diving heuristic node with dive number = 0, fix depth = 0 and tabu list size = 0
Fixed projected solution = [x_1_0_1_OspV=1, x_1_156_1_OspV=1, x_1_258_1_OspV=1, x_1_406_1_OspV=1]
<DWph=2> <it=  1> <et=38.65> <Mt= 0.00> <Spt= 0.00> <nCl=  0> <DB=  167.0000> <Mlp=  167.0000> <PB=1000000> 
<DWph=1> <it=  2> <et=38.65> <Mt= 0.00> <Spt= 0.00> <nCl=  0> <DB=  167.0000> <Mlp=  167.0000> <PB=1000000> 
---- Diving heuristic node with dive number = 0, fix depth = 0 and tabu list size = 0
Fixed projected solution = [x_1_0_1_OspV=1, x_1_74_1_OspV=1, x_1_171_1_OspV=1, x_1_460_1_OspV=1]
<DWph=2> <it=  1> <et=38.75> <Mt= 0.01> <Spt= 0.00> <nCl=  0> <DB=  167.0000> <Mlp=  167.0000> <PB=1000000> 
<DWph=1> <it=  2> <et=38.75> <Mt= 0.00> <Spt= 0.00> <nCl=  0> <DB=  167.0000> <Mlp=  167.0000> <PB=1000000> 
---- Diving heuristic node with dive number = 0, fix depth = 1 and tabu list size = 0
Fixed projected solution = [x_1_0_1_OspV=1, x_1_77_1_OspV=1, x_1_308_1_OspV=1, x_1_382_1_OspV=1]
<DWph=2> <it=  1> <et=38.85> <Mt= 0.02> <Spt= 0.00> <nCl=  0> <DB=  167.0000> <Mlp=  167.0000> <PB=1000000> 
<DWph=1> <it=  2> <et=38.85> <Mt= 0.01> <Spt= 0.00> <nCl=  0> <DB=  167.0000> <Mlp=  167.0000> <PB=1000000> 
---- Diving heuristic node with dive number = 0, fix depth = 1 and tabu list size = 0
Fixed projected solution = [x_1_0_1_OspV=1, x_1_172_1_OspV=1, x_1_285_1_OspV=1, x_1_386_1_OspV=1]
<DWph=2> <it=  1> <et=38.95> <Mt= 0.00> <Spt= 0.00> <nCl=  0> <DB=  167.0000> <Mlp=  167.0000> <PB=1000000> 
<DWph=1> <it=  2> <et=38.95> <Mt= 0.00> <Spt= 0.00> <nCl=  0> <DB=  167.0000> <Mlp=  167.0000> <PB=1000000> 
---- Diving heuristic node with dive number = 0, fix depth = 1 and tabu list size = 0
Fixed projected solution = [x_1_0_1_OspV=1, x_1_63_1_OspV=1, x_1_281_1_OspV=1, x_1_411_1_OspV=1]
<DWph=2> <it=  1> <et=39.04> <Mt= 0.00> <Spt= 0.00> <nCl=  0> <DB=  167.0000> <Mlp=  167.0000> <PB=1000000> 
<DWph=1> <it=  2> <et=39.04> <Mt= 0.00> <Spt= 0.00> <nCl=  0> <DB=  167.0000> <Mlp=  167.0000> <PB=1000000> 
---- Diving heuristic node with dive number = 0, fix depth = 2 and tabu list size = 0
Fixed projected solution = [x_1_0_1_OspV=1, x_1_59_1_OspV=1, x_1_265_1_OspV=1, x_1_422_1_OspV=1]
<DWph=2> <it=  1> <et=39.13> <Mt= 0.02> <Spt= 0.00> <nCl=  0> <DB=  167.0000> <Mlp=  167.0000> <PB=1000000> 
<DWph=1> <it=  2> <et=39.13> <Mt= 0.00> <Spt= 0.00> <nCl=  0> <DB=  167.0000> <Mlp=  167.0000> <PB=1000000> 
---- Diving heuristic node with dive number = 0, fix depth = 2 and tabu list size = 0
Fixed projected solution = [x_1_0_1_OspV=1, x_1_177_1_OspV=1, x_1_264_1_OspV=1, x_1_397_1_OspV=1]
<DWph=2> <it=  1> <et=39.15> <Mt= 0.01> <Spt= 0.00> <nCl=  0> <DB=  167.0000> <Mlp=  167.0000> <PB=1000000> 
<DWph=1> <it=  2> <et=39.15> <Mt= 0.00> <Spt= 0.00> <nCl=  0> <DB=  167.0000> <Mlp=  167.0000> <PB=1000000> 
---- Diving heuristic node with dive number = 0, fix depth = 3 and tabu list size = 0
Fixed projected solution = [x_1_0_1_OspV=1, x_1_49_1_OspV=1, x_1_280_1_OspV=1, x_1_414_1_OspV=1]
<DWph=2> <it=  1> <et=39.20> <Mt= 0.03> <Spt= 0.00> <nCl=  0> <DB=  167.0000> <Mlp=  167.0000> <PB=1000000> 
<DWph=1> <it=  2> <et=39.20> <Mt= 0.00> <Spt= 0.00> <nCl=  0> <DB=  167.0000> <Mlp=  167.0000> <PB=1000000> 
---- Diving heuristic node with dive number = 0, fix depth = 3 and tabu list size = 0
Fixed projected solution = [x_1_0_1_OspV=1, x_1_101_1_OspV=1, x_1_104_1_OspV=1, x_1_475_1_OspV=1]
<DWph=2> <it=  1> <et=39.21> <Mt= 0.01> <Spt= 0.00> <nCl=  0> <DB=  167.0000> <Mlp=  167.0000> <PB=1000000> 
<DWph=1> <it=  2> <et=39.21> <Mt= 0.00> <Spt= 0.00> <nCl=  0> <DB=  167.0000> <Mlp=  167.0000> <PB=1000000> 
---- Diving heuristic node with dive number = 0, fix depth = 4 and tabu list size = 0
Fixed projected solution = [x_1_0_1_OspV=1, x_1_20_1_OspV=1, x_1_33_1_OspV=1, x_1_499_1_OspV=1]
<DWph=2> <it=  1> <et=39.26> <Mt= 0.03> <Spt= 0.00> <nCl=  0> <DB=  167.0000> <Mlp=  167.0000> <PB=1000000> 
<DWph=1> <it=  2> <et=39.26> <Mt= 0.00> <Spt= 0.00> <nCl=  0> <DB=  167.0000> <Mlp=  167.0000> <PB=1000000> 
---- Diving heuristic node with dive number = 0, fix depth = 5 and tabu list size = 0
Fixed projected solution = [x_1_0_1_OspV=1, x_1_126_1_OspV=1, x_1_211_1_OspV=1, x_1_439_1_OspV=1]
<DWph=2> <it=  1> <et=39.32> <Mt= 0.05> <Spt= 0.00> <nCl=  0> <DB=  167.0000> <Mlp=  167.0000> <PB=1000000> 
<DWph=1> <it=  2> <et=39.33> <Mt= 0.00> <Spt= 0.00> <nCl=  0> <DB=  167.0000> <Mlp=  167.0000> <PB=1000000> 
---- Diving heuristic node with dive number = 0, fix depth = 6 and tabu list size = 0
Fixed projected solution = [x_1_0_1_OspV=1, x_1_187_1_OspV=1, x_1_287_1_OspV=1, x_1_377_1_OspV=1]
<DWph=2> <it=  1> <et=39.36> <Mt= 0.02> <Spt= 0.00> <nCl=  0> <DB=  167.0000> <Mlp=  167.0000> <PB=1000000> 
<DWph=1> <it=  2> <et=39.36> <Mt= 0.00> <Spt= 0.00> <nCl=  0> <DB=  167.0000> <Mlp=  167.0000> <PB=1000000> 
---- Diving heuristic node with dive number = 0, fix depth = 7 and tabu list size = 0
Fixed projected solution = [x_1_0_1_OspV=1, x_1_105_1_OspV=1, x_1_207_1_OspV=1, x_1_447_1_OspV=1]
<DWph=2> <it=  1> <et=39.42> <Mt= 0.05> <Spt= 0.00> <nCl=  0> <DB=  167.0000> <Mlp=  167.0000> <PB=1000000> 
<DWph=1> <it=  2> <et=39.42> <Mt= 0.00> <Spt= 0.00> <nCl=  0> <DB=  167.0000> <Mlp=  167.0000> <PB=1000000> 
---- Diving heuristic node with dive number = 0, fix depth = 8 and tabu list size = 0
Fixed projected solution = [x_1_0_1_OspV=1, x_1_283_1_OspV=1, x_1_290_1_OspV=1, x_1_291_1_OspV=1]
<DWph=2> <it=  1> <et=39.48> <Mt= 0.05> <Spt= 0.00> <nCl=  0> <DB=  167.0000> <Mlp=  167.0000> <PB=1000000> 
<DWph=1> <it=  2> <et=39.48> <Mt= 0.00> <Spt= 0.00> <nCl=  0> <DB=  167.0000> <Mlp=  167.0000> <PB=1000000> 
---- Diving heuristic node with dive number = 0, fix depth = 9 and tabu list size = 0
Fixed projected solution = [x_1_0_1_OspV=1, x_1_167_1_OspV=1, x_1_169_1_OspV=1, x_1_442_1_OspV=1]
<DWph=2> <it=  1> <et=39.52> <Mt= 0.02> <Spt= 0.00> <nCl=  0> <DB=  167.0000> <Mlp=  167.0000> <PB=1000000> 
<DWph=1> <it=  2> <et=39.52> <Mt= 0.00> <Spt= 0.00> <nCl=  0> <DB=  167.0000> <Mlp=  167.0000> <PB=1000000> 
---- Diving heuristic node with dive number = 0, fix depth = 10 and tabu list size = 0
Fixed projected solution = [x_1_0_1_OspV=1, x_1_125_1_OspV=1, x_1_339_1_OspV=1, x_1_340_1_OspV=1]
<DWph=2> <it=  1> <et=39.57> <Mt= 0.04> <Spt= 0.00> <nCl=  0> <DB=  167.0000> <Mlp=  167.0000> <PB=1000000> 
<DWph=1> <it=  2> <et=39.57> <Mt= 0.00> <Spt= 0.00> <nCl=  0> <DB=  167.0000> <Mlp=  167.0000> <PB=1000000> 
---- Diving heuristic node with dive number = 0, fix depth = 11 and tabu list size = 0
Fixed projected solution = [x_1_0_1_OspV=1, x_1_4_1_OspV=1, x_1_88_1_OspV=1, x_1_488_1_OspV=1]
<DWph=2> <it=  1> <et=39.63> <Mt= 0.05> <Spt= 0.00> <nCl=  0> <DB=  167.0000> <Mlp=  167.0000> <PB=1000000> 
<DWph=1> <it=  2> <et=39.63> <Mt= 0.00> <Spt= 0.00> <nCl=  0> <DB=  167.0000> <Mlp=  167.0000> <PB=1000000> 
---- Diving heuristic node with dive number = 0, fix depth = 12 and tabu list size = 0
Fixed projected solution = [x_1_0_1_OspV=1, x_1_81_1_OspV=1, x_1_354_1_OspV=1, x_1_355_1_OspV=1]
<DWph=2> <it=  1> <et=39.70> <Mt= 0.06> <Spt= 0.00> <nCl=  0> <DB=  167.0000> <Mlp=  167.0000> <PB=1000000> 
<DWph=1> <it=  2> <et=39.70> <Mt= 0.00> <Spt= 0.00> <nCl=  0> <DB=  167.0000> <Mlp=  167.0000> <PB=1000000> 
---- Diving heuristic node with dive number = 0, fix depth = 13 and tabu list size = 0
Fixed projected solution = [x_1_0_1_OspV=1, x_1_147_1_OspV=1, x_1_221_1_OspV=1, x_1_431_1_OspV=1]
<DWph=2> <it=  1> <et=39.74> <Mt= 0.02> <Spt= 0.00> <nCl=  0> <DB=  167.0000> <Mlp=  167.0000> <PB=1000000> 
<DWph=1> <it=  2> <et=39.74> <Mt= 0.01> <Spt= 0.00> <nCl=  0> <DB=  167.0000> <Mlp=  167.0000> <PB=1000000> 
---- Diving heuristic node with dive number = 0, fix depth = 14 and tabu list size = 0
Fixed projected solution = [x_1_0_1_OspV=1, x_1_185_1_OspV=1, x_1_311_1_OspV=1, x_1_330_1_OspV=1]
<DWph=2> <it=  1> <et=39.78> <Mt= 0.03> <Spt= 0.00> <nCl=  0> <DB=  167.0000> <Mlp=  167.0000> <PB=1000000> 
<DWph=1> <it=  2> <et=39.78> <Mt= 0.00> <Spt= 0.00> <nCl=  0> <DB=  167.0000> <Mlp=  167.0000> <PB=1000000> 
---- Diving heuristic node with dive number = 0, fix depth = 15 and tabu list size = 0
Fixed projected solution = [x_1_0_1_OspV=1, x_1_73_1_OspV=1, x_1_337_1_OspV=1, x_1_365_1_OspV=1]
<DWph=2> <it=  1> <et=39.83> <Mt= 0.03> <Spt= 0.00> <nCl=  0> <DB=  167.0000> <Mlp=  167.0000> <PB=1000000> 
<DWph=1> <it=  2> <et=39.83> <Mt= 0.01> <Spt= 0.00> <nCl=  0> <DB=  167.0000> <Mlp=  167.0000> <PB=1000000> 
---- Diving heuristic node with dive number = 0, fix depth = 16 and tabu list size = 0
Fixed projected solution = [x_1_0_1_OspV=1, x_1_151_1_OspV=1, x_1_256_1_OspV=1, x_1_410_1_OspV=1]
<DWph=2> <it=  1> <et=39.92> <Mt= 0.07> <Spt= 0.00> <nCl=  0> <DB=  167.0000> <Mlp=  167.0000> <PB=1000000> 
<DWph=1> <it=  2> <et=39.93> <Mt= 0.01> <Spt= 0.00> <nCl=  0> <DB=  167.0000> <Mlp=  167.0000> <PB=1000000> 
---- Diving heuristic node with dive number = 0, fix depth = 17 and tabu list size = 0
Fixed projected solution = [x_1_0_1_OspV=1, x_1_226_1_OspV=1, x_1_262_1_OspV=1, x_1_383_1_OspV=1]
<DWph=2> <it=  1> <et=40.00> <Mt= 0.06> <Spt= 0.00> <nCl=  0> <DB=  167.0000> <Mlp=  167.0000> <PB=1000000> 
<DWph=1> <it=  2> <et=40.01> <Mt= 0.00> <Spt= 0.00> <nCl=  0> <DB=  167.0000> <Mlp=  167.0000> <PB=1000000> 
---- Diving heuristic node with dive number = 0, fix depth = 18 and tabu list size = 0
Fixed projected solution = [x_1_0_1_OspV=1, x_1_114_1_OspV=1, x_1_305_1_OspV=1, x_1_376_1_OspV=1]
<DWph=2> <it=  1> <et=40.10> <Mt= 0.09> <Spt= 0.00> <nCl=  0> <DB=  167.0000> <Mlp=  167.0000> <PB=1000000> 
<DWph=1> <it=  2> <et=40.10> <Mt= 0.00> <Spt= 0.00> <nCl=  0> <DB=  167.0000> <Mlp=  167.0000> <PB=1000000> 
---- Diving heuristic node with dive number = 0, fix depth = 19 and tabu list size = 0
Fixed projected solution = [x_1_0_1_OspV=1, x_1_94_1_OspV=1, x_1_270_1_OspV=1, x_1_413_1_OspV=1]
<DWph=2> <it=  1> <et=40.29> <Mt= 0.18> <Spt= 0.00> <nCl=  0> <DB=  167.0000> <Mlp=  167.0000> <PB=1000000> 
<DWph=1> <it=  2> <et=40.29> <Mt= 0.00> <Spt= 0.00> <nCl=  0> <DB=  167.0000> <Mlp=  167.0000> <PB=1000000> 
---- Diving heuristic node with dive number = 0, fix depth = 19 and tabu list size = 0
Fixed projected solution = [x_1_0_1_OspV=1, x_1_140_1_OspV=1, x_1_306_1_OspV=1, x_1_364_1_OspV=1]
<DWph=2> <it=  1> <et=40.31> <Mt= 0.00> <Spt= 0.00> <nCl=  0> <DB=  167.0000> <Mlp=  167.0000> <PB=1000000> 
<DWph=1> <it=  2> <et=40.31> <Mt= 0.00> <Spt= 0.00> <nCl=  0> <DB=  167.0000> <Mlp=  167.0000> <PB=1000000> 
---- Diving heuristic node with dive number = 0, fix depth = 20 and tabu list size = 0
Fixed projected solution = [x_1_0_1_OspV=1, x_1_201_1_OspV=1, x_1_307_1_OspV=1, x_1_326_1_OspV=1]
<DWph=2> <it=  1> <et=40.33> <Mt= 0.01> <Spt= 0.00> <nCl=  0> <DB=  167.0000> <Mlp=  167.0000> <PB=1000000> 
<DWph=1> <it=  2> <et=40.33> <Mt= 0.00> <Spt= 0.00> <nCl=  0> <DB=  167.0000> <Mlp=  167.0000> <PB=1000000> 
---- Diving heuristic node with dive number = 0, fix depth = 21 and tabu list size = 0
Fixed projected solution = [x_1_0_1_OspV=1, x_1_161_1_OspV=1, x_1_230_1_OspV=1, x_1_420_1_OspV=1]
<DWph=2> <it=  1> <et=40.37> <Mt= 0.03> <Spt= 0.00> <nCl=  0> <DB=  167.0000> <Mlp=  167.0000> <PB=1000000> 
<DWph=1> <it=  2> <et=40.37> <Mt= 0.00> <Spt= 0.00> <nCl=  0> <DB=  167.0000> <Mlp=  167.0000> <PB=1000000> 
---- Diving heuristic node with dive number = 0, fix depth = 22 and tabu list size = 0
Fixed projected solution = [x_1_0_1_OspV=1, x_1_200_1_OspV=1, x_1_317_1_OspV=1, x_1_318_1_OspV=1]
<DWph=2> <it=  1> <et=40.45> <Mt= 0.07> <Spt= 0.00> <nCl=  0> <DB=  167.0000> <Mlp=  167.0000> <PB=1000000> 
<DWph=1> <it=  2> <et=40.45> <Mt= 0.00> <Spt= 0.00> <nCl=  0> <DB=  167.0000> <Mlp=  167.0000> <PB=1000000> 
---- Diving heuristic node with dive number = 0, fix depth = 23 and tabu list size = 0
Fixed projected solution = [x_1_0_1_OspV=1, x_1_42_1_OspV=1, x_1_48_1_OspV=1, x_1_491_1_OspV=1]
<DWph=2> <it=  1> <et=40.57> <Mt= 0.11> <Spt= 0.00> <nCl=  0> <DB=  167.0000> <Mlp=  167.0000> <PB=1000000> 
<DWph=1> <it=  2> <et=40.57> <Mt= 0.00> <Spt= 0.00> <nCl=  0> <DB=  167.0000> <Mlp=  167.0000> <PB=1000000> 
---- Diving heuristic node with dive number = 0, fix depth = 23 and tabu list size = 0
Fixed projected solution = [x_1_0_1_OspV=1, x_1_96_1_OspV=1, x_1_109_1_OspV=1, x_1_476_1_OspV=1]
<DWph=2> <it=  1> <et=40.59> <Mt= 0.00> <Spt= 0.00> <nCl=  0> <DB=  167.0000> <Mlp=  167.0000> <PB=1000000> 
<DWph=1> <it=  2> <et=40.59> <Mt= 0.00> <Spt= 0.00> <nCl=  0> <DB=  167.0000> <Mlp=  167.0000> <PB=1000000> 
---- Diving heuristic node with dive number = 0, fix depth = 23 and tabu list size = 0
Fixed projected solution = [x_1_0_1_OspV=1, x_1_12_1_OspV=1, x_1_43_1_OspV=1, x_1_498_1_OspV=1]
<DWph=2> <it=  1> <et=40.60> <Mt= 0.00> <Spt= 0.00> <nCl=  0> <DB=  167.0000> <Mlp=  167.0000> <PB=1000000> 
<DWph=1> <it=  2> <et=40.60> <Mt= 0.00> <Spt= 0.00> <nCl=  0> <DB=  167.0000> <Mlp=  167.0000> <PB=1000000> 
---- Diving heuristic node with dive number = 0, fix depth = 24 and tabu list size = 0
Fixed projected solution = [x_1_0_1_OspV=1, x_1_67_1_OspV=1, x_1_87_1_OspV=1, x_1_482_1_OspV=1]
<DWph=2> <it=  1> <et=40.62> <Mt= 0.01> <Spt= 0.00> <nCl=  0> <DB=  167.0000> <Mlp=  167.0000> <PB=1000000> 
<DWph=1> <it=  2> <et=40.62> <Mt= 0.00> <Spt= 0.00> <nCl=  0> <DB=  167.0000> <Mlp=  167.0000> <PB=1000000> 
---- Diving heuristic node with dive number = 0, fix depth = 25 and tabu list size = 0
Fixed projected solution = [x_1_0_1_OspV=1, x_1_52_1_OspV=1, x_1_202_1_OspV=1, x_1_456_1_OspV=1]
<DWph=2> <it=  1> <et=40.74> <Mt= 0.11> <Spt= 0.00> <nCl=  0> <DB=  167.0000> <Mlp=  167.0000> <PB=1000000> 
<DWph=1> <it=  2> <et=40.74> <Mt= 0.00> <Spt= 0.00> <nCl=  0> <DB=  167.0000> <Mlp=  167.0000> <PB=1000000> 
---- Diving heuristic node with dive number = 0, fix depth = 25 and tabu list size = 0
Fixed projected solution = [x_1_0_1_OspV=1, x_1_110_1_OspV=1, x_1_332_1_OspV=1, x_1_359_1_OspV=1]
<DWph=2> <it=  1> <et=40.75> <Mt= 0.00> <Spt= 0.00> <nCl=  0> <DB=  167.0000> <Mlp=  167.0000> <PB=1000000> 
<DWph=1> <it=  2> <et=40.76> <Mt= 0.00> <Spt= 0.00> <nCl=  0> <DB=  167.0000> <Mlp=  167.0000> <PB=1000000> 
---- Diving heuristic node with dive number = 0, fix depth = 26 and tabu list size = 0
Fixed projected solution = [x_1_0_1_OspV=1, x_1_178_1_OspV=1, x_1_245_1_OspV=1, x_1_404_1_OspV=1]
<DWph=2> <it=  1> <et=40.85> <Mt= 0.09> <Spt= 0.00> <nCl=  0> <DB=  167.0000> <Mlp=  167.0000> <PB=1000000> 
<DWph=1> <it=  2> <et=40.85> <Mt= 0.00> <Spt= 0.00> <nCl=  0> <DB=  167.0000> <Mlp=  167.0000> <PB=1000000> 
---- Diving heuristic node with dive number = 0, fix depth = 27 and tabu list size = 0
Fixed projected solution = [x_1_0_1_OspV=1, x_1_60_1_OspV=1, x_1_273_1_OspV=1, x_1_416_1_OspV=1]
<DWph=2> <it=  1> <et=40.92> <Mt= 0.06> <Spt= 0.00> <nCl=  0> <DB=  167.0000> <Mlp=  167.0000> <PB=1000000> 
<DWph=1> <it=  2> <et=40.92> <Mt= 0.00> <Spt= 0.00> <nCl=  0> <DB=  167.0000> <Mlp=  167.0000> <PB=1000000> 
---- Diving heuristic node with dive number = 0, fix depth = 28 and tabu list size = 0
Fixed projected solution = [x_1_0_1_OspV=1, x_1_82_1_OspV=1, x_1_191_1_OspV=1, x_1_453_1_OspV=1]
<DWph=2> <it=  2> <et=41.31> <Mt= 0.14> <Spt= 0.23> <nCl=100> <DB=  153.9952> <Mlp=  167.0000> <PB=1000000> 
<DWph=1> <it=  3> <et=41.31> <Mt= 0.00> <Spt= 0.00> <nCl=  0> <DB=  167.0000> <Mlp=  167.0000> <PB=1000000> 
---- Diving heuristic node with dive number = 0, fix depth = 29 and tabu list size = 0
Fixed projected solution = [x_1_0_1_OspV=1, x_1_2_1_OspV=1, x_1_362_1_OspV=1, x_1_363_1_OspV=1]
<DWph=2> <it=  1> <et=41.35> <Mt= 0.02> <Spt= 0.00> <nCl=  0> <DB=  167.0000> <Mlp=  167.0000> <PB=1000000> 
<DWph=1> <it=  2> <et=41.35> <Mt= 0.00> <Spt= 0.00> <nCl=  0> <DB=  167.0000> <Mlp=  167.0000> <PB=1000000> 
---- Diving heuristic node with dive number = 0, fix depth = 29 and tabu list size = 0
Fixed projected solution = [x_1_0_1_OspV=1, x_1_17_1_OspV=1, x_1_71_1_OspV=1, x_1_489_1_OspV=1]
<DWph=2> <it=  1> <et=41.36> <Mt= 0.00> <Spt= 0.00> <nCl=  0> <DB=  167.0000> <Mlp=  167.0000> <PB=1000000> 
<DWph=1> <it=  2> <et=41.37> <Mt= 0.00> <Spt= 0.00> <nCl=  0> <DB=  167.0000> <Mlp=  167.0000> <PB=1000000> 
---- Diving heuristic node with dive number = 0, fix depth = 30 and tabu list size = 0
Fixed projected solution = [x_1_0_1_OspV=1, x_1_7_1_OspV=1, x_1_176_1_OspV=1, x_1_473_1_OspV=1]
<DWph=2> <it=  1> <et=41.43> <Mt= 0.06> <Spt= 0.00> <nCl=  0> <DB=  167.0000> <Mlp=  167.0000> <PB=1000000> 
<DWph=1> <it=  2> <et=41.43> <Mt= 0.00> <Spt= 0.00> <nCl=  0> <DB=  167.0000> <Mlp=  167.0000> <PB=1000000> 
---- Diving heuristic node with dive number = 0, fix depth = 31 and tabu list size = 0
Fixed projected solution = [x_1_0_1_OspV=1, x_1_76_1_OspV=1, x_1_297_1_OspV=1, x_1_393_1_OspV=1]
<DWph=2> <it=  1> <et=41.51> <Mt= 0.07> <Spt= 0.00> <nCl=  0> <DB=  167.0000> <Mlp=  167.0000> <PB=1000000> 
<DWph=1> <it=  2> <et=41.51> <Mt= 0.00> <Spt= 0.00> <nCl=  0> <DB=  167.0000> <Mlp=  167.0000> <PB=1000000> 
---- Diving heuristic node with dive number = 0, fix depth = 32 and tabu list size = 0
Fixed projected solution = [x_1_0_1_OspV=1, x_1_182_1_OspV=1, x_1_205_1_OspV=1, x_1_426_1_OspV=1]
<DWph=2> <it=  1> <et=41.59> <Mt= 0.07> <Spt= 0.00> <nCl=  0> <DB=  167.0000> <Mlp=  167.0000> <PB=1000000> 
<DWph=1> <it=  2> <et=41.60> <Mt= 0.00> <Spt= 0.00> <nCl=  0> <DB=  167.0000> <Mlp=  167.0000> <PB=1000000> 
---- Diving heuristic node with dive number = 0, fix depth = 33 and tabu list size = 0
Fixed projected solution = [x_1_0_1_OspV=1, x_1_158_1_OspV=1, x_1_272_1_OspV=1, x_1_395_1_OspV=1]
<DWph=2> <it=  1> <et=41.69> <Mt= 0.08> <Spt= 0.00> <nCl=  0> <DB=  167.0000> <Mlp=  167.0000> <PB=1000000> 
<DWph=1> <it=  2> <et=41.69> <Mt= 0.00> <Spt= 0.00> <nCl=  0> <DB=  167.0000> <Mlp=  167.0000> <PB=1000000> 
---- Diving heuristic node with dive number = 0, fix depth = 34 and tabu list size = 0
Fixed projected solution = [x_1_0_1_OspV=1, x_1_216_1_OspV=1, x_1_217_1_OspV=1, x_1_409_1_OspV=1]
<DWph=2> <it=  1> <et=41.77> <Mt= 0.07> <Spt= 0.00> <nCl=  0> <DB=  167.0000> <Mlp=  167.0000> <PB=1000000> 
<DWph=1> <it=  2> <et=41.77> <Mt= 0.00> <Spt= 0.00> <nCl=  0> <DB=  167.0000> <Mlp=  167.0000> <PB=1000000> 
---- Diving heuristic node with dive number = 0, fix depth = 35 and tabu list size = 0
Fixed projected solution = [x_1_0_1_OspV=1, x_1_84_1_OspV=1, x_1_329_1_OspV=1, x_1_369_1_OspV=1]
<DWph=2> <it=  1> <et=41.81> <Mt= 0.03> <Spt= 0.00> <nCl=  0> <DB=  167.0000> <Mlp=  167.0000> <PB=1000000> 
<DWph=1> <it=  2> <et=41.81> <Mt= 0.00> <Spt= 0.00> <nCl=  0> <DB=  167.0000> <Mlp=  167.0000> <PB=1000000> 
---- Diving heuristic node with dive number = 0, fix depth = 36 and tabu list size = 0
Fixed projected solution = [x_1_0_1_OspV=1, x_1_75_1_OspV=1, x_1_165_1_OspV=1, x_1_462_1_OspV=1]
<DWph=2> <it=  1> <et=41.90> <Mt= 0.07> <Spt= 0.00> <nCl=  0> <DB=  167.0000> <Mlp=  167.0000> <PB=1000000> 
<DWph=1> <it=  2> <et=41.90> <Mt= 0.00> <Spt= 0.00> <nCl=  0> <DB=  167.0000> <Mlp=  167.0000> <PB=1000000> 
---- Diving heuristic node with dive number = 0, fix depth = 37 and tabu list size = 0
Fixed projected solution = [x_1_0_1_OspV=1, x_1_196_1_OspV=1, x_1_278_1_OspV=1, x_1_384_1_OspV=1]
<DWph=2> <it=  1> <et=41.96> <Mt= 0.06> <Spt= 0.00> <nCl=  0> <DB=  167.0000> <Mlp=  167.0000> <PB=1000000> 
<DWph=1> <it=  2> <et=41.97> <Mt= 0.00> <Spt= 0.00> <nCl=  0> <DB=  167.0000> <Mlp=  167.0000> <PB=1000000> 
---- Diving heuristic node with dive number = 0, fix depth = 38 and tabu list size = 0
Fixed projected solution = [x_1_0_1_OspV=1, x_1_85_1_OspV=1, x_1_313_1_OspV=1, x_1_379_1_OspV=1]
<DWph=2> <it=  2> <et=42.33> <Mt= 0.17> <Spt= 0.18> <nCl=100> <DB=  165.2904> <Mlp=  167.0000> <PB=1000000> 
<DWph=1> <it=  3> <et=42.33> <Mt= 0.00> <Spt= 0.00> <nCl=  0> <DB=  167.0000> <Mlp=  167.0000> <PB=1000000> 
---- Diving heuristic node with dive number = 0, fix depth = 39 and tabu list size = 0
Fixed projected solution = [x_1_0_1_OspV=1, x_1_212_1_OspV=1, x_1_310_1_OspV=1, x_1_312_1_OspV=1]
<DWph=2> <it=  1> <et=42.40> <Mt= 0.05> <Spt= 0.00> <nCl=  0> <DB=  167.0000> <Mlp=  167.0000> <PB=1000000> 
<DWph=1> <it=  2> <et=42.40> <Mt= 0.00> <Spt= 0.00> <nCl=  0> <DB=  167.0000> <Mlp=  167.0000> <PB=1000000> 
---- Diving heuristic node with dive number = 0, fix depth = 40 and tabu list size = 0
Fixed projected solution = [x_1_0_1_OspV=1, x_1_25_1_OspV=1, x_1_193_1_OspV=1, x_1_463_1_OspV=1]
<DWph=2> <it=  1> <et=42.47> <Mt= 0.05> <Spt= 0.00> <nCl=  0> <DB=  167.0000> <Mlp=  167.0000> <PB=1000000> 
<DWph=1> <it=  2> <et=42.47> <Mt= 0.00> <Spt= 0.00> <nCl=  0> <DB=  167.0000> <Mlp=  167.0000> <PB=1000000> 
---- Diving heuristic node with dive number = 0, fix depth = 41 and tabu list size = 0
Fixed projected solution = [x_1_0_1_OspV=1, x_1_61_1_OspV=1, x_1_277_1_OspV=1, x_1_415_1_OspV=1]
<DWph=2> <it=  1> <et=42.57> <Mt= 0.09> <Spt= 0.00> <nCl=  0> <DB=  167.0000> <Mlp=  167.0000> <PB=1000000> 
<DWph=1> <it=  2> <et=42.57> <Mt= 0.00> <Spt= 0.00> <nCl=  0> <DB=  167.0000> <Mlp=  167.0000> <PB=1000000> 
---- Diving heuristic node with dive number = 0, fix depth = 42 and tabu list size = 0
Fixed projected solution = [x_1_0_1_OspV=1, x_1_184_1_OspV=1, x_1_239_1_OspV=1, x_1_408_1_OspV=1]
<DWph=2> <it=  1> <et=42.67> <Mt= 0.08> <Spt= 0.00> <nCl=  0> <DB=  167.0000> <Mlp=  167.0000> <PB=1000000> 
<DWph=1> <it=  2> <et=42.67> <Mt= 0.00> <Spt= 0.00> <nCl=  0> <DB=  167.0000> <Mlp=  167.0000> <PB=1000000> 
---- Diving heuristic node with dive number = 0, fix depth = 43 and tabu list size = 0
Fixed projected solution = [x_1_0_1_OspV=1, x_1_150_1_OspV=1, x_1_289_1_OspV=1, x_1_388_1_OspV=1]
<DWph=2> <it=  1> <et=42.92> <Mt= 0.24> <Spt= 0.00> <nCl=  0> <DB=  167.0000> <Mlp=  167.0000> <PB=1000000> 
<DWph=1> <it=  2> <et=42.92> <Mt= 0.00> <Spt= 0.00> <nCl=  0> <DB=  167.0000> <Mlp=  167.0000> <PB=1000000> 
---- Diving heuristic node with dive number = 0, fix depth = 43 and tabu list size = 0
Fixed projected solution = [x_1_0_1_OspV=1, x_1_160_1_OspV=1, x_1_316_1_OspV=1, x_1_347_1_OspV=1]
<DWph=2> <it=  1> <et=42.93> <Mt= 0.01> <Spt= 0.00> <nCl=  0> <DB=  167.0000> <Mlp=  167.0000> <PB=1000000> 
<DWph=1> <it=  2> <et=42.93> <Mt= 0.00> <Spt= 0.00> <nCl=  0> <DB=  167.0000> <Mlp=  167.0000> <PB=1000000> 
---- Diving heuristic node with dive number = 0, fix depth = 44 and tabu list size = 0
Fixed projected solution = [x_1_0_1_OspV=1, x_1_108_1_OspV=1, x_1_315_1_OspV=1, x_1_374_1_OspV=1]
<DWph=2> <it=  1> <et=42.99> <Mt= 0.04> <Spt= 0.00> <nCl=  0> <DB=  167.0000> <Mlp=  167.0000> <PB=1000000> 
<DWph=1> <it=  2> <et=42.99> <Mt= 0.00> <Spt= 0.00> <nCl=  0> <DB=  167.0000> <Mlp=  167.0000> <PB=1000000> 
---- Diving heuristic node with dive number = 0, fix depth = 45 and tabu list size = 0
Fixed projected solution = [x_1_0_1_OspV=1, x_1_139_1_OspV=1, x_1_213_1_OspV=1, x_1_435_1_OspV=1]
<DWph=2> <it=  1> <et=43.10> <Mt= 0.10> <Spt= 0.00> <nCl=  0> <DB=  167.0000> <Mlp=  167.0000> <PB=1000000> 
<DWph=1> <it=  2> <et=43.11> <Mt= 0.01> <Spt= 0.00> <nCl=  0> <DB=  167.0000> <Mlp=  167.0000> <PB=1000000> 
---- Diving heuristic node with dive number = 0, fix depth = 46 and tabu list size = 0
Fixed projected solution = [x_1_0_1_OspV=1, x_1_145_1_OspV=1, x_1_215_1_OspV=1, x_1_432_1_OspV=1]
<DWph=2> <it=  1> <et=43.15> <Mt= 0.03> <Spt= 0.00> <nCl=  0> <DB=  167.0000> <Mlp=  167.0000> <PB=1000000> 
<DWph=1> <it=  2> <et=43.15> <Mt= 0.00> <Spt= 0.00> <nCl=  0> <DB=  167.0000> <Mlp=  167.0000> <PB=1000000> 
---- Diving heuristic node with dive number = 0, fix depth = 47 and tabu list size = 0
Fixed projected solution = [x_1_0_1_OspV=1, x_1_204_1_OspV=1, x_1_229_1_OspV=1, x_1_407_1_OspV=1]
<DWph=2> <it=  1> <et=43.22> <Mt= 0.06> <Spt= 0.00> <nCl=  0> <DB=  167.0000> <Mlp=  167.0000> <PB=1000000> 
<DWph=1> <it=  2> <et=43.22> <Mt= 0.00> <Spt= 0.00> <nCl=  0> <DB=  167.0000> <Mlp=  167.0000> <PB=1000000> 
---- Diving heuristic node with dive number = 0, fix depth = 48 and tabu list size = 0
Fixed projected solution = [x_1_0_1_OspV=1, x_1_208_1_OspV=1, x_1_298_1_OspV=1, x_1_331_1_OspV=1]
<DWph=2> <it=  1> <et=43.32> <Mt= 0.08> <Spt= 0.00> <nCl=  0> <DB=  167.0000> <Mlp=  167.0000> <PB=1000000> 
<DWph=1> <it=  2> <et=43.32> <Mt= 0.00> <Spt= 0.00> <nCl=  0> <DB=  167.0000> <Mlp=  167.0000> <PB=1000000> 
---- Diving heuristic node with dive number = 0, fix depth = 49 and tabu list size = 0
Fixed projected solution = [x_1_0_1_OspV=1, x_1_47_1_OspV=1, x_1_103_1_OspV=1, x_1_484_1_OspV=1]
<DWph=2> <it=  2> <et=43.70> <Mt= 0.14> <Spt= 0.24> <nCl=100> <DB=  166.2323> <Mlp=  167.0000> <PB=1000000> 
<DWph=1> <it=  3> <et=43.71> <Mt= 0.00> <Spt= 0.00> <nCl=  0> <DB=  167.0000> <Mlp=  167.0000> <PB=1000000> 
---- Diving heuristic node with dive number = 0, fix depth = 49 and tabu list size = 0
Fixed projected solution = [x_1_0_1_OspV=1, x_1_30_1_OspV=1, x_1_57_1_OspV=1, x_1_490_1_OspV=1]
<DWph=2> <it=  1> <et=43.72> <Mt= 0.00> <Spt= 0.00> <nCl=  0> <DB=  167.0000> <Mlp=  167.0000> <PB=1000000> 
<DWph=1> <it=  2> <et=43.73> <Mt= 0.00> <Spt= 0.00> <nCl=  0> <DB=  167.0000> <Mlp=  167.0000> <PB=1000000> 
---- Diving heuristic node with dive number = 0, fix depth = 50 and tabu list size = 0
Fixed projected solution = [x_1_0_1_OspV=1, x_1_268_1_OspV=1, x_1_286_1_OspV=1, x_1_304_1_OspV=1]
<DWph=2> <it=  1> <et=43.84> <Mt= 0.11> <Spt= 0.00> <nCl=  0> <DB=  167.0000> <Mlp=  167.0000> <PB=1000000> 
<DWph=1> <it=  2> <et=43.84> <Mt= 0.00> <Spt= 0.00> <nCl=  0> <DB=  167.0000> <Mlp=  167.0000> <PB=1000000> 
---- Diving heuristic node with dive number = 0, fix depth = 51 and tabu list size = 0
Fixed projected solution = [x_1_0_1_OspV=1, x_1_197_1_OspV=1, x_1_276_1_OspV=1, x_1_387_1_OspV=1]
<DWph=2> <it=  1> <et=43.92> <Mt= 0.07> <Spt= 0.00> <nCl=  0> <DB=  167.0000> <Mlp=  167.0000> <PB=1000000> 
<DWph=1> <it=  2> <et=43.92> <Mt= 0.00> <Spt= 0.00> <nCl=  0> <DB=  167.0000> <Mlp=  167.0000> <PB=1000000> 
---- Diving heuristic node with dive number = 0, fix depth = 52 and tabu list size = 0
Fixed projected solution = [x_1_0_1_OspV=1, x_1_173_1_OspV=1, x_1_234_1_OspV=1, x_1_417_1_OspV=1]
<DWph=2> <it=  1> <et=44.05> <Mt= 0.11> <Spt= 0.00> <nCl=  0> <DB=  167.0000> <Mlp=  167.0000> <PB=1000000> 
<DWph=1> <it=  2> <et=44.05> <Mt= 0.00> <Spt= 0.00> <nCl=  0> <DB=  167.0000> <Mlp=  167.0000> <PB=1000000> 
---- Diving heuristic node with dive number = 0, fix depth = 53 and tabu list size = 0
Fixed projected solution = [x_1_0_1_OspV=1, x_1_119_1_OspV=1, x_1_338_1_OspV=1, x_1_348_1_OspV=1]
<DWph=2> <it=  2> <et=44.38> <Mt= 0.15> <Spt= 0.18> <nCl=100> <DB=  165.5300> <Mlp=  167.0000> <PB=1000000> 
<DWph=1> <it=  3> <et=44.39> <Mt= 0.00> <Spt= 0.00> <nCl=  0> <DB=  167.0000> <Mlp=  167.0000> <PB=1000000> 
---- Diving heuristic node with dive number = 0, fix depth = 54 and tabu list size = 0
Fixed projected solution = [x_1_0_1_OspV=1, x_1_66_1_OspV=1, x_1_240_1_OspV=1, x_1_438_1_OspV=1]
<DWph=2> <it=  1> <et=44.62> <Mt= 0.21> <Spt= 0.00> <nCl=  0> <DB=  167.0000> <Mlp=  167.0000> <PB=1000000> 
<DWph=1> <it=  2> <et=44.62> <Mt= 0.00> <Spt= 0.00> <nCl=  0> <DB=  167.0000> <Mlp=  167.0000> <PB=1000000> 
---- Diving heuristic node with dive number = 0, fix depth = 54 and tabu list size = 0
Fixed projected solution = [x_1_0_1_OspV=1, x_1_179_1_OspV=1, x_1_259_1_OspV=1, x_1_398_1_OspV=1]
<DWph=2> <it=  1> <et=44.63> <Mt= 0.01> <Spt= 0.00> <nCl=  0> <DB=  167.0000> <Mlp=  167.0000> <PB=1000000> 
<DWph=1> <it=  2> <et=44.64> <Mt= 0.00> <Spt= 0.00> <nCl=  0> <DB=  167.0000> <Mlp=  167.0000> <PB=1000000> 
---- Diving heuristic node with dive number = 0, fix depth = 55 and tabu list size = 0
Fixed projected solution = [x_1_0_1_OspV=1, x_1_8_1_OspV=1, x_1_64_1_OspV=1, x_1_495_1_OspV=1]
<DWph=2> <it=  1> <et=44.73> <Mt= 0.08> <Spt= 0.00> <nCl=  0> <DB=  167.0000> <Mlp=  167.0000> <PB=1000000> 
<DWph=1> <it=  2> <et=44.73> <Mt= 0.00> <Spt= 0.00> <nCl=  0> <DB=  167.0000> <Mlp=  167.0000> <PB=1000000> 
---- Diving heuristic node with dive number = 0, fix depth = 55 and tabu list size = 0
Fixed projected solution = [x_1_0_1_OspV=1, x_1_9_1_OspV=1, x_1_50_1_OspV=1, x_1_497_1_OspV=1]
<DWph=2> <it=  1> <et=44.74> <Mt= 0.00> <Spt= 0.00> <nCl=  0> <DB=  167.0000> <Mlp=  167.0000> <PB=1000000> 
<DWph=1> <it=  2> <et=44.75> <Mt= 0.00> <Spt= 0.00> <nCl=  0> <DB=  167.0000> <Mlp=  167.0000> <PB=1000000> 
---- Diving heuristic node with dive number = 0, fix depth = 56 and tabu list size = 0
Fixed projected solution = [x_1_0_1_OspV=1, x_1_53_1_OspV=1, x_1_242_1_OspV=1, x_1_437_1_OspV=1]
<DWph=2> <it=  2> <et=45.10> <Mt= 0.17> <Spt= 0.18> <nCl=100> <DB=  166.0428> <Mlp=  167.0000> <PB=1000000> 
<DWph=1> <it=  3> <et=45.11> <Mt= 0.00> <Spt= 0.00> <nCl=  0> <DB=  167.0000> <Mlp=  167.0000> <PB=1000000> 
---- Diving heuristic node with dive number = 0, fix depth = 56 and tabu list size = 0
Fixed projected solution = [x_1_0_1_OspV=1, x_1_153_1_OspV=1, x_1_180_1_OspV=1, x_1_441_1_OspV=1]
<DWph=2> <it=  1> <et=45.12> <Mt= 0.00> <Spt= 0.00> <nCl=  0> <DB=  167.0000> <Mlp=  167.0000> <PB=1000000> 
<DWph=1> <it=  2> <et=45.13> <Mt= 0.01> <Spt= 0.00> <nCl=  0> <DB=  167.0000> <Mlp=  167.0000> <PB=1000000> 
---- Diving heuristic node with dive number = 0, fix depth = 57 and tabu list size = 0
Fixed projected solution = [x_1_0_1_OspV=1, x_1_72_1_OspV=1, x_1_325_1_OspV=1, x_1_378_1_OspV=1]
<DWph=2> <it=  1> <et=45.19> <Mt= 0.05> <Spt= 0.00> <nCl=  0> <DB=  167.0000> <Mlp=  167.0000> <PB=1000000> 
<DWph=1> <it=  2> <et=45.19> <Mt= 0.00> <Spt= 0.00> <nCl=  0> <DB=  167.0000> <Mlp=  167.0000> <PB=1000000> 
---- Diving heuristic node with dive number = 0, fix depth = 58 and tabu list size = 0
Fixed projected solution = [x_1_0_1_OspV=1, x_1_129_1_OspV=1, x_1_324_1_OspV=1, x_1_358_1_OspV=1]
<DWph=2> <it=  1> <et=45.35> <Mt= 0.14> <Spt= 0.00> <nCl=  0> <DB=  167.0000> <Mlp=  167.0000> <PB=1000000> 
<DWph=1> <it=  2> <et=45.35> <Mt= 0.00> <Spt= 0.00> <nCl=  0> <DB=  167.0000> <Mlp=  167.0000> <PB=1000000> 
---- Diving heuristic node with dive number = 0, fix depth = 58 and tabu list size = 0
Fixed projected solution = [x_1_0_1_OspV=1, x_1_131_1_OspV=1, x_1_267_1_OspV=1, x_1_412_1_OspV=1]
<DWph=2> <it=  1> <et=45.36> <Mt= 0.01> <Spt= 0.00> <nCl=  0> <DB=  167.0000> <Mlp=  167.0000> <PB=1000000> 
<DWph=1> <it=  2> <et=45.37> <Mt= 0.00> <Spt= 0.00> <nCl=  0> <DB=  167.0000> <Mlp=  167.0000> <PB=1000000> 
---- Diving heuristic node with dive number = 0, fix depth = 59 and tabu list size = 0
Fixed projected solution = [x_1_0_1_OspV=1, x_1_135_1_OspV=1, x_1_249_1_OspV=1, x_1_418_1_OspV=1]
<DWph=2> <it=  2> <et=45.67> <Mt= 0.10> <Spt= 0.18> <nCl=100> <DB=  166.3707> <Mlp=  167.0000> <PB=1000000> 
<DWph=1> <it=  3> <et=45.67> <Mt= 0.00> <Spt= 0.00> <nCl=  0> <DB=  167.0000> <Mlp=  167.0000> <PB=1000000> 
---- Diving heuristic node with dive number = 0, fix depth = 59 and tabu list size = 0
Fixed projected solution = [x_1_0_1_OspV=1, x_1_247_1_OspV=1, x_1_260_1_OspV=1, x_1_373_1_OspV=1]
<DWph=2> <it=  1> <et=45.69> <Mt= 0.01> <Spt= 0.00> <nCl=  0> <DB=  167.0000> <Mlp=  167.0000> <PB=1000000> 
<DWph=1> <it=  2> <et=45.69> <Mt= 0.00> <Spt= 0.00> <nCl=  0> <DB=  167.0000> <Mlp=  167.0000> <PB=1000000> 
---- Diving heuristic node with dive number = 0, fix depth = 60 and tabu list size = 0
Fixed projected solution = [x_1_0_1_OspV=1, x_1_148_1_OspV=1, x_1_154_1_OspV=1, x_1_451_1_OspV=1]
<DWph=2> <it=  1> <et=45.86> <Mt= 0.16> <Spt= 0.00> <nCl=  0> <DB=  167.0000> <Mlp=  167.0000> <PB=1000000> 
<DWph=1> <it=  2> <et=45.87> <Mt= 0.00> <Spt= 0.00> <nCl=  0> <DB=  167.0000> <Mlp=  167.0000> <PB=1000000> 
---- Diving heuristic node with dive number = 0, fix depth = 61 and tabu list size = 0
Fixed projected solution = [x_1_0_1_OspV=1, x_1_26_1_OspV=1, x_1_136_1_OspV=1, x_1_479_1_OspV=1]
<DWph=2> <it=  1> <et=46.01> <Mt= 0.14> <Spt= 0.00> <nCl=  0> <DB=  167.0000> <Mlp=  167.0000> <PB=1000000> 
<DWph=1> <it=  2> <et=46.01> <Mt= 0.00> <Spt= 0.00> <nCl=  0> <DB=  167.0000> <Mlp=  167.0000> <PB=1000000> 
---- Diving heuristic node with dive number = 0, fix depth = 62 and tabu list size = 0
Fixed projected solution = [x_1_0_1_OspV=1, x_1_241_1_OspV=1, x_1_263_1_OspV=1, x_1_375_1_OspV=1]
<DWph=2> <it=  2> <et=46.40> <Mt= 0.19> <Spt= 0.18> <nCl=100> <DB=  166.4150> <Mlp=  167.0000> <PB=1000000> 
<DWph=1> <it=  3> <et=46.40> <Mt= 0.00> <Spt= 0.00> <nCl=  0> <DB=  167.0000> <Mlp=  167.0000> <PB=1000000> 
---- Diving heuristic node with dive number = 0, fix depth = 63 and tabu list size = 0
Fixed projected solution = [x_1_0_1_OspV=1, x_1_137_1_OspV=1, x_1_314_1_OspV=1, x_1_360_1_OspV=1]
<DWph=2> <it=  1> <et=46.49> <Mt= 0.07> <Spt= 0.00> <nCl=  0> <DB=  167.0000> <Mlp=  167.0000> <PB=1000000> 
<DWph=1> <it=  2> <et=46.49> <Mt= 0.00> <Spt= 0.00> <nCl=  0> <DB=  167.0000> <Mlp=  167.0000> <PB=1000000> 
---- Diving heuristic node with dive number = 0, fix depth = 64 and tabu list size = 0
Fixed projected solution = [x_1_0_1_OspV=1, x_1_238_1_OspV=1, x_1_292_1_OspV=1, x_1_328_1_OspV=1]
<DWph=2> <it=  2> <et=46.85> <Mt= 0.17> <Spt= 0.18> <nCl=100> <DB=  166.5607> <Mlp=  167.0000> <PB=1000000> 
<DWph=1> <it=  3> <et=46.85> <Mt= 0.00> <Spt= 0.00> <nCl=  0> <DB=  167.0000> <Mlp=  167.0000> <PB=1000000> 
---- Diving heuristic node with dive number = 0, fix depth = 65 and tabu list size = 0
Fixed projected solution = [x_1_0_1_OspV=1, x_1_46_1_OspV=1, x_1_274_1_OspV=1, x_1_419_1_OspV=1]
<DWph=2> <it=  2> <et=47.23> <Mt= 0.18> <Spt= 0.18> <nCl=100> <DB=  166.6084> <Mlp=  167.0000> <PB=1000000> 
<DWph=1> <it=  3> <et=47.23> <Mt= 0.00> <Spt= 0.00> <nCl=  0> <DB=  167.0000> <Mlp=  167.0000> <PB=1000000> 
---- Diving heuristic node with dive number = 0, fix depth = 65 and tabu list size = 0
Fixed projected solution = [x_1_0_1_OspV=1, x_1_31_1_OspV=1, x_1_112_1_OspV=1, x_1_483_1_OspV=1]
<DWph=2> <it=  1> <et=47.25> <Mt= 0.00> <Spt= 0.00> <nCl=  0> <DB=  167.0000> <Mlp=  167.0000> <PB=1000000> 
<DWph=1> <it=  2> <et=47.25> <Mt= 0.00> <Spt= 0.00> <nCl=  0> <DB=  167.0000> <Mlp=  167.0000> <PB=1000000> 
---- Diving heuristic node with dive number = 0, fix depth = 66 and tabu list size = 0
Fixed projected solution = [x_1_0_1_OspV=1, x_1_21_1_OspV=1, x_1_111_1_OspV=1, x_1_486_1_OspV=1]
<DWph=2> <it=  1> <et=47.30> <Mt= 0.04> <Spt= 0.00> <nCl=  0> <DB=  167.0000> <Mlp=  167.0000> <PB=1000000> 
<DWph=1> <it=  2> <et=47.30> <Mt= 0.00> <Spt= 0.00> <nCl=  0> <DB=  167.0000> <Mlp=  167.0000> <PB=1000000> 
---- Diving heuristic node with dive number = 0, fix depth = 67 and tabu list size = 0
Fixed projected solution = [x_1_0_1_OspV=1, x_1_18_1_OspV=1, x_1_246_1_OspV=1, x_1_440_1_OspV=1]
<DWph=2> <it=  1> <et=47.44> <Mt= 0.13> <Spt= 0.00> <nCl=  0> <DB=  167.0000> <Mlp=  167.0000> <PB=1000000> 
<DWph=1> <it=  2> <et=47.44> <Mt= 0.00> <Spt= 0.00> <nCl=  0> <DB=  167.0000> <Mlp=  167.0000> <PB=1000000> 
---- Diving heuristic node with dive number = 0, fix depth = 68 and tabu list size = 0
Fixed projected solution = [x_1_0_1_OspV=1, x_1_22_1_OspV=1, x_1_183_1_OspV=1, x_1_468_1_OspV=1]
<DWph=2> <it=  1> <et=47.52> <Mt= 0.05> <Spt= 0.00> <nCl=  0> <DB=  167.0000> <Mlp=  167.0000> <PB=1000000> 
<DWph=1> <it=  2> <et=47.52> <Mt= 0.00> <Spt= 0.00> <nCl=  0> <DB=  167.0000> <Mlp=  167.0000> <PB=1000000> 
---- Diving heuristic node with dive number = 0, fix depth = 69 and tabu list size = 0
Fixed projected solution = [x_1_0_1_OspV=1, x_1_65_1_OspV=1, x_1_168_1_OspV=1, x_1_464_1_OspV=1]
<DWph=2> <it=  1> <et=47.58> <Mt= 0.05> <Spt= 0.00> <nCl=  0> <DB=  167.0000> <Mlp=  167.0000> <PB=1000000> 
<DWph=1> <it=  2> <et=47.58> <Mt= 0.00> <Spt= 0.00> <nCl=  0> <DB=  167.0000> <Mlp=  167.0000> <PB=1000000> 
---- Diving heuristic node with dive number = 0, fix depth = 70 and tabu list size = 0
Fixed projected solution = [x_1_0_1_OspV=1, x_1_13_1_OspV=1, x_1_70_1_OspV=1, x_1_492_1_OspV=1]
<DWph=2> <it=  1> <et=47.74> <Mt= 0.15> <Spt= 0.00> <nCl=  0> <DB=  167.0000> <Mlp=  167.0000> <PB=1000000> 
<DWph=1> <it=  2> <et=47.74> <Mt= 0.00> <Spt= 0.00> <nCl=  0> <DB=  167.0000> <Mlp=  167.0000> <PB=1000000> 
---- Diving heuristic node with dive number = 0, fix depth = 71 and tabu list size = 0
Fixed projected solution = [x_1_0_1_OspV=1, x_1_6_1_OspV=1, x_1_175_1_OspV=1, x_1_472_1_OspV=1]
<DWph=2> <it=  1> <et=47.86> <Mt= 0.11> <Spt= 0.00> <nCl=  0> <DB=  167.0000> <Mlp=  167.0000> <PB=1000000> 
<DWph=1> <it=  2> <et=47.86> <Mt= 0.00> <Spt= 0.00> <nCl=  0> <DB=  167.0000> <Mlp=  167.0000> <PB=1000000> 
---- Diving heuristic node with dive number = 0, fix depth = 72 and tabu list size = 0
Fixed projected solution = [x_1_0_1_OspV=1, x_1_163_1_OspV=1, x_1_271_1_OspV=1, x_1_394_1_OspV=1]
<DWph=2> <it=  2> <et=48.37> <Mt= 0.30> <Spt= 0.19> <nCl=100> <DB=  166.0278> <Mlp=  167.0000> <PB=1000000> 
<DWph=1> <it=  3> <et=48.37> <Mt= 0.00> <Spt= 0.00> <nCl=  0> <DB=  167.0000> <Mlp=  167.0000> <PB=1000000> 
---- Diving heuristic node with dive number = 0, fix depth = 73 and tabu list size = 0
Fixed projected solution = [x_1_0_1_OspV=1, x_1_95_1_OspV=1, x_1_170_1_OspV=1, x_1_459_1_OspV=1]
<DWph=2> <it=  1> <et=48.42> <Mt= 0.04> <Spt= 0.00> <nCl=  0> <DB=  167.0000> <Mlp=  167.0000> <PB=1000000> 
<DWph=1> <it=  2> <et=48.42> <Mt= 0.00> <Spt= 0.00> <nCl=  0> <DB=  167.0000> <Mlp=  167.0000> <PB=1000000> 
---- Diving heuristic node with dive number = 0, fix depth = 73 and tabu list size = 0
Fixed projected solution = [x_1_0_1_OspV=1, x_1_214_1_OspV=1, x_1_295_1_OspV=1, x_1_345_1_OspV=1]
<DWph=2> <it=  1> <et=48.43> <Mt= 0.00> <Spt= 0.00> <nCl=  0> <DB=  167.0000> <Mlp=  167.0000> <PB=1000000> 
<DWph=1> <it=  2> <et=48.44> <Mt= 0.00> <Spt= 0.00> <nCl=  0> <DB=  167.0000> <Mlp=  167.0000> <PB=1000000> 
---- Diving heuristic node with dive number = 0, fix depth = 74 and tabu list size = 0
Fixed projected solution = [x_1_0_1_OspV=1, x_1_155_1_OspV=1, x_1_300_1_OspV=1, x_1_361_1_OspV=1]
<DWph=2> <it=  4> <et=49.27> <Mt= 0.24> <Spt= 0.54> <nCl=280> <DB=  166.8482> <Mlp=  167.0000> <PB=1000000> 
<DWph=1> <it=  5> <et=49.27> <Mt= 0.00> <Spt= 0.00> <nCl=  0> <DB=  167.0000> <Mlp=  167.0000> <PB=1000000> 
---- Diving heuristic node with dive number = 0, fix depth = 74 and tabu list size = 0
Fixed projected solution = [x_1_0_1_OspV=1, x_1_93_1_OspV=1, x_1_350_1_OspV=1, x_1_351_1_OspV=1]
<DWph=2> <it=  1> <et=49.29> <Mt= 0.00> <Spt= 0.00> <nCl=  0> <DB=  167.0000> <Mlp=  167.0000> <PB=1000000> 
<DWph=1> <it=  2> <et=49.29> <Mt= 0.00> <Spt= 0.00> <nCl=  0> <DB=  167.0000> <Mlp=  167.0000> <PB=1000000> 
---- Diving heuristic node with dive number = 0, fix depth = 75 and tabu list size = 0
Fixed projected solution = [x_1_0_1_OspV=1, x_1_121_1_OspV=1, x_1_279_1_OspV=1, x_1_401_1_OspV=1]
<DWph=2> <it=  6> <et=51.32> <Mt= 0.23> <Spt= 1.79> <nCl=285> <DB=  167.0002> <Mlp=  167.0002> <PB=1000000> 
<DWph=1> <it=  8> <et=51.56> <Mt= 0.03> <Spt= 0.21> <nCl=100> <DB=  161.1051> <Mlp=  167.0000> <PB=1000000> 
---- Diving heuristic node with dive number = 0, fix depth = 75 and tabu list size = 0
Fixed projected solution = [x_1_0_1_OspV=1, x_1_130_1_OspV=1, x_1_309_1_OspV=1, x_1_368_1_OspV=1]
<DWph=2> <it=  1> <et=51.58> <Mt= 0.01> <Spt= 0.00> <nCl=  0> <DB=  167.0000> <Mlp=  167.0000> <PB=1000000> 
<DWph=1> <it=  2> <et=51.58> <Mt= 0.00> <Spt= 0.00> <nCl=  0> <DB=  167.0000> <Mlp=  167.0000> <PB=1000000> 
---- Diving heuristic node with dive number = 0, fix depth = 76 and tabu list size = 0
Fixed projected solution = [x_1_0_1_OspV=1, x_1_32_1_OspV=1, x_1_36_1_OspV=1, x_1_496_1_OspV=1]
<DWph=2> <it=  1> <et=51.73> <Mt= 0.13> <Spt= 0.00> <nCl=  0> <DB=  167.0000> <Mlp=  167.0000> <PB=1000000> 
<DWph=1> <it=  2> <et=51.73> <Mt= 0.01> <Spt= 0.00> <nCl=  0> <DB=  167.0000> <Mlp=  167.0000> <PB=1000000> 
---- Diving heuristic node with dive number = 0, fix depth = 77 and tabu list size = 0
Fixed projected solution = [x_1_0_1_OspV=1, x_1_10_1_OspV=1, x_1_166_1_OspV=1, x_1_474_1_OspV=1]
<DWph=2> <it=  1> <et=51.85> <Mt= 0.10> <Spt= 0.00> <nCl=  0> <DB=  167.0000> <Mlp=  167.0000> <PB=1000000> 
<DWph=1> <it=  2> <et=51.85> <Mt= 0.01> <Spt= 0.00> <nCl=  0> <DB=  167.0000> <Mlp=  167.0000> <PB=1000000> 
---- Diving heuristic node with dive number = 0, fix depth = 78 and tabu list size = 0
Fixed projected solution = [x_1_0_1_OspV=1, x_1_23_1_OspV=1, x_1_142_1_OspV=1, x_1_478_1_OspV=1]
<DWph=2> <it=  1> <et=51.98> <Mt= 0.11> <Spt= 0.00> <nCl=  0> <DB=  167.0000> <Mlp=  167.0000> <PB=1000000> 
<DWph=1> <it=  2> <et=51.98> <Mt= 0.00> <Spt= 0.00> <nCl=  0> <DB=  167.0000> <Mlp=  167.0000> <PB=1000000> 
---- Diving heuristic node with dive number = 0, fix depth = 79 and tabu list size = 0
Fixed projected solution = [x_1_0_1_OspV=1, x_1_38_1_OspV=1, x_1_223_1_OspV=1, x_1_450_1_OspV=1]
<DWph=1> <it= 11> <et=53.87> <Mt= 0.19> <Spt= 1.68> <nCl=480> <DB=  167.0000> <Mlp=  167.0000> <PB=1000000> 
---- Diving heuristic node with dive number = 0, fix depth = 80 and tabu list size = 0
Fixed projected solution = [x_1_0_1_OspV=1, x_1_80_1_OspV=1, x_1_334_1_OspV=1, x_1_366_1_OspV=1]
<DWph=2> <it=  1> <et=53.93> <Mt= 0.04> <Spt= 0.00> <nCl=  0> <DB=  167.0000> <Mlp=  167.0000> <PB=1000000> 
<DWph=1> <it=  2> <et=53.93> <Mt= 0.00> <Spt= 0.00> <nCl=  0> <DB=  167.0000> <Mlp=  167.0000> <PB=1000000> 
---- Diving heuristic node with dive number = 0, fix depth = 81 and tabu list size = 0
Fixed projected solution = [x_1_0_1_OspV=1, x_1_164_1_OspV=1, x_1_222_1_OspV=1, x_1_421_1_OspV=1]
<DWph=2> <it=  7> <et=55.32> <Mt= 0.27> <Spt= 1.10> <nCl=226> <DB=  166.4440> <Mlp=  167.0000> <PB=1000000> 
<DWph=1> <it=  8> <et=55.32> <Mt= 0.00> <Spt= 0.00> <nCl=  0> <DB=  167.0000> <Mlp=  167.0000> <PB=1000000> 
---- Diving heuristic node with dive number = 0, fix depth = 81 and tabu list size = 0
Fixed projected solution = [x_1_0_1_OspV=1, x_1_68_1_OspV=1, x_1_159_1_OspV=1, x_1_465_1_OspV=1]
<DWph=2> <it=  1> <et=55.34> <Mt= 0.01> <Spt= 0.00> <nCl=  0> <DB=  167.0000> <Mlp=  167.0000> <PB=1000000> 
<DWph=1> <it=  2> <et=55.34> <Mt= 0.00> <Spt= 0.00> <nCl=  0> <DB=  167.0000> <Mlp=  167.0000> <PB=1000000> 
---- Diving heuristic node with dive number = 0, fix depth = 82 and tabu list size = 0
Fixed projected solution = [x_1_0_1_OspV=1, x_1_124_1_OspV=1, x_1_127_1_OspV=1, x_1_461_1_OspV=1]
<DWph=2> <it=  1> <et=55.43> <Mt= 0.07> <Spt= 0.00> <nCl=  0> <DB=  167.0000> <Mlp=  167.0000> <PB=1000000> 
<DWph=1> <it=  2> <et=55.44> <Mt= 0.01> <Spt= 0.00> <nCl=  0> <DB=  167.0000> <Mlp=  167.0000> <PB=1000000> 
---- Diving heuristic node with dive number = 0, fix depth = 82 and tabu list size = 0
Fixed projected solution = [x_1_0_1_OspV=1, x_1_40_1_OspV=1, x_1_232_1_OspV=1, x_1_444_1_OspV=1]
<DWph=2> <it=  1> <et=55.45> <Mt= 0.00> <Spt= 0.00> <nCl=  0> <DB=  167.0000> <Mlp=  167.0000> <PB=1000000> 
<DWph=1> <it=  2> <et=55.45> <Mt= 0.00> <Spt= 0.00> <nCl=  0> <DB=  167.0000> <Mlp=  167.0000> <PB=1000000> 
---- Diving heuristic node with dive number = 0, fix depth = 82 and tabu list size = 0
Fixed projected solution = [x_1_0_1_OspV=1, x_1_123_1_OspV=1, x_1_335_1_OspV=1, x_1_346_1_OspV=1]
<DWph=2> <it=  1> <et=55.46> <Mt= 0.00> <Spt= 0.00> <nCl=  0> <DB=  167.0000> <Mlp=  167.0000> <PB=1000000> 
<DWph=1> <it=  2> <et=55.47> <Mt= 0.00> <Spt= 0.00> <nCl=  0> <DB=  167.0000> <Mlp=  167.0000> <PB=1000000> 
---- Diving heuristic node with dive number = 0, fix depth = 82 and tabu list size = 0
Fixed projected solution = [x_1_0_1_OspV=1, x_1_115_1_OspV=1, x_1_319_1_OspV=1, x_1_371_1_OspV=1]
<DWph=2> <it=  1> <et=55.48> <Mt= 0.00> <Spt= 0.00> <nCl=  0> <DB=  167.0000> <Mlp=  167.0000> <PB=1000000> 
<DWph=1> <it=  2> <et=55.48> <Mt= 0.01> <Spt= 0.00> <nCl=  0> <DB=  167.0000> <Mlp=  167.0000> <PB=1000000> 
---- Diving heuristic node with dive number = 0, fix depth = 83 and tabu list size = 0
Fixed projected solution = [x_1_0_1_OspV=1, x_1_51_1_OspV=1, x_1_231_1_OspV=1, x_1_443_1_OspV=1]
<DWph=2> <it= 10> <et=58.01> <Mt= 0.69> <Spt= 1.82> <nCl=357> <DB=  166.3956> <Mlp=  167.0027> <PB=1000000> 
<DWph=2> <it= 19> <et=60.23> <Mt= 0.04> <Spt= 2.17> <nCl= 75> <DB=  167.0027> <Mlp=  167.0027> <PB=1000000> 
SEARCH IS INTERRUPTED as the time limit is reached. 
<DWph=1> <it= 19> <et=60.23> <Mt= 0.00> <Spt= 0.00> <nCl=  0> <DB=  167.0000> <Mlp=  167.0027> <PB=1000000> 
---- Diving heuristic node with dive number = 1, fix depth = 2 and tabu list size = 1
Fixed projected solution = [x_1_0_1_OspV=1, x_1_177_1_OspV=1, x_1_264_1_OspV=1, x_1_397_1_OspV=1]
---- Diving heuristic node with dive number = 2, fix depth = 2 and tabu list size = 2
Fixed projected solution = [x_1_0_1_OspV=1, x_1_49_1_OspV=1, x_1_280_1_OspV=1, x_1_414_1_OspV=1]
---- Diving heuristic node with dive number = 3, fix depth = 2 and tabu list size = 3
Fixed projected solution = [x_1_0_1_OspV=1, x_1_101_1_OspV=1, x_1_104_1_OspV=1, x_1_475_1_OspV=1]
---- Diving heuristic node with dive number = 4, fix depth = 1 and tabu list size = 1
Fixed projected solution = [x_1_0_1_OspV=1, x_1_172_1_OspV=1, x_1_285_1_OspV=1, x_1_386_1_OspV=1]
---- Diving heuristic node with dive number = 5, fix depth = 1 and tabu list size = 2
Fixed projected solution = [x_1_0_1_OspV=1, x_1_63_1_OspV=1, x_1_281_1_OspV=1, x_1_411_1_OspV=1]
---- Diving heuristic node with dive number = 6, fix depth = 1 and tabu list size = 3
Fixed projected solution = [x_1_0_1_OspV=1, x_1_59_1_OspV=1, x_1_265_1_OspV=1, x_1_422_1_OspV=1]
**** Strong branching phase 1 is started *****
**** Strong branching phase 3 is started *****
************************************************************************************************
Search is finished, global bounds : [ 167 , 1e+06 ], TIME = 0h1m2s29t = 6229
************************************************************************************************
statistics_cols: instance & :Optimal & cutoff & :bcRecRootDb & :bcTimeRootEval & :bcCountNodeProc & :bcRecBestDb & :bcRecBestInc & :bcTimeMain \\
statistics: Falkenauer_t501_13 & 0 & 1.0e6 & 167.00 & 35.78 & 1 & 167.00 & -- & 62.29 \\
########################################################
Solution not found
########################################################
