Application parameters:
  batch  =>  nothing
  instance  =>  "/IN/Falkenauer_t249_16.txt-Q2Half"
  ub  =>  1.0e6
  cfg  =>  "/CFG/BPP.cfg"
data = Colored Bin Packing dataset.
number of items = 249
number of colors = 2
capacity = 1000
Items : 
	 item 1, weight= 250, color= 0
	 item 2, weight= 250, color= 0
	 item 3, weight= 250, color= 0
	 item 4, weight= 250, color= 0
	 item 5, weight= 250, color= 0
	 item 6, weight= 250, color= 0
	 item 7, weight= 251, color= 0
	 item 8, weight= 251, color= 0
	 item 9, weight= 251, color= 0
	 item 10, weight= 252, color= 0
	 item 11, weight= 252, color= 1
	 item 12, weight= 252, color= 1
	 item 13, weight= 253, color= 0
	 item 14, weight= 253, color= 0
	 item 15, weight= 253, color= 0
	 item 16, weight= 253, color= 0
	 item 17, weight= 254, color= 0
	 item 18, weight= 254, color= 0
	 item 19, weight= 254, color= 0
	 item 20, weight= 254, color= 0
	 item 21, weight= 254, color= 0
	 item 22, weight= 254, color= 1
	 item 23, weight= 254, color= 1
	 item 24, weight= 255, color= 0
	 item 25, weight= 255, color= 0
	 item 26, weight= 256, color= 0
	 item 27, weight= 256, color= 0
	 item 28, weight= 256, color= 0
	 item 29, weight= 256, color= 1
	 item 30, weight= 257, color= 0
	 item 31, weight= 257, color= 0
	 item 32, weight= 258, color= 0
	 item 33, weight= 258, color= 0
	 item 34, weight= 258, color= 0
	 item 35, weight= 258, color= 0
	 item 36, weight= 258, color= 0
	 item 37, weight= 258, color= 0
	 item 38, weight= 259, color= 0
	 item 39, weight= 259, color= 0
	 item 40, weight= 259, color= 1
	 item 41, weight= 260, color= 0
	 item 42, weight= 260, color= 1
	 item 43, weight= 261, color= 0
	 item 44, weight= 261, color= 0
	 item 45, weight= 261, color= 0
	 item 46, weight= 261, color= 0
	 item 47, weight= 262, color= 1
	 item 48, weight= 263, color= 0
	 item 49, weight= 263, color= 0
	 item 50, weight= 263, color= 0
	 item 51, weight= 263, color= 1
	 item 52, weight= 263, color= 1
	 item 53, weight= 264, color= 0
	 item 54, weight= 264, color= 0
	 item 55, weight= 264, color= 0
	 item 56, weight= 264, color= 1
	 item 57, weight= 265, color= 1
	 item 58, weight= 266, color= 0
	 item 59, weight= 266, color= 0
	 item 60, weight= 266, color= 1
	 item 61, weight= 267, color= 0
	 item 62, weight= 267, color= 0
	 item 63, weight= 267, color= 0
	 item 64, weight= 267, color= 1
	 item 65, weight= 268, color= 0
	 item 66, weight= 269, color= 0
	 item 67, weight= 269, color= 0
	 item 68, weight= 269, color= 1
	 item 69, weight= 271, color= 0
	 item 70, weight= 271, color= 0
	 item 71, weight= 271, color= 0
	 item 72, weight= 272, color= 1
	 item 73, weight= 273, color= 0
	 item 74, weight= 273, color= 0
	 item 75, weight= 273, color= 0
	 item 76, weight= 273, color= 0
	 item 77, weight= 274, color= 0
	 item 78, weight= 274, color= 1
	 item 79, weight= 275, color= 0
	 item 80, weight= 276, color= 0
	 item 81, weight= 276, color= 0
	 item 82, weight= 276, color= 1
	 item 83, weight= 276, color= 1
	 item 84, weight= 277, color= 0
	 item 85, weight= 277, color= 0
	 item 86, weight= 277, color= 1
	 item 87, weight= 279, color= 0
	 item 88, weight= 279, color= 1
	 item 89, weight= 280, color= 0
	 item 90, weight= 280, color= 0
	 item 91, weight= 281, color= 0
	 item 92, weight= 282, color= 1
	 item 93, weight= 283, color= 0
	 item 94, weight= 284, color= 1
	 item 95, weight= 285, color= 0
	 item 96, weight= 285, color= 1
	 item 97, weight= 285, color= 1
	 item 98, weight= 286, color= 0
	 item 99, weight= 287, color= 0
	 item 100, weight= 287, color= 0
	 item 101, weight= 287, color= 1
	 item 102, weight= 287, color= 1
	 item 103, weight= 288, color= 1
	 item 104, weight= 290, color= 1
	 item 105, weight= 290, color= 1
	 item 106, weight= 290, color= 1
	 item 107, weight= 291, color= 0
	 item 108, weight= 293, color= 1
	 item 109, weight= 293, color= 1
	 item 110, weight= 293, color= 1
	 item 111, weight= 294, color= 0
	 item 112, weight= 294, color= 1
	 item 113, weight= 294, color= 1
	 item 114, weight= 294, color= 1
	 item 115, weight= 294, color= 1
	 item 116, weight= 295, color= 1
	 item 117, weight= 296, color= 0
	 item 118, weight= 296, color= 1
	 item 119, weight= 297, color= 0
	 item 120, weight= 298, color= 0
	 item 121, weight= 298, color= 1
	 item 122, weight= 298, color= 1
	 item 123, weight= 300, color= 1
	 item 124, weight= 301, color= 1
	 item 125, weight= 302, color= 1
	 item 126, weight= 303, color= 1
	 item 127, weight= 303, color= 1
	 item 128, weight= 304, color= 0
	 item 129, weight= 304, color= 1
	 item 130, weight= 304, color= 1
	 item 131, weight= 307, color= 1
	 item 132, weight= 308, color= 0
	 item 133, weight= 308, color= 1
	 item 134, weight= 309, color= 1
	 item 135, weight= 310, color= 1
	 item 136, weight= 311, color= 1
	 item 137, weight= 312, color= 1
	 item 138, weight= 316, color= 1
	 item 139, weight= 317, color= 1
	 item 140, weight= 317, color= 1
	 item 141, weight= 318, color= 1
	 item 142, weight= 321, color= 1
	 item 143, weight= 324, color= 0
	 item 144, weight= 324, color= 1
	 item 145, weight= 328, color= 1
	 item 146, weight= 329, color= 1
	 item 147, weight= 330, color= 1
	 item 148, weight= 331, color= 1
	 item 149, weight= 332, color= 1
	 item 150, weight= 333, color= 1
	 item 151, weight= 336, color= 1
	 item 152, weight= 337, color= 1
	 item 153, weight= 341, color= 1
	 item 154, weight= 341, color= 1
	 item 155, weight= 342, color= 1
	 item 156, weight= 343, color= 1
	 item 157, weight= 351, color= 1
	 item 158, weight= 352, color= 1
	 item 159, weight= 352, color= 1
	 item 160, weight= 354, color= 1
	 item 161, weight= 356, color= 1
	 item 162, weight= 357, color= 1
	 item 163, weight= 360, color= 1
	 item 164, weight= 361, color= 1
	 item 165, weight= 361, color= 1
	 item 166, weight= 362, color= 1
	 item 167, weight= 365, color= 1
	 item 168, weight= 365, color= 1
	 item 169, weight= 376, color= 1
	 item 170, weight= 377, color= 1
	 item 171, weight= 378, color= 1
	 item 172, weight= 379, color= 1
	 item 173, weight= 380, color= 1
	 item 174, weight= 380, color= 1
	 item 175, weight= 381, color= 1
	 item 176, weight= 381, color= 1
	 item 177, weight= 382, color= 1
	 item 178, weight= 382, color= 1
	 item 179, weight= 382, color= 1
	 item 180, weight= 382, color= 1
	 item 181, weight= 385, color= 1
	 item 182, weight= 389, color= 1
	 item 183, weight= 389, color= 1
	 item 184, weight= 390, color= 1
	 item 185, weight= 392, color= 1
	 item 186, weight= 392, color= 1
	 item 187, weight= 394, color= 1
	 item 188, weight= 395, color= 1
	 item 189, weight= 397, color= 1
	 item 190, weight= 403, color= 1
	 item 191, weight= 404, color= 1
	 item 192, weight= 409, color= 1
	 item 193, weight= 409, color= 1
	 item 194, weight= 411, color= 1
	 item 195, weight= 411, color= 1
	 item 196, weight= 412, color= 1
	 item 197, weight= 414, color= 1
	 item 198, weight= 414, color= 1
	 item 199, weight= 414, color= 1
	 item 200, weight= 416, color= 1
	 item 201, weight= 417, color= 1
	 item 202, weight= 419, color= 1
	 item 203, weight= 420, color= 1
	 item 204, weight= 424, color= 1
	 item 205, weight= 425, color= 1
	 item 206, weight= 429, color= 1
	 item 207, weight= 430, color= 1
	 item 208, weight= 431, color= 1
	 item 209, weight= 432, color= 1
	 item 210, weight= 432, color= 1
	 item 211, weight= 434, color= 1
	 item 212, weight= 435, color= 1
	 item 213, weight= 437, color= 1
	 item 214, weight= 437, color= 1
	 item 215, weight= 438, color= 1
	 item 216, weight= 439, color= 1
	 item 217, weight= 441, color= 1
	 item 218, weight= 442, color= 1
	 item 219, weight= 445, color= 1
	 item 220, weight= 446, color= 1
	 item 221, weight= 447, color= 1
	 item 222, weight= 448, color= 1
	 item 223, weight= 448, color= 1
	 item 224, weight= 452, color= 1
	 item 225, weight= 452, color= 1
	 item 226, weight= 454, color= 1
	 item 227, weight= 457, color= 1
	 item 228, weight= 460, color= 1
	 item 229, weight= 461, color= 1
	 item 230, weight= 463, color= 1
	 item 231, weight= 466, color= 1
	 item 232, weight= 467, color= 1
	 item 233, weight= 467, color= 1
	 item 234, weight= 470, color= 1
	 item 235, weight= 471, color= 1
	 item 236, weight= 473, color= 1
	 item 237, weight= 476, color= 1
	 item 238, weight= 476, color= 1
	 item 239, weight= 477, color= 1
	 item 240, weight= 480, color= 1
	 item 241, weight= 481, color= 1
	 item 242, weight= 482, color= 1
	 item 243, weight= 487, color= 1
	 item 244, weight= 490, color= 1
	 item 245, weight= 493, color= 1
	 item 246, weight= 495, color= 1
	 item 247, weight= 495, color= 1
	 item 248, weight= 496, color= 1
	 item 249, weight= 498, color= 1

VRPSolver warning: Interval set for resource 1 on source node (when source != sink) is ignored (by definition is [0.0,0.0])
VRPSolver warning: Interval set for resource 2 on source node (when source != sink) is ignored (by definition is [0.0,0.0])
VRPSolver warning: Interval set for resource 3 on source node (when source != sink) is ignored (by definition is [0.0,0.0])
[41m solve [00m
~~~~~~~~~~~~~~~~~~~~~~~~~~~~~~~~~~~~~~~~~~~~~~~~~~~~~~~~~~~~~~~~~~~~~~~~~~~~~~
VRPSolver v0.4.1, 24/03/2021. Web: vrpsolver.math.u-bordeaux.fr
Corresponds to the solver by Pessoa, Sadykov, Uchoa and Vanderbeck (2020)
Paper: dx.doi.org/10.1007/s10107-020-01523-z
USE THIS CODE ONLY FOR ACADEMIC PURPOSES AT YOUR OWN RISK
~~~~~~~~~~~~~~~~~~~~~~~~~~~~~~~~~~~~~~~~~~~~~~~~~~~~~~~~~~~~~~~~~~~~~~~~~~~~~~
BaPCod v053, 24/03/2021, © Inria Bordeaux, France
~~~~~~~~~~~~~~~~~~~~~~~~~~~~~~~~~~~~~~~~~~~~~~~~~~~~~~~~~~~~~~~~~~~~~~~~~~~~~~
VRPSolver parameters:
GlobalTimeLimit = 60
MaxNbOfBBtreeNodeTreated = 100000
treeSearchStrategy = 1
RCSPstopCutGenTimeThresholdInPricing = 10
RCSPhardTimeThresholdInPricing = 20
RCSPnumberOfBucketsPerVertex = 2000
RCSPdynamicBucketSteps = 0
RCSPuseBidirectionalSearch = 1
RCSPapplyReducedCostFixing = 1
RCSPredCostFixingFalseGap = 0
RCSPmaxNumOfColsPerIteration = 100
RCSPmaxNumOfColsPerExactIteration = 100
RCSPheurLabelingStrategy = 4
StabilizationMinPhaseOfStage = 1
RCSPmaxNumOfLabelsInEnumeration = 100000
RCSPmaxNumOfEnumeratedSolutions = 1000000
RCSPmaxNumOfEnumSolutionsForMIP = 100000
RCSPinitNGneighbourhoodSize = 0
RCSPmaxNGneighbourhoodSize = 0
RCSPrankOneCutsMaxNumPerRound = 100
RCSPrankOneCutsMaxNumRows = -1
RCSPrankOneCutsMemoryType = 2
CutTailingOffThreshold = 0.02
CutTailingOffCounterThreshold = 3
SafeDualBoundScaleFactor = -1
StrongBranchingPhaseOneCandidatesNumber = 100
StrongBranchingPhaseOneTreeSizeEstimRatio = 0.3
StrongBranchingPhaseTwoCandidatesNumber = 1
StrongBranchingPhaseTwoTreeSizeEstimRatio = 0.1
MaxTimeForRestrictedMasterIpHeur = -1
DivingHeurUseDepthLimit = 0
MaxLDSbreadth = 3
MaxLDSdepth = 2
New model incumbent solution 1e+06, TIME = 0h0m0s3t = 3
Model is built TIME = 0h0m1s67t = 167
************************************************************************************************
**** BaB tree root node
**** Local DB = -1e+12, global bounds : [ -1e+12 , 1e+06 ], TIME = 0h0m1s67t = 167
**** 1 open nodes, 0 columns (0 active), 0 dyn. constrs. (0 active), 500 art. vars. (500 active)
************************************************************************************************
<DWph=2> <it= 10> <et=2.39> <Mt= 0.01> <Spt= 0.71> <nCl=1000> <DB=-616753813.6225> <Mlp=199920032.8000> <PB=1000000> 
<DWph=2> <it= 20> <et=3.18> <Mt= 0.03> <Spt= 0.75> <nCl=1000> <DB=-610203193.5071> <Mlp=112200059.5000> <PB=1000000> 
<DWph=2> <it= 30> <et=3.96> <Mt= 0.05> <Spt= 0.72> <nCl=1000> <DB=-586067732.9208> <Mlp=24000083.0000> <PB=1000000> 
<DWph=2> <it= 40> <et=4.93> <Mt= 0.11> <Spt= 0.86> <nCl=900> <DB=   17.3463> <Mlp=   86.5625> <PB=1000000> 
<DWph=2> <it= 44> <et=5.36> <Mt= 0.07> <Spt= 0.36> <nCl=283> <DB=   85.0000> <Mlp=   85.0000> <PB=1000000> 
<DWph=1> <it= 50> <et=5.88> <Mt= 0.08> <Spt= 0.43> <nCl=386> <DB=    5.5021> <Mlp=   84.0000> <PB=1000000> 
<DWph=1> <it= 60> <et=6.86> <Mt= 0.18> <Spt= 0.81> <nCl=754> <DB=   81.3594> <Mlp=   83.0085> <PB=1000000> 
<DWph=1> <it= 63> <et=7.21> <Mt= 0.01> <Spt= 0.33> <nCl=108> <DB=   83.0000> <Mlp=   83.0000> <PB=1000000> 
<DWph=0> <it= 64> <et=7.30> <Mt= 0.00> <Spt= 0.08> <nCl=  0> <DB=   83.0000> <Mlp=   83.0000> <PB=1000000> 
Reduced cost fixing for graph G_1... took 1.41 sec., 149489 buck. arcs remain (100% from prev., 40% from max.)
Run enumeration... took 1.25 sec. and not succeeded.
ColGenEvalAlg final dual bound: 83 (rounded: 83)
----------- Diving heuristic started -----------
<DWph=2> <it=  1> <et=10.00> <Mt= 0.00> <Spt= 0.00> <nCl=  0> <DB=   83.0000> <Mlp=   83.0000> <PB=1000000> 
<DWph=1> <it=  2> <et=10.00> <Mt= 0.00> <Spt= 0.00> <nCl=  0> <DB=   83.0000> <Mlp=   83.0000> <PB=1000000> 
---- Diving heuristic node with dive number = 0, fix depth = 0 and tabu list size = 0
Fixed projected solution = [x_1_0_1_OspV=1, x_1_45_1_OspV=1, x_1_145_1_OspV=1, x_1_194_1_OspV=1]
<DWph=2> <it=  1> <et=10.05> <Mt= 0.01> <Spt= 0.00> <nCl=  0> <DB=   83.0000> <Mlp=   83.0000> <PB=1000000> 
<DWph=1> <it=  2> <et=10.05> <Mt= 0.00> <Spt= 0.00> <nCl=  0> <DB=   83.0000> <Mlp=   83.0000> <PB=1000000> 
---- Diving heuristic node with dive number = 0, fix depth = 0 and tabu list size = 0
Fixed projected solution = [x_1_0_1_OspV=1, x_1_74_1_OspV=1, x_1_133_1_OspV=1, x_1_202_1_OspV=1]
<DWph=2> <it=  1> <et=10.10> <Mt= 0.00> <Spt= 0.00> <nCl=  0> <DB=   83.0000> <Mlp=   83.0000> <PB=1000000> 
<DWph=1> <it=  2> <et=10.10> <Mt= 0.00> <Spt= 0.00> <nCl=  0> <DB=   83.0000> <Mlp=   83.0000> <PB=1000000> 
---- Diving heuristic node with dive number = 0, fix depth = 0 and tabu list size = 0
Fixed projected solution = [x_1_0_1_OspV=1, x_1_28_1_OspV=1, x_1_121_1_OspV=1, x_1_220_1_OspV=1]
<DWph=2> <it=  1> <et=10.14> <Mt= 0.00> <Spt= 0.00> <nCl=  0> <DB=   83.0000> <Mlp=   83.0000> <PB=1000000> 
<DWph=1> <it=  2> <et=10.14> <Mt= 0.00> <Spt= 0.00> <nCl=  0> <DB=   83.0000> <Mlp=   83.0000> <PB=1000000> 
---- Diving heuristic node with dive number = 0, fix depth = 0 and tabu list size = 0
Fixed projected solution = [x_1_0_1_OspV=1, x_1_20_1_OspV=1, x_1_97_1_OspV=1, x_1_229_1_OspV=1]
<DWph=2> <it=  1> <et=10.19> <Mt= 0.00> <Spt= 0.00> <nCl=  0> <DB=   83.0000> <Mlp=   83.0000> <PB=1000000> 
<DWph=1> <it=  2> <et=10.19> <Mt= 0.01> <Spt= 0.00> <nCl=  0> <DB=   83.0000> <Mlp=   83.0000> <PB=1000000> 
---- Diving heuristic node with dive number = 0, fix depth = 0 and tabu list size = 0
Fixed projected solution = [x_1_0_1_OspV=1, x_1_18_1_OspV=1, x_1_88_1_OspV=1, x_1_232_1_OspV=1]
<DWph=2> <it=  1> <et=10.24> <Mt= 0.00> <Spt= 0.00> <nCl=  0> <DB=   83.0000> <Mlp=   83.0000> <PB=1000000> 
<DWph=1> <it=  2> <et=10.24> <Mt= 0.00> <Spt= 0.00> <nCl=  0> <DB=   83.0000> <Mlp=   83.0000> <PB=1000000> 
---- Diving heuristic node with dive number = 0, fix depth = 0 and tabu list size = 0
Fixed projected solution = [x_1_0_1_OspV=1, x_1_106_1_OspV=1, x_1_117_1_OspV=1, x_1_197_1_OspV=1]
<DWph=2> <it=  1> <et=10.28> <Mt= 0.00> <Spt= 0.00> <nCl=  0> <DB=   83.0000> <Mlp=   83.0000> <PB=1000000> 
<DWph=1> <it=  2> <et=10.28> <Mt= 0.00> <Spt= 0.00> <nCl=  0> <DB=   83.0000> <Mlp=   83.0000> <PB=1000000> 
---- Diving heuristic node with dive number = 0, fix depth = 0 and tabu list size = 0
Fixed projected solution = [x_1_0_1_OspV=1, x_1_73_1_OspV=1, x_1_136_1_OspV=1, x_1_200_1_OspV=1]
<DWph=2> <it=  1> <et=10.33> <Mt= 0.00> <Spt= 0.00> <nCl=  0> <DB=   83.0000> <Mlp=   83.0000> <PB=1000000> 
<DWph=1> <it=  2> <et=10.33> <Mt= 0.01> <Spt= 0.00> <nCl=  0> <DB=   83.0000> <Mlp=   83.0000> <PB=1000000> 
---- Diving heuristic node with dive number = 0, fix depth = 0 and tabu list size = 0
Fixed projected solution = [x_1_0_1_OspV=1, x_1_109_1_OspV=1, x_1_120_1_OspV=1, x_1_193_1_OspV=1]
<DWph=2> <it=  1> <et=10.38> <Mt= 0.00> <Spt= 0.00> <nCl=  0> <DB=   83.0000> <Mlp=   83.0000> <PB=1000000> 
<DWph=1> <it=  2> <et=10.38> <Mt= 0.00> <Spt= 0.00> <nCl=  0> <DB=   83.0000> <Mlp=   83.0000> <PB=1000000> 
---- Diving heuristic node with dive number = 0, fix depth = 0 and tabu list size = 0
Fixed projected solution = [x_1_0_1_OspV=1, x_1_8_1_OspV=1, x_1_22_1_OspV=1, x_1_246_1_OspV=1]
<DWph=2> <it=  1> <et=10.42> <Mt= 0.00> <Spt= 0.00> <nCl=  0> <DB=   83.0000> <Mlp=   83.0000> <PB=1000000> 
<DWph=1> <it=  2> <et=10.42> <Mt= 0.00> <Spt= 0.00> <nCl=  0> <DB=   83.0000> <Mlp=   83.0000> <PB=1000000> 
---- Diving heuristic node with dive number = 0, fix depth = 1 and tabu list size = 0
Fixed projected solution = [x_1_0_1_OspV=1, x_1_41_1_OspV=1, x_1_86_1_OspV=1, x_1_230_1_OspV=1]
<DWph=2> <it=  1> <et=10.46> <Mt= 0.01> <Spt= 0.00> <nCl=  0> <DB=   83.0000> <Mlp=   83.0000> <PB=1000000> 
<DWph=1> <it=  2> <et=10.46> <Mt= 0.00> <Spt= 0.00> <nCl=  0> <DB=   83.0000> <Mlp=   83.0000> <PB=1000000> 
---- Diving heuristic node with dive number = 0, fix depth = 2 and tabu list size = 0
Fixed projected solution = [x_1_0_1_OspV=1, x_1_69_1_OspV=1, x_1_112_1_OspV=1, x_1_212_1_OspV=1]
<DWph=2> <it=  1> <et=10.50> <Mt= 0.00> <Spt= 0.00> <nCl=  0> <DB=   83.0000> <Mlp=   83.0000> <PB=1000000> 
<DWph=1> <it=  2> <et=10.50> <Mt= 0.00> <Spt= 0.00> <nCl=  0> <DB=   83.0000> <Mlp=   83.0000> <PB=1000000> 
---- Diving heuristic node with dive number = 0, fix depth = 3 and tabu list size = 0
Fixed projected solution = [x_1_0_1_OspV=1, x_1_2_1_OspV=1, x_1_12_1_OspV=1, x_1_249_1_OspV=1]
<DWph=2> <it=  1> <et=10.51> <Mt= 0.00> <Spt= 0.00> <nCl=  0> <DB=   83.0000> <Mlp=   83.0000> <PB=1000000> 
<DWph=1> <it=  2> <et=10.51> <Mt= 0.00> <Spt= 0.00> <nCl=  0> <DB=   83.0000> <Mlp=   83.0000> <PB=1000000> 
---- Diving heuristic node with dive number = 0, fix depth = 4 and tabu list size = 0
Fixed projected solution = [x_1_0_1_OspV=1, x_1_10_1_OspV=1, x_1_72_1_OspV=1, x_1_238_1_OspV=1]
<DWph=2> <it=  1> <et=10.52> <Mt= 0.01> <Spt= 0.00> <nCl=  0> <DB=   83.0000> <Mlp=   83.0000> <PB=1000000> 
<DWph=1> <it=  2> <et=10.52> <Mt= 0.00> <Spt= 0.00> <nCl=  0> <DB=   83.0000> <Mlp=   83.0000> <PB=1000000> 
---- Diving heuristic node with dive number = 0, fix depth = 5 and tabu list size = 0
Fixed projected solution = [x_1_0_1_OspV=1, x_1_71_1_OspV=1, x_1_94_1_OspV=1, x_1_219_1_OspV=1]
<DWph=2> <it=  1> <et=10.53> <Mt= 0.00> <Spt= 0.00> <nCl=  0> <DB=   83.0000> <Mlp=   83.0000> <PB=1000000> 
<DWph=1> <it=  2> <et=10.53> <Mt= 0.00> <Spt= 0.00> <nCl=  0> <DB=   83.0000> <Mlp=   83.0000> <PB=1000000> 
---- Diving heuristic node with dive number = 0, fix depth = 6 and tabu list size = 0
Fixed projected solution = [x_1_0_1_OspV=1, x_1_48_1_OspV=1, x_1_96_1_OspV=1, x_1_225_1_OspV=1]
<DWph=2> <it=  1> <et=10.55> <Mt= 0.02> <Spt= 0.00> <nCl=  0> <DB=   83.0000> <Mlp=   83.0000> <PB=1000000> 
<DWph=1> <it=  2> <et=10.55> <Mt= 0.00> <Spt= 0.00> <nCl=  0> <DB=   83.0000> <Mlp=   83.0000> <PB=1000000> 
---- Diving heuristic node with dive number = 0, fix depth = 7 and tabu list size = 0
Fixed projected solution = [x_1_0_1_OspV=1, x_1_32_1_OspV=1, x_1_140_1_OspV=1, x_1_205_1_OspV=1]
<DWph=2> <it=  1> <et=10.56> <Mt= 0.00> <Spt= 0.00> <nCl=  0> <DB=   83.0000> <Mlp=   83.0000> <PB=1000000> 
<DWph=1> <it=  2> <et=10.56> <Mt= 0.00> <Spt= 0.00> <nCl=  0> <DB=   83.0000> <Mlp=   83.0000> <PB=1000000> 
---- Diving heuristic node with dive number = 0, fix depth = 8 and tabu list size = 0
Fixed projected solution = [x_1_0_1_OspV=1, x_1_128_1_OspV=1, x_1_129_1_OspV=1, x_1_186_1_OspV=1]
<DWph=2> <it=  1> <et=10.57> <Mt= 0.01> <Spt= 0.00> <nCl=  0> <DB=   83.0000> <Mlp=   83.0000> <PB=1000000> 
<DWph=1> <it=  2> <et=10.57> <Mt= 0.00> <Spt= 0.00> <nCl=  0> <DB=   83.0000> <Mlp=   83.0000> <PB=1000000> 
---- Diving heuristic node with dive number = 0, fix depth = 9 and tabu list size = 0
Fixed projected solution = [x_1_0_1_OspV=1, x_1_24_1_OspV=1, x_1_130_1_OspV=1, x_1_217_1_OspV=1]
<DWph=2> <it=  1> <et=10.58> <Mt= 0.01> <Spt= 0.00> <nCl=  0> <DB=   83.0000> <Mlp=   83.0000> <PB=1000000> 
<DWph=1> <it=  2> <et=10.58> <Mt= 0.00> <Spt= 0.00> <nCl=  0> <DB=   83.0000> <Mlp=   83.0000> <PB=1000000> 
---- Diving heuristic node with dive number = 0, fix depth = 10 and tabu list size = 0
Fixed projected solution = [x_1_0_1_OspV=1, x_1_5_1_OspV=1, x_1_137_1_OspV=1, x_1_215_1_OspV=1]
<DWph=2> <it=  1> <et=10.60> <Mt= 0.01> <Spt= 0.00> <nCl=  0> <DB=   83.0000> <Mlp=   83.0000> <PB=1000000> 
<DWph=1> <it=  2> <et=10.61> <Mt= 0.00> <Spt= 0.00> <nCl=  0> <DB=   83.0000> <Mlp=   83.0000> <PB=1000000> 
---- Diving heuristic node with dive number = 0, fix depth = 10 and tabu list size = 0
Fixed projected solution = [x_1_0_1_OspV=1, x_1_26_1_OspV=1, x_1_105_1_OspV=1, x_1_226_1_OspV=1]
<DWph=2> <it=  1> <et=10.61> <Mt= 0.00> <Spt= 0.00> <nCl=  0> <DB=   83.0000> <Mlp=   83.0000> <PB=1000000> 
<DWph=1> <it=  2> <et=10.61> <Mt= 0.00> <Spt= 0.00> <nCl=  0> <DB=   83.0000> <Mlp=   83.0000> <PB=1000000> 
---- Diving heuristic node with dive number = 0, fix depth = 10 and tabu list size = 0
Fixed projected solution = [x_1_0_1_OspV=1, x_1_75_1_OspV=1, x_1_104_1_OspV=1, x_1_214_1_OspV=1]
<DWph=2> <it=  1> <et=10.62> <Mt= 0.00> <Spt= 0.00> <nCl=  0> <DB=   83.0000> <Mlp=   83.0000> <PB=1000000> 
<DWph=1> <it=  2> <et=10.62> <Mt= 0.01> <Spt= 0.00> <nCl=  0> <DB=   83.0000> <Mlp=   83.0000> <PB=1000000> 
---- Diving heuristic node with dive number = 0, fix depth = 11 and tabu list size = 0
Fixed projected solution = [x_1_0_1_OspV=1, x_1_47_1_OspV=1, x_1_61_1_OspV=1, x_1_235_1_OspV=1]
<DWph=2> <it=  1> <et=10.64> <Mt= 0.02> <Spt= 0.00> <nCl=  0> <DB=   83.0000> <Mlp=   83.0000> <PB=1000000> 
<DWph=1> <it=  2> <et=10.65> <Mt= 0.00> <Spt= 0.00> <nCl=  0> <DB=   83.0000> <Mlp=   83.0000> <PB=1000000> 
---- Diving heuristic node with dive number = 0, fix depth = 11 and tabu list size = 0
Fixed projected solution = [x_1_0_1_OspV=1, x_1_11_1_OspV=1, x_1_13_1_OspV=1, x_1_247_1_OspV=1]
<DWph=2> <it=  1> <et=10.65> <Mt= 0.00> <Spt= 0.00> <nCl=  0> <DB=   83.0000> <Mlp=   83.0000> <PB=1000000> 
<DWph=1> <it=  2> <et=10.65> <Mt= 0.00> <Spt= 0.00> <nCl=  0> <DB=   83.0000> <Mlp=   83.0000> <PB=1000000> 
---- Diving heuristic node with dive number = 0, fix depth = 12 and tabu list size = 0
Fixed projected solution = [x_1_0_1_OspV=1, x_1_65_1_OspV=1, x_1_141_1_OspV=1, x_1_199_1_OspV=1]
<DWph=2> <it=  1> <et=10.67> <Mt= 0.01> <Spt= 0.00> <nCl=  0> <DB=   83.0000> <Mlp=   83.0000> <PB=1000000> 
<DWph=1> <it=  2> <et=10.67> <Mt= 0.00> <Spt= 0.00> <nCl=  0> <DB=   83.0000> <Mlp=   83.0000> <PB=1000000> 
---- Diving heuristic node with dive number = 0, fix depth = 13 and tabu list size = 0
Fixed projected solution = [x_1_0_1_OspV=1, x_1_107_1_OspV=1, x_1_122_1_OspV=1, x_1_195_1_OspV=1]
<DWph=2> <it=  1> <et=10.68> <Mt= 0.01> <Spt= 0.00> <nCl=  0> <DB=   83.0000> <Mlp=   83.0000> <PB=1000000> 
<DWph=1> <it=  2> <et=10.69> <Mt= 0.00> <Spt= 0.00> <nCl=  0> <DB=   83.0000> <Mlp=   83.0000> <PB=1000000> 
---- Diving heuristic node with dive number = 0, fix depth = 14 and tabu list size = 0
Fixed projected solution = [x_1_0_1_OspV=1, x_1_55_1_OspV=1, x_1_103_1_OspV=1, x_1_223_1_OspV=1]
<DWph=2> <it=  1> <et=10.71> <Mt= 0.02> <Spt= 0.00> <nCl=  0> <DB=   83.0000> <Mlp=   83.0000> <PB=1000000> 
<DWph=1> <it=  2> <et=10.71> <Mt= 0.00> <Spt= 0.00> <nCl=  0> <DB=   83.0000> <Mlp=   83.0000> <PB=1000000> 
---- Diving heuristic node with dive number = 0, fix depth = 15 and tabu list size = 0
Fixed projected solution = [x_1_0_1_OspV=1, x_1_81_1_OspV=1, x_1_110_1_OspV=1, x_1_208_1_OspV=1]
<DWph=2> <it=  1> <et=10.73> <Mt= 0.02> <Spt= 0.00> <nCl=  0> <DB=   83.0000> <Mlp=   83.0000> <PB=1000000> 
<DWph=1> <it=  2> <et=10.73> <Mt= 0.00> <Spt= 0.00> <nCl=  0> <DB=   83.0000> <Mlp=   83.0000> <PB=1000000> 
---- Diving heuristic node with dive number = 0, fix depth = 16 and tabu list size = 0
Fixed projected solution = [x_1_0_1_OspV=1, x_1_44_1_OspV=1, x_1_135_1_OspV=1, x_1_206_1_OspV=1]
<DWph=2> <it=  1> <et=10.75> <Mt= 0.02> <Spt= 0.00> <nCl=  0> <DB=   83.0000> <Mlp=   83.0000> <PB=1000000> 
<DWph=1> <it=  2> <et=10.76> <Mt= 0.00> <Spt= 0.00> <nCl=  0> <DB=   83.0000> <Mlp=   83.0000> <PB=1000000> 
---- Diving heuristic node with dive number = 0, fix depth = 17 and tabu list size = 0
Fixed projected solution = [x_1_0_1_OspV=1, x_1_83_1_OspV=1, x_1_99_1_OspV=1, x_1_213_1_OspV=1]
<DWph=2> <it=  1> <et=10.77> <Mt= 0.01> <Spt= 0.00> <nCl=  0> <DB=   83.0000> <Mlp=   83.0000> <PB=1000000> 
<DWph=1> <it=  2> <et=10.77> <Mt= 0.00> <Spt= 0.00> <nCl=  0> <DB=   83.0000> <Mlp=   83.0000> <PB=1000000> 
---- Diving heuristic node with dive number = 0, fix depth = 18 and tabu list size = 0
Fixed projected solution = [x_1_0_1_OspV=1, x_1_19_1_OspV=1, x_1_113_1_OspV=1, x_1_224_1_OspV=1]
<DWph=2> <it=  1> <et=10.80> <Mt= 0.02> <Spt= 0.00> <nCl=  0> <DB=   83.0000> <Mlp=   83.0000> <PB=1000000> 
<DWph=1> <it=  2> <et=10.80> <Mt= 0.00> <Spt= 0.00> <nCl=  0> <DB=   83.0000> <Mlp=   83.0000> <PB=1000000> 
---- Diving heuristic node with dive number = 0, fix depth = 19 and tabu list size = 0
Fixed projected solution = [x_1_0_1_OspV=1, x_1_90_1_OspV=1, x_1_148_1_OspV=1, x_1_182_1_OspV=1]
<DWph=2> <it=  1> <et=10.82> <Mt= 0.02> <Spt= 0.00> <nCl=  0> <DB=   83.0000> <Mlp=   83.0000> <PB=1000000> 
<DWph=1> <it=  2> <et=10.82> <Mt= 0.00> <Spt= 0.00> <nCl=  0> <DB=   83.0000> <Mlp=   83.0000> <PB=1000000> 
---- Diving heuristic node with dive number = 0, fix depth = 20 and tabu list size = 0
Fixed projected solution = [x_1_0_1_OspV=1, x_1_36_1_OspV=1, x_1_165_1_OspV=1, x_1_175_1_OspV=1]
<DWph=2> <it=  1> <et=10.84> <Mt= 0.01> <Spt= 0.00> <nCl=  0> <DB=   83.0000> <Mlp=   83.0000> <PB=1000000> 
<DWph=1> <it=  2> <et=10.84> <Mt= 0.00> <Spt= 0.00> <nCl=  0> <DB=   83.0000> <Mlp=   83.0000> <PB=1000000> 
---- Diving heuristic node with dive number = 0, fix depth = 21 and tabu list size = 0
Fixed projected solution = [x_1_0_1_OspV=1, x_1_34_1_OspV=1, x_1_127_1_OspV=1, x_1_216_1_OspV=1]
<DWph=2> <it=  1> <et=10.86> <Mt= 0.02> <Spt= 0.00> <nCl=  0> <DB=   83.0000> <Mlp=   83.0000> <PB=1000000> 
<DWph=1> <it=  2> <et=10.86> <Mt= 0.00> <Spt= 0.00> <nCl=  0> <DB=   83.0000> <Mlp=   83.0000> <PB=1000000> 
---- Diving heuristic node with dive number = 0, fix depth = 22 and tabu list size = 0
Fixed projected solution = [x_1_0_1_OspV=1, x_1_118_1_OspV=1, x_1_143_1_OspV=1, x_1_173_1_OspV=1]
<DWph=2> <it=  1> <et=10.89> <Mt= 0.02> <Spt= 0.00> <nCl=  0> <DB=   83.0000> <Mlp=   83.0000> <PB=1000000> 
<DWph=1> <it=  2> <et=10.89> <Mt= 0.00> <Spt= 0.00> <nCl=  0> <DB=   83.0000> <Mlp=   83.0000> <PB=1000000> 
---- Diving heuristic node with dive number = 0, fix depth = 23 and tabu list size = 0
Fixed projected solution = [x_1_0_1_OspV=1, x_1_89_1_OspV=1, x_1_126_1_OspV=1, x_1_201_1_OspV=1]
<DWph=2> <it=  1> <et=10.91> <Mt= 0.02> <Spt= 0.00> <nCl=  0> <DB=   83.0000> <Mlp=   83.0000> <PB=1000000> 
<DWph=1> <it=  2> <et=10.91> <Mt= 0.00> <Spt= 0.00> <nCl=  0> <DB=   83.0000> <Mlp=   83.0000> <PB=1000000> 
---- Diving heuristic node with dive number = 0, fix depth = 24 and tabu list size = 0
Fixed projected solution = [x_1_0_1_OspV=1, x_1_63_1_OspV=1, x_1_64_1_OspV=1, x_1_231_1_OspV=1]
<DWph=2> <it=  1> <et=10.94> <Mt= 0.03> <Spt= 0.00> <nCl=  0> <DB=   83.0000> <Mlp=   83.0000> <PB=1000000> 
<DWph=1> <it=  2> <et=10.94> <Mt= 0.00> <Spt= 0.00> <nCl=  0> <DB=   83.0000> <Mlp=   83.0000> <PB=1000000> 
---- Diving heuristic node with dive number = 0, fix depth = 25 and tabu list size = 0
Fixed projected solution = [x_1_0_1_OspV=1, x_1_31_1_OspV=1, x_1_168_1_OspV=1, x_1_171_1_OspV=1]
<DWph=2> <it=  1> <et=10.98> <Mt= 0.02> <Spt= 0.00> <nCl=  0> <DB=   83.0000> <Mlp=   83.0000> <PB=1000000> 
<DWph=1> <it=  2> <et=10.98> <Mt= 0.00> <Spt= 0.00> <nCl=  0> <DB=   83.0000> <Mlp=   83.0000> <PB=1000000> 
---- Diving heuristic node with dive number = 0, fix depth = 26 and tabu list size = 0
Fixed projected solution = [x_1_0_1_OspV=1, x_1_80_1_OspV=1, x_1_123_1_OspV=1, x_1_204_1_OspV=1]
<DWph=2> <it=  1> <et=11.01> <Mt= 0.03> <Spt= 0.00> <nCl=  0> <DB=   83.0000> <Mlp=   83.0000> <PB=1000000> 
<DWph=1> <it=  2> <et=11.01> <Mt= 0.00> <Spt= 0.00> <nCl=  0> <DB=   83.0000> <Mlp=   83.0000> <PB=1000000> 
---- Diving heuristic node with dive number = 0, fix depth = 26 and tabu list size = 0
Fixed projected solution = [x_1_0_1_OspV=1, x_1_58_1_OspV=1, x_1_155_1_OspV=1, x_1_185_1_OspV=1]
<DWph=2> <it=  1> <et=11.02> <Mt= 0.00> <Spt= 0.00> <nCl=  0> <DB=   83.0000> <Mlp=   83.0000> <PB=1000000> 
<DWph=1> <it=  2> <et=11.02> <Mt= 0.00> <Spt= 0.00> <nCl=  0> <DB=   83.0000> <Mlp=   83.0000> <PB=1000000> 
---- Diving heuristic node with dive number = 0, fix depth = 26 and tabu list size = 0
Fixed projected solution = [x_1_0_1_OspV=1, x_1_85_1_OspV=1, x_1_134_1_OspV=1, x_1_198_1_OspV=1]
<DWph=2> <it=  1> <et=11.02> <Mt= 0.01> <Spt= 0.00> <nCl=  0> <DB=   83.0000> <Mlp=   83.0000> <PB=1000000> 
<DWph=1> <it=  2> <et=11.02> <Mt= 0.00> <Spt= 0.00> <nCl=  0> <DB=   83.0000> <Mlp=   83.0000> <PB=1000000> 
---- Diving heuristic node with dive number = 0, fix depth = 27 and tabu list size = 0
Fixed projected solution = [x_1_0_1_OspV=1, x_1_119_1_OspV=1, x_1_153_1_OspV=1, x_1_166_1_OspV=1]
<DWph=2> <it=  1> <et=11.04> <Mt= 0.01> <Spt= 0.00> <nCl=  0> <DB=   83.0000> <Mlp=   83.0000> <PB=1000000> 
<DWph=1> <it=  2> <et=11.04> <Mt= 0.00> <Spt= 0.00> <nCl=  0> <DB=   83.0000> <Mlp=   83.0000> <PB=1000000> 
---- Diving heuristic node with dive number = 0, fix depth = 27 and tabu list size = 0
Fixed projected solution = [x_1_0_1_OspV=1, x_1_76_1_OspV=1, x_1_144_1_OspV=1, x_1_190_1_OspV=1]
<DWph=2> <it=  1> <et=11.04> <Mt= 0.00> <Spt= 0.00> <nCl=  0> <DB=   83.0000> <Mlp=   83.0000> <PB=1000000> 
<DWph=1> <it=  2> <et=11.05> <Mt= 0.00> <Spt= 0.00> <nCl=  0> <DB=   83.0000> <Mlp=   83.0000> <PB=1000000> 
---- Diving heuristic node with dive number = 0, fix depth = 28 and tabu list size = 0
Fixed projected solution = [x_1_0_1_OspV=1, x_1_84_1_OspV=1, x_1_154_1_OspV=1, x_1_180_1_OspV=1]
<DWph=2> <it=  2> <et=11.20> <Mt= 0.05> <Spt= 0.10> <nCl=100> <DB=   82.4783> <Mlp=   83.0000> <PB=1000000> 
<DWph=1> <it=  3> <et=11.20> <Mt= 0.00> <Spt= 0.00> <nCl=  0> <DB=   83.0000> <Mlp=   83.0000> <PB=1000000> 
---- Diving heuristic node with dive number = 0, fix depth = 29 and tabu list size = 0
Fixed projected solution = [x_1_0_1_OspV=1, x_1_46_1_OspV=1, x_1_162_1_OspV=1, x_1_178_1_OspV=1]
<DWph=2> <it=  3> <et=11.40> <Mt= 0.04> <Spt= 0.15> <nCl=200> <DB=   82.7190> <Mlp=   83.0000> <PB=1000000> 
<DWph=1> <it=  4> <et=11.40> <Mt= 0.00> <Spt= 0.00> <nCl=  0> <DB=   83.0000> <Mlp=   83.0000> <PB=1000000> 
---- Diving heuristic node with dive number = 0, fix depth = 30 and tabu list size = 0
Fixed projected solution = [x_1_0_1_OspV=1, x_1_35_1_OspV=1, x_1_150_1_OspV=1, x_1_192_1_OspV=1]
<DWph=2> <it=  1> <et=11.43> <Mt= 0.02> <Spt= 0.00> <nCl=  0> <DB=   83.0000> <Mlp=   83.0000> <PB=1000000> 
<DWph=1> <it=  2> <et=11.43> <Mt= 0.00> <Spt= 0.00> <nCl=  0> <DB=   83.0000> <Mlp=   83.0000> <PB=1000000> 
---- Diving heuristic node with dive number = 0, fix depth = 31 and tabu list size = 0
Fixed projected solution = [x_1_0_1_OspV=1, x_1_15_1_OspV=1, x_1_57_1_OspV=1, x_1_242_1_OspV=1]
<DWph=2> <it=  2> <et=11.56> <Mt= 0.06> <Spt= 0.08> <nCl= 82> <DB=   82.7734> <Mlp=   83.0000> <PB=1000000> 
<DWph=1> <it=  3> <et=11.56> <Mt= 0.00> <Spt= 0.00> <nCl=  0> <DB=   83.0000> <Mlp=   83.0000> <PB=1000000> 
---- Diving heuristic node with dive number = 0, fix depth = 31 and tabu list size = 0
Fixed projected solution = [x_1_0_1_OspV=1, x_1_39_1_OspV=1, x_1_56_1_OspV=1, x_1_239_1_OspV=1]
<DWph=2> <it=  1> <et=11.57> <Mt= 0.00> <Spt= 0.00> <nCl=  0> <DB=   83.0000> <Mlp=   83.0000> <PB=1000000> 
<DWph=1> <it=  2> <et=11.58> <Mt= 0.00> <Spt= 0.00> <nCl=  0> <DB=   83.0000> <Mlp=   83.0000> <PB=1000000> 
---- Diving heuristic node with dive number = 0, fix depth = 31 and tabu list size = 0
Fixed projected solution = [x_1_0_1_OspV=1, x_1_27_1_OspV=1, x_1_52_1_OspV=1, x_1_241_1_OspV=1]
<DWph=2> <it=  1> <et=11.58> <Mt= 0.00> <Spt= 0.00> <nCl=  0> <DB=   83.0000> <Mlp=   83.0000> <PB=1000000> 
<DWph=1> <it=  2> <et=11.58> <Mt= 0.00> <Spt= 0.00> <nCl=  0> <DB=   83.0000> <Mlp=   83.0000> <PB=1000000> 
---- Diving heuristic node with dive number = 0, fix depth = 31 and tabu list size = 0
Fixed projected solution = [x_1_0_1_OspV=1, x_1_17_1_OspV=1, x_1_60_1_OspV=1, x_1_240_1_OspV=1]
<DWph=2> <it=  1> <et=11.59> <Mt= 0.00> <Spt= 0.00> <nCl=  0> <DB=   83.0000> <Mlp=   83.0000> <PB=1000000> 
<DWph=1> <it=  2> <et=11.59> <Mt= 0.00> <Spt= 0.00> <nCl=  0> <DB=   83.0000> <Mlp=   83.0000> <PB=1000000> 
---- Diving heuristic node with dive number = 0, fix depth = 31 and tabu list size = 0
Fixed projected solution = [x_1_0_1_OspV=1, x_1_4_1_OspV=1, x_1_42_1_OspV=1, x_1_244_1_OspV=1]
<DWph=2> <it=  1> <et=11.59> <Mt= 0.00> <Spt= 0.00> <nCl=  0> <DB=   83.0000> <Mlp=   83.0000> <PB=1000000> 
<DWph=1> <it=  2> <et=11.60> <Mt= 0.00> <Spt= 0.00> <nCl=  0> <DB=   83.0000> <Mlp=   83.0000> <PB=1000000> 
---- Diving heuristic node with dive number = 0, fix depth = 31 and tabu list size = 0
Fixed projected solution = [x_1_0_1_OspV=1, x_1_7_1_OspV=1, x_1_29_1_OspV=1, x_1_245_1_OspV=1]
<DWph=2> <it=  1> <et=11.60> <Mt= 0.01> <Spt= 0.00> <nCl=  0> <DB=   83.0000> <Mlp=   83.0000> <PB=1000000> 
<DWph=1> <it=  2> <et=11.60> <Mt= 0.00> <Spt= 0.00> <nCl=  0> <DB=   83.0000> <Mlp=   83.0000> <PB=1000000> 
---- Diving heuristic node with dive number = 0, fix depth = 31 and tabu list size = 0
Fixed projected solution = [x_1_0_1_OspV=1, x_1_1_1_OspV=1, x_1_23_1_OspV=1, x_1_248_1_OspV=1]
<DWph=2> <it=  1> <et=11.61> <Mt= 0.00> <Spt= 0.00> <nCl=  0> <DB=   83.0000> <Mlp=   83.0000> <PB=1000000> 
<DWph=1> <it=  2> <et=11.61> <Mt= 0.00> <Spt= 0.00> <nCl=  0> <DB=   83.0000> <Mlp=   83.0000> <PB=1000000> 
---- Diving heuristic node with dive number = 0, fix depth = 31 and tabu list size = 0
Fixed projected solution = [x_1_0_1_OspV=1, x_1_21_1_OspV=1, x_1_40_1_OspV=1, x_1_243_1_OspV=1]
<DWph=2> <it=  1> <et=11.62> <Mt= 0.00> <Spt= 0.00> <nCl=  0> <DB=   83.0000> <Mlp=   83.0000> <PB=1000000> 
<DWph=1> <it=  2> <et=11.62> <Mt= 0.00> <Spt= 0.00> <nCl=  0> <DB=   83.0000> <Mlp=   83.0000> <PB=1000000> 
---- Diving heuristic node with dive number = 0, fix depth = 32 and tabu list size = 0
Fixed projected solution = [x_1_0_1_OspV=1, x_1_70_1_OspV=1, x_1_139_1_OspV=1, x_1_196_1_OspV=1]
<DWph=2> <it=  1> <et=11.63> <Mt= 0.01> <Spt= 0.00> <nCl=  0> <DB=   83.0000> <Mlp=   83.0000> <PB=1000000> 
<DWph=1> <it=  2> <et=11.63> <Mt= 0.00> <Spt= 0.00> <nCl=  0> <DB=   83.0000> <Mlp=   83.0000> <PB=1000000> 
---- Diving heuristic node with dive number = 0, fix depth = 33 and tabu list size = 0
Fixed projected solution = [x_1_0_1_OspV=1, x_1_66_1_OspV=1, x_1_158_1_OspV=1, x_1_172_1_OspV=1]
<DWph=2> <it=  1> <et=11.65> <Mt= 0.01> <Spt= 0.00> <nCl=  0> <DB=   83.0000> <Mlp=   83.0000> <PB=1000000> 
<DWph=1> <it=  2> <et=11.65> <Mt= 0.00> <Spt= 0.00> <nCl=  0> <DB=   83.0000> <Mlp=   83.0000> <PB=1000000> 
---- Diving heuristic node with dive number = 0, fix depth = 34 and tabu list size = 0
Fixed projected solution = [x_1_0_1_OspV=1, x_1_38_1_OspV=1, x_1_115_1_OspV=1, x_1_221_1_OspV=1]
<DWph=2> <it=  1> <et=11.66> <Mt= 0.01> <Spt= 0.00> <nCl=  0> <DB=   83.0000> <Mlp=   83.0000> <PB=1000000> 
<DWph=1> <it=  2> <et=11.66> <Mt= 0.00> <Spt= 0.00> <nCl=  0> <DB=   83.0000> <Mlp=   83.0000> <PB=1000000> 
---- Diving heuristic node with dive number = 0, fix depth = 35 and tabu list size = 0
Fixed projected solution = [x_1_0_1_OspV=1, x_1_30_1_OspV=1, x_1_82_1_OspV=1, x_1_233_1_OspV=1]
<DWph=2> <it=  1> <et=11.69> <Mt= 0.02> <Spt= 0.00> <nCl=  0> <DB=   83.0000> <Mlp=   83.0000> <PB=1000000> 
<DWph=1> <it=  2> <et=11.69> <Mt= 0.00> <Spt= 0.00> <nCl=  0> <DB=   83.0000> <Mlp=   83.0000> <PB=1000000> 
---- Diving heuristic node with dive number = 0, fix depth = 35 and tabu list size = 0
Fixed projected solution = [x_1_0_1_OspV=1, x_1_50_1_OspV=1, x_1_131_1_OspV=1, x_1_207_1_OspV=1]
<DWph=2> <it=  1> <et=11.69> <Mt= 0.01> <Spt= 0.00> <nCl=  0> <DB=   83.0000> <Mlp=   83.0000> <PB=1000000> 
<DWph=1> <it=  2> <et=11.70> <Mt= 0.00> <Spt= 0.00> <nCl=  0> <DB=   83.0000> <Mlp=   83.0000> <PB=1000000> 
---- Diving heuristic node with dive number = 0, fix depth = 36 and tabu list size = 0
Fixed projected solution = [x_1_0_1_OspV=1, x_1_77_1_OspV=1, x_1_152_1_OspV=1, x_1_183_1_OspV=1]
<DWph=2> <it=  2> <et=11.84> <Mt= 0.06> <Spt= 0.07> <nCl=100> <DB=   82.2342> <Mlp=   83.0000> <PB=1000000> 
<DWph=1> <it=  3> <et=11.84> <Mt= 0.00> <Spt= 0.00> <nCl=  0> <DB=   83.0000> <Mlp=   83.0000> <PB=1000000> 
---- Diving heuristic node with dive number = 0, fix depth = 37 and tabu list size = 0
Fixed projected solution = [x_1_0_1_OspV=1, x_1_6_1_OspV=1, x_1_163_1_OspV=1, x_1_184_1_OspV=1]
<DWph=2> <it=  9> <et=13.13> <Mt= 0.08> <Spt= 1.20> <nCl=283> <DB=   83.0009> <Mlp=   83.0009> <PB=1000000> 
<DWph=1> <it= 10> <et=13.21> <Mt= 0.00> <Spt= 0.08> <nCl=100> <DB=   65.6745> <Mlp=   83.0009> <PB=1000000> 
<DWph=1> <it= 11> <et=13.22> <Mt= 0.00> <Spt= 0.00> <nCl=  0> <DB=   65.6745> <Mlp=   83.0000> <PB=1000000> 
---- Diving heuristic node with dive number = 0, fix depth = 38 and tabu list size = 0
Fixed projected solution = [x_1_0_1_OspV=1, x_1_14_1_OspV=1, x_1_159_1_OspV=1, x_1_188_1_OspV=1]
<DWph=2> <it=  8> <et=14.22> <Mt= 0.09> <Spt= 0.91> <nCl= 60> <DB=   83.0029> <Mlp=   83.0029> <PB=1000000> 
<DWph=1> <it= 10> <et=14.40> <Mt= 0.01> <Spt= 0.16> <nCl=155> <DB=   81.7449> <Mlp=   83.0010> <PB=1000000> 
<DWph=1> <it= 11> <et=14.41> <Mt= 0.01> <Spt= 0.00> <nCl=  0> <DB=   81.7449> <Mlp=   83.0000> <PB=1000000> 
---- Diving heuristic node with dive number = 0, fix depth = 39 and tabu list size = 0
Fixed projected solution = [x_1_0_1_OspV=1, x_1_67_1_OspV=1, x_1_157_1_OspV=1, x_1_174_1_OspV=1]
<DWph=2> <it=  2> <et=14.68> <Mt= 0.04> <Spt= 0.22> <nCl= 11> <DB=   82.8984> <Mlp=   83.0008> <PB=1000000> 
<DWph=1> <it=  8> <et=15.27> <Mt= 0.01> <Spt= 0.58> <nCl= 33> <DB=   83.0007> <Mlp=   83.0007> <PB=1000000> 
---- Diving heuristic node with dive number = 0, fix depth = 40 and tabu list size = 0
Fixed projected solution = [x_1_0_1_OspV=1, x_1_25_1_OspV=1, x_1_68_1_OspV=1, x_1_237_1_OspV=1]
<DWph=2> <it= 10> <et=16.40> <Mt= 0.07> <Spt= 1.05> <nCl= 72> <DB=   83.0060> <Mlp=   83.0060> <PB=1000000> 
<DWph=1> <it= 13> <et=16.77> <Mt= 0.01> <Spt= 0.36> <nCl= 13> <DB=   83.0060> <Mlp=   83.0060> <PB=1000000> 
---- Diving heuristic node with dive number = 0, fix depth = 41 and tabu list size = 0
Fixed projected solution = [x_1_0_1_OspV=1, x_1_16_1_OspV=1, x_1_78_1_OspV=1, x_1_236_1_OspV=1]
<DWph=2> <it=  5> <et=17.41> <Mt= 0.03> <Spt= 0.59> <nCl= 56> <DB=   83.0063> <Mlp=   83.0063> <PB=1000000> 
<DWph=1> <it=  8> <et=17.73> <Mt= 0.01> <Spt= 0.31> <nCl=  8> <DB=   83.0063> <Mlp=   83.0063> <PB=1000000> 
---- Diving heuristic node with dive number = 0, fix depth = 42 and tabu list size = 0
Fixed projected solution = [x_1_0_1_OspV=1, x_1_3_1_OspV=1, x_1_108_1_OspV=1, x_1_227_1_OspV=1]
<DWph=2> <it=  2> <et=18.06> <Mt= 0.03> <Spt= 0.30> <nCl= 25> <DB=   83.0068> <Mlp=   83.0068> <PB=1000000> 
<DWph=1> <it=  5> <et=18.45> <Mt= 0.00> <Spt= 0.38> <nCl=  5> <DB=   83.0068> <Mlp=   83.0068> <PB=1000000> 
---- Diving heuristic node with dive number = 0, fix depth = 43 and tabu list size = 0
Fixed projected solution = [x_1_0_1_OspV=1, x_1_33_1_OspV=1, x_1_92_1_OspV=1, x_1_228_1_OspV=1]
<DWph=2> <it=  1> <et=18.61> <Mt= 0.00> <Spt= 0.15> <nCl=  0> <DB=   83.0068> <Mlp=   83.0068> <PB=1000000> 
<DWph=1> <it=  2> <et=18.77> <Mt= 0.00> <Spt= 0.16> <nCl=  0> <DB=   83.0068> <Mlp=   83.0068> <PB=1000000> 
---- Diving heuristic node with dive number = 0, fix depth = 44 and tabu list size = 0
Fixed projected solution = [x_1_0_1_OspV=1, x_1_93_1_OspV=1, x_1_151_1_OspV=1, x_1_176_1_OspV=1]
<DWph=2> <it=  6> <et=19.53> <Mt= 0.08> <Spt= 0.67> <nCl= 60> <DB=   83.0111> <Mlp=   83.0111> <PB=1000000> 
<DWph=1> <it= 10> <et=19.92> <Mt= 0.01> <Spt= 0.38> <nCl= 31> <DB=   83.0111> <Mlp=   83.0111> <PB=1000000> 
---- Diving heuristic node with dive number = 0, fix depth = 45 and tabu list size = 0
Fixed projected solution = [x_1_0_1_OspV=1, x_1_37_1_OspV=1, x_1_167_1_OspV=1, x_1_170_1_OspV=1]
<DWph=2> <it=  3> <et=20.35> <Mt= 0.04> <Spt= 0.37> <nCl= 19> <DB=   83.0156> <Mlp=   83.0156> <PB=1000000> 
<DWph=1> <it=  8> <et=20.86> <Mt= 0.03> <Spt= 0.49> <nCl=110> <DB=   83.0119> <Mlp=   83.0119> <PB=1000000> 
---- Diving heuristic node with dive number = 0, fix depth = 46 and tabu list size = 0
Fixed projected solution = [x_1_0_1_OspV=1, x_1_87_1_OspV=1, x_1_102_1_OspV=1, x_1_211_1_OspV=1]
<DWph=2> <it=  1> <et=21.05> <Mt= 0.02> <Spt= 0.15> <nCl=  0> <DB=   83.0122> <Mlp=   83.0122> <PB=1000000> 
<DWph=1> <it=  2> <et=21.21> <Mt= 0.01> <Spt= 0.15> <nCl=  0> <DB=   83.0122> <Mlp=   83.0122> <PB=1000000> 
---- Diving heuristic node with dive number = 0, fix depth = 46 and tabu list size = 0
Fixed projected solution = [x_1_0_1_OspV=1, x_1_59_1_OspV=1, x_1_125_1_OspV=1, x_1_209_1_OspV=1]
<DWph=2> <it=  1> <et=21.37> <Mt= 0.00> <Spt= 0.14> <nCl=  0> <DB=   83.0122> <Mlp=   83.0122> <PB=1000000> 
<DWph=1> <it=  2> <et=21.52> <Mt= 0.00> <Spt= 0.15> <nCl=  0> <DB=   83.0122> <Mlp=   83.0122> <PB=1000000> 
---- Diving heuristic node with dive number = 0, fix depth = 47 and tabu list size = 0
Fixed projected solution = [x_1_0_1_OspV=1, x_1_51_1_OspV=1, x_1_62_1_OspV=1, x_1_234_1_OspV=1]
<DWph=2> <it=  6> <et=22.35> <Mt= 0.07> <Spt= 0.74> <nCl=135> <DB=   83.0147> <Mlp=   83.0147> <PB=1000000> 
<DWph=1> <it= 10> <et=22.76> <Mt= 0.02> <Spt= 0.40> <nCl= 60> <DB=   83.0147> <Mlp=   83.0147> <PB=1000000> 
---- Diving heuristic node with dive number = 0, fix depth = 47 and tabu list size = 0
Fixed projected solution = [x_1_0_1_OspV=1, x_1_91_1_OspV=1, x_1_101_1_OspV=1, x_1_210_1_OspV=1]
<DWph=2> <it=  1> <et=22.92> <Mt= 0.00> <Spt= 0.14> <nCl=  0> <DB=   83.0147> <Mlp=   83.0147> <PB=1000000> 
<DWph=1> <it=  2> <et=23.07> <Mt= 0.00> <Spt= 0.16> <nCl=  0> <DB=   83.0147> <Mlp=   83.0147> <PB=1000000> 
---- Diving heuristic node with dive number = 0, fix depth = 48 and tabu list size = 0
Fixed projected solution = [x_1_0_1_OspV=1, x_1_9_1_OspV=1, x_1_124_1_OspV=1, x_1_222_1_OspV=1]
<DWph=2> <it=  2> <et=23.40> <Mt= 0.03> <Spt= 0.29> <nCl= 24> <DB=   83.0156> <Mlp=   83.0156> <PB=1000000> 
<DWph=1> <it=  8> <et=23.97> <Mt= 0.02> <Spt= 0.54> <nCl= 34> <DB=   83.0156> <Mlp=   83.0156> <PB=1000000> 
---- Diving heuristic node with dive number = 0, fix depth = 49 and tabu list size = 0
Fixed projected solution = [x_1_0_1_OspV=1, x_1_49_1_OspV=1, x_1_156_1_OspV=1, x_1_187_1_OspV=1]
<DWph=2> <it=  6> <et=24.79> <Mt= 0.13> <Spt= 0.68> <nCl=127> <DB=   83.0256> <Mlp=   83.0256> <PB=1000000> 
<DWph=1> <it=  9> <et=25.10> <Mt= 0.00> <Spt= 0.30> <nCl= 23> <DB=   83.0256> <Mlp=   83.0256> <PB=1000000> 
---- Diving heuristic node with dive number = 0, fix depth = 50 and tabu list size = 0
Fixed projected solution = [x_1_0_1_OspV=1, x_1_43_1_OspV=1, x_1_161_1_OspV=1, x_1_179_1_OspV=1]
<DWph=2> <it=  7> <et=25.75> <Mt= 0.06> <Spt= 0.58> <nCl=138> <DB=   83.0333> <Mlp=   83.0333> <PB=1000000> 
<DWph=1> <it= 10> <et=26.06> <Mt= 0.01> <Spt= 0.30> <nCl= 83> <DB=   83.0294> <Mlp=   83.0294> <PB=1000000> 
---- Diving heuristic node with dive number = 0, fix depth = 51 and tabu list size = 0
Fixed projected solution = [x_1_0_1_OspV=1, x_1_95_1_OspV=1, x_1_160_1_OspV=1, x_1_164_1_OspV=1]
<DWph=2> <it=  9> <et=27.04> <Mt= 0.04> <Spt= 0.93> <nCl= 92> <DB=   83.0400> <Mlp=   83.0400> <PB=1000000> 
<DWph=1> <it= 10> <et=27.11> <Mt= 0.00> <Spt= 0.07> <nCl= 48> <DB=   55.3600> <Mlp=   83.0400> <PB=1000000> 
<DWph=1> <it= 16> <et=27.63> <Mt= 0.01> <Spt= 0.49> <nCl= 58> <DB=   83.0345> <Mlp=   83.0345> <PB=1000000> 
---- Diving heuristic node with dive number = 0, fix depth = 52 and tabu list size = 0
Fixed projected solution = [x_1_0_1_OspV=1, x_1_116_1_OspV=1, x_1_132_1_OspV=1, x_1_189_1_OspV=1]
<DWph=2> <it=  3> <et=28.00> <Mt= 0.02> <Spt= 0.35> <nCl=  2> <DB=   83.0400> <Mlp=   83.0400> <PB=1000000> 
<DWph=1> <it=  4> <et=28.14> <Mt= 0.00> <Spt= 0.14> <nCl=  0> <DB=   83.0400> <Mlp=   83.0400> <PB=1000000> 
---- Diving heuristic node with dive number = 0, fix depth = 53 and tabu list size = 0
Fixed projected solution = [x_1_0_1_OspV=1, x_1_53_1_OspV=1, x_1_138_1_OspV=1, x_1_203_1_OspV=1]
<DWph=2> <it= 10> <et=28.95> <Mt= 0.09> <Spt= 0.71> <nCl=269> <DB=   78.8886> <Mlp=   83.0526> <PB=1000000> 
<DWph=2> <it= 11> <et=29.17> <Mt= 0.00> <Spt= 0.21> <nCl=  0> <DB=   83.0526> <Mlp=   83.0526> <PB=1000000> 
<DWph=1> <it= 16> <et=29.74> <Mt= 0.02> <Spt= 0.55> <nCl= 81> <DB=   83.0435> <Mlp=   83.0435> <PB=1000000> 
---- Diving heuristic node with dive number = 0, fix depth = 54 and tabu list size = 0
Fixed projected solution = [x_1_0_1_OspV=1, x_1_54_1_OspV=1, x_1_114_1_OspV=1, x_1_218_1_OspV=1]
<DWph=2> <it= 10> <et=30.65> <Mt= 0.11> <Spt= 0.78> <nCl=264> <DB=   82.2293> <Mlp=   83.0909> <PB=1000000> 
<DWph=2> <it= 16> <et=31.24> <Mt= 0.02> <Spt= 0.57> <nCl= 26> <DB=   83.0909> <Mlp=   83.0909> <PB=1000000> 
<DWph=1> <it= 20> <et=31.60> <Mt= 0.02> <Spt= 0.29> <nCl=204> <DB=   66.9240> <Mlp=   83.0909> <PB=1000000> 
<DWph=1> <it= 24> <et=31.97> <Mt= 0.01> <Spt= 0.36> <nCl= 16> <DB=   83.0909> <Mlp=   83.0909> <PB=1000000> 
---- Diving heuristic node with dive number = 0, fix depth = 55 and tabu list size = 0
Fixed projected solution = [x_1_0_1_OspV=1, x_1_79_1_OspV=1, x_1_142_1_OspV=1, x_1_191_1_OspV=1]
<DWph=2> <it= 10> <et=32.88> <Mt= 0.06> <Spt= 0.83> <nCl=180> <DB=   80.4937> <Mlp=   83.2000> <PB=1000000> 
<DWph=2> <it= 11> <et=33.09> <Mt= 0.01> <Spt= 0.20> <nCl=  0> <DB=   83.2000> <Mlp=   83.2000> <PB=1000000> 
<DWph=1> <it= 16> <et=33.58> <Mt= 0.00> <Spt= 0.48> <nCl=  4> <DB=   83.2000> <Mlp=   83.2000> <PB=1000000> 
---- Diving heuristic node with dive number = 0, fix depth = 56 and tabu list size = 0
Fixed projected solution = [x_1_0_1_OspV=1, x_1_98_1_OspV=1, x_1_146_1_OspV=1, x_1_181_1_OspV=1]
<DWph=2> <it= 10> <et=34.43> <Mt= 0.08> <Spt= 0.76> <nCl=200> <DB=   83.2500> <Mlp=   83.3333> <PB=1000000> 
<DWph=2> <it= 20> <et=35.18> <Mt= 0.03> <Spt= 0.72> <nCl=149> <DB=   80.1577> <Mlp=   83.3333> <PB=1000000> 
<DWph=2> <it= 29> <et=36.34> <Mt= 0.02> <Spt= 1.14> <nCl=  9> <DB=   83.3333> <Mlp=   83.3333> <PB=1000000> 
<DWph=1> <it= 30> <et=36.41> <Mt= 0.00> <Spt= 0.07> <nCl= 50> <DB=  -28.6667> <Mlp=   83.3333> <PB=1000000> 
<DWph=1> <it= 36> <et=37.01> <Mt= 0.02> <Spt= 0.58> <nCl=117> <DB=   83.3333> <Mlp=   83.3333> <PB=1000000> 
---- Diving heuristic node with dive number = 0, fix depth = 57 and tabu list size = 0
Fixed projected solution = [x_1_0_1_OspV=1, x_1_100_1_OspV=1, x_1_149_1_OspV=1, x_1_169_1_OspV=1]
<DWph=2> <it= 10> <et=37.82> <Mt= 0.10> <Spt= 0.68> <nCl=153> <DB=   34.3523> <Mlp=   84.0000> <PB=84> 
<DWph=2> <it= 20> <et=38.55> <Mt= 0.04> <Spt= 0.69> <nCl= 31> <DB=   76.8191> <Mlp=   84.0000> <PB=84> 
<DWph=2> <it= 24> <et=39.11> <Mt= 0.01> <Spt= 0.55> <nCl= 11> <DB=   84.0000> <Mlp=   84.0000> <PB=84> 
<DWph=1> <it= 30> <et=39.56> <Mt= 0.02> <Spt= 0.43> <nCl= 87> <DB=  -50.7821> <Mlp=   84.0000> <PB=84> 
<DWph=1> <it= 35> <et=40.06> <Mt= 0.01> <Spt= 0.49> <nCl= 13> <DB=   84.0000> <Mlp=   84.0000> <PB=84> 
---- Diving heuristic node with dive number = 1, fix depth = 2 and tabu list size = 1
Fixed projected solution = [x_1_0_1_OspV=1, x_1_2_1_OspV=1, x_1_12_1_OspV=1, x_1_249_1_OspV=1]
<DWph=2> <it=  1> <et=40.23> <Mt= 0.01> <Spt= 0.00> <nCl=  0> <DB=   83.0000> <Mlp=   83.0000> <PB=84> 
<DWph=1> <it=  2> <et=40.24> <Mt= 0.00> <Spt= 0.00> <nCl=  0> <DB=   83.0000> <Mlp=   83.0000> <PB=84> 
---- Diving heuristic node with dive number = 1, fix depth = 3 and tabu list size = 1
Fixed projected solution = [x_1_0_1_OspV=1, x_1_71_1_OspV=1, x_1_94_1_OspV=1, x_1_219_1_OspV=1]
<DWph=2> <it=  1> <et=40.25> <Mt= 0.01> <Spt= 0.00> <nCl=  0> <DB=   83.0000> <Mlp=   83.0000> <PB=84> 
<DWph=1> <it=  2> <et=40.25> <Mt= 0.00> <Spt= 0.00> <nCl=  0> <DB=   83.0000> <Mlp=   83.0000> <PB=84> 
---- Diving heuristic node with dive number = 1, fix depth = 4 and tabu list size = 1
Fixed projected solution = [x_1_0_1_OspV=1, x_1_10_1_OspV=1, x_1_72_1_OspV=1, x_1_238_1_OspV=1]
<DWph=2> <it=  1> <et=40.26> <Mt= 0.00> <Spt= 0.00> <nCl=  0> <DB=   83.0000> <Mlp=   83.0000> <PB=84> 
<DWph=1> <it=  2> <et=40.26> <Mt= 0.00> <Spt= 0.00> <nCl=  0> <DB=   83.0000> <Mlp=   83.0000> <PB=84> 
---- Diving heuristic node with dive number = 1, fix depth = 5 and tabu list size = 1
Fixed projected solution = [x_1_0_1_OspV=1, x_1_48_1_OspV=1, x_1_96_1_OspV=1, x_1_225_1_OspV=1]
<DWph=2> <it=  1> <et=40.28> <Mt= 0.01> <Spt= 0.00> <nCl=  0> <DB=   83.0000> <Mlp=   83.0000> <PB=84> 
<DWph=1> <it=  2> <et=40.28> <Mt= 0.00> <Spt= 0.00> <nCl=  0> <DB=   83.0000> <Mlp=   83.0000> <PB=84> 
---- Diving heuristic node with dive number = 1, fix depth = 6 and tabu list size = 1
Fixed projected solution = [x_1_0_1_OspV=1, x_1_66_1_OspV=1, x_1_158_1_OspV=1, x_1_172_1_OspV=1]
<DWph=2> <it=  1> <et=40.30> <Mt= 0.01> <Spt= 0.00> <nCl=  0> <DB=   83.0000> <Mlp=   83.0000> <PB=84> 
<DWph=1> <it=  2> <et=40.30> <Mt= 0.01> <Spt= 0.00> <nCl=  0> <DB=   83.0000> <Mlp=   83.0000> <PB=84> 
---- Diving heuristic node with dive number = 1, fix depth = 7 and tabu list size = 1
Fixed projected solution = [x_1_0_1_OspV=1, x_1_5_1_OspV=1, x_1_137_1_OspV=1, x_1_215_1_OspV=1]
<DWph=2> <it=  1> <et=40.32> <Mt= 0.01> <Spt= 0.00> <nCl=  0> <DB=   83.0000> <Mlp=   83.0000> <PB=84> 
<DWph=1> <it=  2> <et=40.32> <Mt= 0.00> <Spt= 0.00> <nCl=  0> <DB=   83.0000> <Mlp=   83.0000> <PB=84> 
---- Diving heuristic node with dive number = 1, fix depth = 8 and tabu list size = 1
Fixed projected solution = [x_1_0_1_OspV=1, x_1_26_1_OspV=1, x_1_105_1_OspV=1, x_1_226_1_OspV=1]
<DWph=2> <it=  1> <et=40.34> <Mt= 0.00> <Spt= 0.00> <nCl=  0> <DB=   83.0000> <Mlp=   83.0000> <PB=84> 
<DWph=1> <it=  2> <et=40.34> <Mt= 0.00> <Spt= 0.00> <nCl=  0> <DB=   83.0000> <Mlp=   83.0000> <PB=84> 
---- Diving heuristic node with dive number = 1, fix depth = 8 and tabu list size = 1
Fixed projected solution = [x_1_0_1_OspV=1, x_1_75_1_OspV=1, x_1_104_1_OspV=1, x_1_214_1_OspV=1]
<DWph=2> <it=  1> <et=40.34> <Mt= 0.01> <Spt= 0.00> <nCl=  0> <DB=   83.0000> <Mlp=   83.0000> <PB=84> 
<DWph=1> <it=  2> <et=40.35> <Mt= 0.00> <Spt= 0.00> <nCl=  0> <DB=   83.0000> <Mlp=   83.0000> <PB=84> 
---- Diving heuristic node with dive number = 1, fix depth = 9 and tabu list size = 1
Fixed projected solution = [x_1_0_1_OspV=1, x_1_55_1_OspV=1, x_1_103_1_OspV=1, x_1_223_1_OspV=1]
<DWph=2> <it=  1> <et=40.36> <Mt= 0.01> <Spt= 0.00> <nCl=  0> <DB=   83.0000> <Mlp=   83.0000> <PB=84> 
<DWph=1> <it=  2> <et=40.37> <Mt= 0.00> <Spt= 0.00> <nCl=  0> <DB=   83.0000> <Mlp=   83.0000> <PB=84> 
---- Diving heuristic node with dive number = 1, fix depth = 10 and tabu list size = 1
Fixed projected solution = [x_1_0_1_OspV=1, x_1_50_1_OspV=1, x_1_131_1_OspV=1, x_1_207_1_OspV=1]
<DWph=2> <it=  1> <et=40.38> <Mt= 0.01> <Spt= 0.00> <nCl=  0> <DB=   83.0000> <Mlp=   83.0000> <PB=84> 
<DWph=1> <it=  2> <et=40.38> <Mt= 0.00> <Spt= 0.00> <nCl=  0> <DB=   83.0000> <Mlp=   83.0000> <PB=84> 
---- Diving heuristic node with dive number = 1, fix depth = 11 and tabu list size = 1
Fixed projected solution = [x_1_0_1_OspV=1, x_1_119_1_OspV=1, x_1_153_1_OspV=1, x_1_166_1_OspV=1]
<DWph=2> <it=  1> <et=40.39> <Mt= 0.00> <Spt= 0.00> <nCl=  0> <DB=   83.0000> <Mlp=   83.0000> <PB=84> 
<DWph=1> <it=  2> <et=40.39> <Mt= 0.00> <Spt= 0.00> <nCl=  0> <DB=   83.0000> <Mlp=   83.0000> <PB=84> 
---- Diving heuristic node with dive number = 1, fix depth = 12 and tabu list size = 1
Fixed projected solution = [x_1_0_1_OspV=1, x_1_34_1_OspV=1, x_1_127_1_OspV=1, x_1_216_1_OspV=1]
<DWph=2> <it=  1> <et=40.41> <Mt= 0.02> <Spt= 0.00> <nCl=  0> <DB=   83.0000> <Mlp=   83.0000> <PB=84> 
<DWph=1> <it=  2> <et=40.41> <Mt= 0.00> <Spt= 0.00> <nCl=  0> <DB=   83.0000> <Mlp=   83.0000> <PB=84> 
---- Diving heuristic node with dive number = 1, fix depth = 13 and tabu list size = 1
Fixed projected solution = [x_1_0_1_OspV=1, x_1_19_1_OspV=1, x_1_113_1_OspV=1, x_1_224_1_OspV=1]
<DWph=2> <it=  1> <et=40.42> <Mt= 0.00> <Spt= 0.00> <nCl=  0> <DB=   83.0000> <Mlp=   83.0000> <PB=84> 
<DWph=1> <it=  2> <et=40.43> <Mt= 0.00> <Spt= 0.00> <nCl=  0> <DB=   83.0000> <Mlp=   83.0000> <PB=84> 
---- Diving heuristic node with dive number = 1, fix depth = 14 and tabu list size = 1
Fixed projected solution = [x_1_0_1_OspV=1, x_1_9_1_OspV=1, x_1_29_1_OspV=1, x_1_245_1_OspV=1]
<DWph=2> <it=  1> <et=40.45> <Mt= 0.02> <Spt= 0.00> <nCl=  0> <DB=   83.0000> <Mlp=   83.0000> <PB=84> 
<DWph=1> <it=  2> <et=40.45> <Mt= 0.00> <Spt= 0.00> <nCl=  0> <DB=   83.0000> <Mlp=   83.0000> <PB=84> 
---- Diving heuristic node with dive number = 1, fix depth = 15 and tabu list size = 1
Fixed projected solution = [x_1_0_1_OspV=1, x_1_107_1_OspV=1, x_1_122_1_OspV=1, x_1_195_1_OspV=1]
<DWph=2> <it=  1> <et=40.47> <Mt= 0.01> <Spt= 0.00> <nCl=  0> <DB=   83.0000> <Mlp=   83.0000> <PB=84> 
<DWph=1> <it=  2> <et=40.47> <Mt= 0.00> <Spt= 0.00> <nCl=  0> <DB=   83.0000> <Mlp=   83.0000> <PB=84> 
---- Diving heuristic node with dive number = 1, fix depth = 16 and tabu list size = 1
Fixed projected solution = [x_1_0_1_OspV=1, x_1_89_1_OspV=1, x_1_126_1_OspV=1, x_1_201_1_OspV=1]
<DWph=2> <it=  1> <et=40.50> <Mt= 0.02> <Spt= 0.00> <nCl=  0> <DB=   83.0000> <Mlp=   83.0000> <PB=84> 
<DWph=1> <it=  2> <et=40.50> <Mt= 0.00> <Spt= 0.00> <nCl=  0> <DB=   83.0000> <Mlp=   83.0000> <PB=84> 
---- Diving heuristic node with dive number = 1, fix depth = 17 and tabu list size = 1
Fixed projected solution = [x_1_0_1_OspV=1, x_1_128_1_OspV=1, x_1_129_1_OspV=1, x_1_186_1_OspV=1]
<DWph=2> <it=  1> <et=40.51> <Mt= 0.01> <Spt= 0.00> <nCl=  0> <DB=   83.0000> <Mlp=   83.0000> <PB=84> 
<DWph=1> <it=  2> <et=40.51> <Mt= 0.00> <Spt= 0.00> <nCl=  0> <DB=   83.0000> <Mlp=   83.0000> <PB=84> 
---- Diving heuristic node with dive number = 1, fix depth = 18 and tabu list size = 1
Fixed projected solution = [x_1_0_1_OspV=1, x_1_6_1_OspV=1, x_1_23_1_OspV=1, x_1_248_1_OspV=1]
<DWph=2> <it=  1> <et=40.53> <Mt= 0.01> <Spt= 0.00> <nCl=  0> <DB=   83.0000> <Mlp=   83.0000> <PB=84> 
<DWph=1> <it=  2> <et=40.53> <Mt= 0.00> <Spt= 0.00> <nCl=  0> <DB=   83.0000> <Mlp=   83.0000> <PB=84> 
---- Diving heuristic node with dive number = 1, fix depth = 19 and tabu list size = 1
Fixed projected solution = [x_1_0_1_OspV=1, x_1_76_1_OspV=1, x_1_118_1_OspV=1, x_1_208_1_OspV=1]
<DWph=2> <it=  1> <et=40.55> <Mt= 0.01> <Spt= 0.00> <nCl=  0> <DB=   83.0000> <Mlp=   83.0000> <PB=84> 
<DWph=1> <it=  2> <et=40.55> <Mt= 0.00> <Spt= 0.00> <nCl=  0> <DB=   83.0000> <Mlp=   83.0000> <PB=84> 
---- Diving heuristic node with dive number = 1, fix depth = 20 and tabu list size = 1
Fixed projected solution = [x_1_0_1_OspV=1, x_1_85_1_OspV=1, x_1_134_1_OspV=1, x_1_198_1_OspV=1]
<DWph=2> <it=  1> <et=40.57> <Mt= 0.02> <Spt= 0.00> <nCl=  0> <DB=   83.0000> <Mlp=   83.0000> <PB=84> 
<DWph=1> <it=  2> <et=40.57> <Mt= 0.00> <Spt= 0.00> <nCl=  0> <DB=   83.0000> <Mlp=   83.0000> <PB=84> 
---- Diving heuristic node with dive number = 1, fix depth = 20 and tabu list size = 1
Fixed projected solution = [x_1_0_1_OspV=1, x_1_69_1_OspV=1, x_1_112_1_OspV=1, x_1_212_1_OspV=1]
<DWph=2> <it=  1> <et=40.58> <Mt= 0.00> <Spt= 0.00> <nCl=  0> <DB=   83.0000> <Mlp=   83.0000> <PB=84> 
<DWph=1> <it=  2> <et=40.58> <Mt= 0.00> <Spt= 0.00> <nCl=  0> <DB=   83.0000> <Mlp=   83.0000> <PB=84> 
---- Diving heuristic node with dive number = 1, fix depth = 21 and tabu list size = 1
Fixed projected solution = [x_1_0_1_OspV=1, x_1_32_1_OspV=1, x_1_140_1_OspV=1, x_1_205_1_OspV=1]
<DWph=2> <it=  1> <et=40.61> <Mt= 0.02> <Spt= 0.00> <nCl=  0> <DB=   83.0000> <Mlp=   83.0000> <PB=84> 
<DWph=1> <it=  2> <et=40.61> <Mt= 0.00> <Spt= 0.00> <nCl=  0> <DB=   83.0000> <Mlp=   83.0000> <PB=84> 
---- Diving heuristic node with dive number = 1, fix depth = 22 and tabu list size = 1
Fixed projected solution = [x_1_0_1_OspV=1, x_1_36_1_OspV=1, x_1_165_1_OspV=1, x_1_175_1_OspV=1]
<DWph=2> <it=  1> <et=40.63> <Mt= 0.02> <Spt= 0.00> <nCl=  0> <DB=   83.0000> <Mlp=   83.0000> <PB=84> 
<DWph=1> <it=  2> <et=40.63> <Mt= 0.00> <Spt= 0.00> <nCl=  0> <DB=   83.0000> <Mlp=   83.0000> <PB=84> 
---- Diving heuristic node with dive number = 1, fix depth = 23 and tabu list size = 1
Fixed projected solution = [x_1_0_1_OspV=1, x_1_30_1_OspV=1, x_1_164_1_OspV=1, x_1_177_1_OspV=1]
<DWph=2> <it=  1> <et=40.66> <Mt= 0.02> <Spt= 0.00> <nCl=  0> <DB=   83.0000> <Mlp=   83.0000> <PB=84> 
<DWph=1> <it=  2> <et=40.66> <Mt= 0.00> <Spt= 0.00> <nCl=  0> <DB=   83.0000> <Mlp=   83.0000> <PB=84> 
---- Diving heuristic node with dive number = 1, fix depth = 24 and tabu list size = 1
Fixed projected solution = [x_1_0_1_OspV=1, x_1_16_1_OspV=1, x_1_156_1_OspV=1, x_1_191_1_OspV=1]
<DWph=2> <it=  1> <et=40.69> <Mt= 0.02> <Spt= 0.00> <nCl=  0> <DB=   83.0000> <Mlp=   83.0000> <PB=84> 
<DWph=1> <it=  2> <et=40.69> <Mt= 0.00> <Spt= 0.00> <nCl=  0> <DB=   83.0000> <Mlp=   83.0000> <PB=84> 
---- Diving heuristic node with dive number = 1, fix depth = 25 and tabu list size = 1
Fixed projected solution = [x_1_0_1_OspV=1, x_1_17_1_OspV=1, x_1_68_1_OspV=1, x_1_239_1_OspV=1]
<DWph=2> <it=  1> <et=40.71> <Mt= 0.02> <Spt= 0.00> <nCl=  0> <DB=   83.0000> <Mlp=   83.0000> <PB=84> 
<DWph=1> <it=  2> <et=40.71> <Mt= 0.00> <Spt= 0.00> <nCl=  0> <DB=   83.0000> <Mlp=   83.0000> <PB=84> 
---- Diving heuristic node with dive number = 1, fix depth = 25 and tabu list size = 1
Fixed projected solution = [x_1_0_1_OspV=1, x_1_15_1_OspV=1, x_1_60_1_OspV=1, x_1_241_1_OspV=1]
<DWph=2> <it=  1> <et=40.72> <Mt= 0.00> <Spt= 0.00> <nCl=  0> <DB=   83.0000> <Mlp=   83.0000> <PB=84> 
<DWph=1> <it=  2> <et=40.72> <Mt= 0.00> <Spt= 0.00> <nCl=  0> <DB=   83.0000> <Mlp=   83.0000> <PB=84> 
---- Diving heuristic node with dive number = 1, fix depth = 26 and tabu list size = 1
Fixed projected solution = [x_1_0_1_OspV=1, x_1_39_1_OspV=1, x_1_78_1_OspV=1, x_1_233_1_OspV=1]
<DWph=2> <it=  1> <et=40.75> <Mt= 0.02> <Spt= 0.00> <nCl=  0> <DB=   83.0000> <Mlp=   83.0000> <PB=84> 
<DWph=1> <it=  2> <et=40.75> <Mt= 0.00> <Spt= 0.00> <nCl=  0> <DB=   83.0000> <Mlp=   83.0000> <PB=84> 
---- Diving heuristic node with dive number = 1, fix depth = 27 and tabu list size = 1
Fixed projected solution = [x_1_0_1_OspV=1, x_1_25_1_OspV=1, x_1_168_1_OspV=1, x_1_173_1_OspV=1]
<DWph=2> <it=  1> <et=40.78> <Mt= 0.03> <Spt= 0.00> <nCl=  0> <DB=   83.0000> <Mlp=   83.0000> <PB=84> 
<DWph=1> <it=  2> <et=40.78> <Mt= 0.00> <Spt= 0.00> <nCl=  0> <DB=   83.0000> <Mlp=   83.0000> <PB=84> 
---- Diving heuristic node with dive number = 1, fix depth = 28 and tabu list size = 1
Fixed projected solution = [x_1_0_1_OspV=1, x_1_49_1_OspV=1, x_1_161_1_OspV=1, x_1_176_1_OspV=1]
<DWph=2> <it=  2> <et=40.90> <Mt= 0.03> <Spt= 0.08> <nCl=100> <DB=   82.1491> <Mlp=   83.0000> <PB=84> 
<DWph=1> <it=  3> <et=40.90> <Mt= 0.00> <Spt= 0.00> <nCl=  0> <DB=   83.0000> <Mlp=   83.0000> <PB=84> 
---- Diving heuristic node with dive number = 1, fix depth = 29 and tabu list size = 1
Fixed projected solution = [x_1_0_1_OspV=1, x_1_80_1_OspV=1, x_1_123_1_OspV=1, x_1_204_1_OspV=1]
<DWph=2> <it=  1> <et=40.94> <Mt= 0.03> <Spt= 0.00> <nCl=  0> <DB=   83.0000> <Mlp=   83.0000> <PB=84> 
<DWph=1> <it=  2> <et=40.94> <Mt= 0.00> <Spt= 0.00> <nCl=  0> <DB=   83.0000> <Mlp=   83.0000> <PB=84> 
---- Diving heuristic node with dive number = 1, fix depth = 29 and tabu list size = 1
Fixed projected solution = [x_1_0_1_OspV=1, x_1_58_1_OspV=1, x_1_155_1_OspV=1, x_1_185_1_OspV=1]
<DWph=2> <it=  1> <et=40.95> <Mt= 0.00> <Spt= 0.00> <nCl=  0> <DB=   83.0000> <Mlp=   83.0000> <PB=84> 
<DWph=1> <it=  2> <et=40.95> <Mt= 0.00> <Spt= 0.00> <nCl=  0> <DB=   83.0000> <Mlp=   83.0000> <PB=84> 
---- Diving heuristic node with dive number = 1, fix depth = 30 and tabu list size = 1
Fixed projected solution = [x_1_0_1_OspV=1, x_1_35_1_OspV=1, x_1_159_1_OspV=1, x_1_184_1_OspV=1]
<DWph=2> <it=  2> <et=41.08> <Mt= 0.05> <Spt= 0.07> <nCl=100> <DB=   82.4790> <Mlp=   83.0000> <PB=84> 
<DWph=1> <it=  3> <et=41.08> <Mt= 0.00> <Spt= 0.00> <nCl=  0> <DB=   83.0000> <Mlp=   83.0000> <PB=84> 
---- Diving heuristic node with dive number = 1, fix depth = 31 and tabu list size = 1
Fixed projected solution = [x_1_0_1_OspV=1, x_1_62_1_OspV=1, x_1_124_1_OspV=1, x_1_210_1_OspV=1]
<DWph=2> <it=  1> <et=41.11> <Mt= 0.01> <Spt= 0.00> <nCl=  0> <DB=   83.0000> <Mlp=   83.0000> <PB=84> 
<DWph=1> <it=  2> <et=41.11> <Mt= 0.00> <Spt= 0.00> <nCl=  0> <DB=   83.0000> <Mlp=   83.0000> <PB=84> 
---- Diving heuristic node with dive number = 1, fix depth = 32 and tabu list size = 1
Fixed projected solution = [x_1_0_1_OspV=1, x_1_90_1_OspV=1, x_1_139_1_OspV=1, x_1_190_1_OspV=1]
<DWph=2> <it=  1> <et=41.14> <Mt= 0.02> <Spt= 0.00> <nCl=  0> <DB=   83.0000> <Mlp=   83.0000> <PB=84> 
<DWph=1> <it=  2> <et=41.14> <Mt= 0.00> <Spt= 0.00> <nCl=  0> <DB=   83.0000> <Mlp=   83.0000> <PB=84> 
---- Diving heuristic node with dive number = 1, fix depth = 33 and tabu list size = 1
Fixed projected solution = [x_1_0_1_OspV=1, x_1_59_1_OspV=1, x_1_110_1_OspV=1, x_1_217_1_OspV=1]
<DWph=2> <it=  1> <et=41.17> <Mt= 0.03> <Spt= 0.00> <nCl=  0> <DB=   83.0000> <Mlp=   83.0000> <PB=84> 
<DWph=1> <it=  2> <et=41.17> <Mt= 0.00> <Spt= 0.00> <nCl=  0> <DB=   83.0000> <Mlp=   83.0000> <PB=84> 
---- Diving heuristic node with dive number = 1, fix depth = 34 and tabu list size = 1
Fixed projected solution = [x_1_0_1_OspV=1, x_1_31_1_OspV=1, x_1_64_1_OspV=1, x_1_237_1_OspV=1]
<DWph=2> <it=  1> <et=41.20> <Mt= 0.02> <Spt= 0.00> <nCl=  0> <DB=   83.0000> <Mlp=   83.0000> <PB=84> 
<DWph=1> <it=  2> <et=41.20> <Mt= 0.00> <Spt= 0.00> <nCl=  0> <DB=   83.0000> <Mlp=   83.0000> <PB=84> 
---- Diving heuristic node with dive number = 1, fix depth = 35 and tabu list size = 1
Fixed projected solution = [x_1_0_1_OspV=1, x_1_98_1_OspV=1, x_1_151_1_OspV=1, x_1_171_1_OspV=1]
<DWph=2> <it=  1> <et=41.23> <Mt= 0.03> <Spt= 0.00> <nCl=  0> <DB=   83.0000> <Mlp=   83.0000> <PB=84> 
<DWph=1> <it=  2> <et=41.23> <Mt= 0.00> <Spt= 0.00> <nCl=  0> <DB=   83.0000> <Mlp=   83.0000> <PB=84> 
---- Diving heuristic node with dive number = 1, fix depth = 36 and tabu list size = 1
Fixed projected solution = [x_1_0_1_OspV=1, x_1_111_1_OspV=1, x_1_146_1_OspV=1, x_1_170_1_OspV=1]
<DWph=2> <it=  1> <et=41.26> <Mt= 0.02> <Spt= 0.00> <nCl=  0> <DB=   83.0000> <Mlp=   83.0000> <PB=84> 
<DWph=1> <it=  2> <et=41.26> <Mt= 0.00> <Spt= 0.00> <nCl=  0> <DB=   83.0000> <Mlp=   83.0000> <PB=84> 
---- Diving heuristic node with dive number = 1, fix depth = 37 and tabu list size = 1
Fixed projected solution = [x_1_0_1_OspV=1, x_1_101_1_OspV=1, x_1_143_1_OspV=1, x_1_182_1_OspV=1]
<DWph=2> <it=  1> <et=41.29> <Mt= 0.02> <Spt= 0.00> <nCl=  0> <DB=   83.0000> <Mlp=   83.0000> <PB=84> 
<DWph=1> <it=  2> <et=41.29> <Mt= 0.00> <Spt= 0.00> <nCl=  0> <DB=   83.0000> <Mlp=   83.0000> <PB=84> 
---- Diving heuristic node with dive number = 1, fix depth = 37 and tabu list size = 1
Fixed projected solution = [x_1_0_1_OspV=1, x_1_11_1_OspV=1, x_1_13_1_OspV=1, x_1_247_1_OspV=1]
<DWph=2> <it=  1> <et=41.29> <Mt= 0.00> <Spt= 0.00> <nCl=  0> <DB=   83.0000> <Mlp=   83.0000> <PB=84> 
<DWph=1> <it=  2> <et=41.30> <Mt= 0.00> <Spt= 0.00> <nCl=  0> <DB=   83.0000> <Mlp=   83.0000> <PB=84> 
---- Diving heuristic node with dive number = 1, fix depth = 37 and tabu list size = 1
Fixed projected solution = [x_1_0_1_OspV=1, x_1_132_1_OspV=1, x_1_138_1_OspV=1, x_1_169_1_OspV=1]
<DWph=2> <it=  1> <et=41.30> <Mt= 0.00> <Spt= 0.00> <nCl=  0> <DB=   83.0000> <Mlp=   83.0000> <PB=84> 
<DWph=1> <it=  2> <et=41.30> <Mt= 0.00> <Spt= 0.00> <nCl=  0> <DB=   83.0000> <Mlp=   83.0000> <PB=84> 
---- Diving heuristic node with dive number = 1, fix depth = 37 and tabu list size = 1
Fixed projected solution = [x_1_0_1_OspV=1, x_1_43_1_OspV=1, x_1_92_1_OspV=1, x_1_227_1_OspV=1]
<DWph=2> <it=  1> <et=41.31> <Mt= 0.00> <Spt= 0.00> <nCl=  0> <DB=   83.0000> <Mlp=   83.0000> <PB=84> 
<DWph=1> <it=  2> <et=41.31> <Mt= 0.00> <Spt= 0.00> <nCl=  0> <DB=   83.0000> <Mlp=   83.0000> <PB=84> 
---- Diving heuristic node with dive number = 1, fix depth = 37 and tabu list size = 1
Fixed projected solution = [x_1_0_1_OspV=1, x_1_70_1_OspV=1, x_1_116_1_OspV=1, x_1_211_1_OspV=1]
<DWph=2> <it=  1> <et=41.32> <Mt= 0.01> <Spt= 0.00> <nCl=  0> <DB=   83.0000> <Mlp=   83.0000> <PB=84> 
<DWph=1> <it=  2> <et=41.32> <Mt= 0.00> <Spt= 0.00> <nCl=  0> <DB=   83.0000> <Mlp=   83.0000> <PB=84> 
---- Diving heuristic node with dive number = 1, fix depth = 37 and tabu list size = 1
Fixed projected solution = [x_1_0_1_OspV=1, x_1_14_1_OspV=1, x_1_102_1_OspV=1, x_1_228_1_OspV=1]
<DWph=2> <it=  1> <et=41.33> <Mt= 0.00> <Spt= 0.00> <nCl=  0> <DB=   83.0000> <Mlp=   83.0000> <PB=84> 
<DWph=1> <it=  2> <et=41.33> <Mt= 0.00> <Spt= 0.00> <nCl=  0> <DB=   83.0000> <Mlp=   83.0000> <PB=84> 
---- Diving heuristic node with dive number = 1, fix depth = 38 and tabu list size = 1
Fixed projected solution = [x_1_0_1_OspV=1, x_1_37_1_OspV=1, x_1_163_1_OspV=1, x_1_178_1_OspV=1]
<DWph=2> <it= 10> <et=42.38> <Mt= 0.21> <Spt= 0.83> <nCl=497> <DB=   82.5800> <Mlp=   83.0040> <PB=84> 
<DWph=2> <it= 17> <et=43.31> <Mt= 0.01> <Spt= 0.91> <nCl= 44> <DB=   83.0033> <Mlp=   83.0033> <PB=84> 
<DWph=1> <it= 20> <et=43.56> <Mt= 0.03> <Spt= 0.23> <nCl=158> <DB=   80.5788> <Mlp=   83.0002> <PB=84> 
<DWph=1> <it= 21> <et=43.57> <Mt= 0.00> <Spt= 0.00> <nCl=  0> <DB=   80.5788> <Mlp=   83.0000> <PB=84> 
---- Diving heuristic node with dive number = 1, fix depth = 38 and tabu list size = 1
Fixed projected solution = [x_1_0_1_OspV=1, x_1_3_1_OspV=1, x_1_154_1_OspV=1, x_1_192_1_OspV=1]
<DWph=2> <it=  1> <et=43.58> <Mt= 0.00> <Spt= 0.00> <nCl=  0> <DB=   83.0000> <Mlp=   83.0000> <PB=84> 
<DWph=1> <it=  2> <et=43.59> <Mt= 0.01> <Spt= 0.00> <nCl=  0> <DB=   83.0000> <Mlp=   83.0000> <PB=84> 
---- Diving heuristic node with dive number = 1, fix depth = 38 and tabu list size = 1
Fixed projected solution = [x_1_0_1_OspV=1, x_1_91_1_OspV=1, x_1_160_1_OspV=1, x_1_167_1_OspV=1]
<DWph=2> <it=  1> <et=43.60> <Mt= 0.00> <Spt= 0.00> <nCl=  0> <DB=   83.0000> <Mlp=   83.0000> <PB=84> 
<DWph=1> <it=  2> <et=43.60> <Mt= 0.00> <Spt= 0.00> <nCl=  0> <DB=   83.0000> <Mlp=   83.0000> <PB=84> 
---- Diving heuristic node with dive number = 1, fix depth = 39 and tabu list size = 1
Fixed projected solution = [x_1_0_1_OspV=1, x_1_44_1_OspV=1, x_1_125_1_OspV=1, x_1_213_1_OspV=1]
<DWph=2> <it=  3> <et=43.94> <Mt= 0.02> <Spt= 0.30> <nCl= 23> <DB=   82.1070> <Mlp=   83.0002> <PB=84> 
<DWph=1> <it=  5> <et=44.02> <Mt= 0.01> <Spt= 0.08> <nCl= 57> <DB=   81.5339> <Mlp=   83.0000> <PB=84> 
---- Diving heuristic node with dive number = 1, fix depth = 40 and tabu list size = 1
Fixed projected solution = [x_1_0_1_OspV=1, x_1_63_1_OspV=1, x_1_157_1_OspV=1, x_1_180_1_OspV=1]
<DWph=2> <it=  1> <et=44.05> <Mt= 0.02> <Spt= 0.00> <nCl=  0> <DB=   83.0000> <Mlp=   83.0000> <PB=84> 
<DWph=1> <it=  2> <et=44.06> <Mt= 0.00> <Spt= 0.00> <nCl=  0> <DB=   83.0000> <Mlp=   83.0000> <PB=84> 
---- Diving heuristic node with dive number = 1, fix depth = 41 and tabu list size = 1
Fixed projected solution = [x_1_0_1_OspV=1, x_1_27_1_OspV=1, x_1_56_1_OspV=1, x_1_240_1_OspV=1]
<DWph=2> <it=  1> <et=44.08> <Mt= 0.02> <Spt= 0.00> <nCl=  0> <DB=   83.0000> <Mlp=   83.0000> <PB=84> 
<DWph=1> <it=  2> <et=44.08> <Mt= 0.00> <Spt= 0.00> <nCl=  0> <DB=   83.0000> <Mlp=   83.0000> <PB=84> 
---- Diving heuristic node with dive number = 1, fix depth = 42 and tabu list size = 1
Fixed projected solution = [x_1_0_1_OspV=1, x_1_57_1_OspV=1, x_1_67_1_OspV=1, x_1_231_1_OspV=1]
<DWph=2> <it=  8> <et=44.92> <Mt= 0.06> <Spt= 0.76> <nCl= 59> <DB=   83.0009> <Mlp=   83.0009> <PB=84> 
<DWph=1> <it= 10> <et=45.08> <Mt= 0.01> <Spt= 0.15> <nCl= 67> <DB=   81.6278> <Mlp=   83.0007> <PB=84> 
<DWph=1> <it= 13> <et=45.40> <Mt= 0.01> <Spt= 0.31> <nCl= 12> <DB=   83.0007> <Mlp=   83.0007> <PB=84> 
---- Diving heuristic node with dive number = 1, fix depth = 43 and tabu list size = 1
Fixed projected solution = [x_1_0_1_OspV=1, x_1_47_1_OspV=1, x_1_61_1_OspV=1, x_1_235_1_OspV=1]
<DWph=2> <it=  4> <et=45.90> <Mt= 0.02> <Spt= 0.46> <nCl= 19> <DB=   83.0014> <Mlp=   83.0014> <PB=84> 
<DWph=1> <it=  7> <et=46.26> <Mt= 0.01> <Spt= 0.35> <nCl= 21> <DB=   83.0014> <Mlp=   83.0014> <PB=84> 
---- Diving heuristic node with dive number = 1, fix depth = 44 and tabu list size = 1
Fixed projected solution = [x_1_0_1_OspV=1, x_1_21_1_OspV=1, x_1_82_1_OspV=1, x_1_234_1_OspV=1]
<DWph=2> <it=  4> <et=46.84> <Mt= 0.03> <Spt= 0.54> <nCl= 24> <DB=   83.0016> <Mlp=   83.0016> <PB=84> 
<DWph=1> <it=  7> <et=47.16> <Mt= 0.01> <Spt= 0.31> <nCl=  7> <DB=   83.0016> <Mlp=   83.0016> <PB=84> 
---- Diving heuristic node with dive number = 1, fix depth = 45 and tabu list size = 1
Fixed projected solution = [x_1_0_1_OspV=1, x_1_83_1_OspV=1, x_1_84_1_OspV=1, x_1_221_1_OspV=1]
<DWph=2> <it=  3> <et=47.60> <Mt= 0.03> <Spt= 0.38> <nCl=  8> <DB=   83.0028> <Mlp=   83.0028> <PB=84> 
<DWph=1> <it=  7> <et=48.00> <Mt= 0.02> <Spt= 0.38> <nCl= 22> <DB=   83.0028> <Mlp=   83.0028> <PB=84> 
---- Diving heuristic node with dive number = 1, fix depth = 46 and tabu list size = 1
Fixed projected solution = [x_1_0_1_OspV=1, x_1_79_1_OspV=1, x_1_147_1_OspV=1, x_1_188_1_OspV=1]
<DWph=2> <it=  5> <et=48.68> <Mt= 0.05> <Spt= 0.61> <nCl= 17> <DB=   83.0043> <Mlp=   83.0043> <PB=84> 
<DWph=1> <it=  8> <et=49.23> <Mt= 0.01> <Spt= 0.38> <nCl=  3> <DB=   83.0043> <Mlp=   83.0043> <PB=84> 
---- Diving heuristic node with dive number = 1, fix depth = 47 and tabu list size = 1
Fixed projected solution = [x_1_0_1_OspV=1, x_1_4_1_OspV=1, x_1_42_1_OspV=1, x_1_244_1_OspV=1]
<DWph=2> <it=  7> <et=50.07> <Mt= 0.06> <Spt= 0.77> <nCl=243> <DB=   83.0085> <Mlp=   83.0085> <PB=84> 
<DWph=1> <it= 10> <et=50.38> <Mt= 0.00> <Spt= 0.30> <nCl= 48> <DB=   83.0084> <Mlp=   83.0084> <PB=84> 
---- Diving heuristic node with dive number = 1, fix depth = 48 and tabu list size = 1
Fixed projected solution = [x_1_0_1_OspV=1, x_1_1_1_OspV=1, x_1_51_1_OspV=1, x_1_243_1_OspV=1]
<DWph=2> <it=  3> <et=50.78> <Mt= 0.02> <Spt= 0.37> <nCl= 13> <DB=   83.0089> <Mlp=   83.0089> <PB=84> 
<DWph=1> <it=  5> <et=51.01> <Mt= 0.01> <Spt= 0.22> <nCl=  1> <DB=   83.0088> <Mlp=   83.0088> <PB=84> 
---- Diving heuristic node with dive number = 1, fix depth = 49 and tabu list size = 1
Fixed projected solution = [x_1_0_1_OspV=1, x_1_99_1_OspV=1, x_1_150_1_OspV=1, x_1_174_1_OspV=1]
<DWph=2> <it=  1> <et=51.18> <Mt= 0.02> <Spt= 0.14> <nCl=  0> <DB=   83.0088> <Mlp=   83.0088> <PB=84> 
<DWph=1> <it=  2> <et=51.33> <Mt= 0.00> <Spt= 0.15> <nCl=  0> <DB=   83.0088> <Mlp=   83.0088> <PB=84> 
---- Diving heuristic node with dive number = 1, fix depth = 50 and tabu list size = 1
Fixed projected solution = [x_1_0_1_OspV=1, x_1_81_1_OspV=1, x_1_130_1_OspV=1, x_1_203_1_OspV=1]
<DWph=2> <it=  6> <et=52.04> <Mt= 0.11> <Spt= 0.58> <nCl=276> <DB=   83.0227> <Mlp=   83.0227> <PB=84> 
<DWph=1> <it= 10> <et=52.35> <Mt= 0.02> <Spt= 0.29> <nCl= 66> <DB=   80.4009> <Mlp=   83.0204> <PB=84> 
<DWph=1> <it= 16> <et=52.90> <Mt= 0.02> <Spt= 0.53> <nCl= 45> <DB=   83.0177> <Mlp=   83.0177> <PB=84> 
---- Diving heuristic node with dive number = 1, fix depth = 50 and tabu list size = 1
Fixed projected solution = [x_1_0_1_OspV=1, x_1_46_1_OspV=1, x_1_135_1_OspV=1, x_1_206_1_OspV=1]
<DWph=2> <it=  1> <et=53.07> <Mt= 0.00> <Spt= 0.14> <nCl=  0> <DB=   83.0177> <Mlp=   83.0177> <PB=84> 
<DWph=1> <it=  2> <et=53.22> <Mt= 0.00> <Spt= 0.15> <nCl=  0> <DB=   83.0177> <Mlp=   83.0177> <PB=84> 
---- Diving heuristic node with dive number = 1, fix depth = 51 and tabu list size = 1
Fixed projected solution = [x_1_0_1_OspV=1, x_1_77_1_OspV=1, x_1_115_1_OspV=1, x_1_209_1_OspV=1]
<DWph=2> <it=  1> <et=53.38> <Mt= 0.00> <Spt= 0.15> <nCl=  0> <DB=   83.0177> <Mlp=   83.0177> <PB=84> 
<DWph=1> <it=  2> <et=53.53> <Mt= 0.01> <Spt= 0.15> <nCl=  0> <DB=   83.0177> <Mlp=   83.0177> <PB=84> 
---- Diving heuristic node with dive number = 1, fix depth = 52 and tabu list size = 1
Fixed projected solution = [x_1_0_1_OspV=1, x_1_7_1_OspV=1, x_1_152_1_OspV=1, x_1_196_1_OspV=1]
<DWph=2> <it= 10> <et=54.56> <Mt= 0.05> <Spt= 0.95> <nCl=110> <DB=   83.0357> <Mlp=   83.0357> <PB=84> 
<DWph=1> <it= 13> <et=54.93> <Mt= 0.01> <Spt= 0.36> <nCl= 23> <DB=   83.0357> <Mlp=   83.0357> <PB=84> 
---- Diving heuristic node with dive number = 1, fix depth = 53 and tabu list size = 1
Fixed projected solution = [x_1_0_1_OspV=1, x_1_33_1_OspV=1, x_1_162_1_OspV=1, x_1_181_1_OspV=1]
<DWph=2> <it=  7> <et=55.79> <Mt= 0.06> <Spt= 0.78> <nCl= 89> <DB=   83.0417> <Mlp=   83.0417> <PB=84> 
<DWph=1> <it= 10> <et=56.01> <Mt= 0.01> <Spt= 0.22> <nCl=  7> <DB=   81.5310> <Mlp=   83.0417> <PB=84> 
<DWph=1> <it= 11> <et=56.16> <Mt= 0.00> <Spt= 0.14> <nCl=  0> <DB=   83.0417> <Mlp=   83.0417> <PB=84> 
---- Diving heuristic node with dive number = 1, fix depth = 54 and tabu list size = 1
Fixed projected solution = [x_1_0_1_OspV=1, x_1_38_1_OspV=1, x_1_108_1_OspV=1, x_1_222_1_OspV=1]
<DWph=2> <it= 10> <et=57.12> <Mt= 0.08> <Spt= 0.87> <nCl=190> <DB=   82.4208> <Mlp=   83.0500> <PB=84> 
<DWph=2> <it= 12> <et=57.42> <Mt= 0.00> <Spt= 0.29> <nCl=  1> <DB=   83.0500> <Mlp=   83.0500> <PB=84> 
<DWph=1> <it= 15> <et=57.72> <Mt= 0.01> <Spt= 0.29> <nCl= 49> <DB=   83.0500> <Mlp=   83.0500> <PB=84> 
---- Diving heuristic node with dive number = 1, fix depth = 55 and tabu list size = 1
Fixed projected solution = [x_1_0_1_OspV=1, x_1_40_1_OspV=1, x_1_54_1_OspV=1, x_1_236_1_OspV=1]
<DWph=2> <it=  3> <et=58.15> <Mt= 0.06> <Spt= 0.36> <nCl=183> <DB=   83.0500> <Mlp=   83.0500> <PB=84> 
<DWph=1> <it=  6> <et=58.46> <Mt= 0.01> <Spt= 0.29> <nCl= 87> <DB=   83.0500> <Mlp=   83.0500> <PB=84> 
---- Diving heuristic node with dive number = 1, fix depth = 56 and tabu list size = 1
Fixed projected solution = [x_1_0_1_OspV=1, x_1_53_1_OspV=1, x_1_114_1_OspV=1, x_1_218_1_OspV=1]
<DWph=2> <it= 10> <et=59.43> <Mt= 0.08> <Spt= 0.88> <nCl=257> <DB=   80.8313> <Mlp=   83.0625> <PB=84> 
<DWph=2> <it= 14> <et=59.95> <Mt= 0.01> <Spt= 0.50> <nCl=  5> <DB=   83.0625> <Mlp=   83.0625> <PB=84> 
<DWph=1> <it= 19> <et=60.48> <Mt= 0.02> <Spt= 0.51> <nCl=107> <DB=   83.0625> <Mlp=   83.0625> <PB=84> 
SEARCH IS INTERRUPTED as the time limit is reached. 
---- Diving heuristic node with dive number = 2, fix depth = 2 and tabu list size = 2
Fixed projected solution = [x_1_0_1_OspV=1, x_1_71_1_OspV=1, x_1_94_1_OspV=1, x_1_219_1_OspV=1]
---- Diving heuristic node with dive number = 3, fix depth = 2 and tabu list size = 3
Fixed projected solution = [x_1_0_1_OspV=1, x_1_10_1_OspV=1, x_1_72_1_OspV=1, x_1_238_1_OspV=1]
---- Diving heuristic node with dive number = 4, fix depth = 1 and tabu list size = 1
Fixed projected solution = [x_1_0_1_OspV=1, x_1_69_1_OspV=1, x_1_112_1_OspV=1, x_1_212_1_OspV=1]
---- Diving heuristic node with dive number = 5, fix depth = 1 and tabu list size = 2
Fixed projected solution = [x_1_0_1_OspV=1, x_1_2_1_OspV=1, x_1_12_1_OspV=1, x_1_249_1_OspV=1]
---- Diving heuristic node with dive number = 6, fix depth = 1 and tabu list size = 3
Fixed projected solution = [x_1_0_1_OspV=1, x_1_71_1_OspV=1, x_1_94_1_OspV=1, x_1_219_1_OspV=1]
**** Strong branching phase 1 is started *****
**** Strong branching phase 3 is started *****
New model incumbent solution 84, TIME = 0h1m1s47t = 6147
************************************************************************************************
Search is finished, global bounds : [ 83 , 84 ], TIME = 0h1m1s47t = 6147
************************************************************************************************
[32mBaPCod : solution defined.[00m
statistics_cols: instance & :Optimal & cutoff & :bcRecRootDb & :bcTimeRootEval & :bcCountNodeProc & :bcRecBestDb & :bcRecBestInc & :bcTimeMain \\
statistics: Falkenauer_t249_16 & 0 & 1.0e6 & 83.00 & 10.00 & 1 & 83.00 & 84 & 61.47 \\
########################################################
bin_id=1: 257(0) 365(1) 378(1) 
bin_id=2: 258(0) 365(1) 377(1) 
bin_id=3: 258(0) 361(1) 381(1) 
bin_id=4: 250(0) 360(1) 390(1) 
bin_id=5: 261(0) 357(1) 382(1) 
bin_id=6: 253(0) 352(1) 395(1) 
bin_id=7: 258(0) 333(1) 409(1) 
bin_id=8: 261(0) 328(1) 411(1) 
bin_id=9: 275(0) 321(1) 404(1) 
bin_id=10: 258(0) 317(1) 425(1) 
bin_id=11: 271(0) 317(1) 412(1) 
bin_id=12: 250(0) 312(1) 438(1) 
bin_id=13: 261(0) 310(1) 429(1) 
bin_id=14: 273(0) 308(1) 419(1) 
bin_id=15: 255(0) 304(1) 441(1) 
bin_id=16: 258(0) 303(1) 439(1) 
bin_id=17: 256(0) 298(1) 446(1) 
bin_id=18: 259(0) 294(1) 447(1) 
bin_id=19: 254(0) 294(1) 452(1) 
bin_id=20: 256(0) 290(1) 454(1) 
bin_id=21: 254(0) 285(1) 461(1) 
bin_id=22: 254(0) 279(1) 467(1) 
bin_id=23: 263(1) 267(0) 470(1) 
bin_id=24: 263(0) 307(1) 430(1) 
bin_id=25: 259(0) 264(1) 477(1) 
bin_id=26: 256(0) 263(1) 481(1) 
bin_id=27: 271(0) 294(1) 435(1) 
bin_id=28: 267(0) 267(1) 466(1) 
bin_id=29: 276(1) 287(0) 437(1) 
bin_id=30: 254(0) 266(1) 480(1) 
bin_id=31: 290(1) 296(0) 414(1) 
bin_id=32: 250(0) 293(1) 457(1) 
bin_id=33: 250(0) 260(1) 490(1) 
bin_id=34: 304(0) 304(1) 392(1) 
bin_id=35: 273(0) 290(1) 437(1) 
bin_id=36: 273(0) 311(1) 416(1) 
bin_id=37: 262(1) 267(0) 471(1) 
bin_id=38: 251(0) 256(1) 493(1) 
bin_id=39: 269(0) 352(1) 379(1) 
bin_id=40: 274(0) 337(1) 389(1) 
bin_id=41: 276(0) 300(1) 424(1) 
bin_id=42: 252(1) 253(0) 495(1) 
bin_id=43: 263(0) 285(1) 452(1) 
bin_id=44: 266(0) 342(1) 392(1) 
bin_id=45: 293(1) 298(0) 409(1) 
bin_id=46: 277(0) 309(1) 414(1) 
bin_id=47: 253(0) 265(1) 482(1) 
bin_id=48: 264(0) 288(1) 448(1) 
bin_id=49: 250(0) 252(1) 498(1) 
bin_id=50: 264(0) 294(1) 442(1) 
bin_id=51: 269(0) 351(1) 380(1) 
bin_id=52: 281(0) 287(1) 432(1) 
bin_id=53: 286(0) 329(1) 385(1) 
bin_id=54: 283(0) 336(1) 381(1) 
bin_id=55: 280(0) 331(1) 389(1) 
bin_id=56: 291(0) 298(1) 411(1) 
bin_id=57: 260(0) 277(1) 463(1) 
bin_id=58: 297(0) 341(1) 362(1) 
bin_id=59: 264(0) 316(1) 420(1) 
bin_id=60: 276(0) 293(1) 431(1) 
bin_id=61: 250(0) 254(1) 496(1) 
bin_id=62: 261(0) 356(1) 382(1) 
bin_id=63: 271(0) 284(1) 445(1) 
bin_id=64: 268(0) 318(1) 414(1) 
bin_id=65: 258(0) 282(1) 460(1) 
bin_id=66: 279(0) 287(1) 434(1) 
bin_id=67: 296(1) 324(0) 380(1) 
bin_id=68: 252(0) 272(1) 476(1) 
bin_id=69: 266(0) 302(1) 432(1) 
bin_id=70: 251(0) 254(1) 495(1) 
bin_id=71: 280(0) 303(1) 417(1) 
bin_id=72: 273(0) 324(1) 403(1) 
bin_id=73: 254(0) 259(1) 487(1) 
bin_id=74: 257(0) 276(1) 467(1) 
bin_id=75: 277(0) 341(1) 382(1) 
bin_id=76: 285(0) 354(1) 361(1) 
bin_id=77: 295(1) 308(0) 397(1) 
bin_id=78: 255(0) 269(1) 476(1) 
bin_id=79: 251(0) 301(1) 448(1) 
bin_id=80: 253(0) 274(1) 473(1) 
bin_id=81: 263(0) 343(1) 394(1) 
bin_id=82: 287(0) 332(1) 376(1) 
bin_id=83: 294(0) 382(1) 
bin_id=84: 330(1) 
Objective value: 84.0
########################################################
