Application parameters:
  batch  =>  nothing
  instance  =>  "/IN/Falkenauer_t249_06.txt-Q2Half"
  ub  =>  1.0e6
  cfg  =>  "/CFG/BPP.cfg"
data = Colored Bin Packing dataset.
number of items = 249
number of colors = 2
capacity = 1000
Items : 
	 item 1, weight= 250, color= 0
	 item 2, weight= 250, color= 0
	 item 3, weight= 250, color= 0
	 item 4, weight= 250, color= 0
	 item 5, weight= 250, color= 0
	 item 6, weight= 250, color= 0
	 item 7, weight= 250, color= 0
	 item 8, weight= 250, color= 0
	 item 9, weight= 250, color= 0
	 item 10, weight= 251, color= 0
	 item 11, weight= 251, color= 0
	 item 12, weight= 251, color= 0
	 item 13, weight= 251, color= 0
	 item 14, weight= 251, color= 0
	 item 15, weight= 251, color= 1
	 item 16, weight= 252, color= 0
	 item 17, weight= 252, color= 0
	 item 18, weight= 252, color= 0
	 item 19, weight= 252, color= 1
	 item 20, weight= 253, color= 0
	 item 21, weight= 253, color= 0
	 item 22, weight= 253, color= 0
	 item 23, weight= 253, color= 1
	 item 24, weight= 254, color= 0
	 item 25, weight= 254, color= 0
	 item 26, weight= 254, color= 0
	 item 27, weight= 254, color= 0
	 item 28, weight= 254, color= 0
	 item 29, weight= 255, color= 0
	 item 30, weight= 255, color= 0
	 item 31, weight= 255, color= 1
	 item 32, weight= 255, color= 1
	 item 33, weight= 255, color= 1
	 item 34, weight= 256, color= 0
	 item 35, weight= 256, color= 0
	 item 36, weight= 256, color= 0
	 item 37, weight= 256, color= 0
	 item 38, weight= 256, color= 1
	 item 39, weight= 256, color= 1
	 item 40, weight= 257, color= 0
	 item 41, weight= 257, color= 0
	 item 42, weight= 257, color= 0
	 item 43, weight= 257, color= 0
	 item 44, weight= 257, color= 1
	 item 45, weight= 258, color= 0
	 item 46, weight= 258, color= 0
	 item 47, weight= 258, color= 0
	 item 48, weight= 259, color= 0
	 item 49, weight= 259, color= 0
	 item 50, weight= 259, color= 0
	 item 51, weight= 259, color= 0
	 item 52, weight= 260, color= 0
	 item 53, weight= 261, color= 0
	 item 54, weight= 261, color= 0
	 item 55, weight= 262, color= 0
	 item 56, weight= 262, color= 0
	 item 57, weight= 263, color= 0
	 item 58, weight= 263, color= 0
	 item 59, weight= 263, color= 0
	 item 60, weight= 263, color= 1
	 item 61, weight= 264, color= 0
	 item 62, weight= 264, color= 0
	 item 63, weight= 264, color= 0
	 item 64, weight= 264, color= 1
	 item 65, weight= 265, color= 1
	 item 66, weight= 266, color= 1
	 item 67, weight= 266, color= 1
	 item 68, weight= 266, color= 1
	 item 69, weight= 268, color= 0
	 item 70, weight= 269, color= 0
	 item 71, weight= 269, color= 0
	 item 72, weight= 269, color= 0
	 item 73, weight= 270, color= 0
	 item 74, weight= 270, color= 0
	 item 75, weight= 271, color= 0
	 item 76, weight= 271, color= 1
	 item 77, weight= 273, color= 0
	 item 78, weight= 274, color= 0
	 item 79, weight= 274, color= 0
	 item 80, weight= 274, color= 1
	 item 81, weight= 275, color= 0
	 item 82, weight= 277, color= 1
	 item 83, weight= 278, color= 0
	 item 84, weight= 278, color= 0
	 item 85, weight= 278, color= 0
	 item 86, weight= 280, color= 0
	 item 87, weight= 282, color= 1
	 item 88, weight= 282, color= 1
	 item 89, weight= 282, color= 1
	 item 90, weight= 283, color= 0
	 item 91, weight= 284, color= 0
	 item 92, weight= 284, color= 0
	 item 93, weight= 284, color= 1
	 item 94, weight= 284, color= 1
	 item 95, weight= 285, color= 0
	 item 96, weight= 285, color= 1
	 item 97, weight= 289, color= 0
	 item 98, weight= 289, color= 1
	 item 99, weight= 289, color= 1
	 item 100, weight= 289, color= 1
	 item 101, weight= 289, color= 1
	 item 102, weight= 290, color= 0
	 item 103, weight= 290, color= 1
	 item 104, weight= 291, color= 1
	 item 105, weight= 293, color= 0
	 item 106, weight= 293, color= 1
	 item 107, weight= 293, color= 1
	 item 108, weight= 294, color= 1
	 item 109, weight= 294, color= 1
	 item 110, weight= 295, color= 0
	 item 111, weight= 295, color= 1
	 item 112, weight= 297, color= 1
	 item 113, weight= 298, color= 1
	 item 114, weight= 298, color= 1
	 item 115, weight= 300, color= 0
	 item 116, weight= 300, color= 0
	 item 117, weight= 300, color= 1
	 item 118, weight= 300, color= 1
	 item 119, weight= 302, color= 1
	 item 120, weight= 303, color= 1
	 item 121, weight= 305, color= 0
	 item 122, weight= 306, color= 1
	 item 123, weight= 308, color= 0
	 item 124, weight= 308, color= 1
	 item 125, weight= 309, color= 1
	 item 126, weight= 310, color= 1
	 item 127, weight= 310, color= 1
	 item 128, weight= 312, color= 1
	 item 129, weight= 313, color= 0
	 item 130, weight= 313, color= 1
	 item 131, weight= 313, color= 1
	 item 132, weight= 314, color= 0
	 item 133, weight= 314, color= 1
	 item 134, weight= 316, color= 1
	 item 135, weight= 316, color= 1
	 item 136, weight= 317, color= 1
	 item 137, weight= 318, color= 1
	 item 138, weight= 321, color= 0
	 item 139, weight= 321, color= 1
	 item 140, weight= 321, color= 1
	 item 141, weight= 325, color= 1
	 item 142, weight= 331, color= 1
	 item 143, weight= 332, color= 1
	 item 144, weight= 332, color= 1
	 item 145, weight= 335, color= 1
	 item 146, weight= 335, color= 1
	 item 147, weight= 336, color= 1
	 item 148, weight= 339, color= 1
	 item 149, weight= 340, color= 1
	 item 150, weight= 341, color= 1
	 item 151, weight= 342, color= 1
	 item 152, weight= 346, color= 1
	 item 153, weight= 346, color= 1
	 item 154, weight= 350, color= 1
	 item 155, weight= 350, color= 1
	 item 156, weight= 351, color= 1
	 item 157, weight= 351, color= 1
	 item 158, weight= 352, color= 1
	 item 159, weight= 352, color= 1
	 item 160, weight= 352, color= 1
	 item 161, weight= 352, color= 1
	 item 162, weight= 354, color= 1
	 item 163, weight= 356, color= 1
	 item 164, weight= 357, color= 1
	 item 165, weight= 357, color= 1
	 item 166, weight= 362, color= 1
	 item 167, weight= 363, color= 1
	 item 168, weight= 364, color= 1
	 item 169, weight= 366, color= 1
	 item 170, weight= 366, color= 1
	 item 171, weight= 369, color= 1
	 item 172, weight= 369, color= 1
	 item 173, weight= 370, color= 1
	 item 174, weight= 371, color= 1
	 item 175, weight= 372, color= 1
	 item 176, weight= 374, color= 1
	 item 177, weight= 375, color= 1
	 item 178, weight= 376, color= 1
	 item 179, weight= 380, color= 1
	 item 180, weight= 380, color= 1
	 item 181, weight= 383, color= 1
	 item 182, weight= 384, color= 1
	 item 183, weight= 386, color= 1
	 item 184, weight= 387, color= 1
	 item 185, weight= 389, color= 1
	 item 186, weight= 392, color= 1
	 item 187, weight= 393, color= 1
	 item 188, weight= 393, color= 1
	 item 189, weight= 394, color= 1
	 item 190, weight= 395, color= 1
	 item 191, weight= 395, color= 1
	 item 192, weight= 396, color= 1
	 item 193, weight= 400, color= 1
	 item 194, weight= 403, color= 1
	 item 195, weight= 406, color= 1
	 item 196, weight= 407, color= 1
	 item 197, weight= 408, color= 1
	 item 198, weight= 410, color= 1
	 item 199, weight= 412, color= 1
	 item 200, weight= 413, color= 1
	 item 201, weight= 414, color= 1
	 item 202, weight= 414, color= 1
	 item 203, weight= 414, color= 1
	 item 204, weight= 415, color= 1
	 item 205, weight= 415, color= 1
	 item 206, weight= 420, color= 1
	 item 207, weight= 423, color= 1
	 item 208, weight= 427, color= 1
	 item 209, weight= 428, color= 1
	 item 210, weight= 429, color= 1
	 item 211, weight= 432, color= 1
	 item 212, weight= 432, color= 1
	 item 213, weight= 436, color= 1
	 item 214, weight= 439, color= 1
	 item 215, weight= 440, color= 1
	 item 216, weight= 442, color= 1
	 item 217, weight= 443, color= 1
	 item 218, weight= 444, color= 1
	 item 219, weight= 447, color= 1
	 item 220, weight= 448, color= 1
	 item 221, weight= 448, color= 1
	 item 222, weight= 452, color= 1
	 item 223, weight= 453, color= 1
	 item 224, weight= 453, color= 1
	 item 225, weight= 453, color= 1
	 item 226, weight= 457, color= 1
	 item 227, weight= 457, color= 1
	 item 228, weight= 460, color= 1
	 item 229, weight= 461, color= 1
	 item 230, weight= 465, color= 1
	 item 231, weight= 466, color= 1
	 item 232, weight= 467, color= 1
	 item 233, weight= 468, color= 1
	 item 234, weight= 475, color= 1
	 item 235, weight= 478, color= 1
	 item 236, weight= 479, color= 1
	 item 237, weight= 479, color= 1
	 item 238, weight= 479, color= 1
	 item 239, weight= 480, color= 1
	 item 240, weight= 482, color= 1
	 item 241, weight= 491, color= 1
	 item 242, weight= 492, color= 1
	 item 243, weight= 493, color= 1
	 item 244, weight= 494, color= 1
	 item 245, weight= 494, color= 1
	 item 246, weight= 495, color= 1
	 item 247, weight= 496, color= 1
	 item 248, weight= 497, color= 1
	 item 249, weight= 499, color= 1

VRPSolver warning: Interval set for resource 1 on source node (when source != sink) is ignored (by definition is [0.0,0.0])
VRPSolver warning: Interval set for resource 2 on source node (when source != sink) is ignored (by definition is [0.0,0.0])
VRPSolver warning: Interval set for resource 3 on source node (when source != sink) is ignored (by definition is [0.0,0.0])
[41m solve [00m
~~~~~~~~~~~~~~~~~~~~~~~~~~~~~~~~~~~~~~~~~~~~~~~~~~~~~~~~~~~~~~~~~~~~~~~~~~~~~~
VRPSolver v0.4.1, 24/03/2021. Web: vrpsolver.math.u-bordeaux.fr
Corresponds to the solver by Pessoa, Sadykov, Uchoa and Vanderbeck (2020)
Paper: dx.doi.org/10.1007/s10107-020-01523-z
USE THIS CODE ONLY FOR ACADEMIC PURPOSES AT YOUR OWN RISK
~~~~~~~~~~~~~~~~~~~~~~~~~~~~~~~~~~~~~~~~~~~~~~~~~~~~~~~~~~~~~~~~~~~~~~~~~~~~~~
BaPCod v053, 24/03/2021, © Inria Bordeaux, France
~~~~~~~~~~~~~~~~~~~~~~~~~~~~~~~~~~~~~~~~~~~~~~~~~~~~~~~~~~~~~~~~~~~~~~~~~~~~~~
VRPSolver parameters:
GlobalTimeLimit = 60
MaxNbOfBBtreeNodeTreated = 100000
treeSearchStrategy = 1
RCSPstopCutGenTimeThresholdInPricing = 10
RCSPhardTimeThresholdInPricing = 20
RCSPnumberOfBucketsPerVertex = 2000
RCSPdynamicBucketSteps = 0
RCSPuseBidirectionalSearch = 1
RCSPapplyReducedCostFixing = 1
RCSPredCostFixingFalseGap = 0
RCSPmaxNumOfColsPerIteration = 100
RCSPmaxNumOfColsPerExactIteration = 100
RCSPheurLabelingStrategy = 4
StabilizationMinPhaseOfStage = 1
RCSPmaxNumOfLabelsInEnumeration = 100000
RCSPmaxNumOfEnumeratedSolutions = 1000000
RCSPmaxNumOfEnumSolutionsForMIP = 100000
RCSPinitNGneighbourhoodSize = 0
RCSPmaxNGneighbourhoodSize = 0
RCSPrankOneCutsMaxNumPerRound = 100
RCSPrankOneCutsMaxNumRows = -1
RCSPrankOneCutsMemoryType = 2
CutTailingOffThreshold = 0.02
CutTailingOffCounterThreshold = 3
SafeDualBoundScaleFactor = -1
StrongBranchingPhaseOneCandidatesNumber = 100
StrongBranchingPhaseOneTreeSizeEstimRatio = 0.3
StrongBranchingPhaseTwoCandidatesNumber = 1
StrongBranchingPhaseTwoTreeSizeEstimRatio = 0.1
MaxTimeForRestrictedMasterIpHeur = -1
DivingHeurUseDepthLimit = 0
MaxLDSbreadth = 3
MaxLDSdepth = 2
New model incumbent solution 1e+06, TIME = 0h0m0s3t = 3
Model is built TIME = 0h0m1s70t = 170
************************************************************************************************
**** BaB tree root node
**** Local DB = -1e+12, global bounds : [ -1e+12 , 1e+06 ], TIME = 0h0m1s71t = 171
**** 1 open nodes, 0 columns (0 active), 0 dyn. constrs. (0 active), 500 art. vars. (500 active)
************************************************************************************************
<DWph=2> <it= 10> <et=2.54> <Mt= 0.01> <Spt= 0.82> <nCl=1000> <DB=-617607245.7828> <Mlp=195514317.6429> <PB=1000000> 
<DWph=2> <it= 20> <et=3.39> <Mt= 0.02> <Spt= 0.82> <nCl=1000> <DB=-611810706.6646> <Mlp=88400065.2222> <PB=1000000> 
<DWph=2> <it= 30> <et=4.18> <Mt= 0.05> <Spt= 0.74> <nCl=1000> <DB=-395689972.1212> <Mlp=13181899.5101> <PB=1000000> 
<DWph=2> <it= 40> <et=5.09> <Mt= 0.13> <Spt= 0.78> <nCl=891> <DB=    6.8122> <Mlp=   85.0000> <PB=1000000> 
<DWph=2> <it= 47> <et=5.76> <Mt= 0.08> <Spt= 0.58> <nCl=496> <DB=   84.3571> <Mlp=   84.3571> <PB=1000000> 
<DWph=1> <it= 50> <et=5.98> <Mt= 0.01> <Spt= 0.21> <nCl=295> <DB=   33.8878> <Mlp=   84.2500> <PB=1000000> 
<DWph=1> <it= 60> <et=6.82> <Mt= 0.10> <Spt= 0.73> <nCl=718> <DB=   63.3956> <Mlp=   83.3868> <PB=1000000> 
<DWph=1> <it= 68> <et=7.68> <Mt= 0.14> <Spt= 0.72> <nCl=540> <DB=   83.0000> <Mlp=   83.0000> <PB=1000000> 
<DWph=0> <it= 69> <et=7.76> <Mt= 0.00> <Spt= 0.08> <nCl=  0> <DB=   83.0000> <Mlp=   83.0000> <PB=1000000> 
Reduced cost fixing for graph G_1... took 1.41 sec., 148243 buck. arcs remain (100% from prev., 39.8% from max.)
Run enumeration... took 1.27 sec. and not succeeded.
ColGenEvalAlg final dual bound: 83 (rounded: 83)
----------- Diving heuristic started -----------
<DWph=2> <it=  1> <et=10.48> <Mt= 0.00> <Spt= 0.00> <nCl=  0> <DB=   83.0000> <Mlp=   83.0000> <PB=1000000> 
<DWph=1> <it=  2> <et=10.48> <Mt= 0.00> <Spt= 0.00> <nCl=  0> <DB=   83.0000> <Mlp=   83.0000> <PB=1000000> 
---- Diving heuristic node with dive number = 0, fix depth = 0 and tabu list size = 0
Fixed projected solution = [x_1_0_1_OspV=1, x_1_42_1_OspV=1, x_1_103_1_OspV=1, x_1_225_1_OspV=1]
<DWph=2> <it=  1> <et=10.53> <Mt= 0.00> <Spt= 0.00> <nCl=  0> <DB=   83.0000> <Mlp=   83.0000> <PB=1000000> 
<DWph=1> <it=  2> <et=10.53> <Mt= 0.01> <Spt= 0.00> <nCl=  0> <DB=   83.0000> <Mlp=   83.0000> <PB=1000000> 
---- Diving heuristic node with dive number = 0, fix depth = 0 and tabu list size = 0
Fixed projected solution = [x_1_0_1_OspV=1, x_1_63_1_OspV=1, x_1_112_1_OspV=1, x_1_214_1_OspV=1]
<DWph=2> <it=  1> <et=10.57> <Mt= 0.00> <Spt= 0.00> <nCl=  0> <DB=   83.0000> <Mlp=   83.0000> <PB=1000000> 
<DWph=1> <it=  2> <et=10.57> <Mt= 0.00> <Spt= 0.00> <nCl=  0> <DB=   83.0000> <Mlp=   83.0000> <PB=1000000> 
---- Diving heuristic node with dive number = 0, fix depth = 0 and tabu list size = 0
Fixed projected solution = [x_1_0_1_OspV=1, x_1_70_1_OspV=1, x_1_157_1_OspV=1, x_1_179_1_OspV=1]
<DWph=2> <it=  1> <et=10.62> <Mt= 0.00> <Spt= 0.00> <nCl=  0> <DB=   83.0000> <Mlp=   83.0000> <PB=1000000> 
<DWph=1> <it=  2> <et=10.62> <Mt= 0.00> <Spt= 0.00> <nCl=  0> <DB=   83.0000> <Mlp=   83.0000> <PB=1000000> 
---- Diving heuristic node with dive number = 0, fix depth = 0 and tabu list size = 0
Fixed projected solution = [x_1_0_1_OspV=1, x_1_8_1_OspV=1, x_1_44_1_OspV=1, x_1_243_1_OspV=1]
<DWph=2> <it=  1> <et=10.67> <Mt= 0.00> <Spt= 0.00> <nCl=  0> <DB=   83.0000> <Mlp=   83.0000> <PB=1000000> 
<DWph=1> <it=  2> <et=10.67> <Mt= 0.00> <Spt= 0.00> <nCl=  0> <DB=   83.0000> <Mlp=   83.0000> <PB=1000000> 
---- Diving heuristic node with dive number = 0, fix depth = 0 and tabu list size = 0
Fixed projected solution = [x_1_0_1_OspV=1, x_1_24_1_OspV=1, x_1_113_1_OspV=1, x_1_220_1_OspV=1]
<DWph=2> <it=  1> <et=10.71> <Mt= 0.01> <Spt= 0.00> <nCl=  0> <DB=   83.0000> <Mlp=   83.0000> <PB=1000000> 
<DWph=1> <it=  2> <et=10.71> <Mt= 0.00> <Spt= 0.00> <nCl=  0> <DB=   83.0000> <Mlp=   83.0000> <PB=1000000> 
---- Diving heuristic node with dive number = 0, fix depth = 0 and tabu list size = 0
Fixed projected solution = [x_1_0_1_OspV=1, x_1_1_1_OspV=1, x_1_15_1_OspV=1, x_1_249_1_OspV=1]
<DWph=2> <it=  1> <et=10.76> <Mt= 0.00> <Spt= 0.00> <nCl=  0> <DB=   83.0000> <Mlp=   83.0000> <PB=1000000> 
<DWph=1> <it=  2> <et=10.76> <Mt= 0.00> <Spt= 0.00> <nCl=  0> <DB=   83.0000> <Mlp=   83.0000> <PB=1000000> 
---- Diving heuristic node with dive number = 0, fix depth = 0 and tabu list size = 0
Fixed projected solution = [x_1_0_1_OspV=1, x_1_43_1_OspV=1, x_1_60_1_OspV=1, x_1_239_1_OspV=1]
<DWph=2> <it=  1> <et=10.81> <Mt= 0.00> <Spt= 0.00> <nCl=  0> <DB=   83.0000> <Mlp=   83.0000> <PB=1000000> 
<DWph=1> <it=  2> <et=10.81> <Mt= 0.00> <Spt= 0.00> <nCl=  0> <DB=   83.0000> <Mlp=   83.0000> <PB=1000000> 
---- Diving heuristic node with dive number = 0, fix depth = 1 and tabu list size = 0
Fixed projected solution = [x_1_0_1_OspV=1, x_1_13_1_OspV=1, x_1_33_1_OspV=1, x_1_245_1_OspV=1]
<DWph=2> <it=  1> <et=10.84> <Mt= 0.01> <Spt= 0.00> <nCl=  0> <DB=   83.0000> <Mlp=   83.0000> <PB=1000000> 
<DWph=1> <it=  2> <et=10.85> <Mt= 0.00> <Spt= 0.00> <nCl=  0> <DB=   83.0000> <Mlp=   83.0000> <PB=1000000> 
---- Diving heuristic node with dive number = 0, fix depth = 2 and tabu list size = 0
Fixed projected solution = [x_1_0_1_OspV=1, x_1_81_1_OspV=1, x_1_166_1_OspV=1, x_1_167_1_OspV=1]
<DWph=2> <it=  1> <et=10.89> <Mt= 0.00> <Spt= 0.00> <nCl=  0> <DB=   83.0000> <Mlp=   83.0000> <PB=1000000> 
<DWph=1> <it=  2> <et=10.89> <Mt= 0.00> <Spt= 0.00> <nCl=  0> <DB=   83.0000> <Mlp=   83.0000> <PB=1000000> 
---- Diving heuristic node with dive number = 0, fix depth = 2 and tabu list size = 0
Fixed projected solution = [x_1_0_1_OspV=1, x_1_27_1_OspV=1, x_1_64_1_OspV=1, x_1_240_1_OspV=1]
<DWph=2> <it=  1> <et=10.89> <Mt= 0.00> <Spt= 0.00> <nCl=  0> <DB=   83.0000> <Mlp=   83.0000> <PB=1000000> 
<DWph=1> <it=  2> <et=10.89> <Mt= 0.01> <Spt= 0.00> <nCl=  0> <DB=   83.0000> <Mlp=   83.0000> <PB=1000000> 
---- Diving heuristic node with dive number = 0, fix depth = 3 and tabu list size = 0
Fixed projected solution = [x_1_0_1_OspV=1, x_1_21_1_OspV=1, x_1_88_1_OspV=1, x_1_230_1_OspV=1]
<DWph=2> <it=  1> <et=10.90> <Mt= 0.00> <Spt= 0.00> <nCl=  0> <DB=   83.0000> <Mlp=   83.0000> <PB=1000000> 
<DWph=1> <it=  2> <et=10.90> <Mt= 0.00> <Spt= 0.00> <nCl=  0> <DB=   83.0000> <Mlp=   83.0000> <PB=1000000> 
---- Diving heuristic node with dive number = 0, fix depth = 4 and tabu list size = 0
Fixed projected solution = [x_1_0_1_OspV=1, x_1_2_1_OspV=1, x_1_87_1_OspV=1, x_1_233_1_OspV=1]
<DWph=2> <it=  1> <et=10.91> <Mt= 0.00> <Spt= 0.00> <nCl=  0> <DB=   83.0000> <Mlp=   83.0000> <PB=1000000> 
<DWph=1> <it=  2> <et=10.91> <Mt= 0.00> <Spt= 0.00> <nCl=  0> <DB=   83.0000> <Mlp=   83.0000> <PB=1000000> 
---- Diving heuristic node with dive number = 0, fix depth = 5 and tabu list size = 0
Fixed projected solution = [x_1_0_1_OspV=1, x_1_4_1_OspV=1, x_1_31_1_OspV=1, x_1_246_1_OspV=1]
<DWph=2> <it=  1> <et=10.92> <Mt= 0.01> <Spt= 0.00> <nCl=  0> <DB=   83.0000> <Mlp=   83.0000> <PB=1000000> 
<DWph=1> <it=  2> <et=10.92> <Mt= 0.00> <Spt= 0.00> <nCl=  0> <DB=   83.0000> <Mlp=   83.0000> <PB=1000000> 
---- Diving heuristic node with dive number = 0, fix depth = 6 and tabu list size = 0
Fixed projected solution = [x_1_0_1_OspV=1, x_1_25_1_OspV=1, x_1_100_1_OspV=1, x_1_227_1_OspV=1]
<DWph=2> <it=  1> <et=10.93> <Mt= 0.00> <Spt= 0.00> <nCl=  0> <DB=   83.0000> <Mlp=   83.0000> <PB=1000000> 
<DWph=1> <it=  2> <et=10.93> <Mt= 0.00> <Spt= 0.00> <nCl=  0> <DB=   83.0000> <Mlp=   83.0000> <PB=1000000> 
---- Diving heuristic node with dive number = 0, fix depth = 7 and tabu list size = 0
Fixed projected solution = [x_1_0_1_OspV=1, x_1_50_1_OspV=1, x_1_159_1_OspV=1, x_1_185_1_OspV=1]
<DWph=2> <it=  1> <et=10.94> <Mt= 0.01> <Spt= 0.00> <nCl=  0> <DB=   83.0000> <Mlp=   83.0000> <PB=1000000> 
<DWph=1> <it=  2> <et=10.94> <Mt= 0.00> <Spt= 0.00> <nCl=  0> <DB=   83.0000> <Mlp=   83.0000> <PB=1000000> 
---- Diving heuristic node with dive number = 0, fix depth = 8 and tabu list size = 0
Fixed projected solution = [x_1_0_1_OspV=1, x_1_54_1_OspV=1, x_1_153_1_OspV=1, x_1_188_1_OspV=1]
<DWph=2> <it=  1> <et=10.95> <Mt= 0.00> <Spt= 0.00> <nCl=  0> <DB=   83.0000> <Mlp=   83.0000> <PB=1000000> 
<DWph=1> <it=  2> <et=10.95> <Mt= 0.01> <Spt= 0.00> <nCl=  0> <DB=   83.0000> <Mlp=   83.0000> <PB=1000000> 
---- Diving heuristic node with dive number = 0, fix depth = 9 and tabu list size = 0
Fixed projected solution = [x_1_0_1_OspV=1, x_1_123_1_OspV=1, x_1_125_1_OspV=1, x_1_181_1_OspV=1]
<DWph=2> <it=  1> <et=10.96> <Mt= 0.00> <Spt= 0.00> <nCl=  0> <DB=   83.0000> <Mlp=   83.0000> <PB=1000000> 
<DWph=1> <it=  2> <et=10.96> <Mt= 0.00> <Spt= 0.00> <nCl=  0> <DB=   83.0000> <Mlp=   83.0000> <PB=1000000> 
---- Diving heuristic node with dive number = 0, fix depth = 10 and tabu list size = 0
Fixed projected solution = [x_1_0_1_OspV=1, x_1_90_1_OspV=1, x_1_99_1_OspV=1, x_1_209_1_OspV=1]
<DWph=2> <it=  1> <et=10.98> <Mt= 0.01> <Spt= 0.00> <nCl=  0> <DB=   83.0000> <Mlp=   83.0000> <PB=1000000> 
<DWph=1> <it=  2> <et=10.98> <Mt= 0.00> <Spt= 0.00> <nCl=  0> <DB=   83.0000> <Mlp=   83.0000> <PB=1000000> 
---- Diving heuristic node with dive number = 0, fix depth = 11 and tabu list size = 0
Fixed projected solution = [x_1_0_1_OspV=1, x_1_132_1_OspV=1, x_1_144_1_OspV=1, x_1_162_1_OspV=1]
<DWph=2> <it=  1> <et=11.00> <Mt= 0.01> <Spt= 0.00> <nCl=  0> <DB=   83.0000> <Mlp=   83.0000> <PB=1000000> 
<DWph=1> <it=  2> <et=11.00> <Mt= 0.00> <Spt= 0.00> <nCl=  0> <DB=   83.0000> <Mlp=   83.0000> <PB=1000000> 
---- Diving heuristic node with dive number = 0, fix depth = 12 and tabu list size = 0
Fixed projected solution = [x_1_0_1_OspV=1, x_1_22_1_OspV=1, x_1_109_1_OspV=1, x_1_223_1_OspV=1]
<DWph=2> <it=  1> <et=11.02> <Mt= 0.02> <Spt= 0.00> <nCl=  0> <DB=   83.0000> <Mlp=   83.0000> <PB=1000000> 
<DWph=1> <it=  2> <et=11.02> <Mt= 0.00> <Spt= 0.00> <nCl=  0> <DB=   83.0000> <Mlp=   83.0000> <PB=1000000> 
---- Diving heuristic node with dive number = 0, fix depth = 13 and tabu list size = 0
Fixed projected solution = [x_1_0_1_OspV=1, x_1_6_1_OspV=1, x_1_39_1_OspV=1, x_1_244_1_OspV=1]
<DWph=2> <it=  1> <et=11.04> <Mt= 0.01> <Spt= 0.00> <nCl=  0> <DB=   83.0000> <Mlp=   83.0000> <PB=1000000> 
<DWph=1> <it=  2> <et=11.04> <Mt= 0.00> <Spt= 0.00> <nCl=  0> <DB=   83.0000> <Mlp=   83.0000> <PB=1000000> 
---- Diving heuristic node with dive number = 0, fix depth = 14 and tabu list size = 0
Fixed projected solution = [x_1_0_1_OspV=1, x_1_12_1_OspV=1, x_1_122_1_OspV=1, x_1_217_1_OspV=1]
<DWph=2> <it=  1> <et=11.06> <Mt= 0.02> <Spt= 0.00> <nCl=  0> <DB=   83.0000> <Mlp=   83.0000> <PB=1000000> 
<DWph=1> <it=  2> <et=11.06> <Mt= 0.00> <Spt= 0.00> <nCl=  0> <DB=   83.0000> <Mlp=   83.0000> <PB=1000000> 
---- Diving heuristic node with dive number = 0, fix depth = 15 and tabu list size = 0
Fixed projected solution = [x_1_0_1_OspV=1, x_1_10_1_OspV=1, x_1_89_1_OspV=1, x_1_232_1_OspV=1]
<DWph=2> <it=  1> <et=11.09> <Mt= 0.02> <Spt= 0.00> <nCl=  0> <DB=   83.0000> <Mlp=   83.0000> <PB=1000000> 
<DWph=1> <it=  2> <et=11.09> <Mt= 0.00> <Spt= 0.00> <nCl=  0> <DB=   83.0000> <Mlp=   83.0000> <PB=1000000> 
---- Diving heuristic node with dive number = 0, fix depth = 16 and tabu list size = 0
Fixed projected solution = [x_1_0_1_OspV=1, x_1_17_1_OspV=1, x_1_104_1_OspV=1, x_1_226_1_OspV=1]
<DWph=2> <it=  1> <et=11.11> <Mt= 0.02> <Spt= 0.00> <nCl=  0> <DB=   83.0000> <Mlp=   83.0000> <PB=1000000> 
<DWph=1> <it=  2> <et=11.11> <Mt= 0.00> <Spt= 0.00> <nCl=  0> <DB=   83.0000> <Mlp=   83.0000> <PB=1000000> 
---- Diving heuristic node with dive number = 0, fix depth = 17 and tabu list size = 0
Fixed projected solution = [x_1_0_1_OspV=1, x_1_84_1_OspV=1, x_1_124_1_OspV=1, x_1_202_1_OspV=1]
<DWph=2> <it=  1> <et=11.13> <Mt= 0.02> <Spt= 0.00> <nCl=  0> <DB=   83.0000> <Mlp=   83.0000> <PB=1000000> 
<DWph=1> <it=  2> <et=11.13> <Mt= 0.00> <Spt= 0.00> <nCl=  0> <DB=   83.0000> <Mlp=   83.0000> <PB=1000000> 
---- Diving heuristic node with dive number = 0, fix depth = 18 and tabu list size = 0
Fixed projected solution = [x_1_0_1_OspV=1, x_1_106_1_OspV=1, x_1_110_1_OspV=1, x_1_199_1_OspV=1]
<DWph=2> <it=  1> <et=11.15> <Mt= 0.02> <Spt= 0.00> <nCl=  0> <DB=   83.0000> <Mlp=   83.0000> <PB=1000000> 
<DWph=1> <it=  2> <et=11.16> <Mt= 0.00> <Spt= 0.00> <nCl=  0> <DB=   83.0000> <Mlp=   83.0000> <PB=1000000> 
---- Diving heuristic node with dive number = 0, fix depth = 19 and tabu list size = 0
Fixed projected solution = [x_1_0_1_OspV=1, x_1_108_1_OspV=1, x_1_116_1_OspV=1, x_1_195_1_OspV=1]
<DWph=2> <it=  1> <et=11.18> <Mt= 0.01> <Spt= 0.00> <nCl=  0> <DB=   83.0000> <Mlp=   83.0000> <PB=1000000> 
<DWph=1> <it=  2> <et=11.18> <Mt= 0.01> <Spt= 0.00> <nCl=  0> <DB=   83.0000> <Mlp=   83.0000> <PB=1000000> 
---- Diving heuristic node with dive number = 0, fix depth = 19 and tabu list size = 0
Fixed projected solution = [x_1_0_1_OspV=1, x_1_73_1_OspV=1, x_1_114_1_OspV=1, x_1_211_1_OspV=1]
<DWph=2> <it=  1> <et=11.19> <Mt= 0.00> <Spt= 0.00> <nCl=  0> <DB=   83.0000> <Mlp=   83.0000> <PB=1000000> 
<DWph=1> <it=  2> <et=11.19> <Mt= 0.00> <Spt= 0.00> <nCl=  0> <DB=   83.0000> <Mlp=   83.0000> <PB=1000000> 
---- Diving heuristic node with dive number = 0, fix depth = 20 and tabu list size = 0
Fixed projected solution = [x_1_0_1_OspV=1, x_1_85_1_OspV=1, x_1_156_1_OspV=1, x_1_174_1_OspV=1]
<DWph=2> <it=  1> <et=11.21> <Mt= 0.02> <Spt= 0.00> <nCl=  0> <DB=   83.0000> <Mlp=   83.0000> <PB=1000000> 
<DWph=1> <it=  2> <et=11.21> <Mt= 0.00> <Spt= 0.00> <nCl=  0> <DB=   83.0000> <Mlp=   83.0000> <PB=1000000> 
---- Diving heuristic node with dive number = 0, fix depth = 21 and tabu list size = 0
Fixed projected solution = [x_1_0_1_OspV=1, x_1_77_1_OspV=1, x_1_130_1_OspV=1, x_1_203_1_OspV=1]
<DWph=2> <it=  1> <et=11.24> <Mt= 0.02> <Spt= 0.00> <nCl=  0> <DB=   83.0000> <Mlp=   83.0000> <PB=1000000> 
<DWph=1> <it=  2> <et=11.24> <Mt= 0.00> <Spt= 0.00> <nCl=  0> <DB=   83.0000> <Mlp=   83.0000> <PB=1000000> 
---- Diving heuristic node with dive number = 0, fix depth = 22 and tabu list size = 0
Fixed projected solution = [x_1_0_1_OspV=1, x_1_97_1_OspV=1, x_1_137_1_OspV=1, x_1_187_1_OspV=1]
<DWph=2> <it=  1> <et=11.27> <Mt= 0.02> <Spt= 0.00> <nCl=  0> <DB=   83.0000> <Mlp=   83.0000> <PB=1000000> 
<DWph=1> <it=  2> <et=11.27> <Mt= 0.00> <Spt= 0.00> <nCl=  0> <DB=   83.0000> <Mlp=   83.0000> <PB=1000000> 
---- Diving heuristic node with dive number = 0, fix depth = 22 and tabu list size = 0
Fixed projected solution = [x_1_0_1_OspV=1, x_1_3_1_OspV=1, x_1_146_1_OspV=1, x_1_204_1_OspV=1]
<DWph=2> <it=  1> <et=11.27> <Mt= 0.01> <Spt= 0.00> <nCl=  0> <DB=   83.0000> <Mlp=   83.0000> <PB=1000000> 
<DWph=1> <it=  2> <et=11.28> <Mt= 0.00> <Spt= 0.00> <nCl=  0> <DB=   83.0000> <Mlp=   83.0000> <PB=1000000> 
---- Diving heuristic node with dive number = 0, fix depth = 22 and tabu list size = 0
Fixed projected solution = [x_1_0_1_OspV=1, x_1_71_1_OspV=1, x_1_136_1_OspV=1, x_1_201_1_OspV=1]
<DWph=2> <it=  1> <et=11.28> <Mt= 0.00> <Spt= 0.00> <nCl=  0> <DB=   83.0000> <Mlp=   83.0000> <PB=1000000> 
<DWph=1> <it=  2> <et=11.28> <Mt= 0.00> <Spt= 0.00> <nCl=  0> <DB=   83.0000> <Mlp=   83.0000> <PB=1000000> 
---- Diving heuristic node with dive number = 0, fix depth = 22 and tabu list size = 0
Fixed projected solution = [x_1_0_1_OspV=1, x_1_37_1_OspV=1, x_1_161_1_OspV=1, x_1_186_1_OspV=1]
<DWph=2> <it=  1> <et=11.29> <Mt= 0.00> <Spt= 0.00> <nCl=  0> <DB=   83.0000> <Mlp=   83.0000> <PB=1000000> 
<DWph=1> <it=  2> <et=11.29> <Mt= 0.00> <Spt= 0.00> <nCl=  0> <DB=   83.0000> <Mlp=   83.0000> <PB=1000000> 
---- Diving heuristic node with dive number = 0, fix depth = 23 and tabu list size = 0
Fixed projected solution = [x_1_0_1_OspV=1, x_1_62_1_OspV=1, x_1_140_1_OspV=1, x_1_205_1_OspV=1]
<DWph=2> <it=  1> <et=11.33> <Mt= 0.03> <Spt= 0.00> <nCl=  0> <DB=   83.0000> <Mlp=   83.0000> <PB=1000000> 
<DWph=1> <it=  2> <et=11.33> <Mt= 0.01> <Spt= 0.00> <nCl=  0> <DB=   83.0000> <Mlp=   83.0000> <PB=1000000> 
---- Diving heuristic node with dive number = 0, fix depth = 24 and tabu list size = 0
Fixed projected solution = [x_1_0_1_OspV=1, x_1_59_1_OspV=1, x_1_93_1_OspV=1, x_1_224_1_OspV=1]
<DWph=2> <it=  1> <et=11.34> <Mt= 0.01> <Spt= 0.00> <nCl=  0> <DB=   83.0000> <Mlp=   83.0000> <PB=1000000> 
<DWph=1> <it=  2> <et=11.34> <Mt= 0.00> <Spt= 0.00> <nCl=  0> <DB=   83.0000> <Mlp=   83.0000> <PB=1000000> 
---- Diving heuristic node with dive number = 0, fix depth = 25 and tabu list size = 0
Fixed projected solution = [x_1_0_1_OspV=1, x_1_36_1_OspV=1, x_1_94_1_OspV=1, x_1_228_1_OspV=1]
<DWph=2> <it=  2> <et=11.49> <Mt= 0.04> <Spt= 0.09> <nCl=100> <DB=   82.5450> <Mlp=   83.0000> <PB=1000000> 
<DWph=1> <it=  3> <et=11.49> <Mt= 0.00> <Spt= 0.00> <nCl=  0> <DB=   83.0000> <Mlp=   83.0000> <PB=1000000> 
---- Diving heuristic node with dive number = 0, fix depth = 25 and tabu list size = 0
Fixed projected solution = [x_1_0_1_OspV=1, x_1_40_1_OspV=1, x_1_82_1_OspV=1, x_1_231_1_OspV=1]
<DWph=2> <it=  1> <et=11.50> <Mt= 0.00> <Spt= 0.00> <nCl=  0> <DB=   83.0000> <Mlp=   83.0000> <PB=1000000> 
<DWph=1> <it=  2> <et=11.50> <Mt= 0.00> <Spt= 0.00> <nCl=  0> <DB=   83.0000> <Mlp=   83.0000> <PB=1000000> 
---- Diving heuristic node with dive number = 0, fix depth = 26 and tabu list size = 0
Fixed projected solution = [x_1_0_1_OspV=1, x_1_30_1_OspV=1, x_1_68_1_OspV=1, x_1_238_1_OspV=1]
<DWph=2> <it=  1> <et=11.52> <Mt= 0.02> <Spt= 0.00> <nCl=  0> <DB=   83.0000> <Mlp=   83.0000> <PB=1000000> 
<DWph=1> <it=  2> <et=11.53> <Mt= 0.00> <Spt= 0.00> <nCl=  0> <DB=   83.0000> <Mlp=   83.0000> <PB=1000000> 
---- Diving heuristic node with dive number = 0, fix depth = 27 and tabu list size = 0
Fixed projected solution = [x_1_0_1_OspV=1, x_1_86_1_OspV=1, x_1_141_1_OspV=1, x_1_191_1_OspV=1]
<DWph=2> <it=  1> <et=11.56> <Mt= 0.03> <Spt= 0.00> <nCl=  0> <DB=   83.0000> <Mlp=   83.0000> <PB=1000000> 
<DWph=1> <it=  2> <et=11.56> <Mt= 0.00> <Spt= 0.00> <nCl=  0> <DB=   83.0000> <Mlp=   83.0000> <PB=1000000> 
---- Diving heuristic node with dive number = 0, fix depth = 28 and tabu list size = 0
Fixed projected solution = [x_1_0_1_OspV=1, x_1_58_1_OspV=1, x_1_98_1_OspV=1, x_1_221_1_OspV=1]
<DWph=2> <it=  1> <et=11.60> <Mt= 0.04> <Spt= 0.00> <nCl=  0> <DB=   83.0000> <Mlp=   83.0000> <PB=1000000> 
<DWph=1> <it=  2> <et=11.60> <Mt= 0.00> <Spt= 0.00> <nCl=  0> <DB=   83.0000> <Mlp=   83.0000> <PB=1000000> 
---- Diving heuristic node with dive number = 0, fix depth = 29 and tabu list size = 0
Fixed projected solution = [x_1_0_1_OspV=1, x_1_96_1_OspV=1, x_1_121_1_OspV=1, x_1_198_1_OspV=1]
<DWph=2> <it=  1> <et=11.63> <Mt= 0.02> <Spt= 0.00> <nCl=  0> <DB=   83.0000> <Mlp=   83.0000> <PB=1000000> 
<DWph=1> <it=  2> <et=11.63> <Mt= 0.00> <Spt= 0.00> <nCl=  0> <DB=   83.0000> <Mlp=   83.0000> <PB=1000000> 
---- Diving heuristic node with dive number = 0, fix depth = 29 and tabu list size = 0
Fixed projected solution = [x_1_0_1_OspV=1, x_1_45_1_OspV=1, x_1_118_1_OspV=1, x_1_216_1_OspV=1]
<DWph=2> <it=  1> <et=11.64> <Mt= 0.01> <Spt= 0.00> <nCl=  0> <DB=   83.0000> <Mlp=   83.0000> <PB=1000000> 
<DWph=1> <it=  2> <et=11.64> <Mt= 0.00> <Spt= 0.00> <nCl=  0> <DB=   83.0000> <Mlp=   83.0000> <PB=1000000> 
---- Diving heuristic node with dive number = 0, fix depth = 30 and tabu list size = 0
Fixed projected solution = [x_1_0_1_OspV=1, x_1_74_1_OspV=1, x_1_168_1_OspV=1, x_1_169_1_OspV=1]
<DWph=2> <it=  1> <et=11.67> <Mt= 0.02> <Spt= 0.00> <nCl=  0> <DB=   83.0000> <Mlp=   83.0000> <PB=1000000> 
<DWph=1> <it=  2> <et=11.67> <Mt= 0.00> <Spt= 0.00> <nCl=  0> <DB=   83.0000> <Mlp=   83.0000> <PB=1000000> 
---- Diving heuristic node with dive number = 0, fix depth = 30 and tabu list size = 0
Fixed projected solution = [x_1_0_1_OspV=1, x_1_138_1_OspV=1, x_1_148_1_OspV=1, x_1_149_1_OspV=1]
<DWph=2> <it=  1> <et=11.68> <Mt= 0.00> <Spt= 0.00> <nCl=  0> <DB=   83.0000> <Mlp=   83.0000> <PB=1000000> 
<DWph=1> <it=  2> <et=11.68> <Mt= 0.00> <Spt= 0.00> <nCl=  0> <DB=   83.0000> <Mlp=   83.0000> <PB=1000000> 
---- Diving heuristic node with dive number = 0, fix depth = 31 and tabu list size = 0
Fixed projected solution = [x_1_0_1_OspV=1, x_1_53_1_OspV=1, x_1_143_1_OspV=1, x_1_196_1_OspV=1]
<DWph=2> <it=  1> <et=11.71> <Mt= 0.03> <Spt= 0.00> <nCl=  0> <DB=   83.0000> <Mlp=   83.0000> <PB=1000000> 
<DWph=1> <it=  2> <et=11.71> <Mt= 0.01> <Spt= 0.00> <nCl=  0> <DB=   83.0000> <Mlp=   83.0000> <PB=1000000> 
---- Diving heuristic node with dive number = 0, fix depth = 32 and tabu list size = 0
Fixed projected solution = [x_1_0_1_OspV=1, x_1_102_1_OspV=1, x_1_134_1_OspV=1, x_1_189_1_OspV=1]
<DWph=2> <it=  1> <et=11.75> <Mt= 0.03> <Spt= 0.00> <nCl=  0> <DB=   83.0000> <Mlp=   83.0000> <PB=1000000> 
<DWph=1> <it=  2> <et=11.75> <Mt= 0.00> <Spt= 0.00> <nCl=  0> <DB=   83.0000> <Mlp=   83.0000> <PB=1000000> 
---- Diving heuristic node with dive number = 0, fix depth = 33 and tabu list size = 0
Fixed projected solution = [x_1_0_1_OspV=1, x_1_83_1_OspV=1, x_1_133_1_OspV=1, x_1_197_1_OspV=1]
<DWph=2> <it=  6> <et=12.58> <Mt= 0.08> <Spt= 0.74> <nCl=213> <DB=   83.0019> <Mlp=   83.0019> <PB=1000000> 
<DWph=1> <it=  9> <et=12.76> <Mt= 0.01> <Spt= 0.17> <nCl=189> <DB=   73.0640> <Mlp=   83.0000> <PB=1000000> 
---- Diving heuristic node with dive number = 0, fix depth = 33 and tabu list size = 0
Fixed projected solution = [x_1_0_1_OspV=1, x_1_56_1_OspV=1, x_1_151_1_OspV=1, x_1_192_1_OspV=1]
<DWph=2> <it=  1> <et=12.77> <Mt= 0.01> <Spt= 0.00> <nCl=  0> <DB=   83.0000> <Mlp=   83.0000> <PB=1000000> 
<DWph=1> <it=  2> <et=12.77> <Mt= 0.00> <Spt= 0.00> <nCl=  0> <DB=   83.0000> <Mlp=   83.0000> <PB=1000000> 
---- Diving heuristic node with dive number = 0, fix depth = 33 and tabu list size = 0
Fixed projected solution = [x_1_0_1_OspV=1, x_1_72_1_OspV=1, x_1_147_1_OspV=1, x_1_190_1_OspV=1]
<DWph=2> <it=  1> <et=12.78> <Mt= 0.00> <Spt= 0.00> <nCl=  0> <DB=   83.0000> <Mlp=   83.0000> <PB=1000000> 
<DWph=1> <it=  2> <et=12.78> <Mt= 0.00> <Spt= 0.00> <nCl=  0> <DB=   83.0000> <Mlp=   83.0000> <PB=1000000> 
---- Diving heuristic node with dive number = 0, fix depth = 34 and tabu list size = 0
Fixed projected solution = [x_1_0_1_OspV=1, x_1_28_1_OspV=1, x_1_173_1_OspV=1, x_1_178_1_OspV=1]
<DWph=2> <it=  1> <et=12.84> <Mt= 0.06> <Spt= 0.00> <nCl=  0> <DB=   83.0000> <Mlp=   83.0000> <PB=1000000> 
<DWph=1> <it=  2> <et=12.84> <Mt= 0.00> <Spt= 0.00> <nCl=  0> <DB=   83.0000> <Mlp=   83.0000> <PB=1000000> 
---- Diving heuristic node with dive number = 0, fix depth = 34 and tabu list size = 0
Fixed projected solution = [x_1_0_1_OspV=1, x_1_79_1_OspV=1, x_1_158_1_OspV=1, x_1_176_1_OspV=1]
<DWph=2> <it=  1> <et=12.85> <Mt= 0.00> <Spt= 0.00> <nCl=  0> <DB=   83.0000> <Mlp=   83.0000> <PB=1000000> 
<DWph=1> <it=  2> <et=12.85> <Mt= 0.00> <Spt= 0.00> <nCl=  0> <DB=   83.0000> <Mlp=   83.0000> <PB=1000000> 
---- Diving heuristic node with dive number = 0, fix depth = 35 and tabu list size = 0
Fixed projected solution = [x_1_0_1_OspV=1, x_1_92_1_OspV=1, x_1_107_1_OspV=1, x_1_207_1_OspV=1]
<DWph=2> <it=  4> <et=13.29> <Mt= 0.06> <Spt= 0.38> <nCl= 99> <DB=   82.9076> <Mlp=   83.0007> <PB=1000000> 
<DWph=1> <it=  6> <et=13.39> <Mt= 0.01> <Spt= 0.08> <nCl= 69> <DB=   79.3037> <Mlp=   83.0000> <PB=1000000> 
---- Diving heuristic node with dive number = 0, fix depth = 36 and tabu list size = 0
Fixed projected solution = [x_1_0_1_OspV=1, x_1_16_1_OspV=1, x_1_145_1_OspV=1, x_1_200_1_OspV=1]
<DWph=2> <it=  1> <et=13.42> <Mt= 0.02> <Spt= 0.00> <nCl=  0> <DB=   83.0000> <Mlp=   83.0000> <PB=1000000> 
<DWph=1> <it=  2> <et=13.43> <Mt= 0.00> <Spt= 0.00> <nCl=  0> <DB=   83.0000> <Mlp=   83.0000> <PB=1000000> 
---- Diving heuristic node with dive number = 0, fix depth = 37 and tabu list size = 0
Fixed projected solution = [x_1_0_1_OspV=1, x_1_34_1_OspV=1, x_1_117_1_OspV=1, x_1_218_1_OspV=1]
<DWph=2> <it=  1> <et=13.46> <Mt= 0.04> <Spt= 0.00> <nCl=  0> <DB=   83.0000> <Mlp=   83.0000> <PB=1000000> 
<DWph=1> <it=  2> <et=13.47> <Mt= 0.00> <Spt= 0.00> <nCl=  0> <DB=   83.0000> <Mlp=   83.0000> <PB=1000000> 
---- Diving heuristic node with dive number = 0, fix depth = 37 and tabu list size = 0
Fixed projected solution = [x_1_0_1_OspV=1, x_1_49_1_OspV=1, x_1_170_1_OspV=1, x_1_177_1_OspV=1]
<DWph=2> <it=  1> <et=13.47> <Mt= 0.00> <Spt= 0.00> <nCl=  0> <DB=   83.0000> <Mlp=   83.0000> <PB=1000000> 
<DWph=1> <it=  2> <et=13.47> <Mt= 0.00> <Spt= 0.00> <nCl=  0> <DB=   83.0000> <Mlp=   83.0000> <PB=1000000> 
---- Diving heuristic node with dive number = 0, fix depth = 37 and tabu list size = 0
Fixed projected solution = [x_1_0_1_OspV=1, x_1_75_1_OspV=1, x_1_165_1_OspV=1, x_1_175_1_OspV=1]
<DWph=2> <it=  1> <et=13.48> <Mt= 0.00> <Spt= 0.00> <nCl=  0> <DB=   83.0000> <Mlp=   83.0000> <PB=1000000> 
<DWph=1> <it=  2> <et=13.48> <Mt= 0.00> <Spt= 0.00> <nCl=  0> <DB=   83.0000> <Mlp=   83.0000> <PB=1000000> 
---- Diving heuristic node with dive number = 0, fix depth = 38 and tabu list size = 0
Fixed projected solution = [x_1_0_1_OspV=1, x_1_52_1_OspV=1, x_1_163_1_OspV=1, x_1_182_1_OspV=1]
<DWph=2> <it=  9> <et=14.50> <Mt= 0.12> <Spt= 0.90> <nCl=125> <DB=   83.0094> <Mlp=   83.0094> <PB=1000000> 
<DWph=1> <it= 10> <et=14.59> <Mt= 0.00> <Spt= 0.08> <nCl=100> <DB=   78.5930> <Mlp=   83.0094> <PB=1000000> 
<DWph=1> <it= 15> <et=15.18> <Mt= 0.07> <Spt= 0.52> <nCl=112> <DB=   83.0014> <Mlp=   83.0014> <PB=1000000> 
---- Diving heuristic node with dive number = 0, fix depth = 39 and tabu list size = 0
Fixed projected solution = [x_1_0_1_OspV=1, x_1_129_1_OspV=1, x_1_150_1_OspV=1, x_1_152_1_OspV=1]
<DWph=2> <it=  4> <et=15.74> <Mt= 0.02> <Spt= 0.53> <nCl= 15> <DB=   83.0015> <Mlp=   83.0015> <PB=1000000> 
<DWph=1> <it= 10> <et=16.35> <Mt= 0.02> <Spt= 0.59> <nCl= 61> <DB=   83.0015> <Mlp=   83.0015> <PB=1000000> 
---- Diving heuristic node with dive number = 0, fix depth = 40 and tabu list size = 0
Fixed projected solution = [x_1_0_1_OspV=1, x_1_69_1_OspV=1, x_1_160_1_OspV=1, x_1_180_1_OspV=1]
<DWph=2> <it=  1> <et=16.52> <Mt= 0.01> <Spt= 0.15> <nCl=  0> <DB=   83.0015> <Mlp=   83.0015> <PB=1000000> 
<DWph=1> <it=  2> <et=16.69> <Mt= 0.00> <Spt= 0.17> <nCl=  0> <DB=   83.0015> <Mlp=   83.0015> <PB=1000000> 
---- Diving heuristic node with dive number = 0, fix depth = 41 and tabu list size = 0
Fixed projected solution = [x_1_0_1_OspV=1, x_1_7_1_OspV=1, x_1_120_1_OspV=1, x_1_219_1_OspV=1]
<DWph=2> <it=  4> <et=17.22> <Mt= 0.07> <Spt= 0.45> <nCl= 51> <DB=   83.0039> <Mlp=   83.0039> <PB=1000000> 
<DWph=1> <it=  8> <et=17.64> <Mt= 0.01> <Spt= 0.40> <nCl= 53> <DB=   83.0035> <Mlp=   83.0035> <PB=1000000> 
---- Diving heuristic node with dive number = 0, fix depth = 42 and tabu list size = 0
Fixed projected solution = [x_1_0_1_OspV=1, x_1_9_1_OspV=1, x_1_76_1_OspV=1, x_1_237_1_OspV=1]
<DWph=2> <it=  5> <et=18.22> <Mt= 0.05> <Spt= 0.53> <nCl= 20> <DB=   83.0054> <Mlp=   83.0054> <PB=1000000> 
<DWph=1> <it= 10> <et=18.66> <Mt= 0.01> <Spt= 0.42> <nCl=  6> <DB=   82.6288> <Mlp=   83.0035> <PB=1000000> 
<DWph=1> <it= 11> <et=18.82> <Mt= 0.00> <Spt= 0.16> <nCl=  0> <DB=   83.0035> <Mlp=   83.0035> <PB=1000000> 
---- Diving heuristic node with dive number = 0, fix depth = 43 and tabu list size = 0
Fixed projected solution = [x_1_0_1_OspV=1, x_1_11_1_OspV=1, x_1_19_1_OspV=1, x_1_248_1_OspV=1]
<DWph=2> <it=  2> <et=19.18> <Mt= 0.05> <Spt= 0.30> <nCl=  8> <DB=   83.0056> <Mlp=   83.0056> <PB=1000000> 
<DWph=1> <it=  4> <et=19.43> <Mt= 0.00> <Spt= 0.25> <nCl=  3> <DB=   83.0056> <Mlp=   83.0056> <PB=1000000> 
---- Diving heuristic node with dive number = 0, fix depth = 44 and tabu list size = 0
Fixed projected solution = [x_1_0_1_OspV=1, x_1_14_1_OspV=1, x_1_23_1_OspV=1, x_1_247_1_OspV=1]
<DWph=2> <it=  1> <et=19.60> <Mt= 0.01> <Spt= 0.15> <nCl=  0> <DB=   83.0058> <Mlp=   83.0058> <PB=1000000> 
<DWph=1> <it=  4> <et=19.98> <Mt= 0.01> <Spt= 0.37> <nCl= 17> <DB=   83.0058> <Mlp=   83.0058> <PB=1000000> 
---- Diving heuristic node with dive number = 0, fix depth = 44 and tabu list size = 0
Fixed projected solution = [x_1_0_1_OspV=1, x_1_48_1_OspV=1, x_1_66_1_OspV=1, x_1_234_1_OspV=1]
<DWph=2> <it=  1> <et=20.14> <Mt= 0.00> <Spt= 0.15> <nCl=  0> <DB=   83.0058> <Mlp=   83.0058> <PB=1000000> 
<DWph=1> <it=  2> <et=20.31> <Mt= 0.00> <Spt= 0.17> <nCl=  0> <DB=   83.0058> <Mlp=   83.0058> <PB=1000000> 
---- Diving heuristic node with dive number = 0, fix depth = 45 and tabu list size = 0
Fixed projected solution = [x_1_0_1_OspV=1, x_1_57_1_OspV=1, x_1_126_1_OspV=1, x_1_208_1_OspV=1]
<DWph=2> <it=  6> <et=20.98> <Mt= 0.06> <Spt= 0.59> <nCl= 29> <DB=   83.0091> <Mlp=   83.0091> <PB=1000000> 
<DWph=1> <it= 10> <et=21.39> <Mt= 0.01> <Spt= 0.40> <nCl= 30> <DB=   83.0088> <Mlp=   83.0088> <PB=1000000> 
---- Diving heuristic node with dive number = 0, fix depth = 46 and tabu list size = 0
Fixed projected solution = [x_1_0_1_OspV=1, x_1_18_1_OspV=1, x_1_38_1_OspV=1, x_1_242_1_OspV=1]
<DWph=2> <it=  3> <et=21.85> <Mt= 0.07> <Spt= 0.37> <nCl=  8> <DB=   83.0312> <Mlp=   83.0312> <PB=1000000> 
<DWph=1> <it=  7> <et=22.34> <Mt= 0.03> <Spt= 0.47> <nCl=125> <DB=   83.0111> <Mlp=   83.0111> <PB=1000000> 
---- Diving heuristic node with dive number = 0, fix depth = 47 and tabu list size = 0
Fixed projected solution = [x_1_0_1_OspV=1, x_1_26_1_OspV=1, x_1_32_1_OspV=1, x_1_241_1_OspV=1]
<DWph=2> <it=  8> <et=23.30> <Mt= 0.05> <Spt= 0.89> <nCl=131> <DB=   83.0121> <Mlp=   83.0121> <PB=1000000> 
<DWph=1> <it= 10> <et=23.46> <Mt= 0.00> <Spt= 0.16> <nCl= 15> <DB=   81.7008> <Mlp=   83.0120> <PB=1000000> 
<DWph=1> <it= 12> <et=23.70> <Mt= 0.01> <Spt= 0.24> <nCl=  3> <DB=   83.0120> <Mlp=   83.0120> <PB=1000000> 
---- Diving heuristic node with dive number = 0, fix depth = 48 and tabu list size = 0
Fixed projected solution = [x_1_0_1_OspV=1, x_1_29_1_OspV=1, x_1_67_1_OspV=1, x_1_236_1_OspV=1]
<DWph=2> <it=  2> <et=24.08> <Mt= 0.06> <Spt= 0.29> <nCl= 21> <DB=   83.0172> <Mlp=   83.0172> <PB=1000000> 
<DWph=1> <it=  3> <et=24.23> <Mt= 0.01> <Spt= 0.15> <nCl=  0> <DB=   83.0172> <Mlp=   83.0172> <PB=1000000> 
---- Diving heuristic node with dive number = 0, fix depth = 49 and tabu list size = 0
Fixed projected solution = [x_1_0_1_OspV=1, x_1_41_1_OspV=1, x_1_65_1_OspV=1, x_1_235_1_OspV=1]
<DWph=2> <it=  9> <et=25.23> <Mt= 0.03> <Spt= 0.95> <nCl= 66> <DB=   83.0230> <Mlp=   83.0230> <PB=1000000> 
<DWph=1> <it= 10> <et=25.31> <Mt= 0.01> <Spt= 0.07> <nCl= 86> <DB=   56.2759> <Mlp=   83.0230> <PB=1000000> 
<DWph=1> <it= 12> <et=25.54> <Mt= 0.00> <Spt= 0.22> <nCl=  6> <DB=   83.0200> <Mlp=   83.0200> <PB=1000000> 
---- Diving heuristic node with dive number = 0, fix depth = 50 and tabu list size = 0
Fixed projected solution = [x_1_0_1_OspV=1, x_1_91_1_OspV=1, x_1_135_1_OspV=1, x_1_193_1_OspV=1]
<DWph=2> <it=  1> <et=25.70> <Mt= 0.02> <Spt= 0.15> <nCl=  0> <DB=   83.0200> <Mlp=   83.0200> <PB=1000000> 
<DWph=1> <it=  2> <et=25.85> <Mt= 0.00> <Spt= 0.14> <nCl=  0> <DB=   83.0200> <Mlp=   83.0200> <PB=1000000> 
---- Diving heuristic node with dive number = 0, fix depth = 51 and tabu list size = 0
Fixed projected solution = [x_1_0_1_OspV=1, x_1_5_1_OspV=1, x_1_101_1_OspV=1, x_1_229_1_OspV=1]
<DWph=2> <it=  7> <et=26.64> <Mt= 0.04> <Spt= 0.73> <nCl= 30> <DB=   83.0227> <Mlp=   83.0227> <PB=1000000> 
<DWph=1> <it= 10> <et=26.96> <Mt= 0.01> <Spt= 0.31> <nCl= 16> <DB=   83.0227> <Mlp=   83.0227> <PB=1000000> 
---- Diving heuristic node with dive number = 0, fix depth = 51 and tabu list size = 0
Fixed projected solution = [x_1_0_1_OspV=1, x_1_47_1_OspV=1, x_1_131_1_OspV=1, x_1_210_1_OspV=1]
<DWph=2> <it=  1> <et=27.12> <Mt= 0.00> <Spt= 0.14> <nCl=  0> <DB=   83.0227> <Mlp=   83.0227> <PB=1000000> 
<DWph=1> <it=  2> <et=27.27> <Mt= 0.00> <Spt= 0.15> <nCl=  0> <DB=   83.0227> <Mlp=   83.0227> <PB=1000000> 
---- Diving heuristic node with dive number = 0, fix depth = 52 and tabu list size = 0
Fixed projected solution = [x_1_0_1_OspV=1, x_1_46_1_OspV=1, x_1_119_1_OspV=1, x_1_215_1_OspV=1]
<DWph=2> <it=  4> <et=27.83> <Mt= 0.11> <Spt= 0.44> <nCl=106> <DB=   83.0312> <Mlp=   83.0312> <PB=1000000> 
<DWph=1> <it=  6> <et=28.12> <Mt= 0.01> <Spt= 0.29> <nCl= 35> <DB=   83.0294> <Mlp=   83.0294> <PB=1000000> 
---- Diving heuristic node with dive number = 0, fix depth = 53 and tabu list size = 0
Fixed projected solution = [x_1_0_1_OspV=1, x_1_61_1_OspV=1, x_1_155_1_OspV=1, x_1_183_1_OspV=1]
<DWph=2> <it=  7> <et=28.95> <Mt= 0.10> <Spt= 0.71> <nCl=185> <DB=   83.0435> <Mlp=   83.0435> <PB=1000000> 
<DWph=1> <it= 10> <et=29.18> <Mt= 0.01> <Spt= 0.21> <nCl= 99> <DB=   76.7022> <Mlp=   83.0345> <PB=1000000> 
<DWph=1> <it= 14> <et=29.56> <Mt= 0.01> <Spt= 0.37> <nCl= 32> <DB=   83.0345> <Mlp=   83.0345> <PB=1000000> 
---- Diving heuristic node with dive number = 0, fix depth = 54 and tabu list size = 0
Fixed projected solution = [x_1_0_1_OspV=1, x_1_51_1_OspV=1, x_1_139_1_OspV=1, x_1_206_1_OspV=1]
<DWph=2> <it=  6> <et=30.19> <Mt= 0.06> <Spt= 0.57> <nCl= 13> <DB=   83.0500> <Mlp=   83.0500> <PB=1000000> 
<DWph=1> <it=  9> <et=30.56> <Mt= 0.01> <Spt= 0.35> <nCl= 25> <DB=   83.0500> <Mlp=   83.0500> <PB=1000000> 
---- Diving heuristic node with dive number = 0, fix depth = 55 and tabu list size = 0
Fixed projected solution = [x_1_0_1_OspV=1, x_1_35_1_OspV=1, x_1_128_1_OspV=1, x_1_212_1_OspV=1]
<DWph=2> <it=  5> <et=31.16> <Mt= 0.05> <Spt= 0.50> <nCl= 25> <DB=   83.0588> <Mlp=   83.0588> <PB=1000000> 
<DWph=1> <it=  8> <et=31.45> <Mt= 0.00> <Spt= 0.28> <nCl= 16> <DB=   83.0588> <Mlp=   83.0588> <PB=1000000> 
---- Diving heuristic node with dive number = 0, fix depth = 56 and tabu list size = 0
Fixed projected solution = [x_1_0_1_OspV=1, x_1_115_1_OspV=1, x_1_142_1_OspV=1, x_1_172_1_OspV=1]
<DWph=2> <it=  6> <et=32.13> <Mt= 0.10> <Spt= 0.57> <nCl=156> <DB=   83.1000> <Mlp=   83.1000> <PB=1000000> 
<DWph=1> <it=  7> <et=32.35> <Mt= 0.00> <Spt= 0.22> <nCl=  0> <DB=   83.1000> <Mlp=   83.1000> <PB=1000000> 
---- Diving heuristic node with dive number = 0, fix depth = 57 and tabu list size = 0
Fixed projected solution = [x_1_0_1_OspV=1, x_1_78_1_OspV=1, x_1_164_1_OspV=1, x_1_171_1_OspV=1]
<DWph=2> <it= 10> <et=33.25> <Mt= 0.18> <Spt= 0.69> <nCl=243> <DB=   78.4486> <Mlp=   83.1429> <PB=1000000> 
<DWph=2> <it= 20> <et=34.16> <Mt= 0.07> <Spt= 0.84> <nCl= 30> <DB=   78.1448> <Mlp=   83.1429> <PB=1000000> 
<DWph=2> <it= 30> <et=34.89> <Mt= 0.02> <Spt= 0.71> <nCl= 14> <DB=   81.7404> <Mlp=   83.1429> <PB=1000000> 
<DWph=2> <it= 34> <et=35.45> <Mt= 0.01> <Spt= 0.55> <nCl=  3> <DB=   83.1429> <Mlp=   83.1429> <PB=1000000> 
<DWph=1> <it= 40> <et=35.92> <Mt= 0.05> <Spt= 0.42> <nCl= 71> <DB=   64.2853> <Mlp=   83.1250> <PB=1000000> 
<DWph=1> <it= 41> <et=36.13> <Mt= 0.00> <Spt= 0.21> <nCl=  0> <DB=   83.1250> <Mlp=   83.1250> <PB=1000000> 
---- Diving heuristic node with dive number = 0, fix depth = 58 and tabu list size = 0
Fixed projected solution = [x_1_0_1_OspV=1, x_1_55_1_OspV=1, x_1_154_1_OspV=1, x_1_184_1_OspV=1]
<DWph=2> <it=  9> <et=37.09> <Mt= 0.10> <Spt= 0.84> <nCl=150> <DB=   83.2000> <Mlp=   83.2000> <PB=1000000> 
<DWph=1> <it= 10> <et=37.16> <Mt= 0.01> <Spt= 0.07> <nCl= 49> <DB=   49.4000> <Mlp=   83.2000> <PB=1000000> 
<DWph=1> <it= 20> <et=37.91> <Mt= 0.03> <Spt= 0.71> <nCl=169> <DB=   53.5807> <Mlp=   83.2000> <PB=1000000> 
<DWph=1> <it= 29> <et=38.71> <Mt= 0.02> <Spt= 0.78> <nCl= 34> <DB=   83.2000> <Mlp=   83.2000> <PB=1000000> 
---- Diving heuristic node with dive number = 0, fix depth = 59 and tabu list size = 0
Fixed projected solution = [x_1_0_1_OspV=1, x_1_20_1_OspV=1, x_1_111_1_OspV=1, x_1_222_1_OspV=1]
<DWph=2> <it=  3> <et=39.13> <Mt= 0.05> <Spt= 0.35> <nCl=145> <DB=   83.3333> <Mlp=   83.3333> <PB=84> 
<DWph=1> <it=  8> <et=39.63> <Mt= 0.01> <Spt= 0.48> <nCl=  4> <DB=   83.3333> <Mlp=   83.3333> <PB=84> 
---- Diving heuristic node with dive number = 0, fix depth = 60 and tabu list size = 0
Fixed projected solution = [x_1_0_1_OspV=1, x_1_95_1_OspV=1, x_1_127_1_OspV=1, x_1_194_1_OspV=1]
<DWph=2> <it= 10> <et=40.45> <Mt= 0.12> <Spt= 0.70> <nCl=221> <DB=   51.1129> <Mlp=   84.0000> <PB=84> 
<DWph=2> <it= 20> <et=41.31> <Mt= 0.02> <Spt= 0.83> <nCl= 60> <DB=   80.0550> <Mlp=   84.0000> <PB=84> 
<DWph=2> <it= 30> <et=42.04> <Mt= 0.04> <Spt= 0.69> <nCl=136> <DB=   79.8998> <Mlp=   84.0000> <PB=84> 
<DWph=2> <it= 40> <et=43.35> <Mt= 0.04> <Spt= 1.18> <nCl=302> <DB=   84.0000> <Mlp=   84.0000> <PB=84> 
<DWph=1> <it= 50> <et=44.07> <Mt= 0.02> <Spt= 0.70> <nCl= 25> <DB=  -83.0000> <Mlp=   84.0000> <PB=84> 
<DWph=1> <it= 51> <et=44.28> <Mt= 0.00> <Spt= 0.20> <nCl=  0> <DB=   84.0000> <Mlp=   84.0000> <PB=84> 
---- Diving heuristic node with dive number = 1, fix depth = 2 and tabu list size = 1
Fixed projected solution = [x_1_0_1_OspV=1, x_1_4_1_OspV=1, x_1_31_1_OspV=1, x_1_246_1_OspV=1]
<DWph=2> <it=  1> <et=44.45> <Mt= 0.00> <Spt= 0.00> <nCl=  0> <DB=   83.0000> <Mlp=   83.0000> <PB=84> 
<DWph=1> <it=  2> <et=44.45> <Mt= 0.00> <Spt= 0.00> <nCl=  0> <DB=   83.0000> <Mlp=   83.0000> <PB=84> 
---- Diving heuristic node with dive number = 1, fix depth = 2 and tabu list size = 1
Fixed projected solution = [x_1_0_1_OspV=1, x_1_25_1_OspV=1, x_1_100_1_OspV=1, x_1_227_1_OspV=1]
<DWph=2> <it=  1> <et=44.46> <Mt= 0.00> <Spt= 0.00> <nCl=  0> <DB=   83.0000> <Mlp=   83.0000> <PB=84> 
<DWph=1> <it=  2> <et=44.46> <Mt= 0.00> <Spt= 0.00> <nCl=  0> <DB=   83.0000> <Mlp=   83.0000> <PB=84> 
---- Diving heuristic node with dive number = 1, fix depth = 3 and tabu list size = 1
Fixed projected solution = [x_1_0_1_OspV=1, x_1_21_1_OspV=1, x_1_88_1_OspV=1, x_1_230_1_OspV=1]
<DWph=2> <it=  1> <et=44.47> <Mt= 0.00> <Spt= 0.00> <nCl=  0> <DB=   83.0000> <Mlp=   83.0000> <PB=84> 
<DWph=1> <it=  2> <et=44.47> <Mt= 0.01> <Spt= 0.00> <nCl=  0> <DB=   83.0000> <Mlp=   83.0000> <PB=84> 
---- Diving heuristic node with dive number = 1, fix depth = 4 and tabu list size = 1
Fixed projected solution = [x_1_0_1_OspV=1, x_1_2_1_OspV=1, x_1_87_1_OspV=1, x_1_233_1_OspV=1]
<DWph=2> <it=  1> <et=44.48> <Mt= 0.00> <Spt= 0.00> <nCl=  0> <DB=   83.0000> <Mlp=   83.0000> <PB=84> 
<DWph=1> <it=  2> <et=44.48> <Mt= 0.00> <Spt= 0.00> <nCl=  0> <DB=   83.0000> <Mlp=   83.0000> <PB=84> 
---- Diving heuristic node with dive number = 1, fix depth = 5 and tabu list size = 1
Fixed projected solution = [x_1_0_1_OspV=1, x_1_27_1_OspV=1, x_1_64_1_OspV=1, x_1_240_1_OspV=1]
<DWph=2> <it=  1> <et=44.50> <Mt= 0.01> <Spt= 0.00> <nCl=  0> <DB=   83.0000> <Mlp=   83.0000> <PB=84> 
<DWph=1> <it=  2> <et=44.50> <Mt= 0.00> <Spt= 0.00> <nCl=  0> <DB=   83.0000> <Mlp=   83.0000> <PB=84> 
---- Diving heuristic node with dive number = 1, fix depth = 6 and tabu list size = 1
Fixed projected solution = [x_1_0_1_OspV=1, x_1_50_1_OspV=1, x_1_159_1_OspV=1, x_1_185_1_OspV=1]
<DWph=2> <it=  1> <et=44.51> <Mt= 0.00> <Spt= 0.00> <nCl=  0> <DB=   83.0000> <Mlp=   83.0000> <PB=84> 
<DWph=1> <it=  2> <et=44.51> <Mt= 0.00> <Spt= 0.00> <nCl=  0> <DB=   83.0000> <Mlp=   83.0000> <PB=84> 
---- Diving heuristic node with dive number = 1, fix depth = 7 and tabu list size = 1
Fixed projected solution = [x_1_0_1_OspV=1, x_1_54_1_OspV=1, x_1_153_1_OspV=1, x_1_188_1_OspV=1]
<DWph=2> <it=  1> <et=44.53> <Mt= 0.01> <Spt= 0.00> <nCl=  0> <DB=   83.0000> <Mlp=   83.0000> <PB=84> 
<DWph=1> <it=  2> <et=44.53> <Mt= 0.00> <Spt= 0.00> <nCl=  0> <DB=   83.0000> <Mlp=   83.0000> <PB=84> 
---- Diving heuristic node with dive number = 1, fix depth = 8 and tabu list size = 1
Fixed projected solution = [x_1_0_1_OspV=1, x_1_123_1_OspV=1, x_1_125_1_OspV=1, x_1_181_1_OspV=1]
<DWph=2> <it=  1> <et=44.54> <Mt= 0.01> <Spt= 0.00> <nCl=  0> <DB=   83.0000> <Mlp=   83.0000> <PB=84> 
<DWph=1> <it=  2> <et=44.55> <Mt= 0.00> <Spt= 0.00> <nCl=  0> <DB=   83.0000> <Mlp=   83.0000> <PB=84> 
---- Diving heuristic node with dive number = 1, fix depth = 9 and tabu list size = 1
Fixed projected solution = [x_1_0_1_OspV=1, x_1_6_1_OspV=1, x_1_39_1_OspV=1, x_1_244_1_OspV=1]
<DWph=2> <it=  1> <et=44.56> <Mt= 0.01> <Spt= 0.00> <nCl=  0> <DB=   83.0000> <Mlp=   83.0000> <PB=84> 
<DWph=1> <it=  2> <et=44.56> <Mt= 0.00> <Spt= 0.00> <nCl=  0> <DB=   83.0000> <Mlp=   83.0000> <PB=84> 
---- Diving heuristic node with dive number = 1, fix depth = 10 and tabu list size = 1
Fixed projected solution = [x_1_0_1_OspV=1, x_1_90_1_OspV=1, x_1_99_1_OspV=1, x_1_209_1_OspV=1]
<DWph=2> <it=  1> <et=44.58> <Mt= 0.01> <Spt= 0.00> <nCl=  0> <DB=   83.0000> <Mlp=   83.0000> <PB=84> 
<DWph=1> <it=  2> <et=44.58> <Mt= 0.00> <Spt= 0.00> <nCl=  0> <DB=   83.0000> <Mlp=   83.0000> <PB=84> 
---- Diving heuristic node with dive number = 1, fix depth = 11 and tabu list size = 1
Fixed projected solution = [x_1_0_1_OspV=1, x_1_132_1_OspV=1, x_1_144_1_OspV=1, x_1_162_1_OspV=1]
<DWph=2> <it=  1> <et=44.60> <Mt= 0.02> <Spt= 0.00> <nCl=  0> <DB=   83.0000> <Mlp=   83.0000> <PB=84> 
<DWph=1> <it=  2> <et=44.60> <Mt= 0.00> <Spt= 0.00> <nCl=  0> <DB=   83.0000> <Mlp=   83.0000> <PB=84> 
---- Diving heuristic node with dive number = 1, fix depth = 12 and tabu list size = 1
Fixed projected solution = [x_1_0_1_OspV=1, x_1_129_1_OspV=1, x_1_145_1_OspV=1, x_1_158_1_OspV=1]
<DWph=2> <it=  1> <et=44.63> <Mt= 0.01> <Spt= 0.00> <nCl=  0> <DB=   83.0000> <Mlp=   83.0000> <PB=84> 
<DWph=1> <it=  2> <et=44.63> <Mt= 0.00> <Spt= 0.00> <nCl=  0> <DB=   83.0000> <Mlp=   83.0000> <PB=84> 
---- Diving heuristic node with dive number = 1, fix depth = 13 and tabu list size = 1
Fixed projected solution = [x_1_0_1_OspV=1, x_1_57_1_OspV=1, x_1_107_1_OspV=1, x_1_218_1_OspV=1]
<DWph=2> <it=  1> <et=44.65> <Mt= 0.02> <Spt= 0.00> <nCl=  0> <DB=   83.0000> <Mlp=   83.0000> <PB=84> 
<DWph=1> <it=  2> <et=44.65> <Mt= 0.00> <Spt= 0.00> <nCl=  0> <DB=   83.0000> <Mlp=   83.0000> <PB=84> 
---- Diving heuristic node with dive number = 1, fix depth = 14 and tabu list size = 1
Fixed projected solution = [x_1_0_1_OspV=1, x_1_22_1_OspV=1, x_1_109_1_OspV=1, x_1_223_1_OspV=1]
<DWph=2> <it=  1> <et=44.68> <Mt= 0.02> <Spt= 0.00> <nCl=  0> <DB=   83.0000> <Mlp=   83.0000> <PB=84> 
<DWph=1> <it=  2> <et=44.68> <Mt= 0.00> <Spt= 0.00> <nCl=  0> <DB=   83.0000> <Mlp=   83.0000> <PB=84> 
---- Diving heuristic node with dive number = 1, fix depth = 14 and tabu list size = 1
Fixed projected solution = [x_1_0_1_OspV=1, x_1_81_1_OspV=1, x_1_166_1_OspV=1, x_1_167_1_OspV=1]
<DWph=2> <it=  1> <et=44.69> <Mt= 0.00> <Spt= 0.00> <nCl=  0> <DB=   83.0000> <Mlp=   83.0000> <PB=84> 
<DWph=1> <it=  2> <et=44.69> <Mt= 0.00> <Spt= 0.00> <nCl=  0> <DB=   83.0000> <Mlp=   83.0000> <PB=84> 
---- Diving heuristic node with dive number = 1, fix depth = 15 and tabu list size = 1
Fixed projected solution = [x_1_0_1_OspV=1, x_1_12_1_OspV=1, x_1_122_1_OspV=1, x_1_217_1_OspV=1]
<DWph=2> <it=  1> <et=44.71> <Mt= 0.02> <Spt= 0.00> <nCl=  0> <DB=   83.0000> <Mlp=   83.0000> <PB=84> 
<DWph=1> <it=  2> <et=44.72> <Mt= 0.00> <Spt= 0.00> <nCl=  0> <DB=   83.0000> <Mlp=   83.0000> <PB=84> 
---- Diving heuristic node with dive number = 1, fix depth = 16 and tabu list size = 1
Fixed projected solution = [x_1_0_1_OspV=1, x_1_9_1_OspV=1, x_1_76_1_OspV=1, x_1_237_1_OspV=1]
<DWph=2> <it=  1> <et=44.74> <Mt= 0.01> <Spt= 0.00> <nCl=  0> <DB=   83.0000> <Mlp=   83.0000> <PB=84> 
<DWph=1> <it=  2> <et=44.74> <Mt= 0.00> <Spt= 0.00> <nCl=  0> <DB=   83.0000> <Mlp=   83.0000> <PB=84> 
---- Diving heuristic node with dive number = 1, fix depth = 17 and tabu list size = 1
Fixed projected solution = [x_1_0_1_OspV=1, x_1_53_1_OspV=1, x_1_160_1_OspV=1, x_1_184_1_OspV=1]
<DWph=2> <it=  1> <et=44.76> <Mt= 0.02> <Spt= 0.00> <nCl=  0> <DB=   83.0000> <Mlp=   83.0000> <PB=84> 
<DWph=1> <it=  2> <et=44.76> <Mt= 0.00> <Spt= 0.00> <nCl=  0> <DB=   83.0000> <Mlp=   83.0000> <PB=84> 
---- Diving heuristic node with dive number = 1, fix depth = 18 and tabu list size = 1
Fixed projected solution = [x_1_0_1_OspV=1, x_1_84_1_OspV=1, x_1_124_1_OspV=1, x_1_202_1_OspV=1]
<DWph=2> <it=  1> <et=44.79> <Mt= 0.02> <Spt= 0.00> <nCl=  0> <DB=   83.0000> <Mlp=   83.0000> <PB=84> 
<DWph=1> <it=  2> <et=44.79> <Mt= 0.00> <Spt= 0.00> <nCl=  0> <DB=   83.0000> <Mlp=   83.0000> <PB=84> 
---- Diving heuristic node with dive number = 1, fix depth = 19 and tabu list size = 1
Fixed projected solution = [x_1_0_1_OspV=1, x_1_105_1_OspV=1, x_1_154_1_OspV=1, x_1_165_1_OspV=1]
<DWph=2> <it=  1> <et=44.83> <Mt= 0.03> <Spt= 0.00> <nCl=  0> <DB=   83.0000> <Mlp=   83.0000> <PB=84> 
<DWph=1> <it=  2> <et=44.83> <Mt= 0.00> <Spt= 0.00> <nCl=  0> <DB=   83.0000> <Mlp=   83.0000> <PB=84> 
---- Diving heuristic node with dive number = 1, fix depth = 20 and tabu list size = 1
Fixed projected solution = [x_1_0_1_OspV=1, x_1_71_1_OspV=1, x_1_135_1_OspV=1, x_1_204_1_OspV=1]
<DWph=2> <it=  1> <et=44.86> <Mt= 0.02> <Spt= 0.00> <nCl=  0> <DB=   83.0000> <Mlp=   83.0000> <PB=84> 
<DWph=1> <it=  2> <et=44.86> <Mt= 0.00> <Spt= 0.00> <nCl=  0> <DB=   83.0000> <Mlp=   83.0000> <PB=84> 
---- Diving heuristic node with dive number = 1, fix depth = 21 and tabu list size = 1
Fixed projected solution = [x_1_0_1_OspV=1, x_1_45_1_OspV=1, x_1_118_1_OspV=1, x_1_216_1_OspV=1]
<DWph=2> <it=  1> <et=44.89> <Mt= 0.03> <Spt= 0.00> <nCl=  0> <DB=   83.0000> <Mlp=   83.0000> <PB=84> 
<DWph=1> <it=  2> <et=44.89> <Mt= 0.00> <Spt= 0.00> <nCl=  0> <DB=   83.0000> <Mlp=   83.0000> <PB=84> 
---- Diving heuristic node with dive number = 1, fix depth = 22 and tabu list size = 1
Fixed projected solution = [x_1_0_1_OspV=1, x_1_106_1_OspV=1, x_1_110_1_OspV=1, x_1_199_1_OspV=1]
<DWph=2> <it=  1> <et=44.92> <Mt= 0.02> <Spt= 0.00> <nCl=  0> <DB=   83.0000> <Mlp=   83.0000> <PB=84> 
<DWph=1> <it=  2> <et=44.92> <Mt= 0.00> <Spt= 0.00> <nCl=  0> <DB=   83.0000> <Mlp=   83.0000> <PB=84> 
---- Diving heuristic node with dive number = 1, fix depth = 23 and tabu list size = 1
Fixed projected solution = [x_1_0_1_OspV=1, x_1_17_1_OspV=1, x_1_104_1_OspV=1, x_1_226_1_OspV=1]
<DWph=2> <it=  1> <et=44.94> <Mt= 0.02> <Spt= 0.00> <nCl=  0> <DB=   83.0000> <Mlp=   83.0000> <PB=84> 
<DWph=1> <it=  2> <et=44.94> <Mt= 0.00> <Spt= 0.00> <nCl=  0> <DB=   83.0000> <Mlp=   83.0000> <PB=84> 
---- Diving heuristic node with dive number = 1, fix depth = 24 and tabu list size = 1
Fixed projected solution = [x_1_0_1_OspV=1, x_1_10_1_OspV=1, x_1_89_1_OspV=1, x_1_232_1_OspV=1]
<DWph=2> <it=  1> <et=44.98> <Mt= 0.02> <Spt= 0.00> <nCl=  0> <DB=   83.0000> <Mlp=   83.0000> <PB=84> 
<DWph=1> <it=  2> <et=44.98> <Mt= 0.00> <Spt= 0.00> <nCl=  0> <DB=   83.0000> <Mlp=   83.0000> <PB=84> 
---- Diving heuristic node with dive number = 1, fix depth = 25 and tabu list size = 1
Fixed projected solution = [x_1_0_1_OspV=1, x_1_36_1_OspV=1, x_1_68_1_OspV=1, x_1_235_1_OspV=1]
<DWph=2> <it=  1> <et=45.01> <Mt= 0.03> <Spt= 0.00> <nCl=  0> <DB=   83.0000> <Mlp=   83.0000> <PB=84> 
<DWph=1> <it=  2> <et=45.01> <Mt= 0.00> <Spt= 0.00> <nCl=  0> <DB=   83.0000> <Mlp=   83.0000> <PB=84> 
---- Diving heuristic node with dive number = 1, fix depth = 26 and tabu list size = 1
Fixed projected solution = [x_1_0_1_OspV=1, x_1_72_1_OspV=1, x_1_164_1_OspV=1, x_1_176_1_OspV=1]
<DWph=2> <it=  1> <et=45.05> <Mt= 0.03> <Spt= 0.00> <nCl=  0> <DB=   83.0000> <Mlp=   83.0000> <PB=84> 
<DWph=1> <it=  2> <et=45.05> <Mt= 0.00> <Spt= 0.00> <nCl=  0> <DB=   83.0000> <Mlp=   83.0000> <PB=84> 
---- Diving heuristic node with dive number = 1, fix depth = 27 and tabu list size = 1
Fixed projected solution = [x_1_0_1_OspV=1, x_1_96_1_OspV=1, x_1_115_1_OspV=1, x_1_205_1_OspV=1]
<DWph=2> <it=  1> <et=45.08> <Mt= 0.02> <Spt= 0.00> <nCl=  0> <DB=   83.0000> <Mlp=   83.0000> <PB=84> 
<DWph=1> <it=  2> <et=45.08> <Mt= 0.00> <Spt= 0.00> <nCl=  0> <DB=   83.0000> <Mlp=   83.0000> <PB=84> 
---- Diving heuristic node with dive number = 1, fix depth = 28 and tabu list size = 1
Fixed projected solution = [x_1_0_1_OspV=1, x_1_85_1_OspV=1, x_1_155_1_OspV=1, x_1_175_1_OspV=1]
<DWph=2> <it=  1> <et=45.10> <Mt= 0.02> <Spt= 0.00> <nCl=  0> <DB=   83.0000> <Mlp=   83.0000> <PB=84> 
<DWph=1> <it=  2> <et=45.11> <Mt= 0.00> <Spt= 0.00> <nCl=  0> <DB=   83.0000> <Mlp=   83.0000> <PB=84> 
---- Diving heuristic node with dive number = 1, fix depth = 28 and tabu list size = 1
Fixed projected solution = [x_1_0_1_OspV=1, x_1_16_1_OspV=1, x_1_140_1_OspV=1, x_1_208_1_OspV=1]
<DWph=2> <it=  1> <et=45.11> <Mt= 0.00> <Spt= 0.00> <nCl=  0> <DB=   83.0000> <Mlp=   83.0000> <PB=84> 
<DWph=1> <it=  2> <et=45.11> <Mt= 0.01> <Spt= 0.00> <nCl=  0> <DB=   83.0000> <Mlp=   83.0000> <PB=84> 
---- Diving heuristic node with dive number = 1, fix depth = 28 and tabu list size = 1
Fixed projected solution = [x_1_0_1_OspV=1, x_1_58_1_OspV=1, x_1_98_1_OspV=1, x_1_221_1_OspV=1]
<DWph=2> <it=  1> <et=45.12> <Mt= 0.00> <Spt= 0.00> <nCl=  0> <DB=   83.0000> <Mlp=   83.0000> <PB=84> 
<DWph=1> <it=  2> <et=45.12> <Mt= 0.00> <Spt= 0.00> <nCl=  0> <DB=   83.0000> <Mlp=   83.0000> <PB=84> 
---- Diving heuristic node with dive number = 1, fix depth = 29 and tabu list size = 1
Fixed projected solution = [x_1_0_1_OspV=1, x_1_51_1_OspV=1, x_1_173_1_OspV=1, x_1_174_1_OspV=1]
<DWph=2> <it=  3> <et=45.35> <Mt= 0.06> <Spt= 0.16> <nCl=200> <DB=   82.5800> <Mlp=   83.0000> <PB=84> 
<DWph=1> <it=  4> <et=45.35> <Mt= 0.00> <Spt= 0.00> <nCl=  0> <DB=   83.0000> <Mlp=   83.0000> <PB=84> 
---- Diving heuristic node with dive number = 1, fix depth = 30 and tabu list size = 1
Fixed projected solution = [x_1_0_1_OspV=1, x_1_97_1_OspV=1, x_1_137_1_OspV=1, x_1_187_1_OspV=1]
<DWph=2> <it=  1> <et=45.41> <Mt= 0.04> <Spt= 0.00> <nCl=  0> <DB=   83.0000> <Mlp=   83.0000> <PB=84> 
<DWph=1> <it=  2> <et=45.41> <Mt= 0.00> <Spt= 0.00> <nCl=  0> <DB=   83.0000> <Mlp=   83.0000> <PB=84> 
---- Diving heuristic node with dive number = 1, fix depth = 30 and tabu list size = 1
Fixed projected solution = [x_1_0_1_OspV=1, x_1_102_1_OspV=1, x_1_126_1_OspV=1, x_1_193_1_OspV=1]
<DWph=2> <it=  1> <et=45.42> <Mt= 0.01> <Spt= 0.00> <nCl=  0> <DB=   83.0000> <Mlp=   83.0000> <PB=84> 
<DWph=1> <it=  2> <et=45.42> <Mt= 0.00> <Spt= 0.00> <nCl=  0> <DB=   83.0000> <Mlp=   83.0000> <PB=84> 
---- Diving heuristic node with dive number = 1, fix depth = 31 and tabu list size = 1
Fixed projected solution = [x_1_0_1_OspV=1, x_1_69_1_OspV=1, x_1_147_1_OspV=1, x_1_192_1_OspV=1]
<DWph=2> <it=  2> <et=45.55> <Mt= 0.05> <Spt= 0.07> <nCl=100> <DB=   82.6905> <Mlp=   83.0000> <PB=84> 
<DWph=1> <it=  3> <et=45.55> <Mt= 0.00> <Spt= 0.00> <nCl=  0> <DB=   83.0000> <Mlp=   83.0000> <PB=84> 
---- Diving heuristic node with dive number = 1, fix depth = 31 and tabu list size = 1
Fixed projected solution = [x_1_0_1_OspV=1, x_1_40_1_OspV=1, x_1_82_1_OspV=1, x_1_231_1_OspV=1]
<DWph=2> <it=  1> <et=45.57> <Mt= 0.00> <Spt= 0.00> <nCl=  0> <DB=   83.0000> <Mlp=   83.0000> <PB=84> 
<DWph=1> <it=  2> <et=45.57> <Mt= 0.00> <Spt= 0.00> <nCl=  0> <DB=   83.0000> <Mlp=   83.0000> <PB=84> 
---- Diving heuristic node with dive number = 1, fix depth = 32 and tabu list size = 1
Fixed projected solution = [x_1_0_1_OspV=1, x_1_49_1_OspV=1, x_1_170_1_OspV=1, x_1_177_1_OspV=1]
<DWph=2> <it=  1> <et=45.59> <Mt= 0.02> <Spt= 0.00> <nCl=  0> <DB=   83.0000> <Mlp=   83.0000> <PB=84> 
<DWph=1> <it=  2> <et=45.59> <Mt= 0.00> <Spt= 0.00> <nCl=  0> <DB=   83.0000> <Mlp=   83.0000> <PB=84> 
---- Diving heuristic node with dive number = 1, fix depth = 33 and tabu list size = 1
Fixed projected solution = [x_1_0_1_OspV=1, x_1_5_1_OspV=1, x_1_101_1_OspV=1, x_1_229_1_OspV=1]
<DWph=2> <it=  1> <et=45.63> <Mt= 0.02> <Spt= 0.00> <nCl=  0> <DB=   83.0000> <Mlp=   83.0000> <PB=84> 
<DWph=1> <it=  2> <et=45.63> <Mt= 0.01> <Spt= 0.00> <nCl=  0> <DB=   83.0000> <Mlp=   83.0000> <PB=84> 
---- Diving heuristic node with dive number = 1, fix depth = 34 and tabu list size = 1
Fixed projected solution = [x_1_0_1_OspV=1, x_1_75_1_OspV=1, x_1_117_1_OspV=1, x_1_210_1_OspV=1]
<DWph=2> <it=  1> <et=45.66> <Mt= 0.02> <Spt= 0.00> <nCl=  0> <DB=   83.0000> <Mlp=   83.0000> <PB=84> 
<DWph=1> <it=  2> <et=45.67> <Mt= 0.00> <Spt= 0.00> <nCl=  0> <DB=   83.0000> <Mlp=   83.0000> <PB=84> 
---- Diving heuristic node with dive number = 1, fix depth = 35 and tabu list size = 1
Fixed projected solution = [x_1_0_1_OspV=1, x_1_78_1_OspV=1, x_1_143_1_OspV=1, x_1_189_1_OspV=1]
<DWph=2> <it=  1> <et=45.70> <Mt= 0.03> <Spt= 0.00> <nCl=  0> <DB=   83.0000> <Mlp=   83.0000> <PB=84> 
<DWph=1> <it=  2> <et=45.70> <Mt= 0.00> <Spt= 0.00> <nCl=  0> <DB=   83.0000> <Mlp=   83.0000> <PB=84> 
---- Diving heuristic node with dive number = 1, fix depth = 36 and tabu list size = 1
Fixed projected solution = [x_1_0_1_OspV=1, x_1_62_1_OspV=1, x_1_161_1_OspV=1, x_1_182_1_OspV=1]
<DWph=2> <it=  1> <et=45.73> <Mt= 0.02> <Spt= 0.00> <nCl=  0> <DB=   83.0000> <Mlp=   83.0000> <PB=84> 
<DWph=1> <it=  2> <et=45.73> <Mt= 0.00> <Spt= 0.00> <nCl=  0> <DB=   83.0000> <Mlp=   83.0000> <PB=84> 
---- Diving heuristic node with dive number = 1, fix depth = 37 and tabu list size = 1
Fixed projected solution = [x_1_0_1_OspV=1, x_1_74_1_OspV=1, x_1_134_1_OspV=1, x_1_203_1_OspV=1]
<DWph=2> <it=  2> <et=45.88> <Mt= 0.07> <Spt= 0.08> <nCl= 96> <DB=   82.7887> <Mlp=   83.0000> <PB=84> 
<DWph=1> <it=  3> <et=45.88> <Mt= 0.00> <Spt= 0.00> <nCl=  0> <DB=   83.0000> <Mlp=   83.0000> <PB=84> 
---- Diving heuristic node with dive number = 1, fix depth = 38 and tabu list size = 1
Fixed projected solution = [x_1_0_1_OspV=1, x_1_61_1_OspV=1, x_1_150_1_OspV=1, x_1_190_1_OspV=1]
<DWph=2> <it=  2> <et=46.03> <Mt= 0.06> <Spt= 0.07> <nCl=100> <DB=   82.7642> <Mlp=   83.0000> <PB=84> 
<DWph=1> <it=  3> <et=46.03> <Mt= 0.00> <Spt= 0.00> <nCl=  0> <DB=   83.0000> <Mlp=   83.0000> <PB=84> 
---- Diving heuristic node with dive number = 1, fix depth = 39 and tabu list size = 1
Fixed projected solution = [x_1_0_1_OspV=1, x_1_86_1_OspV=1, x_1_141_1_OspV=1, x_1_191_1_OspV=1]
<DWph=2> <it=  1> <et=46.06> <Mt= 0.02> <Spt= 0.00> <nCl=  0> <DB=   83.0000> <Mlp=   83.0000> <PB=84> 
<DWph=1> <it=  2> <et=46.06> <Mt= 0.00> <Spt= 0.00> <nCl=  0> <DB=   83.0000> <Mlp=   83.0000> <PB=84> 
---- Diving heuristic node with dive number = 1, fix depth = 40 and tabu list size = 1
Fixed projected solution = [x_1_0_1_OspV=1, x_1_37_1_OspV=1, x_1_128_1_OspV=1, x_1_212_1_OspV=1]
<DWph=2> <it=  1> <et=46.09> <Mt= 0.02> <Spt= 0.00> <nCl=  0> <DB=   83.0000> <Mlp=   83.0000> <PB=84> 
<DWph=1> <it=  2> <et=46.09> <Mt= 0.00> <Spt= 0.00> <nCl=  0> <DB=   83.0000> <Mlp=   83.0000> <PB=84> 
---- Diving heuristic node with dive number = 1, fix depth = 41 and tabu list size = 1
Fixed projected solution = [x_1_0_1_OspV=1, x_1_29_1_OspV=1, x_1_66_1_OspV=1, x_1_236_1_OspV=1]
<DWph=2> <it=  1> <et=46.14> <Mt= 0.04> <Spt= 0.00> <nCl=  0> <DB=   83.0000> <Mlp=   83.0000> <PB=84> 
<DWph=1> <it=  2> <et=46.14> <Mt= 0.00> <Spt= 0.00> <nCl=  0> <DB=   83.0000> <Mlp=   83.0000> <PB=84> 
---- Diving heuristic node with dive number = 1, fix depth = 42 and tabu list size = 1
Fixed projected solution = [x_1_0_1_OspV=1, x_1_59_1_OspV=1, x_1_93_1_OspV=1, x_1_224_1_OspV=1]
<DWph=2> <it=  1> <et=46.18> <Mt= 0.03> <Spt= 0.00> <nCl=  0> <DB=   83.0000> <Mlp=   83.0000> <PB=84> 
<DWph=1> <it=  2> <et=46.18> <Mt= 0.01> <Spt= 0.00> <nCl=  0> <DB=   83.0000> <Mlp=   83.0000> <PB=84> 
---- Diving heuristic node with dive number = 1, fix depth = 42 and tabu list size = 1
Fixed projected solution = [x_1_0_1_OspV=1, x_1_91_1_OspV=1, x_1_130_1_OspV=1, x_1_194_1_OspV=1]
<DWph=2> <it=  1> <et=46.19> <Mt= 0.00> <Spt= 0.00> <nCl=  0> <DB=   83.0000> <Mlp=   83.0000> <PB=84> 
<DWph=1> <it=  2> <et=46.19> <Mt= 0.00> <Spt= 0.00> <nCl=  0> <DB=   83.0000> <Mlp=   83.0000> <PB=84> 
---- Diving heuristic node with dive number = 1, fix depth = 42 and tabu list size = 1
Fixed projected solution = [x_1_0_1_OspV=1, x_1_79_1_OspV=1, x_1_80_1_OspV=1, x_1_222_1_OspV=1]
<DWph=2> <it=  1> <et=46.20> <Mt= 0.00> <Spt= 0.00> <nCl=  0> <DB=   83.0000> <Mlp=   83.0000> <PB=84> 
<DWph=1> <it=  2> <et=46.20> <Mt= 0.00> <Spt= 0.00> <nCl=  0> <DB=   83.0000> <Mlp=   83.0000> <PB=84> 
---- Diving heuristic node with dive number = 1, fix depth = 43 and tabu list size = 1
Fixed projected solution = [x_1_0_1_OspV=1, x_1_108_1_OspV=1, x_1_116_1_OspV=1, x_1_195_1_OspV=1]
<DWph=2> <it= 10> <et=47.44> <Mt= 0.09> <Spt= 1.15> <nCl=193> <DB=   83.0011> <Mlp=   83.0011> <PB=84> 
<DWph=1> <it= 12> <et=47.53> <Mt= 0.00> <Spt= 0.08> <nCl=100> <DB=   81.2939> <Mlp=   83.0000> <PB=84> 
---- Diving heuristic node with dive number = 1, fix depth = 44 and tabu list size = 1
Fixed projected solution = [x_1_0_1_OspV=1, x_1_46_1_OspV=1, x_1_163_1_OspV=1, x_1_183_1_OspV=1]
<DWph=2> <it=  1> <et=47.58> <Mt= 0.04> <Spt= 0.00> <nCl=  0> <DB=   83.0000> <Mlp=   83.0000> <PB=84> 
<DWph=1> <it=  2> <et=47.58> <Mt= 0.00> <Spt= 0.00> <nCl=  0> <DB=   83.0000> <Mlp=   83.0000> <PB=84> 
---- Diving heuristic node with dive number = 1, fix depth = 45 and tabu list size = 1
Fixed projected solution = [x_1_0_1_OspV=1, x_1_41_1_OspV=1, x_1_146_1_OspV=1, x_1_197_1_OspV=1]
<DWph=2> <it=  2> <et=47.81> <Mt= 0.07> <Spt= 0.15> <nCl= 14> <DB=   83.0010> <Mlp=   83.0009> <PB=84> 
<DWph=1> <it=  4> <et=47.90> <Mt= 0.00> <Spt= 0.08> <nCl= 69> <DB=   81.7281> <Mlp=   83.0000> <PB=84> 
---- Diving heuristic node with dive number = 1, fix depth = 46 and tabu list size = 1
Fixed projected solution = [x_1_0_1_OspV=1, x_1_77_1_OspV=1, x_1_156_1_OspV=1, x_1_178_1_OspV=1]
<DWph=2> <it=  1> <et=47.95> <Mt= 0.04> <Spt= 0.00> <nCl=  0> <DB=   83.0000> <Mlp=   83.0000> <PB=84> 
<DWph=1> <it=  2> <et=47.95> <Mt= 0.00> <Spt= 0.00> <nCl=  0> <DB=   83.0000> <Mlp=   83.0000> <PB=84> 
---- Diving heuristic node with dive number = 1, fix depth = 46 and tabu list size = 1
Fixed projected solution = [x_1_0_1_OspV=1, x_1_7_1_OspV=1, x_1_149_1_OspV=1, x_1_198_1_OspV=1]
<DWph=2> <it=  1> <et=47.96> <Mt= 0.00> <Spt= 0.00> <nCl=  0> <DB=   83.0000> <Mlp=   83.0000> <PB=84> 
<DWph=1> <it=  2> <et=47.96> <Mt= 0.00> <Spt= 0.00> <nCl=  0> <DB=   83.0000> <Mlp=   83.0000> <PB=84> 
---- Diving heuristic node with dive number = 1, fix depth = 46 and tabu list size = 1
Fixed projected solution = [x_1_0_1_OspV=1, x_1_26_1_OspV=1, x_1_148_1_OspV=1, x_1_196_1_OspV=1]
<DWph=2> <it=  1> <et=47.97> <Mt= 0.00> <Spt= 0.00> <nCl=  0> <DB=   83.0000> <Mlp=   83.0000> <PB=84> 
<DWph=1> <it=  2> <et=47.97> <Mt= 0.00> <Spt= 0.00> <nCl=  0> <DB=   83.0000> <Mlp=   83.0000> <PB=84> 
---- Diving heuristic node with dive number = 1, fix depth = 46 and tabu list size = 1
Fixed projected solution = [x_1_0_1_OspV=1, x_1_83_1_OspV=1, x_1_151_1_OspV=1, x_1_180_1_OspV=1]
<DWph=2> <it=  1> <et=47.98> <Mt= 0.00> <Spt= 0.00> <nCl=  0> <DB=   83.0000> <Mlp=   83.0000> <PB=84> 
<DWph=1> <it=  2> <et=47.98> <Mt= 0.00> <Spt= 0.00> <nCl=  0> <DB=   83.0000> <Mlp=   83.0000> <PB=84> 
---- Diving heuristic node with dive number = 1, fix depth = 46 and tabu list size = 1
Fixed projected solution = [x_1_0_1_OspV=1, x_1_56_1_OspV=1, x_1_114_1_OspV=1, x_1_215_1_OspV=1]
<DWph=2> <it=  1> <et=47.99> <Mt= 0.01> <Spt= 0.00> <nCl=  0> <DB=   83.0000> <Mlp=   83.0000> <PB=84> 
<DWph=1> <it=  2> <et=47.99> <Mt= 0.00> <Spt= 0.00> <nCl=  0> <DB=   83.0000> <Mlp=   83.0000> <PB=84> 
---- Diving heuristic node with dive number = 1, fix depth = 47 and tabu list size = 1
Fixed projected solution = [x_1_0_1_OspV=1, x_1_48_1_OspV=1, x_1_139_1_OspV=1, x_1_206_1_OspV=1]
<DWph=2> <it=  7> <et=48.99> <Mt= 0.21> <Spt= 0.78> <nCl=180> <DB=   83.0083> <Mlp=   83.0083> <PB=84> 
<DWph=1> <it= 10> <et=49.25> <Mt= 0.04> <Spt= 0.22> <nCl= 78> <DB=   81.3194> <Mlp=   83.0078> <PB=84> 
<DWph=1> <it= 13> <et=49.65> <Mt= 0.01> <Spt= 0.39> <nCl= 43> <DB=   83.0078> <Mlp=   83.0078> <PB=84> 
---- Diving heuristic node with dive number = 1, fix depth = 47 and tabu list size = 1
Fixed projected solution = [x_1_0_1_OspV=1, x_1_35_1_OspV=1, x_1_94_1_OspV=1, x_1_228_1_OspV=1]
<DWph=2> <it=  1> <et=49.82> <Mt= 0.00> <Spt= 0.15> <nCl=  0> <DB=   83.0078> <Mlp=   83.0078> <PB=84> 
<DWph=1> <it=  2> <et=49.97> <Mt= 0.00> <Spt= 0.15> <nCl=  0> <DB=   83.0078> <Mlp=   83.0078> <PB=84> 
---- Diving heuristic node with dive number = 1, fix depth = 47 and tabu list size = 1
Fixed projected solution = [x_1_0_1_OspV=1, x_1_47_1_OspV=1, x_1_111_1_OspV=1, x_1_219_1_OspV=1]
<DWph=2> <it=  1> <et=50.13> <Mt= 0.00> <Spt= 0.15> <nCl=  0> <DB=   83.0078> <Mlp=   83.0078> <PB=84> 
<DWph=1> <it=  2> <et=50.29> <Mt= 0.00> <Spt= 0.15> <nCl=  0> <DB=   83.0078> <Mlp=   83.0078> <PB=84> 
---- Diving heuristic node with dive number = 1, fix depth = 47 and tabu list size = 1
Fixed projected solution = [x_1_0_1_OspV=1, x_1_52_1_OspV=1, x_1_65_1_OspV=1, x_1_234_1_OspV=1]
<DWph=2> <it=  1> <et=50.45> <Mt= 0.01> <Spt= 0.14> <nCl=  0> <DB=   83.0078> <Mlp=   83.0078> <PB=84> 
<DWph=1> <it=  2> <et=50.60> <Mt= 0.00> <Spt= 0.16> <nCl=  0> <DB=   83.0078> <Mlp=   83.0078> <PB=84> 
---- Diving heuristic node with dive number = 1, fix depth = 48 and tabu list size = 1
Fixed projected solution = [x_1_0_1_OspV=1, x_1_95_1_OspV=1, x_1_152_1_OspV=1, x_1_171_1_OspV=1]
<DWph=2> <it= 10> <et=51.76> <Mt= 0.16> <Spt= 0.97> <nCl=227> <DB=   83.0091> <Mlp=   83.0091> <PB=84> 
<DWph=1> <it= 16> <et=52.32> <Mt= 0.02> <Spt= 0.54> <nCl=124> <DB=   83.0091> <Mlp=   83.0091> <PB=84> 
---- Diving heuristic node with dive number = 1, fix depth = 49 and tabu list size = 1
Fixed projected solution = [x_1_0_1_OspV=1, x_1_120_1_OspV=1, x_1_121_1_OspV=1, x_1_186_1_OspV=1]
<DWph=2> <it= 10> <et=53.30> <Mt= 0.07> <Spt= 0.89> <nCl= 99> <DB=   82.5550> <Mlp=   83.0125> <PB=84> 
<DWph=2> <it= 16> <et=54.07> <Mt= 0.01> <Spt= 0.75> <nCl= 24> <DB=   83.0125> <Mlp=   83.0125> <PB=84> 
<DWph=1> <it= 19> <et=54.39> <Mt= 0.02> <Spt= 0.31> <nCl= 87> <DB=   83.0111> <Mlp=   83.0111> <PB=84> 
---- Diving heuristic node with dive number = 1, fix depth = 50 and tabu list size = 1
Fixed projected solution = [x_1_0_1_OspV=1, x_1_92_1_OspV=1, x_1_119_1_OspV=1, x_1_201_1_OspV=1]
<DWph=2> <it=  8> <et=55.48> <Mt= 0.16> <Spt= 0.90> <nCl=284> <DB=   83.0167> <Mlp=   83.0167> <PB=84> 
<DWph=1> <it= 10> <et=55.63> <Mt= 0.01> <Spt= 0.15> <nCl= 11> <DB=   71.2167> <Mlp=   83.0167> <PB=84> 
<DWph=1> <it= 17> <et=56.26> <Mt= 0.02> <Spt= 0.60> <nCl= 44> <DB=   83.0167> <Mlp=   83.0167> <PB=84> 
---- Diving heuristic node with dive number = 1, fix depth = 51 and tabu list size = 1
Fixed projected solution = [x_1_0_1_OspV=1, x_1_30_1_OspV=1, x_1_67_1_OspV=1, x_1_238_1_OspV=1]
<DWph=2> <it=  1> <et=56.43> <Mt= 0.01> <Spt= 0.14> <nCl=  0> <DB=   83.0167> <Mlp=   83.0167> <PB=84> 
<DWph=1> <it=  2> <et=56.58> <Mt= 0.00> <Spt= 0.15> <nCl=  0> <DB=   83.0167> <Mlp=   83.0167> <PB=84> 
---- Diving heuristic node with dive number = 1, fix depth = 52 and tabu list size = 1
Fixed projected solution = [x_1_0_1_OspV=1, x_1_34_1_OspV=1, x_1_142_1_OspV=1, x_1_200_1_OspV=1]
<DWph=2> <it=  6> <et=57.52> <Mt= 0.09> <Spt= 0.65> <nCl=179> <DB=   83.0250> <Mlp=   83.0250> <PB=84> 
<DWph=1> <it=  7> <et=57.67> <Mt= 0.00> <Spt= 0.15> <nCl=  0> <DB=   83.0250> <Mlp=   83.0250> <PB=84> 
---- Diving heuristic node with dive number = 1, fix depth = 53 and tabu list size = 1
Fixed projected solution = [x_1_0_1_OspV=1, x_1_55_1_OspV=1, x_1_133_1_OspV=1, x_1_207_1_OspV=1]
<DWph=2> <it=  3> <et=58.06> <Mt= 0.02> <Spt= 0.35> <nCl=  4> <DB=   83.0312> <Mlp=   83.0312> <PB=84> 
<DWph=1> <it=  4> <et=58.21> <Mt= 0.01> <Spt= 0.14> <nCl=  0> <DB=   83.0312> <Mlp=   83.0312> <PB=84> 
---- Diving heuristic node with dive number = 1, fix depth = 54 and tabu list size = 1
Fixed projected solution = [x_1_0_1_OspV=1, x_1_73_1_OspV=1, x_1_168_1_OspV=1, x_1_169_1_OspV=1]
<DWph=2> <it= 10> <et=59.10> <Mt= 0.17> <Spt= 0.71> <nCl=289> <DB=   68.3759> <Mlp=   83.0625> <PB=84> 
<DWph=2> <it= 20> <et=60.02> <Mt= 0.05> <Spt= 0.86> <nCl= 70> <DB=   79.1035> <Mlp=   83.0625> <PB=84> 
Global time limit is reached during column generation
SEARCH IS INTERRUPTED as the time limit is reached. 
---- Diving heuristic node with dive number = 2, fix depth = 2 and tabu list size = 2
Fixed projected solution = [x_1_0_1_OspV=1, x_1_25_1_OspV=1, x_1_100_1_OspV=1, x_1_227_1_OspV=1]
---- Diving heuristic node with dive number = 3, fix depth = 2 and tabu list size = 3
Fixed projected solution = [x_1_0_1_OspV=1, x_1_21_1_OspV=1, x_1_88_1_OspV=1, x_1_230_1_OspV=1]
---- Diving heuristic node with dive number = 4, fix depth = 1 and tabu list size = 1
Fixed projected solution = [x_1_0_1_OspV=1, x_1_81_1_OspV=1, x_1_166_1_OspV=1, x_1_167_1_OspV=1]
---- Diving heuristic node with dive number = 5, fix depth = 1 and tabu list size = 2
Fixed projected solution = [x_1_0_1_OspV=1, x_1_4_1_OspV=1, x_1_31_1_OspV=1, x_1_246_1_OspV=1]
---- Diving heuristic node with dive number = 6, fix depth = 1 and tabu list size = 3
Fixed projected solution = [x_1_0_1_OspV=1, x_1_25_1_OspV=1, x_1_100_1_OspV=1, x_1_227_1_OspV=1]
**** Strong branching phase 1 is started *****
**** Strong branching phase 3 is started *****
New model incumbent solution 84, TIME = 0h1m0s90t = 6090
************************************************************************************************
Search is finished, global bounds : [ 83 , 84 ], TIME = 0h1m0s90t = 6090
************************************************************************************************
[32mBaPCod : solution defined.[00m
statistics_cols: instance & :Optimal & cutoff & :bcRecRootDb & :bcTimeRootEval & :bcCountNodeProc & :bcRecBestDb & :bcRecBestInc & :bcTimeMain \\
statistics: Falkenauer_t249_06 & 0 & 1.0e6 & 83.00 & 10.48 & 1 & 83.00 & 84 & 60.91 \\
########################################################
bin_id=1: 254(0) 370(1) 376(1) 
bin_id=2: 270(0) 364(1) 366(1) 
bin_id=3: 275(0) 362(1) 363(1) 
bin_id=4: 260(0) 356(1) 384(1) 
bin_id=5: 259(0) 352(1) 389(1) 
bin_id=6: 261(0) 346(1) 393(1) 
bin_id=7: 262(0) 342(1) 396(1) 
bin_id=8: 269(0) 336(1) 395(1) 
bin_id=9: 250(0) 335(1) 415(1) 
bin_id=10: 261(0) 332(1) 407(1) 
bin_id=11: 269(0) 317(1) 414(1) 
bin_id=12: 273(0) 313(1) 414(1) 
bin_id=13: 251(0) 306(1) 443(1) 
bin_id=14: 253(0) 294(1) 453(1) 
bin_id=15: 252(0) 291(1) 457(1) 
bin_id=16: 257(0) 290(1) 453(1) 
bin_id=17: 256(0) 284(1) 460(1) 
bin_id=18: 251(0) 282(1) 467(1) 
bin_id=19: 253(0) 282(1) 465(1) 
bin_id=20: 255(0) 266(1) 479(1) 
bin_id=21: 257(0) 265(1) 478(1) 
bin_id=22: 264(0) 297(1) 439(1) 
bin_id=23: 284(0) 293(1) 423(1) 
bin_id=24: 308(0) 309(1) 383(1) 
bin_id=25: 259(0) 366(1) 375(1) 
bin_id=26: 269(0) 351(1) 380(1) 
bin_id=27: 252(0) 256(1) 492(1) 
bin_id=28: 278(0) 308(1) 414(1) 
bin_id=29: 250(0) 282(1) 468(1) 
bin_id=30: 250(0) 257(1) 493(1) 
bin_id=31: 250(0) 256(1) 494(1) 
bin_id=32: 293(1) 295(0) 412(1) 
bin_id=33: 254(0) 264(1) 482(1) 
bin_id=34: 250(0) 303(1) 447(1) 
bin_id=35: 254(0) 298(1) 448(1) 
bin_id=36: 250(0) 255(1) 495(1) 
bin_id=37: 294(1) 300(0) 406(1) 
bin_id=38: 254(0) 289(1) 457(1) 
bin_id=39: 258(0) 302(1) 440(1) 
bin_id=40: 250(0) 271(1) 479(1) 
bin_id=41: 258(0) 300(1) 442(1) 
bin_id=42: 252(0) 335(1) 413(1) 
bin_id=43: 250(0) 289(1) 461(1) 
bin_id=44: 289(0) 318(1) 393(1) 
bin_id=45: 284(0) 316(1) 400(1) 
bin_id=46: 251(0) 252(1) 497(1) 
bin_id=47: 250(0) 251(1) 499(1) 
bin_id=48: 290(0) 316(1) 394(1) 
bin_id=49: 256(0) 300(1) 444(1) 
bin_id=50: 257(0) 277(1) 466(1) 
bin_id=51: 256(0) 352(1) 392(1) 
bin_id=52: 321(0) 339(1) 340(1) 
bin_id=53: 263(0) 310(1) 427(1) 
bin_id=54: 251(0) 255(1) 494(1) 
bin_id=55: 271(0) 357(1) 372(1) 
bin_id=56: 255(0) 266(1) 479(1) 
bin_id=57: 263(0) 284(1) 453(1) 
bin_id=58: 280(0) 325(1) 395(1) 
bin_id=59: 254(0) 255(1) 491(1) 
bin_id=60: 313(0) 341(1) 346(1) 
bin_id=61: 278(0) 351(1) 371(1) 
bin_id=62: 257(0) 263(1) 480(1) 
bin_id=63: 285(1) 305(0) 410(1) 
bin_id=64: 283(0) 289(1) 428(1) 
bin_id=65: 251(0) 253(1) 496(1) 
bin_id=66: 314(0) 332(1) 354(1) 
bin_id=67: 300(0) 331(1) 369(1) 
bin_id=68: 264(0) 321(1) 415(1) 
bin_id=69: 259(0) 266(1) 475(1) 
bin_id=70: 263(0) 289(1) 448(1) 
bin_id=71: 278(0) 314(1) 408(1) 
bin_id=72: 258(0) 313(1) 429(1) 
bin_id=73: 270(0) 298(1) 432(1) 
bin_id=74: 274(0) 352(1) 374(1) 
bin_id=75: 268(0) 352(1) 380(1) 
bin_id=76: 259(0) 321(1) 420(1) 
bin_id=77: 253(0) 295(1) 452(1) 
bin_id=78: 274(0) 357(1) 369(1) 
bin_id=79: 264(0) 350(1) 386(1) 
bin_id=80: 262(0) 350(1) 387(1) 
bin_id=81: 285(0) 310(1) 403(1) 
bin_id=82: 256(0) 312(1) 432(1) 
bin_id=83: 436(1) 
bin_id=84: 274(1) 293(0) 
Objective value: 84.0
########################################################
