Application parameters:
  batch  =>  nothing
  instance  =>  "/IN/Falkenauer_t120_09.txt-Q2Half"
  ub  =>  1.0e6
  cfg  =>  "/CFG/BPP.cfg"
data = Colored Bin Packing dataset.
number of items = 120
number of colors = 2
capacity = 1000
Items : 
	 item 1, weight= 250, color= 0
	 item 2, weight= 250, color= 0
	 item 3, weight= 250, color= 0
	 item 4, weight= 250, color= 0
	 item 5, weight= 250, color= 0
	 item 6, weight= 250, color= 0
	 item 7, weight= 251, color= 0
	 item 8, weight= 251, color= 0
	 item 9, weight= 251, color= 1
	 item 10, weight= 251, color= 1
	 item 11, weight= 252, color= 0
	 item 12, weight= 252, color= 0
	 item 13, weight= 252, color= 0
	 item 14, weight= 252, color= 1
	 item 15, weight= 253, color= 1
	 item 16, weight= 254, color= 0
	 item 17, weight= 256, color= 0
	 item 18, weight= 256, color= 1
	 item 19, weight= 259, color= 0
	 item 20, weight= 259, color= 0
	 item 21, weight= 261, color= 1
	 item 22, weight= 262, color= 0
	 item 23, weight= 262, color= 1
	 item 24, weight= 262, color= 1
	 item 25, weight= 263, color= 0
	 item 26, weight= 269, color= 0
	 item 27, weight= 269, color= 0
	 item 28, weight= 270, color= 0
	 item 29, weight= 270, color= 0
	 item 30, weight= 271, color= 1
	 item 31, weight= 272, color= 1
	 item 32, weight= 274, color= 0
	 item 33, weight= 275, color= 0
	 item 34, weight= 276, color= 0
	 item 35, weight= 276, color= 0
	 item 36, weight= 276, color= 0
	 item 37, weight= 277, color= 0
	 item 38, weight= 278, color= 0
	 item 39, weight= 280, color= 0
	 item 40, weight= 281, color= 0
	 item 41, weight= 281, color= 0
	 item 42, weight= 282, color= 0
	 item 43, weight= 284, color= 0
	 item 44, weight= 284, color= 1
	 item 45, weight= 285, color= 0
	 item 46, weight= 288, color= 0
	 item 47, weight= 288, color= 1
	 item 48, weight= 289, color= 0
	 item 49, weight= 292, color= 0
	 item 50, weight= 292, color= 1
	 item 51, weight= 293, color= 1
	 item 52, weight= 295, color= 0
	 item 53, weight= 296, color= 1
	 item 54, weight= 297, color= 0
	 item 55, weight= 300, color= 1
	 item 56, weight= 304, color= 0
	 item 57, weight= 304, color= 1
	 item 58, weight= 305, color= 1
	 item 59, weight= 314, color= 1
	 item 60, weight= 314, color= 1
	 item 61, weight= 323, color= 1
	 item 62, weight= 324, color= 1
	 item 63, weight= 326, color= 1
	 item 64, weight= 327, color= 1
	 item 65, weight= 329, color= 1
	 item 66, weight= 330, color= 1
	 item 67, weight= 336, color= 1
	 item 68, weight= 336, color= 1
	 item 69, weight= 338, color= 1
	 item 70, weight= 340, color= 1
	 item 71, weight= 344, color= 1
	 item 72, weight= 344, color= 1
	 item 73, weight= 345, color= 1
	 item 74, weight= 346, color= 1
	 item 75, weight= 347, color= 1
	 item 76, weight= 352, color= 1
	 item 77, weight= 353, color= 1
	 item 78, weight= 356, color= 1
	 item 79, weight= 356, color= 1
	 item 80, weight= 357, color= 1
	 item 81, weight= 361, color= 1
	 item 82, weight= 362, color= 1
	 item 83, weight= 362, color= 1
	 item 84, weight= 364, color= 1
	 item 85, weight= 366, color= 1
	 item 86, weight= 368, color= 1
	 item 87, weight= 370, color= 1
	 item 88, weight= 375, color= 1
	 item 89, weight= 382, color= 1
	 item 90, weight= 386, color= 1
	 item 91, weight= 387, color= 1
	 item 92, weight= 387, color= 1
	 item 93, weight= 391, color= 1
	 item 94, weight= 394, color= 1
	 item 95, weight= 394, color= 1
	 item 96, weight= 395, color= 1
	 item 97, weight= 397, color= 1
	 item 98, weight= 400, color= 1
	 item 99, weight= 408, color= 1
	 item 100, weight= 408, color= 1
	 item 101, weight= 410, color= 1
	 item 102, weight= 414, color= 1
	 item 103, weight= 419, color= 1
	 item 104, weight= 427, color= 1
	 item 105, weight= 428, color= 1
	 item 106, weight= 430, color= 1
	 item 107, weight= 432, color= 1
	 item 108, weight= 434, color= 1
	 item 109, weight= 434, color= 1
	 item 110, weight= 462, color= 1
	 item 111, weight= 478, color= 1
	 item 112, weight= 478, color= 1
	 item 113, weight= 480, color= 1
	 item 114, weight= 482, color= 1
	 item 115, weight= 486, color= 1
	 item 116, weight= 490, color= 1
	 item 117, weight= 495, color= 1
	 item 118, weight= 498, color= 1
	 item 119, weight= 498, color= 1
	 item 120, weight= 499, color= 1

VRPSolver warning: Interval set for resource 1 on source node (when source != sink) is ignored (by definition is [0.0,0.0])
VRPSolver warning: Interval set for resource 2 on source node (when source != sink) is ignored (by definition is [0.0,0.0])
VRPSolver warning: Interval set for resource 3 on source node (when source != sink) is ignored (by definition is [0.0,0.0])
[41m solve [00m
~~~~~~~~~~~~~~~~~~~~~~~~~~~~~~~~~~~~~~~~~~~~~~~~~~~~~~~~~~~~~~~~~~~~~~~~~~~~~~
VRPSolver v0.4.1, 24/03/2021. Web: vrpsolver.math.u-bordeaux.fr
Corresponds to the solver by Pessoa, Sadykov, Uchoa and Vanderbeck (2020)
Paper: dx.doi.org/10.1007/s10107-020-01523-z
USE THIS CODE ONLY FOR ACADEMIC PURPOSES AT YOUR OWN RISK
~~~~~~~~~~~~~~~~~~~~~~~~~~~~~~~~~~~~~~~~~~~~~~~~~~~~~~~~~~~~~~~~~~~~~~~~~~~~~~
BaPCod v053, 24/03/2021, © Inria Bordeaux, France
~~~~~~~~~~~~~~~~~~~~~~~~~~~~~~~~~~~~~~~~~~~~~~~~~~~~~~~~~~~~~~~~~~~~~~~~~~~~~~
VRPSolver parameters:
GlobalTimeLimit = 60
MaxNbOfBBtreeNodeTreated = 100000
treeSearchStrategy = 1
RCSPstopCutGenTimeThresholdInPricing = 10
RCSPhardTimeThresholdInPricing = 20
RCSPnumberOfBucketsPerVertex = 2000
RCSPdynamicBucketSteps = 0
RCSPuseBidirectionalSearch = 1
RCSPapplyReducedCostFixing = 1
RCSPredCostFixingFalseGap = 0
RCSPmaxNumOfColsPerIteration = 100
RCSPmaxNumOfColsPerExactIteration = 100
RCSPheurLabelingStrategy = 4
StabilizationMinPhaseOfStage = 1
RCSPmaxNumOfLabelsInEnumeration = 100000
RCSPmaxNumOfEnumeratedSolutions = 1000000
RCSPmaxNumOfEnumSolutionsForMIP = 100000
RCSPinitNGneighbourhoodSize = 0
RCSPmaxNGneighbourhoodSize = 0
RCSPrankOneCutsMaxNumPerRound = 100
RCSPrankOneCutsMaxNumRows = -1
RCSPrankOneCutsMemoryType = 2
CutTailingOffThreshold = 0.02
CutTailingOffCounterThreshold = 3
SafeDualBoundScaleFactor = -1
StrongBranchingPhaseOneCandidatesNumber = 100
StrongBranchingPhaseOneTreeSizeEstimRatio = 0.3
StrongBranchingPhaseTwoCandidatesNumber = 1
StrongBranchingPhaseTwoTreeSizeEstimRatio = 0.1
MaxTimeForRestrictedMasterIpHeur = -1
DivingHeurUseDepthLimit = 0
MaxLDSbreadth = 3
MaxLDSdepth = 2
New model incumbent solution 1e+06, TIME = 0h0m0s3t = 3
Model is built TIME = 0h0m1s36t = 136
************************************************************************************************
**** BaB tree root node
**** Local DB = -1e+12, global bounds : [ -1e+12 , 1e+06 ], TIME = 0h0m1s36t = 136
**** 1 open nodes, 0 columns (0 active), 0 dyn. constrs. (0 active), 242 art. vars. (242 active)
************************************************************************************************
<DWph=2> <it= 10> <et=1.65> <Mt= 0.00> <Spt= 0.27> <nCl=1000> <DB=-306828510.1478> <Mlp=46800029.0000> <PB=1000000> 
<DWph=2> <it= 20> <et=1.98> <Mt= 0.03> <Spt= 0.31> <nCl=681> <DB=   16.8021> <Mlp=   41.2991> <PB=1000000> 
<DWph=2> <it= 21> <et=2.04> <Mt= 0.00> <Spt= 0.06> <nCl=  0> <DB=   41.0000> <Mlp=   41.0000> <PB=1000000> 
<DWph=1> <it= 30> <et=2.31> <Mt= 0.02> <Spt= 0.25> <nCl=668> <DB=   24.5926> <Mlp=   40.2500> <PB=1000000> 
<DWph=1> <it= 37> <et=2.58> <Mt= 0.02> <Spt= 0.25> <nCl=299> <DB=   40.0000> <Mlp=   40.0000> <PB=1000000> 
<DWph=0> <it= 38> <et=2.61> <Mt= 0.00> <Spt= 0.03> <nCl=  0> <DB=   40.0000> <Mlp=   40.0000> <PB=1000000> 
Reduced cost fixing for graph G_1... took 0.43 sec., 58391 buck. arcs remain (100% from prev., 36.2% from max.)
Run enumeration... took 1.3 sec. and succeeded! Pricing will be done by inspection.
<DWph=2> <it= 39> <et=4.58> <Mt= 0.06> <Spt= 0.00> <nCl=  0> <DB=   40.0000> <Mlp=   40.0000> <PB=1000000> 
<DWph=1> <it= 40> <et=4.58> <Mt= 0.00> <Spt= 0.00> <nCl=  0> <DB=   40.0000> <Mlp=   40.0000> <PB=1000000> 
<DWph=0> <it= 41> <et=4.59> <Mt= 0.00> <Spt= 0.00> <nCl=  0> <DB=   40.0000> <Mlp=   40.0000> <PB=1000000> 
ColGenEvalAlg final dual bound: 40 (rounded: 40)
----------- Diving heuristic started -----------
<DWph=2> <it=  1> <et=4.71> <Mt= 0.00> <Spt= 0.00> <nCl=  0> <DB=   40.0000> <Mlp=   40.0000> <PB=1000000> 
<DWph=1> <it=  2> <et=4.71> <Mt= 0.00> <Spt= 0.00> <nCl=  0> <DB=   40.0000> <Mlp=   40.0000> <PB=1000000> 
<DWph=0> <it=  3> <et=4.71> <Mt= 0.00> <Spt= 0.00> <nCl=  0> <DB=   40.0000> <Mlp=   40.0000> <PB=1000000> 
ColGenEvalAlg final dual bound: 40 (rounded: 40)
---- Diving heuristic node with dive number = 0, fix depth = 0 and tabu list size = 0
Fixed projected solution = [x_1_0_1_OspV=1, x_1_17_1_OspV=1, x_1_23_1_OspV=1, x_1_114_1_OspV=1]
<DWph=2> <it=  1> <et=4.87> <Mt= 0.01> <Spt= 0.00> <nCl=  0> <DB=   40.0000> <Mlp=   40.0000> <PB=1000000> 
<DWph=1> <it=  2> <et=4.87> <Mt= 0.00> <Spt= 0.00> <nCl=  0> <DB=   40.0000> <Mlp=   40.0000> <PB=1000000> 
<DWph=0> <it=  3> <et=4.87> <Mt= 0.00> <Spt= 0.00> <nCl=  0> <DB=   40.0000> <Mlp=   40.0000> <PB=1000000> 
ColGenEvalAlg final dual bound: 40 (rounded: 40)
---- Diving heuristic node with dive number = 0, fix depth = 0 and tabu list size = 0
Fixed projected solution = [x_1_0_1_OspV=1, x_1_8_1_OspV=1, x_1_9_1_OspV=1, x_1_119_1_OspV=1]
<DWph=2> <it=  1> <et=4.97> <Mt= 0.00> <Spt= 0.00> <nCl=  0> <DB=   40.0000> <Mlp=   40.0000> <PB=1000000> 
<DWph=1> <it=  2> <et=4.98> <Mt= 0.00> <Spt= 0.00> <nCl=  0> <DB=   40.0000> <Mlp=   40.0000> <PB=1000000> 
<DWph=0> <it=  3> <et=4.98> <Mt= 0.00> <Spt= 0.00> <nCl=  0> <DB=   40.0000> <Mlp=   40.0000> <PB=1000000> 
ColGenEvalAlg final dual bound: 40 (rounded: 40)
---- Diving heuristic node with dive number = 0, fix depth = 0 and tabu list size = 0
Fixed projected solution = [x_1_0_1_OspV=1, x_1_7_1_OspV=1, x_1_30_1_OspV=1, x_1_111_1_OspV=1]
<DWph=2> <it=  1> <et=5.07> <Mt= 0.00> <Spt= 0.00> <nCl=  0> <DB=   40.0000> <Mlp=   40.0000> <PB=1000000> 
<DWph=1> <it=  2> <et=5.07> <Mt= 0.00> <Spt= 0.00> <nCl=  0> <DB=   40.0000> <Mlp=   40.0000> <PB=1000000> 
<DWph=0> <it=  3> <et=5.07> <Mt= 0.00> <Spt= 0.00> <nCl=  0> <DB=   40.0000> <Mlp=   40.0000> <PB=1000000> 
ColGenEvalAlg final dual bound: 40 (rounded: 40)
---- Diving heuristic node with dive number = 0, fix depth = 0 and tabu list size = 0
Fixed projected solution = [x_1_0_1_OspV=1, x_1_22_1_OspV=1, x_1_57_1_OspV=1, x_1_108_1_OspV=1]
<DWph=2> <it=  1> <et=5.17> <Mt= 0.00> <Spt= 0.00> <nCl=  0> <DB=   40.0000> <Mlp=   40.0000> <PB=1000000> 
<DWph=1> <it=  2> <et=5.17> <Mt= 0.00> <Spt= 0.00> <nCl=  0> <DB=   40.0000> <Mlp=   40.0000> <PB=1000000> 
<DWph=0> <it=  3> <et=5.17> <Mt= 0.00> <Spt= 0.00> <nCl=  0> <DB=   40.0000> <Mlp=   40.0000> <PB=1000000> 
ColGenEvalAlg final dual bound: 40 (rounded: 40)
---- Diving heuristic node with dive number = 0, fix depth = 0 and tabu list size = 0
Fixed projected solution = [x_1_0_1_OspV=1, x_1_12_1_OspV=1, x_1_15_1_OspV=1, x_1_117_1_OspV=1]
<DWph=2> <it=  1> <et=5.27> <Mt= 0.00> <Spt= 0.00> <nCl=  0> <DB=   40.0000> <Mlp=   40.0000> <PB=1000000> 
<DWph=1> <it=  2> <et=5.27> <Mt= 0.01> <Spt= 0.00> <nCl=  0> <DB=   40.0000> <Mlp=   40.0000> <PB=1000000> 
<DWph=0> <it=  3> <et=5.27> <Mt= 0.00> <Spt= 0.00> <nCl=  0> <DB=   40.0000> <Mlp=   40.0000> <PB=1000000> 
ColGenEvalAlg final dual bound: 40 (rounded: 40)
---- Diving heuristic node with dive number = 0, fix depth = 0 and tabu list size = 0
Fixed projected solution = [x_1_0_1_OspV=1, x_1_20_1_OspV=1, x_1_21_1_OspV=1, x_1_113_1_OspV=1]
<DWph=2> <it=  1> <et=5.37> <Mt= 0.00> <Spt= 0.00> <nCl=  0> <DB=   40.0000> <Mlp=   40.0000> <PB=1000000> 
<DWph=1> <it=  2> <et=5.37> <Mt= 0.00> <Spt= 0.00> <nCl=  0> <DB=   40.0000> <Mlp=   40.0000> <PB=1000000> 
<DWph=0> <it=  3> <et=5.37> <Mt= 0.00> <Spt= 0.00> <nCl=  0> <DB=   40.0000> <Mlp=   40.0000> <PB=1000000> 
ColGenEvalAlg final dual bound: 40 (rounded: 40)
---- Diving heuristic node with dive number = 0, fix depth = 0 and tabu list size = 0
Fixed projected solution = [x_1_0_1_OspV=1, x_1_16_1_OspV=1, x_1_18_1_OspV=1, x_1_116_1_OspV=1]
<DWph=2> <it=  1> <et=5.47> <Mt= 0.00> <Spt= 0.00> <nCl=  0> <DB=   40.0000> <Mlp=   40.0000> <PB=1000000> 
<DWph=1> <it=  2> <et=5.47> <Mt= 0.00> <Spt= 0.00> <nCl=  0> <DB=   40.0000> <Mlp=   40.0000> <PB=1000000> 
<DWph=0> <it=  3> <et=5.47> <Mt= 0.00> <Spt= 0.00> <nCl=  0> <DB=   40.0000> <Mlp=   40.0000> <PB=1000000> 
ColGenEvalAlg final dual bound: 40 (rounded: 40)
---- Diving heuristic node with dive number = 0, fix depth = 0 and tabu list size = 0
Fixed projected solution = [x_1_0_1_OspV=1, x_1_1_1_OspV=1, x_1_10_1_OspV=1, x_1_120_1_OspV=1]
<DWph=2> <it=  1> <et=5.57> <Mt= 0.00> <Spt= 0.00> <nCl=  0> <DB=   40.0000> <Mlp=   40.0000> <PB=1000000> 
<DWph=1> <it=  2> <et=5.57> <Mt= 0.00> <Spt= 0.00> <nCl=  0> <DB=   40.0000> <Mlp=   40.0000> <PB=1000000> 
<DWph=0> <it=  3> <et=5.57> <Mt= 0.00> <Spt= 0.00> <nCl=  0> <DB=   40.0000> <Mlp=   40.0000> <PB=1000000> 
ColGenEvalAlg final dual bound: 40 (rounded: 40)
---- Diving heuristic node with dive number = 0, fix depth = 0 and tabu list size = 0
Fixed projected solution = [x_1_0_1_OspV=1, x_1_11_1_OspV=1, x_1_24_1_OspV=1, x_1_115_1_OspV=1]
<DWph=2> <it=  1> <et=5.67> <Mt= 0.00> <Spt= 0.00> <nCl=  0> <DB=   40.0000> <Mlp=   40.0000> <PB=1000000> 
<DWph=1> <it=  2> <et=5.67> <Mt= 0.00> <Spt= 0.00> <nCl=  0> <DB=   40.0000> <Mlp=   40.0000> <PB=1000000> 
<DWph=0> <it=  3> <et=5.67> <Mt= 0.00> <Spt= 0.00> <nCl=  0> <DB=   40.0000> <Mlp=   40.0000> <PB=1000000> 
ColGenEvalAlg final dual bound: 40 (rounded: 40)
---- Diving heuristic node with dive number = 0, fix depth = 1 and tabu list size = 0
Fixed projected solution = [x_1_0_1_OspV=1, x_1_49_1_OspV=1, x_1_55_1_OspV=1, x_1_99_1_OspV=1]
<DWph=2> <it=  1> <et=5.75> <Mt= 0.01> <Spt= 0.00> <nCl=  0> <DB=   40.0000> <Mlp=   40.0000> <PB=1000000> 
<DWph=1> <it=  2> <et=5.75> <Mt= 0.00> <Spt= 0.00> <nCl=  0> <DB=   40.0000> <Mlp=   40.0000> <PB=1000000> 
<DWph=0> <it=  3> <et=5.75> <Mt= 0.00> <Spt= 0.00> <nCl=  0> <DB=   40.0000> <Mlp=   40.0000> <PB=1000000> 
ColGenEvalAlg final dual bound: 40 (rounded: 40)
---- Diving heuristic node with dive number = 0, fix depth = 1 and tabu list size = 0
Fixed projected solution = [x_1_0_1_OspV=1, x_1_4_1_OspV=1, x_1_47_1_OspV=1, x_1_110_1_OspV=1]
<DWph=2> <it=  1> <et=5.91> <Mt= 0.00> <Spt= 0.00> <nCl=  0> <DB=   40.0000> <Mlp=   40.0000> <PB=1000000> 
<DWph=1> <it=  2> <et=5.91> <Mt= 0.00> <Spt= 0.00> <nCl=  0> <DB=   40.0000> <Mlp=   40.0000> <PB=1000000> 
<DWph=0> <it=  3> <et=5.91> <Mt= 0.00> <Spt= 0.00> <nCl=  0> <DB=   40.0000> <Mlp=   40.0000> <PB=1000000> 
ColGenEvalAlg final dual bound: 40 (rounded: 40)
---- Diving heuristic node with dive number = 0, fix depth = 2 and tabu list size = 0
Fixed projected solution = [x_1_0_1_OspV=1, x_1_40_1_OspV=1, x_1_77_1_OspV=1, x_1_85_1_OspV=1]
<DWph=2> <it=  1> <et=5.99> <Mt= 0.01> <Spt= 0.00> <nCl=  0> <DB=   40.0000> <Mlp=   40.0000> <PB=1000000> 
<DWph=1> <it=  2> <et=6.00> <Mt= 0.00> <Spt= 0.00> <nCl=  0> <DB=   40.0000> <Mlp=   40.0000> <PB=1000000> 
<DWph=0> <it=  3> <et=6.00> <Mt= 0.01> <Spt= 0.00> <nCl=  0> <DB=   40.0000> <Mlp=   40.0000> <PB=1000000> 
ColGenEvalAlg final dual bound: 40 (rounded: 40)
---- Diving heuristic node with dive number = 0, fix depth = 2 and tabu list size = 0
Fixed projected solution = [x_1_0_1_OspV=1, x_1_6_1_OspV=1, x_1_14_1_OspV=1, x_1_118_1_OspV=1]
<DWph=2> <it=  1> <et=6.00> <Mt= 0.00> <Spt= 0.00> <nCl=  0> <DB=   40.0000> <Mlp=   40.0000> <PB=1000000> 
<DWph=1> <it=  2> <et=6.00> <Mt= 0.00> <Spt= 0.00> <nCl=  0> <DB=   40.0000> <Mlp=   40.0000> <PB=1000000> 
<DWph=0> <it=  3> <et=6.00> <Mt= 0.00> <Spt= 0.00> <nCl=  0> <DB=   40.0000> <Mlp=   40.0000> <PB=1000000> 
ColGenEvalAlg final dual bound: 40 (rounded: 40)
---- Diving heuristic node with dive number = 0, fix depth = 3 and tabu list size = 0
Fixed projected solution = [x_1_0_1_OspV=1, x_1_35_1_OspV=1, x_1_82_1_OspV=1, x_1_83_1_OspV=1]
<DWph=2> <it=  1> <et=6.01> <Mt= 0.00> <Spt= 0.00> <nCl=  0> <DB=   40.0000> <Mlp=   40.0000> <PB=1000000> 
<DWph=1> <it=  2> <et=6.01> <Mt= 0.00> <Spt= 0.00> <nCl=  0> <DB=   40.0000> <Mlp=   40.0000> <PB=1000000> 
<DWph=0> <it=  3> <et=6.01> <Mt= 0.00> <Spt= 0.00> <nCl=  0> <DB=   40.0000> <Mlp=   40.0000> <PB=1000000> 
ColGenEvalAlg final dual bound: 40 (rounded: 40)
---- Diving heuristic node with dive number = 0, fix depth = 4 and tabu list size = 0
Fixed projected solution = [x_1_0_1_OspV=1, x_1_2_1_OspV=1, x_1_31_1_OspV=1, x_1_112_1_OspV=1]
<DWph=2> <it=  1> <et=6.01> <Mt= 0.01> <Spt= 0.00> <nCl=  0> <DB=   40.0000> <Mlp=   40.0000> <PB=1000000> 
<DWph=1> <it=  2> <et=6.01> <Mt= 0.00> <Spt= 0.00> <nCl=  0> <DB=   40.0000> <Mlp=   40.0000> <PB=1000000> 
<DWph=0> <it=  3> <et=6.02> <Mt= 0.00> <Spt= 0.00> <nCl=  0> <DB=   40.0000> <Mlp=   40.0000> <PB=1000000> 
ColGenEvalAlg final dual bound: 40 (rounded: 40)
---- Diving heuristic node with dive number = 0, fix depth = 5 and tabu list size = 0
Fixed projected solution = [x_1_0_1_OspV=1, x_1_36_1_OspV=1, x_1_79_1_OspV=1, x_1_86_1_OspV=1]
<DWph=2> <it=  1> <et=6.02> <Mt= 0.00> <Spt= 0.00> <nCl=  0> <DB=   40.0000> <Mlp=   40.0000> <PB=1000000> 
<DWph=1> <it=  2> <et=6.02> <Mt= 0.00> <Spt= 0.00> <nCl=  0> <DB=   40.0000> <Mlp=   40.0000> <PB=1000000> 
<DWph=0> <it=  3> <et=6.02> <Mt= 0.00> <Spt= 0.00> <nCl=  0> <DB=   40.0000> <Mlp=   40.0000> <PB=1000000> 
ColGenEvalAlg final dual bound: 40 (rounded: 40)
---- Diving heuristic node with dive number = 0, fix depth = 6 and tabu list size = 0
Fixed projected solution = [x_1_0_1_OspV=1, x_1_42_1_OspV=1, x_1_80_1_OspV=1, x_1_81_1_OspV=1]
<DWph=2> <it=  1> <et=6.03> <Mt= 0.01> <Spt= 0.00> <nCl=  0> <DB=   40.0000> <Mlp=   40.0000> <PB=1000000> 
<DWph=1> <it=  2> <et=6.03> <Mt= 0.00> <Spt= 0.00> <nCl=  0> <DB=   40.0000> <Mlp=   40.0000> <PB=1000000> 
<DWph=0> <it=  3> <et=6.03> <Mt= 0.00> <Spt= 0.00> <nCl=  0> <DB=   40.0000> <Mlp=   40.0000> <PB=1000000> 
ColGenEvalAlg final dual bound: 40 (rounded: 40)
---- Diving heuristic node with dive number = 0, fix depth = 7 and tabu list size = 0
Fixed projected solution = [x_1_0_1_OspV=1, x_1_48_1_OspV=1, x_1_75_1_OspV=1, x_1_84_1_OspV=1]
<DWph=2> <it=  1> <et=6.04> <Mt= 0.00> <Spt= 0.00> <nCl=  0> <DB=   40.0000> <Mlp=   40.0000> <PB=1000000> 
<DWph=1> <it=  2> <et=6.04> <Mt= 0.00> <Spt= 0.00> <nCl=  0> <DB=   40.0000> <Mlp=   40.0000> <PB=1000000> 
<DWph=0> <it=  3> <et=6.04> <Mt= 0.00> <Spt= 0.00> <nCl=  0> <DB=   40.0000> <Mlp=   40.0000> <PB=1000000> 
ColGenEvalAlg final dual bound: 40 (rounded: 40)
---- Diving heuristic node with dive number = 0, fix depth = 8 and tabu list size = 0
Fixed projected solution = [x_1_0_1_OspV=1, x_1_5_1_OspV=1, x_1_78_1_OspV=1, x_1_94_1_OspV=1]
<DWph=2> <it=  1> <et=6.06> <Mt= 0.02> <Spt= 0.00> <nCl=  0> <DB=   40.0000> <Mlp=   40.0000> <PB=1000000> 
<DWph=1> <it=  2> <et=6.06> <Mt= 0.00> <Spt= 0.00> <nCl=  0> <DB=   40.0000> <Mlp=   40.0000> <PB=1000000> 
<DWph=0> <it=  3> <et=6.06> <Mt= 0.00> <Spt= 0.00> <nCl=  0> <DB=   40.0000> <Mlp=   40.0000> <PB=1000000> 
ColGenEvalAlg final dual bound: 40 (rounded: 40)
---- Diving heuristic node with dive number = 0, fix depth = 8 and tabu list size = 0
Fixed projected solution = [x_1_0_1_OspV=1, x_1_33_1_OspV=1, x_1_69_1_OspV=1, x_1_92_1_OspV=1]
<DWph=2> <it=  1> <et=6.06> <Mt= 0.00> <Spt= 0.00> <nCl=  0> <DB=   40.0000> <Mlp=   40.0000> <PB=1000000> 
<DWph=1> <it=  2> <et=6.06> <Mt= 0.00> <Spt= 0.00> <nCl=  0> <DB=   40.0000> <Mlp=   40.0000> <PB=1000000> 
<DWph=0> <it=  3> <et=6.06> <Mt= 0.00> <Spt= 0.00> <nCl=  0> <DB=   40.0000> <Mlp=   40.0000> <PB=1000000> 
ColGenEvalAlg final dual bound: 40 (rounded: 40)
---- Diving heuristic node with dive number = 0, fix depth = 8 and tabu list size = 0
Fixed projected solution = [x_1_0_1_OspV=1, x_1_56_1_OspV=1, x_1_71_1_OspV=1, x_1_76_1_OspV=1]
<DWph=2> <it=  1> <et=6.06> <Mt= 0.00> <Spt= 0.00> <nCl=  0> <DB=   40.0000> <Mlp=   40.0000> <PB=1000000> 
<DWph=1> <it=  2> <et=6.06> <Mt= 0.00> <Spt= 0.00> <nCl=  0> <DB=   40.0000> <Mlp=   40.0000> <PB=1000000> 
<DWph=0> <it=  3> <et=6.06> <Mt= 0.00> <Spt= 0.00> <nCl=  0> <DB=   40.0000> <Mlp=   40.0000> <PB=1000000> 
ColGenEvalAlg final dual bound: 40 (rounded: 40)
---- Diving heuristic node with dive number = 0, fix depth = 9 and tabu list size = 0
Fixed projected solution = [x_1_0_1_OspV=1, x_1_27_1_OspV=1, x_1_72_1_OspV=1, x_1_91_1_OspV=1]
<DWph=2> <it=  1> <et=6.09> <Mt= 0.02> <Spt= 0.00> <nCl=  0> <DB=   40.0137> <Mlp=   40.0137> <PB=1000000> 
<DWph=1> <it=  2> <et=6.09> <Mt= 0.00> <Spt= 0.00> <nCl=  0> <DB=   40.0137> <Mlp=   40.0137> <PB=1000000> 
<DWph=0> <it=  8> <et=6.28> <Mt= 0.01> <Spt= 0.19> <nCl=440> <DB=   40.0000> <Mlp=   40.0000> <PB=1000000> 
ColGenEvalAlg final dual bound: 40 (rounded: 40)
---- Diving heuristic node with dive number = 0, fix depth = 9 and tabu list size = 0
Fixed projected solution = [x_1_0_1_OspV=1, x_1_43_1_OspV=1, x_1_74_1_OspV=1, x_1_87_1_OspV=1]
<DWph=2> <it=  1> <et=6.29> <Mt= 0.00> <Spt= 0.00> <nCl=  0> <DB=   40.0000> <Mlp=   40.0000> <PB=1000000> 
<DWph=1> <it=  2> <et=6.29> <Mt= 0.00> <Spt= 0.00> <nCl=  0> <DB=   40.0000> <Mlp=   40.0000> <PB=1000000> 
<DWph=0> <it=  3> <et=6.29> <Mt= 0.00> <Spt= 0.00> <nCl=  0> <DB=   40.0000> <Mlp=   40.0000> <PB=1000000> 
ColGenEvalAlg final dual bound: 40 (rounded: 40)
---- Diving heuristic node with dive number = 0, fix depth = 9 and tabu list size = 0
Fixed projected solution = [x_1_0_1_OspV=1, x_1_29_1_OspV=1, x_1_67_1_OspV=1, x_1_95_1_OspV=1]
<DWph=2> <it=  1> <et=6.29> <Mt= 0.00> <Spt= 0.00> <nCl=  0> <DB=   40.0000> <Mlp=   40.0000> <PB=1000000> 
<DWph=1> <it=  2> <et=6.29> <Mt= 0.00> <Spt= 0.00> <nCl=  0> <DB=   40.0000> <Mlp=   40.0000> <PB=1000000> 
<DWph=0> <it=  3> <et=6.29> <Mt= 0.00> <Spt= 0.00> <nCl=  0> <DB=   40.0000> <Mlp=   40.0000> <PB=1000000> 
ColGenEvalAlg final dual bound: 40 (rounded: 40)
---- Diving heuristic node with dive number = 0, fix depth = 10 and tabu list size = 0
Fixed projected solution = [x_1_0_1_OspV=1, x_1_25_1_OspV=1, x_1_58_1_OspV=1, x_1_107_1_OspV=1]
<DWph=2> <it=  1> <et=6.30> <Mt= 0.01> <Spt= 0.00> <nCl=  0> <DB=   40.0000> <Mlp=   40.0000> <PB=1000000> 
<DWph=1> <it=  2> <et=6.30> <Mt= 0.00> <Spt= 0.00> <nCl=  0> <DB=   40.0000> <Mlp=   40.0000> <PB=1000000> 
<DWph=0> <it=  3> <et=6.30> <Mt= 0.00> <Spt= 0.00> <nCl=  0> <DB=   40.0000> <Mlp=   40.0000> <PB=1000000> 
ColGenEvalAlg final dual bound: 40 (rounded: 40)
---- Diving heuristic node with dive number = 0, fix depth = 11 and tabu list size = 0
Fixed projected solution = [x_1_0_1_OspV=1, x_1_39_1_OspV=1, x_1_73_1_OspV=1, x_1_88_1_OspV=1]
<DWph=2> <it=  1> <et=6.30> <Mt= 0.00> <Spt= 0.00> <nCl=  0> <DB=   40.0000> <Mlp=   40.0000> <PB=1000000> 
<DWph=1> <it=  2> <et=6.30> <Mt= 0.00> <Spt= 0.00> <nCl=  0> <DB=   40.0000> <Mlp=   40.0000> <PB=1000000> 
<DWph=0> <it=  3> <et=6.30> <Mt= 0.00> <Spt= 0.00> <nCl=  0> <DB=   40.0000> <Mlp=   40.0000> <PB=1000000> 
ColGenEvalAlg final dual bound: 40 (rounded: 40)
---- Diving heuristic node with dive number = 0, fix depth = 11 and tabu list size = 0
Fixed projected solution = [x_1_0_1_OspV=1, x_1_28_1_OspV=1, x_1_66_1_OspV=1, x_1_98_1_OspV=1]
<DWph=2> <it=  1> <et=6.30> <Mt= 0.00> <Spt= 0.00> <nCl=  0> <DB=   40.0000> <Mlp=   40.0000> <PB=1000000> 
<DWph=1> <it=  2> <et=6.30> <Mt= 0.00> <Spt= 0.00> <nCl=  0> <DB=   40.0000> <Mlp=   40.0000> <PB=1000000> 
<DWph=0> <it=  3> <et=6.31> <Mt= 0.00> <Spt= 0.00> <nCl=  0> <DB=   40.0000> <Mlp=   40.0000> <PB=1000000> 
ColGenEvalAlg final dual bound: 40 (rounded: 40)
---- Diving heuristic node with dive number = 0, fix depth = 12 and tabu list size = 0
Fixed projected solution = [x_1_0_1_OspV=1, x_1_26_1_OspV=1, x_1_68_1_OspV=1, x_1_96_1_OspV=1]
<DWph=2> <it=  1> <et=6.31> <Mt= 0.00> <Spt= 0.00> <nCl=  0> <DB=   40.0000> <Mlp=   40.0000> <PB=40> 
New model incumbent solution 40, TIME = 0h0m6s34t = 634
************************************************************************************************
Search is finished, global bounds : [ 40 , 40 ], TIME = 0h0m6s34t = 634
************************************************************************************************
[32mBaPCod : solution defined.[00m
statistics_cols: instance & :Optimal & cutoff & :bcRecRootDb & :bcTimeRootEval & :bcCountNodeProc & :bcRecBestDb & :bcRecBestInc & :bcTimeMain \\
statistics: Falkenauer_t120_09 & 1 & 1.0e6 & 40.00 & 4.71 & 1 & 40.00 & 40 & 6.34 \\
########################################################
bin_id=1: 282(0) 357(1) 361(1) 
bin_id=2: 250(0) 356(1) 394(1) 
bin_id=3: 269(0) 344(1) 387(1) 
bin_id=4: 275(0) 338(1) 387(1) 
bin_id=5: 269(0) 336(1) 395(1) 
bin_id=6: 263(0) 305(1) 432(1) 
bin_id=7: 256(0) 262(1) 482(1) 
bin_id=8: 276(0) 362(1) 362(1) 
bin_id=9: 281(0) 353(1) 366(1) 
bin_id=10: 251(0) 251(1) 498(1) 
bin_id=11: 280(0) 345(1) 375(1) 
bin_id=12: 251(0) 271(1) 478(1) 
bin_id=13: 262(0) 304(1) 434(1) 
bin_id=14: 285(0) 324(1) 391(1) 
bin_id=15: 250(0) 252(1) 498(1) 
bin_id=16: 252(0) 253(1) 495(1) 
bin_id=17: 295(0) 323(1) 382(1) 
bin_id=18: 292(0) 300(1) 408(1) 
bin_id=19: 288(0) 326(1) 386(1) 
bin_id=20: 250(0) 272(1) 478(1) 
bin_id=21: 270(0) 330(1) 400(1) 
bin_id=22: 259(0) 261(1) 480(1) 
bin_id=23: 277(0) 293(1) 430(1) 
bin_id=24: 289(0) 347(1) 364(1) 
bin_id=25: 254(0) 256(1) 490(1) 
bin_id=26: 284(0) 346(1) 370(1) 
bin_id=27: 250(0) 251(1) 499(1) 
bin_id=28: 278(0) 314(1) 408(1) 
bin_id=29: 304(0) 344(1) 352(1) 
bin_id=30: 252(0) 314(1) 434(1) 
bin_id=31: 270(0) 336(1) 394(1) 
bin_id=32: 250(0) 340(1) 410(1) 
bin_id=33: 284(1) 297(0) 419(1) 
bin_id=34: 252(0) 262(1) 486(1) 
bin_id=35: 250(0) 288(1) 462(1) 
bin_id=36: 259(0) 327(1) 414(1) 
bin_id=37: 281(0) 292(1) 427(1) 
bin_id=38: 276(0) 356(1) 368(1) 
bin_id=39: 276(0) 296(1) 428(1) 
bin_id=40: 274(0) 329(1) 397(1) 
Objective value: 40.0
########################################################
