Application parameters:
  batch  =>  nothing
  instance  =>  "/IN/201_2500_DI_27.txt-Q2Half"
  ub  =>  1.0e6
  cfg  =>  "/CFG/BPP.cfg"
data = Colored Bin Packing dataset.
number of items = 202
number of colors = 2
capacity = 1940
Items : 
	 item 1, weight= 8, color= 0
	 item 2, weight= 8, color= 0
	 item 3, weight= 16, color= 0
	 item 4, weight= 24, color= 0
	 item 5, weight= 28, color= 0
	 item 6, weight= 32, color= 0
	 item 7, weight= 32, color= 0
	 item 8, weight= 32, color= 0
	 item 9, weight= 34, color= 0
	 item 10, weight= 34, color= 0
	 item 11, weight= 36, color= 0
	 item 12, weight= 40, color= 0
	 item 13, weight= 40, color= 0
	 item 14, weight= 40, color= 0
	 item 15, weight= 40, color= 0
	 item 16, weight= 42, color= 0
	 item 17, weight= 42, color= 0
	 item 18, weight= 44, color= 0
	 item 19, weight= 44, color= 0
	 item 20, weight= 44, color= 0
	 item 21, weight= 46, color= 0
	 item 22, weight= 46, color= 0
	 item 23, weight= 48, color= 0
	 item 24, weight= 48, color= 0
	 item 25, weight= 48, color= 0
	 item 26, weight= 50, color= 0
	 item 27, weight= 52, color= 0
	 item 28, weight= 52, color= 0
	 item 29, weight= 52, color= 0
	 item 30, weight= 52, color= 0
	 item 31, weight= 56, color= 0
	 item 32, weight= 56, color= 0
	 item 33, weight= 56, color= 0
	 item 34, weight= 60, color= 0
	 item 35, weight= 60, color= 0
	 item 36, weight= 60, color= 0
	 item 37, weight= 64, color= 0
	 item 38, weight= 64, color= 0
	 item 39, weight= 64, color= 0
	 item 40, weight= 66, color= 0
	 item 41, weight= 66, color= 0
	 item 42, weight= 72, color= 0
	 item 43, weight= 72, color= 0
	 item 44, weight= 72, color= 0
	 item 45, weight= 74, color= 0
	 item 46, weight= 76, color= 0
	 item 47, weight= 80, color= 0
	 item 48, weight= 80, color= 0
	 item 49, weight= 80, color= 0
	 item 50, weight= 84, color= 0
	 item 51, weight= 88, color= 0
	 item 52, weight= 90, color= 0
	 item 53, weight= 96, color= 0
	 item 54, weight= 96, color= 0
	 item 55, weight= 100, color= 0
	 item 56, weight= 102, color= 0
	 item 57, weight= 102, color= 0
	 item 58, weight= 104, color= 0
	 item 59, weight= 106, color= 0
	 item 60, weight= 108, color= 0
	 item 61, weight= 112, color= 0
	 item 62, weight= 122, color= 0
	 item 63, weight= 122, color= 0
	 item 64, weight= 128, color= 0
	 item 65, weight= 136, color= 0
	 item 66, weight= 140, color= 0
	 item 67, weight= 160, color= 0
	 item 68, weight= 160, color= 0
	 item 69, weight= 160, color= 0
	 item 70, weight= 166, color= 1
	 item 71, weight= 170, color= 1
	 item 72, weight= 171, color= 1
	 item 73, weight= 177, color= 1
	 item 74, weight= 181, color= 1
	 item 75, weight= 191, color= 1
	 item 76, weight= 191, color= 1
	 item 77, weight= 206, color= 1
	 item 78, weight= 207, color= 1
	 item 79, weight= 210, color= 1
	 item 80, weight= 213, color= 1
	 item 81, weight= 216, color= 0
	 item 82, weight= 216, color= 0
	 item 83, weight= 221, color= 1
	 item 84, weight= 222, color= 1
	 item 85, weight= 227, color= 1
	 item 86, weight= 233, color= 1
	 item 87, weight= 241, color= 1
	 item 88, weight= 244, color= 1
	 item 89, weight= 245, color= 1
	 item 90, weight= 251, color= 1
	 item 91, weight= 258, color= 1
	 item 92, weight= 270, color= 1
	 item 93, weight= 283, color= 1
	 item 94, weight= 286, color= 1
	 item 95, weight= 289, color= 1
	 item 96, weight= 300, color= 1
	 item 97, weight= 303, color= 1
	 item 98, weight= 309, color= 1
	 item 99, weight= 327, color= 1
	 item 100, weight= 333, color= 1
	 item 101, weight= 334, color= 1
	 item 102, weight= 341, color= 1
	 item 103, weight= 346, color= 1
	 item 104, weight= 365, color= 1
	 item 105, weight= 366, color= 1
	 item 106, weight= 371, color= 1
	 item 107, weight= 402, color= 1
	 item 108, weight= 403, color= 1
	 item 109, weight= 404, color= 1
	 item 110, weight= 409, color= 1
	 item 111, weight= 442, color= 1
	 item 112, weight= 447, color= 1
	 item 113, weight= 448, color= 1
	 item 114, weight= 453, color= 1
	 item 115, weight= 466, color= 1
	 item 116, weight= 490, color= 1
	 item 117, weight= 507, color= 1
	 item 118, weight= 513, color= 1
	 item 119, weight= 521, color= 1
	 item 120, weight= 541, color= 1
	 item 121, weight= 550, color= 1
	 item 122, weight= 569, color= 1
	 item 123, weight= 587, color= 1
	 item 124, weight= 611, color= 1
	 item 125, weight= 619, color= 1
	 item 126, weight= 626, color= 1
	 item 127, weight= 645, color= 1
	 item 128, weight= 646, color= 1
	 item 129, weight= 656, color= 1
	 item 130, weight= 683, color= 1
	 item 131, weight= 705, color= 1
	 item 132, weight= 724, color= 1
	 item 133, weight= 738, color= 1
	 item 134, weight= 783, color= 1
	 item 135, weight= 806, color= 1
	 item 136, weight= 807, color= 1
	 item 137, weight= 809, color= 1
	 item 138, weight= 838, color= 1
	 item 139, weight= 971, color= 1
	 item 140, weight= 973, color= 1
	 item 141, weight= 974, color= 1
	 item 142, weight= 1058, color= 1
	 item 143, weight= 1095, color= 1
	 item 144, weight= 1097, color= 1
	 item 145, weight= 1098, color= 1
	 item 146, weight= 1121, color= 1
	 item 147, weight= 1166, color= 1
	 item 148, weight= 1199, color= 1
	 item 149, weight= 1207, color= 1
	 item 150, weight= 1215, color= 1
	 item 151, weight= 1216, color= 1
	 item 152, weight= 1218, color= 1
	 item 153, weight= 1259, color= 1
	 item 154, weight= 1282, color= 1
	 item 155, weight= 1293, color= 1
	 item 156, weight= 1301, color= 1
	 item 157, weight= 1317, color= 1
	 item 158, weight= 1325, color= 1
	 item 159, weight= 1333, color= 1
	 item 160, weight= 1340, color= 1
	 item 161, weight= 1354, color= 1
	 item 162, weight= 1397, color= 1
	 item 163, weight= 1405, color= 1
	 item 164, weight= 1414, color= 1
	 item 165, weight= 1422, color= 1
	 item 166, weight= 1451, color= 1
	 item 167, weight= 1457, color= 1
	 item 168, weight= 1462, color= 1
	 item 169, weight= 1495, color= 1
	 item 170, weight= 1502, color= 1
	 item 171, weight= 1503, color= 1
	 item 172, weight= 1533, color= 1
	 item 173, weight= 1541, color= 1
	 item 174, weight= 1542, color= 1
	 item 175, weight= 1549, color= 1
	 item 176, weight= 1570, color= 1
	 item 177, weight= 1571, color= 1
	 item 178, weight= 1577, color= 1
	 item 179, weight= 1595, color= 1
	 item 180, weight= 1601, color= 1
	 item 181, weight= 1602, color= 1
	 item 182, weight= 1618, color= 1
	 item 183, weight= 1634, color= 1
	 item 184, weight= 1639, color= 1
	 item 185, weight= 1647, color= 1
	 item 186, weight= 1648, color= 1
	 item 187, weight= 1653, color= 1
	 item 188, weight= 1661, color= 1
	 item 189, weight= 1669, color= 1
	 item 190, weight= 1677, color= 1
	 item 191, weight= 1678, color= 1
	 item 192, weight= 1685, color= 1
	 item 193, weight= 1690, color= 1
	 item 194, weight= 1693, color= 1
	 item 195, weight= 1715, color= 1
	 item 196, weight= 1721, color= 1
	 item 197, weight= 1723, color= 1
	 item 198, weight= 1726, color= 1
	 item 199, weight= 1729, color= 1
	 item 200, weight= 1737, color= 1
	 item 201, weight= 1738, color= 1
	 item 202, weight= 1742, color= 1

VRPSolver warning: Interval set for resource 1 on source node (when source != sink) is ignored (by definition is [0.0,0.0])
[41m solve [00m
~~~~~~~~~~~~~~~~~~~~~~~~~~~~~~~~~~~~~~~~~~~~~~~~~~~~~~~~~~~~~~~~~~~~~~~~~~~~~~
VRPSolver v0.4.1, 24/03/2021. Web: vrpsolver.math.u-bordeaux.fr
Corresponds to the solver by Pessoa, Sadykov, Uchoa and Vanderbeck (2020)
Paper: dx.doi.org/10.1007/s10107-020-01523-z
USE THIS CODE ONLY FOR ACADEMIC PURPOSES AT YOUR OWN RISK
~~~~~~~~~~~~~~~~~~~~~~~~~~~~~~~~~~~~~~~~~~~~~~~~~~~~~~~~~~~~~~~~~~~~~~~~~~~~~~
BaPCod v053, 24/03/2021, © Inria Bordeaux, France
~~~~~~~~~~~~~~~~~~~~~~~~~~~~~~~~~~~~~~~~~~~~~~~~~~~~~~~~~~~~~~~~~~~~~~~~~~~~~~
VRPSolver parameters:
GlobalTimeLimit = 1800
MaxNbOfBBtreeNodeTreated = 100000
treeSearchStrategy = 1
RCSPstopCutGenTimeThresholdInPricing = 10
RCSPhardTimeThresholdInPricing = 20
RCSPnumberOfBucketsPerVertex = 2000
RCSPdynamicBucketSteps = 0
RCSPuseBidirectionalSearch = 1
RCSPapplyReducedCostFixing = 1
RCSPredCostFixingFalseGap = 0
RCSPmaxNumOfColsPerIteration = 100
RCSPmaxNumOfColsPerExactIteration = 100
RCSPheurLabelingStrategy = 4
StabilizationMinPhaseOfStage = 1
RCSPmaxNumOfLabelsInEnumeration = 100000
RCSPmaxNumOfEnumeratedSolutions = 1000000
RCSPmaxNumOfEnumSolutionsForMIP = 100000
RCSPinitNGneighbourhoodSize = 0
RCSPmaxNGneighbourhoodSize = 0
RCSPrankOneCutsMaxNumPerRound = 100
RCSPrankOneCutsMaxNumRows = -1
RCSPrankOneCutsMemoryType = 2
CutTailingOffThreshold = 0.02
CutTailingOffCounterThreshold = 3
SafeDualBoundScaleFactor = -1
StrongBranchingPhaseOneCandidatesNumber = 100
StrongBranchingPhaseOneTreeSizeEstimRatio = 0.3
StrongBranchingPhaseTwoCandidatesNumber = 1
StrongBranchingPhaseTwoTreeSizeEstimRatio = 0.1
MaxTimeForRestrictedMasterIpHeur = -1
DivingHeurUseDepthLimit = 0
MaxLDSbreadth = 3
MaxLDSdepth = 2
New model incumbent solution 1e+06, TIME = 0h0m0s3t = 3
Model is built TIME = 0h0m2s41t = 241
************************************************************************************************
**** BaB tree root node
**** Local DB = -1e+12, global bounds : [ -1e+12 , 1e+06 ], TIME = 0h0m2s41t = 241
**** 1 open nodes, 0 columns (0 active), 0 dyn. constrs. (0 active), 406 art. vars. (406 active)
************************************************************************************************
<DWph=2> <it= 10> <et=4.39> <Mt= 0.00> <Spt= 1.97> <nCl=1000> <DB=-3730192847.8065> <Mlp=220222452.5957> <PB=1000000> 
<DWph=2> <it= 20> <et=6.38> <Mt= 0.02> <Spt= 1.97> <nCl=1000> <DB=-2949888483.0767> <Mlp=195300761.8898> <PB=1000000> 
<DWph=2> <it= 30> <et=8.29> <Mt= 0.03> <Spt= 1.88> <nCl=1000> <DB=-2365843233.2949> <Mlp=167481384.2584> <PB=1000000> 
<DWph=2> <it= 40> <et=10.18> <Mt= 0.04> <Spt= 1.84> <nCl=1000> <DB=-1713115775.2505> <Mlp=138015996.9160> <PB=1000000> 
<DWph=2> <it= 50> <et=12.02> <Mt= 0.09> <Spt= 1.75> <nCl=1000> <DB=-1272825774.2774> <Mlp=107823140.7739> <PB=1000000> 
<DWph=2> <it= 60> <et=13.74> <Mt= 0.13> <Spt= 1.59> <nCl=1000> <DB=-462066997.0006> <Mlp=87887435.7099> <PB=1000000> 
<DWph=2> <it= 70> <et=15.62> <Mt= 0.24> <Spt= 1.64> <nCl=1000> <DB=-214531982.9091> <Mlp=76200017.3324> <PB=1000000> 
<DWph=2> <it= 80> <et=17.60> <Mt= 0.26> <Spt= 1.71> <nCl=1000> <DB=-172017879.9792> <Mlp=70200020.0134> <PB=1000000> 
<DWph=2> <it= 90> <et=19.34> <Mt= 0.20> <Spt= 1.54> <nCl=1000> <DB=-185076638.5539> <Mlp=63986508.4201> <PB=1000000> 
<DWph=2> <it=100> <et=21.16> <Mt= 0.20> <Spt= 1.61> <nCl=1000> <DB=-199027539.2424> <Mlp=56410555.5627> <PB=1000000> 
<DWph=2> <it=110> <et=23.01> <Mt= 0.21> <Spt= 1.60> <nCl=1000> <DB=-171845753.3831> <Mlp=42600035.4869> <PB=1000000> 
<DWph=2> <it=120> <et=25.39> <Mt= 0.16> <Spt= 2.22> <nCl=1000> <DB=  -34.6178> <Mlp=   69.5000> <PB=1000000> 
<DWph=2> <it=130> <et=27.30> <Mt= 0.27> <Spt= 1.63> <nCl=996> <DB=   37.5727> <Mlp=   67.0762> <PB=1000000> 
<DWph=2> <it=140> <et=29.23> <Mt= 0.27> <Spt= 1.61> <nCl=810> <DB=   48.1868> <Mlp=   65.2550> <PB=1000000> 
<DWph=2> <it=150> <et=31.15> <Mt= 0.17> <Spt= 1.75> <nCl=888> <DB=   64.2259> <Mlp=   65.0243> <PB=1000000> 
<DWph=2> <it=160> <et=33.31> <Mt= 0.12> <Spt= 2.03> <nCl=948> <DB=   64.8363> <Mlp=   65.0040> <PB=1000000> 
<DWph=2> <it=170> <et=35.46> <Mt= 0.11> <Spt= 2.04> <nCl=733> <DB=   64.9714> <Mlp=   65.0003> <PB=1000000> 
<DWph=2> <it=180> <et=37.65> <Mt= 0.08> <Spt= 2.05> <nCl=756> <DB=   64.9923> <Mlp=   65.0000> <PB=1000000> 
<DWph=2> <it=186> <et=39.33> <Mt= 0.04> <Spt= 1.64> <nCl=322> <DB=   65.0000> <Mlp=   65.0000> <PB=1000000> 
<DWph=1> <it=187> <et=39.96> <Mt= 0.00> <Spt= 0.63> <nCl=  0> <DB=   65.0000> <Mlp=   65.0000> <PB=1000000> 
<DWph=0> <it=188> <et=40.17> <Mt= 0.00> <Spt= 0.21> <nCl=  0> <DB=   65.0000> <Mlp=   65.0000> <PB=1000000> 
Reduced cost fixing for graph G_1... took 15.8 sec., 692385 buck. arcs remain (83.3% from prev., 36.2% from max.)
Run enumeration... took 0.15 sec. and not succeeded.
ColGenEvalAlg final dual bound: 65 (rounded: 65)
----------- Diving heuristic started -----------
<DWph=2> <it=  1> <et=56.19> <Mt= 0.01> <Spt= 0.00> <nCl=  0> <DB=   65.0000> <Mlp=   65.0000> <PB=1000000> 
<DWph=1> <it=  2> <et=56.19> <Mt= 0.00> <Spt= 0.00> <nCl=  0> <DB=   65.0000> <Mlp=   65.0000> <PB=1000000> 
---- Diving heuristic node with dive number = 0, fix depth = 0 and tabu list size = 0
Fixed projected solution = [x_1_0_1_OspV=1, x_1_56_1_OspV=1, x_1_118_1_OspV=1, x_1_158_1_OspV=1]
<DWph=2> <it=  1> <et=56.27> <Mt= 0.00> <Spt= 0.00> <nCl=  0> <DB=   65.0000> <Mlp=   65.0000> <PB=1000000> 
<DWph=1> <it=  2> <et=56.27> <Mt= 0.00> <Spt= 0.00> <nCl=  0> <DB=   65.0000> <Mlp=   65.0000> <PB=1000000> 
---- Diving heuristic node with dive number = 0, fix depth = 0 and tabu list size = 0
Fixed projected solution = [x_1_0_1_OspV=1, x_1_29_1_OspV=1, x_1_115_1_OspV=1, x_1_165_1_OspV=1]
<DWph=2> <it=  1> <et=56.35> <Mt= 0.00> <Spt= 0.00> <nCl=  0> <DB=   65.0000> <Mlp=   65.0000> <PB=1000000> 
<DWph=1> <it=  2> <et=56.35> <Mt= 0.00> <Spt= 0.00> <nCl=  0> <DB=   65.0000> <Mlp=   65.0000> <PB=1000000> 
---- Diving heuristic node with dive number = 0, fix depth = 0 and tabu list size = 0
Fixed projected solution = [x_1_0_1_OspV=1, x_1_30_1_OspV=1, x_1_92_1_OspV=1, x_1_182_1_OspV=1]
<DWph=2> <it=  1> <et=56.43> <Mt= 0.01> <Spt= 0.00> <nCl=  0> <DB=   65.0000> <Mlp=   65.0000> <PB=1000000> 
<DWph=1> <it=  2> <et=56.43> <Mt= 0.00> <Spt= 0.00> <nCl=  0> <DB=   65.0000> <Mlp=   65.0000> <PB=1000000> 
---- Diving heuristic node with dive number = 0, fix depth = 0 and tabu list size = 0
Fixed projected solution = [x_1_0_1_OspV=1, x_1_69_1_OspV=1, x_1_137_1_OspV=1, x_1_139_1_OspV=1]
<DWph=2> <it=  1> <et=56.50> <Mt= 0.00> <Spt= 0.00> <nCl=  0> <DB=   65.0000> <Mlp=   65.0000> <PB=1000000> 
<DWph=1> <it=  2> <et=56.50> <Mt= 0.00> <Spt= 0.00> <nCl=  0> <DB=   65.0000> <Mlp=   65.0000> <PB=1000000> 
---- Diving heuristic node with dive number = 0, fix depth = 0 and tabu list size = 0
Fixed projected solution = [x_1_0_1_OspV=1, x_1_22_1_OspV=1, x_1_87_1_OspV=1, x_1_187_1_OspV=1]
<DWph=2> <it=  1> <et=56.58> <Mt= 0.00> <Spt= 0.00> <nCl=  0> <DB=   65.0000> <Mlp=   65.0000> <PB=1000000> 
<DWph=1> <it=  2> <et=56.58> <Mt= 0.00> <Spt= 0.00> <nCl=  0> <DB=   65.0000> <Mlp=   65.0000> <PB=1000000> 
---- Diving heuristic node with dive number = 0, fix depth = 0 and tabu list size = 0
Fixed projected solution = [x_1_0_1_OspV=1, x_1_62_1_OspV=1, x_1_125_1_OspV=1, x_1_148_1_OspV=1]
<DWph=2> <it=  1> <et=56.66> <Mt= 0.01> <Spt= 0.00> <nCl=  0> <DB=   65.0000> <Mlp=   65.0000> <PB=1000000> 
<DWph=1> <it=  2> <et=56.66> <Mt= 0.00> <Spt= 0.00> <nCl=  0> <DB=   65.0000> <Mlp=   65.0000> <PB=1000000> 
---- Diving heuristic node with dive number = 0, fix depth = 0 and tabu list size = 0
Fixed projected solution = [x_1_0_1_OspV=1, x_1_28_1_OspV=1, x_1_94_1_OspV=1, x_1_181_1_OspV=1]
<DWph=2> <it=  1> <et=56.74> <Mt= 0.00> <Spt= 0.00> <nCl=  0> <DB=   65.0000> <Mlp=   65.0000> <PB=1000000> 
<DWph=1> <it=  2> <et=56.74> <Mt= 0.00> <Spt= 0.00> <nCl=  0> <DB=   65.0000> <Mlp=   65.0000> <PB=1000000> 
---- Diving heuristic node with dive number = 0, fix depth = 0 and tabu list size = 0
Fixed projected solution = [x_1_0_1_OspV=1, x_1_16_1_OspV=1, x_1_80_1_OspV=1, x_1_192_1_OspV=1]
<DWph=2> <it=  1> <et=56.81> <Mt= 0.00> <Spt= 0.00> <nCl=  0> <DB=   65.0000> <Mlp=   65.0000> <PB=1000000> 
<DWph=1> <it=  2> <et=56.81> <Mt= 0.00> <Spt= 0.00> <nCl=  0> <DB=   65.0000> <Mlp=   65.0000> <PB=1000000> 
---- Diving heuristic node with dive number = 0, fix depth = 0 and tabu list size = 0
Fixed projected solution = [x_1_0_1_OspV=1, x_1_34_1_OspV=1, x_1_134_1_OspV=1, x_1_144_1_OspV=1]
<DWph=2> <it=  1> <et=56.89> <Mt= 0.00> <Spt= 0.00> <nCl=  0> <DB=   65.0000> <Mlp=   65.0000> <PB=1000000> 
<DWph=1> <it=  2> <et=56.89> <Mt= 0.01> <Spt= 0.00> <nCl=  0> <DB=   65.0000> <Mlp=   65.0000> <PB=1000000> 
---- Diving heuristic node with dive number = 0, fix depth = 0 and tabu list size = 0
Fixed projected solution = [x_1_0_1_OspV=1, x_1_6_1_OspV=1, x_1_71_1_OspV=1, x_1_201_1_OspV=1]
<DWph=2> <it=  1> <et=56.97> <Mt= 0.00> <Spt= 0.00> <nCl=  0> <DB=   65.0000> <Mlp=   65.0000> <PB=1000000> 
<DWph=1> <it=  2> <et=56.97> <Mt= 0.00> <Spt= 0.00> <nCl=  0> <DB=   65.0000> <Mlp=   65.0000> <PB=1000000> 
---- Diving heuristic node with dive number = 0, fix depth = 0 and tabu list size = 0
Fixed projected solution = [x_1_0_1_OspV=1, x_1_49_1_OspV=1, x_1_127_1_OspV=1, x_1_150_1_OspV=1]
<DWph=2> <it=  1> <et=57.04> <Mt= 0.00> <Spt= 0.00> <nCl=  0> <DB=   65.0000> <Mlp=   65.0000> <PB=1000000> 
<DWph=1> <it=  2> <et=57.05> <Mt= 0.00> <Spt= 0.00> <nCl=  0> <DB=   65.0000> <Mlp=   65.0000> <PB=1000000> 
---- Diving heuristic node with dive number = 0, fix depth = 0 and tabu list size = 0
Fixed projected solution = [x_1_0_1_OspV=1, x_1_35_1_OspV=1, x_1_97_1_OspV=1, x_1_178_1_OspV=1]
<DWph=2> <it=  1> <et=57.12> <Mt= 0.00> <Spt= 0.00> <nCl=  0> <DB=   65.0000> <Mlp=   65.0000> <PB=1000000> 
<DWph=1> <it=  2> <et=57.12> <Mt= 0.01> <Spt= 0.00> <nCl=  0> <DB=   65.0000> <Mlp=   65.0000> <PB=1000000> 
---- Diving heuristic node with dive number = 0, fix depth = 0 and tabu list size = 0
Fixed projected solution = [x_1_0_1_OspV=1, x_1_1_1_OspV=1, x_1_77_1_OspV=1, x_1_198_1_OspV=1]
<DWph=2> <it=  1> <et=57.20> <Mt= 0.00> <Spt= 0.00> <nCl=  0> <DB=   65.0000> <Mlp=   65.0000> <PB=1000000> 
<DWph=1> <it=  2> <et=57.20> <Mt= 0.00> <Spt= 0.00> <nCl=  0> <DB=   65.0000> <Mlp=   65.0000> <PB=1000000> 
---- Diving heuristic node with dive number = 0, fix depth = 0 and tabu list size = 0
Fixed projected solution = [x_1_0_1_OspV=1, x_1_43_1_OspV=1, x_1_104_1_OspV=1, x_1_171_1_OspV=1]
<DWph=2> <it=  1> <et=57.27> <Mt= 0.00> <Spt= 0.00> <nCl=  0> <DB=   65.0000> <Mlp=   65.0000> <PB=1000000> 
<DWph=1> <it=  2> <et=57.28> <Mt= 0.00> <Spt= 0.00> <nCl=  0> <DB=   65.0000> <Mlp=   65.0000> <PB=1000000> 
---- Diving heuristic node with dive number = 0, fix depth = 0 and tabu list size = 0
Fixed projected solution = [x_1_0_1_OspV=1, x_1_40_1_OspV=1, x_1_100_1_OspV=1, x_1_173_1_OspV=1]
<DWph=2> <it=  1> <et=57.35> <Mt= 0.00> <Spt= 0.00> <nCl=  0> <DB=   65.0000> <Mlp=   65.0000> <PB=1000000> 
<DWph=1> <it=  2> <et=57.35> <Mt= 0.01> <Spt= 0.00> <nCl=  0> <DB=   65.0000> <Mlp=   65.0000> <PB=1000000> 
---- Diving heuristic node with dive number = 0, fix depth = 0 and tabu list size = 0
Fixed projected solution = [x_1_0_1_OspV=1, x_1_12_1_OspV=1, x_1_79_1_OspV=1, x_1_193_1_OspV=1]
<DWph=2> <it=  1> <et=57.43> <Mt= 0.00> <Spt= 0.00> <nCl=  0> <DB=   65.0000> <Mlp=   65.0000> <PB=1000000> 
<DWph=1> <it=  2> <et=57.43> <Mt= 0.00> <Spt= 0.00> <nCl=  0> <DB=   65.0000> <Mlp=   65.0000> <PB=1000000> 
---- Diving heuristic node with dive number = 0, fix depth = 0 and tabu list size = 0
Fixed projected solution = [x_1_0_1_OspV=1, x_1_24_1_OspV=1, x_1_88_1_OspV=1, x_1_186_1_OspV=1]
<DWph=2> <it=  1> <et=57.51> <Mt= 0.00> <Spt= 0.00> <nCl=  0> <DB=   65.0000> <Mlp=   65.0000> <PB=1000000> 
<DWph=1> <it=  2> <et=57.51> <Mt= 0.00> <Spt= 0.00> <nCl=  0> <DB=   65.0000> <Mlp=   65.0000> <PB=1000000> 
---- Diving heuristic node with dive number = 0, fix depth = 0 and tabu list size = 0
Fixed projected solution = [x_1_0_1_OspV=1, x_1_32_1_OspV=1, x_1_95_1_OspV=1, x_1_179_1_OspV=1]
<DWph=2> <it=  1> <et=57.58> <Mt= 0.00> <Spt= 0.00> <nCl=  0> <DB=   65.0000> <Mlp=   65.0000> <PB=1000000> 
<DWph=1> <it=  2> <et=57.58> <Mt= 0.00> <Spt= 0.00> <nCl=  0> <DB=   65.0000> <Mlp=   65.0000> <PB=1000000> 
---- Diving heuristic node with dive number = 0, fix depth = 0 and tabu list size = 0
Fixed projected solution = [x_1_0_1_OspV=1, x_1_37_1_OspV=1, x_1_101_1_OspV=1, x_1_174_1_OspV=1]
<DWph=2> <it=  1> <et=57.66> <Mt= 0.01> <Spt= 0.00> <nCl=  0> <DB=   65.0000> <Mlp=   65.0000> <PB=1000000> 
<DWph=1> <it=  2> <et=57.66> <Mt= 0.00> <Spt= 0.00> <nCl=  0> <DB=   65.0000> <Mlp=   65.0000> <PB=1000000> 
---- Diving heuristic node with dive number = 0, fix depth = 0 and tabu list size = 0
Fixed projected solution = [x_1_0_1_OspV=1, x_1_33_1_OspV=1, x_1_93_1_OspV=1, x_1_180_1_OspV=1]
<DWph=2> <it=  1> <et=57.74> <Mt= 0.00> <Spt= 0.00> <nCl=  0> <DB=   65.0000> <Mlp=   65.0000> <PB=1000000> 
<DWph=1> <it=  2> <et=57.74> <Mt= 0.00> <Spt= 0.00> <nCl=  0> <DB=   65.0000> <Mlp=   65.0000> <PB=1000000> 
---- Diving heuristic node with dive number = 0, fix depth = 0 and tabu list size = 0
Fixed projected solution = [x_1_0_1_OspV=1, x_1_67_1_OspV=1, x_1_135_1_OspV=1, x_1_141_1_OspV=1]
<DWph=2> <it=  1> <et=57.81> <Mt= 0.00> <Spt= 0.00> <nCl=  0> <DB=   65.0000> <Mlp=   65.0000> <PB=1000000> 
<DWph=1> <it=  2> <et=57.82> <Mt= 0.00> <Spt= 0.00> <nCl=  0> <DB=   65.0000> <Mlp=   65.0000> <PB=1000000> 
---- Diving heuristic node with dive number = 0, fix depth = 0 and tabu list size = 0
Fixed projected solution = [x_1_0_1_OspV=1, x_1_51_1_OspV=1, x_1_112_1_OspV=1, x_1_163_1_OspV=1]
<DWph=2> <it=  1> <et=57.89> <Mt= 0.01> <Spt= 0.00> <nCl=  0> <DB=   65.0000> <Mlp=   65.0000> <PB=1000000> 
<DWph=1> <it=  2> <et=57.89> <Mt= 0.00> <Spt= 0.00> <nCl=  0> <DB=   65.0000> <Mlp=   65.0000> <PB=1000000> 
---- Diving heuristic node with dive number = 0, fix depth = 0 and tabu list size = 0
Fixed projected solution = [x_1_0_1_OspV=1, x_1_7_1_OspV=1, x_1_70_1_OspV=1, x_1_202_1_OspV=1]
<DWph=2> <it=  1> <et=57.97> <Mt= 0.00> <Spt= 0.00> <nCl=  0> <DB=   65.0000> <Mlp=   65.0000> <PB=1000000> 
<DWph=1> <it=  2> <et=57.97> <Mt= 0.00> <Spt= 0.00> <nCl=  0> <DB=   65.0000> <Mlp=   65.0000> <PB=1000000> 
---- Diving heuristic node with dive number = 0, fix depth = 0 and tabu list size = 0
Fixed projected solution = [x_1_0_1_OspV=1, x_1_27_1_OspV=1, x_1_123_1_OspV=1, x_1_156_1_OspV=1]
<DWph=2> <it=  1> <et=58.04> <Mt= 0.00> <Spt= 0.00> <nCl=  0> <DB=   65.0000> <Mlp=   65.0000> <PB=1000000> 
<DWph=1> <it=  2> <et=58.05> <Mt= 0.00> <Spt= 0.00> <nCl=  0> <DB=   65.0000> <Mlp=   65.0000> <PB=1000000> 
---- Diving heuristic node with dive number = 0, fix depth = 0 and tabu list size = 0
Fixed projected solution = [x_1_0_1_OspV=1, x_1_4_1_OspV=1, x_1_103_1_OspV=1, x_1_176_1_OspV=1]
<DWph=2> <it=  1> <et=58.12> <Mt= 0.01> <Spt= 0.00> <nCl=  0> <DB=   65.0000> <Mlp=   65.0000> <PB=1000000> 
<DWph=1> <it=  2> <et=58.12> <Mt= 0.00> <Spt= 0.00> <nCl=  0> <DB=   65.0000> <Mlp=   65.0000> <PB=1000000> 
---- Diving heuristic node with dive number = 0, fix depth = 0 and tabu list size = 0
Fixed projected solution = [x_1_0_1_OspV=1, x_1_55_1_OspV=1, x_1_117_1_OspV=1, x_1_159_1_OspV=1]
<DWph=2> <it=  1> <et=58.20> <Mt= 0.00> <Spt= 0.00> <nCl=  0> <DB=   65.0000> <Mlp=   65.0000> <PB=1000000> 
<DWph=1> <it=  2> <et=58.20> <Mt= 0.00> <Spt= 0.00> <nCl=  0> <DB=   65.0000> <Mlp=   65.0000> <PB=1000000> 
---- Diving heuristic node with dive number = 0, fix depth = 0 and tabu list size = 0
Fixed projected solution = [x_1_0_1_OspV=1, x_1_36_1_OspV=1, x_1_98_1_OspV=1, x_1_177_1_OspV=1]
<DWph=2> <it=  1> <et=58.28> <Mt= 0.00> <Spt= 0.00> <nCl=  0> <DB=   65.0000> <Mlp=   65.0000> <PB=1000000> 
<DWph=1> <it=  2> <et=58.28> <Mt= 0.00> <Spt= 0.00> <nCl=  0> <DB=   65.0000> <Mlp=   65.0000> <PB=1000000> 
---- Diving heuristic node with dive number = 0, fix depth = 0 and tabu list size = 0
Fixed projected solution = [x_1_0_1_OspV=1, x_1_63_1_OspV=1, x_1_124_1_OspV=1, x_1_149_1_OspV=1]
<DWph=2> <it=  1> <et=58.35> <Mt= 0.00> <Spt= 0.00> <nCl=  0> <DB=   65.0000> <Mlp=   65.0000> <PB=1000000> 
<DWph=1> <it=  2> <et=58.35> <Mt= 0.01> <Spt= 0.00> <nCl=  0> <DB=   65.0000> <Mlp=   65.0000> <PB=1000000> 
---- Diving heuristic node with dive number = 0, fix depth = 0 and tabu list size = 0
Fixed projected solution = [x_1_0_1_OspV=1, x_1_48_1_OspV=1, x_1_108_1_OspV=1, x_1_167_1_OspV=1]
<DWph=2> <it=  1> <et=58.43> <Mt= 0.00> <Spt= 0.00> <nCl=  0> <DB=   65.0000> <Mlp=   65.0000> <PB=1000000> 
<DWph=1> <it=  2> <et=58.43> <Mt= 0.00> <Spt= 0.00> <nCl=  0> <DB=   65.0000> <Mlp=   65.0000> <PB=1000000> 
---- Diving heuristic node with dive number = 0, fix depth = 0 and tabu list size = 0
Fixed projected solution = [x_1_0_1_OspV=1, x_1_52_1_OspV=1, x_1_114_1_OspV=1, x_1_162_1_OspV=1]
<DWph=2> <it=  1> <et=58.51> <Mt= 0.00> <Spt= 0.00> <nCl=  0> <DB=   65.0000> <Mlp=   65.0000> <PB=1000000> 
<DWph=1> <it=  2> <et=58.51> <Mt= 0.00> <Spt= 0.00> <nCl=  0> <DB=   65.0000> <Mlp=   65.0000> <PB=1000000> 
---- Diving heuristic node with dive number = 0, fix depth = 0 and tabu list size = 0
Fixed projected solution = [x_1_0_1_OspV=1, x_1_23_1_OspV=1, x_1_91_1_OspV=1, x_1_183_1_OspV=1]
<DWph=2> <it=  1> <et=58.58> <Mt= 0.00> <Spt= 0.00> <nCl=  0> <DB=   65.0000> <Mlp=   65.0000> <PB=1000000> 
<DWph=1> <it=  2> <et=58.59> <Mt= 0.00> <Spt= 0.00> <nCl=  0> <DB=   65.0000> <Mlp=   65.0000> <PB=1000000> 
---- Diving heuristic node with dive number = 0, fix depth = 0 and tabu list size = 0
Fixed projected solution = [x_1_0_1_OspV=1, x_1_50_1_OspV=1, x_1_111_1_OspV=1, x_1_164_1_OspV=1]
<DWph=2> <it=  1> <et=58.66> <Mt= 0.01> <Spt= 0.00> <nCl=  0> <DB=   65.0000> <Mlp=   65.0000> <PB=1000000> 
<DWph=1> <it=  2> <et=58.66> <Mt= 0.00> <Spt= 0.00> <nCl=  0> <DB=   65.0000> <Mlp=   65.0000> <PB=1000000> 
---- Diving heuristic node with dive number = 0, fix depth = 0 and tabu list size = 0
Fixed projected solution = [x_1_0_1_OspV=1, x_1_9_1_OspV=1, x_1_73_1_OspV=1, x_1_199_1_OspV=1]
<DWph=2> <it=  1> <et=58.74> <Mt= 0.00> <Spt= 0.00> <nCl=  0> <DB=   65.0000> <Mlp=   65.0000> <PB=1000000> 
<DWph=1> <it=  2> <et=58.74> <Mt= 0.00> <Spt= 0.00> <nCl=  0> <DB=   65.0000> <Mlp=   65.0000> <PB=1000000> 
---- Diving heuristic node with dive number = 0, fix depth = 0 and tabu list size = 0
Fixed projected solution = [x_1_0_1_OspV=1, x_1_46_1_OspV=1, x_1_107_1_OspV=1, x_1_168_1_OspV=1]
<DWph=2> <it=  1> <et=58.81> <Mt= 0.00> <Spt= 0.00> <nCl=  0> <DB=   65.0000> <Mlp=   65.0000> <PB=1000000> 
<DWph=1> <it=  2> <et=58.82> <Mt= 0.00> <Spt= 0.00> <nCl=  0> <DB=   65.0000> <Mlp=   65.0000> <PB=1000000> 
---- Diving heuristic node with dive number = 0, fix depth = 0 and tabu list size = 0
Fixed projected solution = [x_1_0_1_OspV=1, x_1_59_1_OspV=1, x_1_120_1_OspV=1, x_1_155_1_OspV=1]
<DWph=2> <it=  1> <et=58.89> <Mt= 0.01> <Spt= 0.00> <nCl=  0> <DB=   65.0000> <Mlp=   65.0000> <PB=1000000> 
<DWph=1> <it=  2> <et=58.89> <Mt= 0.00> <Spt= 0.00> <nCl=  0> <DB=   65.0000> <Mlp=   65.0000> <PB=1000000> 
---- Diving heuristic node with dive number = 0, fix depth = 0 and tabu list size = 0
Fixed projected solution = [x_1_0_1_OspV=1, x_1_39_1_OspV=1, x_1_99_1_OspV=1, x_1_175_1_OspV=1]
<DWph=2> <it=  1> <et=58.97> <Mt= 0.00> <Spt= 0.00> <nCl=  0> <DB=   65.0000> <Mlp=   65.0000> <PB=1000000> 
<DWph=1> <it=  2> <et=58.97> <Mt= 0.00> <Spt= 0.00> <nCl=  0> <DB=   65.0000> <Mlp=   65.0000> <PB=1000000> 
---- Diving heuristic node with dive number = 0, fix depth = 0 and tabu list size = 0
Fixed projected solution = [x_1_0_1_OspV=1, x_1_47_1_OspV=1, x_1_110_1_OspV=1, x_1_166_1_OspV=1]
<DWph=2> <it=  1> <et=59.05> <Mt= 0.00> <Spt= 0.00> <nCl=  0> <DB=   65.0000> <Mlp=   65.0000> <PB=1000000> 
<DWph=1> <it=  2> <et=59.05> <Mt= 0.00> <Spt= 0.00> <nCl=  0> <DB=   65.0000> <Mlp=   65.0000> <PB=1000000> 
---- Diving heuristic node with dive number = 0, fix depth = 0 and tabu list size = 0
Fixed projected solution = [x_1_0_1_OspV=1, x_1_57_1_OspV=1, x_1_119_1_OspV=1, x_1_157_1_OspV=1]
<DWph=2> <it=  1> <et=59.12> <Mt= 0.01> <Spt= 0.00> <nCl=  0> <DB=   65.0000> <Mlp=   65.0000> <PB=1000000> 
<DWph=1> <it=  2> <et=59.12> <Mt= 0.00> <Spt= 0.00> <nCl=  0> <DB=   65.0000> <Mlp=   65.0000> <PB=1000000> 
---- Diving heuristic node with dive number = 0, fix depth = 0 and tabu list size = 0
Fixed projected solution = [x_1_0_1_OspV=1, x_1_65_1_OspV=1, x_1_130_1_OspV=1, x_1_146_1_OspV=1]
<DWph=2> <it=  1> <et=59.20> <Mt= 0.00> <Spt= 0.00> <nCl=  0> <DB=   65.0000> <Mlp=   65.0000> <PB=1000000> 
<DWph=1> <it=  2> <et=59.20> <Mt= 0.00> <Spt= 0.00> <nCl=  0> <DB=   65.0000> <Mlp=   65.0000> <PB=1000000> 
---- Diving heuristic node with dive number = 0, fix depth = 0 and tabu list size = 0
Fixed projected solution = [x_1_0_1_OspV=1, x_1_68_1_OspV=1, x_1_136_1_OspV=1, x_1_140_1_OspV=1]
<DWph=2> <it=  1> <et=59.28> <Mt= 0.00> <Spt= 0.00> <nCl=  0> <DB=   65.0000> <Mlp=   65.0000> <PB=1000000> 
<DWph=1> <it=  2> <et=59.28> <Mt= 0.00> <Spt= 0.00> <nCl=  0> <DB=   65.0000> <Mlp=   65.0000> <PB=1000000> 
---- Diving heuristic node with dive number = 0, fix depth = 0 and tabu list size = 0
Fixed projected solution = [x_1_0_1_OspV=1, x_1_5_1_OspV=1, x_1_75_1_OspV=1, x_1_196_1_OspV=1]
<DWph=2> <it=  1> <et=59.35> <Mt= 0.00> <Spt= 0.00> <nCl=  0> <DB=   65.0000> <Mlp=   65.0000> <PB=1000000> 
<DWph=1> <it=  2> <et=59.35> <Mt= 0.01> <Spt= 0.00> <nCl=  0> <DB=   65.0000> <Mlp=   65.0000> <PB=1000000> 
---- Diving heuristic node with dive number = 0, fix depth = 0 and tabu list size = 0
Fixed projected solution = [x_1_0_1_OspV=1, x_1_21_1_OspV=1, x_1_86_1_OspV=1, x_1_188_1_OspV=1]
<DWph=2> <it=  1> <et=59.43> <Mt= 0.00> <Spt= 0.00> <nCl=  0> <DB=   65.0000> <Mlp=   65.0000> <PB=1000000> 
<DWph=1> <it=  2> <et=59.43> <Mt= 0.00> <Spt= 0.00> <nCl=  0> <DB=   65.0000> <Mlp=   65.0000> <PB=1000000> 
---- Diving heuristic node with dive number = 0, fix depth = 0 and tabu list size = 0
Fixed projected solution = [x_1_0_1_OspV=1, x_1_66_1_OspV=1, x_1_131_1_OspV=1, x_1_143_1_OspV=1]
<DWph=2> <it=  1> <et=59.51> <Mt= 0.00> <Spt= 0.00> <nCl=  0> <DB=   65.0000> <Mlp=   65.0000> <PB=1000000> 
<DWph=1> <it=  2> <et=59.51> <Mt= 0.00> <Spt= 0.00> <nCl=  0> <DB=   65.0000> <Mlp=   65.0000> <PB=1000000> 
---- Diving heuristic node with dive number = 0, fix depth = 0 and tabu list size = 0
Fixed projected solution = [x_1_0_1_OspV=1, x_1_10_1_OspV=1, x_1_76_1_OspV=1, x_1_195_1_OspV=1]
<DWph=2> <it=  1> <et=59.58> <Mt= 0.00> <Spt= 0.00> <nCl=  0> <DB=   65.0000> <Mlp=   65.0000> <PB=1000000> 
<DWph=1> <it=  2> <et=59.59> <Mt= 0.00> <Spt= 0.00> <nCl=  0> <DB=   65.0000> <Mlp=   65.0000> <PB=1000000> 
---- Diving heuristic node with dive number = 0, fix depth = 0 and tabu list size = 0
Fixed projected solution = [x_1_0_1_OspV=1, x_1_11_1_OspV=1, x_1_74_1_OspV=1, x_1_197_1_OspV=1]
<DWph=2> <it=  1> <et=59.66> <Mt= 0.01> <Spt= 0.00> <nCl=  0> <DB=   65.0000> <Mlp=   65.0000> <PB=1000000> 
<DWph=1> <it=  2> <et=59.66> <Mt= 0.00> <Spt= 0.00> <nCl=  0> <DB=   65.0000> <Mlp=   65.0000> <PB=1000000> 
---- Diving heuristic node with dive number = 0, fix depth = 0 and tabu list size = 0
Fixed projected solution = [x_1_0_1_OspV=1, x_1_17_1_OspV=1, x_1_83_1_OspV=1, x_1_190_1_OspV=1]
<DWph=2> <it=  1> <et=59.74> <Mt= 0.00> <Spt= 0.00> <nCl=  0> <DB=   65.0000> <Mlp=   65.0000> <PB=1000000> 
<DWph=1> <it=  2> <et=59.74> <Mt= 0.00> <Spt= 0.00> <nCl=  0> <DB=   65.0000> <Mlp=   65.0000> <PB=1000000> 
---- Diving heuristic node with dive number = 0, fix depth = 0 and tabu list size = 0
Fixed projected solution = [x_1_0_1_OspV=1, x_1_25_1_OspV=1, x_1_89_1_OspV=1, x_1_185_1_OspV=1]
<DWph=2> <it=  1> <et=59.82> <Mt= 0.00> <Spt= 0.00> <nCl=  0> <DB=   65.0000> <Mlp=   65.0000> <PB=1000000> 
<DWph=1> <it=  2> <et=59.82> <Mt= 0.00> <Spt= 0.00> <nCl=  0> <DB=   65.0000> <Mlp=   65.0000> <PB=1000000> 
---- Diving heuristic node with dive number = 0, fix depth = 0 and tabu list size = 0
Fixed projected solution = [x_1_0_1_OspV=1, x_1_45_1_OspV=1, x_1_106_1_OspV=1, x_1_169_1_OspV=1]
<DWph=2> <it=  1> <et=59.89> <Mt= 0.01> <Spt= 0.00> <nCl=  0> <DB=   65.0000> <Mlp=   65.0000> <PB=1000000> 
<DWph=1> <it=  2> <et=59.89> <Mt= 0.00> <Spt= 0.00> <nCl=  0> <DB=   65.0000> <Mlp=   65.0000> <PB=1000000> 
---- Diving heuristic node with dive number = 0, fix depth = 0 and tabu list size = 0
Fixed projected solution = [x_1_0_1_OspV=1, x_1_26_1_OspV=1, x_1_90_1_OspV=1, x_1_184_1_OspV=1]
<DWph=2> <it=  1> <et=59.97> <Mt= 0.00> <Spt= 0.00> <nCl=  0> <DB=   65.0000> <Mlp=   65.0000> <PB=1000000> 
<DWph=1> <it=  2> <et=59.97> <Mt= 0.00> <Spt= 0.00> <nCl=  0> <DB=   65.0000> <Mlp=   65.0000> <PB=1000000> 
---- Diving heuristic node with dive number = 0, fix depth = 0 and tabu list size = 0
Fixed projected solution = [x_1_0_1_OspV=1, x_1_41_1_OspV=1, x_1_102_1_OspV=1, x_1_172_1_OspV=1]
<DWph=2> <it=  1> <et=60.05> <Mt= 0.00> <Spt= 0.00> <nCl=  0> <DB=   65.0000> <Mlp=   65.0000> <PB=1000000> 
<DWph=1> <it=  2> <et=60.05> <Mt= 0.00> <Spt= 0.00> <nCl=  0> <DB=   65.0000> <Mlp=   65.0000> <PB=1000000> 
---- Diving heuristic node with dive number = 0, fix depth = 1 and tabu list size = 0
Fixed projected solution = [x_1_0_1_OspV=1, x_1_64_1_OspV=1, x_1_128_1_OspV=1, x_1_147_1_OspV=1]
<DWph=2> <it= 10> <et=62.31> <Mt= 0.17> <Spt= 2.03> <nCl=1000> <DB=   64.6256> <Mlp=   65.0004> <PB=1000000> 
<DWph=2> <it= 20> <et=64.40> <Mt= 0.08> <Spt= 2.00> <nCl=1000> <DB=   64.8847> <Mlp=   65.0004> <PB=1000000> 
<DWph=2> <it= 30> <et=66.52> <Mt= 0.13> <Spt= 1.97> <nCl=1000> <DB=   64.9737> <Mlp=   65.0002> <PB=1000000> 
<DWph=2> <it= 40> <et=68.58> <Mt= 0.09> <Spt= 1.95> <nCl=1000> <DB=   64.9960> <Mlp=   65.0001> <PB=1000000> 
<DWph=2> <it= 49> <et=70.18> <Mt= 0.04> <Spt= 1.57> <nCl=800> <DB=   64.9992> <Mlp=   65.0000> <PB=1000000> 
---- Diving heuristic node with dive number = 0, fix depth = 2 and tabu list size = 0
Fixed projected solution = [x_1_0_1_OspV=1, x_1_54_1_OspV=1, x_1_126_1_OspV=1, x_1_152_1_OspV=1]
<DWph=2> <it=  1> <et=70.27> <Mt= 0.00> <Spt= 0.00> <nCl=  0> <DB=   65.0000> <Mlp=   65.0000> <PB=1000000> 
<DWph=1> <it=  2> <et=70.27> <Mt= 0.00> <Spt= 0.00> <nCl=  0> <DB=   65.0000> <Mlp=   65.0000> <PB=1000000> 
---- Diving heuristic node with dive number = 0, fix depth = 2 and tabu list size = 0
Fixed projected solution = [x_1_0_1_OspV=1, x_1_60_1_OspV=1, x_1_121_1_OspV=1, x_1_154_1_OspV=1]
<DWph=2> <it=  1> <et=70.29> <Mt= 0.00> <Spt= 0.00> <nCl=  0> <DB=   65.0000> <Mlp=   65.0000> <PB=1000000> 
<DWph=1> <it=  2> <et=70.29> <Mt= 0.01> <Spt= 0.00> <nCl=  0> <DB=   65.0000> <Mlp=   65.0000> <PB=1000000> 
---- Diving heuristic node with dive number = 0, fix depth = 3 and tabu list size = 0
Fixed projected solution = [x_1_0_1_OspV=1, x_1_8_1_OspV=1, x_1_72_1_OspV=1, x_1_200_1_OspV=1]
<DWph=2> <it=  1> <et=70.30> <Mt= 0.00> <Spt= 0.00> <nCl=  0> <DB=   65.0000> <Mlp=   65.0000> <PB=1000000> 
<DWph=1> <it=  2> <et=70.30> <Mt= 0.00> <Spt= 0.00> <nCl=  0> <DB=   65.0000> <Mlp=   65.0000> <PB=1000000> 
---- Diving heuristic node with dive number = 0, fix depth = 3 and tabu list size = 0
Fixed projected solution = [x_1_0_1_OspV=1, x_1_53_1_OspV=1, x_1_116_1_OspV=1, x_1_161_1_OspV=1]
<DWph=2> <it=  1> <et=70.31> <Mt= 0.00> <Spt= 0.00> <nCl=  0> <DB=   65.0000> <Mlp=   65.0000> <PB=1000000> 
<DWph=1> <it=  2> <et=70.31> <Mt= 0.00> <Spt= 0.00> <nCl=  0> <DB=   65.0000> <Mlp=   65.0000> <PB=1000000> 
---- Diving heuristic node with dive number = 0, fix depth = 4 and tabu list size = 0
Fixed projected solution = [x_1_0_1_OspV=1, x_1_20_1_OspV=1, x_1_85_1_OspV=1, x_1_189_1_OspV=1]
<DWph=2> <it=  1> <et=70.32> <Mt= 0.01> <Spt= 0.00> <nCl=  0> <DB=   65.0000> <Mlp=   65.0000> <PB=1000000> 
<DWph=1> <it=  2> <et=70.32> <Mt= 0.00> <Spt= 0.00> <nCl=  0> <DB=   65.0000> <Mlp=   65.0000> <PB=1000000> 
---- Diving heuristic node with dive number = 0, fix depth = 4 and tabu list size = 0
Fixed projected solution = [x_1_0_1_OspV=1, x_1_18_1_OspV=1, x_1_138_1_OspV=1, x_1_142_1_OspV=1]
<DWph=2> <it=  1> <et=70.34> <Mt= 0.00> <Spt= 0.00> <nCl=  0> <DB=   65.0000> <Mlp=   65.0000> <PB=1000000> 
<DWph=1> <it=  2> <et=70.34> <Mt= 0.00> <Spt= 0.00> <nCl=  0> <DB=   65.0000> <Mlp=   65.0000> <PB=1000000> 
---- Diving heuristic node with dive number = 0, fix depth = 5 and tabu list size = 0
Fixed projected solution = [x_1_0_1_OspV=1, x_1_44_1_OspV=1, x_1_105_1_OspV=1, x_1_170_1_OspV=1]
<DWph=2> <it= 10> <et=72.02> <Mt= 0.11> <Spt= 1.56> <nCl=1000> <DB=-1151736.3556> <Mlp=20338.9839> <PB=1000000> 
<DWph=2> <it= 20> <et=73.67> <Mt= 0.04> <Spt= 1.59> <nCl=1000> <DB=   64.9882> <Mlp=   65.0040> <PB=1000000> 
<DWph=2> <it= 30> <et=75.63> <Mt= 0.04> <Spt= 1.92> <nCl=1000> <DB=   64.9970> <Mlp=   65.0016> <PB=1000000> 
<DWph=2> <it= 31> <et=75.64> <Mt= 0.00> <Spt= 0.00> <nCl=  0> <DB=   64.9970> <Mlp=   65.0000> <PB=1000000> 
<DWph=1> <it= 32> <et=75.64> <Mt= 0.00> <Spt= 0.00> <nCl=  0> <DB=   65.0000> <Mlp=   65.0000> <PB=1000000> 
---- Diving heuristic node with dive number = 0, fix depth = 6 and tabu list size = 0
Fixed projected solution = [x_1_0_1_OspV=1, x_1_14_1_OspV=1, x_1_78_1_OspV=1, x_1_194_1_OspV=1]
<DWph=2> <it=  1> <et=75.66> <Mt= 0.01> <Spt= 0.00> <nCl=  0> <DB=   65.0000> <Mlp=   65.0000> <PB=1000000> 
<DWph=1> <it=  2> <et=75.66> <Mt= 0.00> <Spt= 0.00> <nCl=  0> <DB=   65.0000> <Mlp=   65.0000> <PB=1000000> 
---- Diving heuristic node with dive number = 0, fix depth = 7 and tabu list size = 0
Fixed projected solution = [x_1_0_1_OspV=1, x_1_15_1_OspV=1, x_1_84_1_OspV=1, x_1_191_1_OspV=1]
<DWph=2> <it= 10> <et=77.33> <Mt= 0.05> <Spt= 1.60> <nCl=1000> <DB=-170051.8674> <Mlp=   65.0571> <PB=1000000> 
<DWph=2> <it= 19> <et=78.84> <Mt= 0.04> <Spt= 1.48> <nCl=800> <DB=   64.9788> <Mlp=   65.0000> <PB=1000000> 
---- Diving heuristic node with dive number = 0, fix depth = 8 and tabu list size = 0
Fixed projected solution = [x_1_0_1_OspV=1, x_1_58_1_OspV=1, x_1_133_1_OspV=1, x_1_145_1_OspV=1]
<DWph=2> <it=  9> <et=80.45> <Mt= 0.04> <Spt= 1.51> <nCl=800> <DB=   64.9823> <Mlp=   65.0000> <PB=1000000> 
---- Diving heuristic node with dive number = 0, fix depth = 9 and tabu list size = 0
Fixed projected solution = [x_1_0_1_OspV=1, x_1_61_1_OspV=1, x_1_122_1_OspV=1, x_1_153_1_OspV=1]
<DWph=2> <it=  5> <et=81.22> <Mt= 0.04> <Spt= 0.71> <nCl=400> <DB=   64.9752> <Mlp=   65.0000> <PB=1000000> 
<DWph=1> <it=  6> <et=81.22> <Mt= 0.01> <Spt= 0.00> <nCl=  0> <DB=   65.0000> <Mlp=   65.0000> <PB=1000000> 
---- Diving heuristic node with dive number = 0, fix depth = 10 and tabu list size = 0
Fixed projected solution = [x_1_0_1_OspV=1, x_1_13_1_OspV=1, x_1_19_1_OspV=1, x_1_81_1_OspV=1, x_1_96_1_OspV=1, x_1_160_1_OspV=1]
<DWph=2> <it= 10> <et=82.94> <Mt= 0.06> <Spt= 1.63> <nCl=1000> <DB=-166457.6388> <Mlp=   65.0954> <PB=1000000> 
<DWph=2> <it= 20> <et=84.91> <Mt= 0.03> <Spt= 1.94> <nCl=858> <DB=   63.7019> <Mlp=   65.0174> <PB=1000000> 
<DWph=2> <it= 30> <et=87.08> <Mt= 0.03> <Spt= 2.09> <nCl=507> <DB=   64.2004> <Mlp=   65.0047> <PB=1000000> 
<DWph=2> <it= 40> <et=89.37> <Mt= 0.02> <Spt= 2.26> <nCl=143> <DB=   65.0030> <Mlp=   65.0030> <PB=1000000> 
<DWph=1> <it= 41> <et=89.83> <Mt= 0.01> <Spt= 0.46> <nCl=  0> <DB=   65.0030> <Mlp=   65.0030> <PB=1000000> 
---- Diving heuristic node with dive number = 0, fix depth = 11 and tabu list size = 0
Fixed projected solution = [x_1_0_1_OspV=1, x_1_2_1_OspV=1, x_1_31_1_OspV=1, x_1_129_1_OspV=1, x_1_151_1_OspV=1]
<DWph=2> <it=  9> <et=91.94> <Mt= 0.03> <Spt= 2.04> <nCl=685> <DB=   65.0058> <Mlp=   65.0058> <PB=1000000> 
<DWph=1> <it= 10> <et=92.25> <Mt= 0.00> <Spt= 0.31> <nCl=  0> <DB=   65.0058> <Mlp=   65.0058> <PB=1000000> 
---- Diving heuristic node with dive number = 0, fix depth = 12 and tabu list size = 0
Fixed projected solution = [x_1_0_1_OspV=1, x_1_3_1_OspV=1, x_1_42_1_OspV=1, x_1_82_1_OspV=1, x_1_109_1_OspV=1, x_1_132_1_OspV=1]
<DWph=2> <it= 10> <et=93.86> <Mt= 0.06> <Spt= 1.53> <nCl=1000> <DB=-31845877.3604> <Mlp=   65.3333> <PB=1000000> 
<DWph=2> <it= 20> <et=96.04> <Mt= 0.02> <Spt= 2.15> <nCl=540> <DB=   64.4941> <Mlp=   65.3333> <PB=1000000> 
<DWph=2> <it= 21> <et=96.50> <Mt= 0.01> <Spt= 0.46> <nCl=  0> <DB=   65.3333> <Mlp=   65.3333> <PB=1000000> 
<DWph=1> <it= 22> <et=96.81> <Mt= 0.00> <Spt= 0.31> <nCl=  0> <DB=   65.3333> <Mlp=   65.3333> <PB=1000000> 
---- Restricted Master IP Heuristic started ----
---- Diving heuristic node with dive number = 1, fix depth = 2 and tabu list size = 1
Fixed projected solution = [x_1_0_1_OspV=1, x_1_8_1_OspV=1, x_1_72_1_OspV=1, x_1_200_1_OspV=1]
<DWph=2> <it=  1> <et=97.29> <Mt= 0.00> <Spt= 0.00> <nCl=  0> <DB=   65.0000> <Mlp=   65.0000> <PB=1000000> 
<DWph=1> <it=  2> <et=97.29> <Mt= 0.00> <Spt= 0.00> <nCl=  0> <DB=   65.0000> <Mlp=   65.0000> <PB=1000000> 
---- Diving heuristic node with dive number = 1, fix depth = 2 and tabu list size = 1
Fixed projected solution = [x_1_0_1_OspV=1, x_1_54_1_OspV=1, x_1_126_1_OspV=1, x_1_152_1_OspV=1]
<DWph=2> <it=  1> <et=97.31> <Mt= 0.01> <Spt= 0.00> <nCl=  0> <DB=   65.0000> <Mlp=   65.0000> <PB=1000000> 
<DWph=1> <it=  2> <et=97.31> <Mt= 0.00> <Spt= 0.00> <nCl=  0> <DB=   65.0000> <Mlp=   65.0000> <PB=1000000> 
---- Diving heuristic node with dive number = 1, fix depth = 2 and tabu list size = 1
Fixed projected solution = [x_1_0_1_OspV=1, x_1_53_1_OspV=1, x_1_116_1_OspV=1, x_1_161_1_OspV=1]
<DWph=2> <it=  1> <et=97.33> <Mt= 0.00> <Spt= 0.00> <nCl=  0> <DB=   65.0000> <Mlp=   65.0000> <PB=1000000> 
<DWph=1> <it=  2> <et=97.33> <Mt= 0.00> <Spt= 0.00> <nCl=  0> <DB=   65.0000> <Mlp=   65.0000> <PB=1000000> 
---- Diving heuristic node with dive number = 1, fix depth = 2 and tabu list size = 1
Fixed projected solution = [x_1_0_1_OspV=1, x_1_60_1_OspV=1, x_1_121_1_OspV=1, x_1_154_1_OspV=1]
<DWph=2> <it=  1> <et=97.35> <Mt= 0.00> <Spt= 0.00> <nCl=  0> <DB=   65.0000> <Mlp=   65.0000> <PB=1000000> 
<DWph=1> <it=  2> <et=97.35> <Mt= 0.00> <Spt= 0.00> <nCl=  0> <DB=   65.0000> <Mlp=   65.0000> <PB=1000000> 
---- Diving heuristic node with dive number = 1, fix depth = 3 and tabu list size = 1
Fixed projected solution = [x_1_0_1_OspV=1, x_1_20_1_OspV=1, x_1_85_1_OspV=1, x_1_189_1_OspV=1]
<DWph=2> <it=  1> <et=97.37> <Mt= 0.01> <Spt= 0.00> <nCl=  0> <DB=   65.0000> <Mlp=   65.0000> <PB=1000000> 
<DWph=1> <it=  2> <et=97.37> <Mt= 0.00> <Spt= 0.00> <nCl=  0> <DB=   65.0000> <Mlp=   65.0000> <PB=1000000> 
---- Diving heuristic node with dive number = 1, fix depth = 3 and tabu list size = 1
Fixed projected solution = [x_1_0_1_OspV=1, x_1_18_1_OspV=1, x_1_138_1_OspV=1, x_1_142_1_OspV=1]
<DWph=2> <it=  1> <et=97.38> <Mt= 0.00> <Spt= 0.00> <nCl=  0> <DB=   65.0000> <Mlp=   65.0000> <PB=1000000> 
<DWph=1> <it=  2> <et=97.39> <Mt= 0.00> <Spt= 0.00> <nCl=  0> <DB=   65.0000> <Mlp=   65.0000> <PB=1000000> 
---- Diving heuristic node with dive number = 1, fix depth = 4 and tabu list size = 1
Fixed projected solution = [x_1_0_1_OspV=1, x_1_44_1_OspV=1, x_1_105_1_OspV=1, x_1_170_1_OspV=1]
<DWph=2> <it= 10> <et=99.26> <Mt= 0.12> <Spt= 1.74> <nCl=1000> <DB=-561183.5707> <Mlp=194870.2123> <PB=1000000> 
<DWph=2> <it= 20> <et=101.40> <Mt= 0.05> <Spt= 1.98> <nCl=1000> <DB=-258704.5033> <Mlp=   65.0032> <PB=1000000> 
<DWph=2> <it= 30> <et=103.47> <Mt= 0.04> <Spt= 2.03> <nCl=1000> <DB=-172447.8877> <Mlp=   65.0032> <PB=1000000> 
<DWph=2> <it= 40> <et=105.51> <Mt= 0.04> <Spt= 2.00> <nCl=1000> <DB=   64.9674> <Mlp=   65.0019> <PB=1000000> 
<DWph=2> <it= 50> <et=107.73> <Mt= 0.04> <Spt= 2.14> <nCl=1000> <DB=   64.9986> <Mlp=   65.0006> <PB=1000000> 
<DWph=2> <it= 52> <et=107.95> <Mt= 0.01> <Spt= 0.22> <nCl=100> <DB=   64.9986> <Mlp=   65.0000> <PB=1000000> 
<DWph=1> <it= 53> <et=107.95> <Mt= 0.00> <Spt= 0.00> <nCl=  0> <DB=   65.0000> <Mlp=   65.0000> <PB=1000000> 
---- Diving heuristic node with dive number = 1, fix depth = 5 and tabu list size = 1
Fixed projected solution = [x_1_0_1_OspV=1, x_1_14_1_OspV=1, x_1_78_1_OspV=1, x_1_194_1_OspV=1]
<DWph=2> <it=  1> <et=107.97> <Mt= 0.01> <Spt= 0.00> <nCl=  0> <DB=   65.0000> <Mlp=   65.0000> <PB=1000000> 
<DWph=1> <it=  2> <et=107.97> <Mt= 0.00> <Spt= 0.00> <nCl=  0> <DB=   65.0000> <Mlp=   65.0000> <PB=1000000> 
---- Diving heuristic node with dive number = 1, fix depth = 6 and tabu list size = 1
Fixed projected solution = [x_1_0_1_OspV=1, x_1_15_1_OspV=1, x_1_84_1_OspV=1, x_1_191_1_OspV=1]
<DWph=2> <it= 10> <et=109.95> <Mt= 0.06> <Spt= 1.89> <nCl=1000> <DB=   64.9796> <Mlp=   65.0268> <PB=1000000> 
<DWph=2> <it= 13> <et=110.40> <Mt= 0.02> <Spt= 0.43> <nCl=200> <DB=   64.9592> <Mlp=   65.0000> <PB=1000000> 
<DWph=1> <it= 14> <et=110.40> <Mt= 0.00> <Spt= 0.00> <nCl=  0> <DB=   65.0000> <Mlp=   65.0000> <PB=1000000> 
---- Diving heuristic node with dive number = 1, fix depth = 7 and tabu list size = 1
Fixed projected solution = [x_1_0_1_OspV=1, x_1_58_1_OspV=1, x_1_133_1_OspV=1, x_1_145_1_OspV=1]
<DWph=2> <it=  4> <et=111.09> <Mt= 0.03> <Spt= 0.65> <nCl=300> <DB=   64.9923> <Mlp=   65.0000> <PB=1000000> 
<DWph=1> <it=  5> <et=111.10> <Mt= 0.00> <Spt= 0.00> <nCl=  0> <DB=   65.0000> <Mlp=   65.0000> <PB=1000000> 
---- Diving heuristic node with dive number = 1, fix depth = 8 and tabu list size = 1
Fixed projected solution = [x_1_0_1_OspV=1, x_1_61_1_OspV=1, x_1_122_1_OspV=1, x_1_153_1_OspV=1]
<DWph=2> <it=  9> <et=112.82> <Mt= 0.06> <Spt= 1.65> <nCl=800> <DB=   64.9875> <Mlp=   65.0000> <PB=1000000> 
---- Diving heuristic node with dive number = 1, fix depth = 9 and tabu list size = 1
Fixed projected solution = [x_1_0_1_OspV=1, x_1_2_1_OspV=1, x_1_3_1_OspV=1, x_1_19_1_OspV=1, x_1_129_1_OspV=1, x_1_151_1_OspV=1]
<DWph=2> <it= 10> <et=114.92> <Mt= 0.07> <Spt= 1.96> <nCl=1000> <DB=   64.9960> <Mlp=   65.0428> <PB=1000000> 
