Application parameters:
  batch  =>  nothing
  instance  =>  "/IN/201_2500_DI_35.txt-Q2Half"
  ub  =>  1.0e6
  cfg  =>  "/CFG/BPP.cfg"
data = Colored Bin Packing dataset.
number of items = 202
number of colors = 2
capacity = 2400
Items : 
	 item 1, weight= 16, color= 0
	 item 2, weight= 16, color= 0
	 item 3, weight= 24, color= 0
	 item 4, weight= 32, color= 0
	 item 5, weight= 32, color= 0
	 item 6, weight= 32, color= 0
	 item 7, weight= 40, color= 0
	 item 8, weight= 40, color= 0
	 item 9, weight= 44, color= 0
	 item 10, weight= 44, color= 0
	 item 11, weight= 48, color= 0
	 item 12, weight= 48, color= 0
	 item 13, weight= 48, color= 0
	 item 14, weight= 50, color= 0
	 item 15, weight= 52, color= 0
	 item 16, weight= 56, color= 0
	 item 17, weight= 56, color= 0
	 item 18, weight= 56, color= 0
	 item 19, weight= 58, color= 0
	 item 20, weight= 58, color= 0
	 item 21, weight= 60, color= 0
	 item 22, weight= 64, color= 0
	 item 23, weight= 64, color= 0
	 item 24, weight= 64, color= 0
	 item 25, weight= 64, color= 0
	 item 26, weight= 68, color= 0
	 item 27, weight= 72, color= 0
	 item 28, weight= 72, color= 0
	 item 29, weight= 76, color= 0
	 item 30, weight= 78, color= 0
	 item 31, weight= 80, color= 0
	 item 32, weight= 84, color= 0
	 item 33, weight= 84, color= 0
	 item 34, weight= 86, color= 0
	 item 35, weight= 86, color= 0
	 item 36, weight= 90, color= 0
	 item 37, weight= 92, color= 0
	 item 38, weight= 96, color= 0
	 item 39, weight= 98, color= 0
	 item 40, weight= 100, color= 0
	 item 41, weight= 106, color= 0
	 item 42, weight= 108, color= 0
	 item 43, weight= 108, color= 0
	 item 44, weight= 112, color= 0
	 item 45, weight= 120, color= 0
	 item 46, weight= 120, color= 0
	 item 47, weight= 122, color= 0
	 item 48, weight= 122, color= 0
	 item 49, weight= 126, color= 0
	 item 50, weight= 132, color= 0
	 item 51, weight= 136, color= 0
	 item 52, weight= 140, color= 0
	 item 53, weight= 142, color= 0
	 item 54, weight= 142, color= 0
	 item 55, weight= 144, color= 0
	 item 56, weight= 146, color= 0
	 item 57, weight= 160, color= 0
	 item 58, weight= 160, color= 0
	 item 59, weight= 164, color= 0
	 item 60, weight= 166, color= 0
	 item 61, weight= 166, color= 0
	 item 62, weight= 168, color= 0
	 item 63, weight= 172, color= 0
	 item 64, weight= 174, color= 0
	 item 65, weight= 192, color= 0
	 item 66, weight= 192, color= 1
	 item 67, weight= 196, color= 0
	 item 68, weight= 196, color= 0
	 item 69, weight= 198, color= 0
	 item 70, weight= 198, color= 0
	 item 71, weight= 206, color= 1
	 item 72, weight= 226, color= 1
	 item 73, weight= 238, color= 1
	 item 74, weight= 242, color= 1
	 item 75, weight= 249, color= 1
	 item 76, weight= 252, color= 1
	 item 77, weight= 255, color= 1
	 item 78, weight= 262, color= 1
	 item 79, weight= 269, color= 1
	 item 80, weight= 283, color= 1
	 item 81, weight= 287, color= 1
	 item 82, weight= 293, color= 1
	 item 83, weight= 296, color= 1
	 item 84, weight= 298, color= 1
	 item 85, weight= 301, color= 1
	 item 86, weight= 302, color= 1
	 item 87, weight= 329, color= 1
	 item 88, weight= 331, color= 1
	 item 89, weight= 332, color= 1
	 item 90, weight= 338, color= 1
	 item 91, weight= 350, color= 1
	 item 92, weight= 356, color= 1
	 item 93, weight= 365, color= 1
	 item 94, weight= 367, color= 1
	 item 95, weight= 382, color= 1
	 item 96, weight= 387, color= 1
	 item 97, weight= 401, color= 1
	 item 98, weight= 406, color= 1
	 item 99, weight= 427, color= 1
	 item 100, weight= 433, color= 1
	 item 101, weight= 434, color= 1
	 item 102, weight= 441, color= 1
	 item 103, weight= 453, color= 1
	 item 104, weight= 460, color= 0
	 item 105, weight= 466, color= 1
	 item 106, weight= 491, color= 1
	 item 107, weight= 497, color= 1
	 item 108, weight= 506, color= 1
	 item 109, weight= 533, color= 1
	 item 110, weight= 549, color= 1
	 item 111, weight= 554, color= 1
	 item 112, weight= 559, color= 1
	 item 113, weight= 605, color= 1
	 item 114, weight= 610, color= 1
	 item 115, weight= 611, color= 1
	 item 116, weight= 619, color= 1
	 item 117, weight= 631, color= 1
	 item 118, weight= 678, color= 1
	 item 119, weight= 705, color= 1
	 item 120, weight= 711, color= 1
	 item 121, weight= 719, color= 1
	 item 122, weight= 731, color= 1
	 item 123, weight= 790, color= 1
	 item 124, weight= 802, color= 1
	 item 125, weight= 822, color= 1
	 item 126, weight= 825, color= 1
	 item 127, weight= 835, color= 1
	 item 128, weight= 839, color= 1
	 item 129, weight= 842, color= 1
	 item 130, weight= 863, color= 1
	 item 131, weight= 888, color= 1
	 item 132, weight= 974, color= 1
	 item 133, weight= 983, color= 1
	 item 134, weight= 993, color= 1
	 item 135, weight= 997, color= 1
	 item 136, weight= 1002, color= 1
	 item 137, weight= 1025, color= 1
	 item 138, weight= 1052, color= 1
	 item 139, weight= 1188, color= 1
	 item 140, weight= 1201, color= 1
	 item 141, weight= 1202, color= 1
	 item 142, weight= 1205, color= 1
	 item 143, weight= 1209, color= 1
	 item 144, weight= 1221, color= 1
	 item 145, weight= 1234, color= 1
	 item 146, weight= 1365, color= 1
	 item 147, weight= 1390, color= 1
	 item 148, weight= 1395, color= 1
	 item 149, weight= 1399, color= 1
	 item 150, weight= 1411, color= 1
	 item 151, weight= 1418, color= 1
	 item 152, weight= 1438, color= 1
	 item 153, weight= 1523, color= 1
	 item 154, weight= 1539, color= 1
	 item 155, weight= 1547, color= 1
	 item 156, weight= 1555, color= 1
	 item 157, weight= 1570, color= 1
	 item 158, weight= 1590, color= 1
	 item 159, weight= 1643, color= 1
	 item 160, weight= 1659, color= 1
	 item 161, weight= 1667, color= 1
	 item 162, weight= 1670, color= 1
	 item 163, weight= 1675, color= 1
	 item 164, weight= 1738, color= 1
	 item 165, weight= 1743, color= 1
	 item 166, weight= 1761, color= 1
	 item 167, weight= 1777, color= 1
	 item 168, weight= 1794, color= 1
	 item 169, weight= 1805, color= 1
	 item 170, weight= 1813, color= 1
	 item 171, weight= 1842, color= 1
	 item 172, weight= 1857, color= 1
	 item 173, weight= 1873, color= 1
	 item 174, weight= 1881, color= 1
	 item 175, weight= 1882, color= 1
	 item 176, weight= 1889, color= 1
	 item 177, weight= 1914, color= 1
	 item 178, weight= 1920, color= 1
	 item 179, weight= 1921, color= 1
	 item 180, weight= 1937, color= 1
	 item 181, weight= 1958, color= 1
	 item 182, weight= 1961, color= 1
	 item 183, weight= 1963, color= 1
	 item 184, weight= 1982, color= 1
	 item 185, weight= 1998, color= 1
	 item 186, weight= 2005, color= 1
	 item 187, weight= 2007, color= 1
	 item 188, weight= 2041, color= 1
	 item 189, weight= 2042, color= 1
	 item 190, weight= 2049, color= 1
	 item 191, weight= 2057, color= 1
	 item 192, weight= 2061, color= 1
	 item 193, weight= 2070, color= 1
	 item 194, weight= 2079, color= 1
	 item 195, weight= 2090, color= 1
	 item 196, weight= 2095, color= 1
	 item 197, weight= 2103, color= 1
	 item 198, weight= 2110, color= 1
	 item 199, weight= 2124, color= 1
	 item 200, weight= 2130, color= 1
	 item 201, weight= 2146, color= 1
	 item 202, weight= 2154, color= 1

VRPSolver warning: Interval set for resource 1 on source node (when source != sink) is ignored (by definition is [0.0,0.0])
[41m solve [00m
~~~~~~~~~~~~~~~~~~~~~~~~~~~~~~~~~~~~~~~~~~~~~~~~~~~~~~~~~~~~~~~~~~~~~~~~~~~~~~
VRPSolver v0.4.1, 24/03/2021. Web: vrpsolver.math.u-bordeaux.fr
Corresponds to the solver by Pessoa, Sadykov, Uchoa and Vanderbeck (2020)
Paper: dx.doi.org/10.1007/s10107-020-01523-z
USE THIS CODE ONLY FOR ACADEMIC PURPOSES AT YOUR OWN RISK
~~~~~~~~~~~~~~~~~~~~~~~~~~~~~~~~~~~~~~~~~~~~~~~~~~~~~~~~~~~~~~~~~~~~~~~~~~~~~~
BaPCod v053, 24/03/2021, © Inria Bordeaux, France
~~~~~~~~~~~~~~~~~~~~~~~~~~~~~~~~~~~~~~~~~~~~~~~~~~~~~~~~~~~~~~~~~~~~~~~~~~~~~~
VRPSolver parameters:
GlobalTimeLimit = 1800
MaxNbOfBBtreeNodeTreated = 100000
treeSearchStrategy = 1
RCSPstopCutGenTimeThresholdInPricing = 10
RCSPhardTimeThresholdInPricing = 20
RCSPnumberOfBucketsPerVertex = 2000
RCSPdynamicBucketSteps = 0
RCSPuseBidirectionalSearch = 1
RCSPapplyReducedCostFixing = 1
RCSPredCostFixingFalseGap = 0
RCSPmaxNumOfColsPerIteration = 100
RCSPmaxNumOfColsPerExactIteration = 100
RCSPheurLabelingStrategy = 4
StabilizationMinPhaseOfStage = 1
RCSPmaxNumOfLabelsInEnumeration = 100000
RCSPmaxNumOfEnumeratedSolutions = 1000000
RCSPmaxNumOfEnumSolutionsForMIP = 100000
RCSPinitNGneighbourhoodSize = 0
RCSPmaxNGneighbourhoodSize = 0
RCSPrankOneCutsMaxNumPerRound = 100
RCSPrankOneCutsMaxNumRows = -1
RCSPrankOneCutsMemoryType = 2
CutTailingOffThreshold = 0.02
CutTailingOffCounterThreshold = 3
SafeDualBoundScaleFactor = -1
StrongBranchingPhaseOneCandidatesNumber = 100
StrongBranchingPhaseOneTreeSizeEstimRatio = 0.3
StrongBranchingPhaseTwoCandidatesNumber = 1
StrongBranchingPhaseTwoTreeSizeEstimRatio = 0.1
MaxTimeForRestrictedMasterIpHeur = -1
DivingHeurUseDepthLimit = 0
MaxLDSbreadth = 3
MaxLDSdepth = 2
New model incumbent solution 1e+06, TIME = 0h0m0s3t = 3
Model is built TIME = 0h0m1s86t = 186
************************************************************************************************
**** BaB tree root node
**** Local DB = -1e+12, global bounds : [ -1e+12 , 1e+06 ], TIME = 0h0m1s86t = 186
**** 1 open nodes, 0 columns (0 active), 0 dyn. constrs. (0 active), 406 art. vars. (406 active)
************************************************************************************************
<DWph=2> <it= 10> <et=3.41> <Mt= 0.00> <Spt= 1.53> <nCl=1000> <DB=-3544640830.3460> <Mlp=220264240.7339> <PB=1000000> 
<DWph=2> <it= 20> <et=4.95> <Mt= 0.02> <Spt= 1.52> <nCl=1000> <DB=-2790399051.4491> <Mlp=192815191.2953> <PB=1000000> 
<DWph=2> <it= 30> <et=6.41> <Mt= 0.03> <Spt= 1.43> <nCl=1000> <DB=-2029505394.7371> <Mlp=166452298.9139> <PB=1000000> 
<DWph=2> <it= 40> <et=7.85> <Mt= 0.07> <Spt= 1.38> <nCl=1000> <DB=-1559538083.3377> <Mlp=133213564.2792> <PB=1000000> 
<DWph=2> <it= 50> <et=9.24> <Mt= 0.12> <Spt= 1.26> <nCl=1000> <DB=-1238922408.8428> <Mlp=101719199.1924> <PB=1000000> 
<DWph=2> <it= 60> <et=10.59> <Mt= 0.16> <Spt= 1.19> <nCl=1000> <DB=-350474373.1985> <Mlp=87094641.9535> <PB=1000000> 
<DWph=2> <it= 70> <et=12.01> <Mt= 0.22> <Spt= 1.20> <nCl=1000> <DB=-307412004.5468> <Mlp=78033725.1441> <PB=1000000> 
<DWph=2> <it= 80> <et=13.39> <Mt= 0.19> <Spt= 1.19> <nCl=1000> <DB=-171880242.0520> <Mlp=70960020.6954> <PB=1000000> 
<DWph=2> <it= 90> <et=14.81> <Mt= 0.24> <Spt= 1.17> <nCl=1000> <DB=-193892621.1382> <Mlp=65441267.2840> <PB=1000000> 
<DWph=2> <it=100> <et=16.19> <Mt= 0.22> <Spt= 1.16> <nCl=1000> <DB=-173144458.5366> <Mlp=58496026.6675> <PB=1000000> 
<DWph=2> <it=110> <et=17.55> <Mt= 0.17> <Spt= 1.13> <nCl=1000> <DB=-174154203.8578> <Mlp=47048688.7878> <PB=1000000> 
<DWph=2> <it=120> <et=18.86> <Mt= 0.16> <Spt= 1.15> <nCl=1000> <DB=-172381569.2800> <Mlp=38073818.8122> <PB=1000000> 
<DWph=2> <it=130> <et=21.17> <Mt= 0.20> <Spt= 2.11> <nCl=998> <DB=   25.6408> <Mlp=   68.6878> <PB=1000000> 
<DWph=2> <it=140> <et=22.73> <Mt= 0.28> <Spt= 1.24> <nCl=1000> <DB=   45.0729> <Mlp=   66.0090> <PB=1000000> 
<DWph=2> <it=150> <et=24.28> <Mt= 0.23> <Spt= 1.31> <nCl=770> <DB=   63.3739> <Mlp=   65.0521> <PB=1000000> 
<DWph=2> <it=160> <et=25.91> <Mt= 0.16> <Spt= 1.46> <nCl=947> <DB=   64.7762> <Mlp=   65.0061> <PB=1000000> 
<DWph=2> <it=170> <et=27.50> <Mt= 0.11> <Spt= 1.48> <nCl=588> <DB=   64.9716> <Mlp=   65.0014> <PB=1000000> 
<DWph=2> <it=180> <et=29.28> <Mt= 0.05> <Spt= 1.72> <nCl=253> <DB=   64.9865> <Mlp=   65.0013> <PB=1000000> 
<DWph=2> <it=182> <et=29.86> <Mt= 0.01> <Spt= 0.57> <nCl=  2> <DB=   65.0013> <Mlp=   65.0013> <PB=1000000> 
<DWph=1> <it=190> <et=31.33> <Mt= 0.08> <Spt= 1.34> <nCl=796> <DB=   64.9798> <Mlp=   65.0001> <PB=1000000> 
<DWph=1> <it=197> <et=32.91> <Mt= 0.07> <Spt= 1.51> <nCl=581> <DB=   65.0000> <Mlp=   65.0000> <PB=65> 
<DWph=0> <it=198> <et=33.07> <Mt= 0.00> <Spt= 0.16> <nCl=  0> <DB=   65.0000> <Mlp=   65.0000> <PB=65> 
ColGenEvalAlg final dual bound: 65 (rounded: 65)
New model incumbent solution 65, TIME = 0h0m33s13t = 3313
************************************************************************************************
Search is finished, global bounds : [ 65 , 65 ], TIME = 0h0m33s13t = 3313
************************************************************************************************
[32mBaPCod : solution defined.[00m
statistics_cols: instance & :Optimal & cutoff & :bcRecRootDb & :bcTimeRootEval & :bcCountNodeProc & :bcRecBestDb & :bcRecBestInc & :bcTimeMain \\
statistics: 201_2500_DI_35 & 1 & 1.0e6 & 65.00 & 33.13 & 1 & 65.00 & 65 & 33.13 \\
########################################################
bin_id=1: 160(0) 822(1) 1418(1) 
bin_id=2: 108(0) 554(1) 1738(1) 
bin_id=3: 198(0) 997(1) 1205(1) 
bin_id=4: 196(0) 983(1) 1221(1) 
bin_id=5: 32(0) 298(1) 2070(1) 
bin_id=6: 56(0) 287(1) 2057(1) 
bin_id=7: 174(0) 1025(1) 1201(1) 
bin_id=8: 64(0) 338(1) 1998(1) 
bin_id=9: 84(0) 427(1) 1889(1) 
bin_id=10: 72(0) 365(1) 1963(1) 
bin_id=11: 168(0) 842(1) 1390(1) 
bin_id=12: 122(0) 611(1) 1667(1) 
bin_id=13: 86(0) 441(1) 1873(1) 
bin_id=14: 64(0) 331(1) 2005(1) 
bin_id=15: 72(0) 367(1) 1961(1) 
bin_id=16: 142(0) 719(1) 1539(1) 
bin_id=17: 80(0) 406(1) 1914(1) 
bin_id=18: 56(0) 302(1) 2042(1) 
bin_id=19: 86(0) 433(1) 1881(1) 
bin_id=20: 120(0) 610(1) 1670(1) 
bin_id=21: 198(0) 993(1) 1209(1) 
bin_id=22: 140(0) 705(1) 1555(1) 
bin_id=23: 164(0) 825(1) 1411(1) 
bin_id=24: 106(0) 533(1) 1761(1) 
bin_id=25: 108(0) 549(1) 1743(1) 
bin_id=26: 126(0) 631(1) 1643(1) 
bin_id=27: 192(0) 974(1) 1234(1) 
bin_id=28: 64(0) 329(1) 2007(1) 
bin_id=29: 166(0) 839(1) 1395(1) 
bin_id=30: 58(0) 301(1) 2041(1) 
bin_id=31: 172(0) 863(1) 1365(1) 
bin_id=32: 120(0) 605(1) 1675(1) 
bin_id=33: 122(0) 619(1) 1659(1) 
bin_id=34: 96(0) 491(1) 1813(1) 
bin_id=35: 78(0) 401(1) 1921(1) 
bin_id=36: 52(0) 269(1) 2079(1) 
bin_id=37: 196(0) 1002(1) 1202(1) 
bin_id=38: 50(0) 255(1) 2095(1) 
bin_id=39: 146(0) 731(1) 1523(1) 
bin_id=40: 58(0) 293(1) 2049(1) 
bin_id=41: 460(0) 888(1) 1052(1) 
bin_id=42: 90(0) 453(1) 1857(1) 
bin_id=43: 24(0) 252(1) 2124(1) 
bin_id=44: 48(0) 249(1) 2103(1) 
bin_id=45: 166(0) 835(1) 1399(1) 
bin_id=46: 48(0) 242(1) 2110(1) 
bin_id=47: 16(0) 238(1) 2146(1) 
bin_id=48: 98(0) 497(1) 1805(1) 
bin_id=49: 40(0) 206(1) 2154(1) 
bin_id=50: 142(0) 711(1) 1547(1) 
bin_id=51: 64(0) 559(1) 1777(1) 
bin_id=52: 56(0) 283(1) 2061(1) 
bin_id=53: 60(0) 382(1) 1958(1) 
bin_id=54: 40(0) 790(1) 1570(1) 
bin_id=55: 92(0) 466(1) 1842(1) 
bin_id=56: 100(0) 506(1) 1794(1) 
bin_id=57: 132(0) 678(1) 1590(1) 
bin_id=58: 44(0) 226(1) 2130(1) 
bin_id=59: 48(0) 76(0) 356(1) 1920(1) 
bin_id=60: 160(0) 802(1) 1438(1) 
bin_id=61: 84(0) 434(1) 1882(1) 
bin_id=62: 68(0) 350(1) 1982(1) 
bin_id=63: 32(0) 44(0) 387(1) 1937(1) 
bin_id=64: 112(0) 136(0) 144(0) 192(1) 296(1) 332(1) 1188(1) 
bin_id=65: 16(0) 32(0) 262(1) 2090(1) 
Objective value: 65.0
########################################################
