Application parameters:
  batch  =>  nothing
  instance  =>  "/IN/201_2500_DI_40.txt-Q2Half"
  ub  =>  1.0e6
  cfg  =>  "/CFG/BPP.cfg"
data = Colored Bin Packing dataset.
number of items = 202
number of colors = 2
capacity = 1916
Items : 
	 item 1, weight= 4, color= 0
	 item 2, weight= 4, color= 0
	 item 3, weight= 16, color= 0
	 item 4, weight= 20, color= 0
	 item 5, weight= 20, color= 0
	 item 6, weight= 32, color= 0
	 item 7, weight= 34, color= 0
	 item 8, weight= 34, color= 0
	 item 9, weight= 34, color= 0
	 item 10, weight= 36, color= 0
	 item 11, weight= 36, color= 0
	 item 12, weight= 38, color= 0
	 item 13, weight= 40, color= 0
	 item 14, weight= 40, color= 0
	 item 15, weight= 40, color= 0
	 item 16, weight= 40, color= 0
	 item 17, weight= 40, color= 0
	 item 18, weight= 42, color= 0
	 item 19, weight= 44, color= 0
	 item 20, weight= 44, color= 0
	 item 21, weight= 44, color= 0
	 item 22, weight= 44, color= 0
	 item 23, weight= 46, color= 0
	 item 24, weight= 46, color= 0
	 item 25, weight= 48, color= 0
	 item 26, weight= 48, color= 0
	 item 27, weight= 50, color= 0
	 item 28, weight= 52, color= 0
	 item 29, weight= 52, color= 0
	 item 30, weight= 52, color= 0
	 item 31, weight= 56, color= 0
	 item 32, weight= 56, color= 0
	 item 33, weight= 58, color= 0
	 item 34, weight= 58, color= 0
	 item 35, weight= 60, color= 0
	 item 36, weight= 60, color= 0
	 item 37, weight= 64, color= 0
	 item 38, weight= 64, color= 0
	 item 39, weight= 66, color= 0
	 item 40, weight= 66, color= 0
	 item 41, weight= 68, color= 0
	 item 42, weight= 70, color= 0
	 item 43, weight= 72, color= 0
	 item 44, weight= 74, color= 0
	 item 45, weight= 76, color= 0
	 item 46, weight= 76, color= 0
	 item 47, weight= 84, color= 0
	 item 48, weight= 84, color= 0
	 item 49, weight= 90, color= 0
	 item 50, weight= 92, color= 0
	 item 51, weight= 96, color= 0
	 item 52, weight= 102, color= 0
	 item 53, weight= 104, color= 0
	 item 54, weight= 110, color= 0
	 item 55, weight= 110, color= 0
	 item 56, weight= 112, color= 0
	 item 57, weight= 116, color= 0
	 item 58, weight= 128, color= 0
	 item 59, weight= 128, color= 0
	 item 60, weight= 130, color= 0
	 item 61, weight= 130, color= 0
	 item 62, weight= 134, color= 0
	 item 63, weight= 136, color= 0
	 item 64, weight= 140, color= 0
	 item 65, weight= 156, color= 0
	 item 66, weight= 156, color= 0
	 item 67, weight= 158, color= 0
	 item 68, weight= 158, color= 0
	 item 69, weight= 158, color= 0
	 item 70, weight= 171, color= 1
	 item 71, weight= 171, color= 1
	 item 72, weight= 173, color= 1
	 item 73, weight= 190, color= 1
	 item 74, weight= 191, color= 1
	 item 75, weight= 194, color= 1
	 item 76, weight= 197, color= 1
	 item 77, weight= 202, color= 1
	 item 78, weight= 204, color= 1
	 item 79, weight= 209, color= 1
	 item 80, weight= 212, color= 0
	 item 81, weight= 216, color= 0
	 item 82, weight= 219, color= 1
	 item 83, weight= 221, color= 1
	 item 84, weight= 221, color= 1
	 item 85, weight= 228, color= 1
	 item 86, weight= 233, color= 1
	 item 87, weight= 234, color= 1
	 item 88, weight= 237, color= 1
	 item 89, weight= 246, color= 1
	 item 90, weight= 251, color= 1
	 item 91, weight= 253, color= 1
	 item 92, weight= 262, color= 1
	 item 93, weight= 271, color= 1
	 item 94, weight= 282, color= 1
	 item 95, weight= 293, color= 1
	 item 96, weight= 298, color= 1
	 item 97, weight= 300, color= 1
	 item 98, weight= 309, color= 1
	 item 99, weight= 318, color= 1
	 item 100, weight= 321, color= 1
	 item 101, weight= 326, color= 1
	 item 102, weight= 335, color= 1
	 item 103, weight= 339, color= 1
	 item 104, weight= 355, color= 1
	 item 105, weight= 362, color= 0
	 item 106, weight= 375, color= 1
	 item 107, weight= 383, color= 1
	 item 108, weight= 394, color= 1
	 item 109, weight= 396, color= 1
	 item 110, weight= 427, color= 1
	 item 111, weight= 433, color= 1
	 item 112, weight= 442, color= 1
	 item 113, weight= 444, color= 1
	 item 114, weight= 461, color= 1
	 item 115, weight= 474, color= 1
	 item 116, weight= 489, color= 1
	 item 117, weight= 519, color= 1
	 item 118, weight= 530, color= 1
	 item 119, weight= 555, color= 1
	 item 120, weight= 559, color= 1
	 item 121, weight= 571, color= 1
	 item 122, weight= 582, color= 1
	 item 123, weight= 582, color= 1
	 item 124, weight= 615, color= 1
	 item 125, weight= 642, color= 1
	 item 126, weight= 644, color= 1
	 item 127, weight= 651, color= 1
	 item 128, weight= 653, color= 1
	 item 129, weight= 657, color= 1
	 item 130, weight= 673, color= 1
	 item 131, weight= 685, color= 1
	 item 132, weight= 714, color= 1
	 item 133, weight= 772, color= 1
	 item 134, weight= 789, color= 1
	 item 135, weight= 791, color= 1
	 item 136, weight= 795, color= 1
	 item 137, weight= 798, color= 1
	 item 138, weight= 799, color= 1
	 item 139, weight= 959, color= 1
	 item 140, weight= 962, color= 1
	 item 141, weight= 963, color= 1
	 item 142, weight= 967, color= 1
	 item 143, weight= 971, color= 1
	 item 144, weight= 1062, color= 1
	 item 145, weight= 1095, color= 1
	 item 146, weight= 1109, color= 1
	 item 147, weight= 1129, color= 1
	 item 148, weight= 1133, color= 1
	 item 149, weight= 1137, color= 1
	 item 150, weight= 1146, color= 1
	 item 151, weight= 1204, color= 1
	 item 152, weight= 1218, color= 1
	 item 153, weight= 1233, color= 1
	 item 154, weight= 1247, color= 1
	 item 155, weight= 1251, color= 1
	 item 156, weight= 1267, color= 1
	 item 157, weight= 1278, color= 1
	 item 158, weight= 1282, color= 1
	 item 159, weight= 1295, color= 1
	 item 160, weight= 1320, color= 1
	 item 161, weight= 1331, color= 1
	 item 162, weight= 1350, color= 1
	 item 163, weight= 1365, color= 1
	 item 164, weight= 1390, color= 1
	 item 165, weight= 1405, color= 1
	 item 166, weight= 1439, color= 1
	 item 167, weight= 1446, color= 1
	 item 168, weight= 1457, color= 1
	 item 169, weight= 1467, color= 1
	 item 170, weight= 1486, color= 1
	 item 171, weight= 1491, color= 1
	 item 172, weight= 1511, color= 1
	 item 173, weight= 1515, color= 1
	 item 174, weight= 1526, color= 1
	 item 175, weight= 1531, color= 1
	 item 176, weight= 1538, color= 1
	 item 177, weight= 1549, color= 1
	 item 178, weight= 1562, color= 1
	 item 179, weight= 1565, color= 1
	 item 180, weight= 1582, color= 1
	 item 181, weight= 1593, color= 1
	 item 182, weight= 1602, color= 1
	 item 183, weight= 1613, color= 1
	 item 184, weight= 1617, color= 1
	 item 185, weight= 1622, color= 1
	 item 186, weight= 1633, color= 1
	 item 187, weight= 1637, color= 1
	 item 188, weight= 1638, color= 1
	 item 189, weight= 1648, color= 1
	 item 190, weight= 1651, color= 1
	 item 191, weight= 1653, color= 1
	 item 192, weight= 1667, color= 1
	 item 193, weight= 1672, color= 1
	 item 194, weight= 1674, color= 1
	 item 195, weight= 1677, color= 1
	 item 196, weight= 1681, color= 1
	 item 197, weight= 1686, color= 1
	 item 198, weight= 1689, color= 1
	 item 199, weight= 1706, color= 1
	 item 200, weight= 1709, color= 1
	 item 201, weight= 1711, color= 1
	 item 202, weight= 1713, color= 1

VRPSolver warning: Interval set for resource 1 on source node (when source != sink) is ignored (by definition is [0.0,0.0])
[41m solve [00m
~~~~~~~~~~~~~~~~~~~~~~~~~~~~~~~~~~~~~~~~~~~~~~~~~~~~~~~~~~~~~~~~~~~~~~~~~~~~~~
VRPSolver v0.4.1, 24/03/2021. Web: vrpsolver.math.u-bordeaux.fr
Corresponds to the solver by Pessoa, Sadykov, Uchoa and Vanderbeck (2020)
Paper: dx.doi.org/10.1007/s10107-020-01523-z
USE THIS CODE ONLY FOR ACADEMIC PURPOSES AT YOUR OWN RISK
~~~~~~~~~~~~~~~~~~~~~~~~~~~~~~~~~~~~~~~~~~~~~~~~~~~~~~~~~~~~~~~~~~~~~~~~~~~~~~
BaPCod v053, 24/03/2021, © Inria Bordeaux, France
~~~~~~~~~~~~~~~~~~~~~~~~~~~~~~~~~~~~~~~~~~~~~~~~~~~~~~~~~~~~~~~~~~~~~~~~~~~~~~
VRPSolver parameters:
GlobalTimeLimit = 1800
MaxNbOfBBtreeNodeTreated = 100000
treeSearchStrategy = 1
RCSPstopCutGenTimeThresholdInPricing = 10
RCSPhardTimeThresholdInPricing = 20
RCSPnumberOfBucketsPerVertex = 2000
RCSPdynamicBucketSteps = 0
RCSPuseBidirectionalSearch = 1
RCSPapplyReducedCostFixing = 1
RCSPredCostFixingFalseGap = 0
RCSPmaxNumOfColsPerIteration = 100
RCSPmaxNumOfColsPerExactIteration = 100
RCSPheurLabelingStrategy = 4
StabilizationMinPhaseOfStage = 1
RCSPmaxNumOfLabelsInEnumeration = 100000
RCSPmaxNumOfEnumeratedSolutions = 1000000
RCSPmaxNumOfEnumSolutionsForMIP = 100000
RCSPinitNGneighbourhoodSize = 0
RCSPmaxNGneighbourhoodSize = 0
RCSPrankOneCutsMaxNumPerRound = 100
RCSPrankOneCutsMaxNumRows = -1
RCSPrankOneCutsMemoryType = 2
CutTailingOffThreshold = 0.02
CutTailingOffCounterThreshold = 3
SafeDualBoundScaleFactor = -1
StrongBranchingPhaseOneCandidatesNumber = 100
StrongBranchingPhaseOneTreeSizeEstimRatio = 0.3
StrongBranchingPhaseTwoCandidatesNumber = 1
StrongBranchingPhaseTwoTreeSizeEstimRatio = 0.1
MaxTimeForRestrictedMasterIpHeur = -1
DivingHeurUseDepthLimit = 0
MaxLDSbreadth = 3
MaxLDSdepth = 2
New model incumbent solution 1e+06, TIME = 0h0m0s3t = 3
Model is built TIME = 0h0m2s27t = 227
************************************************************************************************
**** BaB tree root node
**** Local DB = -1e+12, global bounds : [ -1e+12 , 1e+06 ], TIME = 0h0m2s27t = 227
**** 1 open nodes, 0 columns (0 active), 0 dyn. constrs. (0 active), 406 art. vars. (406 active)
************************************************************************************************
<DWph=2> <it= 10> <et=4.27> <Mt= 0.00> <Spt= 1.99> <nCl=1000> <DB=-3677480931.7866> <Mlp=218660181.9489> <PB=1000000> 
<DWph=2> <it= 20> <et=6.21> <Mt= 0.02> <Spt= 1.91> <nCl=1000> <DB=-2947452362.2895> <Mlp=192051251.6844> <PB=1000000> 
<DWph=2> <it= 30> <et=8.13> <Mt= 0.03> <Spt= 1.89> <nCl=1000> <DB=-2263937714.4454> <Mlp=161251604.8976> <PB=1000000> 
<DWph=2> <it= 40> <et=9.91> <Mt= 0.08> <Spt= 1.70> <nCl=1000> <DB=-1561979227.8490> <Mlp=131527039.3609> <PB=1000000> 
<DWph=2> <it= 50> <et=11.65> <Mt= 0.12> <Spt= 1.61> <nCl=1000> <DB=-1004893798.7062> <Mlp=90218233.2864> <PB=1000000> 
<DWph=2> <it= 60> <et=13.34> <Mt= 0.21> <Spt= 1.48> <nCl=1000> <DB=-366211207.8957> <Mlp=77992749.3310> <PB=1000000> 
<DWph=2> <it= 70> <et=14.97> <Mt= 0.17> <Spt= 1.46> <nCl=1000> <DB=-268557390.8629> <Mlp=69402666.3842> <PB=1000000> 
<DWph=2> <it= 80> <et=16.61> <Mt= 0.20> <Spt= 1.45> <nCl=1000> <DB=-187201811.2735> <Mlp=61832075.6455> <PB=1000000> 
<DWph=2> <it= 90> <et=18.28> <Mt= 0.22> <Spt= 1.43> <nCl=1000> <DB=-245364565.6671> <Mlp=51291979.1520> <PB=1000000> 
<DWph=2> <it=100> <et=19.96> <Mt= 0.21> <Spt= 1.48> <nCl=1000> <DB=-186233860.6583> <Mlp=38100272.8051> <PB=1000000> 
<DWph=2> <it=110> <et=22.35> <Mt= 0.18> <Spt= 2.15> <nCl=946> <DB=  -39.0607> <Mlp=   68.6188> <PB=1000000> 
<DWph=2> <it=120> <et=24.07> <Mt= 0.19> <Spt= 1.53> <nCl=1000> <DB=   38.8659> <Mlp=   67.0892> <PB=1000000> 
<DWph=2> <it=130> <et=25.82> <Mt= 0.27> <Spt= 1.48> <nCl=966> <DB=   56.2642> <Mlp=   65.2102> <PB=1000000> 
<DWph=2> <it=140> <et=27.83> <Mt= 0.24> <Spt= 1.70> <nCl=907> <DB=   64.5112> <Mlp=   65.0230> <PB=1000000> 
<DWph=2> <it=150> <et=29.92> <Mt= 0.15> <Spt= 1.94> <nCl=864> <DB=   64.9509> <Mlp=   65.0003> <PB=1000000> 
<DWph=2> <it=156> <et=31.53> <Mt= 0.04> <Spt= 1.56> <nCl=400> <DB=   65.0000> <Mlp=   65.0000> <PB=1000000> 
<DWph=1> <it=157> <et=31.97> <Mt= 0.01> <Spt= 0.44> <nCl=  0> <DB=   65.0000> <Mlp=   65.0000> <PB=1000000> 
<DWph=0> <it=158> <et=32.17> <Mt= 0.00> <Spt= 0.20> <nCl=  0> <DB=   65.0000> <Mlp=   65.0000> <PB=1000000> 
Reduced cost fixing for graph G_1... took 15 sec., 680032 buck. arcs remain (83.2% from prev., 36.1% from max.)
Run enumeration... took 0.16 sec. and not succeeded.
ColGenEvalAlg final dual bound: 65 (rounded: 65)
----------- Diving heuristic started -----------
<DWph=2> <it=  1> <et=47.40> <Mt= 0.00> <Spt= 0.00> <nCl=  0> <DB=   65.0000> <Mlp=   65.0000> <PB=1000000> 
<DWph=1> <it=  2> <et=47.41> <Mt= 0.00> <Spt= 0.00> <nCl=  0> <DB=   65.0000> <Mlp=   65.0000> <PB=1000000> 
---- Diving heuristic node with dive number = 0, fix depth = 0 and tabu list size = 0
Fixed projected solution = [x_1_0_1_OspV=1, x_1_58_1_OspV=1, x_1_127_1_OspV=1, x_1_149_1_OspV=1]
<DWph=2> <it=  1> <et=47.48> <Mt= 0.01> <Spt= 0.00> <nCl=  0> <DB=   65.0000> <Mlp=   65.0000> <PB=1000000> 
<DWph=1> <it=  2> <et=47.48> <Mt= 0.00> <Spt= 0.00> <nCl=  0> <DB=   65.0000> <Mlp=   65.0000> <PB=1000000> 
---- Diving heuristic node with dive number = 0, fix depth = 0 and tabu list size = 0
Fixed projected solution = [x_1_0_1_OspV=1, x_1_38_1_OspV=1, x_1_100_1_OspV=1, x_1_175_1_OspV=1]
<DWph=2> <it=  1> <et=47.56> <Mt= 0.00> <Spt= 0.00> <nCl=  0> <DB=   65.0000> <Mlp=   65.0000> <PB=1000000> 
<DWph=1> <it=  2> <et=47.56> <Mt= 0.00> <Spt= 0.00> <nCl=  0> <DB=   65.0000> <Mlp=   65.0000> <PB=1000000> 
---- Diving heuristic node with dive number = 0, fix depth = 0 and tabu list size = 0
Fixed projected solution = [x_1_0_1_OspV=1, x_1_33_1_OspV=1, x_1_98_1_OspV=1, x_1_177_1_OspV=1]
<DWph=2> <it=  1> <et=47.64> <Mt= 0.00> <Spt= 0.00> <nCl=  0> <DB=   65.0000> <Mlp=   65.0000> <PB=1000000> 
<DWph=1> <it=  2> <et=47.64> <Mt= 0.00> <Spt= 0.00> <nCl=  0> <DB=   65.0000> <Mlp=   65.0000> <PB=1000000> 
---- Diving heuristic node with dive number = 0, fix depth = 0 and tabu list size = 0
Fixed projected solution = [x_1_0_1_OspV=1, x_1_4_1_OspV=1, x_1_82_1_OspV=1, x_1_195_1_OspV=1]
<DWph=2> <it=  1> <et=47.72> <Mt= 0.01> <Spt= 0.00> <nCl=  0> <DB=   65.0000> <Mlp=   65.0000> <PB=1000000> 
<DWph=1> <it=  2> <et=47.72> <Mt= 0.00> <Spt= 0.00> <nCl=  0> <DB=   65.0000> <Mlp=   65.0000> <PB=1000000> 
---- Diving heuristic node with dive number = 0, fix depth = 1 and tabu list size = 0
Fixed projected solution = [x_1_0_1_OspV=1, x_1_65_1_OspV=1, x_1_134_1_OspV=1, x_1_143_1_OspV=1]
<DWph=2> <it=  1> <et=47.78> <Mt= 0.00> <Spt= 0.00> <nCl=  0> <DB=   65.0000> <Mlp=   65.0000> <PB=1000000> 
<DWph=1> <it=  2> <et=47.79> <Mt= 0.00> <Spt= 0.00> <nCl=  0> <DB=   65.0000> <Mlp=   65.0000> <PB=1000000> 
---- Diving heuristic node with dive number = 0, fix depth = 2 and tabu list size = 0
Fixed projected solution = [x_1_0_1_OspV=1, x_1_47_1_OspV=1, x_1_110_1_OspV=1, x_1_165_1_OspV=1]
<DWph=2> <it=  1> <et=47.87> <Mt= 0.01> <Spt= 0.00> <nCl=  0> <DB=   65.0000> <Mlp=   65.0000> <PB=1000000> 
<DWph=1> <it=  2> <et=47.87> <Mt= 0.00> <Spt= 0.00> <nCl=  0> <DB=   65.0000> <Mlp=   65.0000> <PB=1000000> 
---- Diving heuristic node with dive number = 0, fix depth = 3 and tabu list size = 0
Fixed projected solution = [x_1_0_1_OspV=1, x_1_68_1_OspV=1, x_1_138_1_OspV=1, x_1_139_1_OspV=1]
<DWph=2> <it=  1> <et=47.88> <Mt= 0.01> <Spt= 0.00> <nCl=  0> <DB=   65.0000> <Mlp=   65.0000> <PB=1000000> 
<DWph=1> <it=  2> <et=47.88> <Mt= 0.00> <Spt= 0.00> <nCl=  0> <DB=   65.0000> <Mlp=   65.0000> <PB=1000000> 
---- Diving heuristic node with dive number = 0, fix depth = 4 and tabu list size = 0
Fixed projected solution = [x_1_0_1_OspV=1, x_1_67_1_OspV=1, x_1_135_1_OspV=1, x_1_142_1_OspV=1]
<DWph=2> <it=  1> <et=47.89> <Mt= 0.00> <Spt= 0.00> <nCl=  0> <DB=   65.0000> <Mlp=   65.0000> <PB=1000000> 
<DWph=1> <it=  2> <et=47.90> <Mt= 0.00> <Spt= 0.00> <nCl=  0> <DB=   65.0000> <Mlp=   65.0000> <PB=1000000> 
---- Diving heuristic node with dive number = 0, fix depth = 5 and tabu list size = 0
Fixed projected solution = [x_1_0_1_OspV=1, x_1_62_1_OspV=1, x_1_130_1_OspV=1, x_1_146_1_OspV=1]
<DWph=2> <it=  1> <et=47.91> <Mt= 0.01> <Spt= 0.00> <nCl=  0> <DB=   65.0000> <Mlp=   65.0000> <PB=1000000> 
<DWph=1> <it=  2> <et=47.91> <Mt= 0.00> <Spt= 0.00> <nCl=  0> <DB=   65.0000> <Mlp=   65.0000> <PB=1000000> 
---- Diving heuristic node with dive number = 0, fix depth = 6 and tabu list size = 0
Fixed projected solution = [x_1_0_1_OspV=1, x_1_66_1_OspV=1, x_1_137_1_OspV=1, x_1_140_1_OspV=1]
<DWph=2> <it=  1> <et=47.92> <Mt= 0.00> <Spt= 0.00> <nCl=  0> <DB=   65.0000> <Mlp=   65.0000> <PB=1000000> 
<DWph=1> <it=  2> <et=47.92> <Mt= 0.00> <Spt= 0.00> <nCl=  0> <DB=   65.0000> <Mlp=   65.0000> <PB=1000000> 
---- Diving heuristic node with dive number = 0, fix depth = 6 and tabu list size = 0
Fixed projected solution = [x_1_0_1_OspV=1, x_1_61_1_OspV=1, x_1_128_1_OspV=1, x_1_148_1_OspV=1]
<DWph=2> <it=  1> <et=47.93> <Mt= 0.01> <Spt= 0.00> <nCl=  0> <DB=   65.0000> <Mlp=   65.0000> <PB=1000000> 
<DWph=1> <it=  2> <et=47.93> <Mt= 0.00> <Spt= 0.00> <nCl=  0> <DB=   65.0000> <Mlp=   65.0000> <PB=1000000> 
---- Diving heuristic node with dive number = 0, fix depth = 7 and tabu list size = 0
Fixed projected solution = [x_1_0_1_OspV=1, x_1_43_1_OspV=1, x_1_94_1_OspV=1, x_1_178_1_OspV=1]
<DWph=2> <it=  1> <et=47.96> <Mt= 0.02> <Spt= 0.00> <nCl=  0> <DB=   65.0000> <Mlp=   65.0000> <PB=1000000> 
<DWph=1> <it=  2> <et=47.96> <Mt= 0.00> <Spt= 0.00> <nCl=  0> <DB=   65.0000> <Mlp=   65.0000> <PB=1000000> 
---- Diving heuristic node with dive number = 0, fix depth = 8 and tabu list size = 0
Fixed projected solution = [x_1_0_1_OspV=1, x_1_63_1_OspV=1, x_1_131_1_OspV=1, x_1_145_1_OspV=1]
<DWph=2> <it=  1> <et=47.97> <Mt= 0.00> <Spt= 0.00> <nCl=  0> <DB=   65.0000> <Mlp=   65.0000> <PB=1000000> 
<DWph=1> <it=  2> <et=47.97> <Mt= 0.01> <Spt= 0.00> <nCl=  0> <DB=   65.0000> <Mlp=   65.0000> <PB=1000000> 
---- Diving heuristic node with dive number = 0, fix depth = 9 and tabu list size = 0
Fixed projected solution = [x_1_0_1_OspV=1, x_1_69_1_OspV=1, x_1_136_1_OspV=1, x_1_141_1_OspV=1]
<DWph=2> <it=  1> <et=47.99> <Mt= 0.01> <Spt= 0.00> <nCl=  0> <DB=   65.0000> <Mlp=   65.0000> <PB=1000000> 
<DWph=1> <it=  2> <et=47.99> <Mt= 0.00> <Spt= 0.00> <nCl=  0> <DB=   65.0000> <Mlp=   65.0000> <PB=1000000> 
---- Diving heuristic node with dive number = 0, fix depth = 10 and tabu list size = 0
Fixed projected solution = [x_1_0_1_OspV=1, x_1_37_1_OspV=1, x_1_101_1_OspV=1, x_1_174_1_OspV=1]
<DWph=2> <it=  1> <et=48.02> <Mt= 0.02> <Spt= 0.00> <nCl=  0> <DB=   65.0000> <Mlp=   65.0000> <PB=1000000> 
<DWph=1> <it=  2> <et=48.02> <Mt= 0.00> <Spt= 0.00> <nCl=  0> <DB=   65.0000> <Mlp=   65.0000> <PB=1000000> 
---- Diving heuristic node with dive number = 0, fix depth = 10 and tabu list size = 0
Fixed projected solution = [x_1_0_1_OspV=1, x_1_36_1_OspV=1, x_1_99_1_OspV=1, x_1_176_1_OspV=1]
<DWph=2> <it=  1> <et=48.02> <Mt= 0.00> <Spt= 0.00> <nCl=  0> <DB=   65.0000> <Mlp=   65.0000> <PB=1000000> 
<DWph=1> <it=  2> <et=48.03> <Mt= 0.00> <Spt= 0.00> <nCl=  0> <DB=   65.0000> <Mlp=   65.0000> <PB=1000000> 
---- Diving heuristic node with dive number = 0, fix depth = 11 and tabu list size = 0
Fixed projected solution = [x_1_0_1_OspV=1, x_1_30_1_OspV=1, x_1_93_1_OspV=1, x_1_181_1_OspV=1]
<DWph=2> <it=  1> <et=48.04> <Mt= 0.01> <Spt= 0.00> <nCl=  0> <DB=   65.0000> <Mlp=   65.0000> <PB=1000000> 
<DWph=1> <it=  2> <et=48.04> <Mt= 0.00> <Spt= 0.00> <nCl=  0> <DB=   65.0000> <Mlp=   65.0000> <PB=1000000> 
---- Diving heuristic node with dive number = 0, fix depth = 12 and tabu list size = 0
Fixed projected solution = [x_1_0_1_OspV=1, x_1_54_1_OspV=1, x_1_120_1_OspV=1, x_1_154_1_OspV=1]
<DWph=2> <it=  1> <et=48.06> <Mt= 0.01> <Spt= 0.00> <nCl=  0> <DB=   65.0000> <Mlp=   65.0000> <PB=1000000> 
<DWph=1> <it=  2> <et=48.06> <Mt= 0.00> <Spt= 0.00> <nCl=  0> <DB=   65.0000> <Mlp=   65.0000> <PB=1000000> 
---- Diving heuristic node with dive number = 0, fix depth = 13 and tabu list size = 0
Fixed projected solution = [x_1_0_1_OspV=1, x_1_48_1_OspV=1, x_1_112_1_OspV=1, x_1_164_1_OspV=1]
<DWph=2> <it=  1> <et=48.08> <Mt= 0.02> <Spt= 0.00> <nCl=  0> <DB=   65.0000> <Mlp=   65.0000> <PB=1000000> 
<DWph=1> <it=  2> <et=48.08> <Mt= 0.00> <Spt= 0.00> <nCl=  0> <DB=   65.0000> <Mlp=   65.0000> <PB=1000000> 
---- Diving heuristic node with dive number = 0, fix depth = 13 and tabu list size = 0
Fixed projected solution = [x_1_0_1_OspV=1, x_1_51_1_OspV=1, x_1_116_1_OspV=1, x_1_161_1_OspV=1]
<DWph=2> <it=  1> <et=48.09> <Mt= 0.00> <Spt= 0.00> <nCl=  0> <DB=   65.0000> <Mlp=   65.0000> <PB=1000000> 
<DWph=1> <it=  2> <et=48.09> <Mt= 0.00> <Spt= 0.00> <nCl=  0> <DB=   65.0000> <Mlp=   65.0000> <PB=1000000> 
---- Diving heuristic node with dive number = 0, fix depth = 14 and tabu list size = 0
Fixed projected solution = [x_1_0_1_OspV=1, x_1_16_1_OspV=1, x_1_79_1_OspV=1, x_1_192_1_OspV=1]
<DWph=2> <it=  1> <et=48.12> <Mt= 0.03> <Spt= 0.00> <nCl=  0> <DB=   65.0000> <Mlp=   65.0000> <PB=1000000> 
<DWph=1> <it=  2> <et=48.13> <Mt= 0.00> <Spt= 0.00> <nCl=  0> <DB=   65.0000> <Mlp=   65.0000> <PB=1000000> 
---- Diving heuristic node with dive number = 0, fix depth = 14 and tabu list size = 0
Fixed projected solution = [x_1_0_1_OspV=1, x_1_18_1_OspV=1, x_1_83_1_OspV=1, x_1_191_1_OspV=1]
<DWph=2> <it=  1> <et=48.13> <Mt= 0.00> <Spt= 0.00> <nCl=  0> <DB=   65.0000> <Mlp=   65.0000> <PB=1000000> 
<DWph=1> <it=  2> <et=48.13> <Mt= 0.00> <Spt= 0.00> <nCl=  0> <DB=   65.0000> <Mlp=   65.0000> <PB=1000000> 
---- Diving heuristic node with dive number = 0, fix depth = 15 and tabu list size = 0
Fixed projected solution = [x_1_0_1_OspV=1, x_1_19_1_OspV=1, x_1_84_1_OspV=1, x_1_190_1_OspV=1]
<DWph=2> <it=  1> <et=48.18> <Mt= 0.04> <Spt= 0.00> <nCl=  0> <DB=   65.0000> <Mlp=   65.0000> <PB=1000000> 
<DWph=1> <it=  2> <et=48.18> <Mt= 0.00> <Spt= 0.00> <nCl=  0> <DB=   65.0000> <Mlp=   65.0000> <PB=1000000> 
---- Diving heuristic node with dive number = 0, fix depth = 16 and tabu list size = 0
Fixed projected solution = [x_1_0_1_OspV=1, x_1_34_1_OspV=1, x_1_95_1_OspV=1, x_1_179_1_OspV=1]
<DWph=2> <it=  1> <et=48.21> <Mt= 0.02> <Spt= 0.00> <nCl=  0> <DB=   65.0000> <Mlp=   65.0000> <PB=1000000> 
<DWph=1> <it=  2> <et=48.21> <Mt= 0.00> <Spt= 0.00> <nCl=  0> <DB=   65.0000> <Mlp=   65.0000> <PB=1000000> 
---- Diving heuristic node with dive number = 0, fix depth = 17 and tabu list size = 0
Fixed projected solution = [x_1_0_1_OspV=1, x_1_25_1_OspV=1, x_1_89_1_OspV=1, x_1_185_1_OspV=1]
<DWph=2> <it=  4> <et=48.99> <Mt= 0.06> <Spt= 0.71> <nCl=300> <DB=   64.9203> <Mlp=   65.0000> <PB=1000000> 
<DWph=1> <it=  5> <et=48.99> <Mt= 0.00> <Spt= 0.00> <nCl=  0> <DB=   65.0000> <Mlp=   65.0000> <PB=1000000> 
---- Diving heuristic node with dive number = 0, fix depth = 18 and tabu list size = 0
Fixed projected solution = [x_1_0_1_OspV=1, x_1_22_1_OspV=1, x_1_111_1_OspV=1, x_1_166_1_OspV=1]
<DWph=2> <it=  5> <et=49.82> <Mt= 0.07> <Spt= 0.75> <nCl=400> <DB=   64.9811> <Mlp=   65.0000> <PB=1000000> 
<DWph=1> <it=  6> <et=49.82> <Mt= 0.00> <Spt= 0.00> <nCl=  0> <DB=   65.0000> <Mlp=   65.0000> <PB=1000000> 
---- Diving heuristic node with dive number = 0, fix depth = 19 and tabu list size = 0
Fixed projected solution = [x_1_0_1_OspV=1, x_1_29_1_OspV=1, x_1_92_1_OspV=1, x_1_182_1_OspV=1]
<DWph=2> <it=  1> <et=49.84> <Mt= 0.00> <Spt= 0.00> <nCl=  0> <DB=   65.0000> <Mlp=   65.0000> <PB=1000000> 
<DWph=1> <it=  2> <et=49.84> <Mt= 0.00> <Spt= 0.00> <nCl=  0> <DB=   65.0000> <Mlp=   65.0000> <PB=1000000> 
---- Diving heuristic node with dive number = 0, fix depth = 20 and tabu list size = 0
Fixed projected solution = [x_1_0_1_OspV=1, x_1_49_1_OspV=1, x_1_114_1_OspV=1, x_1_163_1_OspV=1]
<DWph=2> <it=  1> <et=49.88> <Mt= 0.04> <Spt= 0.00> <nCl=  0> <DB=   65.0000> <Mlp=   65.0000> <PB=1000000> 
<DWph=1> <it=  2> <et=49.88> <Mt= 0.00> <Spt= 0.00> <nCl=  0> <DB=   65.0000> <Mlp=   65.0000> <PB=1000000> 
---- Diving heuristic node with dive number = 0, fix depth = 21 and tabu list size = 0
Fixed projected solution = [x_1_0_1_OspV=1, x_1_55_1_OspV=1, x_1_119_1_OspV=1, x_1_155_1_OspV=1]
<DWph=2> <it=  9> <et=51.46> <Mt= 0.07> <Spt= 1.49> <nCl=800> <DB=   64.9940> <Mlp=   65.0000> <PB=1000000> 
---- Diving heuristic node with dive number = 0, fix depth = 21 and tabu list size = 0
Fixed projected solution = [x_1_0_1_OspV=1, x_1_42_1_OspV=1, x_1_104_1_OspV=1, x_1_171_1_OspV=1]
<DWph=2> <it=  1> <et=51.47> <Mt= 0.00> <Spt= 0.00> <nCl=  0> <DB=   65.0000> <Mlp=   65.0000> <PB=1000000> 
<DWph=1> <it=  2> <et=51.48> <Mt= 0.00> <Spt= 0.00> <nCl=  0> <DB=   65.0000> <Mlp=   65.0000> <PB=1000000> 
---- Diving heuristic node with dive number = 0, fix depth = 21 and tabu list size = 0
Fixed projected solution = [x_1_0_1_OspV=1, x_1_56_1_OspV=1, x_1_121_1_OspV=1, x_1_153_1_OspV=1]
<DWph=2> <it=  1> <et=51.49> <Mt= 0.00> <Spt= 0.00> <nCl=  0> <DB=   65.0000> <Mlp=   65.0000> <PB=1000000> 
<DWph=1> <it=  2> <et=51.49> <Mt= 0.01> <Spt= 0.00> <nCl=  0> <DB=   65.0000> <Mlp=   65.0000> <PB=1000000> 
---- Diving heuristic node with dive number = 0, fix depth = 21 and tabu list size = 0
Fixed projected solution = [x_1_0_1_OspV=1, x_1_52_1_OspV=1, x_1_117_1_OspV=1, x_1_159_1_OspV=1]
<DWph=2> <it=  1> <et=51.50> <Mt= 0.00> <Spt= 0.00> <nCl=  0> <DB=   65.0000> <Mlp=   65.0000> <PB=1000000> 
<DWph=1> <it=  2> <et=51.50> <Mt= 0.00> <Spt= 0.00> <nCl=  0> <DB=   65.0000> <Mlp=   65.0000> <PB=1000000> 
---- Diving heuristic node with dive number = 0, fix depth = 21 and tabu list size = 0
Fixed projected solution = [x_1_0_1_OspV=1, x_1_60_1_OspV=1, x_1_129_1_OspV=1, x_1_147_1_OspV=1]
<DWph=2> <it=  1> <et=51.51> <Mt= 0.00> <Spt= 0.00> <nCl=  0> <DB=   65.0000> <Mlp=   65.0000> <PB=1000000> 
<DWph=1> <it=  2> <et=51.51> <Mt= 0.00> <Spt= 0.00> <nCl=  0> <DB=   65.0000> <Mlp=   65.0000> <PB=1000000> 
---- Diving heuristic node with dive number = 0, fix depth = 21 and tabu list size = 0
Fixed projected solution = [x_1_0_1_OspV=1, x_1_40_1_OspV=1, x_1_103_1_OspV=1, x_1_172_1_OspV=1]
<DWph=2> <it=  1> <et=51.52> <Mt= 0.00> <Spt= 0.00> <nCl=  0> <DB=   65.0000> <Mlp=   65.0000> <PB=1000000> 
<DWph=1> <it=  2> <et=51.52> <Mt= 0.00> <Spt= 0.00> <nCl=  0> <DB=   65.0000> <Mlp=   65.0000> <PB=1000000> 
---- Diving heuristic node with dive number = 0, fix depth = 22 and tabu list size = 0
Fixed projected solution = [x_1_0_1_OspV=1, x_1_41_1_OspV=1, x_1_126_1_OspV=1, x_1_151_1_OspV=1]
<DWph=2> <it= 10> <et=53.66> <Mt= 0.10> <Spt= 2.00> <nCl=1000> <DB=   64.9980> <Mlp=   65.0000> <PB=1000000> 
<DWph=2> <it= 12> <et=53.85> <Mt= 0.01> <Spt= 0.19> <nCl=100> <DB=   64.9984> <Mlp=   65.0000> <PB=1000000> 
<DWph=1> <it= 13> <et=53.86> <Mt= 0.00> <Spt= 0.00> <nCl=  0> <DB=   65.0000> <Mlp=   65.0000> <PB=1000000> 
---- Diving heuristic node with dive number = 0, fix depth = 23 and tabu list size = 0
Fixed projected solution = [x_1_0_1_OspV=1, x_1_50_1_OspV=1, x_1_115_1_OspV=1, x_1_162_1_OspV=1]
<DWph=2> <it= 10> <et=56.12> <Mt= 0.15> <Spt= 2.10> <nCl=1000> <DB=   64.9982> <Mlp=   65.0000> <PB=1000000> 
<DWph=2> <it= 11> <et=56.13> <Mt= 0.00> <Spt= 0.00> <nCl=  0> <DB=   64.9982> <Mlp=   65.0000> <PB=1000000> 
<DWph=1> <it= 12> <et=56.13> <Mt= 0.01> <Spt= 0.00> <nCl=  0> <DB=   65.0000> <Mlp=   65.0000> <PB=1000000> 
---- Diving heuristic node with dive number = 0, fix depth = 24 and tabu list size = 0
Fixed projected solution = [x_1_0_1_OspV=1, x_1_14_1_OspV=1, x_1_85_1_OspV=1, x_1_189_1_OspV=1]
<DWph=2> <it=  9> <et=57.85> <Mt= 0.15> <Spt= 1.54> <nCl=800> <DB=   64.9992> <Mlp=   65.0000> <PB=1000000> 
---- Diving heuristic node with dive number = 0, fix depth = 25 and tabu list size = 0
Fixed projected solution = [x_1_0_1_OspV=1, x_1_80_1_OspV=1, x_1_125_1_OspV=1, x_1_144_1_OspV=1]
<DWph=2> <it= 10> <et=60.01> <Mt= 0.18> <Spt= 1.92> <nCl=1000> <DB=   64.9998> <Mlp=   65.0000> <PB=1000000> 
<DWph=2> <it= 12> <et=60.20> <Mt= 0.01> <Spt= 0.19> <nCl=100> <DB=   64.9998> <Mlp=   65.0000> <PB=1000000> 
<DWph=1> <it= 13> <et=60.20> <Mt= 0.00> <Spt= 0.00> <nCl=  0> <DB=   65.0000> <Mlp=   65.0000> <PB=1000000> 
---- Diving heuristic node with dive number = 0, fix depth = 26 and tabu list size = 0
Fixed projected solution = [x_1_0_1_OspV=1, x_1_32_1_OspV=1, x_1_132_1_OspV=1, x_1_150_1_OspV=1]
<DWph=2> <it=  6> <et=61.27> <Mt= 0.09> <Spt= 0.95> <nCl=500> <DB=   65.0000> <Mlp=   65.0000> <PB=1000000> 
<DWph=1> <it=  7> <et=61.27> <Mt= 0.01> <Spt= 0.00> <nCl=  0> <DB=   65.0000> <Mlp=   65.0000> <PB=1000000> 
---- Diving heuristic node with dive number = 0, fix depth = 27 and tabu list size = 0
Fixed projected solution = [x_1_0_1_OspV=1, x_1_57_1_OspV=1, x_1_122_1_OspV=1, x_1_152_1_OspV=1]
<DWph=2> <it=  1> <et=61.33> <Mt= 0.04> <Spt= 0.00> <nCl=  0> <DB=   65.0000> <Mlp=   65.0000> <PB=1000000> 
<DWph=1> <it=  2> <et=61.33> <Mt= 0.00> <Spt= 0.00> <nCl=  0> <DB=   65.0000> <Mlp=   65.0000> <PB=1000000> 
---- Diving heuristic node with dive number = 0, fix depth = 28 and tabu list size = 0
Fixed projected solution = [x_1_0_1_OspV=1, x_1_6_1_OspV=1, x_1_71_1_OspV=1, x_1_202_1_OspV=1]
<DWph=2> <it= 10> <et=63.56> <Mt= 0.19> <Spt= 2.01> <nCl=1000> <DB=   65.0000> <Mlp=   65.0000> <PB=1000000> 
<DWph=2> <it= 15> <et=64.40> <Mt= 0.03> <Spt= 0.81> <nCl=400> <DB=   65.0000> <Mlp=   65.0000> <PB=1000000> 
<DWph=1> <it= 16> <et=64.40> <Mt= 0.00> <Spt= 0.00> <nCl=  0> <DB=   65.0000> <Mlp=   65.0000> <PB=1000000> 
---- Diving heuristic node with dive number = 0, fix depth = 29 and tabu list size = 0
Fixed projected solution = [x_1_0_1_OspV=1, x_1_7_1_OspV=1, x_1_72_1_OspV=1, x_1_200_1_OspV=1]
<DWph=1> <it= 11> <et=66.30> <Mt= 0.13> <Spt= 1.75> <nCl=900> <DB=   65.0000> <Mlp=   65.0000> <PB=1000000> 
---- Diving heuristic node with dive number = 0, fix depth = 30 and tabu list size = 0
Fixed projected solution = [x_1_0_1_OspV=1, x_1_8_1_OspV=1, x_1_124_1_OspV=1, x_1_156_1_OspV=1]
<DWph=2> <it=  5> <et=67.25> <Mt= 0.12> <Spt= 0.77> <nCl=400> <DB=   65.0000> <Mlp=   65.0000> <PB=1000000> 
<DWph=1> <it=  6> <et=67.26> <Mt= 0.00> <Spt= 0.00> <nCl=  0> <DB=   65.0000> <Mlp=   65.0000> <PB=1000000> 
---- Diving heuristic node with dive number = 0, fix depth = 31 and tabu list size = 0
Fixed projected solution = [x_1_0_1_OspV=1, x_1_45_1_OspV=1, x_1_107_1_OspV=1, x_1_168_1_OspV=1]
<DWph=2> <it=  6> <et=68.35> <Mt= 0.10> <Spt= 0.97> <nCl=500> <DB=   65.0000> <Mlp=   65.0000> <PB=1000000> 
<DWph=1> <it=  7> <et=68.35> <Mt= 0.01> <Spt= 0.00> <nCl=  0> <DB=   65.0000> <Mlp=   65.0000> <PB=1000000> 
---- Diving heuristic node with dive number = 0, fix depth = 32 and tabu list size = 0
Fixed projected solution = [x_1_0_1_OspV=1, x_1_39_1_OspV=1, x_1_102_1_OspV=1, x_1_173_1_OspV=1]
<DWph=2> <it=  1> <et=68.40> <Mt= 0.04> <Spt= 0.00> <nCl=  0> <DB=   65.0000> <Mlp=   65.0000> <PB=1000000> 
<DWph=1> <it=  2> <et=68.40> <Mt= 0.00> <Spt= 0.00> <nCl=  0> <DB=   65.0000> <Mlp=   65.0000> <PB=1000000> 
---- Diving heuristic node with dive number = 0, fix depth = 33 and tabu list size = 0
Fixed projected solution = [x_1_0_1_OspV=1, x_1_13_1_OspV=1, x_1_73_1_OspV=1, x_1_197_1_OspV=1]
<DWph=2> <it= 10> <et=70.53> <Mt= 0.09> <Spt= 2.01> <nCl=1000> <DB=   65.0000> <Mlp=   65.0000> <PB=1000000> 
<DWph=2> <it= 11> <et=70.53> <Mt= 0.01> <Spt= 0.00> <nCl=  0> <DB=   65.0000> <Mlp=   65.0000> <PB=1000000> 
<DWph=1> <it= 12> <et=70.53> <Mt= 0.00> <Spt= 0.00> <nCl=  0> <DB=   65.0000> <Mlp=   65.0000> <PB=1000000> 
---- Diving heuristic node with dive number = 0, fix depth = 34 and tabu list size = 0
Fixed projected solution = [x_1_0_1_OspV=1, x_1_3_1_OspV=1, x_1_75_1_OspV=1, x_1_199_1_OspV=1]
<DWph=2> <it=  1> <et=70.61> <Mt= 0.06> <Spt= 0.00> <nCl=  0> <DB=   65.0000> <Mlp=   65.0000> <PB=1000000> 
<DWph=1> <it=  2> <et=70.61> <Mt= 0.00> <Spt= 0.00> <nCl=  0> <DB=   65.0000> <Mlp=   65.0000> <PB=1000000> 
---- Diving heuristic node with dive number = 0, fix depth = 35 and tabu list size = 0
Fixed projected solution = [x_1_0_1_OspV=1, x_1_23_1_OspV=1, x_1_86_1_OspV=1, x_1_187_1_OspV=1]
<DWph=2> <it= 10> <et=72.91> <Mt= 0.22> <Spt= 2.07> <nCl=1000> <DB=   65.0000> <Mlp=   65.0000> <PB=1000000> 
<DWph=2> <it= 20> <et=75.17> <Mt= 0.08> <Spt= 2.11> <nCl=1000> <DB=   65.0000> <Mlp=   65.0000> <PB=1000000> 
<DWph=2> <it= 24> <et=75.83> <Mt= 0.03> <Spt= 0.64> <nCl=300> <DB=   65.0000> <Mlp=   65.0000> <PB=1000000> 
<DWph=1> <it= 25> <et=75.83> <Mt= 0.00> <Spt= 0.00> <nCl=  0> <DB=   65.0000> <Mlp=   65.0000> <PB=1000000> 
---- Diving heuristic node with dive number = 0, fix depth = 35 and tabu list size = 0
Fixed projected solution = [x_1_0_1_OspV=1, x_1_26_1_OspV=1, x_1_90_1_OspV=1, x_1_184_1_OspV=1]
<DWph=2> <it=  1> <et=75.85> <Mt= 0.00> <Spt= 0.00> <nCl=  0> <DB=   65.0000> <Mlp=   65.0000> <PB=1000000> 
<DWph=1> <it=  2> <et=75.85> <Mt= 0.00> <Spt= 0.00> <nCl=  0> <DB=   65.0000> <Mlp=   65.0000> <PB=1000000> 
---- Diving heuristic node with dive number = 0, fix depth = 35 and tabu list size = 0
Fixed projected solution = [x_1_0_1_OspV=1, x_1_24_1_OspV=1, x_1_88_1_OspV=1, x_1_186_1_OspV=1]
<DWph=2> <it=  1> <et=75.87> <Mt= 0.00> <Spt= 0.00> <nCl=  0> <DB=   65.0000> <Mlp=   65.0000> <PB=1000000> 
<DWph=1> <it=  2> <et=75.87> <Mt= 0.00> <Spt= 0.00> <nCl=  0> <DB=   65.0000> <Mlp=   65.0000> <PB=1000000> 
---- Diving heuristic node with dive number = 0, fix depth = 35 and tabu list size = 0
Fixed projected solution = [x_1_0_1_OspV=1, x_1_27_1_OspV=1, x_1_91_1_OspV=1, x_1_183_1_OspV=1]
<DWph=2> <it=  1> <et=75.88> <Mt= 0.01> <Spt= 0.00> <nCl=  0> <DB=   65.0000> <Mlp=   65.0000> <PB=1000000> 
<DWph=1> <it=  2> <et=75.88> <Mt= 0.00> <Spt= 0.00> <nCl=  0> <DB=   65.0000> <Mlp=   65.0000> <PB=1000000> 
---- Diving heuristic node with dive number = 0, fix depth = 36 and tabu list size = 0
Fixed projected solution = [x_1_0_1_OspV=1, x_1_11_1_OspV=1, x_1_96_1_OspV=1, x_1_180_1_OspV=1]
<DWph=2> <it= 10> <et=77.69> <Mt= 0.13> <Spt= 1.66> <nCl=1000> <DB=   64.9963> <Mlp=   65.0026> <PB=1000000> 
<DWph=2> <it= 20> <et=79.86> <Mt= 0.06> <Spt= 2.11> <nCl=1000> <DB=   64.9998> <Mlp=   65.0001> <PB=1000000> 
<DWph=2> <it= 28> <et=81.31> <Mt= 0.05> <Spt= 1.40> <nCl=700> <DB=   64.9998> <Mlp=   65.0000> <PB=1000000> 
<DWph=1> <it= 29> <et=81.31> <Mt= 0.00> <Spt= 0.00> <nCl=  0> <DB=   65.0000> <Mlp=   65.0000> <PB=1000000> 
---- Diving heuristic node with dive number = 0, fix depth = 37 and tabu list size = 0
Fixed projected solution = [x_1_0_1_OspV=1, x_1_44_1_OspV=1, x_1_106_1_OspV=1, x_1_169_1_OspV=1]
<DWph=2> <it=  1> <et=81.34> <Mt= 0.00> <Spt= 0.00> <nCl=  0> <DB=   65.0000> <Mlp=   65.0000> <PB=1000000> 
<DWph=1> <it=  2> <et=81.34> <Mt= 0.00> <Spt= 0.00> <nCl=  0> <DB=   65.0000> <Mlp=   65.0000> <PB=1000000> 
---- Diving heuristic node with dive number = 0, fix depth = 38 and tabu list size = 0
Fixed projected solution = [x_1_0_1_OspV=1, x_1_53_1_OspV=1, x_1_64_1_OspV=1, x_1_193_1_OspV=1]
<DWph=2> <it= 10> <et=83.07> <Mt= 0.12> <Spt= 1.54> <nCl=1000> <DB=-177239.9371> <Mlp=   65.0059> <PB=1000000> 
<DWph=2> <it= 19> <et=84.60> <Mt= 0.04> <Spt= 1.48> <nCl=800> <DB=   64.9971> <Mlp=   65.0000> <PB=1000000> 
---- Diving heuristic node with dive number = 0, fix depth = 39 and tabu list size = 0
Fixed projected solution = [x_1_0_1_OspV=1, x_1_9_1_OspV=1, x_1_109_1_OspV=1, x_1_170_1_OspV=1]
<DWph=2> <it= 10> <et=86.20> <Mt= 0.08> <Spt= 1.50> <nCl=1000> <DB=   64.9754> <Mlp=   65.0146> <PB=1000000> 
<DWph=2> <it= 20> <et=88.42> <Mt= 0.06> <Spt= 2.08> <nCl=1000> <DB=   64.9987> <Mlp=   65.0001> <PB=1000000> 
<DWph=2> <it= 30> <et=90.36> <Mt= 0.04> <Spt= 1.90> <nCl=1000> <DB=   65.0000> <Mlp=   65.0001> <PB=1000000> 
<DWph=2> <it= 36> <et=91.31> <Mt= 0.02> <Spt= 0.93> <nCl=500> <DB=   65.0000> <Mlp=   65.0000> <PB=1000000> 
<DWph=1> <it= 37> <et=91.32> <Mt= 0.01> <Spt= 0.00> <nCl=  0> <DB=   65.0000> <Mlp=   65.0000> <PB=1000000> 
---- Diving heuristic node with dive number = 0, fix depth = 40 and tabu list size = 0
Fixed projected solution = [x_1_0_1_OspV=1, x_1_12_1_OspV=1, x_1_78_1_OspV=1, x_1_194_1_OspV=1]
<DWph=2> <it= 10> <et=93.32> <Mt= 0.10> <Spt= 1.88> <nCl=1000> <DB=   64.9981> <Mlp=   65.0066> <PB=1000000> 
<DWph=2> <it= 20> <et=96.24> <Mt= 0.04> <Spt= 2.82> <nCl=610> <DB=   64.9998> <Mlp=   65.0002> <PB=1000000> 
<DWph=2> <it= 29> <et=99.03> <Mt= 0.02> <Spt= 2.76> <nCl=129> <DB=   65.0002> <Mlp=   65.0002> <PB=1000000> 
<DWph=1> <it= 30> <et=99.44> <Mt= 0.00> <Spt= 0.41> <nCl=  0> <DB=   65.0002> <Mlp=   65.0002> <PB=1000000> 
---- Diving heuristic node with dive number = 0, fix depth = 41 and tabu list size = 0
Fixed projected solution = [x_1_0_1_OspV=1, x_1_21_1_OspV=1, x_1_74_1_OspV=1, x_1_196_1_OspV=1]
<DWph=2> <it=  1> <et=99.85> <Mt= 0.01> <Spt= 0.38> <nCl=  0> <DB=   65.0002> <Mlp=   65.0002> <PB=1000000> 
<DWph=1> <it=  2> <et=100.23> <Mt= 0.00> <Spt= 0.39> <nCl=  0> <DB=   65.0002> <Mlp=   65.0002> <PB=1000000> 
---- Diving heuristic node with dive number = 0, fix depth = 42 and tabu list size = 0
Fixed projected solution = [x_1_0_1_OspV=1, x_1_46_1_OspV=1, x_1_77_1_OspV=1, x_1_188_1_OspV=1]
<DWph=2> <it=  7> <et=102.04> <Mt= 0.06> <Spt= 1.73> <nCl=456> <DB=   65.0003> <Mlp=   65.0003> <PB=1000000> 
<DWph=1> <it=  8> <et=102.39> <Mt= 0.00> <Spt= 0.34> <nCl=  0> <DB=   65.0003> <Mlp=   65.0003> <PB=1000000> 
---- Diving heuristic node with dive number = 0, fix depth = 43 and tabu list size = 0
Fixed projected solution = [x_1_0_1_OspV=1, x_1_31_1_OspV=1, x_1_70_1_OspV=1, x_1_198_1_OspV=1]
<DWph=2> <it=  6> <et=103.67> <Mt= 0.05> <Spt= 1.22> <nCl=290> <DB=   64.9495> <Mlp=   65.0003> <PB=1000000> 
<DWph=1> <it=  7> <et=104.01> <Mt= 0.00> <Spt= 0.34> <nCl=  2> <DB=   64.9871> <Mlp=   65.0003> <PB=1000000> 
---- Diving heuristic node with dive number = 0, fix depth = 44 and tabu list size = 0
Fixed projected solution = [x_1_0_1_OspV=1, x_1_28_1_OspV=1, x_1_123_1_OspV=1, x_1_158_1_OspV=1]
<DWph=2> <it= 10> <et=106.44> <Mt= 0.07> <Spt= 2.34> <nCl=589> <DB=   65.0006> <Mlp=   65.0006> <PB=1000000> 
<DWph=1> <it= 11> <et=106.77> <Mt= 0.00> <Spt= 0.32> <nCl=  0> <DB=   65.0006> <Mlp=   65.0006> <PB=1000000> 
---- Diving heuristic node with dive number = 0, fix depth = 45 and tabu list size = 0
Fixed projected solution = [x_1_0_1_OspV=1, x_1_87_1_OspV=1, x_1_105_1_OspV=1, x_1_160_1_OspV=1]
<DWph=2> <it= 10> <et=108.43> <Mt= 0.11> <Spt= 1.53> <nCl=1000> <DB=   64.8841> <Mlp=   65.0018> <PB=1000000> 
<DWph=2> <it= 20> <et=111.14> <Mt= 0.05> <Spt= 2.60> <nCl=520> <DB=   64.9397> <Mlp=   65.0012> <PB=1000000> 
<DWph=2> <it= 21> <et=111.47> <Mt= 0.00> <Spt= 0.32> <nCl=  0> <DB=   65.0012> <Mlp=   65.0012> <PB=1000000> 
<DWph=1> <it= 22> <et=111.78> <Mt= 0.00> <Spt= 0.31> <nCl=  0> <DB=   65.0012> <Mlp=   65.0012> <PB=1000000> 
---- Diving heuristic node with dive number = 0, fix depth = 46 and tabu list size = 0
Fixed projected solution = [x_1_0_1_OspV=1, x_1_15_1_OspV=1, x_1_59_1_OspV=1, x_1_97_1_OspV=1, x_1_167_1_OspV=1]
