Application parameters:
  batch  =>  nothing
  instance  =>  "/IN/201_2500_DI_32.txt-Q2Half"
  ub  =>  1.0e6
  cfg  =>  "/CFG/BPP.cfg"
data = Colored Bin Packing dataset.
number of items = 202
number of colors = 2
capacity = 2356
Items : 
	 item 1, weight= 4, color= 0
	 item 2, weight= 12, color= 0
	 item 3, weight= 16, color= 0
	 item 4, weight= 30, color= 0
	 item 5, weight= 30, color= 0
	 item 6, weight= 32, color= 0
	 item 7, weight= 32, color= 0
	 item 8, weight= 32, color= 0
	 item 9, weight= 36, color= 0
	 item 10, weight= 36, color= 0
	 item 11, weight= 38, color= 0
	 item 12, weight= 40, color= 0
	 item 13, weight= 40, color= 0
	 item 14, weight= 42, color= 0
	 item 15, weight= 44, color= 0
	 item 16, weight= 44, color= 0
	 item 17, weight= 44, color= 0
	 item 18, weight= 46, color= 0
	 item 19, weight= 46, color= 0
	 item 20, weight= 50, color= 0
	 item 21, weight= 52, color= 0
	 item 22, weight= 54, color= 0
	 item 23, weight= 56, color= 0
	 item 24, weight= 56, color= 0
	 item 25, weight= 58, color= 0
	 item 26, weight= 58, color= 0
	 item 27, weight= 60, color= 0
	 item 28, weight= 62, color= 0
	 item 29, weight= 66, color= 0
	 item 30, weight= 68, color= 0
	 item 31, weight= 68, color= 0
	 item 32, weight= 76, color= 0
	 item 33, weight= 76, color= 0
	 item 34, weight= 78, color= 0
	 item 35, weight= 80, color= 0
	 item 36, weight= 84, color= 0
	 item 37, weight= 88, color= 0
	 item 38, weight= 88, color= 0
	 item 39, weight= 90, color= 0
	 item 40, weight= 90, color= 0
	 item 41, weight= 92, color= 0
	 item 42, weight= 98, color= 0
	 item 43, weight= 100, color= 0
	 item 44, weight= 108, color= 0
	 item 45, weight= 108, color= 0
	 item 46, weight= 112, color= 0
	 item 47, weight= 112, color= 1
	 item 48, weight= 114, color= 0
	 item 49, weight= 122, color= 0
	 item 50, weight= 124, color= 0
	 item 51, weight= 128, color= 0
	 item 52, weight= 134, color= 0
	 item 53, weight= 136, color= 0
	 item 54, weight= 136, color= 0
	 item 55, weight= 138, color= 0
	 item 56, weight= 144, color= 0
	 item 57, weight= 144, color= 0
	 item 58, weight= 156, color= 0
	 item 59, weight= 158, color= 0
	 item 60, weight= 162, color= 0
	 item 61, weight= 164, color= 0
	 item 62, weight= 168, color= 0
	 item 63, weight= 178, color= 0
	 item 64, weight= 184, color= 0
	 item 65, weight= 186, color= 0
	 item 66, weight= 188, color= 0
	 item 67, weight= 192, color= 0
	 item 68, weight= 194, color= 0
	 item 69, weight= 194, color= 0
	 item 70, weight= 196, color= 1
	 item 71, weight= 199, color= 1
	 item 72, weight= 202, color= 1
	 item 73, weight= 214, color= 1
	 item 74, weight= 215, color= 1
	 item 75, weight= 226, color= 1
	 item 76, weight= 229, color= 1
	 item 77, weight= 231, color= 1
	 item 78, weight= 235, color= 1
	 item 79, weight= 236, color= 1
	 item 80, weight= 241, color= 1
	 item 81, weight= 242, color= 1
	 item 82, weight= 255, color= 1
	 item 83, weight= 259, color= 1
	 item 84, weight= 262, color= 1
	 item 85, weight= 271, color= 1
	 item 86, weight= 283, color= 1
	 item 87, weight= 290, color= 1
	 item 88, weight= 292, color= 0
	 item 89, weight= 297, color= 1
	 item 90, weight= 301, color= 1
	 item 91, weight= 318, color= 1
	 item 92, weight= 320, color= 1
	 item 93, weight= 333, color= 1
	 item 94, weight= 341, color= 1
	 item 95, weight= 350, color= 1
	 item 96, weight= 360, color= 1
	 item 97, weight= 381, color= 1
	 item 98, weight= 390, color= 1
	 item 99, weight= 403, color= 1
	 item 100, weight= 429, color= 1
	 item 101, weight= 448, color= 0
	 item 102, weight= 454, color= 1
	 item 103, weight= 455, color= 1
	 item 104, weight= 459, color= 1
	 item 105, weight= 474, color= 1
	 item 106, weight= 475, color= 1
	 item 107, weight= 482, color= 1
	 item 108, weight= 495, color= 1
	 item 109, weight= 499, color= 1
	 item 110, weight= 514, color= 1
	 item 111, weight= 547, color= 1
	 item 112, weight= 554, color= 1
	 item 113, weight= 565, color= 1
	 item 114, weight= 613, color= 1
	 item 115, weight= 638, color= 1
	 item 116, weight= 649, color= 1
	 item 117, weight= 666, color= 1
	 item 118, weight= 667, color= 1
	 item 119, weight= 679, color= 1
	 item 120, weight= 691, color= 1
	 item 121, weight= 702, color= 1
	 item 122, weight= 742, color= 1
	 item 123, weight= 787, color= 1
	 item 124, weight= 801, color= 1
	 item 125, weight= 817, color= 1
	 item 126, weight= 826, color= 1
	 item 127, weight= 858, color= 1
	 item 128, weight= 876, color= 1
	 item 129, weight= 897, color= 1
	 item 130, weight= 930, color= 1
	 item 131, weight= 933, color= 1
	 item 132, weight= 951, color= 1
	 item 133, weight= 977, color= 1
	 item 134, weight= 981, color= 1
	 item 135, weight= 981, color= 1
	 item 136, weight= 982, color= 1
	 item 137, weight= 1032, color= 1
	 item 138, weight= 1053, color= 1
	 item 139, weight= 1164, color= 1
	 item 140, weight= 1179, color= 1
	 item 141, weight= 1181, color= 1
	 item 142, weight= 1182, color= 1
	 item 143, weight= 1185, color= 1
	 item 144, weight= 1189, color= 1
	 item 145, weight= 1237, color= 1
	 item 146, weight= 1242, color= 1
	 item 147, weight= 1281, color= 1
	 item 148, weight= 1317, color= 1
	 item 149, weight= 1330, color= 1
	 item 150, weight= 1366, color= 1
	 item 151, weight= 1377, color= 1
	 item 152, weight= 1397, color= 1
	 item 153, weight= 1413, color= 1
	 item 154, weight= 1470, color= 1
	 item 155, weight= 1518, color= 1
	 item 156, weight= 1527, color= 1
	 item 157, weight= 1543, color= 1
	 item 158, weight= 1567, color= 1
	 item 159, weight= 1579, color= 1
	 item 160, weight= 1594, color= 1
	 item 161, weight= 1658, color= 1
	 item 162, weight= 1679, color= 1
	 item 163, weight= 1681, color= 1
	 item 164, weight= 1694, color= 1
	 item 165, weight= 1701, color= 1
	 item 166, weight= 1742, color= 1
	 item 167, weight= 1763, color= 1
	 item 168, weight= 1782, color= 1
	 item 169, weight= 1803, color= 1
	 item 170, weight= 1807, color= 1
	 item 171, weight= 1811, color= 1
	 item 172, weight= 1814, color= 1
	 item 173, weight= 1827, color= 1
	 item 174, weight= 1843, color= 1
	 item 175, weight= 1873, color= 1
	 item 176, weight= 1878, color= 1
	 item 177, weight= 1880, color= 1
	 item 178, weight= 1890, color= 1
	 item 179, weight= 1899, color= 1
	 item 180, weight= 1938, color= 1
	 item 181, weight= 1947, color= 1
	 item 182, weight= 1957, color= 1
	 item 183, weight= 1978, color= 1
	 item 184, weight= 1997, color= 1
	 item 185, weight= 2001, color= 1
	 item 186, weight= 2010, color= 1
	 item 187, weight= 2017, color= 1
	 item 188, weight= 2031, color= 1
	 item 189, weight= 2042, color= 1
	 item 190, weight= 2047, color= 1
	 item 191, weight= 2070, color= 1
	 item 192, weight= 2071, color= 1
	 item 193, weight= 2075, color= 1
	 item 194, weight= 2079, color= 1
	 item 195, weight= 2080, color= 1
	 item 196, weight= 2083, color= 1
	 item 197, weight= 2086, color= 1
	 item 198, weight= 2099, color= 1
	 item 199, weight= 2102, color= 1
	 item 200, weight= 2103, color= 1
	 item 201, weight= 2118, color= 1
	 item 202, weight= 2119, color= 1

VRPSolver warning: Interval set for resource 1 on source node (when source != sink) is ignored (by definition is [0.0,0.0])
[41m solve [00m
~~~~~~~~~~~~~~~~~~~~~~~~~~~~~~~~~~~~~~~~~~~~~~~~~~~~~~~~~~~~~~~~~~~~~~~~~~~~~~
VRPSolver v0.4.1, 24/03/2021. Web: vrpsolver.math.u-bordeaux.fr
Corresponds to the solver by Pessoa, Sadykov, Uchoa and Vanderbeck (2020)
Paper: dx.doi.org/10.1007/s10107-020-01523-z
USE THIS CODE ONLY FOR ACADEMIC PURPOSES AT YOUR OWN RISK
~~~~~~~~~~~~~~~~~~~~~~~~~~~~~~~~~~~~~~~~~~~~~~~~~~~~~~~~~~~~~~~~~~~~~~~~~~~~~~
BaPCod v053, 24/03/2021, © Inria Bordeaux, France
~~~~~~~~~~~~~~~~~~~~~~~~~~~~~~~~~~~~~~~~~~~~~~~~~~~~~~~~~~~~~~~~~~~~~~~~~~~~~~
VRPSolver parameters:
GlobalTimeLimit = 1800
MaxNbOfBBtreeNodeTreated = 100000
treeSearchStrategy = 1
RCSPstopCutGenTimeThresholdInPricing = 10
RCSPhardTimeThresholdInPricing = 20
RCSPnumberOfBucketsPerVertex = 2000
RCSPdynamicBucketSteps = 0
RCSPuseBidirectionalSearch = 1
RCSPapplyReducedCostFixing = 1
RCSPredCostFixingFalseGap = 0
RCSPmaxNumOfColsPerIteration = 100
RCSPmaxNumOfColsPerExactIteration = 100
RCSPheurLabelingStrategy = 4
StabilizationMinPhaseOfStage = 1
RCSPmaxNumOfLabelsInEnumeration = 100000
RCSPmaxNumOfEnumeratedSolutions = 1000000
RCSPmaxNumOfEnumSolutionsForMIP = 100000
RCSPinitNGneighbourhoodSize = 0
RCSPmaxNGneighbourhoodSize = 0
RCSPrankOneCutsMaxNumPerRound = 100
RCSPrankOneCutsMaxNumRows = -1
RCSPrankOneCutsMemoryType = 2
CutTailingOffThreshold = 0.02
CutTailingOffCounterThreshold = 3
SafeDualBoundScaleFactor = -1
StrongBranchingPhaseOneCandidatesNumber = 100
StrongBranchingPhaseOneTreeSizeEstimRatio = 0.3
StrongBranchingPhaseTwoCandidatesNumber = 1
StrongBranchingPhaseTwoTreeSizeEstimRatio = 0.1
MaxTimeForRestrictedMasterIpHeur = -1
DivingHeurUseDepthLimit = 0
MaxLDSbreadth = 3
MaxLDSdepth = 2
New model incumbent solution 1e+06, TIME = 0h0m0s3t = 3
Model is built TIME = 0h0m1s85t = 185
************************************************************************************************
**** BaB tree root node
**** Local DB = -1e+12, global bounds : [ -1e+12 , 1e+06 ], TIME = 0h0m1s85t = 185
**** 1 open nodes, 0 columns (0 active), 0 dyn. constrs. (0 active), 406 art. vars. (406 active)
************************************************************************************************
<DWph=2> <it= 10> <et=3.65> <Mt= 0.00> <Spt= 1.79> <nCl=1000> <DB=-4375910393.3666> <Mlp=226453453.0716> <PB=1000000> 
<DWph=2> <it= 20> <et=5.19> <Mt= 0.02> <Spt= 1.52> <nCl=1000> <DB=-3490997838.8723> <Mlp=203288168.5362> <PB=1000000> 
<DWph=2> <it= 30> <et=6.67> <Mt= 0.02> <Spt= 1.45> <nCl=1000> <DB=-2741195270.1871> <Mlp=178919920.3866> <PB=1000000> 
<DWph=2> <it= 40> <et=8.09> <Mt= 0.06> <Spt= 1.37> <nCl=1000> <DB=-1933261138.0506> <Mlp=146069749.5287> <PB=1000000> 
<DWph=2> <it= 50> <et=9.64> <Mt= 0.14> <Spt= 1.40> <nCl=1000> <DB=-1305226046.8515> <Mlp=114046915.1138> <PB=1000000> 
<DWph=2> <it= 60> <et=10.98> <Mt= 0.16> <Spt= 1.18> <nCl=1000> <DB=-499530109.0272> <Mlp=88156783.7046> <PB=1000000> 
<DWph=2> <it= 70> <et=12.52> <Mt= 0.23> <Spt= 1.31> <nCl=1000> <DB=-312016523.9024> <Mlp=74597854.3005> <PB=1000000> 
<DWph=2> <it= 80> <et=14.12> <Mt= 0.30> <Spt= 1.29> <nCl=1000> <DB=-226143145.1274> <Mlp=63521654.5771> <PB=1000000> 
<DWph=2> <it= 90> <et=15.56> <Mt= 0.26> <Spt= 1.19> <nCl=1000> <DB=-197976125.4610> <Mlp=54050444.4358> <PB=1000000> 
<DWph=2> <it=100> <et=16.93> <Mt= 0.19> <Spt= 1.17> <nCl=1000> <DB=-188549814.0443> <Mlp=43140568.6349> <PB=1000000> 
<DWph=2> <it=110> <et=18.96> <Mt= 0.21> <Spt= 1.76> <nCl=970> <DB=   31.2271> <Mlp=   68.7486> <PB=1000000> 
<DWph=2> <it=120> <et=20.41> <Mt= 0.24> <Spt= 1.21> <nCl=1000> <DB=   44.7959> <Mlp=   66.3052> <PB=1000000> 
<DWph=2> <it=130> <et=21.90> <Mt= 0.26> <Spt= 1.22> <nCl=982> <DB=   62.2530> <Mlp=   65.0790> <PB=1000000> 
<DWph=2> <it=140> <et=23.54> <Mt= 0.17> <Spt= 1.42> <nCl=998> <DB=   64.5710> <Mlp=   65.0178> <PB=1000000> 
<DWph=2> <it=150> <et=25.14> <Mt= 0.13> <Spt= 1.46> <nCl=769> <DB=   64.9243> <Mlp=   65.0023> <PB=1000000> 
<DWph=2> <it=160> <et=26.71> <Mt= 0.07> <Spt= 1.51> <nCl=306> <DB=   64.9972> <Mlp=   65.0013> <PB=1000000> 
<DWph=2> <it=161> <et=27.01> <Mt= 0.00> <Spt= 0.29> <nCl=  0> <DB=   65.0013> <Mlp=   65.0013> <PB=1000000> 
<DWph=1> <it=170> <et=28.62> <Mt= 0.08> <Spt= 1.53> <nCl=849> <DB=   64.9919> <Mlp=   65.0000> <PB=1000000> 
<DWph=1> <it=174> <et=29.66> <Mt= 0.02> <Spt= 1.01> <nCl=156> <DB=   65.0000> <Mlp=   65.0000> <PB=1000000> 
<DWph=0> <it=175> <et=29.83> <Mt= 0.00> <Spt= 0.17> <nCl=  0> <DB=   65.0000> <Mlp=   65.0000> <PB=1000000> 
Reduced cost fixing for graph G_1... took 6.75 sec., 456109 buck. arcs remain (85% from prev., 37.1% from max.)
Run enumeration... took 0.1 sec. and not succeeded.
ColGenEvalAlg final dual bound: 65 (rounded: 65)
----------- Diving heuristic started -----------
<DWph=2> <it=  1> <et=36.74> <Mt= 0.00> <Spt= 0.00> <nCl=  0> <DB=   65.0000> <Mlp=   65.0000> <PB=1000000> 
<DWph=1> <it=  2> <et=36.74> <Mt= 0.01> <Spt= 0.00> <nCl=  0> <DB=   65.0000> <Mlp=   65.0000> <PB=1000000> 
---- Diving heuristic node with dive number = 0, fix depth = 0 and tabu list size = 0
Fixed projected solution = [x_1_0_1_OspV=1, x_1_34_1_OspV=1, x_1_106_1_OspV=1, x_1_169_1_OspV=1]
<DWph=2> <it=  1> <et=36.81> <Mt= 0.00> <Spt= 0.00> <nCl=  0> <DB=   65.0000> <Mlp=   65.0000> <PB=1000000> 
<DWph=1> <it=  2> <et=36.81> <Mt= 0.00> <Spt= 0.00> <nCl=  0> <DB=   65.0000> <Mlp=   65.0000> <PB=1000000> 
---- Diving heuristic node with dive number = 0, fix depth = 0 and tabu list size = 0
Fixed projected solution = [x_1_0_1_OspV=1, x_1_23_1_OspV=1, x_1_87_1_OspV=1, x_1_186_1_OspV=1]
<DWph=2> <it=  1> <et=36.87> <Mt= 0.00> <Spt= 0.00> <nCl=  0> <DB=   65.0000> <Mlp=   65.0000> <PB=1000000> 
<DWph=1> <it=  2> <et=36.87> <Mt= 0.00> <Spt= 0.00> <nCl=  0> <DB=   65.0000> <Mlp=   65.0000> <PB=1000000> 
---- Diving heuristic node with dive number = 0, fix depth = 0 and tabu list size = 0
Fixed projected solution = [x_1_0_1_OspV=1, x_1_46_1_OspV=1, x_1_113_1_OspV=1, x_1_162_1_OspV=1]
<DWph=2> <it=  1> <et=36.97> <Mt= 0.01> <Spt= 0.00> <nCl=  0> <DB=   65.0000> <Mlp=   65.0000> <PB=1000000> 
<DWph=1> <it=  2> <et=36.97> <Mt= 0.00> <Spt= 0.00> <nCl=  0> <DB=   65.0000> <Mlp=   65.0000> <PB=1000000> 
---- Diving heuristic node with dive number = 0, fix depth = 0 and tabu list size = 0
Fixed projected solution = [x_1_0_1_OspV=1, x_1_5_1_OspV=1, x_1_109_1_OspV=1, x_1_173_1_OspV=1]
<DWph=2> <it=  1> <et=37.03> <Mt= 0.00> <Spt= 0.00> <nCl=  0> <DB=   65.0000> <Mlp=   65.0000> <PB=1000000> 
<DWph=1> <it=  2> <et=37.03> <Mt= 0.00> <Spt= 0.00> <nCl=  0> <DB=   65.0000> <Mlp=   65.0000> <PB=1000000> 
---- Diving heuristic node with dive number = 0, fix depth = 0 and tabu list size = 0
Fixed projected solution = [x_1_0_1_OspV=1, x_1_4_1_OspV=1, x_1_82_1_OspV=1, x_1_192_1_OspV=1]
<DWph=2> <it=  1> <et=37.09> <Mt= 0.00> <Spt= 0.00> <nCl=  0> <DB=   65.0000> <Mlp=   65.0000> <PB=1000000> 
<DWph=1> <it=  2> <et=37.09> <Mt= 0.00> <Spt= 0.00> <nCl=  0> <DB=   65.0000> <Mlp=   65.0000> <PB=1000000> 
---- Diving heuristic node with dive number = 0, fix depth = 0 and tabu list size = 0
Fixed projected solution = [x_1_0_1_OspV=1, x_1_57_1_OspV=1, x_1_122_1_OspV=1, x_1_154_1_OspV=1]
<DWph=2> <it=  1> <et=37.15> <Mt= 0.01> <Spt= 0.00> <nCl=  0> <DB=   65.0000> <Mlp=   65.0000> <PB=1000000> 
<DWph=1> <it=  2> <et=37.15> <Mt= 0.00> <Spt= 0.00> <nCl=  0> <DB=   65.0000> <Mlp=   65.0000> <PB=1000000> 
---- Diving heuristic node with dive number = 0, fix depth = 0 and tabu list size = 0
Fixed projected solution = [x_1_0_1_OspV=1, x_1_51_1_OspV=1, x_1_116_1_OspV=1, x_1_159_1_OspV=1]
<DWph=2> <it=  1> <et=37.21> <Mt= 0.00> <Spt= 0.00> <nCl=  0> <DB=   65.0000> <Mlp=   65.0000> <PB=1000000> 
<DWph=1> <it=  2> <et=37.21> <Mt= 0.00> <Spt= 0.00> <nCl=  0> <DB=   65.0000> <Mlp=   65.0000> <PB=1000000> 
---- Diving heuristic node with dive number = 0, fix depth = 0 and tabu list size = 0
Fixed projected solution = [x_1_0_1_OspV=1, x_1_28_1_OspV=1, x_1_114_1_OspV=1, x_1_163_1_OspV=1]
<DWph=2> <it=  1> <et=37.27> <Mt= 0.00> <Spt= 0.00> <nCl=  0> <DB=   65.0000> <Mlp=   65.0000> <PB=1000000> 
<DWph=1> <it=  2> <et=37.27> <Mt= 0.00> <Spt= 0.00> <nCl=  0> <DB=   65.0000> <Mlp=   65.0000> <PB=1000000> 
---- Diving heuristic node with dive number = 0, fix depth = 1 and tabu list size = 0
Fixed projected solution = [x_1_0_1_OspV=1, x_1_35_1_OspV=1, x_1_99_1_OspV=1, x_1_175_1_OspV=1]
<DWph=2> <it=  1> <et=37.32> <Mt= 0.01> <Spt= 0.00> <nCl=  0> <DB=   65.0000> <Mlp=   65.0000> <PB=1000000> 
<DWph=1> <it=  2> <et=37.32> <Mt= 0.00> <Spt= 0.00> <nCl=  0> <DB=   65.0000> <Mlp=   65.0000> <PB=1000000> 
---- Diving heuristic node with dive number = 0, fix depth = 2 and tabu list size = 0
Fixed projected solution = [x_1_0_1_OspV=1, x_1_21_1_OspV=1, x_1_84_1_OspV=1, x_1_189_1_OspV=1]
<DWph=2> <it=  1> <et=37.39> <Mt= 0.01> <Spt= 0.00> <nCl=  0> <DB=   65.0000> <Mlp=   65.0000> <PB=1000000> 
<DWph=1> <it=  2> <et=37.39> <Mt= 0.00> <Spt= 0.00> <nCl=  0> <DB=   65.0000> <Mlp=   65.0000> <PB=1000000> 
---- Diving heuristic node with dive number = 0, fix depth = 3 and tabu list size = 0
Fixed projected solution = [x_1_0_1_OspV=1, x_1_12_1_OspV=1, x_1_73_1_OspV=1, x_1_199_1_OspV=1]
<DWph=2> <it=  1> <et=37.41> <Mt= 0.01> <Spt= 0.00> <nCl=  0> <DB=   65.0000> <Mlp=   65.0000> <PB=1000000> 
<DWph=1> <it=  2> <et=37.41> <Mt= 0.00> <Spt= 0.00> <nCl=  0> <DB=   65.0000> <Mlp=   65.0000> <PB=1000000> 
---- Diving heuristic node with dive number = 0, fix depth = 3 and tabu list size = 0
Fixed projected solution = [x_1_0_1_OspV=1, x_1_13_1_OspV=1, x_1_79_1_OspV=1, x_1_195_1_OspV=1]
<DWph=2> <it=  1> <et=37.42> <Mt= 0.00> <Spt= 0.00> <nCl=  0> <DB=   65.0000> <Mlp=   65.0000> <PB=1000000> 
<DWph=1> <it=  2> <et=37.42> <Mt= 0.00> <Spt= 0.00> <nCl=  0> <DB=   65.0000> <Mlp=   65.0000> <PB=1000000> 
---- Diving heuristic node with dive number = 0, fix depth = 4 and tabu list size = 0
Fixed projected solution = [x_1_0_1_OspV=1, x_1_69_1_OspV=1, x_1_133_1_OspV=1, x_1_143_1_OspV=1]
<DWph=2> <it=  1> <et=37.45> <Mt= 0.02> <Spt= 0.00> <nCl=  0> <DB=   65.0000> <Mlp=   65.0000> <PB=1000000> 
<DWph=1> <it=  2> <et=37.45> <Mt= 0.00> <Spt= 0.00> <nCl=  0> <DB=   65.0000> <Mlp=   65.0000> <PB=1000000> 
---- Diving heuristic node with dive number = 0, fix depth = 4 and tabu list size = 0
Fixed projected solution = [x_1_0_1_OspV=1, x_1_52_1_OspV=1, x_1_119_1_OspV=1, x_1_157_1_OspV=1]
<DWph=2> <it=  1> <et=37.46> <Mt= 0.00> <Spt= 0.00> <nCl=  0> <DB=   65.0000> <Mlp=   65.0000> <PB=1000000> 
<DWph=1> <it=  2> <et=37.46> <Mt= 0.00> <Spt= 0.00> <nCl=  0> <DB=   65.0000> <Mlp=   65.0000> <PB=1000000> 
---- Diving heuristic node with dive number = 0, fix depth = 5 and tabu list size = 0
Fixed projected solution = [x_1_0_1_OspV=1, x_1_68_1_OspV=1, x_1_135_1_OspV=1, x_1_141_1_OspV=1]
<DWph=2> <it=  1> <et=37.47> <Mt= 0.00> <Spt= 0.00> <nCl=  0> <DB=   65.0000> <Mlp=   65.0000> <PB=1000000> 
<DWph=1> <it=  2> <et=37.47> <Mt= 0.01> <Spt= 0.00> <nCl=  0> <DB=   65.0000> <Mlp=   65.0000> <PB=1000000> 
---- Diving heuristic node with dive number = 0, fix depth = 6 and tabu list size = 0
Fixed projected solution = [x_1_0_1_OspV=1, x_1_54_1_OspV=1, x_1_121_1_OspV=1, x_1_155_1_OspV=1]
<DWph=2> <it=  1> <et=37.48> <Mt= 0.00> <Spt= 0.00> <nCl=  0> <DB=   65.0000> <Mlp=   65.0000> <PB=1000000> 
<DWph=1> <it=  2> <et=37.48> <Mt= 0.00> <Spt= 0.00> <nCl=  0> <DB=   65.0000> <Mlp=   65.0000> <PB=1000000> 
---- Diving heuristic node with dive number = 0, fix depth = 7 and tabu list size = 0
Fixed projected solution = [x_1_0_1_OspV=1, x_1_62_1_OspV=1, x_1_127_1_OspV=1, x_1_149_1_OspV=1]
<DWph=2> <it=  1> <et=37.51> <Mt= 0.02> <Spt= 0.00> <nCl=  0> <DB=   65.0000> <Mlp=   65.0000> <PB=1000000> 
<DWph=1> <it=  2> <et=37.51> <Mt= 0.00> <Spt= 0.00> <nCl=  0> <DB=   65.0000> <Mlp=   65.0000> <PB=1000000> 
---- Diving heuristic node with dive number = 0, fix depth = 8 and tabu list size = 0
Fixed projected solution = [x_1_0_1_OspV=1, x_1_31_1_OspV=1, x_1_95_1_OspV=1, x_1_180_1_OspV=1]
<DWph=2> <it=  1> <et=37.54> <Mt= 0.03> <Spt= 0.00> <nCl=  0> <DB=   65.0000> <Mlp=   65.0000> <PB=1000000> 
<DWph=1> <it=  2> <et=37.54> <Mt= 0.00> <Spt= 0.00> <nCl=  0> <DB=   65.0000> <Mlp=   65.0000> <PB=1000000> 
---- Diving heuristic node with dive number = 0, fix depth = 8 and tabu list size = 0
Fixed projected solution = [x_1_0_1_OspV=1, x_1_67_1_OspV=1, x_1_136_1_OspV=1, x_1_142_1_OspV=1]
<DWph=2> <it=  1> <et=37.55> <Mt= 0.00> <Spt= 0.00> <nCl=  0> <DB=   65.0000> <Mlp=   65.0000> <PB=1000000> 
<DWph=1> <it=  2> <et=37.55> <Mt= 0.00> <Spt= 0.00> <nCl=  0> <DB=   65.0000> <Mlp=   65.0000> <PB=1000000> 
---- Diving heuristic node with dive number = 0, fix depth = 9 and tabu list size = 0
Fixed projected solution = [x_1_0_1_OspV=1, x_1_32_1_OspV=1, x_1_98_1_OspV=1, x_1_178_1_OspV=1]
<DWph=2> <it=  1> <et=37.61> <Mt= 0.04> <Spt= 0.00> <nCl=  0> <DB=   65.0000> <Mlp=   65.0000> <PB=1000000> 
<DWph=1> <it=  2> <et=37.61> <Mt= 0.00> <Spt= 0.00> <nCl=  0> <DB=   65.0000> <Mlp=   65.0000> <PB=1000000> 
---- Diving heuristic node with dive number = 0, fix depth = 10 and tabu list size = 0
Fixed projected solution = [x_1_0_1_OspV=1, x_1_38_1_OspV=1, x_1_102_1_OspV=1, x_1_172_1_OspV=1]
<DWph=2> <it=  1> <et=37.66> <Mt= 0.05> <Spt= 0.00> <nCl=  0> <DB=   65.0000> <Mlp=   65.0000> <PB=1000000> 
<DWph=1> <it=  2> <et=37.66> <Mt= 0.01> <Spt= 0.00> <nCl=  0> <DB=   65.0000> <Mlp=   65.0000> <PB=1000000> 
---- Diving heuristic node with dive number = 0, fix depth = 11 and tabu list size = 0
Fixed projected solution = [x_1_0_1_OspV=1, x_1_37_1_OspV=1, x_1_132_1_OspV=1, x_1_148_1_OspV=1]
<DWph=2> <it=  4> <et=38.23> <Mt= 0.08> <Spt= 0.48> <nCl=300> <DB=   64.9946> <Mlp=   65.0000> <PB=1000000> 
<DWph=1> <it=  5> <et=38.24> <Mt= 0.00> <Spt= 0.00> <nCl=  0> <DB=   65.0000> <Mlp=   65.0000> <PB=1000000> 
---- Diving heuristic node with dive number = 0, fix depth = 12 and tabu list size = 0
Fixed projected solution = [x_1_0_1_OspV=1, x_1_63_1_OspV=1, x_1_129_1_OspV=1, x_1_147_1_OspV=1]
<DWph=2> <it=  2> <et=38.42> <Mt= 0.03> <Spt= 0.14> <nCl=100> <DB=   64.9945> <Mlp=   65.0000> <PB=1000000> 
<DWph=1> <it=  3> <et=38.42> <Mt= 0.00> <Spt= 0.00> <nCl=  0> <DB=   65.0000> <Mlp=   65.0000> <PB=1000000> 
---- Diving heuristic node with dive number = 0, fix depth = 13 and tabu list size = 0
Fixed projected solution = [x_1_0_1_OspV=1, x_1_19_1_OspV=1, x_1_77_1_OspV=1, x_1_194_1_OspV=1]
<DWph=2> <it=  6> <et=39.84> <Mt= 0.05> <Spt= 1.32> <nCl=377> <DB=   65.0000> <Mlp=   65.0000> <PB=1000000> 
<DWph=1> <it=  9> <et=40.19> <Mt= 0.01> <Spt= 0.33> <nCl=156> <DB=   64.9910> <Mlp=   65.0000> <PB=1000000> 
---- Diving heuristic node with dive number = 0, fix depth = 13 and tabu list size = 0
Fixed projected solution = [x_1_0_1_OspV=1, x_1_18_1_OspV=1, x_1_78_1_OspV=1, x_1_193_1_OspV=1]
<DWph=2> <it=  1> <et=40.20> <Mt= 0.00> <Spt= 0.00> <nCl=  0> <DB=   65.0000> <Mlp=   65.0000> <PB=1000000> 
<DWph=1> <it=  2> <et=40.20> <Mt= 0.00> <Spt= 0.00> <nCl=  0> <DB=   65.0000> <Mlp=   65.0000> <PB=1000000> 
---- Diving heuristic node with dive number = 0, fix depth = 14 and tabu list size = 0
Fixed projected solution = [x_1_0_1_OspV=1, x_1_60_1_OspV=1, x_1_125_1_OspV=1, x_1_151_1_OspV=1]
<DWph=2> <it=  5> <et=41.38> <Mt= 0.03> <Spt= 1.15> <nCl=161> <DB=   65.0000> <Mlp=   65.0000> <PB=1000000> 
<DWph=1> <it=  7> <et=41.55> <Mt= 0.01> <Spt= 0.16> <nCl=100> <DB=   64.9919> <Mlp=   65.0000> <PB=1000000> 
---- Diving heuristic node with dive number = 0, fix depth = 15 and tabu list size = 0
Fixed projected solution = [x_1_0_1_OspV=1, x_1_36_1_OspV=1, x_1_100_1_OspV=1, x_1_174_1_OspV=1]
<DWph=2> <it=  2> <et=42.01> <Mt= 0.02> <Spt= 0.43> <nCl= 57> <DB=   64.9963> <Mlp=   65.0000> <PB=1000000> 
<DWph=1> <it=  4> <et=42.18> <Mt= 0.01> <Spt= 0.16> <nCl= 79> <DB=   64.9931> <Mlp=   65.0000> <PB=1000000> 
---- Diving heuristic node with dive number = 0, fix depth = 16 and tabu list size = 0
Fixed projected solution = [x_1_0_1_OspV=1, x_1_43_1_OspV=1, x_1_110_1_OspV=1, x_1_166_1_OspV=1]
<DWph=2> <it=  1> <et=42.25> <Mt= 0.05> <Spt= 0.00> <nCl=  0> <DB=   65.0000> <Mlp=   65.0000> <PB=1000000> 
<DWph=1> <it=  2> <et=42.25> <Mt= 0.00> <Spt= 0.00> <nCl=  0> <DB=   65.0000> <Mlp=   65.0000> <PB=1000000> 
---- Diving heuristic node with dive number = 0, fix depth = 16 and tabu list size = 0
Fixed projected solution = [x_1_0_1_OspV=1, x_1_41_1_OspV=1, x_1_107_1_OspV=1, x_1_168_1_OspV=1]
<DWph=2> <it=  1> <et=42.26> <Mt= 0.00> <Spt= 0.00> <nCl=  0> <DB=   65.0000> <Mlp=   65.0000> <PB=1000000> 
<DWph=1> <it=  2> <et=42.26> <Mt= 0.00> <Spt= 0.00> <nCl=  0> <DB=   65.0000> <Mlp=   65.0000> <PB=1000000> 
---- Diving heuristic node with dive number = 0, fix depth = 17 and tabu list size = 0
Fixed projected solution = [x_1_0_1_OspV=1, x_1_16_1_OspV=1, x_1_81_1_OspV=1, x_1_191_1_OspV=1]
<DWph=2> <it=  2> <et=42.46> <Mt= 0.04> <Spt= 0.15> <nCl=100> <DB=   64.9905> <Mlp=   65.0000> <PB=65> 
New model incumbent solution 65, TIME = 0h0m42s47t = 4247
************************************************************************************************
Search is finished, global bounds : [ 65 , 65 ], TIME = 0h0m42s47t = 4247
************************************************************************************************
[32mBaPCod : solution defined.[00m
statistics_cols: instance & :Optimal & cutoff & :bcRecRootDb & :bcTimeRootEval & :bcCountNodeProc & :bcRecBestDb & :bcRecBestInc & :bcTimeMain \\
statistics: 201_2500_DI_32 & 1 & 1.0e6 & 65.00 & 36.74 & 1 & 65.00 & 65 & 42.47 \\
########################################################
bin_id=1: 78(0) 475(1) 1803(1) 
bin_id=2: 32(0) 666(1) 1658(1) 
bin_id=3: 80(0) 403(1) 1873(1) 
bin_id=4: 68(0) 350(1) 1938(1) 
bin_id=5: 56(0) 290(1) 2010(1) 
bin_id=6: 192(0) 982(1) 1182(1) 
bin_id=7: 44(0) 242(1) 2070(1) 
bin_id=8: 112(0) 565(1) 1679(1) 
bin_id=9: 54(0) 271(1) 2031(1) 
bin_id=10: 46(0) 231(1) 2079(1) 
bin_id=11: 162(0) 817(1) 1377(1) 
bin_id=12: 114(0) 1053(1) 1189(1) 
bin_id=13: 90(0) 459(1) 1807(1) 
bin_id=14: 194(0) 977(1) 1185(1) 
bin_id=15: 184(0) 930(1) 1242(1) 
bin_id=16: 178(0) 897(1) 1281(1) 
bin_id=17: 66(0) 333(1) 1957(1) 
bin_id=18: 76(0) 381(1) 1899(1) 
bin_id=19: 30(0) 499(1) 1827(1) 
bin_id=20: 108(0) 547(1) 1701(1) 
bin_id=21: 88(0) 951(1) 1317(1) 
bin_id=22: 38(0) 199(1) 2119(1) 
bin_id=23: 158(0) 801(1) 1397(1) 
bin_id=24: 84(0) 429(1) 1843(1) 
bin_id=25: 44(0) 226(1) 2086(1) 
bin_id=26: 58(0) 301(1) 1997(1) 
bin_id=27: 30(0) 255(1) 2071(1) 
bin_id=28: 44(0) 229(1) 2083(1) 
bin_id=29: 76(0) 390(1) 1890(1) 
bin_id=30: 88(0) 454(1) 1814(1) 
bin_id=31: 194(0) 981(1) 1181(1) 
bin_id=32: 134(0) 679(1) 1543(1) 
bin_id=33: 58(0) 297(1) 2001(1) 
bin_id=34: 90(0) 455(1) 1811(1) 
bin_id=35: 156(0) 787(1) 1413(1) 
bin_id=36: 122(0) 667(1) 1567(1) 
bin_id=37: 56(0) 283(1) 2017(1) 
bin_id=38: 50(0) 259(1) 2047(1) 
bin_id=39: 144(0) 742(1) 1470(1) 
bin_id=40: 68(0) 341(1) 1947(1) 
bin_id=41: 128(0) 649(1) 1579(1) 
bin_id=42: 108(0) 554(1) 1694(1) 
bin_id=43: 136(0) 702(1) 1518(1) 
bin_id=44: 448(0) 876(1) 1032(1) 
bin_id=45: 168(0) 858(1) 1330(1) 
bin_id=46: 40(0) 214(1) 2102(1) 
bin_id=47: 186(0) 933(1) 1237(1) 
bin_id=48: 46(0) 235(1) 2075(1) 
bin_id=49: 62(0) 613(1) 1681(1) 
bin_id=50: 138(0) 691(1) 1527(1) 
bin_id=51: 98(0) 495(1) 1763(1) 
bin_id=52: 42(0) 215(1) 2099(1) 
bin_id=53: 4(0) 474(1) 1878(1) 
bin_id=54: 164(0) 826(1) 1366(1) 
bin_id=55: 52(0) 262(1) 2042(1) 
bin_id=56: 100(0) 514(1) 1742(1) 
bin_id=57: 124(0) 638(1) 1594(1) 
bin_id=58: 92(0) 482(1) 1782(1) 
bin_id=59: 36(0) 202(1) 2118(1) 
bin_id=60: 40(0) 236(1) 2080(1) 
bin_id=61: 60(0) 318(1) 1978(1) 
bin_id=62: 12(0) 241(1) 2103(1) 
bin_id=63: 32(0) 188(0) 292(0) 320(1) 360(1) 1164(1) 
bin_id=64: 136(0) 144(0) 196(1) 1880(1) 
bin_id=65: 16(0) 32(0) 36(0) 112(1) 981(1) 1179(1) 
Objective value: 65.0
########################################################
