Application parameters:
  batch  =>  nothing
  instance  =>  "/IN/402_10000_DI_1.txt-Q2Half"
  ub  =>  1.0e6
  cfg  =>  "/CFG/BPP.cfg"
data = Colored Bin Packing dataset.
number of items = 403
number of colors = 2
capacity = 8184
Items : 
	 item 1, weight= 52, color= 0
	 item 2, weight= 56, color= 0
	 item 3, weight= 80, color= 0
	 item 4, weight= 80, color= 0
	 item 5, weight= 96, color= 0
	 item 6, weight= 100, color= 0
	 item 7, weight= 104, color= 0
	 item 8, weight= 112, color= 0
	 item 9, weight= 112, color= 0
	 item 10, weight= 126, color= 0
	 item 11, weight= 136, color= 0
	 item 12, weight= 136, color= 0
	 item 13, weight= 136, color= 0
	 item 14, weight= 140, color= 0
	 item 15, weight= 152, color= 0
	 item 16, weight= 152, color= 0
	 item 17, weight= 152, color= 0
	 item 18, weight= 160, color= 0
	 item 19, weight= 164, color= 0
	 item 20, weight= 168, color= 0
	 item 21, weight= 168, color= 0
	 item 22, weight= 168, color= 0
	 item 23, weight= 172, color= 0
	 item 24, weight= 172, color= 0
	 item 25, weight= 178, color= 0
	 item 26, weight= 178, color= 0
	 item 27, weight= 180, color= 0
	 item 28, weight= 182, color= 0
	 item 29, weight= 184, color= 0
	 item 30, weight= 188, color= 0
	 item 31, weight= 188, color= 0
	 item 32, weight= 190, color= 0
	 item 33, weight= 192, color= 0
	 item 34, weight= 192, color= 0
	 item 35, weight= 194, color= 0
	 item 36, weight= 194, color= 0
	 item 37, weight= 196, color= 0
	 item 38, weight= 196, color= 0
	 item 39, weight= 198, color= 0
	 item 40, weight= 208, color= 0
	 item 41, weight= 208, color= 0
	 item 42, weight= 208, color= 0
	 item 43, weight= 210, color= 0
	 item 44, weight= 212, color= 0
	 item 45, weight= 212, color= 0
	 item 46, weight= 216, color= 0
	 item 47, weight= 218, color= 0
	 item 48, weight= 218, color= 0
	 item 49, weight= 224, color= 0
	 item 50, weight= 224, color= 0
	 item 51, weight= 228, color= 0
	 item 52, weight= 232, color= 0
	 item 53, weight= 232, color= 0
	 item 54, weight= 236, color= 0
	 item 55, weight= 240, color= 0
	 item 56, weight= 240, color= 0
	 item 57, weight= 240, color= 0
	 item 58, weight= 244, color= 0
	 item 59, weight= 244, color= 0
	 item 60, weight= 256, color= 0
	 item 61, weight= 256, color= 0
	 item 62, weight= 260, color= 0
	 item 63, weight= 264, color= 0
	 item 64, weight= 266, color= 0
	 item 65, weight= 266, color= 0
	 item 66, weight= 266, color= 0
	 item 67, weight= 270, color= 0
	 item 68, weight= 272, color= 0
	 item 69, weight= 276, color= 0
	 item 70, weight= 276, color= 0
	 item 71, weight= 280, color= 0
	 item 72, weight= 288, color= 0
	 item 73, weight= 292, color= 0
	 item 74, weight= 294, color= 0
	 item 75, weight= 304, color= 0
	 item 76, weight= 308, color= 0
	 item 77, weight= 312, color= 0
	 item 78, weight= 312, color= 0
	 item 79, weight= 320, color= 0
	 item 80, weight= 324, color= 0
	 item 81, weight= 326, color= 0
	 item 82, weight= 326, color= 0
	 item 83, weight= 326, color= 0
	 item 84, weight= 330, color= 0
	 item 85, weight= 336, color= 0
	 item 86, weight= 336, color= 0
	 item 87, weight= 340, color= 0
	 item 88, weight= 340, color= 0
	 item 89, weight= 346, color= 0
	 item 90, weight= 348, color= 0
	 item 91, weight= 368, color= 0
	 item 92, weight= 376, color= 0
	 item 93, weight= 384, color= 0
	 item 94, weight= 388, color= 0
	 item 95, weight= 390, color= 0
	 item 96, weight= 392, color= 0
	 item 97, weight= 392, color= 0
	 item 98, weight= 396, color= 0
	 item 99, weight= 396, color= 0
	 item 100, weight= 400, color= 0
	 item 101, weight= 400, color= 0
	 item 102, weight= 400, color= 0
	 item 103, weight= 416, color= 0
	 item 104, weight= 440, color= 0
	 item 105, weight= 448, color= 0
	 item 106, weight= 452, color= 0
	 item 107, weight= 452, color= 0
	 item 108, weight= 454, color= 0
	 item 109, weight= 456, color= 0
	 item 110, weight= 456, color= 0
	 item 111, weight= 464, color= 0
	 item 112, weight= 480, color= 0
	 item 113, weight= 488, color= 0
	 item 114, weight= 504, color= 0
	 item 115, weight= 512, color= 0
	 item 116, weight= 512, color= 0
	 item 117, weight= 516, color= 0
	 item 118, weight= 516, color= 0
	 item 119, weight= 520, color= 0
	 item 120, weight= 528, color= 0
	 item 121, weight= 532, color= 0
	 item 122, weight= 536, color= 0
	 item 123, weight= 540, color= 0
	 item 124, weight= 544, color= 0
	 item 125, weight= 556, color= 0
	 item 126, weight= 572, color= 0
	 item 127, weight= 588, color= 0
	 item 128, weight= 592, color= 0
	 item 129, weight= 592, color= 0
	 item 130, weight= 592, color= 0
	 item 131, weight= 600, color= 0
	 item 132, weight= 632, color= 0
	 item 133, weight= 664, color= 0
	 item 134, weight= 680, color= 0
	 item 135, weight= 680, color= 0
	 item 136, weight= 680, color= 0
	 item 137, weight= 680, color= 0
	 item 138, weight= 680, color= 1
	 item 139, weight= 714, color= 1
	 item 140, weight= 716, color= 1
	 item 141, weight= 762, color= 1
	 item 142, weight= 780, color= 1
	 item 143, weight= 782, color= 1
	 item 144, weight= 812, color= 1
	 item 145, weight= 826, color= 1
	 item 146, weight= 830, color= 1
	 item 147, weight= 838, color= 1
	 item 148, weight= 842, color= 1
	 item 149, weight= 844, color= 1
	 item 150, weight= 862, color= 1
	 item 151, weight= 870, color= 1
	 item 152, weight= 884, color= 1
	 item 153, weight= 891, color= 1
	 item 154, weight= 895, color= 1
	 item 155, weight= 902, color= 1
	 item 156, weight= 911, color= 1
	 item 157, weight= 924, color= 1
	 item 158, weight= 949, color= 1
	 item 159, weight= 950, color= 1
	 item 160, weight= 951, color= 1
	 item 161, weight= 964, color= 1
	 item 162, weight= 966, color= 1
	 item 163, weight= 971, color= 1
	 item 164, weight= 975, color= 1
	 item 165, weight= 994, color= 1
	 item 166, weight= 995, color= 1
	 item 167, weight= 1016, color= 0
	 item 168, weight= 1018, color= 1
	 item 169, weight= 1049, color= 1
	 item 170, weight= 1050, color= 1
	 item 171, weight= 1055, color= 1
	 item 172, weight= 1070, color= 1
	 item 173, weight= 1084, color= 1
	 item 174, weight= 1084, color= 1
	 item 175, weight= 1095, color= 1
	 item 176, weight= 1099, color= 1
	 item 177, weight= 1116, color= 1
	 item 178, weight= 1120, color= 1
	 item 179, weight= 1142, color= 1
	 item 180, weight= 1147, color= 1
	 item 181, weight= 1150, color= 1
	 item 182, weight= 1183, color= 1
	 item 183, weight= 1189, color= 1
	 item 184, weight= 1204, color= 1
	 item 185, weight= 1212, color= 1
	 item 186, weight= 1222, color= 1
	 item 187, weight= 1231, color= 1
	 item 188, weight= 1234, color= 1
	 item 189, weight= 1296, color= 1
	 item 190, weight= 1308, color= 1
	 item 191, weight= 1314, color= 1
	 item 192, weight= 1331, color= 1
	 item 193, weight= 1333, color= 1
	 item 194, weight= 1337, color= 1
	 item 195, weight= 1341, color= 1
	 item 196, weight= 1353, color= 1
	 item 197, weight= 1386, color= 1
	 item 198, weight= 1388, color= 1
	 item 199, weight= 1402, color= 1
	 item 200, weight= 1410, color= 1
	 item 201, weight= 1465, color= 1
	 item 202, weight= 1476, color= 1
	 item 203, weight= 1479, color= 1
	 item 204, weight= 1534, color= 1
	 item 205, weight= 1546, color= 1
	 item 206, weight= 1554, color= 1
	 item 207, weight= 1588, color= 1
	 item 208, weight= 1620, color= 1
	 item 209, weight= 1629, color= 1
	 item 210, weight= 1631, color= 1
	 item 211, weight= 1635, color= 1
	 item 212, weight= 1639, color= 1
	 item 213, weight= 1651, color= 1
	 item 214, weight= 1698, color= 1
	 item 215, weight= 1710, color= 1
	 item 216, weight= 1716, color= 1
	 item 217, weight= 1739, color= 1
	 item 218, weight= 1751, color= 1
	 item 219, weight= 1837, color= 1
	 item 220, weight= 1860, color= 1
	 item 221, weight= 1876, color= 1
	 item 222, weight= 1886, color= 1
	 item 223, weight= 1924, color= 1
	 item 224, weight= 1941, color= 1
	 item 225, weight= 1955, color= 1
	 item 226, weight= 1964, color= 1
	 item 227, weight= 1982, color= 1
	 item 228, weight= 1986, color= 1
	 item 229, weight= 2002, color= 1
	 item 230, weight= 2011, color= 1
	 item 231, weight= 2012, color= 1
	 item 232, weight= 2012, color= 1
	 item 233, weight= 2018, color= 1
	 item 234, weight= 2092, color= 1
	 item 235, weight= 2201, color= 1
	 item 236, weight= 2228, color= 1
	 item 237, weight= 2254, color= 1
	 item 238, weight= 2267, color= 1
	 item 239, weight= 2274, color= 1
	 item 240, weight= 2281, color= 1
	 item 241, weight= 2298, color= 1
	 item 242, weight= 2324, color= 1
	 item 243, weight= 2444, color= 1
	 item 244, weight= 2460, color= 1
	 item 245, weight= 2582, color= 1
	 item 246, weight= 2589, color= 1
	 item 247, weight= 2591, color= 1
	 item 248, weight= 2592, color= 1
	 item 249, weight= 2604, color= 1
	 item 250, weight= 2660, color= 1
	 item 251, weight= 2666, color= 1
	 item 252, weight= 2714, color= 1
	 item 253, weight= 2724, color= 1
	 item 254, weight= 2786, color= 1
	 item 255, weight= 2792, color= 1
	 item 256, weight= 2874, color= 1
	 item 257, weight= 2961, color= 1
	 item 258, weight= 2962, color= 1
	 item 259, weight= 2962, color= 1
	 item 260, weight= 2963, color= 1
	 item 261, weight= 3004, color= 1
	 item 262, weight= 3032, color= 1
	 item 263, weight= 3036, color= 1
	 item 264, weight= 3172, color= 1
	 item 265, weight= 3194, color= 1
	 item 266, weight= 3324, color= 1
	 item 267, weight= 3404, color= 1
	 item 268, weight= 3406, color= 1
	 item 269, weight= 3409, color= 1
	 item 270, weight= 3410, color= 1
	 item 271, weight= 3411, color= 1
	 item 272, weight= 3592, color= 1
	 item 273, weight= 4056, color= 1
	 item 274, weight= 4093, color= 1
	 item 275, weight= 4094, color= 1
	 item 276, weight= 4095, color= 1
	 item 277, weight= 4098, color= 1
	 item 278, weight= 4100, color= 1
	 item 279, weight= 4196, color= 1
	 item 280, weight= 4380, color= 1
	 item 281, weight= 4580, color= 1
	 item 282, weight= 4629, color= 1
	 item 283, weight= 4630, color= 1
	 item 284, weight= 4631, color= 1
	 item 285, weight= 4634, color= 1
	 item 286, weight= 4650, color= 1
	 item 287, weight= 4738, color= 1
	 item 288, weight= 4836, color= 1
	 item 289, weight= 4842, color= 1
	 item 290, weight= 4916, color= 1
	 item 291, weight= 4930, color= 1
	 item 292, weight= 4986, color= 1
	 item 293, weight= 4996, color= 1
	 item 294, weight= 5060, color= 1
	 item 295, weight= 5077, color= 1
	 item 296, weight= 5079, color= 1
	 item 297, weight= 5080, color= 1
	 item 298, weight= 5090, color= 1
	 item 299, weight= 5236, color= 1
	 item 300, weight= 5260, color= 1
	 item 301, weight= 5396, color= 1
	 item 302, weight= 5430, color= 1
	 item 303, weight= 5449, color= 1
	 item 304, weight= 5458, color= 1
	 item 305, weight= 5465, color= 1
	 item 306, weight= 5482, color= 1
	 item 307, weight= 5516, color= 1
	 item 308, weight= 5676, color= 1
	 item 309, weight= 5759, color= 1
	 item 310, weight= 5766, color= 1
	 item 311, weight= 5772, color= 1
	 item 312, weight= 5773, color= 1
	 item 313, weight= 5786, color= 1
	 item 314, weight= 5802, color= 1
	 item 315, weight= 5810, color= 1
	 item 316, weight= 5828, color= 1
	 item 317, weight= 5839, color= 1
	 item 318, weight= 5855, color= 1
	 item 319, weight= 5884, color= 1
	 item 320, weight= 5940, color= 1
	 item 321, weight= 6058, color= 1
	 item 322, weight= 6076, color= 1
	 item 323, weight= 6085, color= 1
	 item 324, weight= 6099, color= 1
	 item 325, weight= 6115, color= 1
	 item 326, weight= 6132, color= 1
	 item 327, weight= 6134, color= 1
	 item 328, weight= 6150, color= 1
	 item 329, weight= 6188, color= 1
	 item 330, weight= 6203, color= 1
	 item 331, weight= 6219, color= 1
	 item 332, weight= 6223, color= 1
	 item 333, weight= 6227, color= 1
	 item 334, weight= 6231, color= 1
	 item 335, weight= 6244, color= 1
	 item 336, weight= 6284, color= 1
	 item 337, weight= 6330, color= 1
	 item 338, weight= 6346, color= 1
	 item 339, weight= 6411, color= 1
	 item 340, weight= 6420, color= 1
	 item 341, weight= 6427, color= 1
	 item 342, weight= 6494, color= 1
	 item 343, weight= 6506, color= 1
	 item 344, weight= 6522, color= 1
	 item 345, weight= 6524, color= 1
	 item 346, weight= 6530, color= 1
	 item 347, weight= 6544, color= 1
	 item 348, weight= 6561, color= 1
	 item 349, weight= 6577, color= 1
	 item 350, weight= 6581, color= 1
	 item 351, weight= 6585, color= 1
	 item 352, weight= 6589, color= 1
	 item 353, weight= 6610, color= 1
	 item 354, weight= 6620, color= 1
	 item 355, weight= 6632, color= 1
	 item 356, weight= 6706, color= 1
	 item 357, weight= 6709, color= 1
	 item 358, weight= 6722, color= 1
	 item 359, weight= 6732, color= 1
	 item 360, weight= 6748, color= 1
	 item 361, weight= 6759, color= 1
	 item 362, weight= 6809, color= 1
	 item 363, weight= 6818, color= 1
	 item 364, weight= 6822, color= 1
	 item 365, weight= 6852, color= 1
	 item 366, weight= 6867, color= 1
	 item 367, weight= 6871, color= 1
	 item 368, weight= 6875, color= 1
	 item 369, weight= 6892, color= 1
	 item 370, weight= 6902, color= 1
	 item 371, weight= 6919, color= 1
	 item 372, weight= 6926, color= 1
	 item 373, weight= 6927, color= 1
	 item 374, weight= 6970, color= 1
	 item 375, weight= 6991, color= 1
	 item 376, weight= 6994, color= 1
	 item 377, weight= 7015, color= 1
	 item 378, weight= 7019, color= 1
	 item 379, weight= 7020, color= 1
	 item 380, weight= 7026, color= 1
	 item 381, weight= 7028, color= 1
	 item 382, weight= 7043, color= 1
	 item 383, weight= 7046, color= 1
	 item 384, weight= 7047, color= 1
	 item 385, weight= 7076, color= 1
	 item 386, weight= 7091, color= 1
	 item 387, weight= 7102, color= 1
	 item 388, weight= 7111, color= 1
	 item 389, weight= 7115, color= 1
	 item 390, weight= 7132, color= 1
	 item 391, weight= 7142, color= 1
	 item 392, weight= 7150, color= 1
	 item 393, weight= 7172, color= 1
	 item 394, weight= 7174, color= 1
	 item 395, weight= 7194, color= 1
	 item 396, weight= 7212, color= 1
	 item 397, weight= 7250, color= 1
	 item 398, weight= 7252, color= 1
	 item 399, weight= 7270, color= 1
	 item 400, weight= 7274, color= 1
	 item 401, weight= 7294, color= 1
	 item 402, weight= 7330, color= 1
	 item 403, weight= 7332, color= 1

VRPSolver warning: Interval set for resource 1 on source node (when source != sink) is ignored (by definition is [0.0,0.0])
[41m solve [00m
~~~~~~~~~~~~~~~~~~~~~~~~~~~~~~~~~~~~~~~~~~~~~~~~~~~~~~~~~~~~~~~~~~~~~~~~~~~~~~
VRPSolver v0.4.1, 24/03/2021. Web: vrpsolver.math.u-bordeaux.fr
Corresponds to the solver by Pessoa, Sadykov, Uchoa and Vanderbeck (2020)
Paper: dx.doi.org/10.1007/s10107-020-01523-z
USE THIS CODE ONLY FOR ACADEMIC PURPOSES AT YOUR OWN RISK
~~~~~~~~~~~~~~~~~~~~~~~~~~~~~~~~~~~~~~~~~~~~~~~~~~~~~~~~~~~~~~~~~~~~~~~~~~~~~~
BaPCod v053, 24/03/2021, © Inria Bordeaux, France
~~~~~~~~~~~~~~~~~~~~~~~~~~~~~~~~~~~~~~~~~~~~~~~~~~~~~~~~~~~~~~~~~~~~~~~~~~~~~~
VRPSolver parameters:
GlobalTimeLimit = 1800
MaxNbOfBBtreeNodeTreated = 100000
treeSearchStrategy = 1
RCSPstopCutGenTimeThresholdInPricing = 10
RCSPhardTimeThresholdInPricing = 20
RCSPnumberOfBucketsPerVertex = 2000
RCSPdynamicBucketSteps = 0
RCSPuseBidirectionalSearch = 1
RCSPapplyReducedCostFixing = 1
RCSPredCostFixingFalseGap = 0
RCSPmaxNumOfColsPerIteration = 100
RCSPmaxNumOfColsPerExactIteration = 100
RCSPheurLabelingStrategy = 4
StabilizationMinPhaseOfStage = 1
RCSPmaxNumOfLabelsInEnumeration = 100000
RCSPmaxNumOfEnumeratedSolutions = 1000000
RCSPmaxNumOfEnumSolutionsForMIP = 100000
RCSPinitNGneighbourhoodSize = 0
RCSPmaxNGneighbourhoodSize = 0
RCSPrankOneCutsMaxNumPerRound = 100
RCSPrankOneCutsMaxNumRows = -1
RCSPrankOneCutsMemoryType = 2
CutTailingOffThreshold = 0.02
CutTailingOffCounterThreshold = 3
SafeDualBoundScaleFactor = -1
StrongBranchingPhaseOneCandidatesNumber = 100
StrongBranchingPhaseOneTreeSizeEstimRatio = 0.3
StrongBranchingPhaseTwoCandidatesNumber = 1
StrongBranchingPhaseTwoTreeSizeEstimRatio = 0.1
MaxTimeForRestrictedMasterIpHeur = -1
DivingHeurUseDepthLimit = 0
MaxLDSbreadth = 3
MaxLDSdepth = 2
New model incumbent solution 1e+06, TIME = 0h0m0s3t = 3
Model is built TIME = 0h0m3s15t = 315
************************************************************************************************
**** BaB tree root node
**** Local DB = -1e+12, global bounds : [ -1e+12 , 1e+06 ], TIME = 0h0m3s15t = 315
**** 1 open nodes, 0 columns (0 active), 0 dyn. constrs. (0 active), 808 art. vars. (808 active)
************************************************************************************************
<DWph=2> <it= 10> <et=7.31> <Mt= 0.01> <Spt= 4.14> <nCl=1000> <DB=-7754480997.1684> <Mlp=458865401.5567> <PB=1000000> 
<DWph=2> <it= 20> <et=11.49> <Mt= 0.01> <Spt= 4.16> <nCl=1000> <DB=-6807060270.6528> <Mlp=432206178.9404> <PB=1000000> 
<DWph=2> <it= 30> <et=15.64> <Mt= 0.04> <Spt= 4.11> <nCl=1000> <DB=-6098787548.7281> <Mlp=399775402.8304> <PB=1000000> 
<DWph=2> <it= 40> <et=19.88> <Mt= 0.05> <Spt= 4.18> <nCl=1000> <DB=-5516897148.7780> <Mlp=372498966.1225> <PB=1000000> 
<DWph=2> <it= 50> <et=24.22> <Mt= 0.11> <Spt= 4.23> <nCl=1000> <DB=-4954406271.1885> <Mlp=340075103.4735> <PB=1000000> 
<DWph=2> <it= 60> <et=28.45> <Mt= 0.16> <Spt= 4.06> <nCl=1000> <DB=-4026551965.7533> <Mlp=309535805.2574> <PB=1000000> 
<DWph=2> <it= 70> <et=32.53> <Mt= 0.24> <Spt= 3.84> <nCl=1000> <DB=-3269488865.9052> <Mlp=266714056.0729> <PB=1000000> 
<DWph=2> <it= 80> <et=36.76> <Mt= 0.37> <Spt= 3.86> <nCl=1000> <DB=-2878627481.6574> <Mlp=222911596.9117> <PB=1000000> 
<DWph=2> <it= 90> <et=40.83> <Mt= 0.57> <Spt= 3.49> <nCl=1000> <DB=-2413235536.0985> <Mlp=194245435.9959> <PB=1000000> 
<DWph=2> <it=100> <et=44.48> <Mt= 0.39> <Spt= 3.26> <nCl=1000> <DB=-1128830888.4436> <Mlp=181878757.4315> <PB=1000000> 
<DWph=2> <it=110> <et=48.29> <Mt= 0.36> <Spt= 3.39> <nCl=1000> <DB=-841065795.0699> <Mlp=176759037.5994> <PB=1000000> 
<DWph=2> <it=120> <et=52.26> <Mt= 0.65> <Spt= 3.32> <nCl=1000> <DB=-752917778.7127> <Mlp=164315284.7253> <PB=1000000> 
<DWph=2> <it=130> <et=56.29> <Mt= 0.69> <Spt= 3.33> <nCl=1000> <DB=-551171387.9597> <Mlp=151565950.4895> <PB=1000000> 
<DWph=2> <it=140> <et=60.24> <Mt= 0.51> <Spt= 3.37> <nCl=1000> <DB=-411125295.4499> <Mlp=144435639.4707> <PB=1000000> 
<DWph=2> <it=150> <et=64.09> <Mt= 0.50> <Spt= 3.35> <nCl=1000> <DB=-419136548.6005> <Mlp=136290487.1922> <PB=1000000> 
<DWph=2> <it=160> <et=68.26> <Mt= 0.66> <Spt= 3.51> <nCl=1000> <DB=-451658446.2844> <Mlp=129563059.3330> <PB=1000000> 
<DWph=2> <it=170> <et=72.33> <Mt= 0.62> <Spt= 3.39> <nCl=1000> <DB=-370667719.2647> <Mlp=119465452.8742> <PB=1000000> 
<DWph=2> <it=180> <et=75.97> <Mt= 0.36> <Spt= 3.27> <nCl=1000> <DB=-398320968.2732> <Mlp=110814641.3137> <PB=1000000> 
<DWph=2> <it=190> <et=79.50> <Mt= 0.28> <Spt= 3.25> <nCl=1000> <DB=-358481941.3118> <Mlp=102086819.2840> <PB=1000000> 
<DWph=2> <it=200> <et=83.08> <Mt= 0.28> <Spt= 3.29> <nCl=1000> <DB=-371840834.8059> <Mlp=92344641.2168> <PB=1000000> 
<DWph=2> <it=210> <et=86.67> <Mt= 0.23> <Spt= 3.30> <nCl=1000> <DB=-359412992.3085> <Mlp=81938300.2654> <PB=1000000> 
<DWph=2> <it=220> <et=90.12> <Mt= 0.20> <Spt= 3.25> <nCl=1000> <DB=-353683574.9374> <Mlp=70919340.3864> <PB=1000000> 
<DWph=2> <it=230> <et=94.89> <Mt= 0.25> <Spt= 4.51> <nCl=924> <DB=-7007.5978> <Mlp=  141.3333> <PB=1000000> 
<DWph=2> <it=240> <et=98.36> <Mt= 0.15> <Spt= 3.28> <nCl=902> <DB=  -78.5012> <Mlp=  140.6203> <PB=1000000> 
<DWph=2> <it=250> <et=101.85> <Mt= 0.11> <Spt= 3.37> <nCl=1000> <DB=  -37.1771> <Mlp=  140.2958> <PB=1000000> 
<DWph=2> <it=260> <et=105.37> <Mt= 0.20> <Spt= 3.31> <nCl=1000> <DB=   62.5488> <Mlp=  139.0015> <PB=1000000> 
<DWph=2> <it=270> <et=109.43> <Mt= 0.45> <Spt= 3.60> <nCl=972> <DB=   55.1845> <Mlp=  136.2458> <PB=1000000> 
<DWph=2> <it=280> <et=113.33> <Mt= 0.41> <Spt= 3.43> <nCl=1000> <DB=   92.0807> <Mlp=  134.0797> <PB=1000000> 
