Application parameters:
  batch  =>  nothing
  instance  =>  "/IN/402_10000_DI_36.txt-Q2Half"
  ub  =>  1.0e6
  cfg  =>  "/CFG/BPP.cfg"
data = Colored Bin Packing dataset.
number of items = 403
number of colors = 2
capacity = 8256
Items : 
	 item 1, weight= 16, color= 0
	 item 2, weight= 32, color= 0
	 item 3, weight= 64, color= 0
	 item 4, weight= 64, color= 0
	 item 5, weight= 72, color= 0
	 item 6, weight= 92, color= 0
	 item 7, weight= 100, color= 0
	 item 8, weight= 116, color= 0
	 item 9, weight= 124, color= 0
	 item 10, weight= 128, color= 0
	 item 11, weight= 128, color= 0
	 item 12, weight= 136, color= 0
	 item 13, weight= 140, color= 0
	 item 14, weight= 144, color= 0
	 item 15, weight= 144, color= 0
	 item 16, weight= 144, color= 0
	 item 17, weight= 144, color= 0
	 item 18, weight= 144, color= 0
	 item 19, weight= 152, color= 0
	 item 20, weight= 156, color= 0
	 item 21, weight= 160, color= 0
	 item 22, weight= 164, color= 0
	 item 23, weight= 172, color= 0
	 item 24, weight= 176, color= 0
	 item 25, weight= 176, color= 0
	 item 26, weight= 176, color= 0
	 item 27, weight= 176, color= 0
	 item 28, weight= 176, color= 0
	 item 29, weight= 184, color= 0
	 item 30, weight= 184, color= 0
	 item 31, weight= 192, color= 0
	 item 32, weight= 192, color= 0
	 item 33, weight= 192, color= 0
	 item 34, weight= 196, color= 0
	 item 35, weight= 200, color= 0
	 item 36, weight= 200, color= 0
	 item 37, weight= 204, color= 0
	 item 38, weight= 204, color= 0
	 item 39, weight= 208, color= 0
	 item 40, weight= 208, color= 0
	 item 41, weight= 210, color= 0
	 item 42, weight= 212, color= 0
	 item 43, weight= 214, color= 0
	 item 44, weight= 216, color= 0
	 item 45, weight= 216, color= 0
	 item 46, weight= 216, color= 0
	 item 47, weight= 220, color= 0
	 item 48, weight= 220, color= 0
	 item 49, weight= 220, color= 0
	 item 50, weight= 224, color= 0
	 item 51, weight= 228, color= 0
	 item 52, weight= 232, color= 0
	 item 53, weight= 236, color= 0
	 item 54, weight= 238, color= 0
	 item 55, weight= 240, color= 0
	 item 56, weight= 240, color= 0
	 item 57, weight= 240, color= 0
	 item 58, weight= 240, color= 0
	 item 59, weight= 240, color= 0
	 item 60, weight= 244, color= 0
	 item 61, weight= 248, color= 0
	 item 62, weight= 248, color= 0
	 item 63, weight= 248, color= 0
	 item 64, weight= 256, color= 0
	 item 65, weight= 256, color= 0
	 item 66, weight= 260, color= 0
	 item 67, weight= 264, color= 0
	 item 68, weight= 266, color= 0
	 item 69, weight= 268, color= 0
	 item 70, weight= 270, color= 0
	 item 71, weight= 272, color= 0
	 item 72, weight= 272, color= 0
	 item 73, weight= 276, color= 0
	 item 74, weight= 288, color= 0
	 item 75, weight= 288, color= 0
	 item 76, weight= 296, color= 0
	 item 77, weight= 296, color= 0
	 item 78, weight= 302, color= 0
	 item 79, weight= 304, color= 0
	 item 80, weight= 304, color= 0
	 item 81, weight= 304, color= 0
	 item 82, weight= 312, color= 0
	 item 83, weight= 316, color= 0
	 item 84, weight= 320, color= 0
	 item 85, weight= 322, color= 0
	 item 86, weight= 328, color= 0
	 item 87, weight= 328, color= 0
	 item 88, weight= 334, color= 0
	 item 89, weight= 348, color= 0
	 item 90, weight= 352, color= 0
	 item 91, weight= 352, color= 0
	 item 92, weight= 358, color= 0
	 item 93, weight= 360, color= 0
	 item 94, weight= 368, color= 0
	 item 95, weight= 368, color= 0
	 item 96, weight= 376, color= 0
	 item 97, weight= 384, color= 0
	 item 98, weight= 388, color= 0
	 item 99, weight= 388, color= 0
	 item 100, weight= 400, color= 0
	 item 101, weight= 400, color= 0
	 item 102, weight= 400, color= 0
	 item 103, weight= 432, color= 0
	 item 104, weight= 436, color= 0
	 item 105, weight= 436, color= 0
	 item 106, weight= 438, color= 0
	 item 107, weight= 442, color= 0
	 item 108, weight= 448, color= 0
	 item 109, weight= 472, color= 0
	 item 110, weight= 472, color= 0
	 item 111, weight= 480, color= 1
	 item 112, weight= 488, color= 0
	 item 113, weight= 492, color= 0
	 item 114, weight= 492, color= 0
	 item 115, weight= 500, color= 0
	 item 116, weight= 502, color= 0
	 item 117, weight= 504, color= 1
	 item 118, weight= 512, color= 0
	 item 119, weight= 512, color= 0
	 item 120, weight= 544, color= 0
	 item 121, weight= 556, color= 1
	 item 122, weight= 568, color= 0
	 item 123, weight= 584, color= 0
	 item 124, weight= 586, color= 0
	 item 125, weight= 586, color= 0
	 item 126, weight= 596, color= 0
	 item 127, weight= 608, color= 0
	 item 128, weight= 624, color= 1
	 item 129, weight= 652, color= 0
	 item 130, weight= 672, color= 0
	 item 131, weight= 680, color= 0
	 item 132, weight= 680, color= 0
	 item 133, weight= 684, color= 0
	 item 134, weight= 684, color= 0
	 item 135, weight= 684, color= 0
	 item 136, weight= 686, color= 0
	 item 137, weight= 690, color= 1
	 item 138, weight= 712, color= 0
	 item 139, weight= 732, color= 1
	 item 140, weight= 740, color= 1
	 item 141, weight= 742, color= 1
	 item 142, weight= 766, color= 1
	 item 143, weight= 792, color= 1
	 item 144, weight= 808, color= 0
	 item 145, weight= 828, color= 1
	 item 146, weight= 834, color= 1
	 item 147, weight= 834, color= 1
	 item 148, weight= 836, color= 1
	 item 149, weight= 874, color= 1
	 item 150, weight= 904, color= 1
	 item 151, weight= 908, color= 1
	 item 152, weight= 912, color= 1
	 item 153, weight= 922, color= 1
	 item 154, weight= 928, color= 1
	 item 155, weight= 948, color= 1
	 item 156, weight= 964, color= 1
	 item 157, weight= 970, color= 1
	 item 158, weight= 976, color= 1
	 item 159, weight= 990, color= 1
	 item 160, weight= 1002, color= 1
	 item 161, weight= 1022, color= 1
	 item 162, weight= 1032, color= 1
	 item 163, weight= 1038, color= 1
	 item 164, weight= 1044, color= 1
	 item 165, weight= 1055, color= 1
	 item 166, weight= 1062, color= 1
	 item 167, weight= 1072, color= 1
	 item 168, weight= 1079, color= 1
	 item 169, weight= 1094, color= 0
	 item 170, weight= 1096, color= 1
	 item 171, weight= 1100, color= 1
	 item 172, weight= 1106, color= 1
	 item 173, weight= 1111, color= 1
	 item 174, weight= 1122, color= 1
	 item 175, weight= 1145, color= 1
	 item 176, weight= 1174, color= 1
	 item 177, weight= 1176, color= 0
	 item 178, weight= 1183, color= 1
	 item 179, weight= 1202, color= 1
	 item 180, weight= 1212, color= 1
	 item 181, weight= 1225, color= 1
	 item 182, weight= 1256, color= 1
	 item 183, weight= 1268, color= 1
	 item 184, weight= 1272, color= 1
	 item 185, weight= 1284, color= 1
	 item 186, weight= 1290, color= 1
	 item 187, weight= 1296, color= 1
	 item 188, weight= 1302, color= 0
	 item 189, weight= 1321, color= 1
	 item 190, weight= 1335, color= 1
	 item 191, weight= 1358, color= 1
	 item 192, weight= 1359, color= 1
	 item 193, weight= 1367, color= 1
	 item 194, weight= 1382, color= 1
	 item 195, weight= 1396, color= 1
	 item 196, weight= 1464, color= 1
	 item 197, weight= 1481, color= 1
	 item 198, weight= 1484, color= 1
	 item 199, weight= 1490, color= 1
	 item 200, weight= 1519, color= 1
	 item 201, weight= 1528, color= 1
	 item 202, weight= 1555, color= 1
	 item 203, weight= 1582, color= 1
	 item 204, weight= 1608, color= 1
	 item 205, weight= 1620, color= 1
	 item 206, weight= 1643, color= 1
	 item 207, weight= 1654, color= 1
	 item 208, weight= 1673, color= 1
	 item 209, weight= 1712, color= 0
	 item 210, weight= 1726, color= 1
	 item 211, weight= 1778, color= 1
	 item 212, weight= 1788, color= 1
	 item 213, weight= 1801, color= 1
	 item 214, weight= 1814, color= 1
	 item 215, weight= 1862, color= 1
	 item 216, weight= 1864, color= 1
	 item 217, weight= 1887, color= 1
	 item 218, weight= 1892, color= 1
	 item 219, weight= 1904, color= 1
	 item 220, weight= 1928, color= 1
	 item 221, weight= 1947, color= 1
	 item 222, weight= 1951, color= 1
	 item 223, weight= 1962, color= 1
	 item 224, weight= 1975, color= 1
	 item 225, weight= 2013, color= 1
	 item 226, weight= 2020, color= 1
	 item 227, weight= 2072, color= 1
	 item 228, weight= 2138, color= 1
	 item 229, weight= 2170, color= 1
	 item 230, weight= 2182, color= 1
	 item 231, weight= 2191, color= 1
	 item 232, weight= 2201, color= 1
	 item 233, weight= 2213, color= 1
	 item 234, weight= 2264, color= 1
	 item 235, weight= 2364, color= 1
	 item 236, weight= 2372, color= 1
	 item 237, weight= 2450, color= 1
	 item 238, weight= 2462, color= 1
	 item 239, weight= 2478, color= 1
	 item 240, weight= 2488, color= 1
	 item 241, weight= 2507, color= 1
	 item 242, weight= 2513, color= 1
	 item 243, weight= 2534, color= 1
	 item 244, weight= 2561, color= 1
	 item 245, weight= 2588, color= 1
	 item 246, weight= 2744, color= 1
	 item 247, weight= 2784, color= 1
	 item 248, weight= 2802, color= 1
	 item 249, weight= 2868, color= 1
	 item 250, weight= 2870, color= 1
	 item 251, weight= 2916, color= 1
	 item 252, weight= 2925, color= 1
	 item 253, weight= 2931, color= 1
	 item 254, weight= 2939, color= 1
	 item 255, weight= 2994, color= 1
	 item 256, weight= 3028, color= 1
	 item 257, weight= 3064, color= 1
	 item 258, weight= 3140, color= 1
	 item 259, weight= 3190, color= 1
	 item 260, weight= 3271, color= 1
	 item 261, weight= 3328, color= 1
	 item 262, weight= 3404, color= 1
	 item 263, weight= 3422, color= 1
	 item 264, weight= 3426, color= 1
	 item 265, weight= 3434, color= 1
	 item 266, weight= 3441, color= 1
	 item 267, weight= 3442, color= 1
	 item 268, weight= 3448, color= 1
	 item 269, weight= 3449, color= 1
	 item 270, weight= 3724, color= 1
	 item 271, weight= 3775, color= 1
	 item 272, weight= 3804, color= 1
	 item 273, weight= 4129, color= 1
	 item 274, weight= 4130, color= 1
	 item 275, weight= 4132, color= 1
	 item 276, weight= 4133, color= 1
	 item 277, weight= 4136, color= 1
	 item 278, weight= 4138, color= 1
	 item 279, weight= 4140, color= 1
	 item 280, weight= 4146, color= 1
	 item 281, weight= 4154, color= 1
	 item 282, weight= 4172, color= 1
	 item 283, weight= 4333, color= 1
	 item 284, weight= 4492, color= 1
	 item 285, weight= 4584, color= 1
	 item 286, weight= 4666, color= 1
	 item 287, weight= 4667, color= 1
	 item 288, weight= 4682, color= 1
	 item 289, weight= 4731, color= 1
	 item 290, weight= 4739, color= 1
	 item 291, weight= 4747, color= 1
	 item 292, weight= 4820, color= 1
	 item 293, weight= 4898, color= 1
	 item 294, weight= 4914, color= 1
	 item 295, weight= 4968, color= 1
	 item 296, weight= 5028, color= 1
	 item 297, weight= 5140, color= 1
	 item 298, weight= 5156, color= 1
	 item 299, weight= 5183, color= 1
	 item 300, weight= 5184, color= 1
	 item 301, weight= 5218, color= 1
	 item 302, weight= 5241, color= 1
	 item 303, weight= 5249, color= 1
	 item 304, weight= 5286, color= 1
	 item 305, weight= 5288, color= 1
	 item 306, weight= 5302, color= 1
	 item 307, weight= 5318, color= 1
	 item 308, weight= 5420, color= 1
	 item 309, weight= 5544, color= 1
	 item 310, weight= 5601, color= 1
	 item 311, weight= 5617, color= 1
	 item 312, weight= 5629, color= 1
	 item 313, weight= 5638, color= 1
	 item 314, weight= 5644, color= 1
	 item 315, weight= 5654, color= 1
	 item 316, weight= 5696, color= 1
	 item 317, weight= 5784, color= 1
	 item 318, weight= 5836, color= 1
	 item 319, weight= 5906, color= 1
	 item 320, weight= 5917, color= 1
	 item 321, weight= 5922, color= 1
	 item 322, weight= 5923, color= 1
	 item 323, weight= 5960, color= 1
	 item 324, weight= 5987, color= 1
	 item 325, weight= 5988, color= 1
	 item 326, weight= 5995, color= 1
	 item 327, weight= 6026, color= 1
	 item 328, weight= 6095, color= 1
	 item 329, weight= 6116, color= 1
	 item 330, weight= 6126, color= 1
	 item 331, weight= 6200, color= 1
	 item 332, weight= 6226, color= 1
	 item 333, weight= 6249, color= 1
	 item 334, weight= 6253, color= 1
	 item 335, weight= 6274, color= 1
	 item 336, weight= 6285, color= 1
	 item 337, weight= 6316, color= 1
	 item 338, weight= 6344, color= 1
	 item 339, weight= 6358, color= 1
	 item 340, weight= 6374, color= 1
	 item 341, weight= 6424, color= 1
	 item 342, weight= 6435, color= 1
	 item 343, weight= 6463, color= 1
	 item 344, weight= 6470, color= 1
	 item 345, weight= 6479, color= 1
	 item 346, weight= 6484, color= 1
	 item 347, weight= 6504, color= 1
	 item 348, weight= 6588, color= 1
	 item 349, weight= 6598, color= 1
	 item 350, weight= 6617, color= 1
	 item 351, weight= 6627, color= 1
	 item 352, weight= 6630, color= 1
	 item 353, weight= 6655, color= 1
	 item 354, weight= 6671, color= 1
	 item 355, weight= 6694, color= 1
	 item 356, weight= 6710, color= 1
	 item 357, weight= 6724, color= 1
	 item 358, weight= 6740, color= 1
	 item 359, weight= 6744, color= 1
	 item 360, weight= 6760, color= 1
	 item 361, weight= 6787, color= 1
	 item 362, weight= 6804, color= 1
	 item 363, weight= 6814, color= 1
	 item 364, weight= 6837, color= 1
	 item 365, weight= 6850, color= 1
	 item 366, weight= 6856, color= 1
	 item 367, weight= 6883, color= 1
	 item 368, weight= 6914, color= 1
	 item 369, weight= 6925, color= 1
	 item 370, weight= 6930, color= 1
	 item 371, weight= 6940, color= 1
	 item 372, weight= 6946, color= 1
	 item 373, weight= 6952, color= 1
	 item 374, weight= 6963, color= 1
	 item 375, weight= 6982, color= 1
	 item 376, weight= 6991, color= 1
	 item 377, weight= 7004, color= 1
	 item 378, weight= 7014, color= 1
	 item 379, weight= 7030, color= 1
	 item 380, weight= 7032, color= 1
	 item 381, weight= 7094, color= 1
	 item 382, weight= 7104, color= 1
	 item 383, weight= 7108, color= 1
	 item 384, weight= 7120, color= 1
	 item 385, weight= 7124, color= 1
	 item 386, weight= 7166, color= 1
	 item 387, weight= 7172, color= 1
	 item 388, weight= 7176, color= 1
	 item 389, weight= 7182, color= 1
	 item 390, weight= 7210, color= 1
	 item 391, weight= 7242, color= 1
	 item 392, weight= 7258, color= 1
	 item 393, weight= 7260, color= 1
	 item 394, weight= 7298, color= 1
	 item 395, weight= 7300, color= 1
	 item 396, weight= 7304, color= 1
	 item 397, weight= 7320, color= 1
	 item 398, weight= 7338, color= 1
	 item 399, weight= 7370, color= 1
	 item 400, weight= 7372, color= 1
	 item 401, weight= 7380, color= 1
	 item 402, weight= 7416, color= 1
	 item 403, weight= 7430, color= 1

VRPSolver warning: Interval set for resource 1 on source node (when source != sink) is ignored (by definition is [0.0,0.0])
[41m solve [00m
~~~~~~~~~~~~~~~~~~~~~~~~~~~~~~~~~~~~~~~~~~~~~~~~~~~~~~~~~~~~~~~~~~~~~~~~~~~~~~
VRPSolver v0.4.1, 24/03/2021. Web: vrpsolver.math.u-bordeaux.fr
Corresponds to the solver by Pessoa, Sadykov, Uchoa and Vanderbeck (2020)
Paper: dx.doi.org/10.1007/s10107-020-01523-z
USE THIS CODE ONLY FOR ACADEMIC PURPOSES AT YOUR OWN RISK
~~~~~~~~~~~~~~~~~~~~~~~~~~~~~~~~~~~~~~~~~~~~~~~~~~~~~~~~~~~~~~~~~~~~~~~~~~~~~~
BaPCod v053, 24/03/2021, © Inria Bordeaux, France
~~~~~~~~~~~~~~~~~~~~~~~~~~~~~~~~~~~~~~~~~~~~~~~~~~~~~~~~~~~~~~~~~~~~~~~~~~~~~~
VRPSolver parameters:
GlobalTimeLimit = 1800
MaxNbOfBBtreeNodeTreated = 100000
treeSearchStrategy = 1
RCSPstopCutGenTimeThresholdInPricing = 10
RCSPhardTimeThresholdInPricing = 20
RCSPnumberOfBucketsPerVertex = 2000
RCSPdynamicBucketSteps = 0
RCSPuseBidirectionalSearch = 1
RCSPapplyReducedCostFixing = 1
RCSPredCostFixingFalseGap = 0
RCSPmaxNumOfColsPerIteration = 100
RCSPmaxNumOfColsPerExactIteration = 100
RCSPheurLabelingStrategy = 4
StabilizationMinPhaseOfStage = 1
RCSPmaxNumOfLabelsInEnumeration = 100000
RCSPmaxNumOfEnumeratedSolutions = 1000000
RCSPmaxNumOfEnumSolutionsForMIP = 100000
RCSPinitNGneighbourhoodSize = 0
RCSPmaxNGneighbourhoodSize = 0
RCSPrankOneCutsMaxNumPerRound = 100
RCSPrankOneCutsMaxNumRows = -1
RCSPrankOneCutsMemoryType = 2
CutTailingOffThreshold = 0.02
CutTailingOffCounterThreshold = 3
SafeDualBoundScaleFactor = -1
StrongBranchingPhaseOneCandidatesNumber = 100
StrongBranchingPhaseOneTreeSizeEstimRatio = 0.3
StrongBranchingPhaseTwoCandidatesNumber = 1
StrongBranchingPhaseTwoTreeSizeEstimRatio = 0.1
MaxTimeForRestrictedMasterIpHeur = -1
DivingHeurUseDepthLimit = 0
MaxLDSbreadth = 3
MaxLDSdepth = 2
New model incumbent solution 1e+06, TIME = 0h0m0s3t = 3
Model is built TIME = 0h0m3s19t = 319
************************************************************************************************
**** BaB tree root node
**** Local DB = -1e+12, global bounds : [ -1e+12 , 1e+06 ], TIME = 0h0m3s19t = 319
**** 1 open nodes, 0 columns (0 active), 0 dyn. constrs. (0 active), 808 art. vars. (808 active)
************************************************************************************************
<DWph=2> <it= 10> <et=7.34> <Mt= 0.01> <Spt= 4.13> <nCl=1000> <DB=-8722512580.1401> <Mlp=462299449.2515> <PB=1000000> 
<DWph=2> <it= 20> <et=11.46> <Mt= 0.01> <Spt= 4.10> <nCl=1000> <DB=-6865714001.9206> <Mlp=436578844.2093> <PB=1000000> 
<DWph=2> <it= 30> <et=15.50> <Mt= 0.03> <Spt= 4.01> <nCl=1000> <DB=-6109068261.4347> <Mlp=409382631.6339> <PB=1000000> 
<DWph=2> <it= 40> <et=19.58> <Mt= 0.05> <Spt= 4.03> <nCl=1000> <DB=-5669268648.0650> <Mlp=378380724.3779> <PB=1000000> 
<DWph=2> <it= 50> <et=23.64> <Mt= 0.07> <Spt= 3.98> <nCl=1000> <DB=-4953989006.1676> <Mlp=350591000.9429> <PB=1000000> 
<DWph=2> <it= 60> <et=27.69> <Mt= 0.09> <Spt= 3.96> <nCl=1000> <DB=-4096590013.9572> <Mlp=319259214.4156> <PB=1000000> 
<DWph=2> <it= 70> <et=31.70> <Mt= 0.15> <Spt= 3.85> <nCl=1000> <DB=-3671401917.1302> <Mlp=293206946.7223> <PB=1000000> 
<DWph=2> <it= 80> <et=35.72> <Mt= 0.25> <Spt= 3.77> <nCl=1000> <DB=-3122471090.9422> <Mlp=264802243.8487> <PB=1000000> 
<DWph=2> <it= 90> <et=39.64> <Mt= 0.31> <Spt= 3.60> <nCl=1000> <DB=-2610997199.1675> <Mlp=223142290.1898> <PB=1000000> 
<DWph=2> <it=100> <et=43.58> <Mt= 0.51> <Spt= 3.43> <nCl=1000> <DB=-2202643059.9905> <Mlp=196954498.3282> <PB=1000000> 
<DWph=2> <it=110> <et=47.40> <Mt= 0.42> <Spt= 3.34> <nCl=1000> <DB=-862038261.1460> <Mlp=180564420.7184> <PB=1000000> 
<DWph=2> <it=120> <et=51.34> <Mt= 0.62> <Spt= 3.32> <nCl=1000> <DB=-655989899.7642> <Mlp=169809408.6748> <PB=1000000> 
<DWph=2> <it=130> <et=55.27> <Mt= 0.67> <Spt= 3.26> <nCl=1000> <DB=-1003460531.4360> <Mlp=155287712.5792> <PB=1000000> 
<DWph=2> <it=140> <et=59.07> <Mt= 0.51> <Spt= 3.22> <nCl=1000> <DB=-501834338.3843> <Mlp=148325583.8781> <PB=1000000> 
<DWph=2> <it=150> <et=62.84> <Mt= 0.49> <Spt= 3.29> <nCl=1000> <DB=-442192855.3371> <Mlp=140582634.9525> <PB=1000000> 
<DWph=2> <it=160> <et=66.64> <Mt= 0.56> <Spt= 3.23> <nCl=1000> <DB=-498976640.9533> <Mlp=131237672.6539> <PB=1000000> 
<DWph=2> <it=170> <et=70.53> <Mt= 0.56> <Spt= 3.27> <nCl=1000> <DB=-401140063.2840> <Mlp=120387916.1706> <PB=1000000> 
<DWph=2> <it=180> <et=74.06> <Mt= 0.35> <Spt= 3.18> <nCl=1000> <DB=-382401122.0401> <Mlp=110930301.0539> <PB=1000000> 
<DWph=2> <it=190> <et=77.67> <Mt= 0.38> <Spt= 3.21> <nCl=1000> <DB=-370369800.4916> <Mlp=98048016.7219> <PB=1000000> 
<DWph=2> <it=200> <et=81.26> <Mt= 0.41> <Spt= 3.19> <nCl=1000> <DB=-360392102.8166> <Mlp=81799180.2185> <PB=1000000> 
<DWph=2> <it=210> <et=84.76> <Mt= 0.25> <Spt= 3.19> <nCl=1000> <DB=-357725471.1337> <Mlp=71303802.0764> <PB=1000000> 
<DWph=2> <it=220> <et=88.11> <Mt= 0.19> <Spt= 3.15> <nCl=933> <DB=-328661303.1240> <Mlp=  141.7378> <PB=1000000> 
<DWph=2> <it=230> <et=93.07> <Mt= 0.14> <Spt= 4.81> <nCl=904> <DB= -186.0513> <Mlp=  141.0888> <PB=1000000> 
<DWph=2> <it=240> <et=96.57> <Mt= 0.17> <Spt= 3.27> <nCl=1000> <DB=   14.8480> <Mlp=  140.2959> <PB=1000000> 
<DWph=2> <it=250> <et=100.08> <Mt= 0.15> <Spt= 3.36> <nCl=1000> <DB=   45.6361> <Mlp=  139.2646> <PB=1000000> 
<DWph=2> <it=260> <et=103.57> <Mt= 0.21> <Spt= 3.28> <nCl=1000> <DB=   65.1079> <Mlp=  137.9883> <PB=1000000> 
<DWph=2> <it=270> <et=107.34> <Mt= 0.39> <Spt= 3.37> <nCl=992> <DB=   83.0800> <Mlp=  135.3416> <PB=1000000> 
<DWph=2> <it=280> <et=111.03> <Mt= 0.38> <Spt= 3.26> <nCl=916> <DB=   96.3471> <Mlp=  133.6702> <PB=1000000> 
<DWph=2> <it=290> <et=114.64> <Mt= 0.32> <Spt= 3.27> <nCl=953> <DB=  108.9410> <Mlp=  132.4223> <PB=1000000> 
