Application parameters:
  batch  =>  nothing
  instance  =>  "/IN/402_10000_DI_42.txt-Q2Half"
  ub  =>  1.0e6
  cfg  =>  "/CFG/BPP.cfg"
data = Colored Bin Packing dataset.
number of items = 403
number of colors = 2
capacity = 6624
Items : 
	 item 1, weight= 26, color= 0
	 item 2, weight= 40, color= 0
	 item 3, weight= 40, color= 0
	 item 4, weight= 70, color= 0
	 item 5, weight= 72, color= 0
	 item 6, weight= 72, color= 0
	 item 7, weight= 78, color= 0
	 item 8, weight= 88, color= 0
	 item 9, weight= 94, color= 0
	 item 10, weight= 96, color= 0
	 item 11, weight= 96, color= 0
	 item 12, weight= 104, color= 0
	 item 13, weight= 104, color= 0
	 item 14, weight= 112, color= 0
	 item 15, weight= 112, color= 0
	 item 16, weight= 112, color= 0
	 item 17, weight= 114, color= 0
	 item 18, weight= 116, color= 0
	 item 19, weight= 116, color= 0
	 item 20, weight= 116, color= 0
	 item 21, weight= 116, color= 0
	 item 22, weight= 122, color= 0
	 item 23, weight= 124, color= 0
	 item 24, weight= 128, color= 0
	 item 25, weight= 128, color= 0
	 item 26, weight= 128, color= 0
	 item 27, weight= 128, color= 0
	 item 28, weight= 132, color= 0
	 item 29, weight= 132, color= 0
	 item 30, weight= 134, color= 0
	 item 31, weight= 136, color= 0
	 item 32, weight= 136, color= 0
	 item 33, weight= 140, color= 0
	 item 34, weight= 140, color= 0
	 item 35, weight= 142, color= 0
	 item 36, weight= 144, color= 0
	 item 37, weight= 144, color= 0
	 item 38, weight= 144, color= 0
	 item 39, weight= 144, color= 0
	 item 40, weight= 146, color= 0
	 item 41, weight= 150, color= 0
	 item 42, weight= 152, color= 0
	 item 43, weight= 152, color= 0
	 item 44, weight= 156, color= 0
	 item 45, weight= 156, color= 0
	 item 46, weight= 158, color= 0
	 item 47, weight= 160, color= 0
	 item 48, weight= 160, color= 0
	 item 49, weight= 160, color= 0
	 item 50, weight= 168, color= 0
	 item 51, weight= 168, color= 0
	 item 52, weight= 168, color= 0
	 item 53, weight= 168, color= 0
	 item 54, weight= 170, color= 0
	 item 55, weight= 174, color= 0
	 item 56, weight= 176, color= 0
	 item 57, weight= 176, color= 0
	 item 58, weight= 178, color= 0
	 item 59, weight= 180, color= 0
	 item 60, weight= 184, color= 0
	 item 61, weight= 184, color= 0
	 item 62, weight= 192, color= 0
	 item 63, weight= 192, color= 0
	 item 64, weight= 192, color= 0
	 item 65, weight= 192, color= 0
	 item 66, weight= 194, color= 0
	 item 67, weight= 196, color= 0
	 item 68, weight= 198, color= 0
	 item 69, weight= 200, color= 0
	 item 70, weight= 204, color= 0
	 item 71, weight= 208, color= 0
	 item 72, weight= 208, color= 0
	 item 73, weight= 212, color= 0
	 item 74, weight= 214, color= 0
	 item 75, weight= 216, color= 0
	 item 76, weight= 220, color= 0
	 item 77, weight= 220, color= 0
	 item 78, weight= 224, color= 0
	 item 79, weight= 226, color= 0
	 item 80, weight= 228, color= 0
	 item 81, weight= 232, color= 0
	 item 82, weight= 234, color= 0
	 item 83, weight= 240, color= 0
	 item 84, weight= 240, color= 0
	 item 85, weight= 244, color= 0
	 item 86, weight= 244, color= 0
	 item 87, weight= 248, color= 0
	 item 88, weight= 252, color= 0
	 item 89, weight= 254, color= 0
	 item 90, weight= 256, color= 0
	 item 91, weight= 258, color= 0
	 item 92, weight= 264, color= 0
	 item 93, weight= 272, color= 0
	 item 94, weight= 272, color= 0
	 item 95, weight= 280, color= 0
	 item 96, weight= 280, color= 0
	 item 97, weight= 284, color= 0
	 item 98, weight= 286, color= 0
	 item 99, weight= 292, color= 0
	 item 100, weight= 296, color= 0
	 item 101, weight= 300, color= 0
	 item 102, weight= 306, color= 0
	 item 103, weight= 312, color= 0
	 item 104, weight= 320, color= 0
	 item 105, weight= 328, color= 0
	 item 106, weight= 332, color= 0
	 item 107, weight= 336, color= 0
	 item 108, weight= 336, color= 0
	 item 109, weight= 338, color= 0
	 item 110, weight= 360, color= 0
	 item 111, weight= 372, color= 0
	 item 112, weight= 376, color= 0
	 item 113, weight= 380, color= 0
	 item 114, weight= 384, color= 1
	 item 115, weight= 392, color= 0
	 item 116, weight= 392, color= 0
	 item 117, weight= 392, color= 0
	 item 118, weight= 416, color= 0
	 item 119, weight= 420, color= 0
	 item 120, weight= 424, color= 0
	 item 121, weight= 440, color= 0
	 item 122, weight= 440, color= 0
	 item 123, weight= 456, color= 0
	 item 124, weight= 456, color= 0
	 item 125, weight= 476, color= 0
	 item 126, weight= 478, color= 0
	 item 127, weight= 482, color= 0
	 item 128, weight= 488, color= 0
	 item 129, weight= 492, color= 0
	 item 130, weight= 504, color= 0
	 item 131, weight= 520, color= 0
	 item 132, weight= 544, color= 0
	 item 133, weight= 548, color= 0
	 item 134, weight= 548, color= 0
	 item 135, weight= 548, color= 0
	 item 136, weight= 550, color= 0
	 item 137, weight= 550, color= 0
	 item 138, weight= 550, color= 0
	 item 139, weight= 575, color= 1
	 item 140, weight= 580, color= 1
	 item 141, weight= 581, color= 1
	 item 142, weight= 582, color= 1
	 item 143, weight= 588, color= 1
	 item 144, weight= 589, color= 1
	 item 145, weight= 594, color= 1
	 item 146, weight= 602, color= 1
	 item 147, weight= 613, color= 1
	 item 148, weight= 642, color= 1
	 item 149, weight= 643, color= 1
	 item 150, weight= 644, color= 1
	 item 151, weight= 645, color= 1
	 item 152, weight= 662, color= 1
	 item 153, weight= 666, color= 1
	 item 154, weight= 673, color= 1
	 item 155, weight= 674, color= 1
	 item 156, weight= 680, color= 1
	 item 157, weight= 686, color= 1
	 item 158, weight= 687, color= 1
	 item 159, weight= 706, color= 1
	 item 160, weight= 708, color= 1
	 item 161, weight= 717, color= 1
	 item 162, weight= 721, color= 1
	 item 163, weight= 722, color= 1
	 item 164, weight= 724, color= 1
	 item 165, weight= 738, color= 1
	 item 166, weight= 739, color= 1
	 item 167, weight= 742, color= 1
	 item 168, weight= 755, color= 1
	 item 169, weight= 759, color= 1
	 item 170, weight= 782, color= 1
	 item 171, weight= 788, color= 1
	 item 172, weight= 800, color= 0
	 item 173, weight= 801, color= 1
	 item 174, weight= 802, color= 1
	 item 175, weight= 811, color= 1
	 item 176, weight= 818, color= 1
	 item 177, weight= 820, color= 1
	 item 178, weight= 826, color= 1
	 item 179, weight= 851, color= 1
	 item 180, weight= 854, color= 1
	 item 181, weight= 857, color= 1
	 item 182, weight= 858, color= 1
	 item 183, weight= 876, color= 1
	 item 184, weight= 877, color= 1
	 item 185, weight= 881, color= 1
	 item 186, weight= 893, color= 1
	 item 187, weight= 902, color= 1
	 item 188, weight= 904, color= 1
	 item 189, weight= 914, color= 1
	 item 190, weight= 920, color= 0
	 item 191, weight= 924, color= 1
	 item 192, weight= 925, color= 1
	 item 193, weight= 961, color= 1
	 item 194, weight= 962, color= 1
	 item 195, weight= 971, color= 1
	 item 196, weight= 974, color= 1
	 item 197, weight= 977, color= 1
	 item 198, weight= 988, color= 1
	 item 199, weight= 995, color= 1
	 item 200, weight= 1023, color= 1
	 item 201, weight= 1028, color= 1
	 item 202, weight= 1045, color= 1
	 item 203, weight= 1046, color= 1
	 item 204, weight= 1074, color= 1
	 item 205, weight= 1079, color= 1
	 item 206, weight= 1106, color= 1
	 item 207, weight= 1122, color= 1
	 item 208, weight= 1124, color= 1
	 item 209, weight= 1145, color= 1
	 item 210, weight= 1159, color= 1
	 item 211, weight= 1179, color= 1
	 item 212, weight= 1196, color= 1
	 item 213, weight= 1204, color= 1
	 item 214, weight= 1222, color= 1
	 item 215, weight= 1224, color= 1
	 item 216, weight= 1242, color= 1
	 item 217, weight= 1250, color= 1
	 item 218, weight= 1265, color= 1
	 item 219, weight= 1275, color= 1
	 item 220, weight= 1292, color= 1
	 item 221, weight= 1299, color= 1
	 item 222, weight= 1356, color= 1
	 item 223, weight= 1378, color= 1
	 item 224, weight= 1383, color= 1
	 item 225, weight= 1409, color= 1
	 item 226, weight= 1428, color= 1
	 item 227, weight= 1430, color= 1
	 item 228, weight= 1431, color= 1
	 item 229, weight= 1478, color= 1
	 item 230, weight= 1510, color= 1
	 item 231, weight= 1535, color= 1
	 item 232, weight= 1564, color= 1
	 item 233, weight= 1569, color= 1
	 item 234, weight= 1606, color= 1
	 item 235, weight= 1644, color= 1
	 item 236, weight= 1671, color= 1
	 item 237, weight= 1690, color= 1
	 item 238, weight= 1693, color= 1
	 item 239, weight= 1724, color= 1
	 item 240, weight= 1806, color= 1
	 item 241, weight= 1861, color= 1
	 item 242, weight= 1868, color= 1
	 item 243, weight= 1883, color= 1
	 item 244, weight= 1906, color= 1
	 item 245, weight= 1940, color= 1
	 item 246, weight= 2004, color= 1
	 item 247, weight= 2085, color= 1
	 item 248, weight= 2111, color= 1
	 item 249, weight= 2138, color= 1
	 item 250, weight= 2182, color= 1
	 item 251, weight= 2220, color= 1
	 item 252, weight= 2244, color= 1
	 item 253, weight= 2280, color= 1
	 item 254, weight= 2302, color= 1
	 item 255, weight= 2383, color= 1
	 item 256, weight= 2393, color= 1
	 item 257, weight= 2417, color= 1
	 item 258, weight= 2480, color= 1
	 item 259, weight= 2482, color= 1
	 item 260, weight= 2504, color= 1
	 item 261, weight= 2508, color= 1
	 item 262, weight= 2628, color= 1
	 item 263, weight= 2732, color= 1
	 item 264, weight= 2751, color= 1
	 item 265, weight= 2753, color= 1
	 item 266, weight= 2754, color= 1
	 item 267, weight= 2757, color= 1
	 item 268, weight= 2761, color= 1
	 item 269, weight= 2762, color= 1
	 item 270, weight= 2804, color= 1
	 item 271, weight= 2888, color= 1
	 item 272, weight= 3138, color= 1
	 item 273, weight= 3264, color= 1
	 item 274, weight= 3313, color= 1
	 item 275, weight= 3314, color= 1
	 item 276, weight= 3316, color= 1
	 item 277, weight= 3317, color= 1
	 item 278, weight= 3321, color= 1
	 item 279, weight= 3322, color= 1
	 item 280, weight= 3325, color= 1
	 item 281, weight= 3330, color= 1
	 item 282, weight= 3348, color= 1
	 item 283, weight= 3476, color= 1
	 item 284, weight= 3632, color= 1
	 item 285, weight= 3650, color= 1
	 item 286, weight= 3725, color= 1
	 item 287, weight= 3753, color= 1
	 item 288, weight= 3765, color= 1
	 item 289, weight= 3844, color= 1
	 item 290, weight= 3866, color= 1
	 item 291, weight= 3940, color= 1
	 item 292, weight= 3964, color= 1
	 item 293, weight= 4062, color= 1
	 item 294, weight= 4093, color= 1
	 item 295, weight= 4123, color= 1
	 item 296, weight= 4228, color= 1
	 item 297, weight= 4266, color= 1
	 item 298, weight= 4300, color= 1
	 item 299, weight= 4338, color= 1
	 item 300, weight= 4365, color= 1
	 item 301, weight= 4391, color= 1
	 item 302, weight= 4458, color= 1
	 item 303, weight= 4540, color= 1
	 item 304, weight= 4564, color= 1
	 item 305, weight= 4593, color= 1
	 item 306, weight= 4598, color= 1
	 item 307, weight= 4621, color= 1
	 item 308, weight= 4652, color= 1
	 item 309, weight= 4698, color= 1
	 item 310, weight= 4748, color= 1
	 item 311, weight= 4783, color= 1
	 item 312, weight= 4811, color= 1
	 item 313, weight= 4814, color= 1
	 item 314, weight= 4854, color= 1
	 item 315, weight= 4907, color= 1
	 item 316, weight= 4910, color= 1
	 item 317, weight= 4916, color= 1
	 item 318, weight= 4935, color= 1
	 item 319, weight= 4974, color= 1
	 item 320, weight= 5004, color= 1
	 item 321, weight= 5045, color= 1
	 item 322, weight= 5067, color= 1
	 item 323, weight= 5076, color= 1
	 item 324, weight= 5095, color= 1
	 item 325, weight= 5107, color= 1
	 item 326, weight= 5126, color= 1
	 item 327, weight= 5138, color= 1
	 item 328, weight= 5160, color= 1
	 item 329, weight= 5162, color= 1
	 item 330, weight= 5188, color= 1
	 item 331, weight= 5211, color= 1
	 item 332, weight= 5239, color= 1
	 item 333, weight= 5251, color= 1
	 item 334, weight= 5276, color= 1
	 item 335, weight= 5282, color= 1
	 item 336, weight= 5298, color= 1
	 item 337, weight= 5304, color= 1
	 item 338, weight= 5331, color= 1
	 item 339, weight= 5338, color= 1
	 item 340, weight= 5356, color= 1
	 item 341, weight= 5370, color= 1
	 item 342, weight= 5371, color= 1
	 item 343, weight= 5396, color= 1
	 item 344, weight= 5397, color= 1
	 item 345, weight= 5431, color= 1
	 item 346, weight= 5444, color= 1
	 item 347, weight= 5458, color= 1
	 item 348, weight= 5459, color= 1
	 item 349, weight= 5470, color= 1
	 item 350, weight= 5471, color= 1
	 item 351, weight= 5515, color= 1
	 item 352, weight= 5516, color= 1
	 item 353, weight= 5530, color= 1
	 item 354, weight= 5546, color= 1
	 item 355, weight= 5552, color= 1
	 item 356, weight= 5553, color= 1
	 item 357, weight= 5569, color= 1
	 item 358, weight= 5577, color= 1
	 item 359, weight= 5580, color= 1
	 item 360, weight= 5597, color= 1
	 item 361, weight= 5602, color= 1
	 item 362, weight= 5605, color= 1
	 item 363, weight= 5606, color= 1
	 item 364, weight= 5644, color= 1
	 item 365, weight= 5646, color= 1
	 item 366, weight= 5665, color= 1
	 item 367, weight= 5666, color= 1
	 item 368, weight= 5669, color= 1
	 item 369, weight= 5684, color= 1
	 item 370, weight= 5690, color= 1
	 item 371, weight= 5702, color= 1
	 item 372, weight= 5709, color= 1
	 item 373, weight= 5715, color= 1
	 item 374, weight= 5738, color= 1
	 item 375, weight= 5739, color= 1
	 item 376, weight= 5742, color= 1
	 item 377, weight= 5756, color= 1
	 item 378, weight= 5759, color= 1
	 item 379, weight= 5762, color= 1
	 item 380, weight= 5765, color= 1
	 item 381, weight= 5778, color= 1
	 item 382, weight= 5780, color= 1
	 item 383, weight= 5801, color= 1
	 item 384, weight= 5816, color= 1
	 item 385, weight= 5817, color= 1
	 item 386, weight= 5818, color= 1
	 item 387, weight= 5826, color= 1
	 item 388, weight= 5834, color= 1
	 item 389, weight= 5843, color= 1
	 item 390, weight= 5851, color= 1
	 item 391, weight= 5852, color= 1
	 item 392, weight= 5858, color= 1
	 item 393, weight= 5887, color= 1
	 item 394, weight= 5889, color= 1
	 item 395, weight= 5898, color= 1
	 item 396, weight= 5906, color= 1
	 item 397, weight= 5914, color= 1
	 item 398, weight= 5919, color= 1
	 item 399, weight= 5924, color= 1
	 item 400, weight= 5927, color= 1
	 item 401, weight= 5930, color= 1
	 item 402, weight= 5932, color= 1
	 item 403, weight= 5935, color= 1

VRPSolver warning: Interval set for resource 1 on source node (when source != sink) is ignored (by definition is [0.0,0.0])
[41m solve [00m
~~~~~~~~~~~~~~~~~~~~~~~~~~~~~~~~~~~~~~~~~~~~~~~~~~~~~~~~~~~~~~~~~~~~~~~~~~~~~~
VRPSolver v0.4.1, 24/03/2021. Web: vrpsolver.math.u-bordeaux.fr
Corresponds to the solver by Pessoa, Sadykov, Uchoa and Vanderbeck (2020)
Paper: dx.doi.org/10.1007/s10107-020-01523-z
USE THIS CODE ONLY FOR ACADEMIC PURPOSES AT YOUR OWN RISK
~~~~~~~~~~~~~~~~~~~~~~~~~~~~~~~~~~~~~~~~~~~~~~~~~~~~~~~~~~~~~~~~~~~~~~~~~~~~~~
BaPCod v053, 24/03/2021, © Inria Bordeaux, France
~~~~~~~~~~~~~~~~~~~~~~~~~~~~~~~~~~~~~~~~~~~~~~~~~~~~~~~~~~~~~~~~~~~~~~~~~~~~~~
VRPSolver parameters:
GlobalTimeLimit = 1800
MaxNbOfBBtreeNodeTreated = 100000
treeSearchStrategy = 1
RCSPstopCutGenTimeThresholdInPricing = 10
RCSPhardTimeThresholdInPricing = 20
RCSPnumberOfBucketsPerVertex = 2000
RCSPdynamicBucketSteps = 0
RCSPuseBidirectionalSearch = 1
RCSPapplyReducedCostFixing = 1
RCSPredCostFixingFalseGap = 0
RCSPmaxNumOfColsPerIteration = 100
RCSPmaxNumOfColsPerExactIteration = 100
RCSPheurLabelingStrategy = 4
StabilizationMinPhaseOfStage = 1
RCSPmaxNumOfLabelsInEnumeration = 100000
RCSPmaxNumOfEnumeratedSolutions = 1000000
RCSPmaxNumOfEnumSolutionsForMIP = 100000
RCSPinitNGneighbourhoodSize = 0
RCSPmaxNGneighbourhoodSize = 0
RCSPrankOneCutsMaxNumPerRound = 100
RCSPrankOneCutsMaxNumRows = -1
RCSPrankOneCutsMemoryType = 2
CutTailingOffThreshold = 0.02
CutTailingOffCounterThreshold = 3
SafeDualBoundScaleFactor = -1
StrongBranchingPhaseOneCandidatesNumber = 100
StrongBranchingPhaseOneTreeSizeEstimRatio = 0.3
StrongBranchingPhaseTwoCandidatesNumber = 1
StrongBranchingPhaseTwoTreeSizeEstimRatio = 0.1
MaxTimeForRestrictedMasterIpHeur = -1
DivingHeurUseDepthLimit = 0
MaxLDSbreadth = 3
MaxLDSdepth = 2
New model incumbent solution 1e+06, TIME = 0h0m0s3t = 3
Model is built TIME = 0h0m3s17t = 317
************************************************************************************************
**** BaB tree root node
**** Local DB = -1e+12, global bounds : [ -1e+12 , 1e+06 ], TIME = 0h0m3s17t = 317
**** 1 open nodes, 0 columns (0 active), 0 dyn. constrs. (0 active), 808 art. vars. (808 active)
************************************************************************************************
<DWph=2> <it= 10> <et=7.26> <Mt= 0.01> <Spt= 4.07> <nCl=1000> <DB=-8753370820.7821> <Mlp=461997492.5781> <PB=1000000> 
<DWph=2> <it= 20> <et=11.32> <Mt= 0.01> <Spt= 4.04> <nCl=1000> <DB=-7772628015.1801> <Mlp=436474739.3915> <PB=1000000> 
<DWph=2> <it= 30> <et=15.38> <Mt= 0.03> <Spt= 4.02> <nCl=1000> <DB=-6840947697.2734> <Mlp=409185296.8140> <PB=1000000> 
<DWph=2> <it= 40> <et=19.37> <Mt= 0.06> <Spt= 3.93> <nCl=1000> <DB=-5901294972.6308> <Mlp=377122405.2330> <PB=1000000> 
<DWph=2> <it= 50> <et=23.37> <Mt= 0.06> <Spt= 3.94> <nCl=1000> <DB=-5694207064.2014> <Mlp=347831206.7026> <PB=1000000> 
<DWph=2> <it= 60> <et=27.44> <Mt= 0.14> <Spt= 3.92> <nCl=1000> <DB=-4986480493.4594> <Mlp=320056801.0190> <PB=1000000> 
<DWph=2> <it= 70> <et=31.56> <Mt= 0.22> <Spt= 3.90> <nCl=1000> <DB=-4046905357.6263> <Mlp=288133007.1933> <PB=1000000> 
<DWph=2> <it= 80> <et=35.54> <Mt= 0.24> <Spt= 3.74> <nCl=1000> <DB=-3482687980.6787> <Mlp=248104217.5786> <PB=1000000> 
<DWph=2> <it= 90> <et=39.42> <Mt= 0.42> <Spt= 3.46> <nCl=1000> <DB=-2743223704.3394> <Mlp=216249377.1926> <PB=1000000> 
<DWph=2> <it=100> <et=43.32> <Mt= 0.56> <Spt= 3.32> <nCl=1000> <DB=-1997721424.8793> <Mlp=183492045.5814> <PB=1000000> 
<DWph=2> <it=110> <et=47.23> <Mt= 0.56> <Spt= 3.29> <nCl=1000> <DB=-750272327.6362> <Mlp=172746158.6979> <PB=1000000> 
<DWph=2> <it=120> <et=51.12> <Mt= 0.66> <Spt= 3.22> <nCl=1000> <DB=-684108065.0350> <Mlp=160724551.7140> <PB=1000000> 
<DWph=2> <it=130> <et=54.94> <Mt= 0.62> <Spt= 3.20> <nCl=1000> <DB=-536989140.3088> <Mlp=150173667.7815> <PB=1000000> 
<DWph=2> <it=140> <et=58.65> <Mt= 0.40> <Spt= 3.25> <nCl=1000> <DB=-498999772.9460> <Mlp=145507615.8040> <PB=1000000> 
<DWph=2> <it=150> <et=62.41> <Mt= 0.55> <Spt= 3.20> <nCl=1000> <DB=-508805593.4814> <Mlp=138783281.4625> <PB=1000000> 
<DWph=2> <it=160> <et=66.15> <Mt= 0.66> <Spt= 3.08> <nCl=1000> <DB=-437210109.0354> <Mlp=128692945.1446> <PB=1000000> 
<DWph=2> <it=170> <et=70.06> <Mt= 0.68> <Spt= 3.17> <nCl=1000> <DB=-384926437.8365> <Mlp=114973977.8906> <PB=1000000> 
<DWph=2> <it=180> <et=73.52> <Mt= 0.40> <Spt= 3.05> <nCl=1000> <DB=-532152135.8600> <Mlp=101760751.2240> <PB=1000000> 
<DWph=2> <it=190> <et=77.03> <Mt= 0.38> <Spt= 3.13> <nCl=1000> <DB=-369140390.3017> <Mlp=92068246.9377> <PB=1000000> 
<DWph=2> <it=200> <et=80.43> <Mt= 0.33> <Spt= 3.07> <nCl=1000> <DB=-356901869.4875> <Mlp=77491162.3860> <PB=1000000> 
<DWph=2> <it=210> <et=84.11> <Mt= 0.21> <Spt= 3.40> <nCl=1000> <DB=-362830270.9778> <Mlp=  140.6390> <PB=1000000> 
<DWph=2> <it=220> <et=88.53> <Mt= 0.11> <Spt= 4.31> <nCl=974> <DB= -220.5517> <Mlp=  140.2397> <PB=1000000> 
<DWph=2> <it=230> <et=91.95> <Mt= 0.19> <Spt= 3.21> <nCl=1000> <DB=   21.4111> <Mlp=  139.6049> <PB=1000000> 
<DWph=2> <it=240> <et=95.48> <Mt= 0.27> <Spt= 3.21> <nCl=1000> <DB=   62.2993> <Mlp=  138.2829> <PB=1000000> 
<DWph=2> <it=250> <et=99.05> <Mt= 0.28> <Spt= 3.29> <nCl=1000> <DB=   75.5161> <Mlp=  136.4723> <PB=1000000> 
<DWph=2> <it=260> <et=102.53> <Mt= 0.29> <Spt= 3.18> <nCl=1000> <DB=   89.3682> <Mlp=  135.0209> <PB=1000000> 
<DWph=2> <it=270> <et=106.11> <Mt= 0.40> <Spt= 3.17> <nCl=864> <DB=  103.5500> <Mlp=  133.5733> <PB=1000000> 
<DWph=2> <it=280> <et=109.91> <Mt= 0.46> <Spt= 3.29> <nCl=849> <DB=  114.3452> <Mlp=  132.4011> <PB=1000000> 
<DWph=2> <it=290> <et=113.80> <Mt= 0.38> <Spt= 3.49> <nCl=872> <DB=  129.2001> <Mlp=  132.0932> <PB=1000000> 
