Application parameters:
  batch  =>  nothing
  instance  =>  "/IN/402_10000_DI_49.txt-Q2Half"
  ub  =>  1.0e6
  cfg  =>  "/CFG/BPP.cfg"
data = Colored Bin Packing dataset.
number of items = 403
number of colors = 2
capacity = 7904
Items : 
	 item 1, weight= 16, color= 0
	 item 2, weight= 16, color= 0
	 item 3, weight= 38, color= 0
	 item 4, weight= 40, color= 0
	 item 5, weight= 64, color= 0
	 item 6, weight= 84, color= 0
	 item 7, weight= 88, color= 0
	 item 8, weight= 88, color= 0
	 item 9, weight= 108, color= 0
	 item 10, weight= 128, color= 0
	 item 11, weight= 136, color= 0
	 item 12, weight= 140, color= 0
	 item 13, weight= 140, color= 0
	 item 14, weight= 142, color= 0
	 item 15, weight= 144, color= 0
	 item 16, weight= 144, color= 0
	 item 17, weight= 144, color= 0
	 item 18, weight= 144, color= 0
	 item 19, weight= 148, color= 0
	 item 20, weight= 152, color= 0
	 item 21, weight= 152, color= 0
	 item 22, weight= 152, color= 0
	 item 23, weight= 152, color= 0
	 item 24, weight= 160, color= 0
	 item 25, weight= 160, color= 0
	 item 26, weight= 160, color= 0
	 item 27, weight= 160, color= 0
	 item 28, weight= 160, color= 0
	 item 29, weight= 164, color= 0
	 item 30, weight= 164, color= 0
	 item 31, weight= 164, color= 0
	 item 32, weight= 168, color= 0
	 item 33, weight= 168, color= 0
	 item 34, weight= 170, color= 0
	 item 35, weight= 176, color= 0
	 item 36, weight= 176, color= 0
	 item 37, weight= 176, color= 0
	 item 38, weight= 176, color= 0
	 item 39, weight= 176, color= 0
	 item 40, weight= 176, color= 0
	 item 41, weight= 180, color= 0
	 item 42, weight= 184, color= 0
	 item 43, weight= 184, color= 0
	 item 44, weight= 186, color= 0
	 item 45, weight= 192, color= 0
	 item 46, weight= 192, color= 0
	 item 47, weight= 192, color= 0
	 item 48, weight= 192, color= 0
	 item 49, weight= 196, color= 0
	 item 50, weight= 196, color= 0
	 item 51, weight= 200, color= 0
	 item 52, weight= 202, color= 0
	 item 53, weight= 208, color= 0
	 item 54, weight= 208, color= 0
	 item 55, weight= 208, color= 0
	 item 56, weight= 208, color= 0
	 item 57, weight= 212, color= 0
	 item 58, weight= 216, color= 0
	 item 59, weight= 216, color= 0
	 item 60, weight= 220, color= 0
	 item 61, weight= 224, color= 0
	 item 62, weight= 224, color= 0
	 item 63, weight= 228, color= 0
	 item 64, weight= 232, color= 0
	 item 65, weight= 232, color= 0
	 item 66, weight= 240, color= 0
	 item 67, weight= 240, color= 0
	 item 68, weight= 240, color= 0
	 item 69, weight= 244, color= 0
	 item 70, weight= 244, color= 0
	 item 71, weight= 256, color= 0
	 item 72, weight= 256, color= 0
	 item 73, weight= 256, color= 0
	 item 74, weight= 260, color= 0
	 item 75, weight= 260, color= 0
	 item 76, weight= 264, color= 0
	 item 77, weight= 268, color= 0
	 item 78, weight= 272, color= 0
	 item 79, weight= 278, color= 0
	 item 80, weight= 288, color= 0
	 item 81, weight= 288, color= 0
	 item 82, weight= 288, color= 0
	 item 83, weight= 288, color= 0
	 item 84, weight= 288, color= 0
	 item 85, weight= 298, color= 0
	 item 86, weight= 300, color= 0
	 item 87, weight= 320, color= 0
	 item 88, weight= 320, color= 0
	 item 89, weight= 328, color= 0
	 item 90, weight= 328, color= 0
	 item 91, weight= 332, color= 0
	 item 92, weight= 334, color= 0
	 item 93, weight= 336, color= 0
	 item 94, weight= 340, color= 0
	 item 95, weight= 352, color= 0
	 item 96, weight= 356, color= 0
	 item 97, weight= 360, color= 0
	 item 98, weight= 368, color= 0
	 item 99, weight= 368, color= 0
	 item 100, weight= 384, color= 0
	 item 101, weight= 392, color= 0
	 item 102, weight= 404, color= 0
	 item 103, weight= 408, color= 0
	 item 104, weight= 408, color= 0
	 item 105, weight= 416, color= 0
	 item 106, weight= 416, color= 0
	 item 107, weight= 418, color= 0
	 item 108, weight= 424, color= 0
	 item 109, weight= 424, color= 0
	 item 110, weight= 432, color= 0
	 item 111, weight= 432, color= 1
	 item 112, weight= 468, color= 0
	 item 113, weight= 476, color= 0
	 item 114, weight= 476, color= 0
	 item 115, weight= 478, color= 0
	 item 116, weight= 480, color= 0
	 item 117, weight= 480, color= 0
	 item 118, weight= 480, color= 0
	 item 119, weight= 482, color= 0
	 item 120, weight= 488, color= 0
	 item 121, weight= 488, color= 0
	 item 122, weight= 488, color= 0
	 item 123, weight= 496, color= 0
	 item 124, weight= 544, color= 0
	 item 125, weight= 552, color= 0
	 item 126, weight= 560, color= 0
	 item 127, weight= 560, color= 0
	 item 128, weight= 564, color= 0
	 item 129, weight= 568, color= 0
	 item 130, weight= 600, color= 0
	 item 131, weight= 656, color= 0
	 item 132, weight= 656, color= 0
	 item 133, weight= 656, color= 0
	 item 134, weight= 656, color= 0
	 item 135, weight= 656, color= 0
	 item 136, weight= 658, color= 0
	 item 137, weight= 668, color= 1
	 item 138, weight= 684, color= 1
	 item 139, weight= 714, color= 1
	 item 140, weight= 742, color= 1
	 item 141, weight= 762, color= 1
	 item 142, weight= 765, color= 1
	 item 143, weight= 767, color= 1
	 item 144, weight= 776, color= 1
	 item 145, weight= 778, color= 1
	 item 146, weight= 780, color= 1
	 item 147, weight= 792, color= 1
	 item 148, weight= 804, color= 1
	 item 149, weight= 805, color= 1
	 item 150, weight= 806, color= 1
	 item 151, weight= 808, color= 1
	 item 152, weight= 827, color= 1
	 item 153, weight= 828, color= 1
	 item 154, weight= 834, color= 1
	 item 155, weight= 834, color= 1
	 item 156, weight= 842, color= 1
	 item 157, weight= 850, color= 1
	 item 158, weight= 852, color= 1
	 item 159, weight= 859, color= 1
	 item 160, weight= 880, color= 0
	 item 161, weight= 880, color= 0
	 item 162, weight= 880, color= 1
	 item 163, weight= 891, color= 1
	 item 164, weight= 894, color= 1
	 item 165, weight= 908, color= 1
	 item 166, weight= 909, color= 1
	 item 167, weight= 914, color= 1
	 item 168, weight= 937, color= 1
	 item 169, weight= 948, color= 1
	 item 170, weight= 952, color= 1
	 item 171, weight= 964, color= 1
	 item 172, weight= 985, color= 1
	 item 173, weight= 990, color= 1
	 item 174, weight= 994, color= 1
	 item 175, weight= 1000, color= 1
	 item 176, weight= 1004, color= 1
	 item 177, weight= 1008, color= 1
	 item 178, weight= 1011, color= 1
	 item 179, weight= 1026, color= 1
	 item 180, weight= 1028, color= 1
	 item 181, weight= 1043, color= 1
	 item 182, weight= 1054, color= 1
	 item 183, weight= 1074, color= 1
	 item 184, weight= 1076, color= 1
	 item 185, weight= 1080, color= 1
	 item 186, weight= 1098, color= 1
	 item 187, weight= 1101, color= 1
	 item 188, weight= 1116, color= 1
	 item 189, weight= 1151, color= 1
	 item 190, weight= 1176, color= 1
	 item 191, weight= 1180, color= 1
	 item 192, weight= 1182, color= 1
	 item 193, weight= 1202, color= 1
	 item 194, weight= 1204, color= 1
	 item 195, weight= 1204, color= 1
	 item 196, weight= 1216, color= 1
	 item 197, weight= 1229, color= 1
	 item 198, weight= 1272, color= 1
	 item 199, weight= 1294, color= 1
	 item 200, weight= 1303, color= 1
	 item 201, weight= 1316, color= 1
	 item 202, weight= 1322, color= 1
	 item 203, weight= 1324, color= 0
	 item 204, weight= 1362, color= 1
	 item 205, weight= 1384, color= 1
	 item 206, weight= 1393, color= 1
	 item 207, weight= 1450, color= 1
	 item 208, weight= 1452, color= 1
	 item 209, weight= 1460, color= 1
	 item 210, weight= 1501, color= 1
	 item 211, weight= 1510, color= 1
	 item 212, weight= 1528, color= 1
	 item 213, weight= 1612, color= 1
	 item 214, weight= 1620, color= 1
	 item 215, weight= 1632, color= 1
	 item 216, weight= 1654, color= 1
	 item 217, weight= 1681, color= 1
	 item 218, weight= 1688, color= 1
	 item 219, weight= 1709, color= 1
	 item 220, weight= 1722, color= 1
	 item 221, weight= 1734, color= 1
	 item 222, weight= 1802, color= 1
	 item 223, weight= 1804, color= 1
	 item 224, weight= 1812, color= 1
	 item 225, weight= 1824, color= 1
	 item 226, weight= 1845, color= 1
	 item 227, weight= 1896, color= 1
	 item 228, weight= 1970, color= 1
	 item 229, weight= 2038, color= 1
	 item 230, weight= 2044, color= 1
	 item 231, weight= 2052, color= 1
	 item 232, weight= 2081, color= 1
	 item 233, weight= 2084, color= 0
	 item 234, weight= 2099, color= 1
	 item 235, weight= 2132, color= 1
	 item 236, weight= 2132, color= 1
	 item 237, weight= 2136, color= 1
	 item 238, weight= 2148, color= 1
	 item 239, weight= 2164, color= 1
	 item 240, weight= 2182, color= 1
	 item 241, weight= 2193, color= 1
	 item 242, weight= 2385, color= 1
	 item 243, weight= 2395, color= 1
	 item 244, weight= 2411, color= 1
	 item 245, weight= 2424, color= 1
	 item 246, weight= 2430, color= 1
	 item 247, weight= 2444, color= 1
	 item 248, weight= 2458, color= 1
	 item 249, weight= 2468, color= 1
	 item 250, weight= 2484, color= 1
	 item 251, weight= 2484, color= 1
	 item 252, weight= 2494, color= 1
	 item 253, weight= 2655, color= 1
	 item 254, weight= 2656, color= 1
	 item 255, weight= 2742, color= 1
	 item 256, weight= 2761, color= 1
	 item 257, weight= 2792, color= 1
	 item 258, weight= 2842, color= 1
	 item 259, weight= 2844, color= 1
	 item 260, weight= 2852, color= 1
	 item 261, weight= 2856, color= 1
	 item 262, weight= 3003, color= 1
	 item 263, weight= 3082, color= 1
	 item 264, weight= 3181, color= 1
	 item 265, weight= 3200, color= 1
	 item 266, weight= 3284, color= 1
	 item 267, weight= 3288, color= 1
	 item 268, weight= 3290, color= 1
	 item 269, weight= 3292, color= 1
	 item 270, weight= 3293, color= 1
	 item 271, weight= 3294, color= 1
	 item 272, weight= 3471, color= 1
	 item 273, weight= 3953, color= 1
	 item 274, weight= 3954, color= 1
	 item 275, weight= 3956, color= 1
	 item 276, weight= 3957, color= 1
	 item 277, weight= 3958, color= 1
	 item 278, weight= 3960, color= 1
	 item 279, weight= 3964, color= 1
	 item 280, weight= 4301, color= 1
	 item 281, weight= 4479, color= 1
	 item 282, weight= 4484, color= 1
	 item 283, weight= 4488, color= 1
	 item 284, weight= 4490, color= 1
	 item 285, weight= 4498, color= 1
	 item 286, weight= 4500, color= 1
	 item 287, weight= 4591, color= 1
	 item 288, weight= 4618, color= 1
	 item 289, weight= 4769, color= 1
	 item 290, weight= 4920, color= 1
	 item 291, weight= 4924, color= 1
	 item 292, weight= 4932, color= 1
	 item 293, weight= 4942, color= 1
	 item 294, weight= 4948, color= 1
	 item 295, weight= 4958, color= 1
	 item 296, weight= 4976, color= 1
	 item 297, weight= 4980, color= 1
	 item 298, weight= 5000, color= 1
	 item 299, weight= 5011, color= 1
	 item 300, weight= 5031, color= 1
	 item 301, weight= 5043, color= 1
	 item 302, weight= 5290, color= 1
	 item 303, weight= 5308, color= 1
	 item 304, weight= 5332, color= 1
	 item 305, weight= 5334, color= 1
	 item 306, weight= 5348, color= 1
	 item 307, weight= 5352, color= 1
	 item 308, weight= 5380, color= 1
	 item 309, weight= 5387, color= 1
	 item 310, weight= 5407, color= 1
	 item 311, weight= 5412, color= 1
	 item 312, weight= 5444, color= 1
	 item 313, weight= 5462, color= 1
	 item 314, weight= 5472, color= 1
	 item 315, weight= 5476, color= 1
	 item 316, weight= 5606, color= 1
	 item 317, weight= 5640, color= 1
	 item 318, weight= 5673, color= 1
	 item 319, weight= 5691, color= 1
	 item 320, weight= 5732, color= 1
	 item 321, weight= 5746, color= 1
	 item 322, weight= 5748, color= 1
	 item 323, weight= 5842, color= 1
	 item 324, weight= 5880, color= 1
	 item 325, weight= 5889, color= 1
	 item 326, weight= 5922, color= 1
	 item 327, weight= 5964, color= 1
	 item 328, weight= 5972, color= 1
	 item 329, weight= 6053, color= 1
	 item 330, weight= 6062, color= 1
	 item 331, weight= 6088, color= 1
	 item 332, weight= 6094, color= 1
	 item 333, weight= 6105, color= 1
	 item 334, weight= 6156, color= 1
	 item 335, weight= 6164, color= 1
	 item 336, weight= 6166, color= 1
	 item 337, weight= 6233, color= 1
	 item 338, weight= 6248, color= 1
	 item 339, weight= 6274, color= 1
	 item 340, weight= 6316, color= 1
	 item 341, weight= 6322, color= 1
	 item 342, weight= 6332, color= 1
	 item 343, weight= 6341, color= 1
	 item 344, weight= 6354, color= 1
	 item 345, weight= 6392, color= 1
	 item 346, weight= 6431, color= 1
	 item 347, weight= 6460, color= 1
	 item 348, weight= 6462, color= 1
	 item 349, weight= 6468, color= 1
	 item 350, weight= 6490, color= 1
	 item 351, weight= 6500, color= 1
	 item 352, weight= 6504, color= 1
	 item 353, weight= 6525, color= 1
	 item 354, weight= 6572, color= 1
	 item 355, weight= 6583, color= 1
	 item 356, weight= 6590, color= 1
	 item 357, weight= 6616, color= 1
	 item 358, weight= 6618, color= 1
	 item 359, weight= 6620, color= 1
	 item 360, weight= 6642, color= 1
	 item 361, weight= 6653, color= 1
	 item 362, weight= 6676, color= 1
	 item 363, weight= 6691, color= 1
	 item 364, weight= 6708, color= 1
	 item 365, weight= 6712, color= 1
	 item 366, weight= 6718, color= 1
	 item 367, weight= 6720, color= 1
	 item 368, weight= 6723, color= 1
	 item 369, weight= 6726, color= 1
	 item 370, weight= 6748, color= 1
	 item 371, weight= 6772, color= 1
	 item 372, weight= 6776, color= 1
	 item 373, weight= 6781, color= 1
	 item 374, weight= 6790, color= 1
	 item 375, weight= 6810, color= 1
	 item 376, weight= 6820, color= 1
	 item 377, weight= 6834, color= 1
	 item 378, weight= 6837, color= 1
	 item 379, weight= 6875, color= 1
	 item 380, weight= 6880, color= 1
	 item 381, weight= 6884, color= 1
	 item 382, weight= 6886, color= 1
	 item 383, weight= 6898, color= 1
	 item 384, weight= 6906, color= 1
	 item 385, weight= 6907, color= 1
	 item 386, weight= 6913, color= 1
	 item 387, weight= 6916, color= 1
	 item 388, weight= 6936, color= 1
	 item 389, weight= 6938, color= 1
	 item 390, weight= 6939, color= 1
	 item 391, weight= 6948, color= 1
	 item 392, weight= 6968, color= 1
	 item 393, weight= 6972, color= 1
	 item 394, weight= 6984, color= 1
	 item 395, weight= 6985, color= 1
	 item 396, weight= 6986, color= 1
	 item 397, weight= 6987, color= 1
	 item 398, weight= 6994, color= 1
	 item 399, weight= 7018, color= 1
	 item 400, weight= 7050, color= 1
	 item 401, weight= 7084, color= 1
	 item 402, weight= 7086, color= 1
	 item 403, weight= 7108, color= 1

VRPSolver warning: Interval set for resource 1 on source node (when source != sink) is ignored (by definition is [0.0,0.0])
[41m solve [00m
~~~~~~~~~~~~~~~~~~~~~~~~~~~~~~~~~~~~~~~~~~~~~~~~~~~~~~~~~~~~~~~~~~~~~~~~~~~~~~
VRPSolver v0.4.1, 24/03/2021. Web: vrpsolver.math.u-bordeaux.fr
Corresponds to the solver by Pessoa, Sadykov, Uchoa and Vanderbeck (2020)
Paper: dx.doi.org/10.1007/s10107-020-01523-z
USE THIS CODE ONLY FOR ACADEMIC PURPOSES AT YOUR OWN RISK
~~~~~~~~~~~~~~~~~~~~~~~~~~~~~~~~~~~~~~~~~~~~~~~~~~~~~~~~~~~~~~~~~~~~~~~~~~~~~~
BaPCod v053, 24/03/2021, © Inria Bordeaux, France
~~~~~~~~~~~~~~~~~~~~~~~~~~~~~~~~~~~~~~~~~~~~~~~~~~~~~~~~~~~~~~~~~~~~~~~~~~~~~~
VRPSolver parameters:
GlobalTimeLimit = 1800
MaxNbOfBBtreeNodeTreated = 100000
treeSearchStrategy = 1
RCSPstopCutGenTimeThresholdInPricing = 10
RCSPhardTimeThresholdInPricing = 20
RCSPnumberOfBucketsPerVertex = 2000
RCSPdynamicBucketSteps = 0
RCSPuseBidirectionalSearch = 1
RCSPapplyReducedCostFixing = 1
RCSPredCostFixingFalseGap = 0
RCSPmaxNumOfColsPerIteration = 100
RCSPmaxNumOfColsPerExactIteration = 100
RCSPheurLabelingStrategy = 4
StabilizationMinPhaseOfStage = 1
RCSPmaxNumOfLabelsInEnumeration = 100000
RCSPmaxNumOfEnumeratedSolutions = 1000000
RCSPmaxNumOfEnumSolutionsForMIP = 100000
RCSPinitNGneighbourhoodSize = 0
RCSPmaxNGneighbourhoodSize = 0
RCSPrankOneCutsMaxNumPerRound = 100
RCSPrankOneCutsMaxNumRows = -1
RCSPrankOneCutsMemoryType = 2
CutTailingOffThreshold = 0.02
CutTailingOffCounterThreshold = 3
SafeDualBoundScaleFactor = -1
StrongBranchingPhaseOneCandidatesNumber = 100
StrongBranchingPhaseOneTreeSizeEstimRatio = 0.3
StrongBranchingPhaseTwoCandidatesNumber = 1
StrongBranchingPhaseTwoTreeSizeEstimRatio = 0.1
MaxTimeForRestrictedMasterIpHeur = -1
DivingHeurUseDepthLimit = 0
MaxLDSbreadth = 3
MaxLDSdepth = 2
New model incumbent solution 1e+06, TIME = 0h0m0s3t = 3
Model is built TIME = 0h0m3s60t = 360
************************************************************************************************
**** BaB tree root node
**** Local DB = -1e+12, global bounds : [ -1e+12 , 1e+06 ], TIME = 0h0m3s60t = 360
**** 1 open nodes, 0 columns (0 active), 0 dyn. constrs. (0 active), 808 art. vars. (808 active)
************************************************************************************************
<DWph=2> <it= 10> <et=8.18> <Mt= 0.00> <Spt= 4.57> <nCl=1000> <DB=-8195897159.0191> <Mlp=461568447.8794> <PB=1000000> 
<DWph=2> <it= 20> <et=12.86> <Mt= 0.02> <Spt= 4.66> <nCl=1000> <DB=-7481595109.4109> <Mlp=433317204.7561> <PB=1000000> 
<DWph=2> <it= 30> <et=17.50> <Mt= 0.03> <Spt= 4.61> <nCl=1000> <DB=-6701415370.5335> <Mlp=404696074.8724> <PB=1000000> 
<DWph=2> <it= 40> <et=22.19> <Mt= 0.05> <Spt= 4.63> <nCl=1000> <DB=-5899019013.9272> <Mlp=377284377.5572> <PB=1000000> 
<DWph=2> <it= 50> <et=26.77> <Mt= 0.07> <Spt= 4.50> <nCl=1000> <DB=-5244689040.4815> <Mlp=346229366.9414> <PB=1000000> 
<DWph=2> <it= 60> <et=31.38> <Mt= 0.12> <Spt= 4.49> <nCl=1000> <DB=-5085837062.2844> <Mlp=317739257.0255> <PB=1000000> 
<DWph=2> <it= 70> <et=35.81> <Mt= 0.14> <Spt= 4.28> <nCl=1000> <DB=-3772343037.9791> <Mlp=285293239.7256> <PB=1000000> 
<DWph=2> <it= 80> <et=40.32> <Mt= 0.27> <Spt= 4.24> <nCl=1000> <DB=-3204314015.5793> <Mlp=261353558.6898> <PB=1000000> 
<DWph=2> <it= 90> <et=45.04> <Mt= 0.42> <Spt= 4.30> <nCl=1000> <DB=-2873373225.0132> <Mlp=224576214.6991> <PB=1000000> 
<DWph=2> <it=100> <et=49.43> <Mt= 0.48> <Spt= 3.90> <nCl=1000> <DB=-2411473279.2620> <Mlp=196425120.2345> <PB=1000000> 
<DWph=2> <it=110> <et=53.45> <Mt= 0.33> <Spt= 3.62> <nCl=1000> <DB=-1455338925.7260> <Mlp=180729702.9270> <PB=1000000> 
<DWph=2> <it=120> <et=57.75> <Mt= 0.63> <Spt= 3.67> <nCl=986> <DB=-751795363.7489> <Mlp=170050868.9023> <PB=1000000> 
<DWph=2> <it=130> <et=62.13> <Mt= 0.72> <Spt= 3.65> <nCl=1000> <DB=-744317270.0595> <Mlp=158693307.1554> <PB=1000000> 
<DWph=2> <it=140> <et=66.48> <Mt= 0.54> <Spt= 3.76> <nCl=1000> <DB=-458699209.5081> <Mlp=153885805.0273> <PB=1000000> 
<DWph=2> <it=150> <et=70.63> <Mt= 0.46> <Spt= 3.68> <nCl=1000> <DB=-458967438.2523> <Mlp=149861600.1448> <PB=1000000> 
<DWph=2> <it=160> <et=75.02> <Mt= 0.67> <Spt= 3.72> <nCl=1000> <DB=-487269040.6544> <Mlp=139887176.3929> <PB=1000000> 
<DWph=2> <it=170> <et=79.51> <Mt= 0.59> <Spt= 3.83> <nCl=1000> <DB=-380597543.0568> <Mlp=129539561.1372> <PB=1000000> 
<DWph=2> <it=180> <et=83.51> <Mt= 0.35> <Spt= 3.64> <nCl=1000> <DB=-361856975.5375> <Mlp=121219864.3477> <PB=1000000> 
<DWph=2> <it=190> <et=87.53> <Mt= 0.41> <Spt= 3.61> <nCl=1000> <DB=-361731191.3279> <Mlp=112725955.3907> <PB=1000000> 
<DWph=2> <it=200> <et=91.41> <Mt= 0.36> <Spt= 3.51> <nCl=1000> <DB=-359790214.2742> <Mlp=99967518.8247> <PB=1000000> 
<DWph=2> <it=210> <et=95.36> <Mt= 0.28> <Spt= 3.61> <nCl=1000> <DB=-353383457.8885> <Mlp=88476388.0502> <PB=1000000> 
<DWph=2> <it=220> <et=99.10> <Mt= 0.21> <Spt= 3.53> <nCl=998> <DB=-370344134.3555> <Mlp=78581251.3412> <PB=1000000> 
<DWph=2> <it=230> <et=102.85> <Mt= 0.19> <Spt= 3.56> <nCl=1000> <DB=-347592943.7099> <Mlp=67714853.4835> <PB=1000000> 
<DWph=2> <it=240> <et=109.28> <Mt= 0.15> <Spt= 6.23> <nCl=870> <DB= -767.9968> <Mlp=  140.0710> <PB=1000000> 
<DWph=2> <it=250> <et=113.21> <Mt= 0.06> <Spt= 3.86> <nCl=1000> <DB= -149.0560> <Mlp=  139.9043> <PB=1000000> 
