Application parameters:
  batch  =>  nothing
  instance  =>  "/IN/600_20000_DI_1.txt-Q2Half"
  ub  =>  1.0e6
  cfg  =>  "/CFG/BPP.cfg"
data = Colored Bin Packing dataset.
number of items = 601
number of colors = 2
capacity = 19648
Items : 
	 item 1, weight= 32, color= 0
	 item 2, weight= 32, color= 0
	 item 3, weight= 64, color= 0
	 item 4, weight= 64, color= 0
	 item 5, weight= 96, color= 0
	 item 6, weight= 102, color= 0
	 item 7, weight= 118, color= 0
	 item 8, weight= 128, color= 0
	 item 9, weight= 128, color= 0
	 item 10, weight= 148, color= 0
	 item 11, weight= 168, color= 0
	 item 12, weight= 192, color= 0
	 item 13, weight= 200, color= 0
	 item 14, weight= 220, color= 0
	 item 15, weight= 256, color= 0
	 item 16, weight= 288, color= 0
	 item 17, weight= 304, color= 0
	 item 18, weight= 320, color= 0
	 item 19, weight= 320, color= 0
	 item 20, weight= 320, color= 0
	 item 21, weight= 320, color= 0
	 item 22, weight= 332, color= 0
	 item 23, weight= 332, color= 0
	 item 24, weight= 336, color= 0
	 item 25, weight= 348, color= 0
	 item 26, weight= 352, color= 0
	 item 27, weight= 352, color= 0
	 item 28, weight= 352, color= 0
	 item 29, weight= 352, color= 0
	 item 30, weight= 352, color= 0
	 item 31, weight= 356, color= 0
	 item 32, weight= 368, color= 0
	 item 33, weight= 368, color= 0
	 item 34, weight= 368, color= 0
	 item 35, weight= 376, color= 0
	 item 36, weight= 380, color= 0
	 item 37, weight= 384, color= 0
	 item 38, weight= 384, color= 0
	 item 39, weight= 384, color= 0
	 item 40, weight= 384, color= 0
	 item 41, weight= 384, color= 0
	 item 42, weight= 392, color= 0
	 item 43, weight= 400, color= 0
	 item 44, weight= 400, color= 0
	 item 45, weight= 400, color= 0
	 item 46, weight= 400, color= 0
	 item 47, weight= 404, color= 0
	 item 48, weight= 416, color= 0
	 item 49, weight= 424, color= 0
	 item 50, weight= 424, color= 0
	 item 51, weight= 432, color= 0
	 item 52, weight= 432, color= 0
	 item 53, weight= 432, color= 0
	 item 54, weight= 448, color= 0
	 item 55, weight= 448, color= 0
	 item 56, weight= 448, color= 0
	 item 57, weight= 448, color= 0
	 item 58, weight= 454, color= 0
	 item 59, weight= 456, color= 0
	 item 60, weight= 456, color= 0
	 item 61, weight= 464, color= 0
	 item 62, weight= 466, color= 0
	 item 63, weight= 470, color= 0
	 item 64, weight= 480, color= 0
	 item 65, weight= 480, color= 0
	 item 66, weight= 480, color= 0
	 item 67, weight= 482, color= 0
	 item 68, weight= 488, color= 0
	 item 69, weight= 510, color= 0
	 item 70, weight= 512, color= 0
	 item 71, weight= 512, color= 0
	 item 72, weight= 512, color= 0
	 item 73, weight= 512, color= 0
	 item 74, weight= 516, color= 0
	 item 75, weight= 516, color= 0
	 item 76, weight= 520, color= 0
	 item 77, weight= 524, color= 0
	 item 78, weight= 542, color= 0
	 item 79, weight= 544, color= 0
	 item 80, weight= 544, color= 0
	 item 81, weight= 560, color= 0
	 item 82, weight= 564, color= 0
	 item 83, weight= 576, color= 0
	 item 84, weight= 576, color= 0
	 item 85, weight= 576, color= 0
	 item 86, weight= 576, color= 0
	 item 87, weight= 584, color= 0
	 item 88, weight= 592, color= 0
	 item 89, weight= 598, color= 0
	 item 90, weight= 600, color= 0
	 item 91, weight= 604, color= 0
	 item 92, weight= 608, color= 0
	 item 93, weight= 624, color= 0
	 item 94, weight= 628, color= 0
	 item 95, weight= 632, color= 0
	 item 96, weight= 640, color= 0
	 item 97, weight= 640, color= 0
	 item 98, weight= 656, color= 0
	 item 99, weight= 656, color= 0
	 item 100, weight= 660, color= 0
	 item 101, weight= 660, color= 0
	 item 102, weight= 672, color= 0
	 item 103, weight= 672, color= 0
	 item 104, weight= 672, color= 0
	 item 105, weight= 672, color= 0
	 item 106, weight= 672, color= 0
	 item 107, weight= 672, color= 0
	 item 108, weight= 686, color= 0
	 item 109, weight= 688, color= 0
	 item 110, weight= 704, color= 0
	 item 111, weight= 704, color= 0
	 item 112, weight= 704, color= 0
	 item 113, weight= 704, color= 0
	 item 114, weight= 704, color= 0
	 item 115, weight= 704, color= 0
	 item 116, weight= 704, color= 0
	 item 117, weight= 720, color= 0
	 item 118, weight= 734, color= 0
	 item 119, weight= 736, color= 0
	 item 120, weight= 736, color= 0
	 item 121, weight= 744, color= 0
	 item 122, weight= 768, color= 0
	 item 123, weight= 784, color= 0
	 item 124, weight= 788, color= 0
	 item 125, weight= 800, color= 0
	 item 126, weight= 806, color= 0
	 item 127, weight= 832, color= 0
	 item 128, weight= 832, color= 0
	 item 129, weight= 832, color= 0
	 item 130, weight= 852, color= 0
	 item 131, weight= 858, color= 0
	 item 132, weight= 864, color= 0
	 item 133, weight= 864, color= 0
	 item 134, weight= 868, color= 0
	 item 135, weight= 868, color= 0
	 item 136, weight= 876, color= 0
	 item 137, weight= 880, color= 0
	 item 138, weight= 880, color= 0
	 item 139, weight= 884, color= 0
	 item 140, weight= 888, color= 0
	 item 141, weight= 896, color= 0
	 item 142, weight= 896, color= 0
	 item 143, weight= 896, color= 0
	 item 144, weight= 920, color= 0
	 item 145, weight= 920, color= 0
	 item 146, weight= 932, color= 0
	 item 147, weight= 960, color= 0
	 item 148, weight= 960, color= 0
	 item 149, weight= 964, color= 0
	 item 150, weight= 968, color= 0
	 item 151, weight= 992, color= 0
	 item 152, weight= 1008, color= 0
	 item 153, weight= 1010, color= 0
	 item 154, weight= 1016, color= 0
	 item 155, weight= 1020, color= 0
	 item 156, weight= 1024, color= 0
	 item 157, weight= 1024, color= 0
	 item 158, weight= 1024, color= 0
	 item 159, weight= 1044, color= 0
	 item 160, weight= 1064, color= 0
	 item 161, weight= 1104, color= 0
	 item 162, weight= 1112, color= 0
	 item 163, weight= 1126, color= 0
	 item 164, weight= 1152, color= 0
	 item 165, weight= 1160, color= 0
	 item 166, weight= 1176, color= 0
	 item 167, weight= 1184, color= 0
	 item 168, weight= 1184, color= 0
	 item 169, weight= 1188, color= 0
	 item 170, weight= 1200, color= 0
	 item 171, weight= 1200, color= 1
	 item 172, weight= 1216, color= 0
	 item 173, weight= 1216, color= 0
	 item 174, weight= 1258, color= 0
	 item 175, weight= 1266, color= 0
	 item 176, weight= 1280, color= 0
	 item 177, weight= 1298, color= 0
	 item 178, weight= 1312, color= 0
	 item 179, weight= 1344, color= 0
	 item 180, weight= 1344, color= 0
	 item 181, weight= 1376, color= 0
	 item 182, weight= 1392, color= 1
	 item 183, weight= 1408, color= 0
	 item 184, weight= 1408, color= 0
	 item 185, weight= 1408, color= 0
	 item 186, weight= 1412, color= 0
	 item 187, weight= 1424, color= 0
	 item 188, weight= 1428, color= 0
	 item 189, weight= 1434, color= 0
	 item 190, weight= 1436, color= 0
	 item 191, weight= 1440, color= 0
	 item 192, weight= 1492, color= 0
	 item 193, weight= 1600, color= 0
	 item 194, weight= 1600, color= 1
	 item 195, weight= 1620, color= 0
	 item 196, weight= 1632, color= 0
	 item 197, weight= 1632, color= 0
	 item 198, weight= 1632, color= 0
	 item 199, weight= 1632, color= 0
	 item 200, weight= 1632, color= 0
	 item 201, weight= 1632, color= 0
	 item 202, weight= 1636, color= 0
	 item 203, weight= 1648, color= 1
	 item 204, weight= 1662, color= 1
	 item 205, weight= 1678, color= 1
	 item 206, weight= 1696, color= 1
	 item 207, weight= 1720, color= 1
	 item 208, weight= 1750, color= 1
	 item 209, weight= 1772, color= 1
	 item 210, weight= 1780, color= 1
	 item 211, weight= 1782, color= 1
	 item 212, weight= 1816, color= 1
	 item 213, weight= 1846, color= 1
	 item 214, weight= 1856, color= 0
	 item 215, weight= 1858, color= 1
	 item 216, weight= 1862, color= 1
	 item 217, weight= 1872, color= 1
	 item 218, weight= 1884, color= 1
	 item 219, weight= 1886, color= 1
	 item 220, weight= 1914, color= 1
	 item 221, weight= 1952, color= 1
	 item 222, weight= 1960, color= 1
	 item 223, weight= 1988, color= 1
	 item 224, weight= 2000, color= 0
	 item 225, weight= 2004, color= 1
	 item 226, weight= 2022, color= 1
	 item 227, weight= 2042, color= 1
	 item 228, weight= 2064, color= 1
	 item 229, weight= 2072, color= 1
	 item 230, weight= 2128, color= 1
	 item 231, weight= 2130, color= 1
	 item 232, weight= 2140, color= 1
	 item 233, weight= 2144, color= 1
	 item 234, weight= 2174, color= 1
	 item 235, weight= 2176, color= 1
	 item 236, weight= 2200, color= 1
	 item 237, weight= 2232, color= 1
	 item 238, weight= 2240, color= 0
	 item 239, weight= 2242, color= 1
	 item 240, weight= 2273, color= 1
	 item 241, weight= 2282, color= 1
	 item 242, weight= 2284, color= 1
	 item 243, weight= 2292, color= 1
	 item 244, weight= 2352, color= 1
	 item 245, weight= 2355, color= 1
	 item 246, weight= 2392, color= 1
	 item 247, weight= 2415, color= 1
	 item 248, weight= 2428, color= 1
	 item 249, weight= 2448, color= 1
	 item 250, weight= 2454, color= 1
	 item 251, weight= 2455, color= 1
	 item 252, weight= 2456, color= 1
	 item 253, weight= 2553, color= 1
	 item 254, weight= 2566, color= 1
	 item 255, weight= 2592, color= 1
	 item 256, weight= 2594, color= 1
	 item 257, weight= 2602, color= 1
	 item 258, weight= 2618, color= 1
	 item 259, weight= 2621, color= 1
	 item 260, weight= 2644, color= 1
	 item 261, weight= 2656, color= 1
	 item 262, weight= 2704, color= 1
	 item 263, weight= 2719, color= 1
	 item 264, weight= 2736, color= 1
	 item 265, weight= 2756, color= 1
	 item 266, weight= 2760, color= 1
	 item 267, weight= 2810, color= 1
	 item 268, weight= 2838, color= 1
	 item 269, weight= 2848, color= 1
	 item 270, weight= 2892, color= 1
	 item 271, weight= 2937, color= 1
	 item 272, weight= 2962, color= 1
	 item 273, weight= 2968, color= 1
	 item 274, weight= 2993, color= 1
	 item 275, weight= 3022, color= 1
	 item 276, weight= 3028, color= 1
	 item 277, weight= 3056, color= 1
	 item 278, weight= 3072, color= 1
	 item 279, weight= 3080, color= 1
	 item 280, weight= 3126, color= 1
	 item 281, weight= 3149, color= 1
	 item 282, weight= 3168, color= 1
	 item 283, weight= 3188, color= 1
	 item 284, weight= 3280, color= 1
	 item 285, weight= 3282, color= 1
	 item 286, weight= 3288, color= 1
	 item 287, weight= 3310, color= 1
	 item 288, weight= 3374, color= 1
	 item 289, weight= 3416, color= 1
	 item 290, weight= 3433, color= 1
	 item 291, weight= 3440, color= 1
	 item 292, weight= 3476, color= 1
	 item 293, weight= 3512, color= 1
	 item 294, weight= 3530, color= 1
	 item 295, weight= 3552, color= 1
	 item 296, weight= 3552, color= 1
	 item 297, weight= 3606, color= 1
	 item 298, weight= 3677, color= 1
	 item 299, weight= 3680, color= 0
	 item 300, weight= 3680, color= 1
	 item 301, weight= 3720, color= 1
	 item 302, weight= 3724, color= 1
	 item 303, weight= 3760, color= 1
	 item 304, weight= 3808, color= 1
	 item 305, weight= 3864, color= 1
	 item 306, weight= 3922, color= 1
	 item 307, weight= 3950, color= 1
	 item 308, weight= 4016, color= 0
	 item 309, weight= 4016, color= 1
	 item 310, weight= 4028, color= 1
	 item 311, weight= 4039, color= 1
	 item 312, weight= 4096, color= 0
	 item 313, weight= 4110, color= 1
	 item 314, weight= 4192, color= 1
	 item 315, weight= 4232, color= 1
	 item 316, weight= 4240, color= 1
	 item 317, weight= 4299, color= 1
	 item 318, weight= 4330, color= 1
	 item 319, weight= 4350, color= 1
	 item 320, weight= 4358, color= 1
	 item 321, weight= 4382, color= 1
	 item 322, weight= 4399, color= 1
	 item 323, weight= 4422, color= 1
	 item 324, weight= 4433, color= 1
	 item 325, weight= 4472, color= 1
	 item 326, weight= 4516, color= 1
	 item 327, weight= 4536, color= 1
	 item 328, weight= 4544, color= 1
	 item 329, weight= 4592, color= 1
	 item 330, weight= 4614, color= 1
	 item 331, weight= 4620, color= 1
	 item 332, weight= 4620, color= 1
	 item 333, weight= 4640, color= 1
	 item 334, weight= 4667, color= 1
	 item 335, weight= 4860, color= 1
	 item 336, weight= 4880, color= 1
	 item 337, weight= 4960, color= 1
	 item 338, weight= 4968, color= 1
	 item 339, weight= 5053, color= 1
	 item 340, weight= 5068, color= 1
	 item 341, weight= 5094, color= 1
	 item 342, weight= 5104, color= 1
	 item 343, weight= 5122, color= 1
	 item 344, weight= 5128, color= 1
	 item 345, weight= 5160, color= 1
	 item 346, weight= 5208, color= 1
	 item 347, weight= 5210, color= 1
	 item 348, weight= 5234, color= 1
	 item 349, weight= 5330, color= 1
	 item 350, weight= 5360, color= 1
	 item 351, weight= 5472, color= 1
	 item 352, weight= 5556, color= 1
	 item 353, weight= 5565, color= 1
	 item 354, weight= 5635, color= 1
	 item 355, weight= 5804, color= 1
	 item 356, weight= 5889, color= 1
	 item 357, weight= 5902, color= 1
	 item 358, weight= 5928, color= 1
	 item 359, weight= 5954, color= 1
	 item 360, weight= 6000, color= 1
	 item 361, weight= 6008, color= 1
	 item 362, weight= 6032, color= 1
	 item 363, weight= 6040, color= 1
	 item 364, weight= 6048, color= 1
	 item 365, weight= 6082, color= 1
	 item 366, weight= 6108, color= 1
	 item 367, weight= 6291, color= 1
	 item 368, weight= 6322, color= 1
	 item 369, weight= 6333, color= 1
	 item 370, weight= 6339, color= 1
	 item 371, weight= 6384, color= 1
	 item 372, weight= 6616, color= 1
	 item 373, weight= 6624, color= 1
	 item 374, weight= 6641, color= 1
	 item 375, weight= 6720, color= 1
	 item 376, weight= 6732, color= 1
	 item 377, weight= 6734, color= 1
	 item 378, weight= 6896, color= 1
	 item 379, weight= 6992, color= 1
	 item 380, weight= 7016, color= 1
	 item 381, weight= 7044, color= 1
	 item 382, weight= 7052, color= 1
	 item 383, weight= 7131, color= 1
	 item 384, weight= 7146, color= 1
	 item 385, weight= 7162, color= 1
	 item 386, weight= 7177, color= 1
	 item 387, weight= 7186, color= 1
	 item 388, weight= 7202, color= 1
	 item 389, weight= 7328, color= 1
	 item 390, weight= 7461, color= 1
	 item 391, weight= 7638, color= 1
	 item 392, weight= 7704, color= 1
	 item 393, weight= 7808, color= 1
	 item 394, weight= 8144, color= 1
	 item 395, weight= 8160, color= 1
	 item 396, weight= 8168, color= 1
	 item 397, weight= 8176, color= 1
	 item 398, weight= 8180, color= 1
	 item 399, weight= 8182, color= 1
	 item 400, weight= 8183, color= 1
	 item 401, weight= 8184, color= 1
	 item 402, weight= 8188, color= 1
	 item 403, weight= 8202, color= 1
	 item 404, weight= 8525, color= 1
	 item 405, weight= 9825, color= 1
	 item 406, weight= 9826, color= 1
	 item 407, weight= 9828, color= 1
	 item 408, weight= 9829, color= 1
	 item 409, weight= 9832, color= 1
	 item 410, weight= 9834, color= 1
	 item 411, weight= 9836, color= 1
	 item 412, weight= 9840, color= 1
	 item 413, weight= 9848, color= 1
	 item 414, weight= 9888, color= 1
	 item 415, weight= 9904, color= 1
	 item 416, weight= 10695, color= 1
	 item 417, weight= 10912, color= 1
	 item 418, weight= 11006, color= 1
	 item 419, weight= 11026, color= 1
	 item 420, weight= 11037, color= 1
	 item 421, weight= 11058, color= 1
	 item 422, weight= 11090, color= 1
	 item 423, weight= 11093, color= 1
	 item 424, weight= 11122, color= 1
	 item 425, weight= 11188, color= 1
	 item 426, weight= 11196, color= 1
	 item 427, weight= 11240, color= 1
	 item 428, weight= 11272, color= 1
	 item 429, weight= 11280, color= 1
	 item 430, weight= 11408, color= 1
	 item 431, weight= 11570, color= 1
	 item 432, weight= 11720, color= 1
	 item 433, weight= 11744, color= 1
	 item 434, weight= 12043, color= 1
	 item 435, weight= 12099, color= 1
	 item 436, weight= 12127, color= 1
	 item 437, weight= 12288, color= 1
	 item 438, weight= 12324, color= 1
	 item 439, weight= 12332, color= 1
	 item 440, weight= 12350, color= 1
	 item 441, weight= 12408, color= 1
	 item 442, weight= 12440, color= 1
	 item 443, weight= 12448, color= 1
	 item 444, weight= 12464, color= 1
	 item 445, weight= 12474, color= 1
	 item 446, weight= 12506, color= 1
	 item 447, weight= 12536, color= 1
	 item 448, weight= 12570, color= 1
	 item 449, weight= 12579, color= 1
	 item 450, weight= 12592, color= 1
	 item 451, weight= 12684, color= 1
	 item 452, weight= 12784, color= 1
	 item 453, weight= 12887, color= 1
	 item 454, weight= 12971, color= 1
	 item 455, weight= 12988, color= 1
	 item 456, weight= 13152, color= 1
	 item 457, weight= 13254, color= 1
	 item 458, weight= 13370, color= 1
	 item 459, weight= 13416, color= 1
	 item 460, weight= 13424, color= 1
	 item 461, weight= 13474, color= 1
	 item 462, weight= 13496, color= 1
	 item 463, weight= 13506, color= 1
	 item 464, weight= 13538, color= 1
	 item 465, weight= 13552, color= 1
	 item 466, weight= 13568, color= 1
	 item 467, weight= 13572, color= 1
	 item 468, weight= 13585, color= 1
	 item 469, weight= 13641, color= 1
	 item 470, weight= 13728, color= 1
	 item 471, weight= 13808, color= 1
	 item 472, weight= 13820, color= 1
	 item 473, weight= 14049, color= 1
	 item 474, weight= 14108, color= 1
	 item 475, weight= 14112, color= 1
	 item 476, weight= 14114, color= 1
	 item 477, weight= 14216, color= 1
	 item 478, weight= 14236, color= 1
	 item 479, weight= 14296, color= 1
	 item 480, weight= 14328, color= 1
	 item 481, weight= 14342, color= 1
	 item 482, weight= 14352, color= 1
	 item 483, weight= 14390, color= 1
	 item 484, weight= 14422, color= 1
	 item 485, weight= 14430, color= 1
	 item 486, weight= 14454, color= 1
	 item 487, weight= 14456, color= 1
	 item 488, weight= 14491, color= 1
	 item 489, weight= 14576, color= 1
	 item 490, weight= 14584, color= 1
	 item 491, weight= 14803, color= 1
	 item 492, weight= 14816, color= 1
	 item 493, weight= 14820, color= 1
	 item 494, weight= 14860, color= 1
	 item 495, weight= 14864, color= 1
	 item 496, weight= 14878, color= 1
	 item 497, weight= 14910, color= 1
	 item 498, weight= 14942, color= 1
	 item 499, weight= 15119, color= 1
	 item 500, weight= 15136, color= 1
	 item 501, weight= 15147, color= 1
	 item 502, weight= 15180, color= 1
	 item 503, weight= 15192, color= 1
	 item 504, weight= 15208, color= 1
	 item 505, weight= 15216, color= 1
	 item 506, weight= 15237, color= 1
	 item 507, weight= 15264, color= 1
	 item 508, weight= 15322, color= 1
	 item 509, weight= 15344, color= 1
	 item 510, weight= 15392, color= 1
	 item 511, weight= 15414, color= 1
	 item 512, weight= 15484, color= 1
	 item 513, weight= 15520, color= 1
	 item 514, weight= 15529, color= 1
	 item 515, weight= 15536, color= 1
	 item 516, weight= 15560, color= 1
	 item 517, weight= 15602, color= 1
	 item 518, weight= 15678, color= 1
	 item 519, weight= 15704, color= 1
	 item 520, weight= 15710, color= 1
	 item 521, weight= 15728, color= 1
	 item 522, weight= 15776, color= 1
	 item 523, weight= 15828, color= 1
	 item 524, weight= 15832, color= 1
	 item 525, weight= 15871, color= 1
	 item 526, weight= 15898, color= 1
	 item 527, weight= 15904, color= 1
	 item 528, weight= 15960, color= 1
	 item 529, weight= 16016, color= 1
	 item 530, weight= 16020, color= 1
	 item 531, weight= 16022, color= 1
	 item 532, weight= 16057, color= 1
	 item 533, weight= 16094, color= 1
	 item 534, weight= 16180, color= 1
	 item 535, weight= 16245, color= 1
	 item 536, weight= 16246, color= 1
	 item 537, weight= 16278, color= 1
	 item 538, weight= 16288, color= 1
	 item 539, weight= 16344, color= 1
	 item 540, weight= 16348, color= 1
	 item 541, weight= 16387, color= 1
	 item 542, weight= 16400, color= 1
	 item 543, weight= 16432, color= 1
	 item 544, weight= 16484, color= 1
	 item 545, weight= 16488, color= 1
	 item 546, weight= 16503, color= 1
	 item 547, weight= 16530, color= 1
	 item 548, weight= 16538, color= 1
	 item 549, weight= 16570, color= 1
	 item 550, weight= 16585, color= 1
	 item 551, weight= 16608, color= 1
	 item 552, weight= 16674, color= 1
	 item 553, weight= 16706, color= 1
	 item 554, weight= 16712, color= 1
	 item 555, weight= 16720, color= 1
	 item 556, weight= 16740, color= 1
	 item 557, weight= 16751, color= 1
	 item 558, weight= 16792, color= 1
	 item 559, weight= 16823, color= 1
	 item 560, weight= 16848, color= 1
	 item 561, weight= 16864, color= 1
	 item 562, weight= 16908, color= 1
	 item 563, weight= 16910, color= 1
	 item 564, weight= 16921, color= 1
	 item 565, weight= 16956, color= 1
	 item 566, weight= 16958, color= 1
	 item 567, weight= 16984, color= 1
	 item 568, weight= 17016, color= 1
	 item 569, weight= 17042, color= 1
	 item 570, weight= 17045, color= 1
	 item 571, weight= 17084, color= 1
	 item 572, weight= 17094, color= 1
	 item 573, weight= 17104, color= 1
	 item 574, weight= 17120, color= 1
	 item 575, weight= 17176, color= 1
	 item 576, weight= 17202, color= 1
	 item 577, weight= 17226, color= 1
	 item 578, weight= 17244, color= 1
	 item 579, weight= 17268, color= 1
	 item 580, weight= 17304, color= 1
	 item 581, weight= 17312, color= 1
	 item 582, weight= 17328, color= 1
	 item 583, weight= 17354, color= 1
	 item 584, weight= 17386, color= 1
	 item 585, weight= 17396, color= 1
	 item 586, weight= 17418, color= 1
	 item 587, weight= 17422, color= 1
	 item 588, weight= 17424, color= 1
	 item 589, weight= 17480, color= 1
	 item 590, weight= 17514, color= 1
	 item 591, weight= 17524, color= 1
	 item 592, weight= 17536, color= 1
	 item 593, weight= 17550, color= 1
	 item 594, weight= 17552, color= 1
	 item 595, weight= 17582, color= 1
	 item 596, weight= 17592, color= 1
	 item 597, weight= 17632, color= 1
	 item 598, weight= 17638, color= 1
	 item 599, weight= 17654, color= 1
	 item 600, weight= 17668, color= 1
	 item 601, weight= 17680, color= 1

VRPSolver warning: Interval set for resource 1 on source node (when source != sink) is ignored (by definition is [0.0,0.0])
[41m solve [00m
~~~~~~~~~~~~~~~~~~~~~~~~~~~~~~~~~~~~~~~~~~~~~~~~~~~~~~~~~~~~~~~~~~~~~~~~~~~~~~
VRPSolver v0.4.1, 24/03/2021. Web: vrpsolver.math.u-bordeaux.fr
Corresponds to the solver by Pessoa, Sadykov, Uchoa and Vanderbeck (2020)
Paper: dx.doi.org/10.1007/s10107-020-01523-z
USE THIS CODE ONLY FOR ACADEMIC PURPOSES AT YOUR OWN RISK
~~~~~~~~~~~~~~~~~~~~~~~~~~~~~~~~~~~~~~~~~~~~~~~~~~~~~~~~~~~~~~~~~~~~~~~~~~~~~~
BaPCod v053, 24/03/2021, © Inria Bordeaux, France
~~~~~~~~~~~~~~~~~~~~~~~~~~~~~~~~~~~~~~~~~~~~~~~~~~~~~~~~~~~~~~~~~~~~~~~~~~~~~~
VRPSolver parameters:
GlobalTimeLimit = 1800
MaxNbOfBBtreeNodeTreated = 100000
treeSearchStrategy = 1
RCSPstopCutGenTimeThresholdInPricing = 10
RCSPhardTimeThresholdInPricing = 20
RCSPnumberOfBucketsPerVertex = 2000
RCSPdynamicBucketSteps = 0
RCSPuseBidirectionalSearch = 1
RCSPapplyReducedCostFixing = 1
RCSPredCostFixingFalseGap = 0
RCSPmaxNumOfColsPerIteration = 100
RCSPmaxNumOfColsPerExactIteration = 100
RCSPheurLabelingStrategy = 4
StabilizationMinPhaseOfStage = 1
RCSPmaxNumOfLabelsInEnumeration = 100000
RCSPmaxNumOfEnumeratedSolutions = 1000000
RCSPmaxNumOfEnumSolutionsForMIP = 100000
RCSPinitNGneighbourhoodSize = 0
RCSPmaxNGneighbourhoodSize = 0
RCSPrankOneCutsMaxNumPerRound = 100
RCSPrankOneCutsMaxNumRows = -1
RCSPrankOneCutsMemoryType = 2
CutTailingOffThreshold = 0.02
CutTailingOffCounterThreshold = 3
SafeDualBoundScaleFactor = -1
StrongBranchingPhaseOneCandidatesNumber = 100
StrongBranchingPhaseOneTreeSizeEstimRatio = 0.3
StrongBranchingPhaseTwoCandidatesNumber = 1
StrongBranchingPhaseTwoTreeSizeEstimRatio = 0.1
MaxTimeForRestrictedMasterIpHeur = -1
DivingHeurUseDepthLimit = 0
MaxLDSbreadth = 3
MaxLDSdepth = 2
New model incumbent solution 1e+06, TIME = 0h0m0s3t = 3
Model is built TIME = 0h0m5s31t = 531
************************************************************************************************
**** BaB tree root node
**** Local DB = -1e+12, global bounds : [ -1e+12 , 1e+06 ], TIME = 0h0m5s31t = 531
**** 1 open nodes, 0 columns (0 active), 0 dyn. constrs. (0 active), 1204 art. vars. (1204 active)
************************************************************************************************
<DWph=2> <it= 10> <et=13.25> <Mt= 0.01> <Spt= 7.91> <nCl=1000> <DB=-14799290512.1005> <Mlp=701683119.1664> <PB=1000000> 
<DWph=2> <it= 20> <et=20.95> <Mt= 0.02> <Spt= 7.67> <nCl=1000> <DB=-12540899900.9965> <Mlp=679493360.1895> <PB=1000000> 
<DWph=2> <it= 30> <et=28.94> <Mt= 0.04> <Spt= 7.95> <nCl=1000> <DB=-11570770431.2838> <Mlp=655071681.0687> <PB=1000000> 
<DWph=2> <it= 40> <et=36.74> <Mt= 0.05> <Spt= 7.74> <nCl=1000> <DB=-10177940214.9553> <Mlp=630545803.6899> <PB=1000000> 
<DWph=2> <it= 50> <et=44.70> <Mt= 0.07> <Spt= 7.89> <nCl=1000> <DB=-9561389981.4689> <Mlp=601918531.5154> <PB=1000000> 
<DWph=2> <it= 60> <et=52.46> <Mt= 0.11> <Spt= 7.65> <nCl=1000> <DB=-8787440924.5071> <Mlp=571765704.6619> <PB=1000000> 
<DWph=2> <it= 70> <et=60.24> <Mt= 0.15> <Spt= 7.62> <nCl=1000> <DB=-7909258884.5133> <Mlp=543631649.0381> <PB=1000000> 
<DWph=2> <it= 80> <et=67.76> <Mt= 0.15> <Spt= 7.35> <nCl=1000> <DB=-7391145528.0291> <Mlp=510880541.2662> <PB=1000000> 
<DWph=2> <it= 90> <et=75.70> <Mt= 0.33> <Spt= 7.62> <nCl=1000> <DB=-6217220118.7197> <Mlp=477868320.5553> <PB=1000000> 
<DWph=2> <it=100> <et=83.61> <Mt= 0.30> <Spt= 7.60> <nCl=1000> <DB=-5916207360.9358> <Mlp=445142988.1839> <PB=1000000> 
<DWph=2> <it=110> <et=91.62> <Mt= 0.44> <Spt= 7.50> <nCl=1000> <DB=-5229957060.4469> <Mlp=404864732.5048> <PB=1000000> 
<DWph=2> <it=120> <et=99.30> <Mt= 0.53> <Spt= 7.13> <nCl=1000> <DB=-4659055164.5664> <Mlp=370514333.7203> <PB=1000000> 
<DWph=2> <it=130> <et=106.98> <Mt= 0.64> <Spt= 7.05> <nCl=1000> <DB=-4019368753.6318> <Mlp=329807166.4560> <PB=1000000> 
