Application parameters:
  batch  =>  nothing
  instance  =>  "/IN/600_20000_DI_2.txt-Q2Half"
  ub  =>  1.0e6
  cfg  =>  "/CFG/BPP.cfg"
data = Colored Bin Packing dataset.
number of items = 601
number of colors = 2
capacity = 15744
Items : 
	 item 1, weight= 12, color= 0
	 item 2, weight= 24, color= 0
	 item 3, weight= 32, color= 0
	 item 4, weight= 64, color= 0
	 item 5, weight= 64, color= 0
	 item 6, weight= 128, color= 0
	 item 7, weight= 160, color= 0
	 item 8, weight= 196, color= 0
	 item 9, weight= 224, color= 0
	 item 10, weight= 252, color= 0
	 item 11, weight= 256, color= 0
	 item 12, weight= 256, color= 0
	 item 13, weight= 256, color= 0
	 item 14, weight= 256, color= 0
	 item 15, weight= 256, color= 0
	 item 16, weight= 264, color= 0
	 item 17, weight= 268, color= 0
	 item 18, weight= 272, color= 0
	 item 19, weight= 272, color= 0
	 item 20, weight= 276, color= 0
	 item 21, weight= 284, color= 0
	 item 22, weight= 288, color= 0
	 item 23, weight= 288, color= 0
	 item 24, weight= 288, color= 0
	 item 25, weight= 288, color= 0
	 item 26, weight= 288, color= 0
	 item 27, weight= 288, color= 0
	 item 28, weight= 288, color= 0
	 item 29, weight= 292, color= 0
	 item 30, weight= 296, color= 0
	 item 31, weight= 304, color= 0
	 item 32, weight= 304, color= 0
	 item 33, weight= 304, color= 0
	 item 34, weight= 312, color= 0
	 item 35, weight= 312, color= 0
	 item 36, weight= 320, color= 0
	 item 37, weight= 320, color= 0
	 item 38, weight= 328, color= 0
	 item 39, weight= 332, color= 0
	 item 40, weight= 336, color= 0
	 item 41, weight= 336, color= 0
	 item 42, weight= 344, color= 0
	 item 43, weight= 344, color= 0
	 item 44, weight= 348, color= 0
	 item 45, weight= 352, color= 0
	 item 46, weight= 352, color= 0
	 item 47, weight= 352, color= 0
	 item 48, weight= 352, color= 0
	 item 49, weight= 356, color= 0
	 item 50, weight= 356, color= 0
	 item 51, weight= 360, color= 0
	 item 52, weight= 368, color= 0
	 item 53, weight= 368, color= 0
	 item 54, weight= 376, color= 0
	 item 55, weight= 376, color= 0
	 item 56, weight= 380, color= 0
	 item 57, weight= 384, color= 0
	 item 58, weight= 388, color= 0
	 item 59, weight= 390, color= 0
	 item 60, weight= 392, color= 0
	 item 61, weight= 400, color= 0
	 item 62, weight= 400, color= 0
	 item 63, weight= 400, color= 0
	 item 64, weight= 400, color= 0
	 item 65, weight= 400, color= 0
	 item 66, weight= 400, color= 0
	 item 67, weight= 404, color= 0
	 item 68, weight= 416, color= 0
	 item 69, weight= 416, color= 0
	 item 70, weight= 416, color= 0
	 item 71, weight= 416, color= 0
	 item 72, weight= 424, color= 0
	 item 73, weight= 432, color= 0
	 item 74, weight= 432, color= 0
	 item 75, weight= 432, color= 0
	 item 76, weight= 432, color= 0
	 item 77, weight= 436, color= 0
	 item 78, weight= 448, color= 0
	 item 79, weight= 448, color= 0
	 item 80, weight= 448, color= 0
	 item 81, weight= 448, color= 0
	 item 82, weight= 464, color= 0
	 item 83, weight= 464, color= 0
	 item 84, weight= 464, color= 0
	 item 85, weight= 468, color= 0
	 item 86, weight= 468, color= 0
	 item 87, weight= 468, color= 0
	 item 88, weight= 474, color= 0
	 item 89, weight= 476, color= 0
	 item 90, weight= 480, color= 0
	 item 91, weight= 480, color= 0
	 item 92, weight= 480, color= 0
	 item 93, weight= 496, color= 0
	 item 94, weight= 496, color= 0
	 item 95, weight= 504, color= 0
	 item 96, weight= 508, color= 0
	 item 97, weight= 512, color= 0
	 item 98, weight= 512, color= 0
	 item 99, weight= 520, color= 0
	 item 100, weight= 528, color= 0
	 item 101, weight= 528, color= 0
	 item 102, weight= 536, color= 0
	 item 103, weight= 540, color= 0
	 item 104, weight= 544, color= 0
	 item 105, weight= 544, color= 0
	 item 106, weight= 552, color= 0
	 item 107, weight= 560, color= 0
	 item 108, weight= 560, color= 0
	 item 109, weight= 560, color= 0
	 item 110, weight= 568, color= 0
	 item 111, weight= 576, color= 0
	 item 112, weight= 576, color= 0
	 item 113, weight= 576, color= 0
	 item 114, weight= 576, color= 0
	 item 115, weight= 580, color= 0
	 item 116, weight= 584, color= 0
	 item 117, weight= 584, color= 0
	 item 118, weight= 584, color= 0
	 item 119, weight= 592, color= 0
	 item 120, weight= 604, color= 0
	 item 121, weight= 608, color= 0
	 item 122, weight= 608, color= 0
	 item 123, weight= 616, color= 0
	 item 124, weight= 620, color= 0
	 item 125, weight= 624, color= 0
	 item 126, weight= 624, color= 0
	 item 127, weight= 624, color= 0
	 item 128, weight= 628, color= 0
	 item 129, weight= 640, color= 0
	 item 130, weight= 640, color= 0
	 item 131, weight= 652, color= 0
	 item 132, weight= 654, color= 0
	 item 133, weight= 654, color= 0
	 item 134, weight= 656, color= 0
	 item 135, weight= 656, color= 0
	 item 136, weight= 664, color= 0
	 item 137, weight= 672, color= 0
	 item 138, weight= 704, color= 0
	 item 139, weight= 704, color= 0
	 item 140, weight= 736, color= 0
	 item 141, weight= 736, color= 0
	 item 142, weight= 736, color= 0
	 item 143, weight= 738, color= 0
	 item 144, weight= 738, color= 0
	 item 145, weight= 752, color= 0
	 item 146, weight= 752, color= 0
	 item 147, weight= 756, color= 0
	 item 148, weight= 760, color= 0
	 item 149, weight= 800, color= 0
	 item 150, weight= 800, color= 0
	 item 151, weight= 832, color= 0
	 item 152, weight= 832, color= 0
	 item 153, weight= 848, color= 0
	 item 154, weight= 856, color= 0
	 item 155, weight= 856, color= 0
	 item 156, weight= 856, color= 0
	 item 157, weight= 858, color= 0
	 item 158, weight= 858, color= 0
	 item 159, weight= 860, color= 0
	 item 160, weight= 864, color= 0
	 item 161, weight= 928, color= 0
	 item 162, weight= 944, color= 0
	 item 163, weight= 960, color= 0
	 item 164, weight= 960, color= 0
	 item 165, weight= 976, color= 0
	 item 166, weight= 976, color= 0
	 item 167, weight= 976, color= 0
	 item 168, weight= 980, color= 0
	 item 169, weight= 980, color= 0
	 item 170, weight= 982, color= 0
	 item 171, weight= 984, color= 0
	 item 172, weight= 1056, color= 0
	 item 173, weight= 1056, color= 0
	 item 174, weight= 1104, color= 0
	 item 175, weight= 1120, color= 0
	 item 176, weight= 1120, color= 0
	 item 177, weight= 1120, color= 0
	 item 178, weight= 1120, color= 1
	 item 179, weight= 1124, color= 0
	 item 180, weight= 1124, color= 0
	 item 181, weight= 1124, color= 0
	 item 182, weight= 1128, color= 0
	 item 183, weight= 1132, color= 0
	 item 184, weight= 1132, color= 0
	 item 185, weight= 1136, color= 0
	 item 186, weight= 1152, color= 0
	 item 187, weight= 1200, color= 0
	 item 188, weight= 1280, color= 0
	 item 189, weight= 1280, color= 0
	 item 190, weight= 1296, color= 0
	 item 191, weight= 1296, color= 0
	 item 192, weight= 1304, color= 0
	 item 193, weight= 1304, color= 0
	 item 194, weight= 1304, color= 0
	 item 195, weight= 1304, color= 0
	 item 196, weight= 1308, color= 0
	 item 197, weight= 1308, color= 0
	 item 198, weight= 1308, color= 0
	 item 199, weight= 1308, color= 0
	 item 200, weight= 1310, color= 0
	 item 201, weight= 1310, color= 0
	 item 202, weight= 1310, color= 0
	 item 203, weight= 1324, color= 1
	 item 204, weight= 1336, color= 1
	 item 205, weight= 1358, color= 1
	 item 206, weight= 1360, color= 1
	 item 207, weight= 1368, color= 1
	 item 208, weight= 1382, color= 1
	 item 209, weight= 1384, color= 1
	 item 210, weight= 1388, color= 1
	 item 211, weight= 1424, color= 1
	 item 212, weight= 1438, color= 1
	 item 213, weight= 1448, color= 1
	 item 214, weight= 1456, color= 1
	 item 215, weight= 1468, color= 1
	 item 216, weight= 1474, color= 1
	 item 217, weight= 1512, color= 1
	 item 218, weight= 1516, color= 1
	 item 219, weight= 1520, color= 1
	 item 220, weight= 1548, color= 1
	 item 221, weight= 1558, color= 1
	 item 222, weight= 1572, color= 1
	 item 223, weight= 1578, color= 1
	 item 224, weight= 1584, color= 1
	 item 225, weight= 1620, color= 1
	 item 226, weight= 1632, color= 1
	 item 227, weight= 1644, color= 1
	 item 228, weight= 1648, color= 1
	 item 229, weight= 1682, color= 1
	 item 230, weight= 1688, color= 1
	 item 231, weight= 1708, color= 1
	 item 232, weight= 1728, color= 0
	 item 233, weight= 1730, color= 1
	 item 234, weight= 1732, color= 1
	 item 235, weight= 1752, color= 1
	 item 236, weight= 1760, color= 0
	 item 237, weight= 1764, color= 1
	 item 238, weight= 1774, color= 1
	 item 239, weight= 1776, color= 1
	 item 240, weight= 1786, color= 1
	 item 241, weight= 1802, color= 1
	 item 242, weight= 1832, color= 1
	 item 243, weight= 1868, color= 1
	 item 244, weight= 1892, color= 1
	 item 245, weight= 1894, color= 1
	 item 246, weight= 1896, color= 1
	 item 247, weight= 1912, color= 1
	 item 248, weight= 1922, color= 1
	 item 249, weight= 1922, color= 1
	 item 250, weight= 1936, color= 1
	 item 251, weight= 1951, color= 1
	 item 252, weight= 1953, color= 1
	 item 253, weight= 1978, color= 1
	 item 254, weight= 2004, color= 1
	 item 255, weight= 2008, color= 1
	 item 256, weight= 2022, color= 1
	 item 257, weight= 2022, color= 1
	 item 258, weight= 2025, color= 1
	 item 259, weight= 2028, color= 1
	 item 260, weight= 2040, color= 1
	 item 261, weight= 2040, color= 1
	 item 262, weight= 2072, color= 1
	 item 263, weight= 2090, color= 1
	 item 264, weight= 2096, color= 1
	 item 265, weight= 2163, color= 1
	 item 266, weight= 2164, color= 1
	 item 267, weight= 2182, color= 1
	 item 268, weight= 2185, color= 1
	 item 269, weight= 2188, color= 1
	 item 270, weight= 2248, color= 1
	 item 271, weight= 2264, color= 1
	 item 272, weight= 2288, color= 1
	 item 273, weight= 2334, color= 1
	 item 274, weight= 2351, color= 1
	 item 275, weight= 2354, color= 1
	 item 276, weight= 2356, color= 1
	 item 277, weight= 2362, color= 1
	 item 278, weight= 2377, color= 1
	 item 279, weight= 2394, color= 1
	 item 280, weight= 2409, color= 1
	 item 281, weight= 2412, color= 1
	 item 282, weight= 2412, color= 1
	 item 283, weight= 2432, color= 1
	 item 284, weight= 2434, color= 1
	 item 285, weight= 2482, color= 1
	 item 286, weight= 2488, color= 1
	 item 287, weight= 2504, color= 1
	 item 288, weight= 2536, color= 1
	 item 289, weight= 2554, color= 1
	 item 290, weight= 2570, color= 1
	 item 291, weight= 2576, color= 1
	 item 292, weight= 2590, color= 1
	 item 293, weight= 2600, color= 1
	 item 294, weight= 2607, color= 1
	 item 295, weight= 2645, color= 1
	 item 296, weight= 2652, color= 1
	 item 297, weight= 2708, color= 1
	 item 298, weight= 2768, color= 1
	 item 299, weight= 2772, color= 1
	 item 300, weight= 2800, color= 1
	 item 301, weight= 2802, color= 1
	 item 302, weight= 2808, color= 1
	 item 303, weight= 2814, color= 1
	 item 304, weight= 2852, color= 1
	 item 305, weight= 2883, color= 1
	 item 306, weight= 2925, color= 1
	 item 307, weight= 2944, color= 1
	 item 308, weight= 2948, color= 1
	 item 309, weight= 2980, color= 1
	 item 310, weight= 3076, color= 1
	 item 311, weight= 3094, color= 1
	 item 312, weight= 3096, color= 1
	 item 313, weight= 3107, color= 1
	 item 314, weight= 3120, color= 1
	 item 315, weight= 3122, color= 1
	 item 316, weight= 3144, color= 1
	 item 317, weight= 3146, color= 1
	 item 318, weight= 3176, color= 1
	 item 319, weight= 3186, color= 1
	 item 320, weight= 3208, color= 1
	 item 321, weight= 3242, color= 1
	 item 322, weight= 3261, color= 1
	 item 323, weight= 3271, color= 1
	 item 324, weight= 3272, color= 1
	 item 325, weight= 3275, color= 1
	 item 326, weight= 3283, color= 1
	 item 327, weight= 3296, color= 1
	 item 328, weight= 3308, color= 1
	 item 329, weight= 3348, color= 1
	 item 330, weight= 3378, color= 1
	 item 331, weight= 3492, color= 1
	 item 332, weight= 3504, color= 1
	 item 333, weight= 3542, color= 1
	 item 334, weight= 3542, color= 1
	 item 335, weight= 3608, color= 1
	 item 336, weight= 3616, color= 1
	 item 337, weight= 3632, color= 1
	 item 338, weight= 3681, color= 1
	 item 339, weight= 3688, color= 1
	 item 340, weight= 3691, color= 1
	 item 341, weight= 3695, color= 1
	 item 342, weight= 3764, color= 1
	 item 343, weight= 3772, color= 1
	 item 344, weight= 3787, color= 1
	 item 345, weight= 3802, color= 1
	 item 346, weight= 3824, color= 1
	 item 347, weight= 3966, color= 1
	 item 348, weight= 4048, color= 1
	 item 349, weight= 4088, color= 1
	 item 350, weight= 4185, color= 1
	 item 351, weight= 4200, color= 1
	 item 352, weight= 4276, color= 1
	 item 353, weight= 4282, color= 1
	 item 354, weight= 4284, color= 1
	 item 355, weight= 4285, color= 1
	 item 356, weight= 4295, color= 1
	 item 357, weight= 4299, color= 1
	 item 358, weight= 4310, color= 1
	 item 359, weight= 4334, color= 1
	 item 360, weight= 4336, color= 1
	 item 361, weight= 4664, color= 1
	 item 362, weight= 4808, color= 1
	 item 363, weight= 4890, color= 1
	 item 364, weight= 4892, color= 1
	 item 365, weight= 4900, color= 1
	 item 366, weight= 4909, color= 1
	 item 367, weight= 4911, color= 1
	 item 368, weight= 4918, color= 1
	 item 369, weight= 4931, color= 1
	 item 370, weight= 4944, color= 1
	 item 371, weight= 5344, color= 1
	 item 372, weight= 5368, color= 1
	 item 373, weight= 5392, color= 1
	 item 374, weight= 5544, color= 1
	 item 375, weight= 5618, color= 1
	 item 376, weight= 5622, color= 1
	 item 377, weight= 5628, color= 1
	 item 378, weight= 5630, color= 1
	 item 379, weight= 5636, color= 1
	 item 380, weight= 5638, color= 1
	 item 381, weight= 5645, color= 1
	 item 382, weight= 5662, color= 1
	 item 383, weight= 5667, color= 1
	 item 384, weight= 5672, color= 1
	 item 385, weight= 5686, color= 1
	 item 386, weight= 5888, color= 0
	 item 387, weight= 5936, color= 1
	 item 388, weight= 6456, color= 1
	 item 389, weight= 6516, color= 1
	 item 390, weight= 6524, color= 1
	 item 391, weight= 6540, color= 1
	 item 392, weight= 6542, color= 1
	 item 393, weight= 6546, color= 1
	 item 394, weight= 6551, color= 1
	 item 395, weight= 6553, color= 1
	 item 396, weight= 6554, color= 1
	 item 397, weight= 6556, color= 1
	 item 398, weight= 6557, color= 1
	 item 399, weight= 6561, color= 1
	 item 400, weight= 6562, color= 1
	 item 401, weight= 6568, color= 1
	 item 402, weight= 6576, color= 1
	 item 403, weight= 6668, color= 1
	 item 404, weight= 6888, color= 1
	 item 405, weight= 7873, color= 1
	 item 406, weight= 7874, color= 1
	 item 407, weight= 7876, color= 1
	 item 408, weight= 7877, color= 1
	 item 409, weight= 7880, color= 1
	 item 410, weight= 7881, color= 1
	 item 411, weight= 7882, color= 1
	 item 412, weight= 7884, color= 1
	 item 413, weight= 7885, color= 1
	 item 414, weight= 7888, color= 1
	 item 415, weight= 7890, color= 1
	 item 416, weight= 7898, color= 1
	 item 417, weight= 7900, color= 1
	 item 418, weight= 7912, color= 1
	 item 419, weight= 7916, color= 1
	 item 420, weight= 7932, color= 1
	 item 421, weight= 8008, color= 1
	 item 422, weight= 8656, color= 1
	 item 423, weight= 8922, color= 1
	 item 424, weight= 8945, color= 1
	 item 425, weight= 8950, color= 1
	 item 426, weight= 8952, color= 1
	 item 427, weight= 8971, color= 1
	 item 428, weight= 8982, color= 1
	 item 429, weight= 8988, color= 1
	 item 430, weight= 8990, color= 1
	 item 431, weight= 8996, color= 1
	 item 432, weight= 8998, color= 1
	 item 433, weight= 9006, color= 1
	 item 434, weight= 9096, color= 1
	 item 435, weight= 9296, color= 1
	 item 436, weight= 9320, color= 1
	 item 437, weight= 9829, color= 1
	 item 438, weight= 9840, color= 1
	 item 439, weight= 9846, color= 1
	 item 440, weight= 9851, color= 1
	 item 441, weight= 9855, color= 1
	 item 442, weight= 9856, color= 1
	 item 443, weight= 9868, color= 1
	 item 444, weight= 9876, color= 1
	 item 445, weight= 9878, color= 1
	 item 446, weight= 9976, color= 1
	 item 447, weight= 10152, color= 1
	 item 448, weight= 10546, color= 1
	 item 449, weight= 10574, color= 1
	 item 450, weight= 10576, color= 1
	 item 451, weight= 10587, color= 1
	 item 452, weight= 10591, color= 1
	 item 453, weight= 10603, color= 1
	 item 454, weight= 10604, color= 1
	 item 455, weight= 10606, color= 1
	 item 456, weight= 10620, color= 1
	 item 457, weight= 10712, color= 1
	 item 458, weight= 10856, color= 1
	 item 459, weight= 10896, color= 1
	 item 460, weight= 10912, color= 1
	 item 461, weight= 11182, color= 1
	 item 462, weight= 11184, color= 1
	 item 463, weight= 11194, color= 1
	 item 464, weight= 11201, color= 1
	 item 465, weight= 11211, color= 1
	 item 466, weight= 11220, color= 1
	 item 467, weight= 11228, color= 1
	 item 468, weight= 11311, color= 1
	 item 469, weight= 11315, color= 1
	 item 470, weight= 11320, color= 1
	 item 471, weight= 11327, color= 1
	 item 472, weight= 11432, color= 1
	 item 473, weight= 11472, color= 1
	 item 474, weight= 11498, color= 1
	 item 475, weight= 11662, color= 1
	 item 476, weight= 11694, color= 1
	 item 477, weight= 11732, color= 1
	 item 478, weight= 11748, color= 1
	 item 479, weight= 11780, color= 1
	 item 480, weight= 11805, color= 1
	 item 481, weight= 11815, color= 1
	 item 482, weight= 11819, color= 1
	 item 483, weight= 11831, color= 1
	 item 484, weight= 11832, color= 1
	 item 485, weight= 11888, color= 1
	 item 486, weight= 11912, color= 1
	 item 487, weight= 11922, color= 1
	 item 488, weight= 11944, color= 1
	 item 489, weight= 11954, color= 1
	 item 490, weight= 11970, color= 1
	 item 491, weight= 11976, color= 1
	 item 492, weight= 12002, color= 1
	 item 493, weight= 12016, color= 1
	 item 494, weight= 12034, color= 1
	 item 495, weight= 12040, color= 1
	 item 496, weight= 12172, color= 1
	 item 497, weight= 12212, color= 1
	 item 498, weight= 12224, color= 1
	 item 499, weight= 12235, color= 1
	 item 500, weight= 12244, color= 1
	 item 501, weight= 12285, color= 1
	 item 502, weight= 12324, color= 1
	 item 503, weight= 12370, color= 1
	 item 504, weight= 12376, color= 1
	 item 505, weight= 12382, color= 1
	 item 506, weight= 12400, color= 1
	 item 507, weight= 12420, color= 1
	 item 508, weight= 12432, color= 1
	 item 509, weight= 12500, color= 1
	 item 510, weight= 12564, color= 1
	 item 511, weight= 12571, color= 1
	 item 512, weight= 12613, color= 1
	 item 513, weight= 12617, color= 1
	 item 514, weight= 12632, color= 1
	 item 515, weight= 12662, color= 1
	 item 516, weight= 12682, color= 1
	 item 517, weight= 12690, color= 1
	 item 518, weight= 12712, color= 1
	 item 519, weight= 12744, color= 1
	 item 520, weight= 12752, color= 1
	 item 521, weight= 12776, color= 1
	 item 522, weight= 12852, color= 1
	 item 523, weight= 12855, color= 1
	 item 524, weight= 12874, color= 1
	 item 525, weight= 12893, color= 1
	 item 526, weight= 12906, color= 1
	 item 527, weight= 12914, color= 1
	 item 528, weight= 12922, color= 1
	 item 529, weight= 12924, color= 1
	 item 530, weight= 12925, color= 1
	 item 531, weight= 12946, color= 1
	 item 532, weight= 13008, color= 1
	 item 533, weight= 13032, color= 1
	 item 534, weight= 13048, color= 1
	 item 535, weight= 13108, color= 1
	 item 536, weight= 13123, color= 1
	 item 537, weight= 13124, color= 1
	 item 538, weight= 13130, color= 1
	 item 539, weight= 13148, color= 1
	 item 540, weight= 13149, color= 1
	 item 541, weight= 13150, color= 1
	 item 542, weight= 13232, color= 1
	 item 543, weight= 13238, color= 1
	 item 544, weight= 13272, color= 1
	 item 545, weight= 13304, color= 1
	 item 546, weight= 13315, color= 1
	 item 547, weight= 13316, color= 1
	 item 548, weight= 13322, color= 1
	 item 549, weight= 13336, color= 1
	 item 550, weight= 13340, color= 1
	 item 551, weight= 13374, color= 1
	 item 552, weight= 13400, color= 1
	 item 553, weight= 13401, color= 1
	 item 554, weight= 13405, color= 1
	 item 555, weight= 13424, color= 1
	 item 556, weight= 13442, color= 1
	 item 557, weight= 13464, color= 1
	 item 558, weight= 13474, color= 1
	 item 559, weight= 13476, color= 1
	 item 560, weight= 13508, color= 1
	 item 561, weight= 13560, color= 1
	 item 562, weight= 13570, color= 1
	 item 563, weight= 13582, color= 1
	 item 564, weight= 13602, color= 1
	 item 565, weight= 13616, color= 1
	 item 566, weight= 13618, color= 1
	 item 567, weight= 13636, color= 1
	 item 568, weight= 13668, color= 1
	 item 569, weight= 13688, color= 1
	 item 570, weight= 13700, color= 1
	 item 571, weight= 13710, color= 1
	 item 572, weight= 13720, color= 1
	 item 573, weight= 13730, color= 1
	 item 574, weight= 13772, color= 1
	 item 575, weight= 13776, color= 1
	 item 576, weight= 13804, color= 1
	 item 577, weight= 13816, color= 1
	 item 578, weight= 13824, color= 1
	 item 579, weight= 13854, color= 1
	 item 580, weight= 13860, color= 1
	 item 581, weight= 13872, color= 1
	 item 582, weight= 13886, color= 1
	 item 583, weight= 13892, color= 1
	 item 584, weight= 13932, color= 1
	 item 585, weight= 13936, color= 1
	 item 586, weight= 13944, color= 1
	 item 587, weight= 13978, color= 1
	 item 588, weight= 13988, color= 1
	 item 589, weight= 13990, color= 1
	 item 590, weight= 14000, color= 1
	 item 591, weight= 14008, color= 1
	 item 592, weight= 14022, color= 1
	 item 593, weight= 14064, color= 1
	 item 594, weight= 14084, color= 1
	 item 595, weight= 14086, color= 1
	 item 596, weight= 14088, color= 1
	 item 597, weight= 14118, color= 1
	 item 598, weight= 14120, color= 1
	 item 599, weight= 14128, color= 1
	 item 600, weight= 14152, color= 1
	 item 601, weight= 14156, color= 1

VRPSolver warning: Interval set for resource 1 on source node (when source != sink) is ignored (by definition is [0.0,0.0])
[41m solve [00m
~~~~~~~~~~~~~~~~~~~~~~~~~~~~~~~~~~~~~~~~~~~~~~~~~~~~~~~~~~~~~~~~~~~~~~~~~~~~~~
VRPSolver v0.4.1, 24/03/2021. Web: vrpsolver.math.u-bordeaux.fr
Corresponds to the solver by Pessoa, Sadykov, Uchoa and Vanderbeck (2020)
Paper: dx.doi.org/10.1007/s10107-020-01523-z
USE THIS CODE ONLY FOR ACADEMIC PURPOSES AT YOUR OWN RISK
~~~~~~~~~~~~~~~~~~~~~~~~~~~~~~~~~~~~~~~~~~~~~~~~~~~~~~~~~~~~~~~~~~~~~~~~~~~~~~
BaPCod v053, 24/03/2021, © Inria Bordeaux, France
~~~~~~~~~~~~~~~~~~~~~~~~~~~~~~~~~~~~~~~~~~~~~~~~~~~~~~~~~~~~~~~~~~~~~~~~~~~~~~
VRPSolver parameters:
GlobalTimeLimit = 1800
MaxNbOfBBtreeNodeTreated = 100000
treeSearchStrategy = 1
RCSPstopCutGenTimeThresholdInPricing = 10
RCSPhardTimeThresholdInPricing = 20
RCSPnumberOfBucketsPerVertex = 2000
RCSPdynamicBucketSteps = 0
RCSPuseBidirectionalSearch = 1
RCSPapplyReducedCostFixing = 1
RCSPredCostFixingFalseGap = 0
RCSPmaxNumOfColsPerIteration = 100
RCSPmaxNumOfColsPerExactIteration = 100
RCSPheurLabelingStrategy = 4
StabilizationMinPhaseOfStage = 1
RCSPmaxNumOfLabelsInEnumeration = 100000
RCSPmaxNumOfEnumeratedSolutions = 1000000
RCSPmaxNumOfEnumSolutionsForMIP = 100000
RCSPinitNGneighbourhoodSize = 0
RCSPmaxNGneighbourhoodSize = 0
RCSPrankOneCutsMaxNumPerRound = 100
RCSPrankOneCutsMaxNumRows = -1
RCSPrankOneCutsMemoryType = 2
CutTailingOffThreshold = 0.02
CutTailingOffCounterThreshold = 3
SafeDualBoundScaleFactor = -1
StrongBranchingPhaseOneCandidatesNumber = 100
StrongBranchingPhaseOneTreeSizeEstimRatio = 0.3
StrongBranchingPhaseTwoCandidatesNumber = 1
StrongBranchingPhaseTwoTreeSizeEstimRatio = 0.1
MaxTimeForRestrictedMasterIpHeur = -1
DivingHeurUseDepthLimit = 0
MaxLDSbreadth = 3
MaxLDSdepth = 2
New model incumbent solution 1e+06, TIME = 0h0m0s3t = 3
Model is built TIME = 0h0m4s99t = 499
************************************************************************************************
**** BaB tree root node
**** Local DB = -1e+12, global bounds : [ -1e+12 , 1e+06 ], TIME = 0h0m5s0t = 500
**** 1 open nodes, 0 columns (0 active), 0 dyn. constrs. (0 active), 1204 art. vars. (1204 active)
************************************************************************************************
<DWph=2> <it= 10> <et=12.59> <Mt= 0.01> <Spt= 7.56> <nCl=1000> <DB=-12994073791.5223> <Mlp=703508065.6984> <PB=1000000> 
<DWph=2> <it= 20> <et=20.08> <Mt= 0.02> <Spt= 7.48> <nCl=1000> <DB=-11927169206.9965> <Mlp=678674314.4050> <PB=1000000> 
<DWph=2> <it= 30> <et=27.82> <Mt= 0.03> <Spt= 7.70> <nCl=1000> <DB=-11456580513.5369> <Mlp=650184236.0949> <PB=1000000> 
<DWph=2> <it= 40> <et=35.51> <Mt= 0.05> <Spt= 7.63> <nCl=1000> <DB=-10161402239.3586> <Mlp=624901275.1469> <PB=1000000> 
<DWph=2> <it= 50> <et=43.24> <Mt= 0.09> <Spt= 7.63> <nCl=1000> <DB=-9246720054.3264> <Mlp=596496593.2000> <PB=1000000> 
<DWph=2> <it= 60> <et=50.72> <Mt= 0.10> <Spt= 7.37> <nCl=1000> <DB=-8788420836.7080> <Mlp=568217574.8396> <PB=1000000> 
<DWph=2> <it= 70> <et=58.66> <Mt= 0.18> <Spt= 7.76> <nCl=1000> <DB=-7995857559.1650> <Mlp=538529861.1692> <PB=1000000> 
<DWph=2> <it= 80> <et=66.38> <Mt= 0.21> <Spt= 7.50> <nCl=1000> <DB=-7388555292.8304> <Mlp=504802218.7030> <PB=1000000> 
<DWph=2> <it= 90> <et=73.96> <Mt= 0.29> <Spt= 7.29> <nCl=1000> <DB=-6622492856.8872> <Mlp=469428674.7008> <PB=1000000> 
<DWph=2> <it=100> <et=81.53> <Mt= 0.40> <Spt= 7.16> <nCl=1000> <DB=-6038565274.0456> <Mlp=437472989.9995> <PB=1000000> 
<DWph=2> <it=110> <et=89.16> <Mt= 0.32> <Spt= 7.24> <nCl=1000> <DB=-5432120810.6663> <Mlp=412484931.4836> <PB=1000000> 
<DWph=2> <it=120> <et=96.55> <Mt= 0.49> <Spt= 6.89> <nCl=1000> <DB=-4762618866.1444> <Mlp=379010743.2106> <PB=1000000> 
<DWph=2> <it=130> <et=103.77> <Mt= 0.45> <Spt= 6.76> <nCl=1000> <DB=-4344834561.2166> <Mlp=334084359.6589> <PB=1000000> 
<DWph=2> <it=140> <et=110.55> <Mt= 0.59> <Spt= 6.13> <nCl=1000> <DB=-3722250236.9488> <Mlp=300655758.9082> <PB=1000000> 
