Application parameters:
  batch  =>  nothing
  instance  =>  "/IN/600_20000_DI_32.txt-Q2Half"
  ub  =>  1.0e6
  cfg  =>  "/CFG/BPP.cfg"
data = Colored Bin Packing dataset.
number of items = 601
number of colors = 2
capacity = 19296
Items : 
	 item 1, weight= 56, color= 0
	 item 2, weight= 64, color= 0
	 item 3, weight= 92, color= 0
	 item 4, weight= 96, color= 0
	 item 5, weight= 160, color= 0
	 item 6, weight= 224, color= 0
	 item 7, weight= 224, color= 0
	 item 8, weight= 254, color= 0
	 item 9, weight= 284, color= 0
	 item 10, weight= 288, color= 0
	 item 11, weight= 292, color= 0
	 item 12, weight= 302, color= 0
	 item 13, weight= 304, color= 0
	 item 14, weight= 312, color= 0
	 item 15, weight= 320, color= 0
	 item 16, weight= 320, color= 0
	 item 17, weight= 320, color= 0
	 item 18, weight= 320, color= 0
	 item 19, weight= 320, color= 0
	 item 20, weight= 324, color= 0
	 item 21, weight= 328, color= 0
	 item 22, weight= 332, color= 0
	 item 23, weight= 332, color= 0
	 item 24, weight= 334, color= 0
	 item 25, weight= 334, color= 0
	 item 26, weight= 336, color= 0
	 item 27, weight= 336, color= 0
	 item 28, weight= 340, color= 0
	 item 29, weight= 344, color= 0
	 item 30, weight= 344, color= 0
	 item 31, weight= 344, color= 0
	 item 32, weight= 348, color= 0
	 item 33, weight= 352, color= 0
	 item 34, weight= 352, color= 0
	 item 35, weight= 352, color= 0
	 item 36, weight= 352, color= 0
	 item 37, weight= 352, color= 0
	 item 38, weight= 352, color= 0
	 item 39, weight= 354, color= 0
	 item 40, weight= 354, color= 0
	 item 41, weight= 364, color= 0
	 item 42, weight= 364, color= 0
	 item 43, weight= 368, color= 0
	 item 44, weight= 368, color= 0
	 item 45, weight= 368, color= 0
	 item 46, weight= 368, color= 0
	 item 47, weight= 376, color= 0
	 item 48, weight= 380, color= 0
	 item 49, weight= 384, color= 0
	 item 50, weight= 384, color= 0
	 item 51, weight= 384, color= 0
	 item 52, weight= 384, color= 0
	 item 53, weight= 392, color= 0
	 item 54, weight= 392, color= 0
	 item 55, weight= 396, color= 0
	 item 56, weight= 396, color= 0
	 item 57, weight= 396, color= 0
	 item 58, weight= 396, color= 0
	 item 59, weight= 400, color= 0
	 item 60, weight= 400, color= 0
	 item 61, weight= 404, color= 0
	 item 62, weight= 408, color= 0
	 item 63, weight= 410, color= 0
	 item 64, weight= 416, color= 0
	 item 65, weight= 416, color= 0
	 item 66, weight= 416, color= 0
	 item 67, weight= 416, color= 0
	 item 68, weight= 424, color= 0
	 item 69, weight= 424, color= 0
	 item 70, weight= 424, color= 0
	 item 71, weight= 430, color= 0
	 item 72, weight= 432, color= 0
	 item 73, weight= 432, color= 0
	 item 74, weight= 432, color= 0
	 item 75, weight= 436, color= 0
	 item 76, weight= 436, color= 0
	 item 77, weight= 440, color= 0
	 item 78, weight= 440, color= 0
	 item 79, weight= 448, color= 0
	 item 80, weight= 456, color= 0
	 item 81, weight= 464, color= 0
	 item 82, weight= 464, color= 0
	 item 83, weight= 464, color= 0
	 item 84, weight= 464, color= 0
	 item 85, weight= 468, color= 0
	 item 86, weight= 468, color= 0
	 item 87, weight= 472, color= 0
	 item 88, weight= 476, color= 0
	 item 89, weight= 480, color= 0
	 item 90, weight= 484, color= 0
	 item 91, weight= 496, color= 0
	 item 92, weight= 502, color= 0
	 item 93, weight= 504, color= 0
	 item 94, weight= 508, color= 0
	 item 95, weight= 512, color= 0
	 item 96, weight= 512, color= 0
	 item 97, weight= 512, color= 0
	 item 98, weight= 512, color= 0
	 item 99, weight= 512, color= 0
	 item 100, weight= 520, color= 0
	 item 101, weight= 520, color= 0
	 item 102, weight= 524, color= 0
	 item 103, weight= 528, color= 0
	 item 104, weight= 544, color= 0
	 item 105, weight= 548, color= 0
	 item 106, weight= 550, color= 0
	 item 107, weight= 554, color= 0
	 item 108, weight= 560, color= 0
	 item 109, weight= 576, color= 0
	 item 110, weight= 576, color= 0
	 item 111, weight= 584, color= 0
	 item 112, weight= 592, color= 0
	 item 113, weight= 604, color= 0
	 item 114, weight= 604, color= 0
	 item 115, weight= 608, color= 0
	 item 116, weight= 616, color= 0
	 item 117, weight= 620, color= 0
	 item 118, weight= 624, color= 0
	 item 119, weight= 624, color= 0
	 item 120, weight= 640, color= 0
	 item 121, weight= 640, color= 0
	 item 122, weight= 664, color= 0
	 item 123, weight= 672, color= 0
	 item 124, weight= 672, color= 0
	 item 125, weight= 678, color= 0
	 item 126, weight= 688, color= 0
	 item 127, weight= 688, color= 0
	 item 128, weight= 692, color= 0
	 item 129, weight= 704, color= 0
	 item 130, weight= 714, color= 0
	 item 131, weight= 720, color= 0
	 item 132, weight= 728, color= 0
	 item 133, weight= 736, color= 0
	 item 134, weight= 752, color= 0
	 item 135, weight= 754, color= 0
	 item 136, weight= 758, color= 0
	 item 137, weight= 768, color= 0
	 item 138, weight= 768, color= 0
	 item 139, weight= 768, color= 0
	 item 140, weight= 768, color= 0
	 item 141, weight= 788, color= 0
	 item 142, weight= 792, color= 0
	 item 143, weight= 800, color= 0
	 item 144, weight= 832, color= 0
	 item 145, weight= 844, color= 0
	 item 146, weight= 848, color= 0
	 item 147, weight= 854, color= 0
	 item 148, weight= 856, color= 0
	 item 149, weight= 864, color= 0
	 item 150, weight= 864, color= 0
	 item 151, weight= 864, color= 0
	 item 152, weight= 880, color= 0
	 item 153, weight= 888, color= 0
	 item 154, weight= 896, color= 0
	 item 155, weight= 912, color= 0
	 item 156, weight= 912, color= 0
	 item 157, weight= 928, color= 0
	 item 158, weight= 936, color= 0
	 item 159, weight= 960, color= 0
	 item 160, weight= 960, color= 0
	 item 161, weight= 966, color= 0
	 item 162, weight= 968, color= 0
	 item 163, weight= 976, color= 0
	 item 164, weight= 1008, color= 0
	 item 165, weight= 1024, color= 0
	 item 166, weight= 1056, color= 0
	 item 167, weight= 1056, color= 0
	 item 168, weight= 1056, color= 0
	 item 169, weight= 1056, color= 0
	 item 170, weight= 1068, color= 0
	 item 171, weight= 1072, color= 0
	 item 172, weight= 1072, color= 0
	 item 173, weight= 1092, color= 0
	 item 174, weight= 1096, color= 0
	 item 175, weight= 1104, color= 0
	 item 176, weight= 1112, color= 0
	 item 177, weight= 1120, color= 0
	 item 178, weight= 1152, color= 0
	 item 179, weight= 1176, color= 0
	 item 180, weight= 1184, color= 0
	 item 181, weight= 1224, color= 0
	 item 182, weight= 1240, color= 0
	 item 183, weight= 1244, color= 0
	 item 184, weight= 1248, color= 0
	 item 185, weight= 1248, color= 1
	 item 186, weight= 1250, color= 0
	 item 187, weight= 1312, color= 0
	 item 188, weight= 1312, color= 0
	 item 189, weight= 1344, color= 0
	 item 190, weight= 1368, color= 0
	 item 191, weight= 1376, color= 0
	 item 192, weight= 1388, color= 0
	 item 193, weight= 1432, color= 0
	 item 194, weight= 1440, color= 0
	 item 195, weight= 1448, color= 0
	 item 196, weight= 1600, color= 0
	 item 197, weight= 1600, color= 0
	 item 198, weight= 1600, color= 0
	 item 199, weight= 1600, color= 1
	 item 200, weight= 1604, color= 0
	 item 201, weight= 1604, color= 0
	 item 202, weight= 1604, color= 0
	 item 203, weight= 1606, color= 0
	 item 204, weight= 1606, color= 0
	 item 205, weight= 1612, color= 1
	 item 206, weight= 1636, color= 1
	 item 207, weight= 1638, color= 1
	 item 208, weight= 1640, color= 1
	 item 209, weight= 1660, color= 1
	 item 210, weight= 1667, color= 1
	 item 211, weight= 1673, color= 1
	 item 212, weight= 1680, color= 1
	 item 213, weight= 1708, color= 1
	 item 214, weight= 1714, color= 1
	 item 215, weight= 1720, color= 1
	 item 216, weight= 1720, color= 1
	 item 217, weight= 1721, color= 1
	 item 218, weight= 1748, color= 1
	 item 219, weight= 1758, color= 1
	 item 220, weight= 1764, color= 1
	 item 221, weight= 1765, color= 1
	 item 222, weight= 1779, color= 1
	 item 223, weight= 1782, color= 1
	 item 224, weight= 1803, color= 1
	 item 225, weight= 1808, color= 1
	 item 226, weight= 1827, color= 1
	 item 227, weight= 1832, color= 1
	 item 228, weight= 1834, color= 1
	 item 229, weight= 1844, color= 1
	 item 230, weight= 1868, color= 1
	 item 231, weight= 1885, color= 1
	 item 232, weight= 1912, color= 1
	 item 233, weight= 1914, color= 1
	 item 234, weight= 1936, color= 1
	 item 235, weight= 1936, color= 1
	 item 236, weight= 1955, color= 1
	 item 237, weight= 1964, color= 1
	 item 238, weight= 1972, color= 1
	 item 239, weight= 1983, color= 1
	 item 240, weight= 1989, color= 1
	 item 241, weight= 1994, color= 1
	 item 242, weight= 2004, color= 1
	 item 243, weight= 2020, color= 1
	 item 244, weight= 2026, color= 1
	 item 245, weight= 2040, color= 1
	 item 246, weight= 2084, color= 1
	 item 247, weight= 2085, color= 1
	 item 248, weight= 2096, color= 1
	 item 249, weight= 2104, color= 1
	 item 250, weight= 2124, color= 1
	 item 251, weight= 2130, color= 1
	 item 252, weight= 2148, color= 1
	 item 253, weight= 2159, color= 1
	 item 254, weight= 2182, color= 1
	 item 255, weight= 2190, color= 1
	 item 256, weight= 2196, color= 1
	 item 257, weight= 2203, color= 1
	 item 258, weight= 2211, color= 1
	 item 259, weight= 2216, color= 1
	 item 260, weight= 2234, color= 1
	 item 261, weight= 2248, color= 1
	 item 262, weight= 2302, color= 1
	 item 263, weight= 2325, color= 1
	 item 264, weight= 2332, color= 1
	 item 265, weight= 2339, color= 1
	 item 266, weight= 2343, color= 1
	 item 267, weight= 2352, color= 1
	 item 268, weight= 2354, color= 1
	 item 269, weight= 2368, color= 1
	 item 270, weight= 2376, color= 1
	 item 271, weight= 2386, color= 1
	 item 272, weight= 2404, color= 1
	 item 273, weight= 2442, color= 1
	 item 274, weight= 2448, color= 1
	 item 275, weight= 2456, color= 1
	 item 276, weight= 2489, color= 1
	 item 277, weight= 2515, color= 1
	 item 278, weight= 2543, color= 1
	 item 279, weight= 2576, color= 0
	 item 280, weight= 2580, color= 1
	 item 281, weight= 2600, color= 1
	 item 282, weight= 2604, color= 1
	 item 283, weight= 2610, color= 1
	 item 284, weight= 2616, color= 1
	 item 285, weight= 2630, color= 1
	 item 286, weight= 2668, color= 1
	 item 287, weight= 2720, color= 1
	 item 288, weight= 2736, color= 1
	 item 289, weight= 2751, color= 1
	 item 290, weight= 2757, color= 1
	 item 291, weight= 2777, color= 1
	 item 292, weight= 2814, color= 1
	 item 293, weight= 2890, color= 1
	 item 294, weight= 2896, color= 1
	 item 295, weight= 2900, color= 1
	 item 296, weight= 2904, color= 1
	 item 297, weight= 2912, color= 1
	 item 298, weight= 2924, color= 1
	 item 299, weight= 3025, color= 1
	 item 300, weight= 3031, color= 1
	 item 301, weight= 3048, color= 1
	 item 302, weight= 3056, color= 1
	 item 303, weight= 3080, color= 1
	 item 304, weight= 3102, color= 1
	 item 305, weight= 3106, color= 1
	 item 306, weight= 3122, color= 1
	 item 307, weight= 3132, color= 1
	 item 308, weight= 3138, color= 1
	 item 309, weight= 3236, color= 1
	 item 310, weight= 3240, color= 1
	 item 311, weight= 3312, color= 1
	 item 312, weight= 3329, color= 1
	 item 313, weight= 3339, color= 1
	 item 314, weight= 3395, color= 1
	 item 315, weight= 3400, color= 1
	 item 316, weight= 3416, color= 1
	 item 317, weight= 3446, color= 1
	 item 318, weight= 3466, color= 1
	 item 319, weight= 3467, color= 1
	 item 320, weight= 3484, color= 1
	 item 321, weight= 3530, color= 1
	 item 322, weight= 3643, color= 1
	 item 323, weight= 3684, color= 1
	 item 324, weight= 3760, color= 1
	 item 325, weight= 3773, color= 1
	 item 326, weight= 3796, color= 1
	 item 327, weight= 3801, color= 1
	 item 328, weight= 3812, color= 1
	 item 329, weight= 3824, color= 1
	 item 330, weight= 3848, color= 1
	 item 331, weight= 3862, color= 1
	 item 332, weight= 3864, color= 1
	 item 333, weight= 3962, color= 1
	 item 334, weight= 3996, color= 1
	 item 335, weight= 4048, color= 1
	 item 336, weight= 4162, color= 1
	 item 337, weight= 4221, color= 1
	 item 338, weight= 4227, color= 1
	 item 339, weight= 4268, color= 1
	 item 340, weight= 4273, color= 1
	 item 341, weight= 4281, color= 1
	 item 342, weight= 4385, color= 1
	 item 343, weight= 4408, color= 1
	 item 344, weight= 4424, color= 1
	 item 345, weight= 4454, color= 1
	 item 346, weight= 4496, color= 1
	 item 347, weight= 4564, color= 1
	 item 348, weight= 4624, color= 0
	 item 349, weight= 4648, color= 1
	 item 350, weight= 4680, color= 1
	 item 351, weight= 4698, color= 1
	 item 352, weight= 4805, color= 1
	 item 353, weight= 4808, color= 1
	 item 354, weight= 4831, color= 1
	 item 355, weight= 4851, color= 1
	 item 356, weight= 4892, color= 1
	 item 357, weight= 5046, color= 1
	 item 358, weight= 5168, color= 1
	 item 359, weight= 5296, color= 1
	 item 360, weight= 5336, color= 1
	 item 361, weight= 5348, color= 1
	 item 362, weight= 5362, color= 1
	 item 363, weight= 5384, color= 1
	 item 364, weight= 5416, color= 1
	 item 365, weight= 5456, color= 1
	 item 366, weight= 5465, color= 1
	 item 367, weight= 5487, color= 1
	 item 368, weight= 5596, color= 1
	 item 369, weight= 5740, color= 1
	 item 370, weight= 5762, color= 1
	 item 371, weight= 5928, color= 1
	 item 372, weight= 6124, color= 1
	 item 373, weight= 6222, color= 1
	 item 374, weight= 6225, color= 1
	 item 375, weight= 6251, color= 1
	 item 376, weight= 6264, color= 1
	 item 377, weight= 6288, color= 1
	 item 378, weight= 6390, color= 1
	 item 379, weight= 6624, color= 1
	 item 380, weight= 6640, color= 1
	 item 381, weight= 6764, color= 1
	 item 382, weight= 6770, color= 1
	 item 383, weight= 6888, color= 1
	 item 384, weight= 6947, color= 1
	 item 385, weight= 7169, color= 1
	 item 386, weight= 7232, color= 1
	 item 387, weight= 7254, color= 1
	 item 388, weight= 7288, color= 1
	 item 389, weight= 7524, color= 1
	 item 390, weight= 7600, color= 1
	 item 391, weight= 8016, color= 1
	 item 392, weight= 8026, color= 1
	 item 393, weight= 8034, color= 1
	 item 394, weight= 8035, color= 1
	 item 395, weight= 8039, color= 1
	 item 396, weight= 8040, color= 1
	 item 397, weight= 8042, color= 1
	 item 398, weight= 8044, color= 1
	 item 399, weight= 8269, color= 1
	 item 400, weight= 8384, color= 1
	 item 401, weight= 8504, color= 1
	 item 402, weight= 9226, color= 1
	 item 403, weight= 9324, color= 1
	 item 404, weight= 9363, color= 1
	 item 405, weight= 9504, color= 1
	 item 406, weight= 9649, color= 1
	 item 407, weight= 9650, color= 1
	 item 408, weight= 9651, color= 1
	 item 409, weight= 9652, color= 1
	 item 410, weight= 9655, color= 1
	 item 411, weight= 9656, color= 1
	 item 412, weight= 9658, color= 1
	 item 413, weight= 9659, color= 1
	 item 414, weight= 9660, color= 1
	 item 415, weight= 9666, color= 1
	 item 416, weight= 9672, color= 1
	 item 417, weight= 9674, color= 1
	 item 418, weight= 9680, color= 1
	 item 419, weight= 10384, color= 1
	 item 420, weight= 10568, color= 1
	 item 421, weight= 10594, color= 1
	 item 422, weight= 10668, color= 1
	 item 423, weight= 10695, color= 1
	 item 424, weight= 10961, color= 1
	 item 425, weight= 11032, color= 1
	 item 426, weight= 11188, color= 1
	 item 427, weight= 11344, color= 1
	 item 428, weight= 11350, color= 1
	 item 429, weight= 11760, color= 1
	 item 430, weight= 11784, color= 1
	 item 431, weight= 11795, color= 1
	 item 432, weight= 11827, color= 1
	 item 433, weight= 11834, color= 1
	 item 434, weight= 11948, color= 1
	 item 435, weight= 12184, color= 1
	 item 436, weight= 12382, color= 1
	 item 437, weight= 12588, color= 1
	 item 438, weight= 12713, color= 1
	 item 439, weight= 12739, color= 1
	 item 440, weight= 12784, color= 1
	 item 441, weight= 12808, color= 1
	 item 442, weight= 12840, color= 1
	 item 443, weight= 12842, color= 1
	 item 444, weight= 12866, color= 1
	 item 445, weight= 12904, color= 1
	 item 446, weight= 12944, color= 1
	 item 447, weight= 13104, color= 1
	 item 448, weight= 13116, color= 1
	 item 449, weight= 13180, color= 1
	 item 450, weight= 13242, color= 1
	 item 451, weight= 13428, color= 1
	 item 452, weight= 13477, color= 1
	 item 453, weight= 13499, color= 1
	 item 454, weight= 13531, color= 1
	 item 455, weight= 13662, color= 1
	 item 456, weight= 13688, color= 1
	 item 457, weight= 13736, color= 1
	 item 458, weight= 13768, color= 1
	 item 459, weight= 13776, color= 1
	 item 460, weight= 13820, color= 1
	 item 461, weight= 13936, color= 1
	 item 462, weight= 13954, color= 1
	 item 463, weight= 13992, color= 1
	 item 464, weight= 14024, color= 1
	 item 465, weight= 14159, color= 1
	 item 466, weight= 14169, color= 1
	 item 467, weight= 14180, color= 1
	 item 468, weight= 14197, color= 1
	 item 469, weight= 14225, color= 1
	 item 470, weight= 14302, color= 1
	 item 471, weight= 14448, color= 1
	 item 472, weight= 14508, color= 1
	 item 473, weight= 14546, color= 1
	 item 474, weight= 14664, color= 1
	 item 475, weight= 14666, color= 1
	 item 476, weight= 14680, color= 1
	 item 477, weight= 14736, color= 1
	 item 478, weight= 14737, color= 1
	 item 479, weight= 14748, color= 1
	 item 480, weight= 14769, color= 1
	 item 481, weight= 14773, color= 1
	 item 482, weight= 14925, color= 1
	 item 483, weight= 15062, color= 1
	 item 484, weight= 15076, color= 1
	 item 485, weight= 15108, color= 1
	 item 486, weight= 15120, color= 1
	 item 487, weight= 15124, color= 1
	 item 488, weight= 15138, color= 1
	 item 489, weight= 15162, color= 1
	 item 490, weight= 15208, color= 1
	 item 491, weight= 15223, color= 1
	 item 492, weight= 15224, color= 1
	 item 493, weight= 15303, color= 1
	 item 494, weight= 15344, color= 1
	 item 495, weight= 15420, color= 1
	 item 496, weight= 15488, color= 1
	 item 497, weight= 15534, color= 1
	 item 498, weight= 15540, color= 1
	 item 499, weight= 15554, color= 1
	 item 500, weight= 15578, color= 1
	 item 501, weight= 15605, color= 1
	 item 502, weight= 15625, color= 1
	 item 503, weight= 15632, color= 1
	 item 504, weight= 15656, color= 1
	 item 505, weight= 15661, color= 1
	 item 506, weight= 15667, color= 1
	 item 507, weight= 15688, color= 1
	 item 508, weight= 15752, color= 1
	 item 509, weight= 15788, color= 1
	 item 510, weight= 15816, color= 1
	 item 511, weight= 15820, color= 1
	 item 512, weight= 15840, color= 1
	 item 513, weight= 15898, color= 1
	 item 514, weight= 15922, color= 1
	 item 515, weight= 15965, color= 1
	 item 516, weight= 15982, color= 1
	 item 517, weight= 15989, color= 1
	 item 518, weight= 15997, color= 1
	 item 519, weight= 16016, color= 1
	 item 520, weight= 16048, color= 1
	 item 521, weight= 16100, color= 1
	 item 522, weight= 16142, color= 1
	 item 523, weight= 16166, color= 1
	 item 524, weight= 16168, color= 1
	 item 525, weight= 16172, color= 1
	 item 526, weight= 16184, color= 1
	 item 527, weight= 16204, color= 1
	 item 528, weight= 16208, color= 1
	 item 529, weight= 16245, color= 1
	 item 530, weight= 16279, color= 1
	 item 531, weight= 16311, color= 1
	 item 532, weight= 16368, color= 1
	 item 533, weight= 16370, color= 1
	 item 534, weight= 16420, color= 1
	 item 535, weight= 16434, color= 1
	 item 536, weight= 16456, color= 1
	 item 537, weight= 16474, color= 1
	 item 538, weight= 16485, color= 1
	 item 539, weight= 16488, color= 1
	 item 540, weight= 16496, color= 1
	 item 541, weight= 16500, color= 1
	 item 542, weight= 16507, color= 1
	 item 543, weight= 16538, color= 1
	 item 544, weight= 16616, color= 1
	 item 545, weight= 16648, color= 1
	 item 546, weight= 16653, color= 1
	 item 547, weight= 16668, color= 1
	 item 548, weight= 16670, color= 1
	 item 549, weight= 16675, color= 1
	 item 550, weight= 16678, color= 1
	 item 551, weight= 16703, color= 1
	 item 552, weight= 16707, color= 1
	 item 553, weight= 16724, color= 1
	 item 554, weight= 16742, color= 1
	 item 555, weight= 16756, color= 1
	 item 556, weight= 16776, color= 1
	 item 557, weight= 16795, color= 1
	 item 558, weight= 16816, color= 1
	 item 559, weight= 16856, color= 1
	 item 560, weight= 16866, color= 1
	 item 561, weight= 16876, color= 1
	 item 562, weight= 16900, color= 1
	 item 563, weight= 16906, color= 1
	 item 564, weight= 16911, color= 1
	 item 565, weight= 16917, color= 1
	 item 566, weight= 16932, color= 1
	 item 567, weight= 16948, color= 1
	 item 568, weight= 16970, color= 1
	 item 569, weight= 16976, color= 1
	 item 570, weight= 17002, color= 1
	 item 571, weight= 17007, color= 1
	 item 572, weight= 17008, color= 1
	 item 573, weight= 17016, color= 1
	 item 574, weight= 17035, color= 1
	 item 575, weight= 17060, color= 1
	 item 576, weight= 17084, color= 1
	 item 577, weight= 17098, color= 1
	 item 578, weight= 17105, color= 1
	 item 579, weight= 17112, color= 1
	 item 580, weight= 17136, color= 1
	 item 581, weight= 17139, color= 1
	 item 582, weight= 17156, color= 1
	 item 583, weight= 17162, color= 1
	 item 584, weight= 17163, color= 1
	 item 585, weight= 17179, color= 1
	 item 586, weight= 17188, color= 1
	 item 587, weight= 17190, color= 1
	 item 588, weight= 17204, color= 1
	 item 589, weight= 17231, color= 1
	 item 590, weight= 17240, color= 1
	 item 591, weight= 17242, color= 1
	 item 592, weight= 17252, color= 1
	 item 593, weight= 17272, color= 1
	 item 594, weight= 17289, color= 1
	 item 595, weight= 17296, color= 1
	 item 596, weight= 17297, color= 1
	 item 597, weight= 17308, color= 1
	 item 598, weight= 17334, color= 1
	 item 599, weight= 17336, color= 1
	 item 600, weight= 17340, color= 1
	 item 601, weight= 17364, color= 1

VRPSolver warning: Interval set for resource 1 on source node (when source != sink) is ignored (by definition is [0.0,0.0])
[41m solve [00m
~~~~~~~~~~~~~~~~~~~~~~~~~~~~~~~~~~~~~~~~~~~~~~~~~~~~~~~~~~~~~~~~~~~~~~~~~~~~~~
VRPSolver v0.4.1, 24/03/2021. Web: vrpsolver.math.u-bordeaux.fr
Corresponds to the solver by Pessoa, Sadykov, Uchoa and Vanderbeck (2020)
Paper: dx.doi.org/10.1007/s10107-020-01523-z
USE THIS CODE ONLY FOR ACADEMIC PURPOSES AT YOUR OWN RISK
~~~~~~~~~~~~~~~~~~~~~~~~~~~~~~~~~~~~~~~~~~~~~~~~~~~~~~~~~~~~~~~~~~~~~~~~~~~~~~
BaPCod v053, 24/03/2021, © Inria Bordeaux, France
~~~~~~~~~~~~~~~~~~~~~~~~~~~~~~~~~~~~~~~~~~~~~~~~~~~~~~~~~~~~~~~~~~~~~~~~~~~~~~
VRPSolver parameters:
GlobalTimeLimit = 1800
MaxNbOfBBtreeNodeTreated = 100000
treeSearchStrategy = 1
RCSPstopCutGenTimeThresholdInPricing = 10
RCSPhardTimeThresholdInPricing = 20
RCSPnumberOfBucketsPerVertex = 2000
RCSPdynamicBucketSteps = 0
RCSPuseBidirectionalSearch = 1
RCSPapplyReducedCostFixing = 1
RCSPredCostFixingFalseGap = 0
RCSPmaxNumOfColsPerIteration = 100
RCSPmaxNumOfColsPerExactIteration = 100
RCSPheurLabelingStrategy = 4
StabilizationMinPhaseOfStage = 1
RCSPmaxNumOfLabelsInEnumeration = 100000
RCSPmaxNumOfEnumeratedSolutions = 1000000
RCSPmaxNumOfEnumSolutionsForMIP = 100000
RCSPinitNGneighbourhoodSize = 0
RCSPmaxNGneighbourhoodSize = 0
RCSPrankOneCutsMaxNumPerRound = 100
RCSPrankOneCutsMaxNumRows = -1
RCSPrankOneCutsMemoryType = 2
CutTailingOffThreshold = 0.02
CutTailingOffCounterThreshold = 3
SafeDualBoundScaleFactor = -1
StrongBranchingPhaseOneCandidatesNumber = 100
StrongBranchingPhaseOneTreeSizeEstimRatio = 0.3
StrongBranchingPhaseTwoCandidatesNumber = 1
StrongBranchingPhaseTwoTreeSizeEstimRatio = 0.1
MaxTimeForRestrictedMasterIpHeur = -1
DivingHeurUseDepthLimit = 0
MaxLDSbreadth = 3
MaxLDSdepth = 2
New model incumbent solution 1e+06, TIME = 0h0m0s3t = 3
Model is built TIME = 0h0m5s32t = 532
************************************************************************************************
**** BaB tree root node
**** Local DB = -1e+12, global bounds : [ -1e+12 , 1e+06 ], TIME = 0h0m5s32t = 532
**** 1 open nodes, 0 columns (0 active), 0 dyn. constrs. (0 active), 1204 art. vars. (1204 active)
************************************************************************************************
<DWph=2> <it= 10> <et=12.82> <Mt= 0.01> <Spt= 7.47> <nCl=1000> <DB=-13346341943.3143> <Mlp=700189008.8806> <PB=1000000> 
<DWph=2> <it= 20> <et=20.15> <Mt= 0.02> <Spt= 7.31> <nCl=1000> <DB=-13009757665.6295> <Mlp=674133436.8396> <PB=1000000> 
<DWph=2> <it= 30> <et=27.46> <Mt= 0.03> <Spt= 7.27> <nCl=1000> <DB=-11649035688.5961> <Mlp=650921307.4520> <PB=1000000> 
<DWph=2> <it= 40> <et=34.82> <Mt= 0.05> <Spt= 7.31> <nCl=1000> <DB=-11611541747.7457> <Mlp=623283921.5770> <PB=1000000> 
<DWph=2> <it= 50> <et=42.33> <Mt= 0.09> <Spt= 7.41> <nCl=1000> <DB=-10212678783.8914> <Mlp=596445593.2268> <PB=1000000> 
<DWph=2> <it= 60> <et=50.28> <Mt= 0.10> <Spt= 7.84> <nCl=1000> <DB=-10216776433.7038> <Mlp=564798826.9069> <PB=1000000> 
<DWph=2> <it= 70> <et=57.67> <Mt= 0.15> <Spt= 7.24> <nCl=1000> <DB=-9127830638.5396> <Mlp=539075416.5550> <PB=1000000> 
<DWph=2> <it= 80> <et=64.91> <Mt= 0.18> <Spt= 7.06> <nCl=1000> <DB=-8834374838.8865> <Mlp=508410858.0868> <PB=1000000> 
<DWph=2> <it= 90> <et=72.25> <Mt= 0.26> <Spt= 7.07> <nCl=1000> <DB=-7463454790.3791> <Mlp=479883445.6636> <PB=1000000> 
<DWph=2> <it=100> <et=80.05> <Mt= 0.35> <Spt= 7.44> <nCl=1000> <DB=-6845360983.8825> <Mlp=441057968.9377> <PB=1000000> 
<DWph=2> <it=110> <et=87.47> <Mt= 0.38> <Spt= 6.98> <nCl=1000> <DB=-6135276107.8009> <Mlp=417230571.0460> <PB=1000000> 
<DWph=2> <it=120> <et=94.69> <Mt= 0.32> <Spt= 6.89> <nCl=1000> <DB=-5810579824.5710> <Mlp=388389174.1366> <PB=1000000> 
<DWph=2> <it=130> <et=101.87> <Mt= 0.57> <Spt= 6.61> <nCl=1000> <DB=-4820652785.9764> <Mlp=357507392.2172> <PB=1000000> 
<DWph=2> <it=140> <et=108.68> <Mt= 0.43> <Spt= 6.30> <nCl=1000> <DB=-4247030887.1498> <Mlp=313791868.0217> <PB=1000000> 
