Application parameters:
  batch  =>  nothing
  instance  =>  "/IN/201_2500_DI_25.txt-Q20"
  ub  =>  1.0e6
  cfg  =>  "/CFG/BPP.cfg"
data = Colored Bin Packing dataset.
number of items = 202
number of colors = 20
capacity = 2464
Items : 
	 item 1, weight= 4, color= 16
	 item 2, weight= 16, color= 3
	 item 3, weight= 22, color= 18
	 item 4, weight= 22, color= 19
	 item 5, weight= 28, color= 8
	 item 6, weight= 32, color= 1
	 item 7, weight= 32, color= 4
	 item 8, weight= 40, color= 7
	 item 9, weight= 40, color= 12
	 item 10, weight= 42, color= 4
	 item 11, weight= 44, color= 16
	 item 12, weight= 44, color= 16
	 item 13, weight= 46, color= 18
	 item 14, weight= 48, color= 12
	 item 15, weight= 48, color= 16
	 item 16, weight= 50, color= 12
	 item 17, weight= 50, color= 14
	 item 18, weight= 52, color= 6
	 item 19, weight= 52, color= 11
	 item 20, weight= 52, color= 14
	 item 21, weight= 54, color= 6
	 item 22, weight= 56, color= 2
	 item 23, weight= 56, color= 4
	 item 24, weight= 56, color= 4
	 item 25, weight= 60, color= 3
	 item 26, weight= 60, color= 14
	 item 27, weight= 62, color= 9
	 item 28, weight= 64, color= 0
	 item 29, weight= 66, color= 15
	 item 30, weight= 68, color= 6
	 item 31, weight= 68, color= 6
	 item 32, weight= 68, color= 16
	 item 33, weight= 72, color= 8
	 item 34, weight= 72, color= 15
	 item 35, weight= 76, color= 7
	 item 36, weight= 76, color= 17
	 item 37, weight= 80, color= 2
	 item 38, weight= 82, color= 15
	 item 39, weight= 82, color= 18
	 item 40, weight= 84, color= 10
	 item 41, weight= 88, color= 12
	 item 42, weight= 92, color= 8
	 item 43, weight= 92, color= 9
	 item 44, weight= 96, color= 7
	 item 45, weight= 96, color= 14
	 item 46, weight= 104, color= 14
	 item 47, weight= 104, color= 17
	 item 48, weight= 108, color= 17
	 item 49, weight= 112, color= 12
	 item 50, weight= 116, color= 7
	 item 51, weight= 116, color= 14
	 item 52, weight= 122, color= 1
	 item 53, weight= 124, color= 16
	 item 54, weight= 128, color= 14
	 item 55, weight= 128, color= 15
	 item 56, weight= 132, color= 0
	 item 57, weight= 140, color= 3
	 item 58, weight= 140, color= 3
	 item 59, weight= 142, color= 6
	 item 60, weight= 148, color= 17
	 item 61, weight= 148, color= 17
	 item 62, weight= 152, color= 10
	 item 63, weight= 160, color= 13
	 item 64, weight= 168, color= 10
	 item 65, weight= 172, color= 18
	 item 66, weight= 176, color= 2
	 item 67, weight= 176, color= 11
	 item 68, weight= 184, color= 15
	 item 69, weight= 200, color= 2
	 item 70, weight= 204, color= 0
	 item 71, weight= 204, color= 16
	 item 72, weight= 209, color= 3
	 item 73, weight= 214, color= 12
	 item 74, weight= 221, color= 12
	 item 75, weight= 226, color= 0
	 item 76, weight= 235, color= 13
	 item 77, weight= 250, color= 16
	 item 78, weight= 261, color= 3
	 item 79, weight= 262, color= 14
	 item 80, weight= 267, color= 0
	 item 81, weight= 269, color= 9
	 item 82, weight= 273, color= 8
	 item 83, weight= 274, color= 19
	 item 84, weight= 275, color= 14
	 item 85, weight= 286, color= 7
	 item 86, weight= 287, color= 5
	 item 87, weight= 301, color= 1
	 item 88, weight= 302, color= 5
	 item 89, weight= 304, color= 9
	 item 90, weight= 306, color= 9
	 item 91, weight= 315, color= 2
	 item 92, weight= 331, color= 11
	 item 93, weight= 338, color= 10
	 item 94, weight= 340, color= 12
	 item 95, weight= 346, color= 6
	 item 96, weight= 351, color= 2
	 item 97, weight= 362, color= 5
	 item 98, weight= 368, color= 14
	 item 99, weight= 374, color= 3
	 item 100, weight= 383, color= 4
	 item 101, weight= 387, color= 4
	 item 102, weight= 394, color= 19
	 item 103, weight= 413, color= 16
	 item 104, weight= 418, color= 19
	 item 105, weight= 421, color= 12
	 item 106, weight= 425, color= 12
	 item 107, weight= 442, color= 18
	 item 108, weight= 467, color= 9
	 item 109, weight= 478, color= 19
	 item 110, weight= 481, color= 9
	 item 111, weight= 502, color= 14
	 item 112, weight= 523, color= 14
	 item 113, weight= 541, color= 9
	 item 114, weight= 542, color= 6
	 item 115, weight= 578, color= 10
	 item 116, weight= 591, color= 8
	 item 117, weight= 621, color= 3
	 item 118, weight= 622, color= 18
	 item 119, weight= 662, color= 16
	 item 120, weight= 669, color= 13
	 item 121, weight= 715, color= 18
	 item 122, weight= 722, color= 17
	 item 123, weight= 762, color= 7
	 item 124, weight= 771, color= 17
	 item 125, weight= 810, color= 0
	 item 126, weight= 840, color= 14
	 item 127, weight= 870, color= 17
	 item 128, weight= 871, color= 10
	 item 129, weight= 885, color= 8
	 item 130, weight= 887, color= 12
	 item 131, weight= 912, color= 12
	 item 132, weight= 942, color= 1
	 item 133, weight= 1014, color= 2
	 item 134, weight= 1025, color= 18
	 item 135, weight= 1027, color= 3
	 item 136, weight= 1062, color= 19
	 item 137, weight= 1080, color= 13
	 item 138, weight= 1102, color= 12
	 item 139, weight= 1220, color= 11
	 item 140, weight= 1233, color= 6
	 item 141, weight= 1234, color= 5
	 item 142, weight= 1235, color= 10
	 item 143, weight= 1250, color= 1
	 item 144, weight= 1338, color= 10
	 item 145, weight= 1354, color= 5
	 item 146, weight= 1401, color= 13
	 item 147, weight= 1403, color= 8
	 item 148, weight= 1422, color= 4
	 item 149, weight= 1494, color= 15
	 item 150, weight= 1541, color= 9
	 item 151, weight= 1543, color= 2
	 item 152, weight= 1554, color= 5
	 item 153, weight= 1602, color= 19
	 item 154, weight= 1607, color= 16
	 item 155, weight= 1663, color= 9
	 item 156, weight= 1674, color= 13
	 item 157, weight= 1718, color= 3
	 item 158, weight= 1721, color= 9
	 item 159, weight= 1757, color= 8
	 item 160, weight= 1774, color= 14
	 item 161, weight= 1815, color= 10
	 item 162, weight= 1818, color= 3
	 item 163, weight= 1837, color= 11
	 item 164, weight= 1866, color= 0
	 item 165, weight= 1887, color= 7
	 item 166, weight= 1894, color= 13
	 item 167, weight= 1905, color= 17
	 item 168, weight= 1934, color= 13
	 item 169, weight= 1955, color= 16
	 item 170, weight= 1961, color= 10
	 item 171, weight= 1966, color= 7
	 item 172, weight= 1969, color= 0
	 item 173, weight= 1972, color= 6
	 item 174, weight= 1994, color= 6
	 item 175, weight= 2005, color= 14
	 item 176, weight= 2018, color= 9
	 item 177, weight= 2024, color= 19
	 item 178, weight= 2034, color= 5
	 item 179, weight= 2045, color= 10
	 item 180, weight= 2050, color= 16
	 item 181, weight= 2055, color= 18
	 item 182, weight= 2062, color= 5
	 item 183, weight= 2067, color= 13
	 item 184, weight= 2087, color= 9
	 item 185, weight= 2098, color= 11
	 item 186, weight= 2103, color= 17
	 item 187, weight= 2106, color= 13
	 item 188, weight= 2121, color= 7
	 item 189, weight= 2122, color= 3
	 item 190, weight= 2135, color= 18
	 item 191, weight= 2138, color= 6
	 item 192, weight= 2143, color= 9
	 item 193, weight= 2150, color= 1
	 item 194, weight= 2153, color= 6
	 item 195, weight= 2166, color= 0
	 item 196, weight= 2169, color= 13
	 item 197, weight= 2183, color= 18
	 item 198, weight= 2193, color= 14
	 item 199, weight= 2194, color= 6
	 item 200, weight= 2201, color= 7
	 item 201, weight= 2210, color= 11
	 item 202, weight= 2215, color= 15

VRPSolver warning: Interval set for resource 1 on source node (when source != sink) is ignored (by definition is [0.0,0.0])
[41m solve [00m
~~~~~~~~~~~~~~~~~~~~~~~~~~~~~~~~~~~~~~~~~~~~~~~~~~~~~~~~~~~~~~~~~~~~~~~~~~~~~~
VRPSolver v0.4.1, 24/03/2021. Web: vrpsolver.math.u-bordeaux.fr
Corresponds to the solver by Pessoa, Sadykov, Uchoa and Vanderbeck (2020)
Paper: dx.doi.org/10.1007/s10107-020-01523-z
USE THIS CODE ONLY FOR ACADEMIC PURPOSES AT YOUR OWN RISK
~~~~~~~~~~~~~~~~~~~~~~~~~~~~~~~~~~~~~~~~~~~~~~~~~~~~~~~~~~~~~~~~~~~~~~~~~~~~~~
BaPCod v053, 24/03/2021, © Inria Bordeaux, France
~~~~~~~~~~~~~~~~~~~~~~~~~~~~~~~~~~~~~~~~~~~~~~~~~~~~~~~~~~~~~~~~~~~~~~~~~~~~~~
VRPSolver parameters:
GlobalTimeLimit = 1800
MaxNbOfBBtreeNodeTreated = 100000
treeSearchStrategy = 1
RCSPstopCutGenTimeThresholdInPricing = 10
RCSPhardTimeThresholdInPricing = 20
RCSPnumberOfBucketsPerVertex = 2000
RCSPdynamicBucketSteps = 0
RCSPuseBidirectionalSearch = 1
RCSPapplyReducedCostFixing = 1
RCSPredCostFixingFalseGap = 0
RCSPmaxNumOfColsPerIteration = 100
RCSPmaxNumOfColsPerExactIteration = 100
RCSPheurLabelingStrategy = 4
StabilizationMinPhaseOfStage = 1
RCSPmaxNumOfLabelsInEnumeration = 100000
RCSPmaxNumOfEnumeratedSolutions = 1000000
RCSPmaxNumOfEnumSolutionsForMIP = 100000
RCSPinitNGneighbourhoodSize = 0
RCSPmaxNGneighbourhoodSize = 0
RCSPrankOneCutsMaxNumPerRound = 100
RCSPrankOneCutsMaxNumRows = -1
RCSPrankOneCutsMemoryType = 2
CutTailingOffThreshold = 0.02
CutTailingOffCounterThreshold = 3
SafeDualBoundScaleFactor = -1
StrongBranchingPhaseOneCandidatesNumber = 100
StrongBranchingPhaseOneTreeSizeEstimRatio = 0.3
StrongBranchingPhaseTwoCandidatesNumber = 1
StrongBranchingPhaseTwoTreeSizeEstimRatio = 0.1
MaxTimeForRestrictedMasterIpHeur = -1
DivingHeurUseDepthLimit = 0
MaxLDSbreadth = 3
MaxLDSdepth = 2
New model incumbent solution 1e+06, TIME = 0h0m0s3t = 3
Model is built TIME = 0h0m2s10t = 210
************************************************************************************************
**** BaB tree root node
**** Local DB = -1e+12, global bounds : [ -1e+12 , 1e+06 ], TIME = 0h0m2s10t = 210
**** 1 open nodes, 0 columns (0 active), 0 dyn. constrs. (0 active), 406 art. vars. (406 active)
************************************************************************************************
<DWph=2> <it= 10> <et=4.70> <Mt= 0.00> <Spt= 2.59> <nCl=948> <DB=-12940432151.6773> <Mlp=230394429.9044> <PB=1000000> 
<DWph=2> <it= 20> <et=7.17> <Mt= 0.01> <Spt= 2.45> <nCl=1000> <DB=-9172436545.1736> <Mlp=209819966.8198> <PB=1000000> 
<DWph=2> <it= 30> <et=9.37> <Mt= 0.02> <Spt= 2.18> <nCl=1000> <DB=-5489898131.3366> <Mlp=187865502.0469> <PB=1000000> 
<DWph=2> <it= 40> <et=11.52> <Mt= 0.03> <Spt= 2.13> <nCl=1000> <DB=-3307524346.1825> <Mlp=166949270.5154> <PB=1000000> 
<DWph=2> <it= 50> <et=13.61> <Mt= 0.05> <Spt= 2.03> <nCl=1000> <DB=-2042410561.7232> <Mlp=147002172.5743> <PB=1000000> 
<DWph=2> <it= 60> <et=15.71> <Mt= 0.13> <Spt= 1.98> <nCl=1000> <DB=-1240587657.1380> <Mlp=120000006.3766> <PB=1000000> 
<DWph=2> <it= 70> <et=17.79> <Mt= 0.12> <Spt= 1.95> <nCl=1000> <DB=-927006409.3576> <Mlp=105875010.9826> <PB=1000000> 
<DWph=2> <it= 80> <et=19.85> <Mt= 0.15> <Spt= 1.90> <nCl=1000> <DB=-428871362.4954> <Mlp=88200012.9608> <PB=1000000> 
<DWph=2> <it= 90> <et=21.92> <Mt= 0.15> <Spt= 1.92> <nCl=1000> <DB=-409041946.1562> <Mlp=77573348.7727> <PB=1000000> 
<DWph=2> <it=100> <et=24.21> <Mt= 0.20> <Spt= 2.10> <nCl=1000> <DB=-173445129.1467> <Mlp=69600019.8989> <PB=1000000> 
<DWph=2> <it=110> <et=26.43> <Mt= 0.15> <Spt= 1.99> <nCl=1000> <DB=-400288450.3955> <Mlp=61018496.4182> <PB=1000000> 
<DWph=2> <it=120> <et=28.44> <Mt= 0.17> <Spt= 1.85> <nCl=1000> <DB=-174235729.9599> <Mlp=56630026.6162> <PB=1000000> 
<DWph=2> <it=130> <et=30.42> <Mt= 0.17> <Spt= 1.80> <nCl=1000> <DB=-178304025.1567> <Mlp=51102032.1909> <PB=1000000> 
<DWph=2> <it=140> <et=32.42> <Mt= 0.13> <Spt= 1.80> <nCl=1000> <DB=-175029433.9532> <Mlp=45257654.6350> <PB=1000000> 
<DWph=2> <it=150> <et=34.37> <Mt= 0.12> <Spt= 1.83> <nCl=1000> <DB=-173795467.7876> <Mlp=37952094.5216> <PB=1000000> 
<DWph=2> <it=160> <et=36.26> <Mt= 0.11> <Spt= 1.78> <nCl=1000> <DB=-173415331.2908> <Mlp=33450041.4444> <PB=1000000> 
<DWph=2> <it=170> <et=38.24> <Mt= 0.14> <Spt= 1.80> <nCl=1000> <DB=-173611385.6408> <Mlp=20669771.5945> <PB=1000000> 
<DWph=2> <it=180> <et=40.05> <Mt= 0.08> <Spt= 1.73> <nCl=1000> <DB=-173497353.5427> <Mlp=12260056.3739> <PB=1000000> 
<DWph=2> <it=190> <et=41.85> <Mt= 0.06> <Spt= 1.73> <nCl=1000> <DB=-173531118.2918> <Mlp=3780751.4853> <PB=1000000> 
<DWph=2> <it=200> <et=45.48> <Mt= 0.07> <Spt= 3.56> <nCl=1000> <DB= -232.7176> <Mlp=   65.5497> <PB=1000000> 
<DWph=2> <it=210> <et=47.71> <Mt= 0.04> <Spt= 2.14> <nCl=818> <DB=   14.9929> <Mlp=   65.4520> <PB=1000000> 
<DWph=2> <it=220> <et=49.90> <Mt= 0.06> <Spt= 2.12> <nCl=1000> <DB=   58.1834> <Mlp=   65.2903> <PB=1000000> 
<DWph=2> <it=230> <et=52.19> <Mt= 0.10> <Spt= 2.19> <nCl=982> <DB=   62.2502> <Mlp=   65.1420> <PB=1000000> 
<DWph=2> <it=240> <et=54.64> <Mt= 0.15> <Spt= 2.24> <nCl=946> <DB=   64.3307> <Mlp=   65.0382> <PB=1000000> 
<DWph=2> <it=250> <et=57.17> <Mt= 0.17> <Spt= 2.35> <nCl=809> <DB=   64.9235> <Mlp=   65.0021> <PB=1000000> 
<DWph=2> <it=260> <et=59.53> <Mt= 0.07> <Spt= 2.29> <nCl=387> <DB=   64.9993> <Mlp=   65.0005> <PB=1000000> 
<DWph=2> <it=264> <et=60.92> <Mt= 0.01> <Spt= 1.38> <nCl= 80> <DB=   64.9958> <Mlp=   65.0005> <PB=1000000> 
<DWph=1> <it=270> <et=62.62> <Mt= 0.04> <Spt= 1.65> <nCl=277> <DB=   64.9836> <Mlp=   65.0000> <PB=1000000> 
<DWph=1> <it=271> <et=63.44> <Mt= 0.00> <Spt= 0.82> <nCl=  0> <DB=   65.0000> <Mlp=   65.0000> <PB=1000000> 
<DWph=0> <it=272> <et=63.73> <Mt= 0.01> <Spt= 0.28> <nCl=  0> <DB=   65.0000> <Mlp=   65.0000> <PB=1000000> 
Reduced cost fixing for graph G_1... took 20.55 sec., 943682 buck. arcs remain (91.1% from prev., 42.3% from max.)
Run enumeration... took 0.19 sec. and not succeeded.
ColGenEvalAlg final dual bound: 65 (rounded: 65)
----------- Diving heuristic started -----------
<DWph=2> <it=  1> <et=84.54> <Mt= 0.00> <Spt= 0.00> <nCl=  0> <DB=   65.0000> <Mlp=   65.0000> <PB=1000000> 
<DWph=1> <it=  2> <et=84.54> <Mt= 0.00> <Spt= 0.00> <nCl=  0> <DB=   65.0000> <Mlp=   65.0000> <PB=1000000> 
---- Diving heuristic node with dive number = 0, fix depth = 0 and tabu list size = 0
Fixed projected solution = [x_1_0_1_OspV=1, x_1_70_1_OspV=1, x_1_135_1_OspV=1, x_1_140_1_OspV=1]
<DWph=2> <it=  1> <et=84.64> <Mt= 0.00> <Spt= 0.00> <nCl=  0> <DB=   65.0000> <Mlp=   65.0000> <PB=1000000> 
<DWph=1> <it=  2> <et=84.64> <Mt= 0.00> <Spt= 0.00> <nCl=  0> <DB=   65.0000> <Mlp=   65.0000> <PB=1000000> 
---- Diving heuristic node with dive number = 0, fix depth = 0 and tabu list size = 0
Fixed projected solution = [x_1_0_1_OspV=1, x_1_3_1_OspV=1, x_1_82_1_OspV=1, x_1_196_1_OspV=1]
<DWph=2> <it=  1> <et=84.72> <Mt= 0.01> <Spt= 0.00> <nCl=  0> <DB=   65.0000> <Mlp=   65.0000> <PB=1000000> 
<DWph=1> <it=  2> <et=84.72> <Mt= 0.00> <Spt= 0.00> <nCl=  0> <DB=   65.0000> <Mlp=   65.0000> <PB=1000000> 
---- Diving heuristic node with dive number = 0, fix depth = 0 and tabu list size = 0
Fixed projected solution = [x_1_0_1_OspV=1, x_1_38_1_OspV=1, x_1_103_1_OspV=1, x_1_172_1_OspV=1]
<DWph=2> <it=  1> <et=84.80> <Mt= 0.00> <Spt= 0.00> <nCl=  0> <DB=   65.0000> <Mlp=   65.0000> <PB=1000000> 
<DWph=1> <it=  2> <et=84.80> <Mt= 0.00> <Spt= 0.00> <nCl=  0> <DB=   65.0000> <Mlp=   65.0000> <PB=1000000> 
---- Diving heuristic node with dive number = 0, fix depth = 0 and tabu list size = 0
Fixed projected solution = [x_1_0_1_OspV=1, x_1_48_1_OspV=1, x_1_113_1_OspV=1, x_1_161_1_OspV=1]
<DWph=2> <it=  1> <et=84.88> <Mt= 0.01> <Spt= 0.00> <nCl=  0> <DB=   65.0000> <Mlp=   65.0000> <PB=1000000> 
<DWph=1> <it=  2> <et=84.88> <Mt= 0.00> <Spt= 0.00> <nCl=  0> <DB=   65.0000> <Mlp=   65.0000> <PB=1000000> 
---- Diving heuristic node with dive number = 0, fix depth = 0 and tabu list size = 0
Fixed projected solution = [x_1_0_1_OspV=1, x_1_67_1_OspV=1, x_1_129_1_OspV=1, x_1_147_1_OspV=1]
<DWph=2> <it=  1> <et=84.96> <Mt= 0.00> <Spt= 0.00> <nCl=  0> <DB=   65.0000> <Mlp=   65.0000> <PB=1000000> 
<DWph=1> <it=  2> <et=84.96> <Mt= 0.00> <Spt= 0.00> <nCl=  0> <DB=   65.0000> <Mlp=   65.0000> <PB=1000000> 
---- Diving heuristic node with dive number = 0, fix depth = 0 and tabu list size = 0
Fixed projected solution = [x_1_0_1_OspV=1, x_1_52_1_OspV=1, x_1_117_1_OspV=1, x_1_158_1_OspV=1]
<DWph=2> <it=  1> <et=85.04> <Mt= 0.01> <Spt= 0.00> <nCl=  0> <DB=   65.0000> <Mlp=   65.0000> <PB=1000000> 
<DWph=1> <it=  2> <et=85.05> <Mt= 0.00> <Spt= 0.00> <nCl=  0> <DB=   65.0000> <Mlp=   65.0000> <PB=1000000> 
---- Diving heuristic node with dive number = 0, fix depth = 0 and tabu list size = 0
Fixed projected solution = [x_1_0_1_OspV=1, x_1_1_1_OspV=1, x_1_80_1_OspV=1, x_1_198_1_OspV=1]
<DWph=2> <it=  1> <et=85.13> <Mt= 0.00> <Spt= 0.00> <nCl=  0> <DB=   65.0000> <Mlp=   65.0000> <PB=1000000> 
<DWph=1> <it=  2> <et=85.13> <Mt= 0.00> <Spt= 0.00> <nCl=  0> <DB=   65.0000> <Mlp=   65.0000> <PB=1000000> 
---- Diving heuristic node with dive number = 0, fix depth = 0 and tabu list size = 0
Fixed projected solution = [x_1_0_1_OspV=1, x_1_66_1_OspV=1, x_1_130_1_OspV=1, x_1_146_1_OspV=1]
<DWph=2> <it=  1> <et=85.21> <Mt= 0.00> <Spt= 0.00> <nCl=  0> <DB=   65.0000> <Mlp=   65.0000> <PB=1000000> 
<DWph=1> <it=  2> <et=85.21> <Mt= 0.01> <Spt= 0.00> <nCl=  0> <DB=   65.0000> <Mlp=   65.0000> <PB=1000000> 
---- Diving heuristic node with dive number = 0, fix depth = 0 and tabu list size = 0
Fixed projected solution = [x_1_0_1_OspV=1, x_1_59_1_OspV=1, x_1_121_1_OspV=1, x_1_154_1_OspV=1]
<DWph=2> <it=  1> <et=85.29> <Mt= 0.00> <Spt= 0.00> <nCl=  0> <DB=   65.0000> <Mlp=   65.0000> <PB=1000000> 
<DWph=1> <it=  2> <et=85.29> <Mt= 0.00> <Spt= 0.00> <nCl=  0> <DB=   65.0000> <Mlp=   65.0000> <PB=1000000> 
---- Diving heuristic node with dive number = 0, fix depth = 1 and tabu list size = 0
Fixed projected solution = [x_1_0_1_OspV=1, x_1_56_1_OspV=1, x_1_120_1_OspV=1, x_1_155_1_OspV=1]
<DWph=2> <it=  1> <et=85.35> <Mt= 0.00> <Spt= 0.00> <nCl=  0> <DB=   65.0000> <Mlp=   65.0000> <PB=1000000> 
<DWph=1> <it=  2> <et=85.36> <Mt= 0.00> <Spt= 0.00> <nCl=  0> <DB=   65.0000> <Mlp=   65.0000> <PB=1000000> 
---- Diving heuristic node with dive number = 0, fix depth = 2 and tabu list size = 0
Fixed projected solution = [x_1_0_1_OspV=1, x_1_21_1_OspV=1, x_1_84_1_OspV=1, x_1_190_1_OspV=1]
<DWph=2> <it=  1> <et=85.45> <Mt= 0.02> <Spt= 0.00> <nCl=  0> <DB=   65.0000> <Mlp=   65.0000> <PB=1000000> 
<DWph=1> <it=  2> <et=85.45> <Mt= 0.00> <Spt= 0.00> <nCl=  0> <DB=   65.0000> <Mlp=   65.0000> <PB=1000000> 
---- Diving heuristic node with dive number = 0, fix depth = 3 and tabu list size = 0
Fixed projected solution = [x_1_0_1_OspV=1, x_1_16_1_OspV=1, x_1_128_1_OspV=1, x_1_151_1_OspV=1]
<DWph=2> <it=  1> <et=85.46> <Mt= 0.01> <Spt= 0.00> <nCl=  0> <DB=   65.0000> <Mlp=   65.0000> <PB=1000000> 
<DWph=1> <it=  2> <et=85.46> <Mt= 0.00> <Spt= 0.00> <nCl=  0> <DB=   65.0000> <Mlp=   65.0000> <PB=1000000> 
---- Diving heuristic node with dive number = 0, fix depth = 4 and tabu list size = 0
Fixed projected solution = [x_1_0_1_OspV=1, x_1_55_1_OspV=1, x_1_119_1_OspV=1, x_1_156_1_OspV=1]
<DWph=2> <it=  1> <et=85.50> <Mt= 0.03> <Spt= 0.00> <nCl=  0> <DB=   65.0000> <Mlp=   65.0000> <PB=1000000> 
<DWph=1> <it=  2> <et=85.50> <Mt= 0.00> <Spt= 0.00> <nCl=  0> <DB=   65.0000> <Mlp=   65.0000> <PB=1000000> 
---- Diving heuristic node with dive number = 0, fix depth = 5 and tabu list size = 0
Fixed projected solution = [x_1_0_1_OspV=1, x_1_57_1_OspV=1, x_1_122_1_OspV=1, x_1_153_1_OspV=1]
<DWph=2> <it=  1> <et=85.52> <Mt= 0.01> <Spt= 0.00> <nCl=  0> <DB=   65.0000> <Mlp=   65.0000> <PB=1000000> 
<DWph=1> <it=  2> <et=85.52> <Mt= 0.00> <Spt= 0.00> <nCl=  0> <DB=   65.0000> <Mlp=   65.0000> <PB=1000000> 
---- Diving heuristic node with dive number = 0, fix depth = 6 and tabu list size = 0
Fixed projected solution = [x_1_0_1_OspV=1, x_1_54_1_OspV=1, x_1_138_1_OspV=1, x_1_141_1_OspV=1]
<DWph=2> <it=  1> <et=85.55> <Mt= 0.03> <Spt= 0.00> <nCl=  0> <DB=   65.0000> <Mlp=   65.0000> <PB=1000000> 
<DWph=1> <it=  2> <et=85.56> <Mt= 0.00> <Spt= 0.00> <nCl=  0> <DB=   65.0000> <Mlp=   65.0000> <PB=1000000> 
---- Diving heuristic node with dive number = 0, fix depth = 7 and tabu list size = 0
Fixed projected solution = [x_1_0_1_OspV=1, x_1_5_1_OspV=1, x_1_76_1_OspV=1, x_1_200_1_OspV=1]
<DWph=2> <it=  1> <et=85.61> <Mt= 0.05> <Spt= 0.00> <nCl=  0> <DB=   65.0000> <Mlp=   65.0000> <PB=1000000> 
<DWph=1> <it=  2> <et=85.61> <Mt= 0.00> <Spt= 0.00> <nCl=  0> <DB=   65.0000> <Mlp=   65.0000> <PB=1000000> 
---- Diving heuristic node with dive number = 0, fix depth = 7 and tabu list size = 0
Fixed projected solution = [x_1_0_1_OspV=1, x_1_69_1_OspV=1, x_1_133_1_OspV=1, x_1_143_1_OspV=1]
<DWph=2> <it=  1> <et=85.62> <Mt= 0.00> <Spt= 0.00> <nCl=  0> <DB=   65.0000> <Mlp=   65.0000> <PB=1000000> 
<DWph=1> <it=  2> <et=85.62> <Mt= 0.00> <Spt= 0.00> <nCl=  0> <DB=   65.0000> <Mlp=   65.0000> <PB=1000000> 
---- Diving heuristic node with dive number = 0, fix depth = 7 and tabu list size = 0
Fixed projected solution = [x_1_0_1_OspV=1, x_1_51_1_OspV=1, x_1_116_1_OspV=1, x_1_159_1_OspV=1]
<DWph=2> <it=  1> <et=85.63> <Mt= 0.00> <Spt= 0.00> <nCl=  0> <DB=   65.0000> <Mlp=   65.0000> <PB=1000000> 
<DWph=1> <it=  2> <et=85.63> <Mt= 0.00> <Spt= 0.00> <nCl=  0> <DB=   65.0000> <Mlp=   65.0000> <PB=1000000> 
---- Diving heuristic node with dive number = 0, fix depth = 8 and tabu list size = 0
Fixed projected solution = [x_1_0_1_OspV=1, x_1_8_1_OspV=1, x_1_72_1_OspV=1, x_1_202_1_OspV=1]
<DWph=2> <it=  1> <et=85.69> <Mt= 0.05> <Spt= 0.00> <nCl=  0> <DB=   65.0000> <Mlp=   65.0000> <PB=1000000> 
<DWph=1> <it=  2> <et=85.69> <Mt= 0.00> <Spt= 0.00> <nCl=  0> <DB=   65.0000> <Mlp=   65.0000> <PB=1000000> 
---- Diving heuristic node with dive number = 0, fix depth = 8 and tabu list size = 0
Fixed projected solution = [x_1_0_1_OspV=1, x_1_9_1_OspV=1, x_1_83_1_OspV=1, x_1_193_1_OspV=1]
<DWph=2> <it=  1> <et=85.69> <Mt= 0.00> <Spt= 0.00> <nCl=  0> <DB=   65.0000> <Mlp=   65.0000> <PB=1000000> 
<DWph=1> <it=  2> <et=85.70> <Mt= 0.01> <Spt= 0.00> <nCl=  0> <DB=   65.0000> <Mlp=   65.0000> <PB=1000000> 
---- Diving heuristic node with dive number = 0, fix depth = 9 and tabu list size = 0
Fixed projected solution = [x_1_0_1_OspV=1, x_1_49_1_OspV=1, x_1_73_1_OspV=1, x_1_191_1_OspV=1]
<DWph=2> <it=  3> <et=86.32> <Mt= 0.06> <Spt= 0.55> <nCl=200> <DB=   64.9751> <Mlp=   65.0000> <PB=1000000> 
<DWph=1> <it=  4> <et=86.32> <Mt= 0.01> <Spt= 0.00> <nCl=  0> <DB=   65.0000> <Mlp=   65.0000> <PB=1000000> 
---- Diving heuristic node with dive number = 0, fix depth = 9 and tabu list size = 0
Fixed projected solution = [x_1_0_1_OspV=1, x_1_36_1_OspV=1, x_1_100_1_OspV=1, x_1_175_1_OspV=1]
<DWph=2> <it=  1> <et=86.34> <Mt= 0.00> <Spt= 0.00> <nCl=  0> <DB=   65.0000> <Mlp=   65.0000> <PB=1000000> 
<DWph=1> <it=  2> <et=86.34> <Mt= 0.00> <Spt= 0.00> <nCl=  0> <DB=   65.0000> <Mlp=   65.0000> <PB=1000000> 
---- Diving heuristic node with dive number = 0, fix depth = 10 and tabu list size = 0
Fixed projected solution = [x_1_0_1_OspV=1, x_1_44_1_OspV=1, x_1_110_1_OspV=1, x_1_165_1_OspV=1]
<DWph=2> <it=  1> <et=86.38> <Mt= 0.03> <Spt= 0.00> <nCl=  0> <DB=   65.0000> <Mlp=   65.0000> <PB=1000000> 
<DWph=1> <it=  2> <et=86.38> <Mt= 0.00> <Spt= 0.00> <nCl=  0> <DB=   65.0000> <Mlp=   65.0000> <PB=1000000> 
---- Diving heuristic node with dive number = 0, fix depth = 11 and tabu list size = 0
Fixed projected solution = [x_1_0_1_OspV=1, x_1_22_1_OspV=1, x_1_88_1_OspV=1, x_1_187_1_OspV=1]
<DWph=2> <it=  3> <et=86.94> <Mt= 0.08> <Spt= 0.47> <nCl=200> <DB=   64.9788> <Mlp=   65.0000> <PB=1000000> 
<DWph=1> <it=  4> <et=86.94> <Mt= 0.00> <Spt= 0.00> <nCl=  0> <DB=   65.0000> <Mlp=   65.0000> <PB=1000000> 
---- Diving heuristic node with dive number = 0, fix depth = 11 and tabu list size = 0
Fixed projected solution = [x_1_0_1_OspV=1, x_1_47_1_OspV=1, x_1_112_1_OspV=1, x_1_163_1_OspV=1]
<DWph=2> <it=  1> <et=86.96> <Mt= 0.01> <Spt= 0.00> <nCl=  0> <DB=   65.0000> <Mlp=   65.0000> <PB=1000000> 
<DWph=1> <it=  2> <et=86.96> <Mt= 0.00> <Spt= 0.00> <nCl=  0> <DB=   65.0000> <Mlp=   65.0000> <PB=1000000> 
---- Diving heuristic node with dive number = 0, fix depth = 12 and tabu list size = 0
Fixed projected solution = [x_1_0_1_OspV=1, x_1_23_1_OspV=1, x_1_86_1_OspV=1, x_1_188_1_OspV=1]
<DWph=2> <it=  2> <et=87.24> <Mt= 0.05> <Spt= 0.23> <nCl=100> <DB=   64.9856> <Mlp=   65.0000> <PB=1000000> 
<DWph=1> <it=  3> <et=87.24> <Mt= 0.00> <Spt= 0.00> <nCl=  0> <DB=   65.0000> <Mlp=   65.0000> <PB=1000000> 
---- Diving heuristic node with dive number = 0, fix depth = 13 and tabu list size = 0
Fixed projected solution = [x_1_0_1_OspV=1, x_1_20_1_OspV=1, x_1_104_1_OspV=1, x_1_174_1_OspV=1]
<DWph=2> <it=  6> <et=88.49> <Mt= 0.08> <Spt= 1.15> <nCl=500> <DB=   64.9977> <Mlp=   65.0000> <PB=1000000> 
<DWph=1> <it=  7> <et=88.49> <Mt= 0.00> <Spt= 0.00> <nCl=  0> <DB=   65.0000> <Mlp=   65.0000> <PB=1000000> 
---- Diving heuristic node with dive number = 0, fix depth = 14 and tabu list size = 0
Fixed projected solution = [x_1_0_1_OspV=1, x_1_25_1_OspV=1, x_1_74_1_OspV=1, x_1_197_1_OspV=1]
<DWph=2> <it=  1> <et=88.57> <Mt= 0.06> <Spt= 0.00> <nCl=  0> <DB=   65.0000> <Mlp=   65.0000> <PB=1000000> 
<DWph=1> <it=  2> <et=88.57> <Mt= 0.00> <Spt= 0.00> <nCl=  0> <DB=   65.0000> <Mlp=   65.0000> <PB=1000000> 
---- Diving heuristic node with dive number = 0, fix depth = 15 and tabu list size = 0
Fixed projected solution = [x_1_0_1_OspV=1, x_1_46_1_OspV=1, x_1_102_1_OspV=1, x_1_171_1_OspV=1]
<DWph=2> <it=  2> <et=88.85> <Mt= 0.05> <Spt= 0.22> <nCl=100> <DB=   64.9926> <Mlp=   65.0000> <PB=1000000> 
<DWph=1> <it=  3> <et=88.85> <Mt= 0.00> <Spt= 0.00> <nCl=  0> <DB=   65.0000> <Mlp=   65.0000> <PB=1000000> 
---- Diving heuristic node with dive number = 0, fix depth = 16 and tabu list size = 0
Fixed projected solution = [x_1_0_1_OspV=1, x_1_28_1_OspV=1, x_1_93_1_OspV=1, x_1_182_1_OspV=1]
<DWph=2> <it=  1> <et=88.88> <Mt= 0.01> <Spt= 0.00> <nCl=  0> <DB=   65.0000> <Mlp=   65.0000> <PB=1000000> 
<DWph=1> <it=  2> <et=88.88> <Mt= 0.01> <Spt= 0.00> <nCl=  0> <DB=   65.0000> <Mlp=   65.0000> <PB=1000000> 
---- Diving heuristic node with dive number = 0, fix depth = 17 and tabu list size = 0
Fixed projected solution = [x_1_0_1_OspV=1, x_1_63_1_OspV=1, x_1_125_1_OspV=1, x_1_149_1_OspV=1]
<DWph=2> <it=  1> <et=88.92> <Mt= 0.03> <Spt= 0.00> <nCl=  0> <DB=   65.0000> <Mlp=   65.0000> <PB=1000000> 
<DWph=1> <it=  2> <et=88.92> <Mt= 0.00> <Spt= 0.00> <nCl=  0> <DB=   65.0000> <Mlp=   65.0000> <PB=1000000> 
---- Diving heuristic node with dive number = 0, fix depth = 18 and tabu list size = 0
Fixed projected solution = [x_1_0_1_OspV=1, x_1_11_1_OspV=1, x_1_75_1_OspV=1, x_1_199_1_OspV=1]
<DWph=2> <it=  2> <et=89.22> <Mt= 0.06> <Spt= 0.23> <nCl=100> <DB=   64.9931> <Mlp=   65.0000> <PB=1000000> 
<DWph=1> <it=  3> <et=89.22> <Mt= 0.00> <Spt= 0.00> <nCl=  0> <DB=   65.0000> <Mlp=   65.0000> <PB=1000000> 
---- Diving heuristic node with dive number = 0, fix depth = 19 and tabu list size = 0
Fixed projected solution = [x_1_0_1_OspV=1, x_1_71_1_OspV=1, x_1_134_1_OspV=1, x_1_142_1_OspV=1]
<DWph=2> <it=  1> <et=89.27> <Mt= 0.04> <Spt= 0.00> <nCl=  0> <DB=   65.0000> <Mlp=   65.0000> <PB=1000000> 
<DWph=1> <it=  2> <et=89.27> <Mt= 0.00> <Spt= 0.00> <nCl=  0> <DB=   65.0000> <Mlp=   65.0000> <PB=1000000> 
---- Diving heuristic node with dive number = 0, fix depth = 20 and tabu list size = 0
Fixed projected solution = [x_1_0_1_OspV=1, x_1_17_1_OspV=1, x_1_78_1_OspV=1, x_1_194_1_OspV=1]
<DWph=2> <it=  5> <et=90.29> <Mt= 0.08> <Spt= 0.90> <nCl=400> <DB=   64.9991> <Mlp=   65.0000> <PB=1000000> 
<DWph=1> <it=  6> <et=90.29> <Mt= 0.00> <Spt= 0.00> <nCl=  0> <DB=   65.0000> <Mlp=   65.0000> <PB=1000000> 
---- Diving heuristic node with dive number = 0, fix depth = 21 and tabu list size = 0
Fixed projected solution = [x_1_0_1_OspV=1, x_1_26_1_OspV=1, x_1_90_1_OspV=1, x_1_185_1_OspV=1]
<DWph=2> <it=  2> <et=90.61> <Mt= 0.08> <Spt= 0.23> <nCl=100> <DB=   64.9846> <Mlp=   65.0000> <PB=1000000> 
<DWph=1> <it=  3> <et=90.61> <Mt= 0.00> <Spt= 0.00> <nCl=  0> <DB=   65.0000> <Mlp=   65.0000> <PB=1000000> 
---- Diving heuristic node with dive number = 0, fix depth = 22 and tabu list size = 0
Fixed projected solution = [x_1_0_1_OspV=1, x_1_33_1_OspV=1, x_1_99_1_OspV=1, x_1_176_1_OspV=1]
<DWph=2> <it=  4> <et=91.37> <Mt= 0.07> <Spt= 0.68> <nCl=300> <DB=   64.9990> <Mlp=   65.0000> <PB=1000000> 
<DWph=1> <it=  5> <et=91.37> <Mt= 0.00> <Spt= 0.00> <nCl=  0> <DB=   65.0000> <Mlp=   65.0000> <PB=1000000> 
---- Diving heuristic node with dive number = 0, fix depth = 23 and tabu list size = 0
Fixed projected solution = [x_1_0_1_OspV=1, x_1_37_1_OspV=1, x_1_79_1_OspV=1, x_1_189_1_OspV=1]
<DWph=2> <it= 10> <et=95.07> <Mt= 0.08> <Spt= 3.61> <nCl=543> <DB=   64.9817> <Mlp=   65.0000> <PB=1000000> 
<DWph=2> <it= 11> <et=95.08> <Mt= 0.00> <Spt= 0.00> <nCl=  0> <DB=   64.9817> <Mlp=   65.0000> <PB=1000000> 
<DWph=1> <it= 12> <et=95.08> <Mt= 0.00> <Spt= 0.00> <nCl=  0> <DB=   65.0000> <Mlp=   65.0000> <PB=1000000> 
---- Diving heuristic node with dive number = 0, fix depth = 24 and tabu list size = 0
Fixed projected solution = [x_1_0_1_OspV=1, x_1_14_1_OspV=1, x_1_77_1_OspV=1, x_1_195_1_OspV=1]
<DWph=2> <it=  6> <et=96.56> <Mt= 0.12> <Spt= 1.35> <nCl=140> <DB=   64.9764> <Mlp=   65.0000> <PB=1000000> 
<DWph=1> <it=  7> <et=96.56> <Mt= 0.00> <Spt= 0.00> <nCl=  0> <DB=   65.0000> <Mlp=   65.0000> <PB=1000000> 
---- Diving heuristic node with dive number = 0, fix depth = 24 and tabu list size = 0
Fixed projected solution = [x_1_0_1_OspV=1, x_1_29_1_OspV=1, x_1_92_1_OspV=1, x_1_183_1_OspV=1]
<DWph=2> <it=  1> <et=96.58> <Mt= 0.00> <Spt= 0.00> <nCl=  0> <DB=   65.0000> <Mlp=   65.0000> <PB=1000000> 
<DWph=1> <it=  2> <et=96.58> <Mt= 0.00> <Spt= 0.00> <nCl=  0> <DB=   65.0000> <Mlp=   65.0000> <PB=1000000> 
---- Diving heuristic node with dive number = 0, fix depth = 24 and tabu list size = 0
Fixed projected solution = [x_1_0_1_OspV=1, x_1_13_1_OspV=1, x_1_91_1_OspV=1, x_1_186_1_OspV=1]
<DWph=2> <it=  1> <et=96.59> <Mt= 0.00> <Spt= 0.00> <nCl=  0> <DB=   65.0000> <Mlp=   65.0000> <PB=1000000> 
<DWph=1> <it=  2> <et=96.59> <Mt= 0.01> <Spt= 0.00> <nCl=  0> <DB=   65.0000> <Mlp=   65.0000> <PB=1000000> 
---- Diving heuristic node with dive number = 0, fix depth = 24 and tabu list size = 0
Fixed projected solution = [x_1_0_1_OspV=1, x_1_85_1_OspV=1, x_1_126_1_OspV=1, x_1_144_1_OspV=1]
<DWph=2> <it=  1> <et=96.60> <Mt= 0.00> <Spt= 0.00> <nCl=  0> <DB=   65.0000> <Mlp=   65.0000> <PB=1000000> 
<DWph=1> <it=  2> <et=96.60> <Mt= 0.00> <Spt= 0.00> <nCl=  0> <DB=   65.0000> <Mlp=   65.0000> <PB=1000000> 
---- Diving heuristic node with dive number = 0, fix depth = 25 and tabu list size = 0
Fixed projected solution = [x_1_0_1_OspV=1, x_1_40_1_OspV=1, x_1_95_1_OspV=1, x_1_178_1_OspV=1]
<DWph=2> <it=  6> <et=97.94> <Mt= 0.17> <Spt= 1.15> <nCl=494> <DB=   64.9635> <Mlp=   65.0000> <PB=1000000> 
<DWph=1> <it=  7> <et=97.94> <Mt= 0.00> <Spt= 0.00> <nCl=  0> <DB=   65.0000> <Mlp=   65.0000> <PB=1000000> 
---- Diving heuristic node with dive number = 0, fix depth = 25 and tabu list size = 0
Fixed projected solution = [x_1_0_1_OspV=1, x_1_31_1_OspV=1, x_1_115_1_OspV=1, x_1_162_1_OspV=1]
<DWph=2> <it=  1> <et=97.95> <Mt= 0.00> <Spt= 0.00> <nCl=  0> <DB=   65.0000> <Mlp=   65.0000> <PB=1000000> 
<DWph=1> <it=  2> <et=97.95> <Mt= 0.00> <Spt= 0.00> <nCl=  0> <DB=   65.0000> <Mlp=   65.0000> <PB=1000000> 
---- Diving heuristic node with dive number = 0, fix depth = 26 and tabu list size = 0
Fixed projected solution = [x_1_0_1_OspV=1, x_1_41_1_OspV=1, x_1_105_1_OspV=1, x_1_169_1_OspV=1]
<DWph=2> <it=  1> <et=98.02> <Mt= 0.06> <Spt= 0.00> <nCl=  0> <DB=   65.0000> <Mlp=   65.0000> <PB=1000000> 
<DWph=1> <it=  2> <et=98.03> <Mt= 0.00> <Spt= 0.00> <nCl=  0> <DB=   65.0000> <Mlp=   65.0000> <PB=1000000> 
---- Diving heuristic node with dive number = 0, fix depth = 26 and tabu list size = 0
Fixed projected solution = [x_1_0_1_OspV=1, x_1_53_1_OspV=1, x_1_98_1_OspV=1, x_1_173_1_OspV=1]
<DWph=2> <it=  1> <et=98.04> <Mt= 0.01> <Spt= 0.00> <nCl=  0> <DB=   65.0000> <Mlp=   65.0000> <PB=1000000> 
<DWph=1> <it=  2> <et=98.04> <Mt= 0.00> <Spt= 0.00> <nCl=  0> <DB=   65.0000> <Mlp=   65.0000> <PB=1000000> 
---- Diving heuristic node with dive number = 0, fix depth = 26 and tabu list size = 0
Fixed projected solution = [x_1_0_1_OspV=1, x_1_62_1_OspV=1, x_1_124_1_OspV=1, x_1_150_1_OspV=1]
<DWph=2> <it=  1> <et=98.05> <Mt= 0.00> <Spt= 0.00> <nCl=  0> <DB=   65.0000> <Mlp=   65.0000> <PB=1000000> 
<DWph=1> <it=  2> <et=98.05> <Mt= 0.00> <Spt= 0.00> <nCl=  0> <DB=   65.0000> <Mlp=   65.0000> <PB=1000000> 
---- Diving heuristic node with dive number = 0, fix depth = 27 and tabu list size = 0
Fixed projected solution = [x_1_0_1_OspV=1, x_1_30_1_OspV=1, x_1_111_1_OspV=1, x_1_166_1_OspV=1]
<DWph=2> <it= 10> <et=100.04> <Mt= 0.16> <Spt= 1.82> <nCl=1000> <DB=-15843785.8472> <Mlp=639133.7093> <PB=1000000> 
<DWph=2> <it= 20> <et=102.10> <Mt= 0.04> <Spt= 1.97> <nCl=1000> <DB=   64.0181> <Mlp=   65.0750> <PB=1000000> 
<DWph=2> <it= 30> <et=104.40> <Mt= 0.06> <Spt= 2.25> <nCl=881> <DB=   64.9493> <Mlp=   65.0005> <PB=1000000> 
<DWph=2> <it= 40> <et=107.35> <Mt= 0.04> <Spt= 2.90> <nCl=480> <DB=   64.9509> <Mlp=   65.0001> <PB=1000000> 
<DWph=2> <it= 41> <et=107.36> <Mt= 0.01> <Spt= 0.00> <nCl=  0> <DB=   64.9509> <Mlp=   65.0000> <PB=1000000> 
<DWph=1> <it= 42> <et=107.36> <Mt= 0.00> <Spt= 0.00> <nCl=  0> <DB=   65.0000> <Mlp=   65.0000> <PB=1000000> 
---- Diving heuristic node with dive number = 0, fix depth = 27 and tabu list size = 0
Fixed projected solution = [x_1_0_1_OspV=1, x_1_35_1_OspV=1, x_1_87_1_OspV=1, x_1_184_1_OspV=1]
<DWph=2> <it=  1> <et=107.38> <Mt= 0.00> <Spt= 0.00> <nCl=  0> <DB=   65.0000> <Mlp=   65.0000> <PB=1000000> 
<DWph=1> <it=  2> <et=107.38> <Mt= 0.00> <Spt= 0.00> <nCl=  0> <DB=   65.0000> <Mlp=   65.0000> <PB=1000000> 
---- Diving heuristic node with dive number = 0, fix depth = 27 and tabu list size = 0
Fixed projected solution = [x_1_0_1_OspV=1, x_1_65_1_OspV=1, x_1_127_1_OspV=1, x_1_148_1_OspV=1]
<DWph=2> <it=  1> <et=107.39> <Mt= 0.01> <Spt= 0.00> <nCl=  0> <DB=   65.0000> <Mlp=   65.0000> <PB=1000000> 
<DWph=1> <it=  2> <et=107.39> <Mt= 0.00> <Spt= 0.00> <nCl=  0> <DB=   65.0000> <Mlp=   65.0000> <PB=1000000> 
---- Diving heuristic node with dive number = 0, fix depth = 28 and tabu list size = 0
Fixed projected solution = [x_1_0_1_OspV=1, x_1_19_1_OspV=1, x_1_97_1_OspV=1, x_1_180_1_OspV=1]
<DWph=2> <it=  9> <et=110.19> <Mt= 0.08> <Spt= 2.70> <nCl=347> <DB=   65.0002> <Mlp=   65.0002> <PB=1000000> 
<DWph=1> <it= 10> <et=110.50> <Mt= 0.00> <Spt= 0.32> <nCl= 20> <DB=   64.9641> <Mlp=   65.0002> <PB=1000000> 
<DWph=1> <it= 11> <et=111.03> <Mt= 0.00> <Spt= 0.52> <nCl=  0> <DB=   65.0002> <Mlp=   65.0002> <PB=1000000> 
---- Diving heuristic node with dive number = 0, fix depth = 29 and tabu list size = 0
Fixed projected solution = [x_1_0_1_OspV=1, x_1_2_1_OspV=1, x_1_27_1_OspV=1, x_1_106_1_OspV=1, x_1_170_1_OspV=1]
<DWph=2> <it= 10> <et=114.42> <Mt= 0.07> <Spt= 3.30> <nCl=367> <DB=   65.0003> <Mlp=   65.0003> <PB=1000000> 
