Application parameters:
  batch  =>  nothing
  instance  =>  "/IN/201_2500_DI_17.txt-Q5"
  ub  =>  1.0e6
  cfg  =>  "/CFG/BPP.cfg"
data = Colored Bin Packing dataset.
number of items = 202
number of colors = 5
capacity = 1996
Items : 
	 item 1, weight= 8, color= 1
	 item 2, weight= 8, color= 1
	 item 3, weight= 10, color= 2
	 item 4, weight= 16, color= 2
	 item 5, weight= 20, color= 3
	 item 6, weight= 32, color= 4
	 item 7, weight= 36, color= 0
	 item 8, weight= 36, color= 2
	 item 9, weight= 36, color= 2
	 item 10, weight= 36, color= 3
	 item 11, weight= 36, color= 4
	 item 12, weight= 36, color= 4
	 item 13, weight= 38, color= 1
	 item 14, weight= 40, color= 1
	 item 15, weight= 42, color= 2
	 item 16, weight= 44, color= 4
	 item 17, weight= 46, color= 1
	 item 18, weight= 48, color= 2
	 item 19, weight= 50, color= 0
	 item 20, weight= 52, color= 3
	 item 21, weight= 52, color= 4
	 item 22, weight= 52, color= 4
	 item 23, weight= 56, color= 1
	 item 24, weight= 56, color= 2
	 item 25, weight= 56, color= 4
	 item 26, weight= 60, color= 3
	 item 27, weight= 60, color= 4
	 item 28, weight= 64, color= 0
	 item 29, weight= 64, color= 1
	 item 30, weight= 64, color= 1
	 item 31, weight= 64, color= 4
	 item 32, weight= 68, color= 0
	 item 33, weight= 68, color= 2
	 item 34, weight= 70, color= 0
	 item 35, weight= 72, color= 1
	 item 36, weight= 72, color= 3
	 item 37, weight= 76, color= 0
	 item 38, weight= 76, color= 2
	 item 39, weight= 76, color= 3
	 item 40, weight= 78, color= 4
	 item 41, weight= 78, color= 4
	 item 42, weight= 78, color= 4
	 item 43, weight= 84, color= 0
	 item 44, weight= 84, color= 2
	 item 45, weight= 88, color= 2
	 item 46, weight= 88, color= 3
	 item 47, weight= 88, color= 3
	 item 48, weight= 92, color= 1
	 item 49, weight= 100, color= 2
	 item 50, weight= 100, color= 2
	 item 51, weight= 102, color= 2
	 item 52, weight= 102, color= 3
	 item 53, weight= 108, color= 2
	 item 54, weight= 108, color= 2
	 item 55, weight= 116, color= 2
	 item 56, weight= 118, color= 2
	 item 57, weight= 120, color= 4
	 item 58, weight= 122, color= 1
	 item 59, weight= 122, color= 2
	 item 60, weight= 132, color= 0
	 item 61, weight= 132, color= 2
	 item 62, weight= 136, color= 1
	 item 63, weight= 142, color= 3
	 item 64, weight= 142, color= 3
	 item 65, weight= 144, color= 2
	 item 66, weight= 152, color= 0
	 item 67, weight= 164, color= 0
	 item 68, weight= 164, color= 1
	 item 69, weight= 166, color= 4
	 item 70, weight= 178, color= 3
	 item 71, weight= 182, color= 0
	 item 72, weight= 186, color= 4
	 item 73, weight= 189, color= 3
	 item 74, weight= 190, color= 3
	 item 75, weight= 197, color= 1
	 item 76, weight= 198, color= 0
	 item 77, weight= 205, color= 2
	 item 78, weight= 211, color= 1
	 item 79, weight= 220, color= 1
	 item 80, weight= 220, color= 2
	 item 81, weight= 230, color= 1
	 item 82, weight= 239, color= 3
	 item 83, weight= 242, color= 3
	 item 84, weight= 246, color= 2
	 item 85, weight= 251, color= 4
	 item 86, weight= 262, color= 0
	 item 87, weight= 263, color= 1
	 item 88, weight= 281, color= 3
	 item 89, weight= 286, color= 1
	 item 90, weight= 294, color= 2
	 item 91, weight= 303, color= 0
	 item 92, weight= 308, color= 0
	 item 93, weight= 318, color= 2
	 item 94, weight= 322, color= 4
	 item 95, weight= 325, color= 4
	 item 96, weight= 330, color= 2
	 item 97, weight= 340, color= 3
	 item 98, weight= 351, color= 4
	 item 99, weight= 354, color= 4
	 item 100, weight= 366, color= 0
	 item 101, weight= 369, color= 1
	 item 102, weight= 387, color= 1
	 item 103, weight= 390, color= 0
	 item 104, weight= 393, color= 0
	 item 105, weight= 397, color= 1
	 item 106, weight= 401, color= 3
	 item 107, weight= 410, color= 4
	 item 108, weight= 416, color= 2
	 item 109, weight= 426, color= 2
	 item 110, weight= 446, color= 2
	 item 111, weight= 449, color= 2
	 item 112, weight= 451, color= 4
	 item 113, weight= 460, color= 3
	 item 114, weight= 478, color= 4
	 item 115, weight= 506, color= 1
	 item 116, weight= 509, color= 4
	 item 117, weight= 511, color= 1
	 item 118, weight= 515, color= 1
	 item 119, weight= 542, color= 1
	 item 120, weight= 550, color= 2
	 item 121, weight= 589, color= 3
	 item 122, weight= 591, color= 1
	 item 123, weight= 610, color= 3
	 item 124, weight= 615, color= 1
	 item 125, weight= 619, color= 0
	 item 126, weight= 663, color= 1
	 item 127, weight= 666, color= 4
	 item 128, weight= 676, color= 3
	 item 129, weight= 698, color= 3
	 item 130, weight= 713, color= 3
	 item 131, weight= 717, color= 3
	 item 132, weight= 734, color= 4
	 item 133, weight= 767, color= 0
	 item 134, weight= 778, color= 3
	 item 135, weight= 804, color= 2
	 item 136, weight= 829, color= 4
	 item 137, weight= 830, color= 3
	 item 138, weight= 831, color= 0
	 item 139, weight= 999, color= 0
	 item 140, weight= 1002, color= 2
	 item 141, weight= 1003, color= 4
	 item 142, weight= 1066, color= 3
	 item 143, weight= 1118, color= 4
	 item 144, weight= 1137, color= 0
	 item 145, weight= 1141, color= 1
	 item 146, weight= 1145, color= 0
	 item 147, weight= 1162, color= 4
	 item 148, weight= 1198, color= 4
	 item 149, weight= 1201, color= 4
	 item 150, weight= 1252, color= 0
	 item 151, weight= 1255, color= 2
	 item 152, weight= 1259, color= 2
	 item 153, weight= 1266, color= 1
	 item 154, weight= 1287, color= 1
	 item 155, weight= 1291, color= 3
	 item 156, weight= 1338, color= 1
	 item 157, weight= 1346, color= 1
	 item 158, weight= 1379, color= 1
	 item 159, weight= 1380, color= 0
	 item 160, weight= 1383, color= 3
	 item 161, weight= 1387, color= 0
	 item 162, weight= 1390, color= 0
	 item 163, weight= 1426, color= 4
	 item 164, weight= 1457, color= 2
	 item 165, weight= 1459, color= 1
	 item 166, weight= 1462, color= 4
	 item 167, weight= 1486, color= 4
	 item 168, weight= 1517, color= 0
	 item 169, weight= 1521, color= 4
	 item 170, weight= 1522, color= 1
	 item 171, weight= 1525, color= 3
	 item 172, weight= 1530, color= 2
	 item 173, weight= 1533, color= 4
	 item 174, weight= 1558, color= 1
	 item 175, weight= 1574, color= 4
	 item 176, weight= 1575, color= 3
	 item 177, weight= 1588, color= 4
	 item 178, weight= 1602, color= 4
	 item 179, weight= 1607, color= 3
	 item 180, weight= 1610, color= 2
	 item 181, weight= 1617, color= 3
	 item 182, weight= 1618, color= 1
	 item 183, weight= 1633, color= 2
	 item 184, weight= 1646, color= 2
	 item 185, weight= 1654, color= 4
	 item 186, weight= 1659, color= 0
	 item 187, weight= 1681, color= 1
	 item 188, weight= 1682, color= 3
	 item 189, weight= 1695, color= 3
	 item 190, weight= 1706, color= 4
	 item 191, weight= 1711, color= 2
	 item 192, weight= 1714, color= 4
	 item 193, weight= 1722, color= 3
	 item 194, weight= 1743, color= 3
	 item 195, weight= 1751, color= 3
	 item 196, weight= 1761, color= 2
	 item 197, weight= 1762, color= 4
	 item 198, weight= 1770, color= 4
	 item 199, weight= 1771, color= 0
	 item 200, weight= 1774, color= 2
	 item 201, weight= 1778, color= 4
	 item 202, weight= 1786, color= 1

VRPSolver warning: Interval set for resource 1 on source node (when source != sink) is ignored (by definition is [0.0,0.0])
[41m solve [00m
~~~~~~~~~~~~~~~~~~~~~~~~~~~~~~~~~~~~~~~~~~~~~~~~~~~~~~~~~~~~~~~~~~~~~~~~~~~~~~
VRPSolver v0.4.1, 24/03/2021. Web: vrpsolver.math.u-bordeaux.fr
Corresponds to the solver by Pessoa, Sadykov, Uchoa and Vanderbeck (2020)
Paper: dx.doi.org/10.1007/s10107-020-01523-z
USE THIS CODE ONLY FOR ACADEMIC PURPOSES AT YOUR OWN RISK
~~~~~~~~~~~~~~~~~~~~~~~~~~~~~~~~~~~~~~~~~~~~~~~~~~~~~~~~~~~~~~~~~~~~~~~~~~~~~~
BaPCod v053, 24/03/2021, © Inria Bordeaux, France
~~~~~~~~~~~~~~~~~~~~~~~~~~~~~~~~~~~~~~~~~~~~~~~~~~~~~~~~~~~~~~~~~~~~~~~~~~~~~~
VRPSolver parameters:
GlobalTimeLimit = 1800
MaxNbOfBBtreeNodeTreated = 100000
treeSearchStrategy = 1
RCSPstopCutGenTimeThresholdInPricing = 10
RCSPhardTimeThresholdInPricing = 20
RCSPnumberOfBucketsPerVertex = 2000
RCSPdynamicBucketSteps = 0
RCSPuseBidirectionalSearch = 1
RCSPapplyReducedCostFixing = 1
RCSPredCostFixingFalseGap = 0
RCSPmaxNumOfColsPerIteration = 100
RCSPmaxNumOfColsPerExactIteration = 100
RCSPheurLabelingStrategy = 4
StabilizationMinPhaseOfStage = 1
RCSPmaxNumOfLabelsInEnumeration = 100000
RCSPmaxNumOfEnumeratedSolutions = 1000000
RCSPmaxNumOfEnumSolutionsForMIP = 100000
RCSPinitNGneighbourhoodSize = 0
RCSPmaxNGneighbourhoodSize = 0
RCSPrankOneCutsMaxNumPerRound = 100
RCSPrankOneCutsMaxNumRows = -1
RCSPrankOneCutsMemoryType = 2
CutTailingOffThreshold = 0.02
CutTailingOffCounterThreshold = 3
SafeDualBoundScaleFactor = -1
StrongBranchingPhaseOneCandidatesNumber = 100
StrongBranchingPhaseOneTreeSizeEstimRatio = 0.3
StrongBranchingPhaseTwoCandidatesNumber = 1
StrongBranchingPhaseTwoTreeSizeEstimRatio = 0.1
MaxTimeForRestrictedMasterIpHeur = -1
DivingHeurUseDepthLimit = 0
MaxLDSbreadth = 3
MaxLDSdepth = 2
New model incumbent solution 1e+06, TIME = 0h0m0s3t = 3
Model is built TIME = 0h0m2s33t = 233
************************************************************************************************
**** BaB tree root node
**** Local DB = -1e+12, global bounds : [ -1e+12 , 1e+06 ], TIME = 0h0m2s33t = 233
**** 1 open nodes, 0 columns (0 active), 0 dyn. constrs. (0 active), 406 art. vars. (406 active)
************************************************************************************************
<DWph=2> <it= 10> <et=4.49> <Mt= 0.00> <Spt= 2.14> <nCl=1000> <DB=-11830122525.5983> <Mlp=228122376.4608> <PB=1000000> 
<DWph=2> <it= 20> <et=6.61> <Mt= 0.01> <Spt= 2.11> <nCl=1000> <DB=-7927497142.7608> <Mlp=212317424.1814> <PB=1000000> 
<DWph=2> <it= 30> <et=8.65> <Mt= 0.02> <Spt= 2.01> <nCl=1000> <DB=-5625233060.7753> <Mlp=190620332.3654> <PB=1000000> 
<DWph=2> <it= 40> <et=10.65> <Mt= 0.03> <Spt= 1.98> <nCl=1000> <DB=-3643033000.1621> <Mlp=171935829.6732> <PB=1000000> 
<DWph=2> <it= 50> <et=12.63> <Mt= 0.06> <Spt= 1.92> <nCl=1000> <DB=-2027799593.7067> <Mlp=149963848.3879> <PB=1000000> 
<DWph=2> <it= 60> <et=14.57> <Mt= 0.09> <Spt= 1.84> <nCl=1000> <DB=-1085249201.6278> <Mlp=124500006.4166> <PB=1000000> 
<DWph=2> <it= 70> <et=16.48> <Mt= 0.11> <Spt= 1.80> <nCl=1000> <DB=-654224620.8183> <Mlp=100400010.7893> <PB=1000000> 
<DWph=2> <it= 80> <et=18.54> <Mt= 0.13> <Spt= 1.93> <nCl=1000> <DB=-401175295.1927> <Mlp=80400016.3798> <PB=1000000> 
<DWph=2> <it= 90> <et=20.97> <Mt= 0.22> <Spt= 2.21> <nCl=1000> <DB=-171535862.8262> <Mlp=70800020.2226> <PB=1000000> 
<DWph=2> <it=100> <et=23.24> <Mt= 0.19> <Spt= 2.08> <nCl=1000> <DB=-172929294.7483> <Mlp=64260023.4289> <PB=1000000> 
<DWph=2> <it=110> <et=25.61> <Mt= 0.17> <Spt= 2.12> <nCl=1000> <DB=-180154559.1353> <Mlp=58440026.5151> <PB=1000000> 
<DWph=2> <it=120> <et=27.87> <Mt= 0.19> <Spt= 2.07> <nCl=1000> <DB=-171080219.0580> <Mlp=53000029.5773> <PB=1000000> 
<DWph=2> <it=130> <et=30.18> <Mt= 0.26> <Spt= 2.05> <nCl=1000> <DB=-170703463.1414> <Mlp=44550034.4591> <PB=1000000> 
<DWph=2> <it=140> <et=32.60> <Mt= 0.22> <Spt= 2.12> <nCl=1000> <DB=-170765567.2942> <Mlp=36150039.7609> <PB=1000000> 
<DWph=2> <it=150> <et=34.73> <Mt= 0.16> <Spt= 1.98> <nCl=1000> <DB=-170761005.5868> <Mlp=32775041.9558> <PB=1000000> 
<DWph=2> <it=160> <et=36.87> <Mt= 0.13> <Spt= 2.00> <nCl=1000> <DB=-170634920.5974> <Mlp=30150043.6908> <PB=1000000> 
<DWph=2> <it=170> <et=39.32> <Mt= 0.21> <Spt= 2.19> <nCl=1000> <DB=-170638784.5205> <Mlp=26050046.4576> <PB=1000000> 
<DWph=2> <it=180> <et=41.51> <Mt= 0.08> <Spt= 2.10> <nCl=1000> <DB=-170640173.1643> <Mlp=24550047.4706> <PB=1000000> 
<DWph=2> <it=190> <et=43.76> <Mt= 0.13> <Spt= 2.12> <nCl=1000> <DB=-170643702.1335> <Mlp=20950049.9577> <PB=1000000> 
<DWph=2> <it=200> <et=45.86> <Mt= 0.12> <Spt= 1.99> <nCl=1000> <DB=-170687109.7141> <Mlp=17550052.3404> <PB=1000000> 
<DWph=2> <it=210> <et=47.98> <Mt= 0.10> <Spt= 1.95> <nCl=1000> <DB=-170694404.3192> <Mlp=14234026.6066> <PB=1000000> 
<DWph=2> <it=220> <et=50.50> <Mt= 0.15> <Spt= 2.37> <nCl=916> <DB=-154632016.2682> <Mlp=   65.3513> <PB=1000000> 
<DWph=2> <it=230> <et=52.83> <Mt= 0.14> <Spt= 2.18> <nCl=804> <DB=   62.0895> <Mlp=   65.0582> <PB=1000000> 
<DWph=2> <it=240> <et=55.26> <Mt= 0.20> <Spt= 2.20> <nCl=954> <DB=   64.7104> <Mlp=   65.0104> <PB=1000000> 
<DWph=2> <it=250> <et=57.78> <Mt= 0.14> <Spt= 2.37> <nCl=734> <DB=   64.9462> <Mlp=   65.0000> <PB=1000000> 
<DWph=2> <it=252> <et=58.76> <Mt= 0.01> <Spt= 0.96> <nCl= 36> <DB=   65.0000> <Mlp=   65.0000> <PB=1000000> 
<DWph=1> <it=253> <et=59.61> <Mt= 0.00> <Spt= 0.85> <nCl=  0> <DB=   65.0000> <Mlp=   65.0000> <PB=1000000> 
<DWph=0> <it=254> <et=59.88> <Mt= 0.00> <Spt= 0.27> <nCl=  0> <DB=   65.0000> <Mlp=   65.0000> <PB=1000000> 
Reduced cost fixing for graph G_1... took 20.12 sec., 791438 buck. arcs remain (85.7% from prev., 37.6% from max.)
Run enumeration... took 0.17 sec. and not succeeded.
ColGenEvalAlg final dual bound: 65 (rounded: 65)
----------- Diving heuristic started -----------
<DWph=2> <it=  1> <et=80.27> <Mt= 0.01> <Spt= 0.00> <nCl=  0> <DB=   65.0000> <Mlp=   65.0000> <PB=1000000> 
<DWph=1> <it=  2> <et=80.27> <Mt= 0.00> <Spt= 0.00> <nCl=  0> <DB=   65.0000> <Mlp=   65.0000> <PB=1000000> 
---- Diving heuristic node with dive number = 0, fix depth = 0 and tabu list size = 0
Fixed projected solution = [x_1_0_1_OspV=1, x_1_32_1_OspV=1, x_1_128_1_OspV=1, x_1_150_1_OspV=1]
<DWph=2> <it=  1> <et=80.37> <Mt= 0.00> <Spt= 0.00> <nCl=  0> <DB=   65.0000> <Mlp=   65.0000> <PB=1000000> 
<DWph=1> <it=  2> <et=80.37> <Mt= 0.00> <Spt= 0.00> <nCl=  0> <DB=   65.0000> <Mlp=   65.0000> <PB=1000000> 
---- Diving heuristic node with dive number = 0, fix depth = 0 and tabu list size = 0
Fixed projected solution = [x_1_0_1_OspV=1, x_1_47_1_OspV=1, x_1_112_1_OspV=1, x_1_164_1_OspV=1]
<DWph=2> <it=  1> <et=80.47> <Mt= 0.01> <Spt= 0.00> <nCl=  0> <DB=   65.0000> <Mlp=   65.0000> <PB=1000000> 
<DWph=1> <it=  2> <et=80.47> <Mt= 0.00> <Spt= 0.00> <nCl=  0> <DB=   65.0000> <Mlp=   65.0000> <PB=1000000> 
---- Diving heuristic node with dive number = 0, fix depth = 0 and tabu list size = 0
Fixed projected solution = [x_1_0_1_OspV=1, x_1_9_1_OspV=1, x_1_76_1_OspV=1, x_1_197_1_OspV=1]
<DWph=2> <it=  1> <et=80.56> <Mt= 0.00> <Spt= 0.00> <nCl=  0> <DB=   65.0000> <Mlp=   65.0000> <PB=1000000> 
<DWph=1> <it=  2> <et=80.56> <Mt= 0.00> <Spt= 0.00> <nCl=  0> <DB=   65.0000> <Mlp=   65.0000> <PB=1000000> 
---- Diving heuristic node with dive number = 0, fix depth = 0 and tabu list size = 0
Fixed projected solution = [x_1_0_1_OspV=1, x_1_17_1_OspV=1, x_1_82_1_OspV=1, x_1_191_1_OspV=1]
<DWph=2> <it=  1> <et=80.66> <Mt= 0.00> <Spt= 0.00> <nCl=  0> <DB=   65.0000> <Mlp=   65.0000> <PB=1000000> 
<DWph=1> <it=  2> <et=80.66> <Mt= 0.01> <Spt= 0.00> <nCl=  0> <DB=   65.0000> <Mlp=   65.0000> <PB=1000000> 
---- Diving heuristic node with dive number = 0, fix depth = 1 and tabu list size = 0
Fixed projected solution = [x_1_0_1_OspV=1, x_1_23_1_OspV=1, x_1_88_1_OspV=1, x_1_186_1_OspV=1]
<DWph=2> <it=  1> <et=80.74> <Mt= 0.00> <Spt= 0.00> <nCl=  0> <DB=   65.0000> <Mlp=   65.0000> <PB=1000000> 
<DWph=1> <it=  2> <et=80.74> <Mt= 0.00> <Spt= 0.00> <nCl=  0> <DB=   65.0000> <Mlp=   65.0000> <PB=1000000> 
---- Diving heuristic node with dive number = 0, fix depth = 2 and tabu list size = 0
Fixed projected solution = [x_1_0_1_OspV=1, x_1_56_1_OspV=1, x_1_122_1_OspV=1, x_1_154_1_OspV=1]
<DWph=2> <it=  1> <et=80.83> <Mt= 0.01> <Spt= 0.00> <nCl=  0> <DB=   65.0000> <Mlp=   65.0000> <PB=1000000> 
<DWph=1> <it=  2> <et=80.83> <Mt= 0.00> <Spt= 0.00> <nCl=  0> <DB=   65.0000> <Mlp=   65.0000> <PB=1000000> 
---- Diving heuristic node with dive number = 0, fix depth = 3 and tabu list size = 0
Fixed projected solution = [x_1_0_1_OspV=1, x_1_43_1_OspV=1, x_1_109_1_OspV=1, x_1_167_1_OspV=1]
<DWph=2> <it=  1> <et=80.84> <Mt= 0.00> <Spt= 0.00> <nCl=  0> <DB=   65.0000> <Mlp=   65.0000> <PB=1000000> 
<DWph=1> <it=  2> <et=80.84> <Mt= 0.00> <Spt= 0.00> <nCl=  0> <DB=   65.0000> <Mlp=   65.0000> <PB=1000000> 
---- Diving heuristic node with dive number = 0, fix depth = 4 and tabu list size = 0
Fixed projected solution = [x_1_0_1_OspV=1, x_1_11_1_OspV=1, x_1_73_1_OspV=1, x_1_199_1_OspV=1]
<DWph=2> <it=  1> <et=80.86> <Mt= 0.01> <Spt= 0.00> <nCl=  0> <DB=   65.0000> <Mlp=   65.0000> <PB=1000000> 
<DWph=1> <it=  2> <et=80.86> <Mt= 0.01> <Spt= 0.00> <nCl=  0> <DB=   65.0000> <Mlp=   65.0000> <PB=1000000> 
---- Diving heuristic node with dive number = 0, fix depth = 5 and tabu list size = 0
Fixed projected solution = [x_1_0_1_OspV=1, x_1_58_1_OspV=1, x_1_125_1_OspV=1, x_1_151_1_OspV=1]
<DWph=2> <it=  1> <et=80.87> <Mt= 0.00> <Spt= 0.00> <nCl=  0> <DB=   65.0000> <Mlp=   65.0000> <PB=1000000> 
<DWph=1> <it=  2> <et=80.87> <Mt= 0.00> <Spt= 0.00> <nCl=  0> <DB=   65.0000> <Mlp=   65.0000> <PB=1000000> 
---- Diving heuristic node with dive number = 0, fix depth = 5 and tabu list size = 0
Fixed projected solution = [x_1_0_1_OspV=1, x_1_59_1_OspV=1, x_1_124_1_OspV=1, x_1_152_1_OspV=1]
<DWph=2> <it=  1> <et=80.88> <Mt= 0.00> <Spt= 0.00> <nCl=  0> <DB=   65.0000> <Mlp=   65.0000> <PB=1000000> 
<DWph=1> <it=  2> <et=80.88> <Mt= 0.00> <Spt= 0.00> <nCl=  0> <DB=   65.0000> <Mlp=   65.0000> <PB=1000000> 
---- Diving heuristic node with dive number = 0, fix depth = 6 and tabu list size = 0
Fixed projected solution = [x_1_0_1_OspV=1, x_1_14_1_OspV=1, x_1_77_1_OspV=1, x_1_195_1_OspV=1]
<DWph=2> <it=  1> <et=80.89> <Mt= 0.01> <Spt= 0.00> <nCl=  0> <DB=   65.0000> <Mlp=   65.0000> <PB=1000000> 
<DWph=1> <it=  2> <et=80.89> <Mt= 0.00> <Spt= 0.00> <nCl=  0> <DB=   65.0000> <Mlp=   65.0000> <PB=1000000> 
---- Diving heuristic node with dive number = 0, fix depth = 6 and tabu list size = 0
Fixed projected solution = [x_1_0_1_OspV=1, x_1_29_1_OspV=1, x_1_89_1_OspV=1, x_1_184_1_OspV=1]
<DWph=2> <it=  1> <et=80.90> <Mt= 0.00> <Spt= 0.00> <nCl=  0> <DB=   65.0000> <Mlp=   65.0000> <PB=1000000> 
<DWph=1> <it=  2> <et=80.90> <Mt= 0.01> <Spt= 0.00> <nCl=  0> <DB=   65.0000> <Mlp=   65.0000> <PB=1000000> 
---- Diving heuristic node with dive number = 0, fix depth = 7 and tabu list size = 0
Fixed projected solution = [x_1_0_1_OspV=1, x_1_19_1_OspV=1, x_1_85_1_OspV=1, x_1_189_1_OspV=1]
<DWph=2> <it=  1> <et=80.92> <Mt= 0.01> <Spt= 0.00> <nCl=  0> <DB=   65.0000> <Mlp=   65.0000> <PB=1000000> 
<DWph=1> <it=  2> <et=80.92> <Mt= 0.00> <Spt= 0.00> <nCl=  0> <DB=   65.0000> <Mlp=   65.0000> <PB=1000000> 
---- Diving heuristic node with dive number = 0, fix depth = 8 and tabu list size = 0
Fixed projected solution = [x_1_0_1_OspV=1, x_1_20_1_OspV=1, x_1_87_1_OspV=1, x_1_187_1_OspV=1]
<DWph=2> <it=  1> <et=80.93> <Mt= 0.00> <Spt= 0.00> <nCl=  0> <DB=   65.0000> <Mlp=   65.0000> <PB=1000000> 
<DWph=1> <it=  2> <et=80.93> <Mt= 0.00> <Spt= 0.00> <nCl=  0> <DB=   65.0000> <Mlp=   65.0000> <PB=1000000> 
---- Diving heuristic node with dive number = 0, fix depth = 9 and tabu list size = 0
Fixed projected solution = [x_1_0_1_OspV=1, x_1_34_1_OspV=1, x_1_80_1_OspV=1, x_1_190_1_OspV=1]
<DWph=2> <it=  1> <et=80.96> <Mt= 0.03> <Spt= 0.00> <nCl=  0> <DB=   65.0000> <Mlp=   65.0000> <PB=1000000> 
<DWph=1> <it=  2> <et=80.96> <Mt= 0.00> <Spt= 0.00> <nCl=  0> <DB=   65.0000> <Mlp=   65.0000> <PB=1000000> 
---- Diving heuristic node with dive number = 0, fix depth = 10 and tabu list size = 0
Fixed projected solution = [x_1_0_1_OspV=1, x_1_36_1_OspV=1, x_1_100_1_OspV=1, x_1_174_1_OspV=1]
<DWph=2> <it=  1> <et=81.00> <Mt= 0.03> <Spt= 0.00> <nCl=  0> <DB=   65.0000> <Mlp=   65.0000> <PB=1000000> 
<DWph=1> <it=  2> <et=81.00> <Mt= 0.00> <Spt= 0.00> <nCl=  0> <DB=   65.0000> <Mlp=   65.0000> <PB=1000000> 
---- Diving heuristic node with dive number = 0, fix depth = 10 and tabu list size = 0
Fixed projected solution = [x_1_0_1_OspV=1, x_1_46_1_OspV=1, x_1_110_1_OspV=1, x_1_166_1_OspV=1]
<DWph=2> <it=  1> <et=81.01> <Mt= 0.00> <Spt= 0.00> <nCl=  0> <DB=   65.0000> <Mlp=   65.0000> <PB=1000000> 
<DWph=1> <it=  2> <et=81.01> <Mt= 0.00> <Spt= 0.00> <nCl=  0> <DB=   65.0000> <Mlp=   65.0000> <PB=1000000> 
---- Diving heuristic node with dive number = 0, fix depth = 11 and tabu list size = 0
Fixed projected solution = [x_1_0_1_OspV=1, x_1_42_1_OspV=1, x_1_106_1_OspV=1, x_1_168_1_OspV=1]
<DWph=2> <it=  1> <et=81.03> <Mt= 0.02> <Spt= 0.00> <nCl=  0> <DB=   65.0000> <Mlp=   65.0000> <PB=1000000> 
<DWph=1> <it=  2> <et=81.03> <Mt= 0.00> <Spt= 0.00> <nCl=  0> <DB=   65.0000> <Mlp=   65.0000> <PB=1000000> 
---- Diving heuristic node with dive number = 0, fix depth = 12 and tabu list size = 0
Fixed projected solution = [x_1_0_1_OspV=1, x_1_39_1_OspV=1, x_1_102_1_OspV=1, x_1_173_1_OspV=1]
<DWph=2> <it=  1> <et=81.07> <Mt= 0.02> <Spt= 0.00> <nCl=  0> <DB=   65.0000> <Mlp=   65.0000> <PB=1000000> 
<DWph=1> <it=  2> <et=81.07> <Mt= 0.00> <Spt= 0.00> <nCl=  0> <DB=   65.0000> <Mlp=   65.0000> <PB=1000000> 
---- Diving heuristic node with dive number = 0, fix depth = 13 and tabu list size = 0
Fixed projected solution = [x_1_0_1_OspV=1, x_1_8_1_OspV=1, x_1_72_1_OspV=1, x_1_200_1_OspV=1]
<DWph=2> <it=  1> <et=81.08> <Mt= 0.01> <Spt= 0.00> <nCl=  0> <DB=   65.0000> <Mlp=   65.0000> <PB=1000000> 
<DWph=1> <it=  2> <et=81.08> <Mt= 0.00> <Spt= 0.00> <nCl=  0> <DB=   65.0000> <Mlp=   65.0000> <PB=1000000> 
---- Diving heuristic node with dive number = 0, fix depth = 14 and tabu list size = 0
Fixed projected solution = [x_1_0_1_OspV=1, x_1_16_1_OspV=1, x_1_81_1_OspV=1, x_1_193_1_OspV=1]
<DWph=2> <it=  1> <et=81.12> <Mt= 0.03> <Spt= 0.00> <nCl=  0> <DB=   65.0000> <Mlp=   65.0000> <PB=1000000> 
<DWph=1> <it=  2> <et=81.12> <Mt= 0.00> <Spt= 0.00> <nCl=  0> <DB=   65.0000> <Mlp=   65.0000> <PB=1000000> 
---- Diving heuristic node with dive number = 0, fix depth = 15 and tabu list size = 0
Fixed projected solution = [x_1_0_1_OspV=1, x_1_51_1_OspV=1, x_1_117_1_OspV=1, x_1_160_1_OspV=1]
<DWph=2> <it=  1> <et=81.16> <Mt= 0.04> <Spt= 0.00> <nCl=  0> <DB=   65.0000> <Mlp=   65.0000> <PB=1000000> 
<DWph=1> <it=  2> <et=81.17> <Mt= 0.01> <Spt= 0.00> <nCl=  0> <DB=   65.0000> <Mlp=   65.0000> <PB=1000000> 
---- Diving heuristic node with dive number = 0, fix depth = 16 and tabu list size = 0
Fixed projected solution = [x_1_0_1_OspV=1, x_1_27_1_OspV=1, x_1_93_1_OspV=1, x_1_182_1_OspV=1]
<DWph=2> <it=  5> <et=82.21> <Mt= 0.06> <Spt= 0.97> <nCl=400> <DB=   64.9851> <Mlp=   65.0000> <PB=1000000> 
<DWph=1> <it=  6> <et=82.21> <Mt= 0.00> <Spt= 0.00> <nCl=  0> <DB=   65.0000> <Mlp=   65.0000> <PB=1000000> 
---- Diving heuristic node with dive number = 0, fix depth = 17 and tabu list size = 0
Fixed projected solution = [x_1_0_1_OspV=1, x_1_69_1_OspV=1, x_1_138_1_OspV=1, x_1_139_1_OspV=1]
<DWph=2> <it=  3> <et=82.72> <Mt= 0.06> <Spt= 0.44> <nCl=200> <DB=   64.9877> <Mlp=   65.0000> <PB=1000000> 
<DWph=1> <it=  4> <et=82.73> <Mt= 0.00> <Spt= 0.00> <nCl=  0> <DB=   65.0000> <Mlp=   65.0000> <PB=1000000> 
---- Diving heuristic node with dive number = 0, fix depth = 17 and tabu list size = 0
Fixed projected solution = [x_1_0_1_OspV=1, x_1_44_1_OspV=1, x_1_133_1_OspV=1, x_1_146_1_OspV=1]
<DWph=2> <it=  1> <et=82.74> <Mt= 0.00> <Spt= 0.00> <nCl=  0> <DB=   65.0000> <Mlp=   65.0000> <PB=1000000> 
<DWph=1> <it=  2> <et=82.74> <Mt= 0.00> <Spt= 0.00> <nCl=  0> <DB=   65.0000> <Mlp=   65.0000> <PB=1000000> 
---- Diving heuristic node with dive number = 0, fix depth = 18 and tabu list size = 0
Fixed projected solution = [x_1_0_1_OspV=1, x_1_45_1_OspV=1, x_1_111_1_OspV=1, x_1_165_1_OspV=1]
<DWph=2> <it=  1> <et=82.77> <Mt= 0.03> <Spt= 0.00> <nCl=  0> <DB=   65.0000> <Mlp=   65.0000> <PB=1000000> 
<DWph=1> <it=  2> <et=82.77> <Mt= 0.00> <Spt= 0.00> <nCl=  0> <DB=   65.0000> <Mlp=   65.0000> <PB=1000000> 
---- Diving heuristic node with dive number = 0, fix depth = 19 and tabu list size = 0
Fixed projected solution = [x_1_0_1_OspV=1, x_1_26_1_OspV=1, x_1_91_1_OspV=1, x_1_183_1_OspV=1]
<DWph=2> <it=  1> <et=82.83> <Mt= 0.05> <Spt= 0.00> <nCl=  0> <DB=   65.0000> <Mlp=   65.0000> <PB=1000000> 
<DWph=1> <it=  2> <et=82.83> <Mt= 0.00> <Spt= 0.00> <nCl=  0> <DB=   65.0000> <Mlp=   65.0000> <PB=1000000> 
---- Diving heuristic node with dive number = 0, fix depth = 20 and tabu list size = 0
Fixed projected solution = [x_1_0_1_OspV=1, x_1_31_1_OspV=1, x_1_107_1_OspV=1, x_1_170_1_OspV=1]
<DWph=2> <it=  1> <et=82.86> <Mt= 0.02> <Spt= 0.00> <nCl=  0> <DB=   65.0000> <Mlp=   65.0000> <PB=1000000> 
<DWph=1> <it=  2> <et=82.86> <Mt= 0.00> <Spt= 0.00> <nCl=  0> <DB=   65.0000> <Mlp=   65.0000> <PB=1000000> 
---- Diving heuristic node with dive number = 0, fix depth = 21 and tabu list size = 0
Fixed projected solution = [x_1_0_1_OspV=1, x_1_65_1_OspV=1, x_1_132_1_OspV=1, x_1_143_1_OspV=1]
<DWph=2> <it=  1> <et=82.91> <Mt= 0.04> <Spt= 0.00> <nCl=  0> <DB=   65.0000> <Mlp=   65.0000> <PB=1000000> 
<DWph=1> <it=  2> <et=82.91> <Mt= 0.00> <Spt= 0.00> <nCl=  0> <DB=   65.0000> <Mlp=   65.0000> <PB=1000000> 
---- Diving heuristic node with dive number = 0, fix depth = 22 and tabu list size = 0
Fixed projected solution = [x_1_0_1_OspV=1, x_1_61_1_OspV=1, x_1_127_1_OspV=1, x_1_148_1_OspV=1]
<DWph=2> <it=  1> <et=82.92> <Mt= 0.01> <Spt= 0.00> <nCl=  0> <DB=   65.0000> <Mlp=   65.0000> <PB=1000000> 
<DWph=1> <it=  2> <et=82.92> <Mt= 0.00> <Spt= 0.00> <nCl=  0> <DB=   65.0000> <Mlp=   65.0000> <PB=1000000> 
---- Diving heuristic node with dive number = 0, fix depth = 23 and tabu list size = 0
Fixed projected solution = [x_1_0_1_OspV=1, x_1_55_1_OspV=1, x_1_121_1_OspV=1, x_1_155_1_OspV=1]
<DWph=2> <it=  9> <et=84.82> <Mt= 0.10> <Spt= 1.79> <nCl=800> <DB=   64.9859> <Mlp=   65.0000> <PB=1000000> 
---- Diving heuristic node with dive number = 0, fix depth = 24 and tabu list size = 0
Fixed projected solution = [x_1_0_1_OspV=1, x_1_64_1_OspV=1, x_1_130_1_OspV=1, x_1_145_1_OspV=1]
<DWph=2> <it=  1> <et=84.86> <Mt= 0.03> <Spt= 0.00> <nCl=  0> <DB=   65.0000> <Mlp=   65.0000> <PB=1000000> 
<DWph=1> <it=  2> <et=84.86> <Mt= 0.00> <Spt= 0.00> <nCl=  0> <DB=   65.0000> <Mlp=   65.0000> <PB=1000000> 
---- Diving heuristic node with dive number = 0, fix depth = 25 and tabu list size = 0
Fixed projected solution = [x_1_0_1_OspV=1, x_1_12_1_OspV=1, x_1_71_1_OspV=1, x_1_201_1_OspV=1]
<DWph=2> <it=  4> <et=85.64> <Mt= 0.10> <Spt= 0.67> <nCl=300> <DB=   64.9932> <Mlp=   65.0000> <PB=1000000> 
<DWph=1> <it=  5> <et=85.64> <Mt= 0.00> <Spt= 0.00> <nCl=  0> <DB=   65.0000> <Mlp=   65.0000> <PB=1000000> 
---- Diving heuristic node with dive number = 0, fix depth = 25 and tabu list size = 0
Fixed projected solution = [x_1_0_1_OspV=1, x_1_67_1_OspV=1, x_1_136_1_OspV=1, x_1_141_1_OspV=1]
<DWph=2> <it=  1> <et=85.66> <Mt= 0.00> <Spt= 0.00> <nCl=  0> <DB=   65.0000> <Mlp=   65.0000> <PB=1000000> 
<DWph=1> <it=  2> <et=85.66> <Mt= 0.00> <Spt= 0.00> <nCl=  0> <DB=   65.0000> <Mlp=   65.0000> <PB=1000000> 
---- Diving heuristic node with dive number = 0, fix depth = 26 and tabu list size = 0
Fixed projected solution = [x_1_0_1_OspV=1, x_1_68_1_OspV=1, x_1_137_1_OspV=1, x_1_140_1_OspV=1]
<DWph=2> <it=  2> <et=85.97> <Mt= 0.07> <Spt= 0.23> <nCl=100> <DB=   64.9906> <Mlp=   65.0000> <PB=1000000> 
<DWph=1> <it=  3> <et=85.97> <Mt= 0.01> <Spt= 0.00> <nCl=  0> <DB=   65.0000> <Mlp=   65.0000> <PB=1000000> 
---- Diving heuristic node with dive number = 0, fix depth = 27 and tabu list size = 0
Fixed projected solution = [x_1_0_1_OspV=1, x_1_15_1_OspV=1, x_1_78_1_OspV=1, x_1_194_1_OspV=1]
<DWph=2> <it=  6> <et=87.26> <Mt= 0.12> <Spt= 1.15> <nCl=500> <DB=   64.9974> <Mlp=   65.0000> <PB=1000000> 
<DWph=1> <it=  7> <et=87.27> <Mt= 0.01> <Spt= 0.00> <nCl=  0> <DB=   65.0000> <Mlp=   65.0000> <PB=1000000> 
---- Diving heuristic node with dive number = 0, fix depth = 27 and tabu list size = 0
Fixed projected solution = [x_1_0_1_OspV=1, x_1_13_1_OspV=1, x_1_75_1_OspV=1, x_1_196_1_OspV=1]
<DWph=2> <it=  1> <et=87.28> <Mt= 0.00> <Spt= 0.00> <nCl=  0> <DB=   65.0000> <Mlp=   65.0000> <PB=1000000> 
<DWph=1> <it=  2> <et=87.28> <Mt= 0.00> <Spt= 0.00> <nCl=  0> <DB=   65.0000> <Mlp=   65.0000> <PB=1000000> 
---- Diving heuristic node with dive number = 0, fix depth = 28 and tabu list size = 0
Fixed projected solution = [x_1_0_1_OspV=1, x_1_25_1_OspV=1, x_1_96_1_OspV=1, x_1_180_1_OspV=1]
<DWph=2> <it=  2> <et=87.58> <Mt= 0.07> <Spt= 0.22> <nCl=100> <DB=   64.9934> <Mlp=   65.0000> <PB=1000000> 
<DWph=1> <it=  3> <et=87.59> <Mt= 0.00> <Spt= 0.00> <nCl=  0> <DB=   65.0000> <Mlp=   65.0000> <PB=1000000> 
---- Diving heuristic node with dive number = 0, fix depth = 29 and tabu list size = 0
Fixed projected solution = [x_1_0_1_OspV=1, x_1_50_1_OspV=1, x_1_90_1_OspV=1, x_1_178_1_OspV=1]
<DWph=2> <it=  7> <et=89.15> <Mt= 0.15> <Spt= 1.36> <nCl=600> <DB=   64.9986> <Mlp=   65.0000> <PB=1000000> 
<DWph=1> <it=  8> <et=89.15> <Mt= 0.00> <Spt= 0.00> <nCl=  0> <DB=   65.0000> <Mlp=   65.0000> <PB=1000000> 
---- Diving heuristic node with dive number = 0, fix depth = 30 and tabu list size = 0
Fixed projected solution = [x_1_0_1_OspV=1, x_1_30_1_OspV=1, x_1_95_1_OspV=1, x_1_179_1_OspV=1]
<DWph=2> <it=  3> <et=89.66> <Mt= 0.06> <Spt= 0.45> <nCl=200> <DB=   64.9985> <Mlp=   65.0000> <PB=1000000> 
<DWph=1> <it=  4> <et=89.67> <Mt= 0.00> <Spt= 0.00> <nCl=  0> <DB=   65.0000> <Mlp=   65.0000> <PB=1000000> 
---- Diving heuristic node with dive number = 0, fix depth = 31 and tabu list size = 0
Fixed projected solution = [x_1_0_1_OspV=1, x_1_10_1_OspV=1, x_1_84_1_OspV=1, x_1_192_1_OspV=1]
<DWph=2> <it=  4> <et=90.41> <Mt= 0.06> <Spt= 0.67> <nCl=300> <DB=   64.9994> <Mlp=   65.0000> <PB=1000000> 
<DWph=1> <it=  5> <et=90.41> <Mt= 0.00> <Spt= 0.00> <nCl=  0> <DB=   65.0000> <Mlp=   65.0000> <PB=1000000> 
---- Diving heuristic node with dive number = 0, fix depth = 32 and tabu list size = 0
Fixed projected solution = [x_1_0_1_OspV=1, x_1_18_1_OspV=1, x_1_70_1_OspV=1, x_1_198_1_OspV=1]
<DWph=2> <it=  1> <et=90.44> <Mt= 0.02> <Spt= 0.00> <nCl=  0> <DB=   65.0000> <Mlp=   65.0000> <PB=1000000> 
<DWph=1> <it=  2> <et=90.44> <Mt= 0.00> <Spt= 0.00> <nCl=  0> <DB=   65.0000> <Mlp=   65.0000> <PB=1000000> 
---- Diving heuristic node with dive number = 0, fix depth = 33 and tabu list size = 0
Fixed projected solution = [x_1_0_1_OspV=1, x_1_48_1_OspV=1, x_1_114_1_OspV=1, x_1_163_1_OspV=1]
<DWph=2> <it=  5> <et=91.49> <Mt= 0.13> <Spt= 0.90> <nCl=400> <DB=   64.9985> <Mlp=   65.0000> <PB=1000000> 
<DWph=1> <it=  6> <et=91.49> <Mt= 0.00> <Spt= 0.00> <nCl=  0> <DB=   65.0000> <Mlp=   65.0000> <PB=1000000> 
---- Diving heuristic node with dive number = 0, fix depth = 34 and tabu list size = 0
Fixed projected solution = [x_1_0_1_OspV=1, x_1_63_1_OspV=1, x_1_131_1_OspV=1, x_1_144_1_OspV=1]
<DWph=2> <it=  6> <et=92.78> <Mt= 0.16> <Spt= 1.11> <nCl=500> <DB=   64.9997> <Mlp=   65.0000> <PB=1000000> 
<DWph=1> <it=  7> <et=92.78> <Mt= 0.01> <Spt= 0.00> <nCl=  0> <DB=   65.0000> <Mlp=   65.0000> <PB=1000000> 
---- Diving heuristic node with dive number = 0, fix depth = 34 and tabu list size = 0
Fixed projected solution = [x_1_0_1_OspV=1, x_1_60_1_OspV=1, x_1_126_1_OspV=1, x_1_149_1_OspV=1]
<DWph=2> <it=  1> <et=92.80> <Mt= 0.00> <Spt= 0.00> <nCl=  0> <DB=   65.0000> <Mlp=   65.0000> <PB=1000000> 
<DWph=1> <it=  2> <et=92.80> <Mt= 0.00> <Spt= 0.00> <nCl=  0> <DB=   65.0000> <Mlp=   65.0000> <PB=1000000> 
---- Diving heuristic node with dive number = 0, fix depth = 35 and tabu list size = 0
Fixed projected solution = [x_1_0_1_OspV=1, x_1_41_1_OspV=1, x_1_104_1_OspV=1, x_1_171_1_OspV=1]
<DWph=2> <it=  2> <et=93.11> <Mt= 0.08> <Spt= 0.23> <nCl=100> <DB=   64.9996> <Mlp=   65.0000> <PB=1000000> 
<DWph=1> <it=  3> <et=93.12> <Mt= 0.00> <Spt= 0.00> <nCl=  0> <DB=   65.0000> <Mlp=   65.0000> <PB=1000000> 
---- Diving heuristic node with dive number = 0, fix depth = 36 and tabu list size = 0
Fixed projected solution = [x_1_0_1_OspV=1, x_1_28_1_OspV=1, x_1_119_1_OspV=1, x_1_162_1_OspV=1]
<DWph=2> <it=  2> <et=93.41> <Mt= 0.06> <Spt= 0.22> <nCl=100> <DB=   64.9996> <Mlp=   65.0000> <PB=1000000> 
<DWph=1> <it=  3> <et=93.41> <Mt= 0.00> <Spt= 0.00> <nCl=  0> <DB=   65.0000> <Mlp=   65.0000> <PB=1000000> 
---- Diving heuristic node with dive number = 0, fix depth = 37 and tabu list size = 0
Fixed projected solution = [x_1_0_1_OspV=1, x_1_22_1_OspV=1, x_1_86_1_OspV=1, x_1_188_1_OspV=1]
<DWph=2> <it=  1> <et=93.45> <Mt= 0.03> <Spt= 0.00> <nCl=  0> <DB=   65.0000> <Mlp=   65.0000> <PB=1000000> 
<DWph=1> <it=  2> <et=93.46> <Mt= 0.00> <Spt= 0.00> <nCl=  0> <DB=   65.0000> <Mlp=   65.0000> <PB=1000000> 
---- Diving heuristic node with dive number = 0, fix depth = 38 and tabu list size = 0
Fixed projected solution = [x_1_0_1_OspV=1, x_1_83_1_OspV=1, x_1_108_1_OspV=1, x_1_156_1_OspV=1]
<DWph=2> <it=  7> <et=94.91> <Mt= 0.11> <Spt= 1.34> <nCl=600> <DB=   65.0000> <Mlp=   65.0000> <PB=1000000> 
<DWph=1> <it=  8> <et=94.92> <Mt= 0.00> <Spt= 0.00> <nCl=  0> <DB=   65.0000> <Mlp=   65.0000> <PB=1000000> 
---- Diving heuristic node with dive number = 0, fix depth = 39 and tabu list size = 0
Fixed projected solution = [x_1_0_1_OspV=1, x_1_53_1_OspV=1, x_1_116_1_OspV=1, x_1_158_1_OspV=1]
<DWph=2> <it=  6> <et=96.12> <Mt= 0.07> <Spt= 1.11> <nCl=500> <DB=   65.0000> <Mlp=   65.0000> <PB=1000000> 
<DWph=1> <it=  7> <et=96.12> <Mt= 0.01> <Spt= 0.00> <nCl=  0> <DB=   65.0000> <Mlp=   65.0000> <PB=1000000> 
---- Diving heuristic node with dive number = 0, fix depth = 39 and tabu list size = 0
Fixed projected solution = [x_1_0_1_OspV=1, x_1_52_1_OspV=1, x_1_54_1_OspV=1, x_1_202_1_OspV=1]
<DWph=2> <it=  1> <et=96.14> <Mt= 0.00> <Spt= 0.00> <nCl=  0> <DB=   65.0000> <Mlp=   65.0000> <PB=1000000> 
<DWph=1> <it=  2> <et=96.14> <Mt= 0.00> <Spt= 0.00> <nCl=  0> <DB=   65.0000> <Mlp=   65.0000> <PB=1000000> 
---- Diving heuristic node with dive number = 0, fix depth = 40 and tabu list size = 0
Fixed projected solution = [x_1_0_1_OspV=1, x_1_37_1_OspV=1, x_1_103_1_OspV=1, x_1_172_1_OspV=1]
<DWph=2> <it= 10> <et=98.32> <Mt= 0.12> <Spt= 2.00> <nCl=1000> <DB=   64.9955> <Mlp=   65.0010> <PB=1000000> 
<DWph=2> <it= 20> <et=100.61> <Mt= 0.05> <Spt= 2.25> <nCl=1000> <DB=   64.9997> <Mlp=   65.0005> <PB=1000000> 
<DWph=2> <it= 21> <et=100.64> <Mt= 0.02> <Spt= 0.00> <nCl=  0> <DB=   64.9997> <Mlp=   65.0000> <PB=1000000> 
<DWph=1> <it= 22> <et=100.64> <Mt= 0.00> <Spt= 0.00> <nCl=  0> <DB=   65.0000> <Mlp=   65.0000> <PB=1000000> 
---- Diving heuristic node with dive number = 0, fix depth = 41 and tabu list size = 0
Fixed projected solution = [x_1_0_1_OspV=1, x_1_24_1_OspV=1, x_1_134_1_OspV=1, x_1_147_1_OspV=1]
<DWph=2> <it= 10> <et=102.60> <Mt= 0.18> <Spt= 1.76> <nCl=1000> <DB=   64.9981> <Mlp=   65.0027> <PB=1000000> 
<DWph=2> <it= 20> <et=105.00> <Mt= 0.06> <Spt= 2.30> <nCl=1000> <DB=   64.9998> <Mlp=   65.0011> <PB=1000000> 
<DWph=2> <it= 30> <et=109.34> <Mt= 0.04> <Spt= 4.29> <nCl=596> <DB=   64.9929> <Mlp=   65.0005> <PB=1000000> 
<DWph=2> <it= 40> <et=112.98> <Mt= 0.03> <Spt= 3.60> <nCl=208> <DB=   65.0004> <Mlp=   65.0004> <PB=1000000> 
<DWph=1> <it= 41> <et=113.42> <Mt= 0.01> <Spt= 0.44> <nCl=  0> <DB=   65.0004> <Mlp=   65.0004> <PB=1000000> 
---- Diving heuristic node with dive number = 0, fix depth = 42 and tabu list size = 0
Fixed projected solution = [x_1_0_1_OspV=1, x_1_6_1_OspV=1, x_1_129_1_OspV=1, x_1_153_1_OspV=1]
