Application parameters:
  batch  =>  nothing
  instance  =>  "/IN/201_2500_DI_34.txt-Q5"
  ub  =>  1.0e6
  cfg  =>  "/CFG/BPP.cfg"
data = Colored Bin Packing dataset.
number of items = 202
number of colors = 5
capacity = 2472
Items : 
	 item 1, weight= 8, color= 0
	 item 2, weight= 8, color= 2
	 item 3, weight= 8, color= 3
	 item 4, weight= 16, color= 0
	 item 5, weight= 28, color= 4
	 item 6, weight= 32, color= 0
	 item 7, weight= 36, color= 4
	 item 8, weight= 40, color= 0
	 item 9, weight= 40, color= 3
	 item 10, weight= 40, color= 4
	 item 11, weight= 44, color= 0
	 item 12, weight= 44, color= 0
	 item 13, weight= 44, color= 3
	 item 14, weight= 44, color= 4
	 item 15, weight= 48, color= 3
	 item 16, weight= 54, color= 0
	 item 17, weight= 56, color= 0
	 item 18, weight= 56, color= 3
	 item 19, weight= 60, color= 0
	 item 20, weight= 64, color= 2
	 item 21, weight= 64, color= 4
	 item 22, weight= 70, color= 1
	 item 23, weight= 72, color= 0
	 item 24, weight= 72, color= 2
	 item 25, weight= 72, color= 4
	 item 26, weight= 76, color= 2
	 item 27, weight= 80, color= 0
	 item 28, weight= 80, color= 1
	 item 29, weight= 80, color= 2
	 item 30, weight= 80, color= 3
	 item 31, weight= 88, color= 3
	 item 32, weight= 88, color= 4
	 item 33, weight= 88, color= 4
	 item 34, weight= 88, color= 4
	 item 35, weight= 92, color= 3
	 item 36, weight= 92, color= 4
	 item 37, weight= 96, color= 0
	 item 38, weight= 96, color= 3
	 item 39, weight= 96, color= 3
	 item 40, weight= 96, color= 3
	 item 41, weight= 104, color= 0
	 item 42, weight= 104, color= 3
	 item 43, weight= 104, color= 3
	 item 44, weight= 108, color= 3
	 item 45, weight= 108, color= 3
	 item 46, weight= 112, color= 2
	 item 47, weight= 120, color= 2
	 item 48, weight= 120, color= 3
	 item 49, weight= 120, color= 3
	 item 50, weight= 122, color= 3
	 item 51, weight= 124, color= 0
	 item 52, weight= 124, color= 1
	 item 53, weight= 132, color= 3
	 item 54, weight= 136, color= 2
	 item 55, weight= 140, color= 0
	 item 56, weight= 144, color= 3
	 item 57, weight= 144, color= 4
	 item 58, weight= 152, color= 0
	 item 59, weight= 162, color= 4
	 item 60, weight= 168, color= 0
	 item 61, weight= 168, color= 2
	 item 62, weight= 172, color= 2
	 item 63, weight= 174, color= 1
	 item 64, weight= 192, color= 4
	 item 65, weight= 200, color= 2
	 item 66, weight= 204, color= 0
	 item 67, weight= 204, color= 1
	 item 68, weight= 204, color= 2
	 item 69, weight= 204, color= 3
	 item 70, weight= 220, color= 4
	 item 71, weight= 228, color= 2
	 item 72, weight= 230, color= 1
	 item 73, weight= 234, color= 0
	 item 74, weight= 236, color= 3
	 item 75, weight= 242, color= 3
	 item 76, weight= 242, color= 4
	 item 77, weight= 272, color= 0
	 item 78, weight= 272, color= 1
	 item 79, weight= 282, color= 1
	 item 80, weight= 284, color= 0
	 item 81, weight= 294, color= 2
	 item 82, weight= 308, color= 1
	 item 83, weight= 314, color= 0
	 item 84, weight= 340, color= 4
	 item 85, weight= 370, color= 2
	 item 86, weight= 372, color= 3
	 item 87, weight= 378, color= 0
	 item 88, weight= 382, color= 2
	 item 89, weight= 384, color= 2
	 item 90, weight= 409, color= 4
	 item 91, weight= 412, color= 4
	 item 92, weight= 418, color= 0
	 item 93, weight= 443, color= 2
	 item 94, weight= 447, color= 2
	 item 95, weight= 452, color= 4
	 item 96, weight= 462, color= 2
	 item 97, weight= 466, color= 3
	 item 98, weight= 469, color= 3
	 item 99, weight= 478, color= 1
	 item 100, weight= 494, color= 0
	 item 101, weight= 499, color= 4
	 item 102, weight= 500, color= 4
	 item 103, weight= 504, color= 0
	 item 104, weight= 522, color= 4
	 item 105, weight= 529, color= 0
	 item 106, weight= 543, color= 0
	 item 107, weight= 556, color= 0
	 item 108, weight= 558, color= 4
	 item 109, weight= 576, color= 0
	 item 110, weight= 601, color= 1
	 item 111, weight= 606, color= 4
	 item 112, weight= 619, color= 1
	 item 113, weight= 620, color= 1
	 item 114, weight= 634, color= 4
	 item 115, weight= 642, color= 1
	 item 116, weight= 667, color= 3
	 item 117, weight= 698, color= 3
	 item 118, weight= 700, color= 2
	 item 119, weight= 709, color= 4
	 item 120, weight= 734, color= 4
	 item 121, weight= 756, color= 0
	 item 122, weight= 767, color= 4
	 item 123, weight= 802, color= 4
	 item 124, weight= 817, color= 2
	 item 125, weight= 840, color= 4
	 item 126, weight= 846, color= 4
	 item 127, weight= 860, color= 3
	 item 128, weight= 877, color= 0
	 item 129, weight= 882, color= 4
	 item 130, weight= 988, color= 1
	 item 131, weight= 993, color= 2
	 item 132, weight= 1000, color= 1
	 item 133, weight= 1018, color= 4
	 item 134, weight= 1022, color= 1
	 item 135, weight= 1029, color= 1
	 item 136, weight= 1030, color= 2
	 item 137, weight= 1031, color= 1
	 item 138, weight= 1140, color= 4
	 item 139, weight= 1237, color= 2
	 item 140, weight= 1238, color= 3
	 item 141, weight= 1239, color= 4
	 item 142, weight= 1244, color= 0
	 item 143, weight= 1246, color= 0
	 item 144, weight= 1254, color= 3
	 item 145, weight= 1292, color= 2
	 item 146, weight= 1409, color= 1
	 item 147, weight= 1418, color= 0
	 item 148, weight= 1421, color= 3
	 item 149, weight= 1444, color= 4
	 item 150, weight= 1458, color= 1
	 item 151, weight= 1493, color= 2
	 item 152, weight= 1552, color= 4
	 item 153, weight= 1553, color= 3
	 item 154, weight= 1558, color= 1
	 item 155, weight= 1572, color= 0
	 item 156, weight= 1594, color= 3
	 item 157, weight= 1623, color= 4
	 item 158, weight= 1638, color= 2
	 item 159, weight= 1673, color= 2
	 item 160, weight= 1676, color= 0
	 item 161, weight= 1704, color= 0
	 item 162, weight= 1706, color= 1
	 item 163, weight= 1714, color= 1
	 item 164, weight= 1731, color= 2
	 item 165, weight= 1732, color= 2
	 item 166, weight= 1746, color= 1
	 item 167, weight= 1751, color= 3
	 item 168, weight= 1806, color= 3
	 item 169, weight= 1812, color= 0
	 item 170, weight= 1821, color= 0
	 item 171, weight= 1839, color= 3
	 item 172, weight= 1846, color= 4
	 item 173, weight= 1876, color= 4
	 item 174, weight= 1882, color= 3
	 item 175, weight= 1897, color= 1
	 item 176, weight= 1911, color= 1
	 item 177, weight= 1918, color= 0
	 item 178, weight= 1926, color= 1
	 item 179, weight= 1932, color= 1
	 item 180, weight= 1941, color= 1
	 item 181, weight= 1971, color= 1
	 item 182, weight= 1974, color= 1
	 item 183, weight= 1980, color= 1
	 item 184, weight= 1983, color= 2
	 item 185, weight= 1986, color= 1
	 item 186, weight= 2018, color= 4
	 item 187, weight= 2022, color= 2
	 item 188, weight= 2028, color= 2
	 item 189, weight= 2058, color= 2
	 item 190, weight= 2068, color= 1
	 item 191, weight= 2098, color= 0
	 item 192, weight= 2108, color= 0
	 item 193, weight= 2122, color= 1
	 item 194, weight= 2140, color= 2
	 item 195, weight= 2146, color= 1
	 item 196, weight= 2186, color= 1
	 item 197, weight= 2194, color= 3
	 item 198, weight= 2196, color= 1
	 item 199, weight= 2198, color= 3
	 item 200, weight= 2204, color= 3
	 item 201, weight= 2210, color= 1
	 item 202, weight= 2212, color= 2

VRPSolver warning: Interval set for resource 1 on source node (when source != sink) is ignored (by definition is [0.0,0.0])
[41m solve [00m
~~~~~~~~~~~~~~~~~~~~~~~~~~~~~~~~~~~~~~~~~~~~~~~~~~~~~~~~~~~~~~~~~~~~~~~~~~~~~~
VRPSolver v0.4.1, 24/03/2021. Web: vrpsolver.math.u-bordeaux.fr
Corresponds to the solver by Pessoa, Sadykov, Uchoa and Vanderbeck (2020)
Paper: dx.doi.org/10.1007/s10107-020-01523-z
USE THIS CODE ONLY FOR ACADEMIC PURPOSES AT YOUR OWN RISK
~~~~~~~~~~~~~~~~~~~~~~~~~~~~~~~~~~~~~~~~~~~~~~~~~~~~~~~~~~~~~~~~~~~~~~~~~~~~~~
BaPCod v053, 24/03/2021, © Inria Bordeaux, France
~~~~~~~~~~~~~~~~~~~~~~~~~~~~~~~~~~~~~~~~~~~~~~~~~~~~~~~~~~~~~~~~~~~~~~~~~~~~~~
VRPSolver parameters:
GlobalTimeLimit = 1800
MaxNbOfBBtreeNodeTreated = 100000
treeSearchStrategy = 1
RCSPstopCutGenTimeThresholdInPricing = 10
RCSPhardTimeThresholdInPricing = 20
RCSPnumberOfBucketsPerVertex = 2000
RCSPdynamicBucketSteps = 0
RCSPuseBidirectionalSearch = 1
RCSPapplyReducedCostFixing = 1
RCSPredCostFixingFalseGap = 0
RCSPmaxNumOfColsPerIteration = 100
RCSPmaxNumOfColsPerExactIteration = 100
RCSPheurLabelingStrategy = 4
StabilizationMinPhaseOfStage = 1
RCSPmaxNumOfLabelsInEnumeration = 100000
RCSPmaxNumOfEnumeratedSolutions = 1000000
RCSPmaxNumOfEnumSolutionsForMIP = 100000
RCSPinitNGneighbourhoodSize = 0
RCSPmaxNGneighbourhoodSize = 0
RCSPrankOneCutsMaxNumPerRound = 100
RCSPrankOneCutsMaxNumRows = -1
RCSPrankOneCutsMemoryType = 2
CutTailingOffThreshold = 0.02
CutTailingOffCounterThreshold = 3
SafeDualBoundScaleFactor = -1
StrongBranchingPhaseOneCandidatesNumber = 100
StrongBranchingPhaseOneTreeSizeEstimRatio = 0.3
StrongBranchingPhaseTwoCandidatesNumber = 1
StrongBranchingPhaseTwoTreeSizeEstimRatio = 0.1
MaxTimeForRestrictedMasterIpHeur = -1
DivingHeurUseDepthLimit = 0
MaxLDSbreadth = 3
MaxLDSdepth = 2
New model incumbent solution 1e+06, TIME = 0h0m0s3t = 3
Model is built TIME = 0h0m1s86t = 186
************************************************************************************************
**** BaB tree root node
**** Local DB = -1e+12, global bounds : [ -1e+12 , 1e+06 ], TIME = 0h0m1s86t = 186
**** 1 open nodes, 0 columns (0 active), 0 dyn. constrs. (0 active), 406 art. vars. (406 active)
************************************************************************************************
<DWph=2> <it= 10> <et=3.55> <Mt= 0.00> <Spt= 1.67> <nCl=1000> <DB=-13345131900.4870> <Mlp=227324326.9712> <PB=1000000> 
<DWph=2> <it= 20> <et=5.18> <Mt= 0.01> <Spt= 1.63> <nCl=1000> <DB=-7374307188.8679> <Mlp=210986782.4958> <PB=1000000> 
<DWph=2> <it= 30> <et=6.76> <Mt= 0.03> <Spt= 1.54> <nCl=1000> <DB=-5226996779.6577> <Mlp=192850174.4123> <PB=1000000> 
<DWph=2> <it= 40> <et=8.34> <Mt= 0.03> <Spt= 1.55> <nCl=1000> <DB=-3819499098.7162> <Mlp=174472657.9179> <PB=1000000> 
<DWph=2> <it= 50> <et=9.88> <Mt= 0.08> <Spt= 1.46> <nCl=1000> <DB=-2031953317.3353> <Mlp=151050003.4130> <PB=1000000> 
<DWph=2> <it= 60> <et=11.41> <Mt= 0.11> <Spt= 1.41> <nCl=1000> <DB=-1350534160.4129> <Mlp=123776598.7868> <PB=1000000> 
<DWph=2> <it= 70> <et=13.03> <Mt= 0.17> <Spt= 1.46> <nCl=1000> <DB=-623077709.1293> <Mlp=102600010.9528> <PB=1000000> 
<DWph=2> <it= 80> <et=14.85> <Mt= 0.20> <Spt= 1.61> <nCl=1000> <DB=-445928251.0967> <Mlp=90000014.2604> <PB=1000000> 
<DWph=2> <it= 90> <et=16.57> <Mt= 0.21> <Spt= 1.51> <nCl=1000> <DB=-250257470.7441> <Mlp=72435234.4833> <PB=1000000> 
<DWph=2> <it=100> <et=18.14> <Mt= 0.24> <Spt= 1.33> <nCl=1000> <DB=-236203596.6951> <Mlp=64028728.8528> <PB=1000000> 
<DWph=2> <it=110> <et=19.69> <Mt= 0.13> <Spt= 1.35> <nCl=1000> <DB=-195729893.9490> <Mlp=58539045.0900> <PB=1000000> 
<DWph=2> <it=120> <et=21.17> <Mt= 0.13> <Spt= 1.34> <nCl=1000> <DB=-175586196.9121> <Mlp=51600031.0547> <PB=1000000> 
<DWph=2> <it=130> <et=22.63> <Mt= 0.14> <Spt= 1.33> <nCl=1000> <DB=-179368671.3606> <Mlp=45861154.4654> <PB=1000000> 
<DWph=2> <it=140> <et=24.12> <Mt= 0.10> <Spt= 1.33> <nCl=1000> <DB=-174783279.5987> <Mlp=39122799.6245> <PB=1000000> 
<DWph=2> <it=150> <et=26.38> <Mt= 0.09> <Spt= 2.16> <nCl=939> <DB=-157077879.2787> <Mlp=   67.8179> <PB=1000000> 
<DWph=2> <it=160> <et=28.43> <Mt= 0.12> <Spt= 1.93> <nCl=998> <DB=   36.1508> <Mlp=   66.8284> <PB=1000000> 
<DWph=2> <it=170> <et=30.07> <Mt= 0.20> <Spt= 1.44> <nCl=931> <DB=   48.1366> <Mlp=   65.5883> <PB=1000000> 
<DWph=2> <it=180> <et=31.87> <Mt= 0.17> <Spt= 1.57> <nCl=776> <DB=   63.9076> <Mlp=   65.0544> <PB=1000000> 
<DWph=2> <it=190> <et=33.71> <Mt= 0.18> <Spt= 1.65> <nCl=937> <DB=   64.9406> <Mlp=   65.0019> <PB=1000000> 
<DWph=2> <it=200> <et=35.50> <Mt= 0.08> <Spt= 1.71> <nCl=544> <DB=   64.9969> <Mlp=   65.0002> <PB=1000000> 
<DWph=2> <it=204> <et=36.72> <Mt= 0.02> <Spt= 1.21> <nCl= 30> <DB=   65.0002> <Mlp=   65.0002> <PB=1000000> 
<DWph=1> <it=210> <et=38.00> <Mt= 0.03> <Spt= 1.24> <nCl=554> <DB=   64.9494> <Mlp=   65.0000> <PB=1000000> 
<DWph=1> <it=211> <et=38.43> <Mt= 0.00> <Spt= 0.42> <nCl=  0> <DB=   64.9997> <Mlp=   65.0000> <PB=1000000> 
<DWph=0> <it=212> <et=38.66> <Mt= 0.00> <Spt= 0.24> <nCl=  0> <DB=   64.9997> <Mlp=   65.0000> <PB=1000000> 
Reduced cost fixing for graph G_1... took 9.33 sec., 519951 buck. arcs remain (86.5% from prev., 38.1% from max.)
Run enumeration... took 0.12 sec. and not succeeded.
ColGenEvalAlg final dual bound: 64.9997 (rounded: 65)
----------- Diving heuristic started -----------
<DWph=2> <it=  1> <et=48.65> <Mt= 0.01> <Spt= 0.45> <nCl=  0> <DB=   65.0000> <Mlp=   65.0000> <PB=1000000> 
<DWph=1> <it=  2> <et=49.11> <Mt= 0.00> <Spt= 0.46> <nCl=  0> <DB=   64.9997> <Mlp=   65.0000> <PB=1000000> 
---- Diving heuristic node with dive number = 0, fix depth = 0 and tabu list size = 0
Fixed projected solution = [x_1_0_1_OspV=1, x_1_39_1_OspV=1, x_1_118_1_OspV=1, x_1_160_1_OspV=1]
<DWph=2> <it=  1> <et=49.58> <Mt= 0.00> <Spt= 0.40> <nCl=  0> <DB=   65.0000> <Mlp=   65.0000> <PB=1000000> 
<DWph=1> <it=  2> <et=50.03> <Mt= 0.00> <Spt= 0.45> <nCl=  0> <DB=   64.9997> <Mlp=   65.0000> <PB=1000000> 
---- Diving heuristic node with dive number = 0, fix depth = 0 and tabu list size = 0
Fixed projected solution = [x_1_0_1_OspV=1, x_1_71_1_OspV=1, x_1_132_1_OspV=1, x_1_142_1_OspV=1]
<DWph=2> <it=  1> <et=50.49> <Mt= 0.01> <Spt= 0.38> <nCl=  0> <DB=   65.0000> <Mlp=   65.0000> <PB=1000000> 
<DWph=1> <it=  2> <et=50.92> <Mt= 0.00> <Spt= 0.43> <nCl=  0> <DB=   64.9997> <Mlp=   65.0000> <PB=1000000> 
---- Diving heuristic node with dive number = 0, fix depth = 0 and tabu list size = 0
Fixed projected solution = [x_1_0_1_OspV=1, x_1_46_1_OspV=1, x_1_123_1_OspV=1, x_1_154_1_OspV=1]
<DWph=2> <it=  1> <et=51.36> <Mt= 0.00> <Spt= 0.37> <nCl=  0> <DB=   65.0000> <Mlp=   65.0000> <PB=1000000> 
<DWph=1> <it=  2> <et=51.79> <Mt= 0.00> <Spt= 0.42> <nCl=  0> <DB=   64.9998> <Mlp=   65.0000> <PB=1000000> 
---- Diving heuristic node with dive number = 0, fix depth = 0 and tabu list size = 0
Fixed projected solution = [x_1_0_1_OspV=1, x_1_41_1_OspV=1, x_1_104_1_OspV=1, x_1_172_1_OspV=1]
<DWph=2> <it=  1> <et=52.23> <Mt= 0.01> <Spt= 0.37> <nCl=  0> <DB=   65.0000> <Mlp=   65.0000> <PB=1000000> 
<DWph=1> <it=  2> <et=52.66> <Mt= 0.00> <Spt= 0.43> <nCl=  0> <DB=   64.9998> <Mlp=   65.0000> <PB=1000000> 
---- Diving heuristic node with dive number = 0, fix depth = 0 and tabu list size = 0
Fixed projected solution = [x_1_0_1_OspV=1, x_1_57_1_OspV=1, x_1_120_1_OspV=1, x_1_156_1_OspV=1]
<DWph=2> <it=  1> <et=53.09> <Mt= 0.00> <Spt= 0.37> <nCl=  0> <DB=   65.0000> <Mlp=   65.0000> <PB=1000000> 
<DWph=1> <it=  2> <et=53.52> <Mt= 0.00> <Spt= 0.43> <nCl=  0> <DB=   64.9998> <Mlp=   65.0000> <PB=1000000> 
---- Diving heuristic node with dive number = 0, fix depth = 0 and tabu list size = 0
Fixed projected solution = [x_1_0_1_OspV=1, x_1_33_1_OspV=1, x_1_93_1_OspV=1, x_1_180_1_OspV=1]
<DWph=2> <it=  1> <et=53.96> <Mt= 0.00> <Spt= 0.37> <nCl=  0> <DB=   65.0000> <Mlp=   65.0000> <PB=1000000> 
<DWph=1> <it=  2> <et=54.39> <Mt= 0.01> <Spt= 0.43> <nCl=  0> <DB=   64.9998> <Mlp=   65.0000> <PB=1000000> 
---- Diving heuristic node with dive number = 0, fix depth = 0 and tabu list size = 0
Fixed projected solution = [x_1_0_1_OspV=1, x_1_26_1_OspV=1, x_1_101_1_OspV=1, x_1_175_1_OspV=1]
<DWph=2> <it=  1> <et=54.83> <Mt= 0.00> <Spt= 0.37> <nCl=  0> <DB=   65.0000> <Mlp=   65.0000> <PB=1000000> 
<DWph=1> <it=  2> <et=55.26> <Mt= 0.00> <Spt= 0.42> <nCl=  0> <DB=   64.9998> <Mlp=   65.0000> <PB=1000000> 
---- Diving heuristic node with dive number = 0, fix depth = 0 and tabu list size = 0
Fixed projected solution = [x_1_0_1_OspV=1, x_1_44_1_OspV=1, x_1_106_1_OspV=1, x_1_170_1_OspV=1]
<DWph=2> <it=  1> <et=55.69> <Mt= 0.00> <Spt= 0.37> <nCl=  0> <DB=   65.0000> <Mlp=   65.0000> <PB=1000000> 
<DWph=1> <it=  2> <et=56.12> <Mt= 0.01> <Spt= 0.43> <nCl=  0> <DB=   64.9998> <Mlp=   65.0000> <PB=1000000> 
---- Diving heuristic node with dive number = 0, fix depth = 0 and tabu list size = 0
Fixed projected solution = [x_1_0_1_OspV=1, x_1_16_1_OspV=1, x_1_94_1_OspV=1, x_1_181_1_OspV=1]
<DWph=2> <it=  1> <et=56.56> <Mt= 0.00> <Spt= 0.37> <nCl=  0> <DB=   65.0000> <Mlp=   65.0000> <PB=1000000> 
<DWph=1> <it=  2> <et=56.99> <Mt= 0.00> <Spt= 0.43> <nCl=  0> <DB=   64.9998> <Mlp=   65.0000> <PB=1000000> 
---- Diving heuristic node with dive number = 0, fix depth = 0 and tabu list size = 0
Fixed projected solution = [x_1_0_1_OspV=1, x_1_63_1_OspV=1, x_1_128_1_OspV=1, x_1_148_1_OspV=1]
<DWph=2> <it=  1> <et=57.43> <Mt= 0.00> <Spt= 0.37> <nCl=  0> <DB=   65.0000> <Mlp=   65.0000> <PB=1000000> 
<DWph=1> <it=  2> <et=57.86> <Mt= 0.00> <Spt= 0.42> <nCl=  0> <DB=   64.9998> <Mlp=   65.0000> <PB=1000000> 
---- Diving heuristic node with dive number = 0, fix depth = 0 and tabu list size = 0
Fixed projected solution = [x_1_0_1_OspV=1, x_1_53_1_OspV=1, x_1_116_1_OspV=1, x_1_159_1_OspV=1]
<DWph=2> <it=  1> <et=58.29> <Mt= 0.01> <Spt= 0.37> <nCl=  0> <DB=   65.0000> <Mlp=   65.0000> <PB=1000000> 
<DWph=1> <it=  2> <et=58.77> <Mt= 0.00> <Spt= 0.48> <nCl=  0> <DB=   64.9998> <Mlp=   65.0000> <PB=1000000> 
---- Diving heuristic node with dive number = 0, fix depth = 0 and tabu list size = 0
Fixed projected solution = [x_1_0_1_OspV=1, x_1_62_1_OspV=1, x_1_129_1_OspV=1, x_1_147_1_OspV=1]
<DWph=2> <it=  1> <et=59.21> <Mt= 0.00> <Spt= 0.37> <nCl=  0> <DB=   65.0000> <Mlp=   65.0000> <PB=1000000> 
<DWph=1> <it=  2> <et=59.64> <Mt= 0.00> <Spt= 0.43> <nCl=  0> <DB=   64.9998> <Mlp=   65.0000> <PB=1000000> 
---- Diving heuristic node with dive number = 0, fix depth = 1 and tabu list size = 0
Fixed projected solution = [x_1_0_1_OspV=1, x_1_69_1_OspV=1, x_1_135_1_OspV=1, x_1_141_1_OspV=1]
<DWph=2> <it=  1> <et=60.07> <Mt= 0.01> <Spt= 0.37> <nCl=  0> <DB=   65.0000> <Mlp=   65.0000> <PB=1000000> 
<DWph=1> <it=  2> <et=60.50> <Mt= 0.00> <Spt= 0.42> <nCl=  0> <DB=   64.9998> <Mlp=   65.0000> <PB=1000000> 
---- Diving heuristic node with dive number = 0, fix depth = 2 and tabu list size = 0
Fixed projected solution = [x_1_0_1_OspV=1, x_1_27_1_OspV=1, x_1_125_1_OspV=1, x_1_152_1_OspV=1]
<DWph=2> <it=  1> <et=60.95> <Mt= 0.02> <Spt= 0.37> <nCl=  0> <DB=   65.0000> <Mlp=   65.0000> <PB=1000000> 
<DWph=1> <it=  2> <et=61.38> <Mt= 0.00> <Spt= 0.43> <nCl=  0> <DB=   64.9998> <Mlp=   65.0000> <PB=1000000> 
---- Diving heuristic node with dive number = 0, fix depth = 3 and tabu list size = 0
Fixed projected solution = [x_1_0_1_OspV=1, x_1_58_1_OspV=1, x_1_122_1_OspV=1, x_1_153_1_OspV=1]
<DWph=2> <it=  1> <et=61.78> <Mt= 0.01> <Spt= 0.37> <nCl=  0> <DB=   65.0000> <Mlp=   65.0000> <PB=1000000> 
<DWph=1> <it=  2> <et=62.21> <Mt= 0.00> <Spt= 0.43> <nCl=  0> <DB=   64.9998> <Mlp=   65.0000> <PB=1000000> 
---- Diving heuristic node with dive number = 0, fix depth = 4 and tabu list size = 0
Fixed projected solution = [x_1_0_1_OspV=1, x_1_22_1_OspV=1, x_1_131_1_OspV=1, x_1_146_1_OspV=1]
<DWph=2> <it=  1> <et=62.61> <Mt= 0.01> <Spt= 0.37> <nCl=  0> <DB=   65.0000> <Mlp=   65.0000> <PB=1000000> 
<DWph=1> <it=  2> <et=63.04> <Mt= 0.00> <Spt= 0.42> <nCl=  0> <DB=   64.9998> <Mlp=   65.0000> <PB=1000000> 
---- Diving heuristic node with dive number = 0, fix depth = 5 and tabu list size = 0
Fixed projected solution = [x_1_0_1_OspV=1, x_1_49_1_OspV=1, x_1_110_1_OspV=1, x_1_167_1_OspV=1]
<DWph=2> <it=  1> <et=63.45> <Mt= 0.03> <Spt= 0.37> <nCl=  0> <DB=   65.0000> <Mlp=   65.0000> <PB=1000000> 
<DWph=1> <it=  2> <et=63.87> <Mt= 0.00> <Spt= 0.43> <nCl=  0> <DB=   64.9998> <Mlp=   65.0000> <PB=1000000> 
---- Diving heuristic node with dive number = 0, fix depth = 6 and tabu list size = 0
Fixed projected solution = [x_1_0_1_OspV=1, x_1_68_1_OspV=1, x_1_137_1_OspV=1, x_1_139_1_OspV=1]
<DWph=2> <it=  1> <et=64.27> <Mt= 0.01> <Spt= 0.37> <nCl=  0> <DB=   65.0000> <Mlp=   65.0000> <PB=1000000> 
<DWph=1> <it=  2> <et=64.70> <Mt= 0.00> <Spt= 0.43> <nCl=  0> <DB=   64.9998> <Mlp=   65.0000> <PB=1000000> 
---- Diving heuristic node with dive number = 0, fix depth = 7 and tabu list size = 0
Fixed projected solution = [x_1_0_1_OspV=1, x_1_1_1_OspV=1, x_1_99_1_OspV=1, x_1_185_1_OspV=1]
<DWph=2> <it=  1> <et=65.10> <Mt= 0.01> <Spt= 0.37> <nCl=  0> <DB=   65.0000> <Mlp=   65.0000> <PB=1000000> 
<DWph=1> <it=  2> <et=65.53> <Mt= 0.00> <Spt= 0.43> <nCl=  0> <DB=   64.9998> <Mlp=   65.0000> <PB=1000000> 
---- Diving heuristic node with dive number = 0, fix depth = 8 and tabu list size = 0
Fixed projected solution = [x_1_0_1_OspV=1, x_1_67_1_OspV=1, x_1_134_1_OspV=1, x_1_143_1_OspV=1]
<DWph=2> <it=  1> <et=65.95> <Mt= 0.03> <Spt= 0.36> <nCl=  0> <DB=   65.0000> <Mlp=   65.0000> <PB=1000000> 
<DWph=1> <it=  2> <et=66.38> <Mt= 0.00> <Spt= 0.43> <nCl=  0> <DB=   64.9998> <Mlp=   65.0000> <PB=1000000> 
---- Diving heuristic node with dive number = 0, fix depth = 8 and tabu list size = 0
Fixed projected solution = [x_1_0_1_OspV=1, x_1_10_1_OspV=1, x_1_127_1_OspV=1, x_1_155_1_OspV=1]
<DWph=2> <it=  1> <et=66.77> <Mt= 0.01> <Spt= 0.37> <nCl=  0> <DB=   65.0000> <Mlp=   65.0000> <PB=1000000> 
<DWph=1> <it=  2> <et=67.24> <Mt= 0.00> <Spt= 0.47> <nCl=  0> <DB=   64.9998> <Mlp=   65.0000> <PB=1000000> 
---- Diving heuristic node with dive number = 0, fix depth = 9 and tabu list size = 0
Fixed projected solution = [x_1_0_1_OspV=1, x_1_51_1_OspV=1, x_1_56_1_OspV=1, x_1_200_1_OspV=1]
<DWph=2> <it=  1> <et=67.66> <Mt= 0.03> <Spt= 0.37> <nCl=  0> <DB=   65.0000> <Mlp=   65.0000> <PB=1000000> 
<DWph=1> <it=  2> <et=68.09> <Mt= 0.00> <Spt= 0.43> <nCl=  0> <DB=   64.9998> <Mlp=   65.0000> <PB=1000000> 
---- Diving heuristic node with dive number = 0, fix depth = 10 and tabu list size = 0
Fixed projected solution = [x_1_0_1_OspV=1, x_1_42_1_OspV=1, x_1_105_1_OspV=1, x_1_171_1_OspV=1]
<DWph=2> <it=  1> <et=68.49> <Mt= 0.01> <Spt= 0.37> <nCl=  0> <DB=   65.0000> <Mlp=   65.0000> <PB=1000000> 
<DWph=1> <it=  2> <et=68.92> <Mt= 0.00> <Spt= 0.43> <nCl=  0> <DB=   64.9998> <Mlp=   65.0000> <PB=1000000> 
---- Diving heuristic node with dive number = 0, fix depth = 11 and tabu list size = 0
Fixed projected solution = [x_1_0_1_OspV=1, x_1_18_1_OspV=1, x_1_82_1_OspV=1, x_1_192_1_OspV=1]
<DWph=2> <it=  1> <et=69.34> <Mt= 0.04> <Spt= 0.37> <nCl=  0> <DB=   65.0000> <Mlp=   65.0000> <PB=1000000> 
<DWph=1> <it=  2> <et=69.77> <Mt= 0.00> <Spt= 0.42> <nCl=  0> <DB=   64.9998> <Mlp=   65.0000> <PB=1000000> 
---- Diving heuristic node with dive number = 0, fix depth = 12 and tabu list size = 0
Fixed projected solution = [x_1_0_1_OspV=1, x_1_24_1_OspV=1, x_1_88_1_OspV=1, x_1_186_1_OspV=1]
<DWph=2> <it=  1> <et=70.19> <Mt= 0.03> <Spt= 0.37> <nCl=  0> <DB=   65.0000> <Mlp=   65.0000> <PB=1000000> 
<DWph=1> <it=  2> <et=70.62> <Mt= 0.00> <Spt= 0.43> <nCl=  0> <DB=   64.9998> <Mlp=   65.0000> <PB=1000000> 
---- Diving heuristic node with dive number = 0, fix depth = 13 and tabu list size = 0
Fixed projected solution = [x_1_0_1_OspV=1, x_1_61_1_OspV=1, x_1_126_1_OspV=1, x_1_150_1_OspV=1]
<DWph=2> <it=  1> <et=71.05> <Mt= 0.05> <Spt= 0.37> <nCl=  0> <DB=   65.0000> <Mlp=   65.0000> <PB=1000000> 
<DWph=1> <it=  2> <et=71.48> <Mt= 0.00> <Spt= 0.43> <nCl=  0> <DB=   64.9998> <Mlp=   65.0000> <PB=1000000> 
---- Diving heuristic node with dive number = 0, fix depth = 14 and tabu list size = 0
Fixed projected solution = [x_1_0_1_OspV=1, x_1_23_1_OspV=1, x_1_86_1_OspV=1, x_1_188_1_OspV=1]
<DWph=2> <it=  1> <et=71.90> <Mt= 0.04> <Spt= 0.37> <nCl=  0> <DB=   65.0000> <Mlp=   65.0000> <PB=1000000> 
<DWph=1> <it=  2> <et=72.33> <Mt= 0.00> <Spt= 0.43> <nCl=  0> <DB=   64.9998> <Mlp=   65.0000> <PB=1000000> 
---- Diving heuristic node with dive number = 0, fix depth = 15 and tabu list size = 0
Fixed projected solution = [x_1_0_1_OspV=1, x_1_25_1_OspV=1, x_1_87_1_OspV=1, x_1_187_1_OspV=1]
<DWph=2> <it=  2> <et=72.93> <Mt= 0.06> <Spt= 0.52> <nCl=200> <DB=   64.9436> <Mlp=   65.0000> <PB=1000000> 
<DWph=1> <it=  5> <et=73.92> <Mt= 0.00> <Spt= 0.95> <nCl=200> <DB=   64.9998> <Mlp=   65.0000> <PB=1000000> 
---- Diving heuristic node with dive number = 0, fix depth = 16 and tabu list size = 0
Fixed projected solution = [x_1_0_1_OspV=1, x_1_21_1_OspV=1, x_1_84_1_OspV=1, x_1_190_1_OspV=1]
<DWph=2> <it=  7> <et=75.57> <Mt= 0.10> <Spt= 1.54> <nCl=600> <DB=   65.0000> <Mlp=   65.0000> <PB=1000000> 
<DWph=1> <it=  8> <et=76.21> <Mt= 0.00> <Spt= 0.64> <nCl=  0> <DB=   64.9998> <Mlp=   65.0000> <PB=1000000> 
---- Diving heuristic node with dive number = 0, fix depth = 16 and tabu list size = 0
Fixed projected solution = [x_1_0_1_OspV=1, x_1_36_1_OspV=1, x_1_98_1_OspV=1, x_1_176_1_OspV=1]
<DWph=2> <it=  1> <et=76.78> <Mt= 0.00> <Spt= 0.55> <nCl=  0> <DB=   65.0000> <Mlp=   65.0000> <PB=1000000> 
<DWph=1> <it=  2> <et=77.21> <Mt= 0.00> <Spt= 0.43> <nCl=  0> <DB=   64.9998> <Mlp=   65.0000> <PB=1000000> 
---- Diving heuristic node with dive number = 0, fix depth = 17 and tabu list size = 0
Fixed projected solution = [x_1_0_1_OspV=1, x_1_34_1_OspV=1, x_1_95_1_OspV=1, x_1_179_1_OspV=1]
<DWph=2> <it= 10> <et=79.02> <Mt= 0.12> <Spt= 1.68> <nCl=1000> <DB=   64.9753> <Mlp=   65.0000> <PB=1000000> 
<DWph=2> <it= 16> <et=80.79> <Mt= 0.02> <Spt= 1.75> <nCl=500> <DB=   65.0000> <Mlp=   65.0000> <PB=1000000> 
<DWph=1> <it= 17> <et=81.65> <Mt= 0.00> <Spt= 0.85> <nCl=  0> <DB=   64.9998> <Mlp=   65.0000> <PB=1000000> 
---- Diving heuristic node with dive number = 0, fix depth = 18 and tabu list size = 0
Fixed projected solution = [x_1_0_1_OspV=1, x_1_13_1_OspV=1, x_1_75_1_OspV=1, x_1_196_1_OspV=1]
<DWph=2> <it=  1> <et=82.27> <Mt= 0.06> <Spt= 0.55> <nCl=  0> <DB=   65.0000> <Mlp=   65.0000> <PB=1000000> 
<DWph=1> <it=  2> <et=82.91> <Mt= 0.00> <Spt= 0.64> <nCl=  0> <DB=   64.9998> <Mlp=   65.0000> <PB=1000000> 
---- Diving heuristic node with dive number = 0, fix depth = 19 and tabu list size = 0
Fixed projected solution = [x_1_0_1_OspV=1, x_1_30_1_OspV=1, x_1_90_1_OspV=1, x_1_184_1_OspV=1]
<DWph=2> <it=  3> <et=83.91> <Mt= 0.09> <Spt= 0.88> <nCl=200> <DB=   65.0000> <Mlp=   65.0000> <PB=1000000> 
<DWph=1> <it=  4> <et=84.34> <Mt= 0.00> <Spt= 0.43> <nCl=  0> <DB=   64.9998> <Mlp=   65.0000> <PB=1000000> 
---- Diving heuristic node with dive number = 0, fix depth = 20 and tabu list size = 0
Fixed projected solution = [x_1_0_1_OspV=1, x_1_28_1_OspV=1, x_1_81_1_OspV=1, x_1_191_1_OspV=1]
<DWph=2> <it=  5> <et=85.66> <Mt= 0.11> <Spt= 1.20> <nCl=318> <DB=   65.0000> <Mlp=   65.0000> <PB=1000000> 
<DWph=1> <it=  6> <et=86.31> <Mt= 0.00> <Spt= 0.64> <nCl=  0> <DB=   64.9998> <Mlp=   65.0000> <PB=1000000> 
---- Diving heuristic node with dive number = 0, fix depth = 21 and tabu list size = 0
Fixed projected solution = [x_1_0_1_OspV=1, x_1_6_1_OspV=1, x_1_119_1_OspV=1, x_1_164_1_OspV=1]
<DWph=2> <it= 10> <et=88.78> <Mt= 0.15> <Spt= 2.24> <nCl=900> <DB=   65.0000> <Mlp=   65.0000> <PB=1000000> 
<DWph=1> <it= 11> <et=89.42> <Mt= 0.00> <Spt= 0.64> <nCl=  0> <DB=   64.9998> <Mlp=   65.0000> <PB=1000000> 
---- Diving heuristic node with dive number = 0, fix depth = 21 and tabu list size = 0
Fixed projected solution = [x_1_0_1_OspV=1, x_1_50_1_OspV=1, x_1_55_1_OspV=1, x_1_201_1_OspV=1]
<DWph=2> <it=  1> <et=89.97> <Mt= 0.00> <Spt= 0.54> <nCl=  0> <DB=   65.0000> <Mlp=   65.0000> <PB=1000000> 
<DWph=1> <it=  2> <et=90.62> <Mt= 0.01> <Spt= 0.64> <nCl=  0> <DB=   64.9998> <Mlp=   65.0000> <PB=1000000> 
---- Diving heuristic node with dive number = 0, fix depth = 22 and tabu list size = 0
Fixed projected solution = [x_1_0_1_OspV=1, x_1_14_1_OspV=1, x_1_79_1_OspV=1, x_1_195_1_OspV=1]
<DWph=2> <it=  1> <et=91.02> <Mt= 0.02> <Spt= 0.36> <nCl=  0> <DB=   65.0000> <Mlp=   65.0000> <PB=1000000> 
<DWph=1> <it=  2> <et=91.45> <Mt= 0.00> <Spt= 0.43> <nCl=  0> <DB=   64.9998> <Mlp=   65.0000> <PB=1000000> 
---- Diving heuristic node with dive number = 0, fix depth = 23 and tabu list size = 0
Fixed projected solution = [x_1_0_1_OspV=1, x_1_78_1_OspV=1, x_1_121_1_OspV=1, x_1_149_1_OspV=1]
<DWph=2> <it=  4> <et=92.62> <Mt= 0.12> <Spt= 1.03> <nCl=300> <DB=   65.0000> <Mlp=   65.0000> <PB=1000000> 
<DWph=1> <it=  5> <et=93.27> <Mt= 0.00> <Spt= 0.65> <nCl=  0> <DB=   64.9998> <Mlp=   65.0000> <PB=1000000> 
---- Diving heuristic node with dive number = 0, fix depth = 24 and tabu list size = 0
Fixed projected solution = [x_1_0_1_OspV=1, x_1_15_1_OspV=1, x_1_80_1_OspV=1, x_1_194_1_OspV=1]
<DWph=2> <it=  2> <et=94.07> <Mt= 0.08> <Spt= 0.70> <nCl=100> <DB=   65.0000> <Mlp=   65.0000> <PB=1000000> 
<DWph=1> <it=  3> <et=94.51> <Mt= 0.01> <Spt= 0.43> <nCl=  0> <DB=   64.9998> <Mlp=   65.0000> <PB=1000000> 
---- Diving heuristic node with dive number = 0, fix depth = 25 and tabu list size = 0
Fixed projected solution = [x_1_0_1_OspV=1, x_1_65_1_OspV=1, x_1_108_1_OspV=1, x_1_163_1_OspV=1]
<DWph=2> <it=  7> <et=96.31> <Mt= 0.17> <Spt= 1.52> <nCl=600> <DB=   65.0000> <Mlp=   65.0000> <PB=1000000> 
<DWph=1> <it=  8> <et=96.95> <Mt= 0.00> <Spt= 0.64> <nCl=  0> <DB=   64.9998> <Mlp=   65.0000> <PB=1000000> 
---- Diving heuristic node with dive number = 0, fix depth = 26 and tabu list size = 0
Fixed projected solution = [x_1_0_1_OspV=1, x_1_11_1_OspV=1, x_1_85_1_OspV=1, x_1_189_1_OspV=1]
<DWph=2> <it=  4> <et=98.08> <Mt= 0.06> <Spt= 1.05> <nCl=216> <DB=   65.0000> <Mlp=   65.0000> <PB=1000000> 
<DWph=1> <it=  5> <et=98.72> <Mt= 0.00> <Spt= 0.64> <nCl=  0> <DB=   64.9998> <Mlp=   65.0000> <PB=1000000> 
---- Diving heuristic node with dive number = 0, fix depth = 27 and tabu list size = 0
Fixed projected solution = [x_1_0_1_OspV=1, x_1_109_1_OspV=1, x_1_115_1_OspV=1, x_1_144_1_OspV=1]
<DWph=2> <it=  6> <et=100.17> <Mt= 0.09> <Spt= 1.34> <nCl=436> <DB=   65.0000> <Mlp=   65.0000> <PB=1000000> 
<DWph=1> <it=  7> <et=100.80> <Mt= 0.00> <Spt= 0.62> <nCl=  0> <DB=   64.9998> <Mlp=   65.0000> <PB=1000000> 
---- Diving heuristic node with dive number = 0, fix depth = 28 and tabu list size = 0
Fixed projected solution = [x_1_0_1_OspV=1, x_1_35_1_OspV=1, x_1_114_1_OspV=1, x_1_166_1_OspV=1]
<DWph=2> <it=  1> <et=101.36> <Mt= 0.02> <Spt= 0.52> <nCl=  0> <DB=   65.0000> <Mlp=   65.0000> <PB=1000000> 
<DWph=1> <it=  2> <et=101.78> <Mt= 0.00> <Spt= 0.42> <nCl=  0> <DB=   64.9998> <Mlp=   65.0000> <PB=1000000> 
---- Diving heuristic node with dive number = 0, fix depth = 28 and tabu list size = 0
Fixed projected solution = [x_1_0_1_OspV=1, x_1_54_1_OspV=1, x_1_117_1_OspV=1, x_1_158_1_OspV=1]
<DWph=2> <it=  1> <et=102.15> <Mt= 0.01> <Spt= 0.35> <nCl=  0> <DB=   65.0000> <Mlp=   65.0000> <PB=1000000> 
<DWph=1> <it=  2> <et=102.57> <Mt= 0.00> <Spt= 0.41> <nCl=  0> <DB=   64.9998> <Mlp=   65.0000> <PB=1000000> 
---- Diving heuristic node with dive number = 0, fix depth = 29 and tabu list size = 0
Fixed projected solution = [x_1_0_1_OspV=1, x_1_37_1_OspV=1, x_1_100_1_OspV=1, x_1_174_1_OspV=1]
<DWph=2> <it=  3> <et=103.53> <Mt= 0.10> <Spt= 0.85> <nCl=200> <DB=   65.0000> <Mlp=   65.0000> <PB=1000000> 
<DWph=1> <it=  4> <et=103.96> <Mt= 0.00> <Spt= 0.42> <nCl=  0> <DB=   64.9998> <Mlp=   65.0000> <PB=1000000> 
---- Diving heuristic node with dive number = 0, fix depth = 30 and tabu list size = 0
Fixed projected solution = [x_1_0_1_OspV=1, x_1_32_1_OspV=1, x_1_97_1_OspV=1, x_1_177_1_OspV=1]
<DWph=2> <it=  2> <et=104.78> <Mt= 0.10> <Spt= 0.70> <nCl=100> <DB=   65.0000> <Mlp=   65.0000> <PB=1000000> 
<DWph=1> <it=  3> <et=105.25> <Mt= 0.01> <Spt= 0.48> <nCl=  0> <DB=   64.9998> <Mlp=   65.0000> <PB=1000000> 
---- Diving heuristic node with dive number = 0, fix depth = 31 and tabu list size = 0
Fixed projected solution = [x_1_0_1_OspV=1, x_1_17_1_OspV=1, x_1_66_1_OspV=1, x_1_202_1_OspV=1]
<DWph=2> <it= 10> <et=107.81> <Mt= 0.30> <Spt= 2.22> <nCl=900> <DB=   65.0000> <Mlp=   65.0000> <PB=1000000> 
<DWph=1> <it= 11> <et=108.54> <Mt= 0.01> <Spt= 0.73> <nCl=  0> <DB=   64.9998> <Mlp=   65.0000> <PB=1000000> 
---- Diving heuristic node with dive number = 0, fix depth = 31 and tabu list size = 0
Fixed projected solution = [x_1_0_1_OspV=1, x_1_74_1_OspV=1, x_1_103_1_OspV=1, x_1_165_1_OspV=1]
<DWph=2> <it=  1> <et=109.13> <Mt= 0.00> <Spt= 0.56> <nCl=  0> <DB=   65.0000> <Mlp=   65.0000> <PB=1000000> 
<DWph=1> <it=  2> <et=109.77> <Mt= 0.00> <Spt= 0.64> <nCl=  0> <DB=   64.9998> <Mlp=   65.0000> <PB=1000000> 
---- Diving heuristic node with dive number = 0, fix depth = 31 and tabu list size = 0
Fixed projected solution = [x_1_0_1_OspV=1, x_1_7_1_OspV=1, x_1_96_1_OspV=1, x_1_182_1_OspV=1]
<DWph=2> <it=  1> <et=110.15> <Mt= 0.01> <Spt= 0.35> <nCl=  0> <DB=   65.0000> <Mlp=   65.0000> <PB=1000000> 
<DWph=1> <it=  2> <et=110.58> <Mt= 0.00> <Spt= 0.43> <nCl=  0> <DB=   64.9998> <Mlp=   65.0000> <PB=1000000> 
---- Diving heuristic node with dive number = 0, fix depth = 32 and tabu list size = 0
Fixed projected solution = [x_1_0_1_OspV=1, x_1_45_1_OspV=1, x_1_76_1_OspV=1, x_1_193_1_OspV=1]
<DWph=2> <it= 10> <et=112.20> <Mt= 0.20> <Spt= 1.32> <nCl=1000> <DB=-35332670.3160> <Mlp=   65.3551> <PB=1000000> 
<DWph=2> <it= 20> <et=113.73> <Mt= 0.05> <Spt= 1.48> <nCl=1000> <DB=   58.7110> <Mlp=   65.0625> <PB=1000000> 
