Application parameters:
  batch  =>  nothing
  instance  =>  "/IN/201_2500_DI_3.txt-Q5"
  ub  =>  1.0e6
  cfg  =>  "/CFG/BPP.cfg"
data = Colored Bin Packing dataset.
number of items = 202
number of colors = 5
capacity = 2456
Items : 
	 item 1, weight= 4, color= 1
	 item 2, weight= 8, color= 3
	 item 3, weight= 8, color= 4
	 item 4, weight= 16, color= 4
	 item 5, weight= 32, color= 3
	 item 6, weight= 36, color= 0
	 item 7, weight= 40, color= 0
	 item 8, weight= 40, color= 0
	 item 9, weight= 40, color= 4
	 item 10, weight= 44, color= 4
	 item 11, weight= 48, color= 1
	 item 12, weight= 48, color= 2
	 item 13, weight= 48, color= 3
	 item 14, weight= 48, color= 3
	 item 15, weight= 48, color= 4
	 item 16, weight= 52, color= 0
	 item 17, weight= 52, color= 2
	 item 18, weight= 56, color= 1
	 item 19, weight= 60, color= 3
	 item 20, weight= 64, color= 0
	 item 21, weight= 64, color= 2
	 item 22, weight= 64, color= 4
	 item 23, weight= 68, color= 0
	 item 24, weight= 68, color= 3
	 item 25, weight= 72, color= 2
	 item 26, weight= 76, color= 2
	 item 27, weight= 76, color= 2
	 item 28, weight= 76, color= 3
	 item 29, weight= 80, color= 4
	 item 30, weight= 84, color= 0
	 item 31, weight= 86, color= 0
	 item 32, weight= 86, color= 3
	 item 33, weight= 88, color= 0
	 item 34, weight= 88, color= 0
	 item 35, weight= 88, color= 1
	 item 36, weight= 88, color= 1
	 item 37, weight= 92, color= 0
	 item 38, weight= 92, color= 4
	 item 39, weight= 96, color= 1
	 item 40, weight= 104, color= 1
	 item 41, weight= 104, color= 2
	 item 42, weight= 104, color= 4
	 item 43, weight= 104, color= 4
	 item 44, weight= 108, color= 0
	 item 45, weight= 112, color= 3
	 item 46, weight= 112, color= 3
	 item 47, weight= 112, color= 4
	 item 48, weight= 120, color= 3
	 item 49, weight= 122, color= 3
	 item 50, weight= 128, color= 3
	 item 51, weight= 128, color= 4
	 item 52, weight= 132, color= 4
	 item 53, weight= 140, color= 3
	 item 54, weight= 142, color= 0
	 item 55, weight= 142, color= 4
	 item 56, weight= 144, color= 2
	 item 57, weight= 144, color= 4
	 item 58, weight= 150, color= 0
	 item 59, weight= 156, color= 0
	 item 60, weight= 164, color= 4
	 item 61, weight= 172, color= 3
	 item 62, weight= 174, color= 0
	 item 63, weight= 174, color= 3
	 item 64, weight= 176, color= 0
	 item 65, weight= 184, color= 4
	 item 66, weight= 200, color= 1
	 item 67, weight= 204, color= 0
	 item 68, weight= 204, color= 1
	 item 69, weight= 204, color= 4
	 item 70, weight= 214, color= 2
	 item 71, weight= 220, color= 0
	 item 72, weight= 226, color= 3
	 item 73, weight= 232, color= 1
	 item 74, weight= 236, color= 2
	 item 75, weight= 242, color= 0
	 item 76, weight= 262, color= 2
	 item 77, weight= 272, color= 2
	 item 78, weight= 280, color= 3
	 item 79, weight= 284, color= 0
	 item 80, weight= 292, color= 3
	 item 81, weight= 314, color= 4
	 item 82, weight= 322, color= 3
	 item 83, weight= 349, color= 2
	 item 84, weight= 354, color= 2
	 item 85, weight= 356, color= 3
	 item 86, weight= 364, color= 2
	 item 87, weight= 384, color= 1
	 item 88, weight= 387, color= 3
	 item 89, weight= 389, color= 3
	 item 90, weight= 394, color= 3
	 item 91, weight= 425, color= 3
	 item 92, weight= 435, color= 1
	 item 93, weight= 436, color= 0
	 item 94, weight= 439, color= 1
	 item 95, weight= 444, color= 3
	 item 96, weight= 446, color= 1
	 item 97, weight= 467, color= 1
	 item 98, weight= 474, color= 2
	 item 99, weight= 478, color= 4
	 item 100, weight= 497, color= 4
	 item 101, weight= 512, color= 0
	 item 102, weight= 524, color= 3
	 item 103, weight= 530, color= 3
	 item 104, weight= 531, color= 2
	 item 105, weight= 541, color= 3
	 item 106, weight= 548, color= 3
	 item 107, weight= 568, color= 4
	 item 108, weight= 574, color= 0
	 item 109, weight= 596, color= 3
	 item 110, weight= 607, color= 4
	 item 111, weight= 621, color= 4
	 item 112, weight= 650, color= 2
	 item 113, weight= 650, color= 3
	 item 114, weight= 668, color= 2
	 item 115, weight= 678, color= 2
	 item 116, weight= 705, color= 1
	 item 117, weight= 715, color= 4
	 item 118, weight= 719, color= 2
	 item 119, weight= 724, color= 3
	 item 120, weight= 742, color= 1
	 item 121, weight= 751, color= 4
	 item 122, weight= 786, color= 1
	 item 123, weight= 833, color= 4
	 item 124, weight= 840, color= 4
	 item 125, weight= 842, color= 1
	 item 126, weight= 844, color= 3
	 item 127, weight= 863, color= 4
	 item 128, weight= 873, color= 4
	 item 129, weight= 877, color= 3
	 item 130, weight= 884, color= 3
	 item 131, weight= 916, color= 1
	 item 132, weight= 938, color= 0
	 item 133, weight= 976, color= 4
	 item 134, weight= 1020, color= 4
	 item 135, weight= 1021, color= 1
	 item 136, weight= 1022, color= 1
	 item 137, weight= 1023, color= 2
	 item 138, weight= 1142, color= 0
	 item 139, weight= 1229, color= 0
	 item 140, weight= 1230, color= 3
	 item 141, weight= 1231, color= 0
	 item 142, weight= 1236, color= 4
	 item 143, weight= 1238, color= 0
	 item 144, weight= 1334, color= 1
	 item 145, weight= 1364, color= 1
	 item 146, weight= 1405, color= 4
	 item 147, weight= 1409, color= 1
	 item 148, weight= 1421, color= 1
	 item 149, weight= 1450, color= 2
	 item 150, weight= 1468, color= 1
	 item 151, weight= 1500, color= 1
	 item 152, weight= 1514, color= 3
	 item 153, weight= 1536, color= 1
	 item 154, weight= 1555, color= 2
	 item 155, weight= 1570, color= 1
	 item 156, weight= 1571, color= 2
	 item 157, weight= 1588, color= 2
	 item 158, weight= 1595, color= 1
	 item 159, weight= 1599, color= 1
	 item 160, weight= 1611, color= 1
	 item 161, weight= 1646, color= 0
	 item 162, weight= 1660, color= 1
	 item 163, weight= 1678, color= 4
	 item 164, weight= 1696, color= 1
	 item 165, weight= 1713, color= 3
	 item 166, weight= 1729, color= 3
	 item 167, weight= 1748, color= 0
	 item 168, weight= 1754, color= 0
	 item 169, weight= 1770, color= 1
	 item 170, weight= 1804, color= 3
	 item 171, weight= 1807, color= 3
	 item 172, weight= 1821, color= 2
	 item 173, weight= 1822, color= 3
	 item 174, weight= 1836, color= 3
	 item 175, weight= 1887, color= 3
	 item 176, weight= 1890, color= 4
	 item 177, weight= 1897, color= 3
	 item 178, weight= 1922, color= 1
	 item 179, weight= 1924, color= 0
	 item 180, weight= 1931, color= 2
	 item 181, weight= 1935, color= 3
	 item 182, weight= 1940, color= 4
	 item 183, weight= 1947, color= 4
	 item 184, weight= 1974, color= 0
	 item 185, weight= 1986, color= 2
	 item 186, weight= 1993, color= 3
	 item 187, weight= 2003, color= 4
	 item 188, weight= 2028, color= 2
	 item 189, weight= 2034, color= 4
	 item 190, weight= 2036, color= 1
	 item 191, weight= 2039, color= 4
	 item 192, weight= 2074, color= 2
	 item 193, weight= 2106, color= 4
	 item 194, weight= 2108, color= 3
	 item 195, weight= 2124, color= 1
	 item 196, weight= 2146, color= 0
	 item 197, weight= 2166, color= 1
	 item 198, weight= 2180, color= 4
	 item 199, weight= 2186, color= 2
	 item 200, weight= 2192, color= 4
	 item 201, weight= 2196, color= 0
	 item 202, weight= 2202, color= 1

VRPSolver warning: Interval set for resource 1 on source node (when source != sink) is ignored (by definition is [0.0,0.0])
[41m solve [00m
~~~~~~~~~~~~~~~~~~~~~~~~~~~~~~~~~~~~~~~~~~~~~~~~~~~~~~~~~~~~~~~~~~~~~~~~~~~~~~
VRPSolver v0.4.1, 24/03/2021. Web: vrpsolver.math.u-bordeaux.fr
Corresponds to the solver by Pessoa, Sadykov, Uchoa and Vanderbeck (2020)
Paper: dx.doi.org/10.1007/s10107-020-01523-z
USE THIS CODE ONLY FOR ACADEMIC PURPOSES AT YOUR OWN RISK
~~~~~~~~~~~~~~~~~~~~~~~~~~~~~~~~~~~~~~~~~~~~~~~~~~~~~~~~~~~~~~~~~~~~~~~~~~~~~~
BaPCod v053, 24/03/2021, © Inria Bordeaux, France
~~~~~~~~~~~~~~~~~~~~~~~~~~~~~~~~~~~~~~~~~~~~~~~~~~~~~~~~~~~~~~~~~~~~~~~~~~~~~~
VRPSolver parameters:
GlobalTimeLimit = 1800
MaxNbOfBBtreeNodeTreated = 100000
treeSearchStrategy = 1
RCSPstopCutGenTimeThresholdInPricing = 10
RCSPhardTimeThresholdInPricing = 20
RCSPnumberOfBucketsPerVertex = 2000
RCSPdynamicBucketSteps = 0
RCSPuseBidirectionalSearch = 1
RCSPapplyReducedCostFixing = 1
RCSPredCostFixingFalseGap = 0
RCSPmaxNumOfColsPerIteration = 100
RCSPmaxNumOfColsPerExactIteration = 100
RCSPheurLabelingStrategy = 4
StabilizationMinPhaseOfStage = 1
RCSPmaxNumOfLabelsInEnumeration = 100000
RCSPmaxNumOfEnumeratedSolutions = 1000000
RCSPmaxNumOfEnumSolutionsForMIP = 100000
RCSPinitNGneighbourhoodSize = 0
RCSPmaxNGneighbourhoodSize = 0
RCSPrankOneCutsMaxNumPerRound = 100
RCSPrankOneCutsMaxNumRows = -1
RCSPrankOneCutsMemoryType = 2
CutTailingOffThreshold = 0.02
CutTailingOffCounterThreshold = 3
SafeDualBoundScaleFactor = -1
StrongBranchingPhaseOneCandidatesNumber = 100
StrongBranchingPhaseOneTreeSizeEstimRatio = 0.3
StrongBranchingPhaseTwoCandidatesNumber = 1
StrongBranchingPhaseTwoTreeSizeEstimRatio = 0.1
MaxTimeForRestrictedMasterIpHeur = -1
DivingHeurUseDepthLimit = 0
MaxLDSbreadth = 3
MaxLDSdepth = 2
New model incumbent solution 1e+06, TIME = 0h0m0s3t = 3
Model is built TIME = 0h0m1s90t = 190
************************************************************************************************
**** BaB tree root node
**** Local DB = -1e+12, global bounds : [ -1e+12 , 1e+06 ], TIME = 0h0m1s90t = 190
**** 1 open nodes, 0 columns (0 active), 0 dyn. constrs. (0 active), 406 art. vars. (406 active)
************************************************************************************************
<DWph=2> <it= 10> <et=3.89> <Mt= 0.00> <Spt= 1.97> <nCl=1000> <DB=-13887509837.8186> <Mlp=232708188.0132> <PB=1000000> 
<DWph=2> <it= 20> <et=5.63> <Mt= 0.01> <Spt= 1.73> <nCl=1000> <DB=-8518544047.7974> <Mlp=215153145.9782> <PB=1000000> 
<DWph=2> <it= 30> <et=7.43> <Mt= 0.03> <Spt= 1.77> <nCl=1000> <DB=-5381032060.8318> <Mlp=194301092.2974> <PB=1000000> 
<DWph=2> <it= 40> <et=9.19> <Mt= 0.03> <Spt= 1.73> <nCl=1000> <DB=-3681108372.3366> <Mlp=173668141.4224> <PB=1000000> 
<DWph=2> <it= 50> <et=10.85> <Mt= 0.06> <Spt= 1.59> <nCl=1000> <DB=-1806052393.2934> <Mlp=148333337.1421> <PB=1000000> 
<DWph=2> <it= 60> <et=12.48> <Mt= 0.10> <Spt= 1.54> <nCl=1000> <DB=-1082210181.2210> <Mlp=126792166.0831> <PB=1000000> 
<DWph=2> <it= 70> <et=14.11> <Mt= 0.13> <Spt= 1.50> <nCl=1000> <DB=-635993060.0060> <Mlp=103858887.8112> <PB=1000000> 
<DWph=2> <it= 80> <et=15.75> <Mt= 0.13> <Spt= 1.51> <nCl=1000> <DB=-409879291.3231> <Mlp=90600014.4078> <PB=1000000> 
<DWph=2> <it= 90> <et=17.50> <Mt= 0.15> <Spt= 1.58> <nCl=1000> <DB=-445022611.6691> <Mlp=79270634.5587> <PB=1000000> 
<DWph=2> <it=100> <et=19.20> <Mt= 0.20> <Spt= 1.51> <nCl=1000> <DB=-948218985.6580> <Mlp=72666465.7058> <PB=1000000> 
<DWph=2> <it=110> <et=20.94> <Mt= 0.12> <Spt= 1.54> <nCl=1000> <DB=-241801851.9299> <Mlp=70885854.1111> <PB=1000000> 
<DWph=2> <it=120> <et=22.58> <Mt= 0.14> <Spt= 1.49> <nCl=1000> <DB=-339751490.7720> <Mlp=65579302.7560> <PB=1000000> 
<DWph=2> <it=130> <et=24.17> <Mt= 0.13> <Spt= 1.46> <nCl=1000> <DB=-185969705.4864> <Mlp=62557333.9133> <PB=1000000> 
<DWph=2> <it=140> <et=25.87> <Mt= 0.11> <Spt= 1.54> <nCl=1000> <DB=-179912871.6422> <Mlp=55784858.2806> <PB=1000000> 
<DWph=2> <it=150> <et=27.44> <Mt= 0.13> <Spt= 1.43> <nCl=1000> <DB=-177216115.0228> <Mlp=44825103.6329> <PB=1000000> 
<DWph=2> <it=160> <et=29.01> <Mt= 0.15> <Spt= 1.42> <nCl=1000> <DB=-178482619.7287> <Mlp=28062671.8550> <PB=1000000> 
<DWph=2> <it=170> <et=30.62> <Mt= 0.12> <Spt= 1.44> <nCl=1000> <DB=-176052980.9598> <Mlp=13501033.4428> <PB=1000000> 
<DWph=2> <it=180> <et=33.75> <Mt= 0.07> <Spt= 3.05> <nCl=1000> <DB=   -0.5821> <Mlp=   66.2363> <PB=1000000> 
<DWph=2> <it=190> <et=35.40> <Mt= 0.07> <Spt= 1.58> <nCl=1000> <DB=   36.7832> <Mlp=   65.7958> <PB=1000000> 
<DWph=2> <it=200> <et=37.21> <Mt= 0.14> <Spt= 1.66> <nCl=1000> <DB=   60.0895> <Mlp=   65.2357> <PB=1000000> 
<DWph=2> <it=210> <et=39.13> <Mt= 0.16> <Spt= 1.71> <nCl=961> <DB=   63.9901> <Mlp=   65.0623> <PB=1000000> 
<DWph=2> <it=220> <et=41.09> <Mt= 0.17> <Spt= 1.78> <nCl=862> <DB=   64.7833> <Mlp=   65.0068> <PB=1000000> 
<DWph=2> <it=230> <et=43.01> <Mt= 0.11> <Spt= 1.80> <nCl=685> <DB=   64.9905> <Mlp=   65.0005> <PB=1000000> 
<DWph=2> <it=238> <et=44.88> <Mt= 0.04> <Spt= 1.84> <nCl=154> <DB=   65.0004> <Mlp=   65.0004> <PB=1000000> 
<DWph=1> <it=240> <et=45.32> <Mt= 0.02> <Spt= 0.42> <nCl=160> <DB=   64.9682> <Mlp=   65.0001> <PB=1000000> 
<DWph=1> <it=241> <et=45.74> <Mt= 0.00> <Spt= 0.42> <nCl=  0> <DB=   65.0000> <Mlp=   65.0000> <PB=1000000> 
<DWph=0> <it=242> <et=45.96> <Mt= 0.00> <Spt= 0.21> <nCl=  0> <DB=   65.0000> <Mlp=   65.0000> <PB=1000000> 
Reduced cost fixing for graph G_1... took 9.18 sec., 515741 buck. arcs remain (86.5% from prev., 38.1% from max.)
Run enumeration... took 0.12 sec. and not succeeded.
ColGenEvalAlg final dual bound: 65 (rounded: 65)
----------- Diving heuristic started -----------
<DWph=2> <it=  1> <et=55.33> <Mt= 0.01> <Spt= 0.00> <nCl=  0> <DB=   65.0000> <Mlp=   65.0000> <PB=1000000> 
<DWph=1> <it=  2> <et=55.33> <Mt= 0.00> <Spt= 0.00> <nCl=  0> <DB=   65.0000> <Mlp=   65.0000> <PB=1000000> 
---- Diving heuristic node with dive number = 0, fix depth = 0 and tabu list size = 0
Fixed projected solution = [x_1_0_1_OspV=1, x_1_32_1_OspV=1, x_1_94_1_OspV=1, x_1_180_1_OspV=1]
<DWph=2> <it=  1> <et=55.41> <Mt= 0.00> <Spt= 0.00> <nCl=  0> <DB=   65.0000> <Mlp=   65.0000> <PB=1000000> 
<DWph=1> <it=  2> <et=55.41> <Mt= 0.00> <Spt= 0.00> <nCl=  0> <DB=   65.0000> <Mlp=   65.0000> <PB=1000000> 
---- Diving heuristic node with dive number = 0, fix depth = 0 and tabu list size = 0
Fixed projected solution = [x_1_0_1_OspV=1, x_1_27_1_OspV=1, x_1_88_1_OspV=1, x_1_186_1_OspV=1]
<DWph=2> <it=  1> <et=55.47> <Mt= 0.00> <Spt= 0.00> <nCl=  0> <DB=   65.0000> <Mlp=   65.0000> <PB=1000000> 
<DWph=1> <it=  2> <et=55.47> <Mt= 0.01> <Spt= 0.00> <nCl=  0> <DB=   65.0000> <Mlp=   65.0000> <PB=1000000> 
---- Diving heuristic node with dive number = 0, fix depth = 0 and tabu list size = 0
Fixed projected solution = [x_1_0_1_OspV=1, x_1_44_1_OspV=1, x_1_105_1_OspV=1, x_1_171_1_OspV=1]
<DWph=2> <it=  1> <et=55.54> <Mt= 0.00> <Spt= 0.00> <nCl=  0> <DB=   65.0000> <Mlp=   65.0000> <PB=1000000> 
<DWph=1> <it=  2> <et=55.54> <Mt= 0.00> <Spt= 0.00> <nCl=  0> <DB=   65.0000> <Mlp=   65.0000> <PB=1000000> 
---- Diving heuristic node with dive number = 0, fix depth = 0 and tabu list size = 0
Fixed projected solution = [x_1_0_1_OspV=1, x_1_30_1_OspV=1, x_1_91_1_OspV=1, x_1_183_1_OspV=1]
<DWph=2> <it=  1> <et=55.60> <Mt= 0.00> <Spt= 0.00> <nCl=  0> <DB=   65.0000> <Mlp=   65.0000> <PB=1000000> 
<DWph=1> <it=  2> <et=55.61> <Mt= 0.00> <Spt= 0.00> <nCl=  0> <DB=   65.0000> <Mlp=   65.0000> <PB=1000000> 
---- Diving heuristic node with dive number = 0, fix depth = 0 and tabu list size = 0
Fixed projected solution = [x_1_0_1_OspV=1, x_1_25_1_OspV=1, x_1_100_1_OspV=1, x_1_175_1_OspV=1]
<DWph=2> <it=  1> <et=55.67> <Mt= 0.00> <Spt= 0.00> <nCl=  0> <DB=   65.0000> <Mlp=   65.0000> <PB=1000000> 
<DWph=1> <it=  2> <et=55.67> <Mt= 0.01> <Spt= 0.00> <nCl=  0> <DB=   65.0000> <Mlp=   65.0000> <PB=1000000> 
---- Diving heuristic node with dive number = 0, fix depth = 0 and tabu list size = 0
Fixed projected solution = [x_1_0_1_OspV=1, x_1_31_1_OspV=1, x_1_92_1_OspV=1, x_1_181_1_OspV=1]
<DWph=2> <it=  1> <et=55.74> <Mt= 0.00> <Spt= 0.00> <nCl=  0> <DB=   65.0000> <Mlp=   65.0000> <PB=1000000> 
<DWph=1> <it=  2> <et=55.74> <Mt= 0.00> <Spt= 0.00> <nCl=  0> <DB=   65.0000> <Mlp=   65.0000> <PB=1000000> 
---- Diving heuristic node with dive number = 0, fix depth = 1 and tabu list size = 0
Fixed projected solution = [x_1_0_1_OspV=1, x_1_38_1_OspV=1, x_1_97_1_OspV=1, x_1_177_1_OspV=1]
<DWph=2> <it=  1> <et=55.79> <Mt= 0.00> <Spt= 0.00> <nCl=  0> <DB=   65.0000> <Mlp=   65.0000> <PB=1000000> 
<DWph=1> <it=  2> <et=55.79> <Mt= 0.00> <Spt= 0.00> <nCl=  0> <DB=   65.0000> <Mlp=   65.0000> <PB=1000000> 
---- Diving heuristic node with dive number = 0, fix depth = 2 and tabu list size = 0
Fixed projected solution = [x_1_0_1_OspV=1, x_1_29_1_OspV=1, x_1_124_1_OspV=1, x_1_153_1_OspV=1]
<DWph=2> <it=  1> <et=55.86> <Mt= 0.01> <Spt= 0.00> <nCl=  0> <DB=   65.0000> <Mlp=   65.0000> <PB=1000000> 
<DWph=1> <it=  2> <et=55.86> <Mt= 0.00> <Spt= 0.00> <nCl=  0> <DB=   65.0000> <Mlp=   65.0000> <PB=1000000> 
---- Diving heuristic node with dive number = 0, fix depth = 3 and tabu list size = 0
Fixed projected solution = [x_1_0_1_OspV=1, x_1_68_1_OspV=1, x_1_137_1_OspV=1, x_1_139_1_OspV=1]
<DWph=2> <it=  1> <et=55.87> <Mt= 0.01> <Spt= 0.00> <nCl=  0> <DB=   65.0000> <Mlp=   65.0000> <PB=1000000> 
<DWph=1> <it=  2> <et=55.87> <Mt= 0.00> <Spt= 0.00> <nCl=  0> <DB=   65.0000> <Mlp=   65.0000> <PB=1000000> 
---- Diving heuristic node with dive number = 0, fix depth = 3 and tabu list size = 0
Fixed projected solution = [x_1_0_1_OspV=1, x_1_69_1_OspV=1, x_1_135_1_OspV=1, x_1_141_1_OspV=1]
<DWph=2> <it=  1> <et=55.88> <Mt= 0.00> <Spt= 0.00> <nCl=  0> <DB=   65.0000> <Mlp=   65.0000> <PB=1000000> 
<DWph=1> <it=  2> <et=55.88> <Mt= 0.00> <Spt= 0.00> <nCl=  0> <DB=   65.0000> <Mlp=   65.0000> <PB=1000000> 
---- Diving heuristic node with dive number = 0, fix depth = 4 and tabu list size = 0
Fixed projected solution = [x_1_0_1_OspV=1, x_1_63_1_OspV=1, x_1_128_1_OspV=1, x_1_147_1_OspV=1]
<DWph=2> <it=  1> <et=55.89> <Mt= 0.00> <Spt= 0.00> <nCl=  0> <DB=   65.0000> <Mlp=   65.0000> <PB=1000000> 
<DWph=1> <it=  2> <et=55.89> <Mt= 0.00> <Spt= 0.00> <nCl=  0> <DB=   65.0000> <Mlp=   65.0000> <PB=1000000> 
---- Diving heuristic node with dive number = 0, fix depth = 5 and tabu list size = 0
Fixed projected solution = [x_1_0_1_OspV=1, x_1_66_1_OspV=1, x_1_134_1_OspV=1, x_1_142_1_OspV=1]
<DWph=2> <it=  1> <et=55.93> <Mt= 0.04> <Spt= 0.00> <nCl=  0> <DB=   65.0000> <Mlp=   65.0000> <PB=1000000> 
<DWph=1> <it=  2> <et=55.93> <Mt= 0.00> <Spt= 0.00> <nCl=  0> <DB=   65.0000> <Mlp=   65.0000> <PB=1000000> 
---- Diving heuristic node with dive number = 0, fix depth = 5 and tabu list size = 0
Fixed projected solution = [x_1_0_1_OspV=1, x_1_19_1_OspV=1, x_1_82_1_OspV=1, x_1_192_1_OspV=1]
<DWph=2> <it=  1> <et=55.94> <Mt= 0.00> <Spt= 0.00> <nCl=  0> <DB=   65.0000> <Mlp=   65.0000> <PB=1000000> 
<DWph=1> <it=  2> <et=55.94> <Mt= 0.00> <Spt= 0.00> <nCl=  0> <DB=   65.0000> <Mlp=   65.0000> <PB=1000000> 
---- Diving heuristic node with dive number = 0, fix depth = 6 and tabu list size = 0
Fixed projected solution = [x_1_0_1_OspV=1, x_1_1_1_OspV=1, x_1_132_1_OspV=1, x_1_152_1_OspV=1]
<DWph=2> <it=  1> <et=55.97> <Mt= 0.02> <Spt= 0.00> <nCl=  0> <DB=   65.0000> <Mlp=   65.0000> <PB=1000000> 
<DWph=1> <it=  2> <et=55.97> <Mt= 0.00> <Spt= 0.00> <nCl=  0> <DB=   65.0000> <Mlp=   65.0000> <PB=1000000> 
---- Diving heuristic node with dive number = 0, fix depth = 7 and tabu list size = 0
Fixed projected solution = [x_1_0_1_OspV=1, x_1_15_1_OspV=1, x_1_75_1_OspV=1, x_1_197_1_OspV=1]
<DWph=2> <it=  1> <et=55.98> <Mt= 0.01> <Spt= 0.00> <nCl=  0> <DB=   65.0000> <Mlp=   65.0000> <PB=1000000> 
<DWph=1> <it=  2> <et=55.98> <Mt= 0.00> <Spt= 0.00> <nCl=  0> <DB=   65.0000> <Mlp=   65.0000> <PB=1000000> 
---- Diving heuristic node with dive number = 0, fix depth = 8 and tabu list size = 0
Fixed projected solution = [x_1_0_1_OspV=1, x_1_71_1_OspV=1, x_1_122_1_OspV=1, x_1_149_1_OspV=1]
<DWph=2> <it=  1> <et=56.00> <Mt= 0.01> <Spt= 0.00> <nCl=  0> <DB=   65.0000> <Mlp=   65.0000> <PB=1000000> 
<DWph=1> <it=  2> <et=56.00> <Mt= 0.00> <Spt= 0.00> <nCl=  0> <DB=   65.0000> <Mlp=   65.0000> <PB=1000000> 
---- Diving heuristic node with dive number = 0, fix depth = 9 and tabu list size = 0
Fixed projected solution = [x_1_0_1_OspV=1, x_1_6_1_OspV=1, x_1_81_1_OspV=1, x_1_193_1_OspV=1]
<DWph=2> <it=  1> <et=56.03> <Mt= 0.02> <Spt= 0.00> <nCl=  0> <DB=   65.0000> <Mlp=   65.0000> <PB=1000000> 
<DWph=1> <it=  2> <et=56.03> <Mt= 0.00> <Spt= 0.00> <nCl=  0> <DB=   65.0000> <Mlp=   65.0000> <PB=1000000> 
---- Diving heuristic node with dive number = 0, fix depth = 10 and tabu list size = 0
Fixed projected solution = [x_1_0_1_OspV=1, x_1_55_1_OspV=1, x_1_117_1_OspV=1, x_1_159_1_OspV=1]
<DWph=2> <it=  1> <et=56.05> <Mt= 0.01> <Spt= 0.00> <nCl=  0> <DB=   65.0000> <Mlp=   65.0000> <PB=1000000> 
<DWph=1> <it=  2> <et=56.05> <Mt= 0.00> <Spt= 0.00> <nCl=  0> <DB=   65.0000> <Mlp=   65.0000> <PB=1000000> 
---- Diving heuristic node with dive number = 0, fix depth = 11 and tabu list size = 0
Fixed projected solution = [x_1_0_1_OspV=1, x_1_67_1_OspV=1, x_1_136_1_OspV=1, x_1_140_1_OspV=1]
<DWph=2> <it=  1> <et=56.12> <Mt= 0.06> <Spt= 0.00> <nCl=  0> <DB=   65.0000> <Mlp=   65.0000> <PB=1000000> 
<DWph=1> <it=  2> <et=56.12> <Mt= 0.00> <Spt= 0.00> <nCl=  0> <DB=   65.0000> <Mlp=   65.0000> <PB=1000000> 
---- Diving heuristic node with dive number = 0, fix depth = 11 and tabu list size = 0
Fixed projected solution = [x_1_0_1_OspV=1, x_1_8_1_OspV=1, x_1_80_1_OspV=1, x_1_195_1_OspV=1]
<DWph=2> <it=  1> <et=56.12> <Mt= 0.00> <Spt= 0.00> <nCl=  0> <DB=   65.0000> <Mlp=   65.0000> <PB=1000000> 
<DWph=1> <it=  2> <et=56.13> <Mt= 0.00> <Spt= 0.00> <nCl=  0> <DB=   65.0000> <Mlp=   65.0000> <PB=1000000> 
---- Diving heuristic node with dive number = 0, fix depth = 12 and tabu list size = 0
Fixed projected solution = [x_1_0_1_OspV=1, x_1_10_1_OspV=1, x_1_87_1_OspV=1, x_1_188_1_OspV=1]
<DWph=2> <it=  1> <et=56.14> <Mt= 0.01> <Spt= 0.00> <nCl=  0> <DB=   65.0000> <Mlp=   65.0000> <PB=1000000> 
<DWph=1> <it=  2> <et=56.14> <Mt= 0.00> <Spt= 0.00> <nCl=  0> <DB=   65.0000> <Mlp=   65.0000> <PB=1000000> 
---- Diving heuristic node with dive number = 0, fix depth = 13 and tabu list size = 0
Fixed projected solution = [x_1_0_1_OspV=1, x_1_40_1_OspV=1, x_1_103_1_OspV=1, x_1_173_1_OspV=1]
<DWph=2> <it=  1> <et=56.17> <Mt= 0.02> <Spt= 0.00> <nCl=  0> <DB=   65.0000> <Mlp=   65.0000> <PB=1000000> 
<DWph=1> <it=  2> <et=56.17> <Mt= 0.00> <Spt= 0.00> <nCl=  0> <DB=   65.0000> <Mlp=   65.0000> <PB=1000000> 
---- Diving heuristic node with dive number = 0, fix depth = 14 and tabu list size = 0
Fixed projected solution = [x_1_0_1_OspV=1, x_1_50_1_OspV=1, x_1_112_1_OspV=1, x_1_163_1_OspV=1]
<DWph=2> <it=  1> <et=56.21> <Mt= 0.04> <Spt= 0.00> <nCl=  0> <DB=   65.0000> <Mlp=   65.0000> <PB=1000000> 
<DWph=1> <it=  2> <et=56.22> <Mt= 0.00> <Spt= 0.00> <nCl=  0> <DB=   65.0000> <Mlp=   65.0000> <PB=1000000> 
---- Diving heuristic node with dive number = 0, fix depth = 15 and tabu list size = 0
Fixed projected solution = [x_1_0_1_OspV=1, x_1_2_1_OspV=1, x_1_98_1_OspV=1, x_1_184_1_OspV=1]
<DWph=2> <it=  1> <et=56.27> <Mt= 0.05> <Spt= 0.00> <nCl=  0> <DB=   65.0000> <Mlp=   65.0000> <PB=1000000> 
<DWph=1> <it=  2> <et=56.27> <Mt= 0.00> <Spt= 0.00> <nCl=  0> <DB=   65.0000> <Mlp=   65.0000> <PB=1000000> 
---- Diving heuristic node with dive number = 0, fix depth = 15 and tabu list size = 0
Fixed projected solution = [x_1_0_1_OspV=1, x_1_34_1_OspV=1, x_1_99_1_OspV=1, x_1_176_1_OspV=1]
<DWph=2> <it=  1> <et=56.28> <Mt= 0.00> <Spt= 0.00> <nCl=  0> <DB=   65.0000> <Mlp=   65.0000> <PB=1000000> 
<DWph=1> <it=  2> <et=56.28> <Mt= 0.00> <Spt= 0.00> <nCl=  0> <DB=   65.0000> <Mlp=   65.0000> <PB=1000000> 
---- Diving heuristic node with dive number = 0, fix depth = 16 and tabu list size = 0
Fixed projected solution = [x_1_0_1_OspV=1, x_1_33_1_OspV=1, x_1_96_1_OspV=1, x_1_178_1_OspV=1]
<DWph=2> <it=  1> <et=56.31> <Mt= 0.03> <Spt= 0.00> <nCl=  0> <DB=   65.0000> <Mlp=   65.0000> <PB=1000000> 
<DWph=1> <it=  2> <et=56.31> <Mt= 0.00> <Spt= 0.00> <nCl=  0> <DB=   65.0000> <Mlp=   65.0000> <PB=1000000> 
---- Diving heuristic node with dive number = 0, fix depth = 17 and tabu list size = 0
Fixed projected solution = [x_1_0_1_OspV=1, x_1_78_1_OspV=1, x_1_125_1_OspV=1, x_1_144_1_OspV=1]
<DWph=2> <it=  1> <et=56.37> <Mt= 0.05> <Spt= 0.00> <nCl=  0> <DB=   65.0000> <Mlp=   65.0000> <PB=1000000> 
<DWph=1> <it=  2> <et=56.37> <Mt= 0.00> <Spt= 0.00> <nCl=  0> <DB=   65.0000> <Mlp=   65.0000> <PB=1000000> 
---- Diving heuristic node with dive number = 0, fix depth = 18 and tabu list size = 0
Fixed projected solution = [x_1_0_1_OspV=1, x_1_23_1_OspV=1, x_1_83_1_OspV=1, x_1_191_1_OspV=1]
<DWph=2> <it=  5> <et=57.23> <Mt= 0.08> <Spt= 0.77> <nCl=400> <DB=   64.9760> <Mlp=   65.0000> <PB=1000000> 
<DWph=1> <it=  6> <et=57.23> <Mt= 0.00> <Spt= 0.00> <nCl=  0> <DB=   65.0000> <Mlp=   65.0000> <PB=1000000> 
---- Diving heuristic node with dive number = 0, fix depth = 19 and tabu list size = 0
Fixed projected solution = [x_1_0_1_OspV=1, x_1_28_1_OspV=1, x_1_90_1_OspV=1, x_1_185_1_OspV=1]
<DWph=2> <it= 10> <et=59.18> <Mt= 0.11> <Spt= 1.80> <nCl=1000> <DB=   64.9943> <Mlp=   65.0000> <PB=1000000> 
<DWph=2> <it= 11> <et=59.19> <Mt= 0.01> <Spt= 0.00> <nCl=  0> <DB=   64.9943> <Mlp=   65.0000> <PB=1000000> 
<DWph=1> <it= 12> <et=59.19> <Mt= 0.00> <Spt= 0.00> <nCl=  0> <DB=   65.0000> <Mlp=   65.0000> <PB=1000000> 
---- Diving heuristic node with dive number = 0, fix depth = 19 and tabu list size = 0
Fixed projected solution = [x_1_0_1_OspV=1, x_1_36_1_OspV=1, x_1_95_1_OspV=1, x_1_179_1_OspV=1]
<DWph=2> <it=  1> <et=59.20> <Mt= 0.00> <Spt= 0.00> <nCl=  0> <DB=   65.0000> <Mlp=   65.0000> <PB=1000000> 
<DWph=1> <it=  2> <et=59.20> <Mt= 0.01> <Spt= 0.00> <nCl=  0> <DB=   65.0000> <Mlp=   65.0000> <PB=1000000> 
---- Diving heuristic node with dive number = 0, fix depth = 20 and tabu list size = 0
Fixed projected solution = [x_1_0_1_OspV=1, x_1_52_1_OspV=1, x_1_115_1_OspV=1, x_1_161_1_OspV=1]
<DWph=1> <it= 11> <et=60.99> <Mt= 0.11> <Spt= 1.66> <nCl=900> <DB=   65.0000> <Mlp=   65.0000> <PB=1000000> 
---- Diving heuristic node with dive number = 0, fix depth = 21 and tabu list size = 0
Fixed projected solution = [x_1_0_1_OspV=1, x_1_16_1_OspV=1, x_1_113_1_OspV=1, x_1_168_1_OspV=1]
<DWph=2> <it=  1> <et=61.06> <Mt= 0.05> <Spt= 0.00> <nCl=  0> <DB=   65.0000> <Mlp=   65.0000> <PB=1000000> 
<DWph=1> <it=  2> <et=61.06> <Mt= 0.00> <Spt= 0.00> <nCl=  0> <DB=   65.0000> <Mlp=   65.0000> <PB=1000000> 
---- Diving heuristic node with dive number = 0, fix depth = 22 and tabu list size = 0
Fixed projected solution = [x_1_0_1_OspV=1, x_1_20_1_OspV=1, x_1_89_1_OspV=1, x_1_187_1_OspV=1]
<DWph=2> <it=  1> <et=61.09> <Mt= 0.02> <Spt= 0.00> <nCl=  0> <DB=   65.0000> <Mlp=   65.0000> <PB=1000000> 
<DWph=1> <it=  2> <et=61.09> <Mt= 0.00> <Spt= 0.00> <nCl=  0> <DB=   65.0000> <Mlp=   65.0000> <PB=1000000> 
---- Diving heuristic node with dive number = 0, fix depth = 23 and tabu list size = 0
Fixed projected solution = [x_1_0_1_OspV=1, x_1_57_1_OspV=1, x_1_120_1_OspV=1, x_1_155_1_OspV=1]
<DWph=2> <it=  1> <et=61.13> <Mt= 0.02> <Spt= 0.00> <nCl=  0> <DB=   65.0000> <Mlp=   65.0000> <PB=1000000> 
<DWph=1> <it=  2> <et=61.13> <Mt= 0.00> <Spt= 0.00> <nCl=  0> <DB=   65.0000> <Mlp=   65.0000> <PB=1000000> 
---- Diving heuristic node with dive number = 0, fix depth = 24 and tabu list size = 0
Fixed projected solution = [x_1_0_1_OspV=1, x_1_45_1_OspV=1, x_1_108_1_OspV=1, x_1_169_1_OspV=1]
<DWph=2> <it=  1> <et=61.17> <Mt= 0.04> <Spt= 0.00> <nCl=  0> <DB=   65.0000> <Mlp=   65.0000> <PB=1000000> 
<DWph=1> <it=  2> <et=61.17> <Mt= 0.00> <Spt= 0.00> <nCl=  0> <DB=   65.0000> <Mlp=   65.0000> <PB=1000000> 
---- Diving heuristic node with dive number = 0, fix depth = 25 and tabu list size = 0
Fixed projected solution = [x_1_0_1_OspV=1, x_1_11_1_OspV=1, x_1_76_1_OspV=1, x_1_196_1_OspV=1]
<DWph=2> <it=  1> <et=61.19> <Mt= 0.01> <Spt= 0.00> <nCl=  0> <DB=   65.0000> <Mlp=   65.0000> <PB=1000000> 
<DWph=1> <it=  2> <et=61.20> <Mt= 0.00> <Spt= 0.00> <nCl=  0> <DB=   65.0000> <Mlp=   65.0000> <PB=1000000> 
---- Diving heuristic node with dive number = 0, fix depth = 26 and tabu list size = 0
Fixed projected solution = [x_1_0_1_OspV=1, x_1_47_1_OspV=1, x_1_74_1_OspV=1, x_1_194_1_OspV=1]
<DWph=1> <it= 11> <et=62.97> <Mt= 0.11> <Spt= 1.65> <nCl=900> <DB=   65.0000> <Mlp=   65.0000> <PB=1000000> 
---- Diving heuristic node with dive number = 0, fix depth = 27 and tabu list size = 0
Fixed projected solution = [x_1_0_1_OspV=1, x_1_7_1_OspV=1, x_1_70_1_OspV=1, x_1_202_1_OspV=1]
<DWph=2> <it=  1> <et=63.06> <Mt= 0.08> <Spt= 0.00> <nCl=  0> <DB=   65.0000> <Mlp=   65.0000> <PB=1000000> 
<DWph=1> <it=  2> <et=63.06> <Mt= 0.00> <Spt= 0.00> <nCl=  0> <DB=   65.0000> <Mlp=   65.0000> <PB=1000000> 
---- Diving heuristic node with dive number = 0, fix depth = 28 and tabu list size = 0
Fixed projected solution = [x_1_0_1_OspV=1, x_1_48_1_OspV=1, x_1_110_1_OspV=1, x_1_166_1_OspV=1]
<DWph=2> <it= 10> <et=65.12> <Mt= 0.16> <Spt= 1.83> <nCl=1000> <DB=   64.9605> <Mlp=   65.0006> <PB=1000000> 
<DWph=2> <it= 20> <et=67.01> <Mt= 0.05> <Spt= 1.84> <nCl=1000> <DB=   64.9954> <Mlp=   65.0003> <PB=1000000> 
<DWph=2> <it= 30> <et=68.89> <Mt= 0.05> <Spt= 1.83> <nCl=1000> <DB=   64.9993> <Mlp=   65.0002> <PB=1000000> 
<DWph=2> <it= 40> <et=70.78> <Mt= 0.05> <Spt= 1.83> <nCl=1000> <DB=   64.9995> <Mlp=   65.0002> <PB=1000000> 
<DWph=2> <it= 50> <et=72.69> <Mt= 0.04> <Spt= 1.82> <nCl=1000> <DB=   64.9997> <Mlp=   65.0002> <PB=1000000> 
<DWph=2> <it= 51> <et=72.71> <Mt= 0.02> <Spt= 0.00> <nCl=  0> <DB=   64.9997> <Mlp=   65.0000> <PB=1000000> 
<DWph=1> <it= 52> <et=72.71> <Mt= 0.00> <Spt= 0.00> <nCl=  0> <DB=   65.0000> <Mlp=   65.0000> <PB=1000000> 
---- Diving heuristic node with dive number = 0, fix depth = 29 and tabu list size = 0
Fixed projected solution = [x_1_0_1_OspV=1, x_1_24_1_OspV=1, x_1_123_1_OspV=1, x_1_154_1_OspV=1]
<DWph=2> <it= 10> <et=74.67> <Mt= 0.12> <Spt= 1.82> <nCl=1000> <DB=   64.9996> <Mlp=   65.0001> <PB=1000000> 
<DWph=2> <it= 20> <et=76.53> <Mt= 0.05> <Spt= 1.81> <nCl=1000> <DB=   65.0000> <Mlp=   65.0001> <PB=1000000> 
<DWph=2> <it= 30> <et=78.46> <Mt= 0.06> <Spt= 1.81> <nCl=1000> <DB=   65.0000> <Mlp=   65.0001> <PB=1000000> 
<DWph=2> <it= 40> <et=80.34> <Mt= 0.05> <Spt= 1.83> <nCl=1000> <DB=   65.0000> <Mlp=   65.0001> <PB=1000000> 
<DWph=2> <it= 50> <et=82.27> <Mt= 0.09> <Spt= 1.83> <nCl=1000> <DB=   65.0000> <Mlp=   65.0000> <PB=1000000> 
<DWph=2> <it= 60> <et=84.13> <Mt= 0.07> <Spt= 1.79> <nCl=1000> <DB=   65.0000> <Mlp=   65.0000> <PB=1000000> 
<DWph=2> <it= 61> <et=84.14> <Mt= 0.01> <Spt= 0.00> <nCl=  0> <DB=   65.0000> <Mlp=   65.0000> <PB=1000000> 
<DWph=1> <it= 62> <et=84.15> <Mt= 0.00> <Spt= 0.00> <nCl=  0> <DB=   65.0000> <Mlp=   65.0000> <PB=1000000> 
---- Diving heuristic node with dive number = 0, fix depth = 29 and tabu list size = 0
Fixed projected solution = [x_1_0_1_OspV=1, x_1_39_1_OspV=1, x_1_62_1_OspV=1, x_1_199_1_OspV=1]
<DWph=2> <it=  1> <et=84.17> <Mt= 0.00> <Spt= 0.00> <nCl=  0> <DB=   65.0000> <Mlp=   65.0000> <PB=1000000> 
<DWph=1> <it=  2> <et=84.17> <Mt= 0.00> <Spt= 0.00> <nCl=  0> <DB=   65.0000> <Mlp=   65.0000> <PB=1000000> 
---- Diving heuristic node with dive number = 0, fix depth = 29 and tabu list size = 0
Fixed projected solution = [x_1_0_1_OspV=1, x_1_49_1_OspV=1, x_1_111_1_OspV=1, x_1_165_1_OspV=1]
<DWph=2> <it=  1> <et=84.19> <Mt= 0.01> <Spt= 0.00> <nCl=  0> <DB=   65.0000> <Mlp=   65.0000> <PB=1000000> 
<DWph=1> <it=  2> <et=84.19> <Mt= 0.00> <Spt= 0.00> <nCl=  0> <DB=   65.0000> <Mlp=   65.0000> <PB=1000000> 
---- Diving heuristic node with dive number = 0, fix depth = 29 and tabu list size = 0
Fixed projected solution = [x_1_0_1_OspV=1, x_1_53_1_OspV=1, x_1_116_1_OspV=1, x_1_160_1_OspV=1]
<DWph=2> <it=  1> <et=84.21> <Mt= 0.00> <Spt= 0.00> <nCl=  0> <DB=   65.0000> <Mlp=   65.0000> <PB=1000000> 
<DWph=1> <it=  2> <et=84.21> <Mt= 0.00> <Spt= 0.00> <nCl=  0> <DB=   65.0000> <Mlp=   65.0000> <PB=1000000> 
---- Diving heuristic node with dive number = 0, fix depth = 29 and tabu list size = 0
Fixed projected solution = [x_1_0_1_OspV=1, x_1_3_1_OspV=1, x_1_129_1_OspV=1, x_1_156_1_OspV=1]
<DWph=2> <it=  1> <et=84.23> <Mt= 0.00> <Spt= 0.00> <nCl=  0> <DB=   65.0000> <Mlp=   65.0000> <PB=1000000> 
<DWph=1> <it=  2> <et=84.23> <Mt= 0.00> <Spt= 0.00> <nCl=  0> <DB=   65.0000> <Mlp=   65.0000> <PB=1000000> 
---- Diving heuristic node with dive number = 0, fix depth = 29 and tabu list size = 0
Fixed projected solution = [x_1_0_1_OspV=1, x_1_54_1_OspV=1, x_1_118_1_OspV=1, x_1_158_1_OspV=1]
<DWph=2> <it=  1> <et=84.25> <Mt= 0.01> <Spt= 0.00> <nCl=  0> <DB=   65.0000> <Mlp=   65.0000> <PB=1000000> 
<DWph=1> <it=  2> <et=84.25> <Mt= 0.00> <Spt= 0.00> <nCl=  0> <DB=   65.0000> <Mlp=   65.0000> <PB=1000000> 
---- Diving heuristic node with dive number = 0, fix depth = 30 and tabu list size = 0
Fixed projected solution = [x_1_0_1_OspV=1, x_1_58_1_OspV=1, x_1_77_1_OspV=1, x_1_189_1_OspV=1]
<DWph=2> <it=  6> <et=85.12> <Mt= 0.06> <Spt= 0.73> <nCl=500> <DB=-318943.1049> <Mlp=   65.0000> <PB=1000000> 
<DWph=1> <it=  7> <et=85.12> <Mt= 0.00> <Spt= 0.00> <nCl=  0> <DB=   65.0000> <Mlp=   65.0000> <PB=1000000> 
---- Diving heuristic node with dive number = 0, fix depth = 31 and tabu list size = 0
Fixed projected solution = [x_1_0_1_OspV=1, x_1_79_1_OspV=1, x_1_121_1_OspV=1, x_1_148_1_OspV=1]
<DWph=2> <it= 10> <et=86.73> <Mt= 0.11> <Spt= 1.49> <nCl=1000> <DB=-464358.1471> <Mlp=281645.5801> <PB=1000000> 
<DWph=2> <it= 20> <et=88.26> <Mt= 0.04> <Spt= 1.49> <nCl=1000> <DB=-377642.9122> <Mlp=72397.1306> <PB=1000000> 
<DWph=2> <it= 30> <et=89.89> <Mt= 0.05> <Spt= 1.57> <nCl=1000> <DB=   64.9939> <Mlp=   65.0010> <PB=1000000> 
<DWph=2> <it= 40> <et=91.77> <Mt= 0.03> <Spt= 1.79> <nCl=1000> <DB=   64.9994> <Mlp=   65.0001> <PB=1000000> 
<DWph=2> <it= 41> <et=91.77> <Mt= 0.01> <Spt= 0.00> <nCl=  0> <DB=   64.9994> <Mlp=   65.0000> <PB=1000000> 
<DWph=1> <it= 42> <et=91.78> <Mt= 0.00> <Spt= 0.00> <nCl=  0> <DB=   65.0000> <Mlp=   65.0000> <PB=1000000> 
---- Diving heuristic node with dive number = 0, fix depth = 32 and tabu list size = 0
Fixed projected solution = [x_1_0_1_OspV=1, x_1_85_1_OspV=1, x_1_101_1_OspV=1, x_1_157_1_OspV=1]
<DWph=2> <it=  5> <et=92.56> <Mt= 0.05> <Spt= 0.71> <nCl=400> <DB=   64.9889> <Mlp=   65.0000> <PB=1000000> 
<DWph=1> <it=  6> <et=92.56> <Mt= 0.01> <Spt= 0.00> <nCl=  0> <DB=   65.0000> <Mlp=   65.0000> <PB=1000000> 
---- Diving heuristic node with dive number = 0, fix depth = 33 and tabu list size = 0
Fixed projected solution = [x_1_0_1_OspV=1, x_1_18_1_OspV=1, x_1_86_1_OspV=1, x_1_190_1_OspV=1]
<DWph=2> <it=  3> <et=92.97> <Mt= 0.04> <Spt= 0.35> <nCl=200> <DB=   64.9847> <Mlp=   65.0000> <PB=1000000> 
<DWph=1> <it=  4> <et=92.97> <Mt= 0.01> <Spt= 0.00> <nCl=  0> <DB=   65.0000> <Mlp=   65.0000> <PB=1000000> 
---- Diving heuristic node with dive number = 0, fix depth = 34 and tabu list size = 0
Fixed projected solution = [x_1_0_1_OspV=1, x_1_64_1_OspV=1, x_1_131_1_OspV=1, x_1_145_1_OspV=1]
<DWph=2> <it= 10> <et=94.63> <Mt= 0.10> <Spt= 1.53> <nCl=1000> <DB=-182031.9771> <Mlp=   65.0214> <PB=1000000> 
<DWph=2> <it= 20> <et=96.48> <Mt= 0.04> <Spt= 1.75> <nCl=1000> <DB=   64.9866> <Mlp=   65.0173> <PB=1000000> 
<DWph=2> <it= 30> <et=98.27> <Mt= 0.04> <Spt= 1.75> <nCl=1000> <DB=   64.9959> <Mlp=   65.0020> <PB=1000000> 
<DWph=2> <it= 35> <et=99.00> <Mt= 0.02> <Spt= 0.70> <nCl=400> <DB=   64.9980> <Mlp=   65.0000> <PB=1000000> 
<DWph=1> <it= 36> <et=99.00> <Mt= 0.00> <Spt= 0.00> <nCl=  0> <DB=   65.0000> <Mlp=   65.0000> <PB=1000000> 
---- Diving heuristic node with dive number = 0, fix depth = 34 and tabu list size = 0
Fixed projected solution = [x_1_0_1_OspV=1, x_1_73_1_OspV=1, x_1_119_1_OspV=1, x_1_151_1_OspV=1]
<DWph=2> <it=  1> <et=99.02> <Mt= 0.01> <Spt= 0.00> <nCl=  0> <DB=   65.0000> <Mlp=   65.0000> <PB=1000000> 
<DWph=1> <it=  2> <et=99.02> <Mt= 0.00> <Spt= 0.00> <nCl=  0> <DB=   65.0000> <Mlp=   65.0000> <PB=1000000> 
---- Diving heuristic node with dive number = 0, fix depth = 34 and tabu list size = 0
Fixed projected solution = [x_1_0_1_OspV=1, x_1_56_1_OspV=1, x_1_126_1_OspV=1, x_1_150_1_OspV=1]
<DWph=2> <it=  1> <et=99.04> <Mt= 0.00> <Spt= 0.00> <nCl=  0> <DB=   65.0000> <Mlp=   65.0000> <PB=1000000> 
<DWph=1> <it=  2> <et=99.04> <Mt= 0.00> <Spt= 0.00> <nCl=  0> <DB=   65.0000> <Mlp=   65.0000> <PB=1000000> 
---- Diving heuristic node with dive number = 0, fix depth = 34 and tabu list size = 0
Fixed projected solution = [x_1_0_1_OspV=1, x_1_43_1_OspV=1, x_1_104_1_OspV=1, x_1_172_1_OspV=1]
<DWph=2> <it=  1> <et=99.05> <Mt= 0.00> <Spt= 0.00> <nCl=  0> <DB=   65.0000> <Mlp=   65.0000> <PB=1000000> 
<DWph=1> <it=  2> <et=99.05> <Mt= 0.00> <Spt= 0.00> <nCl=  0> <DB=   65.0000> <Mlp=   65.0000> <PB=1000000> 
---- Diving heuristic node with dive number = 0, fix depth = 34 and tabu list size = 0
Fixed projected solution = [x_1_0_1_OspV=1, x_1_26_1_OspV=1, x_1_138_1_OspV=1, x_1_143_1_OspV=1]
<DWph=2> <it=  1> <et=99.07> <Mt= 0.00> <Spt= 0.00> <nCl=  0> <DB=   65.0000> <Mlp=   65.0000> <PB=1000000> 
<DWph=1> <it=  2> <et=99.07> <Mt= 0.01> <Spt= 0.00> <nCl=  0> <DB=   65.0000> <Mlp=   65.0000> <PB=1000000> 
---- Diving heuristic node with dive number = 0, fix depth = 34 and tabu list size = 0
Fixed projected solution = [x_1_0_1_OspV=1, x_1_109_1_OspV=1, x_1_130_1_OspV=1, x_1_133_1_OspV=1]
<DWph=2> <it=  1> <et=99.08> <Mt= 0.00> <Spt= 0.00> <nCl=  0> <DB=   65.0000> <Mlp=   65.0000> <PB=1000000> 
<DWph=1> <it=  2> <et=99.09> <Mt= 0.00> <Spt= 0.00> <nCl=  0> <DB=   65.0000> <Mlp=   65.0000> <PB=1000000> 
---- Diving heuristic node with dive number = 0, fix depth = 35 and tabu list size = 0
Fixed projected solution = [x_1_0_1_OspV=1, x_1_51_1_OspV=1, x_1_102_1_OspV=1, x_1_170_1_OspV=1]
<DWph=2> <it= 10> <et=100.95> <Mt= 0.08> <Spt= 1.76> <nCl=1000> <DB=   64.6051> <Mlp=   65.0640> <PB=1000000> 
<DWph=2> <it= 19> <et=102.42> <Mt= 0.06> <Spt= 1.41> <nCl=800> <DB=   64.9745> <Mlp=   65.0000> <PB=1000000> 
---- Diving heuristic node with dive number = 0, fix depth = 36 and tabu list size = 0
Fixed projected solution = [x_1_0_1_OspV=1, x_1_42_1_OspV=1, x_1_61_1_OspV=1, x_1_198_1_OspV=1]
<DWph=2> <it=  9> <et=104.04> <Mt= 0.12> <Spt= 1.40> <nCl=800> <DB=   64.9890> <Mlp=   65.0000> <PB=1000000> 
---- Diving heuristic node with dive number = 0, fix depth = 37 and tabu list size = 0
Fixed projected solution = [x_1_0_1_OspV=1, x_1_4_1_OspV=1, x_1_12_1_OspV=1, x_1_35_1_OspV=1, x_1_46_1_OspV=1, x_1_200_1_OspV=1]
<DWph=2> <it= 10> <et=105.80> <Mt= 0.11> <Spt= 1.64> <nCl=1000> <DB=-172447.9691> <Mlp=   65.3174> <PB=1000000> 
<DWph=2> <it= 20> <et=107.58> <Mt= 0.04> <Spt= 1.73> <nCl=1000> <DB=   64.5405> <Mlp=   65.1723> <PB=1000000> 
<DWph=1> <it= 31> <et=109.27> <Mt= 0.05> <Spt= 1.57> <nCl=900> <DB=   65.0000> <Mlp=   65.0000> <PB=1000000> 
---- Diving heuristic node with dive number = 0, fix depth = 38 and tabu list size = 0
Fixed projected solution = [x_1_0_1_OspV=1, x_1_17_1_OspV=1, x_1_107_1_OspV=1, x_1_174_1_OspV=1]
<DWph=2> <it= 10> <et=110.79> <Mt= 0.07> <Spt= 1.43> <nCl=1000> <DB=-205123.8907> <Mlp=11603.8648> <PB=1000000> 
<DWph=2> <it= 20> <et=112.51> <Mt= 0.04> <Spt= 1.69> <nCl=1000> <DB=-171249.8186> <Mlp=   65.3955> <PB=1000000> 
<DWph=2> <it= 30> <et=114.28> <Mt= 0.04> <Spt= 1.72> <nCl=1000> <DB=   64.9825> <Mlp=   65.1237> <PB=1000000> 
