Application parameters:
  batch  =>  nothing
  instance  =>  "/IN/201_2500_DI_23.txt-Q5"
  ub  =>  1.0e6
  cfg  =>  "/CFG/BPP.cfg"
data = Colored Bin Packing dataset.
number of items = 202
number of colors = 5
capacity = 2028
Items : 
	 item 1, weight= 4, color= 4
	 item 2, weight= 16, color= 0
	 item 3, weight= 20, color= 1
	 item 4, weight= 20, color= 2
	 item 5, weight= 32, color= 3
	 item 6, weight= 36, color= 1
	 item 7, weight= 36, color= 1
	 item 8, weight= 36, color= 3
	 item 9, weight= 44, color= 0
	 item 10, weight= 44, color= 0
	 item 11, weight= 44, color= 1
	 item 12, weight= 44, color= 2
	 item 13, weight= 44, color= 3
	 item 14, weight= 44, color= 4
	 item 15, weight= 48, color= 0
	 item 16, weight= 48, color= 0
	 item 17, weight= 48, color= 1
	 item 18, weight= 48, color= 2
	 item 19, weight= 48, color= 3
	 item 20, weight= 50, color= 3
	 item 21, weight= 52, color= 1
	 item 22, weight= 52, color= 1
	 item 23, weight= 52, color= 4
	 item 24, weight= 56, color= 0
	 item 25, weight= 56, color= 0
	 item 26, weight= 58, color= 1
	 item 27, weight= 60, color= 0
	 item 28, weight= 60, color= 0
	 item 29, weight= 60, color= 2
	 item 30, weight= 64, color= 0
	 item 31, weight= 64, color= 2
	 item 32, weight= 66, color= 2
	 item 33, weight= 66, color= 3
	 item 34, weight= 68, color= 0
	 item 35, weight= 72, color= 0
	 item 36, weight= 72, color= 2
	 item 37, weight= 72, color= 4
	 item 38, weight= 72, color= 4
	 item 39, weight= 76, color= 0
	 item 40, weight= 76, color= 4
	 item 41, weight= 80, color= 0
	 item 42, weight= 80, color= 1
	 item 43, weight= 82, color= 1
	 item 44, weight= 84, color= 3
	 item 45, weight= 88, color= 4
	 item 46, weight= 92, color= 4
	 item 47, weight= 92, color= 4
	 item 48, weight= 92, color= 4
	 item 49, weight= 94, color= 2
	 item 50, weight= 98, color= 4
	 item 51, weight= 100, color= 1
	 item 52, weight= 104, color= 4
	 item 53, weight= 108, color= 0
	 item 54, weight= 108, color= 1
	 item 55, weight= 110, color= 0
	 item 56, weight= 110, color= 2
	 item 57, weight= 114, color= 2
	 item 58, weight= 116, color= 4
	 item 59, weight= 120, color= 3
	 item 60, weight= 128, color= 1
	 item 61, weight= 128, color= 2
	 item 62, weight= 130, color= 4
	 item 63, weight= 130, color= 4
	 item 64, weight= 140, color= 4
	 item 65, weight= 144, color= 3
	 item 66, weight= 152, color= 2
	 item 67, weight= 160, color= 3
	 item 68, weight= 168, color= 2
	 item 69, weight= 168, color= 4
	 item 70, weight= 186, color= 0
	 item 71, weight= 190, color= 4
	 item 72, weight= 194, color= 4
	 item 73, weight= 220, color= 4
	 item 74, weight= 224, color= 0
	 item 75, weight= 227, color= 4
	 item 76, weight= 228, color= 4
	 item 77, weight= 234, color= 4
	 item 78, weight= 236, color= 2
	 item 79, weight= 242, color= 2
	 item 80, weight= 243, color= 1
	 item 81, weight= 245, color= 0
	 item 82, weight= 245, color= 3
	 item 83, weight= 250, color= 4
	 item 84, weight= 257, color= 3
	 item 85, weight= 261, color= 1
	 item 86, weight= 261, color= 1
	 item 87, weight= 262, color= 3
	 item 88, weight= 281, color= 4
	 item 89, weight= 282, color= 1
	 item 90, weight= 295, color= 3
	 item 91, weight= 302, color= 0
	 item 92, weight= 303, color= 0
	 item 93, weight= 316, color= 4
	 item 94, weight= 318, color= 1
	 item 95, weight= 321, color= 4
	 item 96, weight= 326, color= 0
	 item 97, weight= 329, color= 2
	 item 98, weight= 331, color= 1
	 item 99, weight= 335, color= 4
	 item 100, weight= 346, color= 0
	 item 101, weight= 362, color= 1
	 item 102, weight= 367, color= 0
	 item 103, weight= 369, color= 0
	 item 104, weight= 382, color= 1
	 item 105, weight= 398, color= 1
	 item 106, weight= 409, color= 4
	 item 107, weight= 411, color= 2
	 item 108, weight= 418, color= 1
	 item 109, weight= 420, color= 2
	 item 110, weight= 423, color= 0
	 item 111, weight= 446, color= 0
	 item 112, weight= 461, color= 0
	 item 113, weight= 462, color= 4
	 item 114, weight= 472, color= 4
	 item 115, weight= 475, color= 0
	 item 116, weight= 482, color= 3
	 item 117, weight= 491, color= 3
	 item 118, weight= 518, color= 4
	 item 119, weight= 543, color= 0
	 item 120, weight= 546, color= 0
	 item 121, weight= 557, color= 3
	 item 122, weight= 561, color= 2
	 item 123, weight= 573, color= 0
	 item 124, weight= 582, color= 0
	 item 125, weight= 642, color= 4
	 item 126, weight= 645, color= 4
	 item 127, weight= 655, color= 2
	 item 128, weight= 659, color= 4
	 item 129, weight= 684, color= 0
	 item 130, weight= 714, color= 1
	 item 131, weight= 731, color= 1
	 item 132, weight= 752, color= 3
	 item 133, weight= 757, color= 2
	 item 134, weight= 782, color= 1
	 item 135, weight= 818, color= 0
	 item 136, weight= 843, color= 4
	 item 137, weight= 845, color= 2
	 item 138, weight= 906, color= 0
	 item 139, weight= 1015, color= 4
	 item 140, weight= 1017, color= 2
	 item 141, weight= 1018, color= 2
	 item 142, weight= 1050, color= 2
	 item 143, weight= 1094, color= 0
	 item 144, weight= 1151, color= 0
	 item 145, weight= 1153, color= 0
	 item 146, weight= 1174, color= 0
	 item 147, weight= 1239, color= 1
	 item 148, weight= 1243, color= 0
	 item 149, weight= 1255, color= 1
	 item 150, weight= 1258, color= 3
	 item 151, weight= 1276, color= 2
	 item 152, weight= 1330, color= 0
	 item 153, weight= 1341, color= 2
	 item 154, weight= 1357, color= 4
	 item 155, weight= 1361, color= 4
	 item 156, weight= 1374, color= 1
	 item 157, weight= 1377, color= 4
	 item 158, weight= 1400, color= 4
	 item 159, weight= 1410, color= 1
	 item 160, weight= 1439, color= 2
	 item 161, weight= 1454, color= 4
	 item 162, weight= 1459, color= 0
	 item 163, weight= 1474, color= 2
	 item 164, weight= 1475, color= 1
	 item 165, weight= 1494, color= 3
	 item 166, weight= 1521, color= 2
	 item 167, weight= 1530, color= 3
	 item 168, weight= 1535, color= 1
	 item 169, weight= 1539, color= 2
	 item 170, weight= 1554, color= 1
	 item 171, weight= 1574, color= 1
	 item 172, weight= 1587, color= 1
	 item 173, weight= 1589, color= 1
	 item 174, weight= 1594, color= 4
	 item 175, weight= 1614, color= 4
	 item 176, weight= 1627, color= 2
	 item 177, weight= 1631, color= 0
	 item 178, weight= 1643, color= 2
	 item 179, weight= 1650, color= 2
	 item 180, weight= 1654, color= 3
	 item 181, weight= 1665, color= 2
	 item 182, weight= 1670, color= 3
	 item 183, weight= 1675, color= 3
	 item 184, weight= 1679, color= 4
	 item 185, weight= 1691, color= 3
	 item 186, weight= 1694, color= 3
	 item 187, weight= 1714, color= 3
	 item 188, weight= 1715, color= 0
	 item 189, weight= 1717, color= 3
	 item 190, weight= 1730, color= 1
	 item 191, weight= 1735, color= 0
	 item 192, weight= 1737, color= 3
	 item 193, weight= 1738, color= 4
	 item 194, weight= 1748, color= 0
	 item 195, weight= 1750, color= 2
	 item 196, weight= 1751, color= 1
	 item 197, weight= 1755, color= 0
	 item 198, weight= 1757, color= 0
	 item 199, weight= 1764, color= 1
	 item 200, weight= 1798, color= 4
	 item 201, weight= 1802, color= 4
	 item 202, weight= 1806, color= 3

VRPSolver warning: Interval set for resource 1 on source node (when source != sink) is ignored (by definition is [0.0,0.0])
[41m solve [00m
~~~~~~~~~~~~~~~~~~~~~~~~~~~~~~~~~~~~~~~~~~~~~~~~~~~~~~~~~~~~~~~~~~~~~~~~~~~~~~
VRPSolver v0.4.1, 24/03/2021. Web: vrpsolver.math.u-bordeaux.fr
Corresponds to the solver by Pessoa, Sadykov, Uchoa and Vanderbeck (2020)
Paper: dx.doi.org/10.1007/s10107-020-01523-z
USE THIS CODE ONLY FOR ACADEMIC PURPOSES AT YOUR OWN RISK
~~~~~~~~~~~~~~~~~~~~~~~~~~~~~~~~~~~~~~~~~~~~~~~~~~~~~~~~~~~~~~~~~~~~~~~~~~~~~~
BaPCod v053, 24/03/2021, © Inria Bordeaux, France
~~~~~~~~~~~~~~~~~~~~~~~~~~~~~~~~~~~~~~~~~~~~~~~~~~~~~~~~~~~~~~~~~~~~~~~~~~~~~~
VRPSolver parameters:
GlobalTimeLimit = 1800
MaxNbOfBBtreeNodeTreated = 100000
treeSearchStrategy = 1
RCSPstopCutGenTimeThresholdInPricing = 10
RCSPhardTimeThresholdInPricing = 20
RCSPnumberOfBucketsPerVertex = 2000
RCSPdynamicBucketSteps = 0
RCSPuseBidirectionalSearch = 1
RCSPapplyReducedCostFixing = 1
RCSPredCostFixingFalseGap = 0
RCSPmaxNumOfColsPerIteration = 100
RCSPmaxNumOfColsPerExactIteration = 100
RCSPheurLabelingStrategy = 4
StabilizationMinPhaseOfStage = 1
RCSPmaxNumOfLabelsInEnumeration = 100000
RCSPmaxNumOfEnumeratedSolutions = 1000000
RCSPmaxNumOfEnumSolutionsForMIP = 100000
RCSPinitNGneighbourhoodSize = 0
RCSPmaxNGneighbourhoodSize = 0
RCSPrankOneCutsMaxNumPerRound = 100
RCSPrankOneCutsMaxNumRows = -1
RCSPrankOneCutsMemoryType = 2
CutTailingOffThreshold = 0.02
CutTailingOffCounterThreshold = 3
SafeDualBoundScaleFactor = -1
StrongBranchingPhaseOneCandidatesNumber = 100
StrongBranchingPhaseOneTreeSizeEstimRatio = 0.3
StrongBranchingPhaseTwoCandidatesNumber = 1
StrongBranchingPhaseTwoTreeSizeEstimRatio = 0.1
MaxTimeForRestrictedMasterIpHeur = -1
DivingHeurUseDepthLimit = 0
MaxLDSbreadth = 3
MaxLDSdepth = 2
New model incumbent solution 1e+06, TIME = 0h0m0s3t = 3
Model is built TIME = 0h0m1s77t = 177
************************************************************************************************
**** BaB tree root node
**** Local DB = -1e+12, global bounds : [ -1e+12 , 1e+06 ], TIME = 0h0m1s77t = 177
**** 1 open nodes, 0 columns (0 active), 0 dyn. constrs. (0 active), 406 art. vars. (406 active)
************************************************************************************************
<DWph=2> <it= 10> <et=3.21> <Mt= 0.00> <Spt= 1.43> <nCl=1000> <DB=-10919865580.4243> <Mlp=229779668.0688> <PB=1000000> 
<DWph=2> <it= 20> <et=4.64> <Mt= 0.02> <Spt= 1.41> <nCl=1000> <DB=-7646783822.4458> <Mlp=208589078.8949> <PB=1000000> 
<DWph=2> <it= 30> <et=6.09> <Mt= 0.02> <Spt= 1.42> <nCl=1000> <DB=-4899825434.4092> <Mlp=186656076.2343> <PB=1000000> 
<DWph=2> <it= 40> <et=7.47> <Mt= 0.06> <Spt= 1.32> <nCl=1000> <DB=-2992483571.6453> <Mlp=164000002.3462> <PB=1000000> 
<DWph=2> <it= 50> <et=8.82> <Mt= 0.09> <Spt= 1.26> <nCl=1000> <DB=-1557596426.0365> <Mlp=140500004.5691> <PB=1000000> 
<DWph=2> <it= 60> <et=10.15> <Mt= 0.13> <Spt= 1.20> <nCl=1000> <DB=-1086521466.9460> <Mlp=116200007.8168> <PB=1000000> 
<DWph=2> <it= 70> <et=11.49> <Mt= 0.15> <Spt= 1.19> <nCl=1000> <DB=-629069369.2222> <Mlp=95600011.7403> <PB=1000000> 
<DWph=2> <it= 80> <et=12.88> <Mt= 0.19> <Spt= 1.20> <nCl=1000> <DB=-403726203.3116> <Mlp=79200016.4967> <PB=1000000> 
<DWph=2> <it= 90> <et=14.35> <Mt= 0.21> <Spt= 1.25> <nCl=1000> <DB=-172557476.3473> <Mlp=69600020.4898> <PB=1000000> 
<DWph=2> <it=100> <et=15.93> <Mt= 0.29> <Spt= 1.29> <nCl=1000> <DB=-173771771.2488> <Mlp=61200024.7456> <PB=1000000> 
<DWph=2> <it=110> <et=17.49> <Mt= 0.14> <Spt= 1.35> <nCl=1000> <DB=-171945168.9118> <Mlp=57600026.7182> <PB=1000000> 
<DWph=2> <it=120> <et=18.98> <Mt= 0.20> <Spt= 1.29> <nCl=1000> <DB=-171054514.5416> <Mlp=54000028.7591> <PB=1000000> 
<DWph=2> <it=130> <et=20.56> <Mt= 0.28> <Spt= 1.29> <nCl=1000> <DB=-170654874.3581> <Mlp=50400030.8547> <PB=1000000> 
<DWph=2> <it=140> <et=22.11> <Mt= 0.19> <Spt= 1.31> <nCl=1000> <DB=-170612286.7958> <Mlp=46800033.0649> <PB=1000000> 
<DWph=2> <it=150> <et=23.54> <Mt= 0.16> <Spt= 1.26> <nCl=1000> <DB=-170597432.5250> <Mlp=43580987.4616> <PB=1000000> 
<DWph=2> <it=160> <et=25.01> <Mt= 0.19> <Spt= 1.29> <nCl=1000> <DB=-170526645.0089> <Mlp=39600037.5618> <PB=1000000> 
<DWph=2> <it=170> <et=26.52> <Mt= 0.14> <Spt= 1.31> <nCl=1000> <DB=-170528144.0136> <Mlp=38000038.5712> <PB=1000000> 
<DWph=2> <it=180> <et=27.95> <Mt= 0.18> <Spt= 1.25> <nCl=1000> <DB=-170585220.9262> <Mlp=34587699.9258> <PB=1000000> 
<DWph=2> <it=190> <et=29.23> <Mt= 0.18> <Spt= 1.10> <nCl=1000> <DB=-170542111.6323> <Mlp=28132488.3233> <PB=1000000> 
<DWph=2> <it=200> <et=30.59> <Mt= 0.20> <Spt= 1.16> <nCl=1000> <DB=-170567611.3157> <Mlp=11735819.1371> <PB=1000000> 
<DWph=2> <it=210> <et=31.96> <Mt= 0.15> <Spt= 1.17> <nCl=1000> <DB=-170561743.9746> <Mlp=2605133.4698> <PB=1000000> 
<DWph=2> <it=220> <et=34.57> <Mt= 0.14> <Spt= 2.45> <nCl=753> <DB=-14202.5469> <Mlp=   65.1217> <PB=1000000> 
<DWph=2> <it=230> <et=36.02> <Mt= 0.13> <Spt= 1.32> <nCl=1000> <DB=   60.0739> <Mlp=   65.0550> <PB=1000000> 
<DWph=2> <it=240> <et=37.62> <Mt= 0.14> <Spt= 1.41> <nCl=1000> <DB=   64.6354> <Mlp=   65.0129> <PB=1000000> 
<DWph=2> <it=250> <et=39.14> <Mt= 0.14> <Spt= 1.38> <nCl=690> <DB=   64.9787> <Mlp=   65.0006> <PB=1000000> 
<DWph=2> <it=259> <et=40.57> <Mt= 0.05> <Spt= 1.37> <nCl=308> <DB=   65.0004> <Mlp=   65.0004> <PB=1000000> 
<DWph=1> <it=260> <et=40.75> <Mt= 0.01> <Spt= 0.17> <nCl=100> <DB=   64.8686> <Mlp=   65.0004> <PB=1000000> 
<DWph=1> <it=266> <et=41.93> <Mt= 0.06> <Spt= 1.12> <nCl=480> <DB=   65.0000> <Mlp=   65.0000> <PB=1000000> 
<DWph=0> <it=267> <et=42.11> <Mt= 0.01> <Spt= 0.18> <nCl=  0> <DB=   65.0000> <Mlp=   65.0000> <PB=1000000> 
Reduced cost fixing for graph G_1... took 6.18 sec., 427220 buck. arcs remain (86.5% from prev., 38.1% from max.)
Run enumeration... took 0.1 sec. and not succeeded.
ColGenEvalAlg final dual bound: 65 (rounded: 65)
----------- Diving heuristic started -----------
<DWph=2> <it=  1> <et=48.45> <Mt= 0.00> <Spt= 0.00> <nCl=  0> <DB=   65.0000> <Mlp=   65.0000> <PB=1000000> 
<DWph=1> <it=  2> <et=48.45> <Mt= 0.00> <Spt= 0.00> <nCl=  0> <DB=   65.0000> <Mlp=   65.0000> <PB=1000000> 
---- Diving heuristic node with dive number = 0, fix depth = 0 and tabu list size = 0
Fixed projected solution = [x_1_0_1_OspV=1, x_1_69_1_OspV=1, x_1_137_1_OspV=1, x_1_139_1_OspV=1]
<DWph=2> <it=  1> <et=48.51> <Mt= 0.00> <Spt= 0.00> <nCl=  0> <DB=   65.0000> <Mlp=   65.0000> <PB=1000000> 
<DWph=1> <it=  2> <et=48.51> <Mt= 0.00> <Spt= 0.00> <nCl=  0> <DB=   65.0000> <Mlp=   65.0000> <PB=1000000> 
---- Diving heuristic node with dive number = 0, fix depth = 0 and tabu list size = 0
Fixed projected solution = [x_1_0_1_OspV=1, x_1_132_1_OspV=1, x_1_151_1_OspV=1]
<DWph=2> <it=  1> <et=48.57> <Mt= 0.01> <Spt= 0.00> <nCl=  0> <DB=   65.0000> <Mlp=   65.0000> <PB=1000000> 
<DWph=1> <it=  2> <et=48.57> <Mt= 0.00> <Spt= 0.00> <nCl=  0> <DB=   65.0000> <Mlp=   65.0000> <PB=1000000> 
---- Diving heuristic node with dive number = 0, fix depth = 0 and tabu list size = 0
Fixed projected solution = [x_1_0_1_OspV=1, x_1_36_1_OspV=1, x_1_103_1_OspV=1, x_1_172_1_OspV=1]
<DWph=2> <it=  1> <et=48.62> <Mt= 0.00> <Spt= 0.00> <nCl=  0> <DB=   65.0000> <Mlp=   65.0000> <PB=1000000> 
<DWph=1> <it=  2> <et=48.63> <Mt= 0.00> <Spt= 0.00> <nCl=  0> <DB=   65.0000> <Mlp=   65.0000> <PB=1000000> 
---- Diving heuristic node with dive number = 0, fix depth = 0 and tabu list size = 0
Fixed projected solution = [x_1_0_1_OspV=1, x_1_48_1_OspV=1, x_1_112_1_OspV=1, x_1_164_1_OspV=1]
<DWph=2> <it=  1> <et=48.68> <Mt= 0.00> <Spt= 0.00> <nCl=  0> <DB=   65.0000> <Mlp=   65.0000> <PB=1000000> 
<DWph=1> <it=  2> <et=48.68> <Mt= 0.00> <Spt= 0.00> <nCl=  0> <DB=   65.0000> <Mlp=   65.0000> <PB=1000000> 
---- Diving heuristic node with dive number = 0, fix depth = 0 and tabu list size = 0
Fixed projected solution = [x_1_0_1_OspV=1, x_1_56_1_OspV=1, x_1_121_1_OspV=1, x_1_155_1_OspV=1]
<DWph=2> <it=  1> <et=48.74> <Mt= 0.01> <Spt= 0.00> <nCl=  0> <DB=   65.0000> <Mlp=   65.0000> <PB=1000000> 
<DWph=1> <it=  2> <et=48.74> <Mt= 0.00> <Spt= 0.00> <nCl=  0> <DB=   65.0000> <Mlp=   65.0000> <PB=1000000> 
---- Diving heuristic node with dive number = 0, fix depth = 0 and tabu list size = 0
Fixed projected solution = [x_1_0_1_OspV=1, x_1_49_1_OspV=1, x_1_115_1_OspV=1, x_1_162_1_OspV=1]
<DWph=2> <it=  1> <et=48.79> <Mt= 0.00> <Spt= 0.00> <nCl=  0> <DB=   65.0000> <Mlp=   65.0000> <PB=1000000> 
<DWph=1> <it=  2> <et=48.79> <Mt= 0.00> <Spt= 0.00> <nCl=  0> <DB=   65.0000> <Mlp=   65.0000> <PB=1000000> 
---- Diving heuristic node with dive number = 0, fix depth = 0 and tabu list size = 0
Fixed projected solution = [x_1_0_1_OspV=1, x_1_68_1_OspV=1, x_1_136_1_OspV=1, x_1_140_1_OspV=1]
<DWph=2> <it=  1> <et=48.85> <Mt= 0.00> <Spt= 0.00> <nCl=  0> <DB=   65.0000> <Mlp=   65.0000> <PB=1000000> 
<DWph=1> <it=  2> <et=48.85> <Mt= 0.00> <Spt= 0.00> <nCl=  0> <DB=   65.0000> <Mlp=   65.0000> <PB=1000000> 
---- Diving heuristic node with dive number = 0, fix depth = 0 and tabu list size = 0
Fixed projected solution = [x_1_0_1_OspV=1, x_1_65_1_OspV=1, x_1_131_1_OspV=1, x_1_145_1_OspV=1]
<DWph=2> <it=  1> <et=48.90> <Mt= 0.01> <Spt= 0.00> <nCl=  0> <DB=   65.0000> <Mlp=   65.0000> <PB=1000000> 
<DWph=1> <it=  2> <et=48.91> <Mt= 0.00> <Spt= 0.00> <nCl=  0> <DB=   65.0000> <Mlp=   65.0000> <PB=1000000> 
---- Diving heuristic node with dive number = 0, fix depth = 0 and tabu list size = 0
Fixed projected solution = [x_1_0_1_OspV=1, x_1_28_1_OspV=1, x_1_94_1_OspV=1, x_1_179_1_OspV=1]
<DWph=2> <it=  1> <et=48.96> <Mt= 0.00> <Spt= 0.00> <nCl=  0> <DB=   65.0000> <Mlp=   65.0000> <PB=1000000> 
<DWph=1> <it=  2> <et=48.96> <Mt= 0.00> <Spt= 0.00> <nCl=  0> <DB=   65.0000> <Mlp=   65.0000> <PB=1000000> 
---- Diving heuristic node with dive number = 0, fix depth = 0 and tabu list size = 0
Fixed projected solution = [x_1_0_1_OspV=1, x_1_27_1_OspV=1, x_1_92_1_OspV=1, x_1_181_1_OspV=1]
<DWph=2> <it=  1> <et=49.02> <Mt= 0.00> <Spt= 0.00> <nCl=  0> <DB=   65.0000> <Mlp=   65.0000> <PB=1000000> 
<DWph=1> <it=  2> <et=49.02> <Mt= 0.00> <Spt= 0.00> <nCl=  0> <DB=   65.0000> <Mlp=   65.0000> <PB=1000000> 
---- Diving heuristic node with dive number = 0, fix depth = 0 and tabu list size = 0
Fixed projected solution = [x_1_0_1_OspV=1, x_1_59_1_OspV=1, x_1_133_1_OspV=1, x_1_144_1_OspV=1]
<DWph=2> <it=  1> <et=49.07> <Mt= 0.01> <Spt= 0.00> <nCl=  0> <DB=   65.0000> <Mlp=   65.0000> <PB=1000000> 
<DWph=1> <it=  2> <et=49.07> <Mt= 0.00> <Spt= 0.00> <nCl=  0> <DB=   65.0000> <Mlp=   65.0000> <PB=1000000> 
---- Diving heuristic node with dive number = 0, fix depth = 1 and tabu list size = 0
Fixed projected solution = [x_1_0_1_OspV=1, x_1_52_1_OspV=1, x_1_138_1_OspV=1, x_1_141_1_OspV=1]
<DWph=2> <it=  1> <et=49.15> <Mt= 0.03> <Spt= 0.00> <nCl=  0> <DB=   65.0000> <Mlp=   65.0000> <PB=1000000> 
<DWph=1> <it=  2> <et=49.15> <Mt= 0.00> <Spt= 0.00> <nCl=  0> <DB=   65.0000> <Mlp=   65.0000> <PB=1000000> 
---- Diving heuristic node with dive number = 0, fix depth = 2 and tabu list size = 0
Fixed projected solution = [x_1_0_1_OspV=1, x_1_67_1_OspV=1, x_1_135_1_OspV=1, x_1_142_1_OspV=1]
<DWph=2> <it=  1> <et=49.22> <Mt= 0.02> <Spt= 0.00> <nCl=  0> <DB=   65.0000> <Mlp=   65.0000> <PB=1000000> 
<DWph=1> <it=  2> <et=49.22> <Mt= 0.00> <Spt= 0.00> <nCl=  0> <DB=   65.0000> <Mlp=   65.0000> <PB=1000000> 
---- Diving heuristic node with dive number = 0, fix depth = 2 and tabu list size = 0
Fixed projected solution = [x_1_0_1_OspV=1, x_1_33_1_OspV=1, x_1_98_1_OspV=1, x_1_177_1_OspV=1]
<DWph=2> <it=  1> <et=49.23> <Mt= 0.00> <Spt= 0.00> <nCl=  0> <DB=   65.0000> <Mlp=   65.0000> <PB=1000000> 
<DWph=1> <it=  2> <et=49.23> <Mt= 0.00> <Spt= 0.00> <nCl=  0> <DB=   65.0000> <Mlp=   65.0000> <PB=1000000> 
---- Diving heuristic node with dive number = 0, fix depth = 3 and tabu list size = 0
Fixed projected solution = [x_1_0_1_OspV=1, x_1_7_1_OspV=1, x_1_87_1_OspV=1, x_1_190_1_OspV=1]
<DWph=2> <it=  1> <et=49.27> <Mt= 0.03> <Spt= 0.00> <nCl=  0> <DB=   65.0000> <Mlp=   65.0000> <PB=1000000> 
<DWph=1> <it=  2> <et=49.27> <Mt= 0.00> <Spt= 0.00> <nCl=  0> <DB=   65.0000> <Mlp=   65.0000> <PB=1000000> 
---- Diving heuristic node with dive number = 0, fix depth = 4 and tabu list size = 0
Fixed projected solution = [x_1_0_1_OspV=1, x_1_10_1_OspV=1, x_1_73_1_OspV=1, x_1_199_1_OspV=1]
<DWph=2> <it=  1> <et=49.31> <Mt= 0.03> <Spt= 0.00> <nCl=  0> <DB=   65.0000> <Mlp=   65.0000> <PB=1000000> 
<DWph=1> <it=  2> <et=49.31> <Mt= 0.00> <Spt= 0.00> <nCl=  0> <DB=   65.0000> <Mlp=   65.0000> <PB=1000000> 
---- Diving heuristic node with dive number = 0, fix depth = 5 and tabu list size = 0
Fixed projected solution = [x_1_0_1_OspV=1, x_1_16_1_OspV=1, x_1_80_1_OspV=1, x_1_192_1_OspV=1]
<DWph=2> <it=  1> <et=49.32> <Mt= 0.01> <Spt= 0.00> <nCl=  0> <DB=   65.0000> <Mlp=   65.0000> <PB=1000000> 
<DWph=1> <it=  2> <et=49.32> <Mt= 0.00> <Spt= 0.00> <nCl=  0> <DB=   65.0000> <Mlp=   65.0000> <PB=1000000> 
---- Diving heuristic node with dive number = 0, fix depth = 6 and tabu list size = 0
Fixed projected solution = [x_1_0_1_OspV=1, x_1_19_1_OspV=1, x_1_82_1_OspV=1, x_1_191_1_OspV=1]
<DWph=2> <it=  1> <et=49.34> <Mt= 0.01> <Spt= 0.00> <nCl=  0> <DB=   65.0000> <Mlp=   65.0000> <PB=1000000> 
<DWph=1> <it=  2> <et=49.34> <Mt= 0.00> <Spt= 0.00> <nCl=  0> <DB=   65.0000> <Mlp=   65.0000> <PB=1000000> 
---- Diving heuristic node with dive number = 0, fix depth = 7 and tabu list size = 0
Fixed projected solution = [x_1_0_1_OspV=1, x_1_61_1_OspV=1, x_1_126_1_OspV=1, x_1_149_1_OspV=1]
<DWph=2> <it=  1> <et=49.37> <Mt= 0.03> <Spt= 0.00> <nCl=  0> <DB=   65.0000> <Mlp=   65.0000> <PB=1000000> 
<DWph=1> <it=  2> <et=49.37> <Mt= 0.00> <Spt= 0.00> <nCl=  0> <DB=   65.0000> <Mlp=   65.0000> <PB=1000000> 
---- Diving heuristic node with dive number = 0, fix depth = 8 and tabu list size = 0
Fixed projected solution = [x_1_0_1_OspV=1, x_1_64_1_OspV=1, x_1_72_1_OspV=1, x_1_186_1_OspV=1]
<DWph=2> <it=  1> <et=49.40> <Mt= 0.02> <Spt= 0.00> <nCl=  0> <DB=   65.0000> <Mlp=   65.0000> <PB=1000000> 
<DWph=1> <it=  2> <et=49.40> <Mt= 0.00> <Spt= 0.00> <nCl=  0> <DB=   65.0000> <Mlp=   65.0000> <PB=1000000> 
---- Diving heuristic node with dive number = 0, fix depth = 9 and tabu list size = 0
Fixed projected solution = [x_1_0_1_OspV=1, x_1_8_1_OspV=1, x_1_124_1_OspV=1, x_1_159_1_OspV=1]
<DWph=2> <it=  1> <et=49.46> <Mt= 0.06> <Spt= 0.00> <nCl=  0> <DB=   65.0000> <Mlp=   65.0000> <PB=1000000> 
<DWph=1> <it=  2> <et=49.46> <Mt= 0.00> <Spt= 0.00> <nCl=  0> <DB=   65.0000> <Mlp=   65.0000> <PB=1000000> 
---- Diving heuristic node with dive number = 0, fix depth = 10 and tabu list size = 0
Fixed projected solution = [x_1_0_1_OspV=1, x_1_9_1_OspV=1, x_1_77_1_OspV=1, x_1_195_1_OspV=1]
<DWph=2> <it=  1> <et=49.48> <Mt= 0.01> <Spt= 0.00> <nCl=  0> <DB=   65.0000> <Mlp=   65.0000> <PB=1000000> 
<DWph=1> <it=  2> <et=49.48> <Mt= 0.00> <Spt= 0.00> <nCl=  0> <DB=   65.0000> <Mlp=   65.0000> <PB=1000000> 
---- Diving heuristic node with dive number = 0, fix depth = 11 and tabu list size = 0
Fixed projected solution = [x_1_0_1_OspV=1, x_1_54_1_OspV=1, x_1_119_1_OspV=1, x_1_157_1_OspV=1]
<DWph=2> <it=  6> <et=50.29> <Mt= 0.08> <Spt= 0.72> <nCl=500> <DB=   64.9963> <Mlp=   65.0000> <PB=1000000> 
<DWph=1> <it=  7> <et=50.30> <Mt= 0.00> <Spt= 0.00> <nCl=  0> <DB=   65.0000> <Mlp=   65.0000> <PB=1000000> 
---- Diving heuristic node with dive number = 0, fix depth = 12 and tabu list size = 0
Fixed projected solution = [x_1_0_1_OspV=1, x_1_11_1_OspV=1, x_1_70_1_OspV=1, x_1_200_1_OspV=1]
<DWph=2> <it=  3> <et=50.61> <Mt= 0.03> <Spt= 0.27> <nCl=200> <DB=   64.9980> <Mlp=   65.0000> <PB=1000000> 
<DWph=1> <it=  4> <et=50.61> <Mt= 0.00> <Spt= 0.00> <nCl=  0> <DB=   65.0000> <Mlp=   65.0000> <PB=1000000> 
---- Diving heuristic node with dive number = 0, fix depth = 13 and tabu list size = 0
Fixed projected solution = [x_1_0_1_OspV=1, x_1_63_1_OspV=1, x_1_128_1_OspV=1, x_1_147_1_OspV=1]
<DWph=2> <it=  1> <et=50.68> <Mt= 0.06> <Spt= 0.00> <nCl=  0> <DB=   65.0000> <Mlp=   65.0000> <PB=1000000> 
<DWph=1> <it=  2> <et=50.68> <Mt= 0.00> <Spt= 0.00> <nCl=  0> <DB=   65.0000> <Mlp=   65.0000> <PB=1000000> 
---- Diving heuristic node with dive number = 0, fix depth = 14 and tabu list size = 0
Fixed projected solution = [x_1_0_1_OspV=1, x_1_34_1_OspV=1, x_1_100_1_OspV=1, x_1_175_1_OspV=1]
<DWph=2> <it= 10> <et=52.78> <Mt= 0.11> <Spt= 1.96> <nCl=730> <DB=   65.0000> <Mlp=   65.0000> <PB=1000000> 
<DWph=1> <it= 12> <et=52.94> <Mt= 0.00> <Spt= 0.15> <nCl=100> <DB=   64.9810> <Mlp=   65.0000> <PB=1000000> 
---- Diving heuristic node with dive number = 0, fix depth = 15 and tabu list size = 0
Fixed projected solution = [x_1_0_1_OspV=1, x_1_32_1_OspV=1, x_1_99_1_OspV=1, x_1_176_1_OspV=1]
<DWph=2> <it=  1> <et=52.98> <Mt= 0.02> <Spt= 0.00> <nCl=  0> <DB=   65.0000> <Mlp=   65.0000> <PB=1000000> 
<DWph=1> <it=  2> <et=52.98> <Mt= 0.00> <Spt= 0.00> <nCl=  0> <DB=   65.0000> <Mlp=   65.0000> <PB=1000000> 
---- Diving heuristic node with dive number = 0, fix depth = 16 and tabu list size = 0
Fixed projected solution = [x_1_0_1_OspV=1, x_1_43_1_OspV=1, x_1_107_1_OspV=1, x_1_168_1_OspV=1]
<DWph=2> <it=  1> <et=53.01> <Mt= 0.03> <Spt= 0.00> <nCl=  0> <DB=   65.0000> <Mlp=   65.0000> <PB=1000000> 
<DWph=1> <it=  2> <et=53.01> <Mt= 0.00> <Spt= 0.00> <nCl=  0> <DB=   65.0000> <Mlp=   65.0000> <PB=1000000> 
---- Diving heuristic node with dive number = 0, fix depth = 17 and tabu list size = 0
Fixed projected solution = [x_1_0_1_OspV=1, x_1_44_1_OspV=1, x_1_110_1_OspV=1, x_1_166_1_OspV=1]
<DWph=2> <it=  1> <et=53.02> <Mt= 0.00> <Spt= 0.00> <nCl=  0> <DB=   65.0000> <Mlp=   65.0000> <PB=1000000> 
<DWph=1> <it=  2> <et=53.02> <Mt= 0.00> <Spt= 0.00> <nCl=  0> <DB=   65.0000> <Mlp=   65.0000> <PB=1000000> 
---- Diving heuristic node with dive number = 0, fix depth = 18 and tabu list size = 0
Fixed projected solution = [x_1_0_1_OspV=1, x_1_39_1_OspV=1, x_1_89_1_OspV=1, x_1_182_1_OspV=1]
<DWph=2> <it=  1> <et=53.06> <Mt= 0.04> <Spt= 0.00> <nCl=  0> <DB=   65.0000> <Mlp=   65.0000> <PB=1000000> 
<DWph=1> <it=  2> <et=53.06> <Mt= 0.00> <Spt= 0.00> <nCl=  0> <DB=   65.0000> <Mlp=   65.0000> <PB=1000000> 
---- Diving heuristic node with dive number = 0, fix depth = 19 and tabu list size = 0
Fixed projected solution = [x_1_0_1_OspV=1, x_1_25_1_OspV=1, x_1_88_1_OspV=1, x_1_185_1_OspV=1]
<DWph=2> <it=  1> <et=53.11> <Mt= 0.04> <Spt= 0.00> <nCl=  0> <DB=   65.0000> <Mlp=   65.0000> <PB=1000000> 
<DWph=1> <it=  2> <et=53.11> <Mt= 0.00> <Spt= 0.00> <nCl=  0> <DB=   65.0000> <Mlp=   65.0000> <PB=1000000> 
---- Diving heuristic node with dive number = 0, fix depth = 20 and tabu list size = 0
Fixed projected solution = [x_1_0_1_OspV=1, x_1_20_1_OspV=1, x_1_86_1_OspV=1, x_1_189_1_OspV=1]
<DWph=2> <it=  1> <et=53.14> <Mt= 0.02> <Spt= 0.00> <nCl=  0> <DB=   65.0000> <Mlp=   65.0000> <PB=1000000> 
<DWph=1> <it=  2> <et=53.14> <Mt= 0.00> <Spt= 0.00> <nCl=  0> <DB=   65.0000> <Mlp=   65.0000> <PB=1000000> 
---- Diving heuristic node with dive number = 0, fix depth = 20 and tabu list size = 0
Fixed projected solution = [x_1_0_1_OspV=1, x_1_26_1_OspV=1, x_1_90_1_OspV=1, x_1_183_1_OspV=1]
<DWph=2> <it=  1> <et=53.14> <Mt= 0.00> <Spt= 0.00> <nCl=  0> <DB=   65.0000> <Mlp=   65.0000> <PB=1000000> 
<DWph=1> <it=  2> <et=53.15> <Mt= 0.00> <Spt= 0.00> <nCl=  0> <DB=   65.0000> <Mlp=   65.0000> <PB=1000000> 
---- Diving heuristic node with dive number = 0, fix depth = 21 and tabu list size = 0
Fixed projected solution = [x_1_0_1_OspV=1, x_1_6_1_OspV=1, x_1_105_1_OspV=1, x_1_174_1_OspV=1]
<DWph=2> <it=  4> <et=53.90> <Mt= 0.07> <Spt= 0.68> <nCl=218> <DB=   64.9944> <Mlp=   65.0000> <PB=1000000> 
<DWph=1> <it=  5> <et=53.90> <Mt= 0.00> <Spt= 0.00> <nCl=  0> <DB=   65.0000> <Mlp=   65.0000> <PB=1000000> 
---- Diving heuristic node with dive number = 0, fix depth = 22 and tabu list size = 0
Fixed projected solution = [x_1_0_1_OspV=1, x_1_23_1_OspV=1, x_1_85_1_OspV=1, x_1_188_1_OspV=1]
<DWph=2> <it=  1> <et=53.92> <Mt= 0.01> <Spt= 0.00> <nCl=  0> <DB=   65.0000> <Mlp=   65.0000> <PB=1000000> 
<DWph=1> <it=  2> <et=53.92> <Mt= 0.00> <Spt= 0.00> <nCl=  0> <DB=   65.0000> <Mlp=   65.0000> <PB=1000000> 
---- Diving heuristic node with dive number = 0, fix depth = 23 and tabu list size = 0
Fixed projected solution = [x_1_0_1_OspV=1, x_1_41_1_OspV=1, x_1_106_1_OspV=1, x_1_169_1_OspV=1]
<DWph=2> <it=  2> <et=54.09> <Mt= 0.02> <Spt= 0.14> <nCl=100> <DB=   64.9938> <Mlp=   65.0000> <PB=1000000> 
<DWph=1> <it=  3> <et=54.09> <Mt= 0.00> <Spt= 0.00> <nCl=  0> <DB=   65.0000> <Mlp=   65.0000> <PB=1000000> 
---- Diving heuristic node with dive number = 0, fix depth = 24 and tabu list size = 0
Fixed projected solution = [x_1_0_1_OspV=1, x_1_14_1_OspV=1, x_1_75_1_OspV=1, x_1_198_1_OspV=1]
<DWph=2> <it=  4> <et=54.69> <Mt= 0.05> <Spt= 0.54> <nCl= 66> <DB=   64.9976> <Mlp=   65.0000> <PB=1000000> 
<DWph=1> <it=  5> <et=54.69> <Mt= 0.00> <Spt= 0.00> <nCl=  0> <DB=   65.0000> <Mlp=   65.0000> <PB=1000000> 
---- Diving heuristic node with dive number = 0, fix depth = 25 and tabu list size = 0
Fixed projected solution = [x_1_0_1_OspV=1, x_1_38_1_OspV=1, x_1_134_1_OspV=1, x_1_146_1_OspV=1]
<DWph=2> <it=  5> <et=55.36> <Mt= 0.13> <Spt= 0.52> <nCl=400> <DB=   64.9800> <Mlp=   65.0000> <PB=1000000> 
<DWph=1> <it=  6> <et=55.36> <Mt= 0.00> <Spt= 0.00> <nCl=  0> <DB=   65.0000> <Mlp=   65.0000> <PB=1000000> 
---- Diving heuristic node with dive number = 0, fix depth = 25 and tabu list size = 0
Fixed projected solution = [x_1_0_1_OspV=1, x_1_4_1_OspV=1, x_1_97_1_OspV=1, x_1_184_1_OspV=1]
<DWph=2> <it=  1> <et=55.38> <Mt= 0.00> <Spt= 0.00> <nCl=  0> <DB=   65.0000> <Mlp=   65.0000> <PB=1000000> 
<DWph=1> <it=  2> <et=55.38> <Mt= 0.00> <Spt= 0.00> <nCl=  0> <DB=   65.0000> <Mlp=   65.0000> <PB=1000000> 
---- Diving heuristic node with dive number = 0, fix depth = 26 and tabu list size = 0
Fixed projected solution = [x_1_0_1_OspV=1, x_1_31_1_OspV=1, x_1_95_1_OspV=1, x_1_178_1_OspV=1]
<DWph=2> <it=  2> <et=55.58> <Mt= 0.06> <Spt= 0.14> <nCl= 12> <DB=   64.9997> <Mlp=   65.0000> <PB=1000000> 
<DWph=1> <it=  3> <et=55.58> <Mt= 0.00> <Spt= 0.00> <nCl=  0> <DB=   65.0000> <Mlp=   65.0000> <PB=1000000> 
---- Diving heuristic node with dive number = 0, fix depth = 27 and tabu list size = 0
Fixed projected solution = [x_1_0_1_OspV=1, x_1_21_1_OspV=1, x_1_111_1_OspV=1, x_1_167_1_OspV=1]
<DWph=2> <it= 10> <et=57.16> <Mt= 0.09> <Spt= 1.48> <nCl=181> <DB=   64.9984> <Mlp=   65.0000> <PB=1000000> 
<DWph=2> <it= 20> <et=58.55> <Mt= 0.03> <Spt= 1.35> <nCl=178> <DB=   64.9987> <Mlp=   65.0000> <PB=1000000> 
<DWph=2> <it= 28> <et=60.07> <Mt= 0.03> <Spt= 1.48> <nCl=304> <DB=   64.9907> <Mlp=   65.0000> <PB=1000000> 
---- Diving heuristic node with dive number = 0, fix depth = 28 and tabu list size = 0
Fixed projected solution = [x_1_0_1_OspV=1, x_1_58_1_OspV=1, x_1_108_1_OspV=1, x_1_165_1_OspV=1]
<DWph=2> <it=  1> <et=60.27> <Mt= 0.02> <Spt= 0.00> <nCl=  0> <DB=   65.0000> <Mlp=   65.0000> <PB=1000000> 
<DWph=1> <it=  2> <et=60.27> <Mt= 0.00> <Spt= 0.00> <nCl=  0> <DB=   65.0000> <Mlp=   65.0000> <PB=1000000> 
---- Diving heuristic node with dive number = 0, fix depth = 29 and tabu list size = 0
Fixed projected solution = [x_1_0_1_OspV=1, x_1_55_1_OspV=1, x_1_122_1_OspV=1, x_1_154_1_OspV=1]
<DWph=2> <it=  8> <et=62.04> <Mt= 0.09> <Spt= 1.68> <nCl=316> <DB=   65.0000> <Mlp=   65.0000> <PB=1000000> 
---- Diving heuristic node with dive number = 0, fix depth = 30 and tabu list size = 0
Fixed projected solution = [x_1_0_1_OspV=1, x_1_113_1_OspV=1, x_1_114_1_OspV=1, x_1_143_1_OspV=1]
<DWph=2> <it=  9> <et=64.13> <Mt= 0.16> <Spt= 1.75> <nCl=318> <DB=   65.0001> <Mlp=   65.0001> <PB=1000000> 
<DWph=1> <it= 10> <et=64.29> <Mt= 0.00> <Spt= 0.15> <nCl=100> <DB=   64.9367> <Mlp=   65.0001> <PB=1000000> 
<DWph=1> <it= 11> <et=64.30> <Mt= 0.01> <Spt= 0.00> <nCl=  0> <DB=   64.9367> <Mlp=   65.0000> <PB=1000000> 
---- Diving heuristic node with dive number = 0, fix depth = 31 and tabu list size = 0
Fixed projected solution = [x_1_0_1_OspV=1, x_1_93_1_OspV=1, x_1_104_1_OspV=1, x_1_152_1_OspV=1]
<DWph=2> <it=  1> <et=64.36> <Mt= 0.05> <Spt= 0.00> <nCl=  0> <DB=   65.0000> <Mlp=   65.0000> <PB=1000000> 
<DWph=1> <it=  2> <et=64.36> <Mt= 0.00> <Spt= 0.00> <nCl=  0> <DB=   65.0000> <Mlp=   65.0000> <PB=1000000> 
---- Diving heuristic node with dive number = 0, fix depth = 32 and tabu list size = 0
Fixed projected solution = [x_1_0_1_OspV=1, x_1_24_1_OspV=1, x_1_130_1_OspV=1, x_1_150_1_OspV=1]
<DWph=1> <it= 12> <et=66.27> <Mt= 0.21> <Spt= 1.65> <nCl=716> <DB=   64.9405> <Mlp=   65.0000> <PB=1000000> 
---- Diving heuristic node with dive number = 0, fix depth = 32 and tabu list size = 0
Fixed projected solution = [x_1_0_1_OspV=1, x_1_74_1_OspV=1, x_1_83_1_OspV=1, x_1_170_1_OspV=1]
<DWph=2> <it=  1> <et=66.28> <Mt= 0.00> <Spt= 0.00> <nCl=  0> <DB=   65.0000> <Mlp=   65.0000> <PB=1000000> 
<DWph=1> <it=  2> <et=66.29> <Mt= 0.00> <Spt= 0.00> <nCl=  0> <DB=   65.0000> <Mlp=   65.0000> <PB=1000000> 
---- Diving heuristic node with dive number = 0, fix depth = 32 and tabu list size = 0
Fixed projected solution = [x_1_0_1_OspV=1, x_1_47_1_OspV=1, x_1_116_1_OspV=1, x_1_161_1_OspV=1]
<DWph=2> <it=  1> <et=66.30> <Mt= 0.00> <Spt= 0.00> <nCl=  0> <DB=   65.0000> <Mlp=   65.0000> <PB=1000000> 
<DWph=1> <it=  2> <et=66.30> <Mt= 0.00> <Spt= 0.00> <nCl=  0> <DB=   65.0000> <Mlp=   65.0000> <PB=1000000> 
---- Diving heuristic node with dive number = 0, fix depth = 32 and tabu list size = 0
Fixed projected solution = [x_1_0_1_OspV=1, x_1_42_1_OspV=1, x_1_60_1_OspV=1, x_1_109_1_OspV=1, x_1_158_1_OspV=1]
<DWph=2> <it=  1> <et=66.31> <Mt= 0.01> <Spt= 0.00> <nCl=  0> <DB=   65.0000> <Mlp=   65.0000> <PB=1000000> 
<DWph=1> <it=  2> <et=66.31> <Mt= 0.00> <Spt= 0.00> <nCl=  0> <DB=   65.0000> <Mlp=   65.0000> <PB=1000000> 
---- Diving heuristic node with dive number = 0, fix depth = 33 and tabu list size = 0
Fixed projected solution = [x_1_0_1_OspV=1, x_1_5_1_OspV=1, x_1_127_1_OspV=1, x_1_153_1_OspV=1]
<DWph=2> <it= 10> <et=67.60> <Mt= 0.16> <Spt= 1.12> <nCl=1000> <DB=-27250751.9279> <Mlp=284562.9582> <PB=1000000> 
<DWph=2> <it= 20> <et=69.57> <Mt= 0.09> <Spt= 1.88> <nCl=502> <DB=   64.9678> <Mlp=   65.0004> <PB=1000000> 
<DWph=2> <it= 25> <et=70.95> <Mt= 0.01> <Spt= 1.36> <nCl= 77> <DB=   65.0004> <Mlp=   65.0004> <PB=1000000> 
<DWph=1> <it= 30> <et=71.83> <Mt= 0.04> <Spt= 0.83> <nCl=444> <DB=   64.9909> <Mlp=   65.0003> <PB=1000000> 
<DWph=1> <it= 39> <et=73.70> <Mt= 0.04> <Spt= 1.84> <nCl=267> <DB=   65.0003> <Mlp=   65.0003> <PB=1000000> 
---- Diving heuristic node with dive number = 0, fix depth = 34 and tabu list size = 0
Fixed projected solution = [x_1_0_1_OspV=1, x_1_50_1_OspV=1, x_1_117_1_OspV=1, x_1_160_1_OspV=1]
<DWph=2> <it=  7> <et=75.29> <Mt= 0.10> <Spt= 1.47> <nCl=277> <DB=   65.0004> <Mlp=   65.0004> <PB=1000000> 
<DWph=1> <it= 10> <et=75.77> <Mt= 0.01> <Spt= 0.47> <nCl=176> <DB=   64.9979> <Mlp=   65.0004> <PB=1000000> 
<DWph=1> <it= 11> <et=76.09> <Mt= 0.01> <Spt= 0.30> <nCl=  0> <DB=   65.0004> <Mlp=   65.0004> <PB=1000000> 
---- Diving heuristic node with dive number = 0, fix depth = 34 and tabu list size = 0
Fixed projected solution = [x_1_0_1_OspV=1, x_1_13_1_OspV=1, x_1_78_1_OspV=1, x_1_194_1_OspV=1]
<DWph=2> <it=  1> <et=76.42> <Mt= 0.00> <Spt= 0.27> <nCl=  0> <DB=   65.0004> <Mlp=   65.0004> <PB=1000000> 
<DWph=1> <it=  2> <et=76.72> <Mt= 0.00> <Spt= 0.30> <nCl=  0> <DB=   65.0004> <Mlp=   65.0004> <PB=1000000> 
---- Diving heuristic node with dive number = 0, fix depth = 35 and tabu list size = 0
Fixed projected solution = [x_1_0_1_OspV=1, x_1_53_1_OspV=1, x_1_120_1_OspV=1, x_1_156_1_OspV=1]
<DWph=2> <it=  6> <et=78.04> <Mt= 0.09> <Spt= 1.22> <nCl=391> <DB=   65.0004> <Mlp=   65.0004> <PB=1000000> 
<DWph=1> <it= 10> <et=78.66> <Mt= 0.01> <Spt= 0.60> <nCl=225> <DB=   64.9937> <Mlp=   65.0004> <PB=1000000> 
<DWph=1> <it= 12> <et=79.12> <Mt= 0.01> <Spt= 0.45> <nCl=  3> <DB=   65.0004> <Mlp=   65.0004> <PB=1000000> 
---- Diving heuristic node with dive number = 0, fix depth = 36 and tabu list size = 0
Fixed projected solution = [x_1_0_1_OspV=1, x_1_2_1_OspV=1, x_1_84_1_OspV=1, x_1_197_1_OspV=1]
<DWph=2> <it= 10> <et=80.76> <Mt= 0.14> <Spt= 1.48> <nCl=910> <DB=   64.9588> <Mlp=   65.0006> <PB=1000000> 
<DWph=2> <it= 13> <et=81.57> <Mt= 0.01> <Spt= 0.81> <nCl=106> <DB=   65.0006> <Mlp=   65.0006> <PB=1000000> 
<DWph=1> <it= 17> <et=82.33> <Mt= 0.01> <Spt= 0.74> <nCl=202> <DB=   65.0006> <Mlp=   65.0006> <PB=1000000> 
---- Diving heuristic node with dive number = 0, fix depth = 37 and tabu list size = 0
Fixed projected solution = [x_1_0_1_OspV=1, x_1_18_1_OspV=1, x_1_76_1_OspV=1, x_1_196_1_OspV=1]
<DWph=2> <it=  7> <et=83.95> <Mt= 0.07> <Spt= 1.53> <nCl=382> <DB=   65.0007> <Mlp=   65.0007> <PB=1000000> 
<DWph=1> <it=  8> <et=84.25> <Mt= 0.00> <Spt= 0.31> <nCl=  0> <DB=   65.0007> <Mlp=   65.0007> <PB=1000000> 
---- Diving heuristic node with dive number = 0, fix depth = 38 and tabu list size = 0
Fixed projected solution = [x_1_0_1_OspV=1, x_1_37_1_OspV=1, x_1_79_1_OspV=1, x_1_187_1_OspV=1]
<DWph=2> <it= 10> <et=86.08> <Mt= 0.12> <Spt= 1.62> <nCl=694> <DB=   64.9793> <Mlp=   65.0007> <PB=1000000> 
<DWph=2> <it= 15> <et=87.20> <Mt= 0.01> <Spt= 1.10> <nCl= 40> <DB=   64.9657> <Mlp=   65.0007> <PB=1000000> 
<DWph=1> <it= 20> <et=87.97> <Mt= 0.03> <Spt= 0.75> <nCl=260> <DB=   64.9466> <Mlp=   65.0007> <PB=1000000> 
<DWph=1> <it= 22> <et=88.57> <Mt= 0.00> <Spt= 0.60> <nCl= 20> <DB=   65.0007> <Mlp=   65.0007> <PB=1000000> 
---- Diving heuristic node with dive number = 0, fix depth = 38 and tabu list size = 0
Fixed projected solution = [x_1_0_1_OspV=1, x_1_35_1_OspV=1, x_1_102_1_OspV=1, x_1_173_1_OspV=1]
<DWph=2> <it=  1> <et=88.86> <Mt= 0.00> <Spt= 0.27> <nCl=  0> <DB=   65.0007> <Mlp=   65.0007> <PB=1000000> 
<DWph=1> <it=  2> <et=89.16> <Mt= 0.01> <Spt= 0.30> <nCl=  0> <DB=   65.0007> <Mlp=   65.0007> <PB=1000000> 
---- Diving heuristic node with dive number = 0, fix depth = 39 and tabu list size = 0
Fixed projected solution = [x_1_0_1_OspV=1, x_1_51_1_OspV=1, x_1_71_1_OspV=1, x_1_193_1_OspV=1]
<DWph=2> <it=  1> <et=89.49> <Mt= 0.04> <Spt= 0.27> <nCl=  0> <DB=   65.0007> <Mlp=   65.0007> <PB=1000000> 
<DWph=1> <it=  2> <et=89.79> <Mt= 0.00> <Spt= 0.30> <nCl=  0> <DB=   65.0007> <Mlp=   65.0007> <PB=1000000> 
---- Diving heuristic node with dive number = 0, fix depth = 40 and tabu list size = 0
Fixed projected solution = [x_1_0_1_OspV=1, x_1_17_1_OspV=1, x_1_96_1_OspV=1, x_1_180_1_OspV=1]
<DWph=2> <it=  7> <et=91.13> <Mt= 0.10> <Spt= 1.21> <nCl=497> <DB=   64.9649> <Mlp=   65.0007> <PB=1000000> 
<DWph=1> <it= 10> <et=91.72> <Mt= 0.01> <Spt= 0.58> <nCl=  8> <DB=   64.9887> <Mlp=   65.0007> <PB=1000000> 
<DWph=1> <it= 11> <et=92.01> <Mt= 0.00> <Spt= 0.29> <nCl=  0> <DB=   65.0007> <Mlp=   65.0007> <PB=1000000> 
---- Diving heuristic node with dive number = 0, fix depth = 41 and tabu list size = 0
Fixed projected solution = [x_1_0_1_OspV=1, x_1_29_1_OspV=1, x_1_66_1_OspV=1, x_1_123_1_OspV=1, x_1_148_1_OspV=1]
<DWph=2> <it= 10> <et=93.64> <Mt= 0.20> <Spt= 1.41> <nCl=756> <DB=   64.9455> <Mlp=   65.0018> <PB=1000000> 
<DWph=2> <it= 17> <et=95.31> <Mt= 0.03> <Spt= 1.57> <nCl=246> <DB=   65.0018> <Mlp=   65.0018> <PB=1000000> 
<DWph=1> <it= 18> <et=95.58> <Mt= 0.01> <Spt= 0.27> <nCl=  0> <DB=   65.0018> <Mlp=   65.0018> <PB=1000000> 
---- Diving heuristic node with dive number = 0, fix depth = 42 and tabu list size = 0
Fixed projected solution = [x_1_0_1_OspV=1, x_1_46_1_OspV=1, x_1_62_1_OspV=1, x_1_202_1_OspV=1]
<DWph=2> <it= 10> <et=96.77> <Mt= 0.09> <Spt= 1.08> <nCl=1000> <DB=-32775685.0656> <Mlp=   65.0390> <PB=1000000> 
<DWph=2> <it= 20> <et=98.45> <Mt= 0.04> <Spt= 1.63> <nCl=588> <DB=   64.8901> <Mlp=   65.0023> <PB=1000000> 
<DWph=2> <it= 27> <et=99.97> <Mt= 0.02> <Spt= 1.51> <nCl=173> <DB=   65.0023> <Mlp=   65.0023> <PB=1000000> 
<DWph=1> <it= 29> <et=100.35> <Mt= 0.01> <Spt= 0.37> <nCl=  2> <DB=   65.0023> <Mlp=   65.0023> <PB=1000000> 
---- Diving heuristic node with dive number = 0, fix depth = 43 and tabu list size = 0
Fixed projected solution = [x_1_0_1_OspV=1, x_1_15_1_OspV=1, x_1_30_1_OspV=1, x_1_57_1_OspV=1, x_1_201_1_OspV=1]
<DWph=2> <it=  6> <et=101.61> <Mt= 0.03> <Spt= 1.21> <nCl=139> <DB=   65.0026> <Mlp=   65.0026> <PB=1000000> 
<DWph=1> <it=  7> <et=101.85> <Mt= 0.00> <Spt= 0.24> <nCl=  0> <DB=   65.0026> <Mlp=   65.0026> <PB=1000000> 
---- Diving heuristic node with dive number = 0, fix depth = 44 and tabu list size = 0
Fixed projected solution = [x_1_0_1_OspV=1, x_1_1_1_OspV=1, x_1_45_1_OspV=1, x_1_101_1_OspV=1, x_1_171_1_OspV=1]
<DWph=2> <it= 10> <et=103.32> <Mt= 0.08> <Spt= 1.30> <nCl=840> <DB=   64.8600> <Mlp=   65.0058> <PB=1000000> 
<DWph=2> <it= 20> <et=104.98> <Mt= 0.06> <Spt= 1.61> <nCl=531> <DB=   64.8676> <Mlp=   65.0041> <PB=1000000> 
<DWph=2> <it= 30> <et=106.66> <Mt= 0.03> <Spt= 1.64> <nCl=489> <DB=   64.9473> <Mlp=   65.0041> <PB=1000000> 
<DWph=2> <it= 31> <et=107.03> <Mt= 0.00> <Spt= 0.37> <nCl=  0> <DB=   65.0041> <Mlp=   65.0041> <PB=1000000> 
<DWph=1> <it= 32> <et=107.28> <Mt= 0.00> <Spt= 0.25> <nCl=  0> <DB=   65.0041> <Mlp=   65.0041> <PB=1000000> 
---- Diving heuristic node with dive number = 0, fix depth = 45 and tabu list size = 0
Fixed projected solution = [x_1_0_1_OspV=1, x_1_81_1_OspV=1, x_1_91_1_OspV=1, x_1_163_1_OspV=1]
<DWph=2> <it= 10> <et=108.83> <Mt= 0.09> <Spt= 1.44> <nCl=755> <DB=   64.9055> <Mlp=   65.0042> <PB=1000000> 
<DWph=2> <it= 20> <et=110.43> <Mt= 0.07> <Spt= 1.52> <nCl=733> <DB=   64.9965> <Mlp=   65.0042> <PB=1000000> 
<DWph=2> <it= 30> <et=112.54> <Mt= 0.04> <Spt= 2.01> <nCl=551> <DB=   65.0042> <Mlp=   65.0042> <PB=1000000> 
<DWph=1> <it= 31> <et=112.80> <Mt= 0.00> <Spt= 0.26> <nCl=  0> <DB=   65.0042> <Mlp=   65.0042> <PB=1000000> 
---- Restricted Master IP Heuristic started ----
---- Diving heuristic node with dive number = 1, fix depth = 2 and tabu list size = 1
Fixed projected solution = [x_1_0_1_OspV=1, x_1_33_1_OspV=1, x_1_98_1_OspV=1, x_1_177_1_OspV=1]
<DWph=2> <it=  1> <et=113.15> <Mt= 0.01> <Spt= 0.00> <nCl=  0> <DB=   65.0000> <Mlp=   65.0000> <PB=1000000> 
<DWph=1> <it=  2> <et=113.15> <Mt= 0.00> <Spt= 0.00> <nCl=  0> <DB=   65.0000> <Mlp=   65.0000> <PB=1000000> 
---- Diving heuristic node with dive number = 1, fix depth = 3 and tabu list size = 1
Fixed projected solution = [x_1_0_1_OspV=1, x_1_19_1_OspV=1, x_1_82_1_OspV=1, x_1_191_1_OspV=1]
<DWph=2> <it=  1> <et=113.18> <Mt= 0.02> <Spt= 0.00> <nCl=  0> <DB=   65.0000> <Mlp=   65.0000> <PB=1000000> 
<DWph=1> <it=  2> <et=113.18> <Mt= 0.00> <Spt= 0.00> <nCl=  0> <DB=   65.0000> <Mlp=   65.0000> <PB=1000000> 
---- Diving heuristic node with dive number = 1, fix depth = 4 and tabu list size = 1
Fixed projected solution = [x_1_0_1_OspV=1, x_1_16_1_OspV=1, x_1_80_1_OspV=1, x_1_192_1_OspV=1]
<DWph=2> <it=  1> <et=113.23> <Mt= 0.03> <Spt= 0.00> <nCl=  0> <DB=   65.0000> <Mlp=   65.0000> <PB=1000000> 
<DWph=1> <it=  2> <et=113.23> <Mt= 0.00> <Spt= 0.00> <nCl=  0> <DB=   65.0000> <Mlp=   65.0000> <PB=1000000> 
---- Diving heuristic node with dive number = 1, fix depth = 5 and tabu list size = 1
Fixed projected solution = [x_1_0_1_OspV=1, x_1_10_1_OspV=1, x_1_73_1_OspV=1, x_1_199_1_OspV=1]
<DWph=2> <it=  1> <et=113.25> <Mt= 0.01> <Spt= 0.00> <nCl=  0> <DB=   65.0000> <Mlp=   65.0000> <PB=1000000> 
<DWph=1> <it=  2> <et=113.26> <Mt= 0.00> <Spt= 0.00> <nCl=  0> <DB=   65.0000> <Mlp=   65.0000> <PB=1000000> 
---- Diving heuristic node with dive number = 1, fix depth = 6 and tabu list size = 1
Fixed projected solution = [x_1_0_1_OspV=1, x_1_7_1_OspV=1, x_1_87_1_OspV=1, x_1_190_1_OspV=1]
<DWph=2> <it=  1> <et=113.28> <Mt= 0.01> <Spt= 0.00> <nCl=  0> <DB=   65.0000> <Mlp=   65.0000> <PB=1000000> 
<DWph=1> <it=  2> <et=113.28> <Mt= 0.00> <Spt= 0.00> <nCl=  0> <DB=   65.0000> <Mlp=   65.0000> <PB=1000000> 
---- Diving heuristic node with dive number = 1, fix depth = 7 and tabu list size = 1
Fixed projected solution = [x_1_0_1_OspV=1, x_1_45_1_OspV=1, x_1_111_1_OspV=1, x_1_165_1_OspV=1]
<DWph=2> <it=  1> <et=113.31> <Mt= 0.02> <Spt= 0.00> <nCl=  0> <DB=   65.0000> <Mlp=   65.0000> <PB=1000000> 
<DWph=1> <it=  2> <et=113.31> <Mt= 0.00> <Spt= 0.00> <nCl=  0> <DB=   65.0000> <Mlp=   65.0000> <PB=1000000> 
---- Diving heuristic node with dive number = 1, fix depth = 8 and tabu list size = 1
Fixed projected solution = [x_1_0_1_OspV=1, x_1_54_1_OspV=1, x_1_119_1_OspV=1, x_1_157_1_OspV=1]
<DWph=2> <it=  1> <et=113.40> <Mt= 0.08> <Spt= 0.00> <nCl=  0> <DB=   65.0000> <Mlp=   65.0000> <PB=1000000> 
<DWph=1> <it=  2> <et=113.40> <Mt= 0.00> <Spt= 0.00> <nCl=  0> <DB=   65.0000> <Mlp=   65.0000> <PB=1000000> 
---- Diving heuristic node with dive number = 1, fix depth = 8 and tabu list size = 1
Fixed projected solution = [x_1_0_1_OspV=1, x_1_14_1_OspV=1, x_1_75_1_OspV=1, x_1_198_1_OspV=1]
<DWph=2> <it=  1> <et=113.42> <Mt= 0.00> <Spt= 0.00> <nCl=  0> <DB=   65.0000> <Mlp=   65.0000> <PB=1000000> 
<DWph=1> <it=  2> <et=113.42> <Mt= 0.01> <Spt= 0.00> <nCl=  0> <DB=   65.0000> <Mlp=   65.0000> <PB=1000000> 
---- Diving heuristic node with dive number = 1, fix depth = 9 and tabu list size = 1
Fixed projected solution = [x_1_0_1_OspV=1, x_1_35_1_OspV=1, x_1_102_1_OspV=1, x_1_173_1_OspV=1]
<DWph=2> <it=  1> <et=113.45> <Mt= 0.01> <Spt= 0.00> <nCl=  0> <DB=   65.0000> <Mlp=   65.0000> <PB=1000000> 
<DWph=1> <it=  2> <et=113.45> <Mt= 0.01> <Spt= 0.00> <nCl=  0> <DB=   65.0000> <Mlp=   65.0000> <PB=1000000> 
---- Diving heuristic node with dive number = 1, fix depth = 10 and tabu list size = 1
Fixed projected solution = [x_1_0_1_OspV=1, x_1_64_1_OspV=1, x_1_72_1_OspV=1, x_1_186_1_OspV=1]
<DWph=2> <it=  1> <et=113.53> <Mt= 0.07> <Spt= 0.00> <nCl=  0> <DB=   65.0000> <Mlp=   65.0000> <PB=1000000> 
<DWph=1> <it=  2> <et=113.54> <Mt= 0.00> <Spt= 0.00> <nCl=  0> <DB=   65.0000> <Mlp=   65.0000> <PB=1000000> 
---- Diving heuristic node with dive number = 1, fix depth = 11 and tabu list size = 1
Fixed projected solution = [x_1_0_1_OspV=1, x_1_32_1_OspV=1, x_1_99_1_OspV=1, x_1_176_1_OspV=1]
<DWph=2> <it=  1> <et=113.58> <Mt= 0.02> <Spt= 0.00> <nCl=  0> <DB=   65.0000> <Mlp=   65.0000> <PB=1000000> 
<DWph=1> <it=  2> <et=113.58> <Mt= 0.00> <Spt= 0.00> <nCl=  0> <DB=   65.0000> <Mlp=   65.0000> <PB=1000000> 
---- Diving heuristic node with dive number = 1, fix depth = 11 and tabu list size = 1
Fixed projected solution = [x_1_0_1_OspV=1, x_1_41_1_OspV=1, x_1_106_1_OspV=1, x_1_169_1_OspV=1]
<DWph=2> <it=  1> <et=113.59> <Mt= 0.01> <Spt= 0.00> <nCl=  0> <DB=   65.0000> <Mlp=   65.0000> <PB=1000000> 
<DWph=1> <it=  2> <et=113.59> <Mt= 0.00> <Spt= 0.00> <nCl=  0> <DB=   65.0000> <Mlp=   65.0000> <PB=1000000> 
---- Diving heuristic node with dive number = 1, fix depth = 12 and tabu list size = 1
Fixed projected solution = [x_1_0_1_OspV=1, x_1_43_1_OspV=1, x_1_107_1_OspV=1, x_1_168_1_OspV=1]
<DWph=2> <it=  1> <et=113.63> <Mt= 0.03> <Spt= 0.00> <nCl=  0> <DB=   65.0000> <Mlp=   65.0000> <PB=1000000> 
<DWph=1> <it=  2> <et=113.64> <Mt= 0.00> <Spt= 0.00> <nCl=  0> <DB=   65.0000> <Mlp=   65.0000> <PB=1000000> 
---- Diving heuristic node with dive number = 1, fix depth = 12 and tabu list size = 1
Fixed projected solution = [x_1_0_1_OspV=1, x_1_44_1_OspV=1, x_1_110_1_OspV=1, x_1_166_1_OspV=1]
<DWph=2> <it=  1> <et=113.65> <Mt= 0.00> <Spt= 0.00> <nCl=  0> <DB=   65.0000> <Mlp=   65.0000> <PB=1000000> 
<DWph=1> <it=  2> <et=113.65> <Mt= 0.00> <Spt= 0.00> <nCl=  0> <DB=   65.0000> <Mlp=   65.0000> <PB=1000000> 
---- Diving heuristic node with dive number = 1, fix depth = 13 and tabu list size = 1
Fixed projected solution = [x_1_0_1_OspV=1, x_1_30_1_OspV=1, x_1_83_1_OspV=1, x_1_187_1_OspV=1]
<DWph=1> <it= 11> <et=115.17> <Mt= 0.15> <Spt= 1.35> <nCl=900> <DB=   65.0000> <Mlp=   65.0000> <PB=1000000> 
---- Diving heuristic node with dive number = 1, fix depth = 14 and tabu list size = 1
Fixed projected solution = [x_1_0_1_OspV=1, x_1_9_1_OspV=1, x_1_77_1_OspV=1, x_1_195_1_OspV=1]
