Application parameters:
  batch  =>  nothing
  instance  =>  "/IN/201_2500_DI_38.txt-Q20"
  ub  =>  1.0e6
  cfg  =>  "/CFG/BPP.cfg"
data = Colored Bin Packing dataset.
number of items = 202
number of colors = 20
capacity = 2472
Items : 
	 item 1, weight= 8, color= 0
	 item 2, weight= 8, color= 8
	 item 3, weight= 8, color= 16
	 item 4, weight= 16, color= 5
	 item 5, weight= 16, color= 14
	 item 6, weight= 24, color= 6
	 item 7, weight= 32, color= 18
	 item 8, weight= 40, color= 0
	 item 9, weight= 40, color= 4
	 item 10, weight= 40, color= 5
	 item 11, weight= 44, color= 2
	 item 12, weight= 44, color= 12
	 item 13, weight= 44, color= 18
	 item 14, weight= 48, color= 10
	 item 15, weight= 48, color= 18
	 item 16, weight= 48, color= 19
	 item 17, weight= 56, color= 8
	 item 18, weight= 60, color= 5
	 item 19, weight= 60, color= 6
	 item 20, weight= 64, color= 8
	 item 21, weight= 64, color= 12
	 item 22, weight= 64, color= 13
	 item 23, weight= 66, color= 8
	 item 24, weight= 72, color= 3
	 item 25, weight= 72, color= 4
	 item 26, weight= 72, color= 16
	 item 27, weight= 76, color= 8
	 item 28, weight= 78, color= 10
	 item 29, weight= 78, color= 17
	 item 30, weight= 78, color= 19
	 item 31, weight= 80, color= 9
	 item 32, weight= 84, color= 4
	 item 33, weight= 88, color= 5
	 item 34, weight= 88, color= 7
	 item 35, weight= 88, color= 8
	 item 36, weight= 88, color= 13
	 item 37, weight= 90, color= 18
	 item 38, weight= 92, color= 13
	 item 39, weight= 94, color= 17
	 item 40, weight= 96, color= 2
	 item 41, weight= 96, color= 3
	 item 42, weight= 100, color= 15
	 item 43, weight= 104, color= 11
	 item 44, weight= 108, color= 1
	 item 45, weight= 108, color= 10
	 item 46, weight= 108, color= 17
	 item 47, weight= 116, color= 13
	 item 48, weight= 120, color= 5
	 item 49, weight= 120, color= 14
	 item 50, weight= 124, color= 6
	 item 51, weight= 128, color= 9
	 item 52, weight= 132, color= 5
	 item 53, weight= 134, color= 6
	 item 54, weight= 136, color= 2
	 item 55, weight= 144, color= 1
	 item 56, weight= 148, color= 14
	 item 57, weight= 152, color= 18
	 item 58, weight= 154, color= 11
	 item 59, weight= 162, color= 9
	 item 60, weight= 168, color= 0
	 item 61, weight= 172, color= 13
	 item 62, weight= 176, color= 6
	 item 63, weight= 176, color= 11
	 item 64, weight= 184, color= 12
	 item 65, weight= 200, color= 6
	 item 66, weight= 204, color= 12
	 item 67, weight= 204, color= 13
	 item 68, weight= 204, color= 16
	 item 69, weight= 204, color= 19
	 item 70, weight= 218, color= 10
	 item 71, weight= 222, color= 15
	 item 72, weight= 230, color= 5
	 item 73, weight= 236, color= 14
	 item 74, weight= 238, color= 5
	 item 75, weight= 246, color= 17
	 item 76, weight= 260, color= 14
	 item 77, weight= 272, color= 3
	 item 78, weight= 272, color= 15
	 item 79, weight= 284, color= 19
	 item 80, weight= 290, color= 11
	 item 81, weight= 302, color= 15
	 item 82, weight= 308, color= 18
	 item 83, weight= 310, color= 7
	 item 84, weight= 314, color= 5
	 item 85, weight= 326, color= 1
	 item 86, weight= 340, color= 7
	 item 87, weight= 372, color= 6
	 item 88, weight= 378, color= 6
	 item 89, weight= 384, color= 12
	 item 90, weight= 386, color= 6
	 item 91, weight= 393, color= 10
	 item 92, weight= 398, color= 13
	 item 93, weight= 401, color= 12
	 item 94, weight= 412, color= 3
	 item 95, weight= 418, color= 9
	 item 96, weight= 430, color= 15
	 item 97, weight= 443, color= 9
	 item 98, weight= 446, color= 6
	 item 99, weight= 452, color= 1
	 item 100, weight= 461, color= 5
	 item 101, weight= 481, color= 19
	 item 102, weight= 482, color= 0
	 item 103, weight= 500, color= 2
	 item 104, weight= 504, color= 12
	 item 105, weight= 505, color= 19
	 item 106, weight= 538, color= 0
	 item 107, weight= 542, color= 5
	 item 108, weight= 547, color= 10
	 item 109, weight= 556, color= 16
	 item 110, weight= 576, color= 16
	 item 111, weight= 585, color= 19
	 item 112, weight= 618, color= 10
	 item 113, weight= 620, color= 1
	 item 114, weight= 638, color= 19
	 item 115, weight= 643, color= 2
	 item 116, weight= 651, color= 7
	 item 117, weight= 662, color= 2
	 item 118, weight= 681, color= 10
	 item 119, weight= 700, color= 8
	 item 120, weight= 726, color= 4
	 item 121, weight= 745, color= 18
	 item 122, weight= 779, color= 10
	 item 123, weight= 796, color= 8
	 item 124, weight= 802, color= 4
	 item 125, weight= 819, color= 10
	 item 126, weight= 840, color= 7
	 item 127, weight= 842, color= 2
	 item 128, weight= 878, color= 10
	 item 129, weight= 883, color= 10
	 item 130, weight= 908, color= 17
	 item 131, weight= 989, color= 5
	 item 132, weight= 1000, color= 19
	 item 133, weight= 1018, color= 10
	 item 134, weight= 1022, color= 9
	 item 135, weight= 1029, color= 12
	 item 136, weight= 1030, color= 3
	 item 137, weight= 1031, color= 5
	 item 138, weight= 1044, color= 14
	 item 139, weight= 1237, color= 13
	 item 140, weight= 1238, color= 15
	 item 141, weight= 1239, color= 10
	 item 142, weight= 1244, color= 4
	 item 143, weight= 1246, color= 14
	 item 144, weight= 1254, color= 10
	 item 145, weight= 1388, color= 17
	 item 146, weight= 1405, color= 10
	 item 147, weight= 1413, color= 8
	 item 148, weight= 1422, color= 10
	 item 149, weight= 1462, color= 7
	 item 150, weight= 1491, color= 18
	 item 151, weight= 1524, color= 19
	 item 152, weight= 1539, color= 15
	 item 153, weight= 1552, color= 19
	 item 154, weight= 1562, color= 17
	 item 155, weight= 1579, color= 15
	 item 156, weight= 1602, color= 3
	 item 157, weight= 1636, color= 3
	 item 158, weight= 1657, color= 10
	 item 159, weight= 1678, color= 12
	 item 160, weight= 1701, color= 12
	 item 161, weight= 1704, color= 11
	 item 162, weight= 1710, color= 13
	 item 163, weight= 1732, color= 11
	 item 164, weight= 1734, color= 14
	 item 165, weight= 1755, color= 12
	 item 166, weight= 1771, color= 11
	 item 167, weight= 1812, color= 15
	 item 168, weight= 1817, color= 9
	 item 169, weight= 1822, color= 0
	 item 170, weight= 1862, color= 12
	 item 171, weight= 1867, color= 3
	 item 172, weight= 1876, color= 11
	 item 173, weight= 1897, color= 1
	 item 174, weight= 1898, color= 12
	 item 175, weight= 1921, color= 15
	 item 176, weight= 1932, color= 4
	 item 177, weight= 1938, color= 1
	 item 178, weight= 1941, color= 3
	 item 179, weight= 1958, color= 6
	 item 180, weight= 1980, color= 11
	 item 181, weight= 1993, color= 7
	 item 182, weight= 1998, color= 17
	 item 183, weight= 2001, color= 2
	 item 184, weight= 2006, color= 1
	 item 185, weight= 2022, color= 7
	 item 186, weight= 2028, color= 7
	 item 187, weight= 2062, color= 19
	 item 188, weight= 2068, color= 9
	 item 189, weight= 2082, color= 9
	 item 190, weight= 2102, color= 3
	 item 191, weight= 2108, color= 0
	 item 192, weight= 2110, color= 18
	 item 193, weight= 2118, color= 5
	 item 194, weight= 2140, color= 5
	 item 195, weight= 2166, color= 17
	 item 196, weight= 2178, color= 10
	 item 197, weight= 2190, color= 9
	 item 198, weight= 2196, color= 16
	 item 199, weight= 2198, color= 4
	 item 200, weight= 2204, color= 2
	 item 201, weight= 2206, color= 15
	 item 202, weight= 2214, color= 17

VRPSolver warning: Interval set for resource 1 on source node (when source != sink) is ignored (by definition is [0.0,0.0])
[41m solve [00m
~~~~~~~~~~~~~~~~~~~~~~~~~~~~~~~~~~~~~~~~~~~~~~~~~~~~~~~~~~~~~~~~~~~~~~~~~~~~~~
VRPSolver v0.4.1, 24/03/2021. Web: vrpsolver.math.u-bordeaux.fr
Corresponds to the solver by Pessoa, Sadykov, Uchoa and Vanderbeck (2020)
Paper: dx.doi.org/10.1007/s10107-020-01523-z
USE THIS CODE ONLY FOR ACADEMIC PURPOSES AT YOUR OWN RISK
~~~~~~~~~~~~~~~~~~~~~~~~~~~~~~~~~~~~~~~~~~~~~~~~~~~~~~~~~~~~~~~~~~~~~~~~~~~~~~
BaPCod v053, 24/03/2021, © Inria Bordeaux, France
~~~~~~~~~~~~~~~~~~~~~~~~~~~~~~~~~~~~~~~~~~~~~~~~~~~~~~~~~~~~~~~~~~~~~~~~~~~~~~
VRPSolver parameters:
GlobalTimeLimit = 1800
MaxNbOfBBtreeNodeTreated = 100000
treeSearchStrategy = 1
RCSPstopCutGenTimeThresholdInPricing = 10
RCSPhardTimeThresholdInPricing = 20
RCSPnumberOfBucketsPerVertex = 2000
RCSPdynamicBucketSteps = 0
RCSPuseBidirectionalSearch = 1
RCSPapplyReducedCostFixing = 1
RCSPredCostFixingFalseGap = 0
RCSPmaxNumOfColsPerIteration = 100
RCSPmaxNumOfColsPerExactIteration = 100
RCSPheurLabelingStrategy = 4
StabilizationMinPhaseOfStage = 1
RCSPmaxNumOfLabelsInEnumeration = 100000
RCSPmaxNumOfEnumeratedSolutions = 1000000
RCSPmaxNumOfEnumSolutionsForMIP = 100000
RCSPinitNGneighbourhoodSize = 0
RCSPmaxNGneighbourhoodSize = 0
RCSPrankOneCutsMaxNumPerRound = 100
RCSPrankOneCutsMaxNumRows = -1
RCSPrankOneCutsMemoryType = 2
CutTailingOffThreshold = 0.02
CutTailingOffCounterThreshold = 3
SafeDualBoundScaleFactor = -1
StrongBranchingPhaseOneCandidatesNumber = 100
StrongBranchingPhaseOneTreeSizeEstimRatio = 0.3
StrongBranchingPhaseTwoCandidatesNumber = 1
StrongBranchingPhaseTwoTreeSizeEstimRatio = 0.1
MaxTimeForRestrictedMasterIpHeur = -1
DivingHeurUseDepthLimit = 0
MaxLDSbreadth = 3
MaxLDSdepth = 2
New model incumbent solution 1e+06, TIME = 0h0m0s3t = 3
Model is built TIME = 0h0m2s10t = 210
************************************************************************************************
**** BaB tree root node
**** Local DB = -1e+12, global bounds : [ -1e+12 , 1e+06 ], TIME = 0h0m2s10t = 210
**** 1 open nodes, 0 columns (0 active), 0 dyn. constrs. (0 active), 406 art. vars. (406 active)
************************************************************************************************
<DWph=2> <it= 10> <et=4.33> <Mt= 0.00> <Spt= 2.22> <nCl=1000> <DB=-14613214828.9334> <Mlp=233594320.9295> <PB=1000000> 
<DWph=2> <it= 20> <et=6.61> <Mt= 0.01> <Spt= 2.26> <nCl=1000> <DB=-8322410652.5684> <Mlp=215697367.6128> <PB=1000000> 
<DWph=2> <it= 30> <et=9.05> <Mt= 0.02> <Spt= 2.41> <nCl=1000> <DB=-6103920352.6616> <Mlp=196195686.6759> <PB=1000000> 
<DWph=2> <it= 40> <et=11.25> <Mt= 0.03> <Spt= 2.17> <nCl=1000> <DB=-3462699378.4383> <Mlp=173009617.2302> <PB=1000000> 
<DWph=2> <it= 50> <et=13.43> <Mt= 0.08> <Spt= 2.12> <nCl=1000> <DB=-2266500906.8809> <Mlp=156180002.9467> <PB=1000000> 
<DWph=2> <it= 60> <et=15.57> <Mt= 0.11> <Spt= 2.01> <nCl=1000> <DB=-1323072538.3910> <Mlp=136676480.9007> <PB=1000000> 
<DWph=2> <it= 70> <et=17.62> <Mt= 0.14> <Spt= 1.91> <nCl=1000> <DB=-855057382.7635> <Mlp=112555343.3047> <PB=1000000> 
<DWph=2> <it= 80> <et=19.65> <Mt= 0.17> <Spt= 1.86> <nCl=1000> <DB=-654726794.2009> <Mlp=96799876.9253> <PB=1000000> 
<DWph=2> <it= 90> <et=21.80> <Mt= 0.19> <Spt= 1.96> <nCl=1000> <DB=-398079342.0359> <Mlp=78037554.6590> <PB=1000000> 
<DWph=2> <it=100> <et=23.78> <Mt= 0.20> <Spt= 1.78> <nCl=1000> <DB=-190029055.5850> <Mlp=67629434.0694> <PB=1000000> 
<DWph=2> <it=110> <et=26.16> <Mt= 0.20> <Spt= 2.09> <nCl=1000> <DB=-230304419.0506> <Mlp=57600027.3542> <PB=1000000> 
<DWph=2> <it=120> <et=28.32> <Mt= 0.19> <Spt= 1.97> <nCl=1000> <DB=-178527095.7168> <Mlp=52800029.9918> <PB=1000000> 
<DWph=2> <it=130> <et=30.48> <Mt= 0.17> <Spt= 1.99> <nCl=1000> <DB=-177502395.2268> <Mlp=48000032.7578> <PB=1000000> 
<DWph=2> <it=140> <et=32.64> <Mt= 0.13> <Spt= 1.97> <nCl=1000> <DB=-177427354.7776> <Mlp=44100035.0515> <PB=1000000> 
<DWph=2> <it=150> <et=34.72> <Mt= 0.18> <Spt= 1.90> <nCl=1000> <DB=-177256286.8448> <Mlp=39303560.2792> <PB=1000000> 
<DWph=2> <it=160> <et=36.82> <Mt= 0.21> <Spt= 1.88> <nCl=1000> <DB=-177338276.9445> <Mlp=31273484.6688> <PB=1000000> 
<DWph=2> <it=170> <et=38.94> <Mt= 0.14> <Spt= 1.93> <nCl=1000> <DB=-177249706.3804> <Mlp=25541260.9941> <PB=1000000> 
<DWph=2> <it=180> <et=40.87> <Mt= 0.09> <Spt= 1.84> <nCl=1000> <DB=-177221225.6516> <Mlp=19604723.9637> <PB=1000000> 
<DWph=2> <it=190> <et=43.89> <Mt= 0.05> <Spt= 2.96> <nCl=1000> <DB= -520.9363> <Mlp=   66.8878> <PB=1000000> 
<DWph=2> <it=200> <et=45.94> <Mt= 0.07> <Spt= 1.98> <nCl=891> <DB=   19.4806> <Mlp=   66.6557> <PB=1000000> 
<DWph=2> <it=210> <et=48.16> <Mt= 0.11> <Spt= 2.04> <nCl=1000> <DB=   39.8352> <Mlp=   65.8718> <PB=1000000> 
<DWph=2> <it=220> <et=50.35> <Mt= 0.15> <Spt= 2.04> <nCl=971> <DB=   61.7624> <Mlp=   65.1181> <PB=1000000> 
<DWph=2> <it=230> <et=52.81> <Mt= 0.17> <Spt= 2.29> <nCl=999> <DB=   64.2936> <Mlp=   65.0210> <PB=1000000> 
<DWph=2> <it=240> <et=55.39> <Mt= 0.16> <Spt= 2.36> <nCl=792> <DB=   64.9386> <Mlp=   65.0008> <PB=1000000> 
<DWph=2> <it=250> <et=57.87> <Mt= 0.07> <Spt= 2.41> <nCl=471> <DB=   64.9997> <Mlp=   65.0001> <PB=1000000> 
<DWph=2> <it=252> <et=58.58> <Mt= 0.00> <Spt= 0.70> <nCl= 12> <DB=   65.0001> <Mlp=   65.0001> <PB=1000000> 
<DWph=1> <it=260> <et=61.13> <Mt= 0.05> <Spt= 2.50> <nCl=514> <DB=   64.9997> <Mlp=   65.0000> <PB=1000000> 
<DWph=0> <it=261> <et=61.43> <Mt= 0.00> <Spt= 0.30> <nCl=  0> <DB=   64.9997> <Mlp=   65.0000> <PB=1000000> 
Reduced cost fixing for graph G_1... took 19.83 sec., 937174 buck. arcs remain (91.2% from prev., 42.3% from max.)
Run enumeration... took 0.21 sec. and not succeeded.
ColGenEvalAlg final dual bound: 64.9997 (rounded: 65)
----------- Diving heuristic started -----------
<DWph=2> <it=  1> <et=82.13> <Mt= 0.00> <Spt= 0.56> <nCl=  0> <DB=   65.0000> <Mlp=   65.0000> <PB=1000000> 
<DWph=1> <it=  2> <et=82.72> <Mt= 0.01> <Spt= 0.59> <nCl=  0> <DB=   64.9997> <Mlp=   65.0000> <PB=1000000> 
---- Diving heuristic node with dive number = 0, fix depth = 0 and tabu list size = 0
Fixed projected solution = [x_1_0_1_OspV=1, x_1_29_1_OspV=1, x_1_131_1_OspV=1, x_1_146_1_OspV=1]
<DWph=2> <it=  1> <et=83.28> <Mt= 0.00> <Spt= 0.48> <nCl=  0> <DB=   65.0000> <Mlp=   65.0000> <PB=1000000> 
<DWph=1> <it=  2> <et=83.87> <Mt= 0.00> <Spt= 0.59> <nCl=  0> <DB=   64.9997> <Mlp=   65.0000> <PB=1000000> 
---- Diving heuristic node with dive number = 0, fix depth = 0 and tabu list size = 0
Fixed projected solution = [x_1_0_1_OspV=1, x_1_53_1_OspV=1, x_1_118_1_OspV=1, x_1_158_1_OspV=1]
<DWph=2> <it=  1> <et=84.45> <Mt= 0.00> <Spt= 0.50> <nCl=  0> <DB=   65.0000> <Mlp=   65.0000> <PB=1000000> 
<DWph=1> <it=  2> <et=85.12> <Mt= 0.01> <Spt= 0.66> <nCl=  0> <DB=   64.9997> <Mlp=   65.0000> <PB=1000000> 
---- Diving heuristic node with dive number = 0, fix depth = 0 and tabu list size = 0
Fixed projected solution = [x_1_0_1_OspV=1, x_1_52_1_OspV=1, x_1_117_1_OspV=1, x_1_159_1_OspV=1]
<DWph=2> <it=  1> <et=85.74> <Mt= 0.00> <Spt= 0.53> <nCl=  0> <DB=   65.0000> <Mlp=   65.0000> <PB=1000000> 
<DWph=1> <it=  2> <et=86.38> <Mt= 0.00> <Spt= 0.64> <nCl=  0> <DB=   64.9998> <Mlp=   65.0000> <PB=1000000> 
---- Diving heuristic node with dive number = 0, fix depth = 0 and tabu list size = 0
Fixed projected solution = [x_1_0_1_OspV=1, x_1_51_1_OspV=1, x_1_115_1_OspV=1, x_1_160_1_OspV=1]
<DWph=2> <it=  1> <et=86.93> <Mt= 0.00> <Spt= 0.47> <nCl=  0> <DB=   65.0000> <Mlp=   65.0000> <PB=1000000> 
<DWph=1> <it=  2> <et=87.52> <Mt= 0.01> <Spt= 0.59> <nCl=  0> <DB=   64.9998> <Mlp=   65.0000> <PB=1000000> 
---- Diving heuristic node with dive number = 0, fix depth = 0 and tabu list size = 0
Fixed projected solution = [x_1_0_1_OspV=1, x_1_50_1_OspV=1, x_1_114_1_OspV=1, x_1_162_1_OspV=1]
<DWph=2> <it=  1> <et=88.08> <Mt= 0.00> <Spt= 0.48> <nCl=  0> <DB=   65.0000> <Mlp=   65.0000> <PB=1000000> 
<DWph=1> <it=  2> <et=88.68> <Mt= 0.00> <Spt= 0.59> <nCl=  0> <DB=   64.9998> <Mlp=   65.0000> <PB=1000000> 
---- Diving heuristic node with dive number = 0, fix depth = 0 and tabu list size = 0
Fixed projected solution = [x_1_0_1_OspV=1, x_1_46_1_OspV=1, x_1_108_1_OspV=1, x_1_168_1_OspV=1]
<DWph=2> <it=  1> <et=89.25> <Mt= 0.01> <Spt= 0.49> <nCl=  0> <DB=   65.0000> <Mlp=   65.0000> <PB=1000000> 
<DWph=1> <it=  2> <et=89.85> <Mt= 0.00> <Spt= 0.60> <nCl=  0> <DB=   64.9998> <Mlp=   65.0000> <PB=1000000> 
---- Diving heuristic node with dive number = 0, fix depth = 0 and tabu list size = 0
Fixed projected solution = [x_1_0_1_OspV=1, x_1_39_1_OspV=1, x_1_101_1_OspV=1, x_1_173_1_OspV=1]
<DWph=2> <it=  1> <et=90.42> <Mt= 0.00> <Spt= 0.48> <nCl=  0> <DB=   65.0000> <Mlp=   65.0000> <PB=1000000> 
<DWph=1> <it=  2> <et=91.01> <Mt= 0.00> <Spt= 0.58> <nCl=  0> <DB=   64.9998> <Mlp=   65.0000> <PB=1000000> 
---- Diving heuristic node with dive number = 0, fix depth = 0 and tabu list size = 0
Fixed projected solution = [x_1_0_1_OspV=1, x_1_11_1_OspV=1, x_1_72_1_OspV=1, x_1_199_1_OspV=1]
<DWph=2> <it=  1> <et=91.56> <Mt= 0.01> <Spt= 0.48> <nCl=  0> <DB=   65.0000> <Mlp=   65.0000> <PB=1000000> 
<DWph=1> <it=  2> <et=92.17> <Mt= 0.00> <Spt= 0.60> <nCl=  0> <DB=   64.9998> <Mlp=   65.0000> <PB=1000000> 
---- Diving heuristic node with dive number = 0, fix depth = 0 and tabu list size = 0
Fixed projected solution = [x_1_0_1_OspV=1, x_1_36_1_OspV=1, x_1_97_1_OspV=1, x_1_178_1_OspV=1]
<DWph=2> <it=  1> <et=92.75> <Mt= 0.00> <Spt= 0.50> <nCl=  0> <DB=   65.0000> <Mlp=   65.0000> <PB=1000000> 
<DWph=1> <it=  2> <et=93.37> <Mt= 0.00> <Spt= 0.61> <nCl=  0> <DB=   64.9998> <Mlp=   65.0000> <PB=1000000> 
---- Diving heuristic node with dive number = 0, fix depth = 0 and tabu list size = 0
Fixed projected solution = [x_1_0_1_OspV=1, x_1_69_1_OspV=1, x_1_134_1_OspV=1, x_1_143_1_OspV=1]
<DWph=2> <it=  1> <et=93.94> <Mt= 0.01> <Spt= 0.50> <nCl=  0> <DB=   65.0000> <Mlp=   65.0000> <PB=1000000> 
<DWph=1> <it=  2> <et=94.53> <Mt= 0.00> <Spt= 0.59> <nCl=  0> <DB=   64.9998> <Mlp=   65.0000> <PB=1000000> 
---- Diving heuristic node with dive number = 0, fix depth = 0 and tabu list size = 0
Fixed projected solution = [x_1_0_1_OspV=1, x_1_19_1_OspV=1, x_1_81_1_OspV=1, x_1_192_1_OspV=1]
<DWph=2> <it=  1> <et=95.09> <Mt= 0.00> <Spt= 0.47> <nCl=  0> <DB=   65.0000> <Mlp=   65.0000> <PB=1000000> 
<DWph=1> <it=  2> <et=95.69> <Mt= 0.00> <Spt= 0.61> <nCl=  0> <DB=   64.9998> <Mlp=   65.0000> <PB=1000000> 
---- Diving heuristic node with dive number = 0, fix depth = 0 and tabu list size = 0
Fixed projected solution = [x_1_0_1_OspV=1, x_1_24_1_OspV=1, x_1_88_1_OspV=1, x_1_185_1_OspV=1]
<DWph=2> <it=  1> <et=96.25> <Mt= 0.01> <Spt= 0.47> <nCl=  0> <DB=   65.0000> <Mlp=   65.0000> <PB=1000000> 
<DWph=1> <it=  2> <et=96.84> <Mt= 0.00> <Spt= 0.58> <nCl=  0> <DB=   64.9998> <Mlp=   65.0000> <PB=1000000> 
---- Diving heuristic node with dive number = 0, fix depth = 0 and tabu list size = 0
Fixed projected solution = [x_1_0_1_OspV=1, x_1_18_1_OspV=1, x_1_83_1_OspV=1, x_1_190_1_OspV=1]
<DWph=2> <it=  1> <et=97.39> <Mt= 0.00> <Spt= 0.48> <nCl=  0> <DB=   65.0000> <Mlp=   65.0000> <PB=1000000> 
<DWph=1> <it=  2> <et=97.98> <Mt= 0.00> <Spt= 0.58> <nCl=  0> <DB=   64.9998> <Mlp=   65.0000> <PB=1000000> 
---- Diving heuristic node with dive number = 0, fix depth = 0 and tabu list size = 0
Fixed projected solution = [x_1_0_1_OspV=1, x_1_58_1_OspV=1, x_1_122_1_OspV=1, x_1_152_1_OspV=1]
<DWph=2> <it=  1> <et=98.54> <Mt= 0.01> <Spt= 0.48> <nCl=  0> <DB=   65.0000> <Mlp=   65.0000> <PB=1000000> 
<DWph=1> <it=  2> <et=99.14> <Mt= 0.00> <Spt= 0.60> <nCl=  0> <DB=   64.9998> <Mlp=   65.0000> <PB=1000000> 
---- Diving heuristic node with dive number = 0, fix depth = 0 and tabu list size = 0
Fixed projected solution = [x_1_0_1_OspV=1, x_1_28_1_OspV=1, x_1_93_1_OspV=1, x_1_181_1_OspV=1]
<DWph=2> <it=  1> <et=99.70> <Mt= 0.00> <Spt= 0.48> <nCl=  0> <DB=   65.0000> <Mlp=   65.0000> <PB=1000000> 
<DWph=1> <it=  2> <et=100.32> <Mt= 0.00> <Spt= 0.62> <nCl=  0> <DB=   64.9998> <Mlp=   65.0000> <PB=1000000> 
---- Diving heuristic node with dive number = 0, fix depth = 0 and tabu list size = 0
Fixed projected solution = [x_1_0_1_OspV=1, x_1_66_1_OspV=1, x_1_135_1_OspV=1, x_1_141_1_OspV=1]
<DWph=2> <it=  1> <et=100.95> <Mt= 0.01> <Spt= 0.50> <nCl=  0> <DB=   65.0000> <Mlp=   65.0000> <PB=1000000> 
<DWph=1> <it=  2> <et=101.59> <Mt= 0.00> <Spt= 0.64> <nCl=  0> <DB=   64.9998> <Mlp=   65.0000> <PB=1000000> 
---- Diving heuristic node with dive number = 0, fix depth = 0 and tabu list size = 0
Fixed projected solution = [x_1_0_1_OspV=1, x_1_15_1_OspV=1, x_1_75_1_OspV=1, x_1_196_1_OspV=1]
<DWph=2> <it=  1> <et=102.18> <Mt= 0.00> <Spt= 0.50> <nCl=  0> <DB=   65.0000> <Mlp=   65.0000> <PB=1000000> 
<DWph=1> <it=  2> <et=102.77> <Mt= 0.01> <Spt= 0.59> <nCl=  0> <DB=   64.9998> <Mlp=   65.0000> <PB=1000000> 
---- Diving heuristic node with dive number = 0, fix depth = 0 and tabu list size = 0
Fixed projected solution = [x_1_0_1_OspV=1, x_1_59_1_OspV=1, x_1_125_1_OspV=1, x_1_150_1_OspV=1]
<DWph=2> <it=  1> <et=103.32> <Mt= 0.00> <Spt= 0.47> <nCl=  0> <DB=   65.0000> <Mlp=   65.0000> <PB=1000000> 
<DWph=1> <it=  2> <et=103.91> <Mt= 0.00> <Spt= 0.59> <nCl=  0> <DB=   64.9998> <Mlp=   65.0000> <PB=1000000> 
---- Diving heuristic node with dive number = 0, fix depth = 0 and tabu list size = 0
Fixed projected solution = [x_1_0_1_OspV=1, x_1_37_1_OspV=1, x_1_100_1_OspV=1, x_1_175_1_OspV=1]
<DWph=2> <it=  1> <et=104.46> <Mt= 0.00> <Spt= 0.47> <nCl=  0> <DB=   65.0000> <Mlp=   65.0000> <PB=1000000> 
<DWph=1> <it=  2> <et=105.07> <Mt= 0.01> <Spt= 0.61> <nCl=  0> <DB=   64.9998> <Mlp=   65.0000> <PB=1000000> 
---- Diving heuristic node with dive number = 0, fix depth = 0 and tabu list size = 0
Fixed projected solution = [x_1_0_1_OspV=1, x_1_23_1_OspV=1, x_1_116_1_OspV=1, x_1_165_1_OspV=1]
<DWph=2> <it=  1> <et=105.64> <Mt= 0.00> <Spt= 0.48> <nCl=  0> <DB=   65.0000> <Mlp=   65.0000> <PB=1000000> 
<DWph=1> <it=  2> <et=106.22> <Mt= 0.00> <Spt= 0.59> <nCl=  0> <DB=   64.9998> <Mlp=   65.0000> <PB=1000000> 
---- Diving heuristic node with dive number = 0, fix depth = 0 and tabu list size = 0
Fixed projected solution = [x_1_0_1_OspV=1, x_1_30_1_OspV=1, x_1_91_1_OspV=1, x_1_183_1_OspV=1]
<DWph=2> <it=  1> <et=106.77> <Mt= 0.00> <Spt= 0.47> <nCl=  0> <DB=   65.0000> <Mlp=   65.0000> <PB=1000000> 
<DWph=1> <it=  2> <et=107.36> <Mt= 0.01> <Spt= 0.59> <nCl=  0> <DB=   64.9998> <Mlp=   65.0000> <PB=1000000> 
---- Diving heuristic node with dive number = 0, fix depth = 0 and tabu list size = 0
Fixed projected solution = [x_1_0_1_OspV=1, x_1_12_1_OspV=1, x_1_74_1_OspV=1, x_1_197_1_OspV=1]
<DWph=2> <it=  1> <et=107.92> <Mt= 0.00> <Spt= 0.47> <nCl=  0> <DB=   65.0000> <Mlp=   65.0000> <PB=1000000> 
<DWph=1> <it=  2> <et=108.50> <Mt= 0.00> <Spt= 0.58> <nCl=  0> <DB=   64.9998> <Mlp=   65.0000> <PB=1000000> 
---- Diving heuristic node with dive number = 0, fix depth = 0 and tabu list size = 0
Fixed projected solution = [x_1_0_1_OspV=1, x_1_47_1_OspV=1, x_1_111_1_OspV=1, x_1_166_1_OspV=1]
<DWph=2> <it=  1> <et=109.06> <Mt= 0.00> <Spt= 0.48> <nCl=  0> <DB=   65.0000> <Mlp=   65.0000> <PB=1000000> 
<DWph=1> <it=  2> <et=109.65> <Mt= 0.01> <Spt= 0.59> <nCl=  0> <DB=   64.9998> <Mlp=   65.0000> <PB=1000000> 
---- Diving heuristic node with dive number = 0, fix depth = 0 and tabu list size = 0
Fixed projected solution = [x_1_0_1_OspV=1, x_1_56_1_OspV=1, x_1_121_1_OspV=1, x_1_155_1_OspV=1]
<DWph=2> <it=  1> <et=110.22> <Mt= 0.00> <Spt= 0.48> <nCl=  0> <DB=   65.0000> <Mlp=   65.0000> <PB=1000000> 
<DWph=1> <it=  2> <et=110.80> <Mt= 0.00> <Spt= 0.59> <nCl=  0> <DB=   64.9998> <Mlp=   65.0000> <PB=1000000> 
---- Diving heuristic node with dive number = 0, fix depth = 0 and tabu list size = 0
Fixed projected solution = [x_1_0_1_OspV=1, x_1_9_1_OspV=1, x_1_84_1_OspV=1, x_1_193_1_OspV=1]
<DWph=2> <it=  1> <et=111.38> <Mt= 0.00> <Spt= 0.50> <nCl=  0> <DB=   65.0000> <Mlp=   65.0000> <PB=1000000> 
<DWph=1> <it=  2> <et=112.03> <Mt= 0.01> <Spt= 0.64> <nCl=  0> <DB=   64.9998> <Mlp=   65.0000> <PB=1000000> 
---- Diving heuristic node with dive number = 0, fix depth = 0 and tabu list size = 0
Fixed projected solution = [x_1_0_1_OspV=1, x_1_48_1_OspV=1, x_1_112_1_OspV=1, x_1_164_1_OspV=1]
<DWph=2> <it=  1> <et=112.63> <Mt= 0.00> <Spt= 0.52> <nCl=  0> <DB=   65.0000> <Mlp=   65.0000> <PB=1000000> 
<DWph=1> <it=  2> <et=113.27> <Mt= 0.00> <Spt= 0.64> <nCl=  0> <DB=   64.9998> <Mlp=   65.0000> <PB=1000000> 
---- Diving heuristic node with dive number = 0, fix depth = 0 and tabu list size = 0
Fixed projected solution = [x_1_0_1_OspV=1, x_1_6_1_OspV=1, x_1_90_1_OspV=1, x_1_187_1_OspV=1]
<DWph=2> <it=  1> <et=113.87> <Mt= 0.01> <Spt= 0.51> <nCl=  0> <DB=   65.0000> <Mlp=   65.0000> <PB=1000000> 
<DWph=1> <it=  2> <et=114.50> <Mt= 0.00> <Spt= 0.62> <nCl=  0> <DB=   64.9998> <Mlp=   65.0000> <PB=1000000> 
---- Diving heuristic node with dive number = 0, fix depth = 0 and tabu list size = 0
Fixed projected solution = [x_1_0_1_OspV=1, x_1_16_1_OspV=1, x_1_95_1_OspV=1, x_1_184_1_OspV=1]
