Application parameters:
  batch  =>  nothing
  instance  =>  "/IN/201_2500_DI_41.txt-Q20"
  ub  =>  1.0e6
  cfg  =>  "/CFG/BPP.cfg"
data = Colored Bin Packing dataset.
number of items = 202
number of colors = 20
capacity = 2052
Items : 
	 item 1, weight= 4, color= 7
	 item 2, weight= 4, color= 12
	 item 3, weight= 16, color= 19
	 item 4, weight= 24, color= 13
	 item 5, weight= 24, color= 19
	 item 6, weight= 32, color= 5
	 item 7, weight= 32, color= 18
	 item 8, weight= 36, color= 9
	 item 9, weight= 40, color= 3
	 item 10, weight= 40, color= 9
	 item 11, weight= 40, color= 10
	 item 12, weight= 40, color= 17
	 item 13, weight= 42, color= 15
	 item 14, weight= 44, color= 18
	 item 15, weight= 46, color= 8
	 item 16, weight= 46, color= 9
	 item 17, weight= 46, color= 15
	 item 18, weight= 48, color= 3
	 item 19, weight= 48, color= 9
	 item 20, weight= 48, color= 12
	 item 21, weight= 50, color= 11
	 item 22, weight= 52, color= 2
	 item 23, weight= 52, color= 9
	 item 24, weight= 52, color= 13
	 item 25, weight= 52, color= 17
	 item 26, weight= 52, color= 19
	 item 27, weight= 56, color= 2
	 item 28, weight= 56, color= 3
	 item 29, weight= 58, color= 8
	 item 30, weight= 60, color= 10
	 item 31, weight= 62, color= 2
	 item 32, weight= 64, color= 0
	 item 33, weight= 68, color= 2
	 item 34, weight= 68, color= 14
	 item 35, weight= 68, color= 18
	 item 36, weight= 70, color= 18
	 item 37, weight= 72, color= 6
	 item 38, weight= 72, color= 12
	 item 39, weight= 72, color= 14
	 item 40, weight= 76, color= 7
	 item 41, weight= 76, color= 8
	 item 42, weight= 78, color= 17
	 item 43, weight= 80, color= 13
	 item 44, weight= 84, color= 1
	 item 45, weight= 84, color= 11
	 item 46, weight= 84, color= 16
	 item 47, weight= 86, color= 17
	 item 48, weight= 92, color= 7
	 item 49, weight= 94, color= 7
	 item 50, weight= 94, color= 12
	 item 51, weight= 96, color= 9
	 item 52, weight= 100, color= 19
	 item 53, weight= 104, color= 11
	 item 54, weight= 106, color= 19
	 item 55, weight= 112, color= 1
	 item 56, weight= 114, color= 6
	 item 57, weight= 114, color= 8
	 item 58, weight= 116, color= 17
	 item 59, weight= 124, color= 1
	 item 60, weight= 124, color= 7
	 item 61, weight= 128, color= 19
	 item 62, weight= 130, color= 2
	 item 63, weight= 132, color= 8
	 item 64, weight= 136, color= 2
	 item 65, weight= 148, color= 0
	 item 66, weight= 148, color= 8
	 item 67, weight= 152, color= 11
	 item 68, weight= 168, color= 2
	 item 69, weight= 170, color= 8
	 item 70, weight= 174, color= 6
	 item 71, weight= 178, color= 8
	 item 72, weight= 187, color= 8
	 item 73, weight= 214, color= 6
	 item 74, weight= 218, color= 1
	 item 75, weight= 219, color= 8
	 item 76, weight= 225, color= 9
	 item 77, weight= 228, color= 3
	 item 78, weight= 228, color= 6
	 item 79, weight= 229, color= 12
	 item 80, weight= 231, color= 15
	 item 81, weight= 239, color= 14
	 item 82, weight= 240, color= 11
	 item 83, weight= 251, color= 8
	 item 84, weight= 257, color= 5
	 item 85, weight= 262, color= 11
	 item 86, weight= 263, color= 3
	 item 87, weight= 266, color= 13
	 item 88, weight= 271, color= 10
	 item 89, weight= 274, color= 15
	 item 90, weight= 282, color= 9
	 item 91, weight= 287, color= 13
	 item 92, weight= 292, color= 19
	 item 93, weight= 293, color= 7
	 item 94, weight= 313, color= 7
	 item 95, weight= 314, color= 19
	 item 96, weight= 316, color= 8
	 item 97, weight= 331, color= 8
	 item 98, weight= 342, color= 5
	 item 99, weight= 346, color= 13
	 item 100, weight= 357, color= 8
	 item 101, weight= 362, color= 11
	 item 102, weight= 382, color= 18
	 item 103, weight= 385, color= 14
	 item 104, weight= 389, color= 9
	 item 105, weight= 391, color= 8
	 item 106, weight= 402, color= 10
	 item 107, weight= 422, color= 13
	 item 108, weight= 425, color= 14
	 item 109, weight= 428, color= 19
	 item 110, weight= 431, color= 5
	 item 111, weight= 467, color= 0
	 item 112, weight= 472, color= 7
	 item 113, weight= 473, color= 12
	 item 114, weight= 478, color= 14
	 item 115, weight= 481, color= 5
	 item 116, weight= 502, color= 18
	 item 117, weight= 514, color= 19
	 item 118, weight= 525, color= 13
	 item 119, weight= 531, color= 1
	 item 120, weight= 570, color= 14
	 item 121, weight= 571, color= 5
	 item 122, weight= 579, color= 4
	 item 123, weight= 583, color= 14
	 item 124, weight= 593, color= 18
	 item 125, weight= 622, color= 14
	 item 126, weight= 649, color= 16
	 item 127, weight= 655, color= 8
	 item 128, weight= 663, color= 7
	 item 129, weight= 686, color= 7
	 item 130, weight= 692, color= 17
	 item 131, weight= 741, color= 1
	 item 132, weight= 751, color= 2
	 item 133, weight= 762, color= 16
	 item 134, weight= 828, color= 10
	 item 135, weight= 845, color= 6
	 item 136, weight= 854, color= 1
	 item 137, weight= 855, color= 6
	 item 138, weight= 897, color= 18
	 item 139, weight= 1027, color= 11
	 item 140, weight= 1030, color= 19
	 item 141, weight= 1031, color= 10
	 item 142, weight= 1111, color= 13
	 item 143, weight= 1138, color= 4
	 item 144, weight= 1153, color= 19
	 item 145, weight= 1163, color= 13
	 item 146, weight= 1230, color= 16
	 item 147, weight= 1257, color= 13
	 item 148, weight= 1267, color= 18
	 item 149, weight= 1275, color= 3
	 item 150, weight= 1288, color= 2
	 item 151, weight= 1306, color= 3
	 item 152, weight= 1353, color= 8
	 item 153, weight= 1359, color= 16
	 item 154, weight= 1367, color= 16
	 item 155, weight= 1370, color= 7
	 item 156, weight= 1375, color= 12
	 item 157, weight= 1415, color= 13
	 item 158, weight= 1420, color= 18
	 item 159, weight= 1423, color= 3
	 item 160, weight= 1438, color= 8
	 item 161, weight= 1477, color= 10
	 item 162, weight= 1478, color= 18
	 item 163, weight= 1485, color= 0
	 item 164, weight= 1493, color= 11
	 item 165, weight= 1506, color= 17
	 item 166, weight= 1535, color= 19
	 item 167, weight= 1543, color= 17
	 item 168, weight= 1546, color= 13
	 item 169, weight= 1570, color= 14
	 item 170, weight= 1583, color= 3
	 item 171, weight= 1591, color= 4
	 item 172, weight= 1598, color= 12
	 item 173, weight= 1617, color= 6
	 item 174, weight= 1618, color= 17
	 item 175, weight= 1625, color= 6
	 item 176, weight= 1638, color= 1
	 item 177, weight= 1657, color= 5
	 item 178, weight= 1677, color= 4
	 item 179, weight= 1678, color= 18
	 item 180, weight= 1686, color= 4
	 item 181, weight= 1701, color= 15
	 item 182, weight= 1704, color= 16
	 item 183, weight= 1709, color= 14
	 item 184, weight= 1718, color= 13
	 item 185, weight= 1726, color= 10
	 item 186, weight= 1729, color= 10
	 item 187, weight= 1734, color= 1
	 item 188, weight= 1737, color= 12
	 item 189, weight= 1742, color= 10
	 item 190, weight= 1745, color= 6
	 item 191, weight= 1753, color= 11
	 item 192, weight= 1767, color= 9
	 item 193, weight= 1772, color= 13
	 item 194, weight= 1775, color= 10
	 item 195, weight= 1783, color= 6
	 item 196, weight= 1791, color= 18
	 item 197, weight= 1794, color= 3
	 item 198, weight= 1798, color= 10
	 item 199, weight= 1799, color= 13
	 item 200, weight= 1829, color= 13
	 item 201, weight= 1842, color= 8
	 item 202, weight= 1846, color= 19

VRPSolver warning: Interval set for resource 1 on source node (when source != sink) is ignored (by definition is [0.0,0.0])
[41m solve [00m
~~~~~~~~~~~~~~~~~~~~~~~~~~~~~~~~~~~~~~~~~~~~~~~~~~~~~~~~~~~~~~~~~~~~~~~~~~~~~~
VRPSolver v0.4.1, 24/03/2021. Web: vrpsolver.math.u-bordeaux.fr
Corresponds to the solver by Pessoa, Sadykov, Uchoa and Vanderbeck (2020)
Paper: dx.doi.org/10.1007/s10107-020-01523-z
USE THIS CODE ONLY FOR ACADEMIC PURPOSES AT YOUR OWN RISK
~~~~~~~~~~~~~~~~~~~~~~~~~~~~~~~~~~~~~~~~~~~~~~~~~~~~~~~~~~~~~~~~~~~~~~~~~~~~~~
BaPCod v053, 24/03/2021, © Inria Bordeaux, France
~~~~~~~~~~~~~~~~~~~~~~~~~~~~~~~~~~~~~~~~~~~~~~~~~~~~~~~~~~~~~~~~~~~~~~~~~~~~~~
VRPSolver parameters:
GlobalTimeLimit = 1800
MaxNbOfBBtreeNodeTreated = 100000
treeSearchStrategy = 1
RCSPstopCutGenTimeThresholdInPricing = 10
RCSPhardTimeThresholdInPricing = 20
RCSPnumberOfBucketsPerVertex = 2000
RCSPdynamicBucketSteps = 0
RCSPuseBidirectionalSearch = 1
RCSPapplyReducedCostFixing = 1
RCSPredCostFixingFalseGap = 0
RCSPmaxNumOfColsPerIteration = 100
RCSPmaxNumOfColsPerExactIteration = 100
RCSPheurLabelingStrategy = 4
StabilizationMinPhaseOfStage = 1
RCSPmaxNumOfLabelsInEnumeration = 100000
RCSPmaxNumOfEnumeratedSolutions = 1000000
RCSPmaxNumOfEnumSolutionsForMIP = 100000
RCSPinitNGneighbourhoodSize = 0
RCSPmaxNGneighbourhoodSize = 0
RCSPrankOneCutsMaxNumPerRound = 100
RCSPrankOneCutsMaxNumRows = -1
RCSPrankOneCutsMemoryType = 2
CutTailingOffThreshold = 0.02
CutTailingOffCounterThreshold = 3
SafeDualBoundScaleFactor = -1
StrongBranchingPhaseOneCandidatesNumber = 100
StrongBranchingPhaseOneTreeSizeEstimRatio = 0.3
StrongBranchingPhaseTwoCandidatesNumber = 1
StrongBranchingPhaseTwoTreeSizeEstimRatio = 0.1
MaxTimeForRestrictedMasterIpHeur = -1
DivingHeurUseDepthLimit = 0
MaxLDSbreadth = 3
MaxLDSdepth = 2
New model incumbent solution 1e+06, TIME = 0h0m0s3t = 3
Model is built TIME = 0h0m1s91t = 191
************************************************************************************************
**** BaB tree root node
**** Local DB = -1e+12, global bounds : [ -1e+12 , 1e+06 ], TIME = 0h0m1s91t = 191
**** 1 open nodes, 0 columns (0 active), 0 dyn. constrs. (0 active), 406 art. vars. (406 active)
************************************************************************************************
<DWph=2> <it= 10> <et=4.39> <Mt= 0.00> <Spt= 2.47> <nCl=1000> <DB=-12131691736.0244> <Mlp=230071703.1160> <PB=1000000> 
<DWph=2> <it= 20> <et=6.63> <Mt= 0.01> <Spt= 2.22> <nCl=1000> <DB=-8702583798.2467> <Mlp=212147579.8712> <PB=1000000> 
<DWph=2> <it= 30> <et=8.88> <Mt= 0.02> <Spt= 2.23> <nCl=1000> <DB=-6109960886.9510> <Mlp=194099674.8319> <PB=1000000> 
<DWph=2> <it= 40> <et=11.01> <Mt= 0.03> <Spt= 2.10> <nCl=1000> <DB=-3706859548.0452> <Mlp=170218001.9073> <PB=1000000> 
<DWph=2> <it= 50> <et=13.04> <Mt= 0.06> <Spt= 1.97> <nCl=1000> <DB=-2310514698.5001> <Mlp=156858210.5975> <PB=1000000> 
<DWph=2> <it= 60> <et=15.01> <Mt= 0.07> <Spt= 1.91> <nCl=1000> <DB=-1519609983.7634> <Mlp=131929767.2489> <PB=1000000> 
<DWph=2> <it= 70> <et=16.98> <Mt= 0.12> <Spt= 1.83> <nCl=1000> <DB=-792440337.5384> <Mlp=99618377.9685> <PB=1000000> 
<DWph=2> <it= 80> <et=18.99> <Mt= 0.15> <Spt= 1.86> <nCl=1000> <DB=-403888297.3073> <Mlp=80400015.8942> <PB=1000000> 
<DWph=2> <it= 90> <et=20.98> <Mt= 0.19> <Spt= 1.80> <nCl=1000> <DB=-171257721.1676> <Mlp=72000019.2155> <PB=1000000> 
<DWph=2> <it=100> <et=22.96> <Mt= 0.17> <Spt= 1.81> <nCl=1000> <DB=-1006953225.9466> <Mlp=65503956.2070> <PB=1000000> 
<DWph=2> <it=110> <et=25.07> <Mt= 0.18> <Spt= 1.85> <nCl=1000> <DB=-174961872.3781> <Mlp=61398299.6104> <PB=1000000> 
<DWph=2> <it=120> <et=27.05> <Mt= 0.18> <Spt= 1.80> <nCl=1000> <DB=-173367724.4836> <Mlp=55310015.0246> <PB=1000000> 
<DWph=2> <it=130> <et=29.04> <Mt= 0.15> <Spt= 1.84> <nCl=1000> <DB=-174487035.1958> <Mlp=47695897.6801> <PB=1000000> 
<DWph=2> <it=140> <et=31.00> <Mt= 0.10> <Spt= 1.81> <nCl=1000> <DB=-176983515.7126> <Mlp=44637304.2714> <PB=1000000> 
<DWph=2> <it=150> <et=32.86> <Mt= 0.08> <Spt= 1.78> <nCl=1000> <DB=-172396496.9189> <Mlp=42013431.4381> <PB=1000000> 
<DWph=2> <it=160> <et=34.67> <Mt= 0.08> <Spt= 1.73> <nCl=1000> <DB=-171493544.9595> <Mlp=35910324.9979> <PB=1000000> 
<DWph=2> <it=170> <et=38.92> <Mt= 0.13> <Spt= 4.06> <nCl=964> <DB=   29.5146> <Mlp=   67.6540> <PB=1000000> 
<DWph=2> <it=180> <et=40.94> <Mt= 0.14> <Spt= 1.88> <nCl=1000> <DB=   32.2793> <Mlp=   66.3333> <PB=1000000> 
<DWph=2> <it=190> <et=43.10> <Mt= 0.16> <Spt= 2.00> <nCl=885> <DB=   53.6917> <Mlp=   65.1256> <PB=1000000> 
<DWph=2> <it=200> <et=45.28> <Mt= 0.11> <Spt= 2.06> <nCl=927> <DB=   63.4213> <Mlp=   65.0584> <PB=1000000> 
<DWph=2> <it=210> <et=47.64> <Mt= 0.18> <Spt= 2.13> <nCl=945> <DB=   64.8152> <Mlp=   65.0088> <PB=1000000> 
<DWph=2> <it=220> <et=49.90> <Mt= 0.11> <Spt= 2.14> <nCl=730> <DB=   64.9912> <Mlp=   65.0006> <PB=1000000> 
<DWph=2> <it=229> <et=52.20> <Mt= 0.05> <Spt= 2.24> <nCl=211> <DB=   65.0004> <Mlp=   65.0004> <PB=1000000> 
<DWph=1> <it=230> <et=52.50> <Mt= 0.01> <Spt= 0.30> <nCl=100> <DB=   64.9218> <Mlp=   65.0004> <PB=1000000> 
<DWph=1> <it=235> <et=54.14> <Mt= 0.04> <Spt= 1.59> <nCl=274> <DB=   64.9998> <Mlp=   65.0000> <PB=1000000> 
<DWph=0> <it=236> <et=54.45> <Mt= 0.00> <Spt= 0.31> <nCl=  0> <DB=   64.9998> <Mlp=   65.0000> <PB=1000000> 
Reduced cost fixing for graph G_1... took 13.81 sec., 776092 buck. arcs remain (90.6% from prev., 42% from max.)
Run enumeration... took 0.18 sec. and not succeeded.
ColGenEvalAlg final dual bound: 64.9998 (rounded: 65)
----------- Diving heuristic started -----------
<DWph=2> <it=  1> <et=69.08> <Mt= 0.00> <Spt= 0.57> <nCl=  0> <DB=   65.0000> <Mlp=   65.0000> <PB=1000000> 
<DWph=1> <it=  2> <et=69.68> <Mt= 0.00> <Spt= 0.59> <nCl=  0> <DB=   64.9998> <Mlp=   65.0000> <PB=1000000> 
---- Diving heuristic node with dive number = 0, fix depth = 0 and tabu list size = 0
Fixed projected solution = [x_1_0_1_OspV=1, x_1_4_1_OspV=1, x_1_98_1_OspV=1, x_1_180_1_OspV=1]
<DWph=2> <it=  1> <et=70.28> <Mt= 0.01> <Spt= 0.53> <nCl=  0> <DB=   65.0000> <Mlp=   65.0000> <PB=1000000> 
<DWph=1> <it=  2> <et=70.88> <Mt= 0.00> <Spt= 0.60> <nCl=  0> <DB=   64.9998> <Mlp=   65.0000> <PB=1000000> 
---- Diving heuristic node with dive number = 0, fix depth = 0 and tabu list size = 0
Fixed projected solution = [x_1_0_1_OspV=1, x_1_29_1_OspV=1, x_1_93_1_OspV=1, x_1_181_1_OspV=1]
<DWph=2> <it=  1> <et=71.48> <Mt= 0.00> <Spt= 0.51> <nCl=  0> <DB=   65.0000> <Mlp=   65.0000> <PB=1000000> 
<DWph=1> <it=  2> <et=72.08> <Mt= 0.01> <Spt= 0.60> <nCl=  0> <DB=   64.9998> <Mlp=   65.0000> <PB=1000000> 
---- Diving heuristic node with dive number = 0, fix depth = 0 and tabu list size = 0
Fixed projected solution = [x_1_0_1_OspV=1, x_1_54_1_OspV=1, x_1_119_1_OspV=1, x_1_157_1_OspV=1]
<DWph=2> <it=  1> <et=72.67> <Mt= 0.00> <Spt= 0.52> <nCl=  0> <DB=   65.0000> <Mlp=   65.0000> <PB=1000000> 
<DWph=1> <it=  2> <et=73.28> <Mt= 0.00> <Spt= 0.60> <nCl=  0> <DB=   64.9998> <Mlp=   65.0000> <PB=1000000> 
---- Diving heuristic node with dive number = 0, fix depth = 0 and tabu list size = 0
Fixed projected solution = [x_1_0_1_OspV=1, x_1_60_1_OspV=1, x_1_138_1_OspV=1, x_1_141_1_OspV=1]
<DWph=2> <it=  1> <et=73.87> <Mt= 0.00> <Spt= 0.51> <nCl=  0> <DB=   65.0000> <Mlp=   65.0000> <PB=1000000> 
<DWph=1> <it=  2> <et=74.48> <Mt= 0.01> <Spt= 0.61> <nCl=  0> <DB=   64.9998> <Mlp=   65.0000> <PB=1000000> 
---- Diving heuristic node with dive number = 0, fix depth = 0 and tabu list size = 0
Fixed projected solution = [x_1_0_1_OspV=1, x_1_35_1_OspV=1, x_1_114_1_OspV=1, x_1_165_1_OspV=1]
<DWph=2> <it=  1> <et=75.07> <Mt= 0.00> <Spt= 0.51> <nCl=  0> <DB=   65.0000> <Mlp=   65.0000> <PB=1000000> 
<DWph=1> <it=  2> <et=75.68> <Mt= 0.00> <Spt= 0.60> <nCl=  0> <DB=   64.9998> <Mlp=   65.0000> <PB=1000000> 
---- Diving heuristic node with dive number = 0, fix depth = 0 and tabu list size = 0
Fixed projected solution = [x_1_0_1_OspV=1, x_1_5_1_OspV=1, x_1_79_1_OspV=1, x_1_199_1_OspV=1]
<DWph=2> <it=  1> <et=76.27> <Mt= 0.01> <Spt= 0.52> <nCl=  0> <DB=   65.0000> <Mlp=   65.0000> <PB=1000000> 
<DWph=1> <it=  2> <et=76.88> <Mt= 0.00> <Spt= 0.60> <nCl=  0> <DB=   64.9998> <Mlp=   65.0000> <PB=1000000> 
---- Diving heuristic node with dive number = 0, fix depth = 0 and tabu list size = 0
Fixed projected solution = [x_1_0_1_OspV=1, x_1_51_1_OspV=1, x_1_135_1_OspV=1, x_1_142_1_OspV=1]
<DWph=2> <it=  1> <et=77.47> <Mt= 0.00> <Spt= 0.51> <nCl=  0> <DB=   65.0000> <Mlp=   65.0000> <PB=1000000> 
<DWph=1> <it=  2> <et=78.08> <Mt= 0.00> <Spt= 0.61> <nCl=  0> <DB=   64.9998> <Mlp=   65.0000> <PB=1000000> 
---- Diving heuristic node with dive number = 0, fix depth = 1 and tabu list size = 0
Fixed projected solution = [x_1_0_1_OspV=1, x_1_7_1_OspV=1, x_1_106_1_OspV=1, x_1_174_1_OspV=1]
<DWph=2> <it=  1> <et=78.73> <Mt= 0.02> <Spt= 0.56> <nCl=  0> <DB=   65.0000> <Mlp=   65.0000> <PB=1000000> 
<DWph=1> <it=  2> <et=79.34> <Mt= 0.00> <Spt= 0.61> <nCl=  0> <DB=   64.9998> <Mlp=   65.0000> <PB=1000000> 
---- Diving heuristic node with dive number = 0, fix depth = 2 and tabu list size = 0
Fixed projected solution = [x_1_0_1_OspV=1, x_1_56_1_OspV=1, x_1_121_1_OspV=1, x_1_154_1_OspV=1]
<DWph=2> <it=  1> <et=79.95> <Mt= 0.02> <Spt= 0.51> <nCl=  0> <DB=   65.0000> <Mlp=   65.0000> <PB=1000000> 
<DWph=1> <it=  2> <et=80.55> <Mt= 0.00> <Spt= 0.61> <nCl=  0> <DB=   64.9998> <Mlp=   65.0000> <PB=1000000> 
---- Diving heuristic node with dive number = 0, fix depth = 2 and tabu list size = 0
Fixed projected solution = [x_1_0_1_OspV=1, x_1_23_1_OspV=1, x_1_89_1_OspV=1, x_1_185_1_OspV=1]
<DWph=2> <it=  1> <et=81.09> <Mt= 0.01> <Spt= 0.51> <nCl=  0> <DB=   65.0000> <Mlp=   65.0000> <PB=1000000> 
<DWph=1> <it=  2> <et=81.69> <Mt= 0.00> <Spt= 0.60> <nCl=  0> <DB=   64.9998> <Mlp=   65.0000> <PB=1000000> 
---- Diving heuristic node with dive number = 0, fix depth = 3 and tabu list size = 0
Fixed projected solution = [x_1_0_1_OspV=1, x_1_69_1_OspV=1, x_1_137_1_OspV=1, x_1_139_1_OspV=1]
<DWph=2> <it=  1> <et=82.23> <Mt= 0.00> <Spt= 0.51> <nCl=  0> <DB=   65.0000> <Mlp=   65.0000> <PB=1000000> 
<DWph=1> <it=  2> <et=82.83> <Mt= 0.00> <Spt= 0.61> <nCl=  0> <DB=   64.9998> <Mlp=   65.0000> <PB=1000000> 
---- Diving heuristic node with dive number = 0, fix depth = 4 and tabu list size = 0
Fixed projected solution = [x_1_0_1_OspV=1, x_1_15_1_OspV=1, x_1_81_1_OspV=1, x_1_192_1_OspV=1]
<DWph=2> <it=  1> <et=83.37> <Mt= 0.01> <Spt= 0.51> <nCl=  0> <DB=   65.0000> <Mlp=   65.0000> <PB=1000000> 
<DWph=1> <it=  2> <et=83.98> <Mt= 0.00> <Spt= 0.61> <nCl=  0> <DB=   64.9998> <Mlp=   65.0000> <PB=1000000> 
---- Diving heuristic node with dive number = 0, fix depth = 4 and tabu list size = 0
Fixed projected solution = [x_1_0_1_OspV=1, x_1_65_1_OspV=1, x_1_132_1_OspV=1, x_1_144_1_OspV=1]
<DWph=2> <it=  1> <et=84.54> <Mt= 0.01> <Spt= 0.53> <nCl=  0> <DB=   65.0000> <Mlp=   65.0000> <PB=1000000> 
<DWph=1> <it=  2> <et=85.17> <Mt= 0.00> <Spt= 0.63> <nCl=  0> <DB=   64.9998> <Mlp=   65.0000> <PB=1000000> 
---- Diving heuristic node with dive number = 0, fix depth = 5 and tabu list size = 0
Fixed projected solution = [x_1_0_1_OspV=1, x_1_66_1_OspV=1, x_1_131_1_OspV=1, x_1_145_1_OspV=1]
<DWph=2> <it=  1> <et=85.71> <Mt= 0.00> <Spt= 0.51> <nCl=  0> <DB=   65.0000> <Mlp=   65.0000> <PB=1000000> 
<DWph=1> <it=  2> <et=86.33> <Mt= 0.01> <Spt= 0.63> <nCl=  0> <DB=   64.9998> <Mlp=   65.0000> <PB=1000000> 
---- Diving heuristic node with dive number = 0, fix depth = 6 and tabu list size = 0
Fixed projected solution = [x_1_0_1_OspV=1, x_1_9_1_OspV=1, x_1_74_1_OspV=1, x_1_197_1_OspV=1]
<DWph=2> <it=  1> <et=86.92> <Mt= 0.01> <Spt= 0.56> <nCl=  0> <DB=   65.0000> <Mlp=   65.0000> <PB=1000000> 
<DWph=1> <it=  2> <et=87.55> <Mt= 0.00> <Spt= 0.62> <nCl=  0> <DB=   64.9998> <Mlp=   65.0000> <PB=1000000> 
---- Diving heuristic node with dive number = 0, fix depth = 7 and tabu list size = 0
Fixed projected solution = [x_1_0_1_OspV=1, x_1_32_1_OspV=1, x_1_97_1_OspV=1, x_1_177_1_OspV=1]
<DWph=2> <it=  1> <et=88.09> <Mt= 0.01> <Spt= 0.51> <nCl=  0> <DB=   65.0000> <Mlp=   65.0000> <PB=1000000> 
<DWph=1> <it=  2> <et=88.69> <Mt= 0.00> <Spt= 0.61> <nCl=  0> <DB=   64.9998> <Mlp=   65.0000> <PB=1000000> 
---- Diving heuristic node with dive number = 0, fix depth = 8 and tabu list size = 0
Fixed projected solution = [x_1_0_1_OspV=1, x_1_64_1_OspV=1, x_1_99_1_OspV=1, x_1_169_1_OspV=1]
<DWph=2> <it=  1> <et=89.25> <Mt= 0.02> <Spt= 0.51> <nCl=  0> <DB=   65.0000> <Mlp=   65.0000> <PB=1000000> 
<DWph=1> <it=  2> <et=89.85> <Mt= 0.00> <Spt= 0.60> <nCl=  0> <DB=   64.9998> <Mlp=   65.0000> <PB=1000000> 
---- Diving heuristic node with dive number = 0, fix depth = 9 and tabu list size = 0
Fixed projected solution = [x_1_0_1_OspV=1, x_1_8_1_OspV=1, x_1_72_1_OspV=1, x_1_200_1_OspV=1]
<DWph=2> <it=  1> <et=90.44> <Mt= 0.05> <Spt= 0.52> <nCl=  0> <DB=   65.0000> <Mlp=   65.0000> <PB=1000000> 
<DWph=1> <it=  2> <et=91.05> <Mt= 0.00> <Spt= 0.61> <nCl=  0> <DB=   64.9998> <Mlp=   65.0000> <PB=1000000> 
---- Diving heuristic node with dive number = 0, fix depth = 10 and tabu list size = 0
Fixed projected solution = [x_1_0_1_OspV=1, x_1_24_1_OspV=1, x_1_77_1_OspV=1, x_1_193_1_OspV=1]
<DWph=2> <it=  1> <et=91.60> <Mt= 0.02> <Spt= 0.52> <nCl=  0> <DB=   65.0000> <Mlp=   65.0000> <PB=1000000> 
<DWph=1> <it=  2> <et=92.21> <Mt= 0.00> <Spt= 0.60> <nCl=  0> <DB=   64.9998> <Mlp=   65.0000> <PB=1000000> 
---- Diving heuristic node with dive number = 0, fix depth = 11 and tabu list size = 0
Fixed projected solution = [x_1_0_1_OspV=1, x_1_52_1_OspV=1, x_1_117_1_OspV=1, x_1_160_1_OspV=1]
<DWph=2> <it=  1> <et=92.78> <Mt= 0.04> <Spt= 0.51> <nCl=  0> <DB=   65.0000> <Mlp=   65.0000> <PB=1000000> 
<DWph=1> <it=  2> <et=93.39> <Mt= 0.00> <Spt= 0.61> <nCl=  0> <DB=   64.9998> <Mlp=   65.0000> <PB=1000000> 
---- Diving heuristic node with dive number = 0, fix depth = 12 and tabu list size = 0
Fixed projected solution = [x_1_0_1_OspV=1, x_1_39_1_OspV=1, x_1_116_1_OspV=1, x_1_162_1_OspV=1]
<DWph=2> <it=  1> <et=93.93> <Mt= 0.01> <Spt= 0.52> <nCl=  0> <DB=   65.0000> <Mlp=   65.0000> <PB=1000000> 
<DWph=1> <it=  2> <et=94.54> <Mt= 0.00> <Spt= 0.60> <nCl=  0> <DB=   64.9998> <Mlp=   65.0000> <PB=1000000> 
---- Diving heuristic node with dive number = 0, fix depth = 13 and tabu list size = 0
Fixed projected solution = [x_1_0_1_OspV=1, x_1_31_1_OspV=1, x_1_94_1_OspV=1, x_1_178_1_OspV=1]
<DWph=2> <it=  1> <et=95.08> <Mt= 0.01> <Spt= 0.52> <nCl=  0> <DB=   65.0000> <Mlp=   65.0000> <PB=1000000> 
<DWph=1> <it=  2> <et=95.69> <Mt= 0.00> <Spt= 0.60> <nCl=  0> <DB=   64.9998> <Mlp=   65.0000> <PB=1000000> 
---- Diving heuristic node with dive number = 0, fix depth = 14 and tabu list size = 0
Fixed projected solution = [x_1_0_1_OspV=1, x_1_46_1_OspV=1, x_1_124_1_OspV=1, x_1_156_1_OspV=1]
<DWph=2> <it=  1> <et=96.23> <Mt= 0.02> <Spt= 0.51> <nCl=  0> <DB=   65.0000> <Mlp=   65.0000> <PB=1000000> 
<DWph=1> <it=  2> <et=96.84> <Mt= 0.00> <Spt= 0.61> <nCl=  0> <DB=   64.9998> <Mlp=   65.0000> <PB=1000000> 
---- Diving heuristic node with dive number = 0, fix depth = 15 and tabu list size = 0
Fixed projected solution = [x_1_0_1_OspV=1, x_1_59_1_OspV=1, x_1_125_1_OspV=1, x_1_151_1_OspV=1]
<DWph=2> <it=  1> <et=97.41> <Mt= 0.04> <Spt= 0.51> <nCl=  0> <DB=   65.0000> <Mlp=   65.0000> <PB=1000000> 
<DWph=1> <it=  2> <et=98.01> <Mt= 0.00> <Spt= 0.60> <nCl=  0> <DB=   64.9998> <Mlp=   65.0000> <PB=1000000> 
---- Diving heuristic node with dive number = 0, fix depth = 16 and tabu list size = 0
Fixed projected solution = [x_1_0_1_OspV=1, x_1_55_1_OspV=1, x_1_120_1_OspV=1, x_1_155_1_OspV=1]
<DWph=2> <it=  1> <et=98.57> <Mt= 0.03> <Spt= 0.52> <nCl=  0> <DB=   65.0000> <Mlp=   65.0000> <PB=1000000> 
<DWph=1> <it=  2> <et=99.18> <Mt= 0.00> <Spt= 0.60> <nCl=  0> <DB=   64.9998> <Mlp=   65.0000> <PB=1000000> 
---- Diving heuristic node with dive number = 0, fix depth = 17 and tabu list size = 0
Fixed projected solution = [x_1_0_1_OspV=1, x_1_18_1_OspV=1, x_1_85_1_OspV=1, x_1_189_1_OspV=1]
<DWph=2> <it=  1> <et=99.75> <Mt= 0.02> <Spt= 0.53> <nCl=  0> <DB=   65.0000> <Mlp=   65.0000> <PB=1000000> 
<DWph=1> <it=  2> <et=100.36> <Mt= 0.00> <Spt= 0.60> <nCl=  0> <DB=   64.9998> <Mlp=   65.0000> <PB=1000000> 
---- Diving heuristic node with dive number = 0, fix depth = 18 and tabu list size = 0
Fixed projected solution = [x_1_0_1_OspV=1, x_1_43_1_OspV=1, x_1_104_1_OspV=1, x_1_170_1_OspV=1]
<DWph=2> <it=  5> <et=102.06> <Mt= 0.08> <Spt= 1.61> <nCl=400> <DB=   65.0000> <Mlp=   65.0000> <PB=1000000> 
<DWph=1> <it=  6> <et=102.96> <Mt= 0.00> <Spt= 0.89> <nCl=  0> <DB=   64.9998> <Mlp=   65.0000> <PB=1000000> 
---- Diving heuristic node with dive number = 0, fix depth = 19 and tabu list size = 0
Fixed projected solution = [x_1_0_1_OspV=1, x_1_44_1_OspV=1, x_1_108_1_OspV=1, x_1_167_1_OspV=1]
<DWph=2> <it=  2> <et=103.99> <Mt= 0.06> <Spt= 0.97> <nCl=100> <DB=   65.0000> <Mlp=   65.0000> <PB=1000000> 
<DWph=1> <it=  3> <et=104.59> <Mt= 0.00> <Spt= 0.59> <nCl=  0> <DB=   64.9998> <Mlp=   65.0000> <PB=1000000> 
---- Diving heuristic node with dive number = 0, fix depth = 20 and tabu list size = 0
Fixed projected solution = [x_1_0_1_OspV=1, x_1_61_1_OspV=1, x_1_126_1_OspV=1, x_1_149_1_OspV=1]
<DWph=2> <it=  1> <et=105.14> <Mt= 0.02> <Spt= 0.51> <nCl=  0> <DB=   65.0000> <Mlp=   65.0000> <PB=1000000> 
<DWph=1> <it=  2> <et=105.79> <Mt= 0.00> <Spt= 0.65> <nCl=  0> <DB=   64.9998> <Mlp=   65.0000> <PB=1000000> 
---- Diving heuristic node with dive number = 0, fix depth = 21 and tabu list size = 0
Fixed projected solution = [x_1_0_1_OspV=1, x_1_57_1_OspV=1, x_1_122_1_OspV=1, x_1_153_1_OspV=1]
<DWph=2> <it=  1> <et=106.36> <Mt= 0.05> <Spt= 0.50> <nCl=  0> <DB=   65.0000> <Mlp=   65.0000> <PB=1000000> 
<DWph=1> <it=  2> <et=106.95> <Mt= 0.00> <Spt= 0.59> <nCl=  0> <DB=   64.9998> <Mlp=   65.0000> <PB=1000000> 
---- Diving heuristic node with dive number = 0, fix depth = 22 and tabu list size = 0
Fixed projected solution = [x_1_0_1_OspV=1, x_1_25_1_OspV=1, x_1_101_1_OspV=1, x_1_176_1_OspV=1]
<DWph=2> <it=  8> <et=109.70> <Mt= 0.11> <Spt= 2.58> <nCl=543> <DB=   65.0000> <Mlp=   65.0000> <PB=1000000> 
<DWph=1> <it= 10> <et=110.20> <Mt= 0.01> <Spt= 0.49> <nCl=150> <DB=   64.9655> <Mlp=   65.0000> <PB=1000000> 
<DWph=1> <it= 11> <et=110.98> <Mt= 0.00> <Spt= 0.77> <nCl=  0> <DB=   64.9998> <Mlp=   65.0000> <PB=1000000> 
---- Diving heuristic node with dive number = 0, fix depth = 23 and tabu list size = 0
Fixed projected solution = [x_1_0_1_OspV=1, x_1_48_1_OspV=1, x_1_90_1_OspV=1, x_1_179_1_OspV=1]
<DWph=2> <it=  1> <et=111.76> <Mt= 0.04> <Spt= 0.74> <nCl=  0> <DB=   65.0000> <Mlp=   65.0000> <PB=1000000> 
<DWph=1> <it=  2> <et=112.35> <Mt= 0.00> <Spt= 0.59> <nCl=  0> <DB=   64.9998> <Mlp=   65.0000> <PB=1000000> 
---- Diving heuristic node with dive number = 0, fix depth = 24 and tabu list size = 0
Fixed projected solution = [x_1_0_1_OspV=1, x_1_1_1_OspV=1, x_1_84_1_OspV=1, x_1_196_1_OspV=1]
<DWph=2> <it=  1> <et=112.91> <Mt= 0.05> <Spt= 0.49> <nCl=  0> <DB=   65.0000> <Mlp=   65.0000> <PB=1000000> 
<DWph=1> <it=  2> <et=113.50> <Mt= 0.00> <Spt= 0.59> <nCl=  0> <DB=   64.9998> <Mlp=   65.0000> <PB=1000000> 
---- Diving heuristic node with dive number = 0, fix depth = 25 and tabu list size = 0
Fixed projected solution = [x_1_0_1_OspV=1, x_1_62_1_OspV=1, x_1_127_1_OspV=1, x_1_148_1_OspV=1]
