Application parameters:
  batch  =>  nothing
  instance  =>  "/IN/201_2500_DI_18.txt-Q5"
  ub  =>  1.0e6
  cfg  =>  "/CFG/BPP.cfg"
data = Colored Bin Packing dataset.
number of items = 202
number of colors = 5
capacity = 1888
Items : 
	 item 1, weight= 8, color= 0
	 item 2, weight= 8, color= 4
	 item 3, weight= 16, color= 4
	 item 4, weight= 20, color= 3
	 item 5, weight= 26, color= 3
	 item 6, weight= 32, color= 0
	 item 7, weight= 32, color= 2
	 item 8, weight= 32, color= 3
	 item 9, weight= 32, color= 3
	 item 10, weight= 36, color= 0
	 item 11, weight= 36, color= 1
	 item 12, weight= 36, color= 3
	 item 13, weight= 36, color= 4
	 item 14, weight= 38, color= 2
	 item 15, weight= 40, color= 2
	 item 16, weight= 40, color= 4
	 item 17, weight= 42, color= 3
	 item 18, weight= 42, color= 3
	 item 19, weight= 44, color= 1
	 item 20, weight= 44, color= 4
	 item 21, weight= 44, color= 4
	 item 22, weight= 44, color= 4
	 item 23, weight= 48, color= 0
	 item 24, weight= 48, color= 2
	 item 25, weight= 50, color= 0
	 item 26, weight= 50, color= 1
	 item 27, weight= 50, color= 2
	 item 28, weight= 52, color= 0
	 item 29, weight= 52, color= 3
	 item 30, weight= 56, color= 1
	 item 31, weight= 56, color= 4
	 item 32, weight= 58, color= 4
	 item 33, weight= 60, color= 2
	 item 34, weight= 62, color= 1
	 item 35, weight= 64, color= 4
	 item 36, weight= 64, color= 4
	 item 37, weight= 68, color= 0
	 item 38, weight= 68, color= 2
	 item 39, weight= 68, color= 4
	 item 40, weight= 68, color= 4
	 item 41, weight= 72, color= 2
	 item 42, weight= 72, color= 4
	 item 43, weight= 76, color= 1
	 item 44, weight= 76, color= 1
	 item 45, weight= 80, color= 1
	 item 46, weight= 80, color= 3
	 item 47, weight= 86, color= 1
	 item 48, weight= 92, color= 1
	 item 49, weight= 92, color= 1
	 item 50, weight= 96, color= 0
	 item 51, weight= 98, color= 1
	 item 52, weight= 98, color= 3
	 item 53, weight= 100, color= 2
	 item 54, weight= 104, color= 3
	 item 55, weight= 104, color= 3
	 item 56, weight= 112, color= 0
	 item 57, weight= 114, color= 0
	 item 58, weight= 114, color= 0
	 item 59, weight= 114, color= 4
	 item 60, weight= 124, color= 1
	 item 61, weight= 132, color= 3
	 item 62, weight= 132, color= 4
	 item 63, weight= 134, color= 1
	 item 64, weight= 134, color= 2
	 item 65, weight= 134, color= 4
	 item 66, weight= 144, color= 2
	 item 67, weight= 156, color= 1
	 item 68, weight= 156, color= 1
	 item 69, weight= 156, color= 4
	 item 70, weight= 170, color= 3
	 item 71, weight= 178, color= 1
	 item 72, weight= 182, color= 3
	 item 73, weight= 190, color= 3
	 item 74, weight= 191, color= 0
	 item 75, weight= 198, color= 1
	 item 76, weight= 199, color= 0
	 item 77, weight= 206, color= 3
	 item 78, weight= 208, color= 0
	 item 79, weight= 208, color= 4
	 item 80, weight= 209, color= 3
	 item 81, weight= 213, color= 1
	 item 82, weight= 217, color= 2
	 item 83, weight= 222, color= 1
	 item 84, weight= 231, color= 1
	 item 85, weight= 242, color= 4
	 item 86, weight= 253, color= 1
	 item 87, weight= 254, color= 1
	 item 88, weight= 257, color= 4
	 item 89, weight= 261, color= 1
	 item 90, weight= 265, color= 2
	 item 91, weight= 269, color= 1
	 item 92, weight= 274, color= 3
	 item 93, weight= 283, color= 0
	 item 94, weight= 292, color= 2
	 item 95, weight= 293, color= 2
	 item 96, weight= 298, color= 2
	 item 97, weight= 313, color= 2
	 item 98, weight= 322, color= 2
	 item 99, weight= 324, color= 0
	 item 100, weight= 327, color= 4
	 item 101, weight= 329, color= 1
	 item 102, weight= 347, color= 3
	 item 103, weight= 350, color= 2
	 item 104, weight= 358, color= 4
	 item 105, weight= 365, color= 0
	 item 106, weight= 387, color= 0
	 item 107, weight= 392, color= 2
	 item 108, weight= 398, color= 2
	 item 109, weight= 409, color= 4
	 item 110, weight= 414, color= 1
	 item 111, weight= 435, color= 3
	 item 112, weight= 436, color= 2
	 item 113, weight= 462, color= 4
	 item 114, weight= 491, color= 1
	 item 115, weight= 493, color= 0
	 item 116, weight= 497, color= 0
	 item 117, weight= 501, color= 0
	 item 118, weight= 522, color= 1
	 item 119, weight= 522, color= 4
	 item 120, weight= 530, color= 1
	 item 121, weight= 567, color= 1
	 item 122, weight= 573, color= 1
	 item 123, weight= 577, color= 2
	 item 124, weight= 581, color= 2
	 item 125, weight= 606, color= 0
	 item 126, weight= 638, color= 0
	 item 127, weight= 640, color= 4
	 item 128, weight= 666, color= 3
	 item 129, weight= 667, color= 2
	 item 130, weight= 669, color= 1
	 item 131, weight= 673, color= 0
	 item 132, weight= 677, color= 3
	 item 133, weight= 681, color= 2
	 item 134, weight= 738, color= 0
	 item 135, weight= 760, color= 3
	 item 136, weight= 785, color= 0
	 item 137, weight= 786, color= 2
	 item 138, weight= 787, color= 2
	 item 139, weight= 945, color= 0
	 item 140, weight= 946, color= 0
	 item 141, weight= 947, color= 2
	 item 142, weight= 1006, color= 0
	 item 143, weight= 1073, color= 3
	 item 144, weight= 1077, color= 3
	 item 145, weight= 1081, color= 4
	 item 146, weight= 1089, color= 2
	 item 147, weight= 1090, color= 2
	 item 148, weight= 1126, color= 1
	 item 149, weight= 1184, color= 0
	 item 150, weight= 1187, color= 1
	 item 151, weight= 1190, color= 1
	 item 152, weight= 1193, color= 1
	 item 153, weight= 1197, color= 2
	 item 154, weight= 1201, color= 0
	 item 155, weight= 1209, color= 2
	 item 156, weight= 1254, color= 3
	 item 157, weight= 1262, color= 1
	 item 158, weight= 1287, color= 0
	 item 159, weight= 1293, color= 4
	 item 160, weight= 1297, color= 0
	 item 161, weight= 1301, color= 4
	 item 162, weight= 1304, color= 4
	 item 163, weight= 1326, color= 1
	 item 164, weight= 1334, color= 4
	 item 165, weight= 1367, color= 4
	 item 166, weight= 1394, color= 4
	 item 167, weight= 1399, color= 1
	 item 168, weight= 1414, color= 4
	 item 169, weight= 1425, color= 3
	 item 170, weight= 1451, color= 4
	 item 171, weight= 1462, color= 1
	 item 172, weight= 1470, color= 0
	 item 173, weight= 1473, color= 3
	 item 174, weight= 1495, color= 4
	 item 175, weight= 1500, color= 3
	 item 176, weight= 1506, color= 4
	 item 177, weight= 1513, color= 1
	 item 178, weight= 1517, color= 0
	 item 179, weight= 1534, color= 4
	 item 180, weight= 1537, color= 4
	 item 181, weight= 1549, color= 1
	 item 182, weight= 1562, color= 4
	 item 183, weight= 1571, color= 0
	 item 184, weight= 1577, color= 1
	 item 185, weight= 1581, color= 0
	 item 186, weight= 1585, color= 3
	 item 187, weight= 1586, color= 3
	 item 188, weight= 1593, color= 1
	 item 189, weight= 1602, color= 3
	 item 190, weight= 1613, color= 0
	 item 191, weight= 1622, color= 0
	 item 192, weight= 1629, color= 2
	 item 193, weight= 1633, color= 3
	 item 194, weight= 1642, color= 2
	 item 195, weight= 1647, color= 0
	 item 196, weight= 1651, color= 1
	 item 197, weight= 1654, color= 3
	 item 198, weight= 1661, color= 2
	 item 199, weight= 1662, color= 0
	 item 200, weight= 1670, color= 0
	 item 201, weight= 1678, color= 2
	 item 202, weight= 1686, color= 0

VRPSolver warning: Interval set for resource 1 on source node (when source != sink) is ignored (by definition is [0.0,0.0])
[41m solve [00m
~~~~~~~~~~~~~~~~~~~~~~~~~~~~~~~~~~~~~~~~~~~~~~~~~~~~~~~~~~~~~~~~~~~~~~~~~~~~~~
VRPSolver v0.4.1, 24/03/2021. Web: vrpsolver.math.u-bordeaux.fr
Corresponds to the solver by Pessoa, Sadykov, Uchoa and Vanderbeck (2020)
Paper: dx.doi.org/10.1007/s10107-020-01523-z
USE THIS CODE ONLY FOR ACADEMIC PURPOSES AT YOUR OWN RISK
~~~~~~~~~~~~~~~~~~~~~~~~~~~~~~~~~~~~~~~~~~~~~~~~~~~~~~~~~~~~~~~~~~~~~~~~~~~~~~
BaPCod v053, 24/03/2021, © Inria Bordeaux, France
~~~~~~~~~~~~~~~~~~~~~~~~~~~~~~~~~~~~~~~~~~~~~~~~~~~~~~~~~~~~~~~~~~~~~~~~~~~~~~
VRPSolver parameters:
GlobalTimeLimit = 1800
MaxNbOfBBtreeNodeTreated = 100000
treeSearchStrategy = 1
RCSPstopCutGenTimeThresholdInPricing = 10
RCSPhardTimeThresholdInPricing = 20
RCSPnumberOfBucketsPerVertex = 2000
RCSPdynamicBucketSteps = 0
RCSPuseBidirectionalSearch = 1
RCSPapplyReducedCostFixing = 1
RCSPredCostFixingFalseGap = 0
RCSPmaxNumOfColsPerIteration = 100
RCSPmaxNumOfColsPerExactIteration = 100
RCSPheurLabelingStrategy = 4
StabilizationMinPhaseOfStage = 1
RCSPmaxNumOfLabelsInEnumeration = 100000
RCSPmaxNumOfEnumeratedSolutions = 1000000
RCSPmaxNumOfEnumSolutionsForMIP = 100000
RCSPinitNGneighbourhoodSize = 0
RCSPmaxNGneighbourhoodSize = 0
RCSPrankOneCutsMaxNumPerRound = 100
RCSPrankOneCutsMaxNumRows = -1
RCSPrankOneCutsMemoryType = 2
CutTailingOffThreshold = 0.02
CutTailingOffCounterThreshold = 3
SafeDualBoundScaleFactor = -1
StrongBranchingPhaseOneCandidatesNumber = 100
StrongBranchingPhaseOneTreeSizeEstimRatio = 0.3
StrongBranchingPhaseTwoCandidatesNumber = 1
StrongBranchingPhaseTwoTreeSizeEstimRatio = 0.1
MaxTimeForRestrictedMasterIpHeur = -1
DivingHeurUseDepthLimit = 0
MaxLDSbreadth = 3
MaxLDSdepth = 2
New model incumbent solution 1e+06, TIME = 0h0m0s3t = 3
Model is built TIME = 0h0m2s26t = 226
************************************************************************************************
**** BaB tree root node
**** Local DB = -1e+12, global bounds : [ -1e+12 , 1e+06 ], TIME = 0h0m2s27t = 227
**** 1 open nodes, 0 columns (0 active), 0 dyn. constrs. (0 active), 406 art. vars. (406 active)
************************************************************************************************
<DWph=2> <it= 10> <et=4.64> <Mt= 0.00> <Spt= 2.36> <nCl=1000> <DB=-11445746886.4173> <Mlp=226800894.4143> <PB=1000000> 
<DWph=2> <it= 20> <et=6.65> <Mt= 0.02> <Spt= 2.00> <nCl=1000> <DB=-8755561437.2153> <Mlp=209620481.1236> <PB=1000000> 
<DWph=2> <it= 30> <et=8.64> <Mt= 0.02> <Spt= 1.96> <nCl=1000> <DB=-4901647000.1999> <Mlp=187740362.6061> <PB=1000000> 
<DWph=2> <it= 40> <et=10.62> <Mt= 0.04> <Spt= 1.93> <nCl=1000> <DB=-3224887157.0178> <Mlp=167356707.5742> <PB=1000000> 
<DWph=2> <it= 50> <et=12.63> <Mt= 0.10> <Spt= 1.92> <nCl=1000> <DB=-1791840112.4899> <Mlp=144582861.0721> <PB=1000000> 
<DWph=2> <it= 60> <et=14.54> <Mt= 0.10> <Spt= 1.80> <nCl=1000> <DB=-1238020493.9303> <Mlp=126600006.0291> <PB=1000000> 
<DWph=2> <it= 70> <et=16.45> <Mt= 0.10> <Spt= 1.81> <nCl=1000> <DB=-1050324678.7109> <Mlp=110635578.3982> <PB=1000000> 
<DWph=2> <it= 80> <et=18.42> <Mt= 0.17> <Spt= 1.79> <nCl=1000> <DB=-542291908.4467> <Mlp=91650012.9546> <PB=1000000> 
<DWph=2> <it= 90> <et=20.51> <Mt= 0.24> <Spt= 1.85> <nCl=1000> <DB=-183639484.1133> <Mlp=72000019.6354> <PB=1000000> 
<DWph=2> <it=100> <et=22.67> <Mt= 0.25> <Spt= 1.91> <nCl=1000> <DB=-173936055.3584> <Mlp=64800023.0958> <PB=1000000> 
<DWph=2> <it=110> <et=24.77> <Mt= 0.21> <Spt= 1.82> <nCl=1000> <DB=-188227725.4547> <Mlp=60071410.5545> <PB=1000000> 
<DWph=2> <it=120> <et=26.92> <Mt= 0.23> <Spt= 1.93> <nCl=1000> <DB=-172312186.0079> <Mlp=54000028.8730> <PB=1000000> 
<DWph=2> <it=130> <et=28.95> <Mt= 0.22> <Spt= 1.81> <nCl=1000> <DB=-171841332.4490> <Mlp=48000032.3219> <PB=1000000> 
<DWph=2> <it=140> <et=30.97> <Mt= 0.15> <Spt= 1.80> <nCl=1000> <DB=-172195556.0363> <Mlp=45304149.8587> <PB=1000000> 
<DWph=2> <it=150> <et=32.90> <Mt= 0.15> <Spt= 1.78> <nCl=1000> <DB=-171514636.0391> <Mlp=42000035.9529> <PB=1000000> 
<DWph=2> <it=160> <et=34.96> <Mt= 0.19> <Spt= 1.87> <nCl=1000> <DB=-171537079.3528> <Mlp=34800040.5830> <PB=1000000> 
<DWph=2> <it=170> <et=37.02> <Mt= 0.23> <Spt= 1.77> <nCl=1000> <DB=-171583207.3782> <Mlp=26687261.0463> <PB=1000000> 
<DWph=2> <it=180> <et=38.78> <Mt= 0.14> <Spt= 1.62> <nCl=1000> <DB=-171664132.4793> <Mlp=14475934.2394> <PB=1000000> 
<DWph=2> <it=190> <et=42.67> <Mt= 0.16> <Spt= 3.73> <nCl=1000> <DB=  -52.1389> <Mlp=   65.6944> <PB=1000000> 
<DWph=2> <it=200> <et=44.96> <Mt= 0.18> <Spt= 2.11> <nCl=837> <DB=   62.8180> <Mlp=   65.0629> <PB=1000000> 
<DWph=2> <it=210> <et=47.23> <Mt= 0.15> <Spt= 2.07> <nCl=1000> <DB=   64.6658> <Mlp=   65.0209> <PB=1000000> 
<DWph=2> <it=220> <et=49.57> <Mt= 0.19> <Spt= 2.14> <nCl=856> <DB=   64.9318> <Mlp=   65.0010> <PB=1000000> 
<DWph=2> <it=225> <et=50.99> <Mt= 0.05> <Spt= 1.36> <nCl=243> <DB=   65.0000> <Mlp=   65.0000> <PB=1000000> 
<DWph=1> <it=226> <et=51.47> <Mt= 0.01> <Spt= 0.48> <nCl=  0> <DB=   65.0000> <Mlp=   65.0000> <PB=1000000> 
<DWph=0> <it=227> <et=51.71> <Mt= 0.00> <Spt= 0.24> <nCl=  0> <DB=   65.0000> <Mlp=   65.0000> <PB=1000000> 
Reduced cost fixing for graph G_1... took 17.78 sec., 742484 buck. arcs remain (85.6% from prev., 37.5% from max.)
Run enumeration... took 0.16 sec. and not succeeded.
ColGenEvalAlg final dual bound: 65 (rounded: 65)
----------- Diving heuristic started -----------
<DWph=2> <it=  1> <et=69.73> <Mt= 0.00> <Spt= 0.00> <nCl=  0> <DB=   65.0000> <Mlp=   65.0000> <PB=1000000> 
<DWph=1> <it=  2> <et=69.73> <Mt= 0.00> <Spt= 0.00> <nCl=  0> <DB=   65.0000> <Mlp=   65.0000> <PB=1000000> 
---- Diving heuristic node with dive number = 0, fix depth = 0 and tabu list size = 0
Fixed projected solution = [x_1_0_1_OspV=1, x_1_36_1_OspV=1, x_1_127_1_OspV=1, x_1_149_1_OspV=1]
<DWph=2> <it=  1> <et=69.82> <Mt= 0.01> <Spt= 0.00> <nCl=  0> <DB=   65.0000> <Mlp=   65.0000> <PB=1000000> 
<DWph=1> <it=  2> <et=69.83> <Mt= 0.00> <Spt= 0.00> <nCl=  0> <DB=   65.0000> <Mlp=   65.0000> <PB=1000000> 
---- Diving heuristic node with dive number = 0, fix depth = 0 and tabu list size = 0
Fixed projected solution = [x_1_0_1_OspV=1, x_1_43_1_OspV=1, x_1_106_1_OspV=1, x_1_169_1_OspV=1]
<DWph=2> <it=  1> <et=69.92> <Mt= 0.00> <Spt= 0.00> <nCl=  0> <DB=   65.0000> <Mlp=   65.0000> <PB=1000000> 
<DWph=1> <it=  2> <et=69.92> <Mt= 0.00> <Spt= 0.00> <nCl=  0> <DB=   65.0000> <Mlp=   65.0000> <PB=1000000> 
---- Diving heuristic node with dive number = 0, fix depth = 0 and tabu list size = 0
Fixed projected solution = [x_1_0_1_OspV=1, x_1_31_1_OspV=1, x_1_76_1_OspV=1, x_1_193_1_OspV=1]
<DWph=2> <it=  1> <et=70.01> <Mt= 0.00> <Spt= 0.00> <nCl=  0> <DB=   65.0000> <Mlp=   65.0000> <PB=1000000> 
<DWph=1> <it=  2> <et=70.01> <Mt= 0.01> <Spt= 0.00> <nCl=  0> <DB=   65.0000> <Mlp=   65.0000> <PB=1000000> 
---- Diving heuristic node with dive number = 0, fix depth = 0 and tabu list size = 0
Fixed projected solution = [x_1_0_1_OspV=1, x_1_42_1_OspV=1, x_1_105_1_OspV=1, x_1_170_1_OspV=1]
<DWph=2> <it=  1> <et=70.10> <Mt= 0.00> <Spt= 0.00> <nCl=  0> <DB=   65.0000> <Mlp=   65.0000> <PB=1000000> 
<DWph=1> <it=  2> <et=70.10> <Mt= 0.00> <Spt= 0.00> <nCl=  0> <DB=   65.0000> <Mlp=   65.0000> <PB=1000000> 
---- Diving heuristic node with dive number = 0, fix depth = 1 and tabu list size = 0
Fixed projected solution = [x_1_0_1_OspV=1, x_1_56_1_OspV=1, x_1_121_1_OspV=1, x_1_155_1_OspV=1]
<DWph=2> <it=  1> <et=70.18> <Mt= 0.01> <Spt= 0.00> <nCl=  0> <DB=   65.0000> <Mlp=   65.0000> <PB=1000000> 
<DWph=1> <it=  2> <et=70.18> <Mt= 0.00> <Spt= 0.00> <nCl=  0> <DB=   65.0000> <Mlp=   65.0000> <PB=1000000> 
---- Diving heuristic node with dive number = 0, fix depth = 2 and tabu list size = 0
Fixed projected solution = [x_1_0_1_OspV=1, x_1_60_1_OspV=1, x_1_126_1_OspV=1, x_1_148_1_OspV=1]
<DWph=2> <it=  1> <et=70.26> <Mt= 0.00> <Spt= 0.00> <nCl=  0> <DB=   65.0000> <Mlp=   65.0000> <PB=1000000> 
<DWph=1> <it=  2> <et=70.26> <Mt= 0.00> <Spt= 0.00> <nCl=  0> <DB=   65.0000> <Mlp=   65.0000> <PB=1000000> 
---- Diving heuristic node with dive number = 0, fix depth = 3 and tabu list size = 0
Fixed projected solution = [x_1_0_1_OspV=1, x_1_40_1_OspV=1, x_1_104_1_OspV=1, x_1_171_1_OspV=1]
<DWph=2> <it=  1> <et=70.28> <Mt= 0.01> <Spt= 0.00> <nCl=  0> <DB=   65.0000> <Mlp=   65.0000> <PB=1000000> 
<DWph=1> <it=  2> <et=70.28> <Mt= 0.00> <Spt= 0.00> <nCl=  0> <DB=   65.0000> <Mlp=   65.0000> <PB=1000000> 
---- Diving heuristic node with dive number = 0, fix depth = 4 and tabu list size = 0
Fixed projected solution = [x_1_0_1_OspV=1, x_1_48_1_OspV=1, x_1_125_1_OspV=1, x_1_151_1_OspV=1]
<DWph=2> <it=  1> <et=70.30> <Mt= 0.02> <Spt= 0.00> <nCl=  0> <DB=   65.0000> <Mlp=   65.0000> <PB=1000000> 
<DWph=1> <it=  2> <et=70.30> <Mt= 0.00> <Spt= 0.00> <nCl=  0> <DB=   65.0000> <Mlp=   65.0000> <PB=1000000> 
---- Diving heuristic node with dive number = 0, fix depth = 5 and tabu list size = 0
Fixed projected solution = [x_1_0_1_OspV=1, x_1_25_1_OspV=1, x_1_86_1_OspV=1, x_1_186_1_OspV=1]
<DWph=2> <it=  1> <et=70.32> <Mt= 0.01> <Spt= 0.00> <nCl=  0> <DB=   65.0000> <Mlp=   65.0000> <PB=1000000> 
<DWph=1> <it=  2> <et=70.32> <Mt= 0.00> <Spt= 0.00> <nCl=  0> <DB=   65.0000> <Mlp=   65.0000> <PB=1000000> 
---- Diving heuristic node with dive number = 0, fix depth = 6 and tabu list size = 0
Fixed projected solution = [x_1_0_1_OspV=1, x_1_49_1_OspV=1, x_1_113_1_OspV=1, x_1_164_1_OspV=1]
<DWph=2> <it=  1> <et=70.36> <Mt= 0.03> <Spt= 0.00> <nCl=  0> <DB=   65.0000> <Mlp=   65.0000> <PB=1000000> 
<DWph=1> <it=  2> <et=70.36> <Mt= 0.00> <Spt= 0.00> <nCl=  0> <DB=   65.0000> <Mlp=   65.0000> <PB=1000000> 
---- Diving heuristic node with dive number = 0, fix depth = 6 and tabu list size = 0
Fixed projected solution = [x_1_0_1_OspV=1, x_1_12_1_OspV=1, x_1_73_1_OspV=1, x_1_199_1_OspV=1]
<DWph=2> <it=  1> <et=70.37> <Mt= 0.00> <Spt= 0.00> <nCl=  0> <DB=   65.0000> <Mlp=   65.0000> <PB=1000000> 
<DWph=1> <it=  2> <et=70.37> <Mt= 0.00> <Spt= 0.00> <nCl=  0> <DB=   65.0000> <Mlp=   65.0000> <PB=1000000> 
---- Diving heuristic node with dive number = 0, fix depth = 6 and tabu list size = 0
Fixed projected solution = [x_1_0_1_OspV=1, x_1_11_1_OspV=1, x_1_74_1_OspV=1, x_1_198_1_OspV=1]
<DWph=2> <it=  1> <et=70.37> <Mt= 0.00> <Spt= 0.00> <nCl=  0> <DB=   65.0000> <Mlp=   65.0000> <PB=1000000> 
<DWph=1> <it=  2> <et=70.38> <Mt= 0.01> <Spt= 0.00> <nCl=  0> <DB=   65.0000> <Mlp=   65.0000> <PB=1000000> 
---- Diving heuristic node with dive number = 0, fix depth = 7 and tabu list size = 0
Fixed projected solution = [x_1_0_1_OspV=1, x_1_27_1_OspV=1, x_1_89_1_OspV=1, x_1_184_1_OspV=1]
<DWph=2> <it=  1> <et=70.40> <Mt= 0.02> <Spt= 0.00> <nCl=  0> <DB=   65.0000> <Mlp=   65.0000> <PB=1000000> 
<DWph=1> <it=  2> <et=70.40> <Mt= 0.00> <Spt= 0.00> <nCl=  0> <DB=   65.0000> <Mlp=   65.0000> <PB=1000000> 
---- Diving heuristic node with dive number = 0, fix depth = 8 and tabu list size = 0
Fixed projected solution = [x_1_0_1_OspV=1, x_1_59_1_OspV=1, x_1_122_1_OspV=1, x_1_154_1_OspV=1]
<DWph=2> <it=  1> <et=70.42> <Mt= 0.01> <Spt= 0.00> <nCl=  0> <DB=   65.0000> <Mlp=   65.0000> <PB=1000000> 
<DWph=1> <it=  2> <et=70.42> <Mt= 0.00> <Spt= 0.00> <nCl=  0> <DB=   65.0000> <Mlp=   65.0000> <PB=1000000> 
---- Diving heuristic node with dive number = 0, fix depth = 9 and tabu list size = 0
Fixed projected solution = [x_1_0_1_OspV=1, x_1_69_1_OspV=1, x_1_136_1_OspV=1, x_1_141_1_OspV=1]
<DWph=2> <it=  1> <et=70.43> <Mt= 0.00> <Spt= 0.00> <nCl=  0> <DB=   65.0000> <Mlp=   65.0000> <PB=1000000> 
<DWph=1> <it=  2> <et=70.43> <Mt= 0.00> <Spt= 0.00> <nCl=  0> <DB=   65.0000> <Mlp=   65.0000> <PB=1000000> 
---- Diving heuristic node with dive number = 0, fix depth = 10 and tabu list size = 0
Fixed projected solution = [x_1_0_1_OspV=1, x_1_58_1_OspV=1, x_1_123_1_OspV=1, x_1_153_1_OspV=1]
<DWph=2> <it=  1> <et=70.46> <Mt= 0.02> <Spt= 0.00> <nCl=  0> <DB=   65.0000> <Mlp=   65.0000> <PB=1000000> 
<DWph=1> <it=  2> <et=70.46> <Mt= 0.00> <Spt= 0.00> <nCl=  0> <DB=   65.0000> <Mlp=   65.0000> <PB=1000000> 
---- Diving heuristic node with dive number = 0, fix depth = 11 and tabu list size = 0
Fixed projected solution = [x_1_0_1_OspV=1, x_1_17_1_OspV=1, x_1_82_1_OspV=1, x_1_192_1_OspV=1]
<DWph=2> <it=  1> <et=70.49> <Mt= 0.03> <Spt= 0.00> <nCl=  0> <DB=   65.0000> <Mlp=   65.0000> <PB=1000000> 
<DWph=1> <it=  2> <et=70.49> <Mt= 0.00> <Spt= 0.00> <nCl=  0> <DB=   65.0000> <Mlp=   65.0000> <PB=1000000> 
---- Diving heuristic node with dive number = 0, fix depth = 12 and tabu list size = 0
Fixed projected solution = [x_1_0_1_OspV=1, x_1_44_1_OspV=1, x_1_108_1_OspV=1, x_1_168_1_OspV=1]
<DWph=2> <it=  1> <et=70.53> <Mt= 0.03> <Spt= 0.00> <nCl=  0> <DB=   65.0000> <Mlp=   65.0000> <PB=1000000> 
<DWph=1> <it=  2> <et=70.53> <Mt= 0.00> <Spt= 0.00> <nCl=  0> <DB=   65.0000> <Mlp=   65.0000> <PB=1000000> 
---- Diving heuristic node with dive number = 0, fix depth = 13 and tabu list size = 0
Fixed projected solution = [x_1_0_1_OspV=1, x_1_64_1_OspV=1, x_1_131_1_OspV=1, x_1_145_1_OspV=1]
<DWph=2> <it=  1> <et=70.57> <Mt= 0.03> <Spt= 0.00> <nCl=  0> <DB=   65.0000> <Mlp=   65.0000> <PB=1000000> 
<DWph=1> <it=  2> <et=70.57> <Mt= 0.00> <Spt= 0.00> <nCl=  0> <DB=   65.0000> <Mlp=   65.0000> <PB=1000000> 
---- Diving heuristic node with dive number = 0, fix depth = 14 and tabu list size = 0
Fixed projected solution = [x_1_0_1_OspV=1, x_1_37_1_OspV=1, x_1_102_1_OspV=1, x_1_173_1_OspV=1]
<DWph=2> <it=  1> <et=70.60> <Mt= 0.02> <Spt= 0.00> <nCl=  0> <DB=   65.0000> <Mlp=   65.0000> <PB=1000000> 
<DWph=1> <it=  2> <et=70.60> <Mt= 0.01> <Spt= 0.00> <nCl=  0> <DB=   65.0000> <Mlp=   65.0000> <PB=1000000> 
---- Diving heuristic node with dive number = 0, fix depth = 15 and tabu list size = 0
Fixed projected solution = [x_1_0_1_OspV=1, x_1_85_1_OspV=1, x_1_107_1_OspV=1, x_1_156_1_OspV=1]
<DWph=2> <it=  6> <et=71.78> <Mt= 0.06> <Spt= 1.11> <nCl=500> <DB=   64.9618> <Mlp=   65.0000> <PB=1000000> 
<DWph=1> <it=  7> <et=71.79> <Mt= 0.00> <Spt= 0.00> <nCl=  0> <DB=   65.0000> <Mlp=   65.0000> <PB=1000000> 
---- Diving heuristic node with dive number = 0, fix depth = 16 and tabu list size = 0
Fixed projected solution = [x_1_0_1_OspV=1, x_1_46_1_OspV=1, x_1_110_1_OspV=1, x_1_166_1_OspV=1]
<DWph=2> <it=  3> <et=72.28> <Mt= 0.07> <Spt= 0.42> <nCl=200> <DB=   64.9803> <Mlp=   65.0000> <PB=1000000> 
<DWph=1> <it=  4> <et=72.28> <Mt= 0.00> <Spt= 0.00> <nCl=  0> <DB=   65.0000> <Mlp=   65.0000> <PB=1000000> 
---- Diving heuristic node with dive number = 0, fix depth = 17 and tabu list size = 0
Fixed projected solution = [x_1_0_1_OspV=1, x_1_8_1_OspV=1, x_1_130_1_OspV=1, x_1_150_1_OspV=1]
<DWph=2> <it=  1> <et=72.36> <Mt= 0.06> <Spt= 0.00> <nCl=  0> <DB=   65.0000> <Mlp=   65.0000> <PB=1000000> 
<DWph=1> <it=  2> <et=72.36> <Mt= 0.01> <Spt= 0.00> <nCl=  0> <DB=   65.0000> <Mlp=   65.0000> <PB=1000000> 
---- Diving heuristic node with dive number = 0, fix depth = 17 and tabu list size = 0
Fixed projected solution = [x_1_0_1_OspV=1, x_1_65_1_OspV=1, x_1_133_1_OspV=1, x_1_143_1_OspV=1]
<DWph=2> <it=  1> <et=72.37> <Mt= 0.00> <Spt= 0.00> <nCl=  0> <DB=   65.0000> <Mlp=   65.0000> <PB=1000000> 
<DWph=1> <it=  2> <et=72.37> <Mt= 0.00> <Spt= 0.00> <nCl=  0> <DB=   65.0000> <Mlp=   65.0000> <PB=1000000> 
---- Diving heuristic node with dive number = 0, fix depth = 18 and tabu list size = 0
Fixed projected solution = [x_1_0_1_OspV=1, x_1_51_1_OspV=1, x_1_115_1_OspV=1, x_1_160_1_OspV=1]
<DWph=2> <it=  2> <et=72.68> <Mt= 0.04> <Spt= 0.25> <nCl=100> <DB=   64.9786> <Mlp=   65.0000> <PB=1000000> 
<DWph=1> <it=  3> <et=72.68> <Mt= 0.00> <Spt= 0.00> <nCl=  0> <DB=   65.0000> <Mlp=   65.0000> <PB=1000000> 
---- Diving heuristic node with dive number = 0, fix depth = 19 and tabu list size = 0
Fixed projected solution = [x_1_0_1_OspV=1, x_1_68_1_OspV=1, x_1_138_1_OspV=1, x_1_139_1_OspV=1]
<DWph=2> <it=  1> <et=72.73> <Mt= 0.04> <Spt= 0.00> <nCl=  0> <DB=   65.0000> <Mlp=   65.0000> <PB=1000000> 
<DWph=1> <it=  2> <et=72.73> <Mt= 0.00> <Spt= 0.00> <nCl=  0> <DB=   65.0000> <Mlp=   65.0000> <PB=1000000> 
---- Diving heuristic node with dive number = 0, fix depth = 20 and tabu list size = 0
Fixed projected solution = [x_1_0_1_OspV=1, x_1_7_1_OspV=1, x_1_120_1_OspV=1, x_1_163_1_OspV=1]
<DWph=2> <it=  2> <et=73.02> <Mt= 0.07> <Spt= 0.21> <nCl=100> <DB=   64.9851> <Mlp=   65.0000> <PB=1000000> 
<DWph=1> <it=  3> <et=73.02> <Mt= 0.00> <Spt= 0.00> <nCl=  0> <DB=   65.0000> <Mlp=   65.0000> <PB=1000000> 
---- Diving heuristic node with dive number = 0, fix depth = 21 and tabu list size = 0
Fixed projected solution = [x_1_0_1_OspV=1, x_1_55_1_OspV=1, x_1_119_1_OspV=1, x_1_157_1_OspV=1]
<DWph=2> <it=  4> <et=73.76> <Mt= 0.10> <Spt= 0.62> <nCl=300> <DB=   64.9848> <Mlp=   65.0000> <PB=1000000> 
<DWph=1> <it=  5> <et=73.76> <Mt= 0.00> <Spt= 0.00> <nCl=  0> <DB=   65.0000> <Mlp=   65.0000> <PB=1000000> 
---- Diving heuristic node with dive number = 0, fix depth = 22 and tabu list size = 0
Fixed projected solution = [x_1_0_1_OspV=1, x_1_50_1_OspV=1, x_1_114_1_OspV=1, x_1_161_1_OspV=1]
<DWph=2> <it=  3> <et=74.25> <Mt= 0.07> <Spt= 0.42> <nCl=200> <DB=   64.9865> <Mlp=   65.0000> <PB=1000000> 
<DWph=1> <it=  4> <et=74.26> <Mt= 0.00> <Spt= 0.00> <nCl=  0> <DB=   65.0000> <Mlp=   65.0000> <PB=1000000> 
---- Diving heuristic node with dive number = 0, fix depth = 23 and tabu list size = 0
Fixed projected solution = [x_1_0_1_OspV=1, x_1_72_1_OspV=1, x_1_135_1_OspV=1, x_1_140_1_OspV=1]
<DWph=2> <it=  3> <et=74.80> <Mt= 0.09> <Spt= 0.41> <nCl=200> <DB=   64.9902> <Mlp=   65.0000> <PB=1000000> 
<DWph=1> <it=  4> <et=74.80> <Mt= 0.00> <Spt= 0.00> <nCl=  0> <DB=   65.0000> <Mlp=   65.0000> <PB=1000000> 
---- Diving heuristic node with dive number = 0, fix depth = 24 and tabu list size = 0
Fixed projected solution = [x_1_0_1_OspV=1, x_1_22_1_OspV=1, x_1_84_1_OspV=1, x_1_190_1_OspV=1]
<DWph=2> <it=  3> <et=75.31> <Mt= 0.07> <Spt= 0.42> <nCl=200> <DB=   64.9900> <Mlp=   65.0000> <PB=1000000> 
<DWph=1> <it=  4> <et=75.31> <Mt= 0.01> <Spt= 0.00> <nCl=  0> <DB=   65.0000> <Mlp=   65.0000> <PB=1000000> 
---- Diving heuristic node with dive number = 0, fix depth = 25 and tabu list size = 0
Fixed projected solution = [x_1_0_1_OspV=1, x_1_112_1_OspV=1, x_1_128_1_OspV=1, x_1_137_1_OspV=1]
<DWph=2> <it=  4> <et=76.00> <Mt= 0.04> <Spt= 0.64> <nCl=300> <DB=   64.9944> <Mlp=   65.0000> <PB=1000000> 
<DWph=1> <it=  5> <et=76.00> <Mt= 0.00> <Spt= 0.00> <nCl=  0> <DB=   65.0000> <Mlp=   65.0000> <PB=1000000> 
---- Diving heuristic node with dive number = 0, fix depth = 26 and tabu list size = 0
Fixed projected solution = [x_1_0_1_OspV=1, x_1_57_1_OspV=1, x_1_124_1_OspV=1, x_1_152_1_OspV=1]
<DWph=2> <it=  2> <et=76.28> <Mt= 0.06> <Spt= 0.21> <nCl=100> <DB=   64.9943> <Mlp=   65.0000> <PB=1000000> 
<DWph=1> <it=  3> <et=76.29> <Mt= 0.00> <Spt= 0.00> <nCl=  0> <DB=   65.0000> <Mlp=   65.0000> <PB=1000000> 
---- Diving heuristic node with dive number = 0, fix depth = 27 and tabu list size = 0
Fixed projected solution = [x_1_0_1_OspV=1, x_1_61_1_OspV=1, x_1_129_1_OspV=1, x_1_146_1_OspV=1]
<DWph=2> <it=  7> <et=77.61> <Mt= 0.05> <Spt= 1.25> <nCl=600> <DB=   64.9982> <Mlp=   65.0000> <PB=1000000> 
<DWph=1> <it=  8> <et=77.61> <Mt= 0.00> <Spt= 0.00> <nCl=  0> <DB=   65.0000> <Mlp=   65.0000> <PB=1000000> 
---- Diving heuristic node with dive number = 0, fix depth = 27 and tabu list size = 0
Fixed projected solution = [x_1_0_1_OspV=1, x_1_63_1_OspV=1, x_1_132_1_OspV=1, x_1_144_1_OspV=1]
<DWph=2> <it=  1> <et=77.63> <Mt= 0.01> <Spt= 0.00> <nCl=  0> <DB=   65.0000> <Mlp=   65.0000> <PB=1000000> 
<DWph=1> <it=  2> <et=77.63> <Mt= 0.00> <Spt= 0.00> <nCl=  0> <DB=   65.0000> <Mlp=   65.0000> <PB=1000000> 
---- Diving heuristic node with dive number = 0, fix depth = 28 and tabu list size = 0
Fixed projected solution = [x_1_0_1_OspV=1, x_1_9_1_OspV=1, x_1_80_1_OspV=1, x_1_195_1_OspV=1]
<DWph=2> <it=  2> <et=77.94> <Mt= 0.09> <Spt= 0.21> <nCl=100> <DB=   64.9963> <Mlp=   65.0000> <PB=1000000> 
<DWph=1> <it=  3> <et=77.94> <Mt= 0.00> <Spt= 0.00> <nCl=  0> <DB=   65.0000> <Mlp=   65.0000> <PB=1000000> 
---- Diving heuristic node with dive number = 0, fix depth = 29 and tabu list size = 0
Fixed projected solution = [x_1_0_1_OspV=1, x_1_4_1_OspV=1, x_1_117_1_OspV=1, x_1_165_1_OspV=1]
<DWph=2> <it=  9> <et=79.71> <Mt= 0.09> <Spt= 1.67> <nCl=800> <DB=   64.9988> <Mlp=   65.0000> <PB=1000000> 
---- Diving heuristic node with dive number = 0, fix depth = 30 and tabu list size = 0
Fixed projected solution = [x_1_0_1_OspV=1, x_1_54_1_OspV=1, x_1_116_1_OspV=1, x_1_158_1_OspV=1]
<DWph=2> <it= 10> <et=82.05> <Mt= 0.17> <Spt= 2.15> <nCl=1000> <DB=   64.9998> <Mlp=   65.0001> <PB=1000000> 
<DWph=2> <it= 15> <et=82.97> <Mt= 0.03> <Spt= 0.85> <nCl=400> <DB=   65.0000> <Mlp=   65.0000> <PB=1000000> 
<DWph=1> <it= 16> <et=82.97> <Mt= 0.01> <Spt= 0.00> <nCl=  0> <DB=   65.0000> <Mlp=   65.0000> <PB=1000000> 
---- Diving heuristic node with dive number = 0, fix depth = 31 and tabu list size = 0
Fixed projected solution = [x_1_0_1_OspV=1, x_1_45_1_OspV=1, x_1_109_1_OspV=1, x_1_167_1_OspV=1]
<DWph=2> <it=  1> <et=83.00> <Mt= 0.01> <Spt= 0.00> <nCl=  0> <DB=   65.0000> <Mlp=   65.0000> <PB=1000000> 
<DWph=1> <it=  2> <et=83.00> <Mt= 0.00> <Spt= 0.00> <nCl=  0> <DB=   65.0000> <Mlp=   65.0000> <PB=1000000> 
---- Diving heuristic node with dive number = 0, fix depth = 32 and tabu list size = 0
Fixed projected solution = [x_1_0_1_OspV=1, x_1_2_1_OspV=1, x_1_3_1_OspV=1, x_1_81_1_OspV=1, x_1_196_1_OspV=1]
<DWph=2> <it=  1> <et=83.04> <Mt= 0.03> <Spt= 0.00> <nCl=  0> <DB=   65.0000> <Mlp=   65.0000> <PB=1000000> 
<DWph=1> <it=  2> <et=83.04> <Mt= 0.00> <Spt= 0.00> <nCl=  0> <DB=   65.0000> <Mlp=   65.0000> <PB=1000000> 
---- Diving heuristic node with dive number = 0, fix depth = 33 and tabu list size = 0
Fixed projected solution = [x_1_0_1_OspV=1, x_1_13_1_OspV=1, x_1_75_1_OspV=1, x_1_197_1_OspV=1]
<DWph=2> <it=  3> <et=83.53> <Mt= 0.06> <Spt= 0.42> <nCl=200> <DB=   65.0000> <Mlp=   65.0000> <PB=1000000> 
<DWph=1> <it=  4> <et=83.53> <Mt= 0.00> <Spt= 0.00> <nCl=  0> <DB=   65.0000> <Mlp=   65.0000> <PB=1000000> 
---- Diving heuristic node with dive number = 0, fix depth = 34 and tabu list size = 0
Fixed projected solution = [x_1_0_1_OspV=1, x_1_23_1_OspV=1, x_1_87_1_OspV=1, x_1_187_1_OspV=1]
<DWph=2> <it=  3> <et=84.04> <Mt= 0.06> <Spt= 0.44> <nCl=200> <DB=   65.0000> <Mlp=   65.0000> <PB=1000000> 
<DWph=1> <it=  4> <et=84.05> <Mt= 0.00> <Spt= 0.00> <nCl=  0> <DB=   65.0000> <Mlp=   65.0000> <PB=1000000> 
---- Diving heuristic node with dive number = 0, fix depth = 35 and tabu list size = 0
Fixed projected solution = [x_1_0_1_OspV=1, x_1_28_1_OspV=1, x_1_92_1_OspV=1, x_1_182_1_OspV=1]
<DWph=2> <it=  2> <et=84.35> <Mt= 0.08> <Spt= 0.22> <nCl=100> <DB=   65.0000> <Mlp=   65.0000> <PB=1000000> 
<DWph=1> <it=  3> <et=84.36> <Mt= 0.00> <Spt= 0.00> <nCl=  0> <DB=   65.0000> <Mlp=   65.0000> <PB=1000000> 
---- Diving heuristic node with dive number = 0, fix depth = 36 and tabu list size = 0
Fixed projected solution = [x_1_0_1_OspV=1, x_1_66_1_OspV=1, x_1_134_1_OspV=1, x_1_142_1_OspV=1]
<DWph=1> <it= 11> <et=86.52> <Mt= 0.14> <Spt= 2.00> <nCl=888> <DB=   65.0000> <Mlp=   65.0000> <PB=1000000> 
---- Diving heuristic node with dive number = 0, fix depth = 36 and tabu list size = 0
Fixed projected solution = [x_1_0_1_OspV=1, x_1_38_1_OspV=1, x_1_103_1_OspV=1, x_1_172_1_OspV=1]
<DWph=2> <it=  1> <et=86.53> <Mt= 0.00> <Spt= 0.00> <nCl=  0> <DB=   65.0000> <Mlp=   65.0000> <PB=1000000> 
<DWph=1> <it=  2> <et=86.53> <Mt= 0.00> <Spt= 0.00> <nCl=  0> <DB=   65.0000> <Mlp=   65.0000> <PB=1000000> 
---- Diving heuristic node with dive number = 0, fix depth = 37 and tabu list size = 0
Fixed projected solution = [x_1_0_1_OspV=1, x_1_26_1_OspV=1, x_1_88_1_OspV=1, x_1_185_1_OspV=1]
<DWph=2> <it= 10> <et=91.90> <Mt= 0.05> <Spt= 5.30> <nCl=394> <DB=   64.9942> <Mlp=   65.0000> <PB=1000000> 
<DWph=2> <it= 11> <et=92.53> <Mt= 0.01> <Spt= 0.63> <nCl=  0> <DB=   65.0000> <Mlp=   65.0000> <PB=1000000> 
<DWph=1> <it= 12> <et=92.96> <Mt= 0.00> <Spt= 0.42> <nCl=  0> <DB=   65.0000> <Mlp=   65.0000> <PB=1000000> 
---- Diving heuristic node with dive number = 0, fix depth = 38 and tabu list size = 0
Fixed projected solution = [x_1_0_1_OspV=1, x_1_29_1_OspV=1, x_1_90_1_OspV=1, x_1_183_1_OspV=1]
<DWph=2> <it=  1> <et=93.40> <Mt= 0.01> <Spt= 0.41> <nCl=  0> <DB=   65.0000> <Mlp=   65.0000> <PB=1000000> 
<DWph=1> <it=  2> <et=93.82> <Mt= 0.00> <Spt= 0.42> <nCl=  0> <DB=   65.0000> <Mlp=   65.0000> <PB=1000000> 
---- Diving heuristic node with dive number = 0, fix depth = 38 and tabu list size = 0
Fixed projected solution = [x_1_0_1_OspV=1, x_1_5_1_OspV=1, x_1_91_1_OspV=1, x_1_188_1_OspV=1]
<DWph=2> <it=  1> <et=94.26> <Mt= 0.00> <Spt= 0.42> <nCl=  0> <DB=   65.0000> <Mlp=   65.0000> <PB=1000000> 
<DWph=1> <it=  2> <et=94.68> <Mt= 0.00> <Spt= 0.42> <nCl=  0> <DB=   65.0000> <Mlp=   65.0000> <PB=1000000> 
---- Diving heuristic node with dive number = 0, fix depth = 39 and tabu list size = 0
Fixed projected solution = [x_1_0_1_OspV=1, x_1_30_1_OspV=1, x_1_93_1_OspV=1, x_1_181_1_OspV=1]
<DWph=2> <it=  4> <et=96.16> <Mt= 0.02> <Spt= 1.44> <nCl=100> <DB=   65.0000> <Mlp=   65.0000> <PB=1000000> 
<DWph=1> <it=  5> <et=96.58> <Mt= 0.00> <Spt= 0.42> <nCl=  0> <DB=   65.0000> <Mlp=   65.0000> <PB=1000000> 
---- Diving heuristic node with dive number = 0, fix depth = 40 and tabu list size = 0
Fixed projected solution = [x_1_0_1_OspV=1, x_1_35_1_OspV=1, x_1_99_1_OspV=1, x_1_175_1_OspV=1]
<DWph=2> <it=  8> <et=98.94> <Mt= 0.05> <Spt= 2.30> <nCl=262> <DB=   65.0000> <Mlp=   65.0000> <PB=1000000> 
<DWph=1> <it=  9> <et=99.65> <Mt= 0.01> <Spt= 0.70> <nCl=  0> <DB=   65.0000> <Mlp=   65.0000> <PB=1000000> 
---- Diving heuristic node with dive number = 0, fix depth = 41 and tabu list size = 0
Fixed projected solution = [x_1_0_1_OspV=1, x_1_18_1_OspV=1, x_1_101_1_OspV=1, x_1_178_1_OspV=1]
<DWph=2> <it=  6> <et=101.45> <Mt= 0.04> <Spt= 1.74> <nCl=236> <DB=   64.9850> <Mlp=   65.0000> <PB=1000000> 
<DWph=1> <it=  7> <et=101.88> <Mt= 0.00> <Spt= 0.43> <nCl=  2> <DB=   64.9965> <Mlp=   65.0000> <PB=1000000> 
---- Diving heuristic node with dive number = 0, fix depth = 42 and tabu list size = 0
Fixed projected solution = [x_1_0_1_OspV=1, x_1_24_1_OspV=1, x_1_100_1_OspV=1, x_1_177_1_OspV=1]
<DWph=2> <it= 10> <et=105.01> <Mt= 0.08> <Spt= 2.97> <nCl=483> <DB=   65.0001> <Mlp=   65.0001> <PB=1000000> 
<DWph=1> <it= 11> <et=105.42> <Mt= 0.01> <Spt= 0.42> <nCl=  0> <DB=   65.0001> <Mlp=   65.0001> <PB=1000000> 
---- Diving heuristic node with dive number = 0, fix depth = 43 and tabu list size = 0
Fixed projected solution = [x_1_0_1_OspV=1, x_1_32_1_OspV=1, x_1_79_1_OspV=1, x_1_191_1_OspV=1]
<DWph=2> <it= 10> <et=108.34> <Mt= 0.10> <Spt= 2.79> <nCl=627> <DB=   65.0002> <Mlp=   65.0002> <PB=1000000> 
<DWph=1> <it= 11> <et=108.75> <Mt= 0.00> <Spt= 0.41> <nCl=  0> <DB=   65.0002> <Mlp=   65.0002> <PB=1000000> 
---- Diving heuristic node with dive number = 0, fix depth = 44 and tabu list size = 0
Fixed projected solution = [x_1_0_1_OspV=1, x_1_53_1_OspV=1, x_1_95_1_OspV=1, x_1_174_1_OspV=1]
<DWph=2> <it= 10> <et=111.13> <Mt= 0.10> <Spt= 2.26> <nCl=694> <DB=   64.9806> <Mlp=   65.0002> <PB=1000000> 
<DWph=2> <it= 12> <et=112.02> <Mt= 0.01> <Spt= 0.89> <nCl=  8> <DB=   65.0002> <Mlp=   65.0002> <PB=1000000> 
<DWph=1> <it= 13> <et=112.43> <Mt= 0.00> <Spt= 0.41> <nCl=  0> <DB=   65.0002> <Mlp=   65.0002> <PB=1000000> 
---- Diving heuristic node with dive number = 0, fix depth = 45 and tabu list size = 0
Fixed projected solution = [x_1_0_1_OspV=1, x_1_14_1_OspV=1, x_1_97_1_OspV=1, x_1_180_1_OspV=1]
<DWph=2> <it=  1> <et=112.87> <Mt= 0.01> <Spt= 0.40> <nCl=  0> <DB=   65.0002> <Mlp=   65.0002> <PB=1000000> 
<DWph=1> <it=  2> <et=113.29> <Mt= 0.01> <Spt= 0.42> <nCl=  0> <DB=   65.0002> <Mlp=   65.0002> <PB=1000000> 
---- Diving heuristic node with dive number = 0, fix depth = 46 and tabu list size = 0
Fixed projected solution = [x_1_0_1_OspV=1, x_1_33_1_OspV=1, x_1_98_1_OspV=1, x_1_176_1_OspV=1]
