Application parameters:
  batch  =>  nothing
  instance  =>  "/IN/402_10000_DI_40.txt-Q20"
  ub  =>  1.0e6
  cfg  =>  "/CFG/BPP.cfg"
data = Colored Bin Packing dataset.
number of items = 403
number of colors = 20
capacity = 7888
Items : 
	 item 1, weight= 48, color= 5
	 item 2, weight= 58, color= 14
	 item 3, weight= 76, color= 11
	 item 4, weight= 80, color= 2
	 item 5, weight= 80, color= 19
	 item 6, weight= 104, color= 16
	 item 7, weight= 120, color= 8
	 item 8, weight= 128, color= 17
	 item 9, weight= 128, color= 18
	 item 10, weight= 132, color= 3
	 item 11, weight= 132, color= 19
	 item 12, weight= 136, color= 5
	 item 13, weight= 136, color= 6
	 item 14, weight= 136, color= 18
	 item 15, weight= 140, color= 7
	 item 16, weight= 140, color= 13
	 item 17, weight= 144, color= 5
	 item 18, weight= 144, color= 15
	 item 19, weight= 144, color= 17
	 item 20, weight= 144, color= 19
	 item 21, weight= 148, color= 8
	 item 22, weight= 148, color= 14
	 item 23, weight= 152, color= 5
	 item 24, weight= 152, color= 14
	 item 25, weight= 152, color= 19
	 item 26, weight= 160, color= 9
	 item 27, weight= 160, color= 18
	 item 28, weight= 168, color= 0
	 item 29, weight= 168, color= 10
	 item 30, weight= 168, color= 12
	 item 31, weight= 172, color= 1
	 item 32, weight= 172, color= 13
	 item 33, weight= 172, color= 19
	 item 34, weight= 176, color= 1
	 item 35, weight= 176, color= 15
	 item 36, weight= 178, color= 1
	 item 37, weight= 184, color= 4
	 item 38, weight= 184, color= 6
	 item 39, weight= 188, color= 8
	 item 40, weight= 192, color= 15
	 item 41, weight= 192, color= 18
	 item 42, weight= 196, color= 18
	 item 43, weight= 200, color= 2
	 item 44, weight= 200, color= 4
	 item 45, weight= 200, color= 17
	 item 46, weight= 204, color= 7
	 item 47, weight= 208, color= 12
	 item 48, weight= 208, color= 14
	 item 49, weight= 212, color= 5
	 item 50, weight= 216, color= 11
	 item 51, weight= 216, color= 15
	 item 52, weight= 220, color= 5
	 item 53, weight= 220, color= 13
	 item 54, weight= 222, color= 18
	 item 55, weight= 224, color= 1
	 item 56, weight= 226, color= 16
	 item 57, weight= 228, color= 19
	 item 58, weight= 232, color= 2
	 item 59, weight= 232, color= 11
	 item 60, weight= 236, color= 14
	 item 61, weight= 240, color= 1
	 item 62, weight= 240, color= 1
	 item 63, weight= 240, color= 14
	 item 64, weight= 244, color= 10
	 item 65, weight= 246, color= 16
	 item 66, weight= 248, color= 11
	 item 67, weight= 252, color= 10
	 item 68, weight= 264, color= 5
	 item 69, weight= 264, color= 13
	 item 70, weight= 270, color= 8
	 item 71, weight= 270, color= 11
	 item 72, weight= 272, color= 11
	 item 73, weight= 276, color= 4
	 item 74, weight= 280, color= 17
	 item 75, weight= 284, color= 2
	 item 76, weight= 284, color= 4
	 item 77, weight= 288, color= 1
	 item 78, weight= 292, color= 10
	 item 79, weight= 298, color= 16
	 item 80, weight= 300, color= 5
	 item 81, weight= 300, color= 12
	 item 82, weight= 306, color= 2
	 item 83, weight= 312, color= 10
	 item 84, weight= 320, color= 7
	 item 85, weight= 320, color= 15
	 item 86, weight= 326, color= 8
	 item 87, weight= 328, color= 3
	 item 88, weight= 328, color= 17
	 item 89, weight= 336, color= 12
	 item 90, weight= 336, color= 18
	 item 91, weight= 342, color= 16
	 item 92, weight= 352, color= 1
	 item 93, weight= 352, color= 7
	 item 94, weight= 356, color= 2
	 item 95, weight= 370, color= 7
	 item 96, weight= 372, color= 14
	 item 97, weight= 376, color= 9
	 item 98, weight= 384, color= 8
	 item 99, weight= 384, color= 10
	 item 100, weight= 384, color= 17
	 item 101, weight= 392, color= 16
	 item 102, weight= 400, color= 19
	 item 103, weight= 408, color= 10
	 item 104, weight= 410, color= 14
	 item 105, weight= 416, color= 3
	 item 106, weight= 420, color= 16
	 item 107, weight= 424, color= 0
	 item 108, weight= 424, color= 17
	 item 109, weight= 444, color= 14
	 item 110, weight= 448, color= 11
	 item 111, weight= 452, color= 11
	 item 112, weight= 468, color= 6
	 item 113, weight= 472, color= 18
	 item 114, weight= 476, color= 8
	 item 115, weight= 480, color= 19
	 item 116, weight= 488, color= 14
	 item 117, weight= 496, color= 10
	 item 118, weight= 512, color= 3
	 item 119, weight= 512, color= 9
	 item 120, weight= 522, color= 7
	 item 121, weight= 532, color= 1
	 item 122, weight= 552, color= 8
	 item 123, weight= 552, color= 17
	 item 124, weight= 564, color= 4
	 item 125, weight= 564, color= 8
	 item 126, weight= 564, color= 19
	 item 127, weight= 572, color= 13
	 item 128, weight= 580, color= 2
	 item 129, weight= 616, color= 5
	 item 130, weight= 624, color= 9
	 item 131, weight= 624, color= 12
	 item 132, weight= 640, color= 10
	 item 133, weight= 652, color= 9
	 item 134, weight= 652, color= 10
	 item 135, weight= 656, color= 8
	 item 136, weight= 656, color= 16
	 item 137, weight= 656, color= 19
	 item 138, weight= 662, color= 17
	 item 139, weight= 666, color= 17
	 item 140, weight= 682, color= 3
	 item 141, weight= 700, color= 1
	 item 142, weight= 702, color= 15
	 item 143, weight= 706, color= 12
	 item 144, weight= 722, color= 13
	 item 145, weight= 724, color= 2
	 item 146, weight= 724, color= 16
	 item 147, weight= 754, color= 17
	 item 148, weight= 764, color= 10
	 item 149, weight= 770, color= 3
	 item 150, weight= 776, color= 14
	 item 151, weight= 796, color= 4
	 item 152, weight= 806, color= 4
	 item 153, weight= 810, color= 4
	 item 154, weight= 852, color= 2
	 item 155, weight= 858, color= 8
	 item 156, weight= 862, color= 4
	 item 157, weight= 870, color= 17
	 item 158, weight= 878, color= 12
	 item 159, weight= 884, color= 0
	 item 160, weight= 916, color= 8
	 item 161, weight= 938, color= 9
	 item 162, weight= 942, color= 0
	 item 163, weight= 956, color= 8
	 item 164, weight= 960, color= 10
	 item 165, weight= 974, color= 1
	 item 166, weight= 988, color= 7
	 item 167, weight= 989, color= 8
	 item 168, weight= 1018, color= 13
	 item 169, weight= 1023, color= 16
	 item 170, weight= 1028, color= 6
	 item 171, weight= 1049, color= 15
	 item 172, weight= 1054, color= 12
	 item 173, weight= 1064, color= 18
	 item 174, weight= 1068, color= 6
	 item 175, weight= 1069, color= 17
	 item 176, weight= 1102, color= 19
	 item 177, weight= 1106, color= 17
	 item 178, weight= 1111, color= 13
	 item 179, weight= 1114, color= 5
	 item 180, weight= 1124, color= 7
	 item 181, weight= 1134, color= 13
	 item 182, weight= 1139, color= 15
	 item 183, weight= 1154, color= 1
	 item 184, weight= 1165, color= 9
	 item 185, weight= 1175, color= 15
	 item 186, weight= 1188, color= 13
	 item 187, weight= 1204, color= 1
	 item 188, weight= 1208, color= 7
	 item 189, weight= 1209, color= 17
	 item 190, weight= 1222, color= 7
	 item 191, weight= 1234, color= 4
	 item 192, weight= 1235, color= 4
	 item 193, weight= 1245, color= 18
	 item 194, weight= 1250, color= 9
	 item 195, weight= 1263, color= 13
	 item 196, weight= 1325, color= 4
	 item 197, weight= 1332, color= 19
	 item 198, weight= 1348, color= 3
	 item 199, weight= 1351, color= 10
	 item 200, weight= 1359, color= 8
	 item 201, weight= 1366, color= 9
	 item 202, weight= 1374, color= 3
	 item 203, weight= 1402, color= 13
	 item 204, weight= 1423, color= 16
	 item 205, weight= 1434, color= 9
	 item 206, weight= 1444, color= 9
	 item 207, weight= 1465, color= 8
	 item 208, weight= 1466, color= 6
	 item 209, weight= 1484, color= 5
	 item 210, weight= 1496, color= 19
	 item 211, weight= 1503, color= 0
	 item 212, weight= 1506, color= 11
	 item 213, weight= 1537, color= 11
	 item 214, weight= 1562, color= 6
	 item 215, weight= 1605, color= 18
	 item 216, weight= 1620, color= 2
	 item 217, weight= 1639, color= 16
	 item 218, weight= 1646, color= 10
	 item 219, weight= 1660, color= 17
	 item 220, weight= 1687, color= 19
	 item 221, weight= 1700, color= 16
	 item 222, weight= 1761, color= 19
	 item 223, weight= 1762, color= 16
	 item 224, weight= 1819, color= 10
	 item 225, weight= 1859, color= 1
	 item 226, weight= 1862, color= 7
	 item 227, weight= 1884, color= 5
	 item 228, weight= 1924, color= 11
	 item 229, weight= 1972, color= 11
	 item 230, weight= 2022, color= 7
	 item 231, weight= 2028, color= 19
	 item 232, weight= 2059, color= 5
	 item 233, weight= 2073, color= 14
	 item 234, weight= 2076, color= 1
	 item 235, weight= 2099, color= 0
	 item 236, weight= 2122, color= 7
	 item 237, weight= 2124, color= 8
	 item 238, weight= 2124, color= 8
	 item 239, weight= 2127, color= 13
	 item 240, weight= 2242, color= 14
	 item 241, weight= 2265, color= 6
	 item 242, weight= 2347, color= 6
	 item 243, weight= 2386, color= 5
	 item 244, weight= 2388, color= 10
	 item 245, weight= 2452, color= 13
	 item 246, weight= 2524, color= 17
	 item 247, weight= 2561, color= 4
	 item 248, weight= 2562, color= 0
	 item 249, weight= 2611, color= 0
	 item 250, weight= 2788, color= 1
	 item 251, weight= 2804, color= 15
	 item 252, weight= 2822, color= 6
	 item 253, weight= 2830, color= 14
	 item 254, weight= 2838, color= 6
	 item 255, weight= 2878, color= 15
	 item 256, weight= 2907, color= 2
	 item 257, weight= 2928, color= 1
	 item 258, weight= 2969, color= 13
	 item 259, weight= 3037, color= 11
	 item 260, weight= 3121, color= 18
	 item 261, weight= 3124, color= 17
	 item 262, weight= 3238, color= 7
	 item 263, weight= 3270, color= 12
	 item 264, weight= 3278, color= 18
	 item 265, weight= 3283, color= 3
	 item 266, weight= 3284, color= 17
	 item 267, weight= 3286, color= 6
	 item 268, weight= 3290, color= 17
	 item 269, weight= 3406, color= 13
	 item 270, weight= 3464, color= 17
	 item 271, weight= 3645, color= 7
	 item 272, weight= 3652, color= 6
	 item 273, weight= 3912, color= 14
	 item 274, weight= 3945, color= 17
	 item 275, weight= 3946, color= 10
	 item 276, weight= 3948, color= 17
	 item 277, weight= 3949, color= 10
	 item 278, weight= 3950, color= 19
	 item 279, weight= 3958, color= 14
	 item 280, weight= 3966, color= 4
	 item 281, weight= 3974, color= 12
	 item 282, weight= 4060, color= 5
	 item 283, weight= 4143, color= 8
	 item 284, weight= 4148, color= 14
	 item 285, weight= 4401, color= 13
	 item 286, weight= 4438, color= 7
	 item 287, weight= 4486, color= 1
	 item 288, weight= 4494, color= 4
	 item 289, weight= 4502, color= 9
	 item 290, weight= 4510, color= 6
	 item 291, weight= 4532, color= 3
	 item 292, weight= 4548, color= 19
	 item 293, weight= 4611, color= 11
	 item 294, weight= 4695, color= 0
	 item 295, weight= 4755, color= 18
	 item 296, weight= 4814, color= 1
	 item 297, weight= 4815, color= 16
	 item 298, weight= 4868, color= 7
	 item 299, weight= 4948, color= 5
	 item 300, weight= 5026, color= 1
	 item 301, weight= 5028, color= 14
	 item 302, weight= 5073, color= 10
	 item 303, weight= 5171, color= 8
	 item 304, weight= 5202, color= 13
	 item 305, weight= 5337, color= 0
	 item 306, weight= 5340, color= 9
	 item 307, weight= 5346, color= 1
	 item 308, weight= 5348, color= 5
	 item 309, weight= 5404, color= 2
	 item 310, weight= 5419, color= 12
	 item 311, weight= 5459, color= 9
	 item 312, weight= 5466, color= 6
	 item 313, weight= 5476, color= 3
	 item 314, weight= 5524, color= 4
	 item 315, weight= 5580, color= 14
	 item 316, weight= 5611, color= 14
	 item 317, weight= 5628, color= 18
	 item 318, weight= 5654, color= 2
	 item 319, weight= 5659, color= 15
	 item 320, weight= 5727, color= 8
	 item 321, weight= 5774, color= 13
	 item 322, weight= 5775, color= 14
	 item 323, weight= 5852, color= 13
	 item 324, weight= 5865, color= 3
	 item 325, weight= 5900, color= 0
	 item 326, weight= 5914, color= 19
	 item 327, weight= 5923, color= 6
	 item 328, weight= 5948, color= 16
	 item 329, weight= 5963, color= 8
	 item 330, weight= 6014, color= 13
	 item 331, weight= 6045, color= 3
	 item 332, weight= 6082, color= 6
	 item 333, weight= 6085, color= 7
	 item 334, weight= 6116, color= 12
	 item 335, weight= 6130, color= 8
	 item 336, weight= 6164, color= 17
	 item 337, weight= 6170, color= 9
	 item 338, weight= 6181, color= 11
	 item 339, weight= 6187, color= 0
	 item 340, weight= 6210, color= 19
	 item 341, weight= 6250, color= 19
	 item 342, weight= 6259, color= 17
	 item 343, weight= 6267, color= 19
	 item 344, weight= 6292, color= 4
	 item 345, weight= 6299, color= 13
	 item 346, weight= 6304, color= 18
	 item 347, weight= 6340, color= 15
	 item 348, weight= 6362, color= 11
	 item 349, weight= 6373, color= 8
	 item 350, weight= 6390, color= 10
	 item 351, weight= 6407, color= 19
	 item 352, weight= 6410, color= 12
	 item 353, weight= 6426, color= 8
	 item 354, weight= 6439, color= 1
	 item 355, weight= 6452, color= 14
	 item 356, weight= 6468, color= 2
	 item 357, weight= 6506, color= 7
	 item 358, weight= 6523, color= 17
	 item 359, weight= 6548, color= 2
	 item 360, weight= 6554, color= 6
	 item 361, weight= 6555, color= 9
	 item 362, weight= 6562, color= 1
	 item 363, weight= 6567, color= 18
	 item 364, weight= 6570, color= 14
	 item 365, weight= 6575, color= 4
	 item 366, weight= 6607, color= 16
	 item 367, weight= 6612, color= 6
	 item 368, weight= 6626, color= 16
	 item 369, weight= 6655, color= 14
	 item 370, weight= 6660, color= 1
	 item 371, weight= 6661, color= 3
	 item 372, weight= 6670, color= 1
	 item 373, weight= 6674, color= 6
	 item 374, weight= 6703, color= 1
	 item 375, weight= 6708, color= 2
	 item 376, weight= 6722, color= 11
	 item 377, weight= 6735, color= 4
	 item 378, weight= 6748, color= 17
	 item 379, weight= 6758, color= 2
	 item 380, weight= 6766, color= 19
	 item 381, weight= 6796, color= 0
	 item 382, weight= 6836, color= 19
	 item 383, weight= 6838, color= 6
	 item 384, weight= 6846, color= 0
	 item 385, weight= 6854, color= 19
	 item 386, weight= 6862, color= 9
	 item 387, weight= 6868, color= 4
	 item 388, weight= 6918, color= 14
	 item 389, weight= 6922, color= 3
	 item 390, weight= 6940, color= 13
	 item 391, weight= 6966, color= 13
	 item 392, weight= 6968, color= 12
	 item 393, weight= 6980, color= 8
	 item 394, weight= 6986, color= 17
	 item 395, weight= 7020, color= 16
	 item 396, weight= 7022, color= 16
	 item 397, weight= 7028, color= 0
	 item 398, weight= 7042, color= 4
	 item 399, weight= 7050, color= 12
	 item 400, weight= 7052, color= 15
	 item 401, weight= 7074, color= 4
	 item 402, weight= 7090, color= 2
	 item 403, weight= 7098, color= 16

VRPSolver warning: Interval set for resource 1 on source node (when source != sink) is ignored (by definition is [0.0,0.0])
[41m solve [00m
~~~~~~~~~~~~~~~~~~~~~~~~~~~~~~~~~~~~~~~~~~~~~~~~~~~~~~~~~~~~~~~~~~~~~~~~~~~~~~
VRPSolver v0.4.1, 24/03/2021. Web: vrpsolver.math.u-bordeaux.fr
Corresponds to the solver by Pessoa, Sadykov, Uchoa and Vanderbeck (2020)
Paper: dx.doi.org/10.1007/s10107-020-01523-z
USE THIS CODE ONLY FOR ACADEMIC PURPOSES AT YOUR OWN RISK
~~~~~~~~~~~~~~~~~~~~~~~~~~~~~~~~~~~~~~~~~~~~~~~~~~~~~~~~~~~~~~~~~~~~~~~~~~~~~~
BaPCod v053, 24/03/2021, © Inria Bordeaux, France
~~~~~~~~~~~~~~~~~~~~~~~~~~~~~~~~~~~~~~~~~~~~~~~~~~~~~~~~~~~~~~~~~~~~~~~~~~~~~~
VRPSolver parameters:
GlobalTimeLimit = 1800
MaxNbOfBBtreeNodeTreated = 100000
treeSearchStrategy = 1
RCSPstopCutGenTimeThresholdInPricing = 10
RCSPhardTimeThresholdInPricing = 20
RCSPnumberOfBucketsPerVertex = 2000
RCSPdynamicBucketSteps = 0
RCSPuseBidirectionalSearch = 1
RCSPapplyReducedCostFixing = 1
RCSPredCostFixingFalseGap = 0
RCSPmaxNumOfColsPerIteration = 100
RCSPmaxNumOfColsPerExactIteration = 100
RCSPheurLabelingStrategy = 4
StabilizationMinPhaseOfStage = 1
RCSPmaxNumOfLabelsInEnumeration = 100000
RCSPmaxNumOfEnumeratedSolutions = 1000000
RCSPmaxNumOfEnumSolutionsForMIP = 100000
RCSPinitNGneighbourhoodSize = 0
RCSPmaxNGneighbourhoodSize = 0
RCSPrankOneCutsMaxNumPerRound = 100
RCSPrankOneCutsMaxNumRows = -1
RCSPrankOneCutsMemoryType = 2
CutTailingOffThreshold = 0.02
CutTailingOffCounterThreshold = 3
SafeDualBoundScaleFactor = -1
StrongBranchingPhaseOneCandidatesNumber = 100
StrongBranchingPhaseOneTreeSizeEstimRatio = 0.3
StrongBranchingPhaseTwoCandidatesNumber = 1
StrongBranchingPhaseTwoTreeSizeEstimRatio = 0.1
MaxTimeForRestrictedMasterIpHeur = -1
DivingHeurUseDepthLimit = 0
MaxLDSbreadth = 3
MaxLDSdepth = 2
New model incumbent solution 1e+06, TIME = 0h0m0s3t = 3
Model is built TIME = 0h0m3s87t = 387
************************************************************************************************
**** BaB tree root node
**** Local DB = -1e+12, global bounds : [ -1e+12 , 1e+06 ], TIME = 0h0m3s87t = 387
**** 1 open nodes, 0 columns (0 active), 0 dyn. constrs. (0 active), 808 art. vars. (808 active)
************************************************************************************************
<DWph=2> <it= 10> <et=9.37> <Mt= 0.00> <Spt= 5.48> <nCl=1000> <DB=-28271417311.2541> <Mlp=472566428.1908> <PB=1000000> 
<DWph=2> <it= 20> <et=15.18> <Mt= 0.02> <Spt= 5.80> <nCl=1000> <DB=-22248496867.6866> <Mlp=451154814.4837> <PB=1000000> 
<DWph=2> <it= 30> <et=20.94> <Mt= 0.02> <Spt= 5.73> <nCl=1000> <DB=-18539384247.8711> <Mlp=432801587.4516> <PB=1000000> 
<DWph=2> <it= 40> <et=26.64> <Mt= 0.04> <Spt= 5.66> <nCl=1000> <DB=-15624594927.6273> <Mlp=410619034.9293> <PB=1000000> 
<DWph=2> <it= 50> <et=32.30> <Mt= 0.04> <Spt= 5.61> <nCl=1000> <DB=-12614590415.3295> <Mlp=390256705.6641> <PB=1000000> 
<DWph=2> <it= 60> <et=37.84> <Mt= 0.05> <Spt= 5.48> <nCl=1000> <DB=-9784264575.6081> <Mlp=369756763.4229> <PB=1000000> 
<DWph=2> <it= 70> <et=43.37> <Mt= 0.09> <Spt= 5.44> <nCl=1000> <DB=-7385858494.6684> <Mlp=347550003.6682> <PB=1000000> 
<DWph=2> <it= 80> <et=48.75> <Mt= 0.17> <Spt= 5.22> <nCl=1000> <DB=-5477726623.4069> <Mlp=324256237.3891> <PB=1000000> 
<DWph=2> <it= 90> <et=54.17> <Mt= 0.19> <Spt= 5.21> <nCl=1000> <DB=-4044854700.1514> <Mlp=300600006.9223> <PB=1000000> 
<DWph=2> <it=100> <et=59.67> <Mt= 0.24> <Spt= 5.27> <nCl=1000> <DB=-3097001419.2089> <Mlp=277800009.1152> <PB=1000000> 
<DWph=2> <it=110> <et=65.04> <Mt= 0.16> <Spt= 5.11> <nCl=1000> <DB=-2638469681.3165> <Mlp=250609568.3048> <PB=1000000> 
<DWph=2> <it=120> <et=70.30> <Mt= 0.46> <Spt= 4.79> <nCl=1000> <DB=-2067480327.6430> <Mlp=226889471.5954> <PB=1000000> 
<DWph=2> <it=130> <et=75.35> <Mt= 0.37> <Spt= 4.68> <nCl=1000> <DB=-1719743431.1941> <Mlp=215600017.8855> <PB=1000000> 
<DWph=2> <it=140> <et=80.25> <Mt= 0.28> <Spt= 4.56> <nCl=1000> <DB=-11172544362.8284> <Mlp=193019182.8778> <PB=1000000> 
<DWph=2> <it=150> <et=85.21> <Mt= 0.31> <Spt= 4.64> <nCl=1000> <DB=-1016983044.7169> <Mlp=182403918.9321> <PB=1000000> 
<DWph=2> <it=160> <et=90.10> <Mt= 0.33> <Spt= 4.56> <nCl=1000> <DB=-1938622659.3283> <Mlp=174003932.1371> <PB=1000000> 
<DWph=2> <it=170> <et=95.05> <Mt= 0.27> <Spt= 4.60> <nCl=1000> <DB=-802609169.5140> <Mlp=165474952.1075> <PB=1000000> 
<DWph=2> <it=180> <et=99.51> <Mt= 0.15> <Spt= 4.31> <nCl=986> <DB=-738124754.9503> <Mlp=153298642.1220> <PB=1000000> 
<DWph=2> <it=190> <et=104.13> <Mt= 0.22> <Spt= 4.40> <nCl=1000> <DB=-2330566681.5991> <Mlp=149265317.1028> <PB=1000000> 
<DWph=2> <it=200> <et=108.70> <Mt= 0.28> <Spt= 4.28> <nCl=1000> <DB=-435530166.5480> <Mlp=145506337.6152> <PB=1000000> 
<DWph=2> <it=210> <et=113.20> <Mt= 0.19> <Spt= 4.26> <nCl=1000> <DB=-421317973.9510> <Mlp=143631562.6883> <PB=1000000> 
