Application parameters:
  batch  =>  nothing
  instance  =>  "/IN/402_10000_DI_5.txt-Q20"
  ub  =>  1.0e6
  cfg  =>  "/CFG/BPP.cfg"
data = Colored Bin Packing dataset.
number of items = 403
number of colors = 20
capacity = 8000
Items : 
	 item 1, weight= 44, color= 8
	 item 2, weight= 48, color= 15
	 item 3, weight= 86, color= 6
	 item 4, weight= 88, color= 0
	 item 5, weight= 88, color= 1
	 item 6, weight= 112, color= 5
	 item 7, weight= 112, color= 11
	 item 8, weight= 112, color= 12
	 item 9, weight= 120, color= 11
	 item 10, weight= 132, color= 7
	 item 11, weight= 136, color= 2
	 item 12, weight= 136, color= 10
	 item 13, weight= 140, color= 7
	 item 14, weight= 144, color= 5
	 item 15, weight= 144, color= 9
	 item 16, weight= 150, color= 1
	 item 17, weight= 152, color= 11
	 item 18, weight= 156, color= 1
	 item 19, weight= 160, color= 3
	 item 20, weight= 160, color= 4
	 item 21, weight= 160, color= 10
	 item 22, weight= 160, color= 17
	 item 23, weight= 162, color= 15
	 item 24, weight= 164, color= 5
	 item 25, weight= 166, color= 9
	 item 26, weight= 168, color= 10
	 item 27, weight= 168, color= 18
	 item 28, weight= 170, color= 12
	 item 29, weight= 170, color= 13
	 item 30, weight= 176, color= 5
	 item 31, weight= 176, color= 12
	 item 32, weight= 176, color= 19
	 item 33, weight= 180, color= 2
	 item 34, weight= 186, color= 13
	 item 35, weight= 188, color= 14
	 item 36, weight= 188, color= 16
	 item 37, weight= 192, color= 3
	 item 38, weight= 192, color= 19
	 item 39, weight= 196, color= 14
	 item 40, weight= 196, color= 15
	 item 41, weight= 200, color= 10
	 item 42, weight= 200, color= 16
	 item 43, weight= 204, color= 10
	 item 44, weight= 204, color= 13
	 item 45, weight= 208, color= 6
	 item 46, weight= 210, color= 6
	 item 47, weight= 212, color= 3
	 item 48, weight= 216, color= 12
	 item 49, weight= 220, color= 1
	 item 50, weight= 220, color= 1
	 item 51, weight= 224, color= 4
	 item 52, weight= 224, color= 5
	 item 53, weight= 224, color= 9
	 item 54, weight= 228, color= 0
	 item 55, weight= 228, color= 8
	 item 56, weight= 228, color= 19
	 item 57, weight= 230, color= 11
	 item 58, weight= 232, color= 17
	 item 59, weight= 236, color= 16
	 item 60, weight= 238, color= 4
	 item 61, weight= 242, color= 18
	 item 62, weight= 246, color= 13
	 item 63, weight= 248, color= 8
	 item 64, weight= 248, color= 19
	 item 65, weight= 256, color= 7
	 item 66, weight= 260, color= 12
	 item 67, weight= 260, color= 16
	 item 68, weight= 264, color= 12
	 item 69, weight= 266, color= 0
	 item 70, weight= 266, color= 0
	 item 71, weight= 268, color= 4
	 item 72, weight= 280, color= 2
	 item 73, weight= 280, color= 19
	 item 74, weight= 288, color= 17
	 item 75, weight= 288, color= 19
	 item 76, weight= 290, color= 2
	 item 77, weight= 292, color= 8
	 item 78, weight= 294, color= 7
	 item 79, weight= 296, color= 13
	 item 80, weight= 296, color= 15
	 item 81, weight= 304, color= 1
	 item 82, weight= 304, color= 18
	 item 83, weight= 306, color= 14
	 item 84, weight= 320, color= 1
	 item 85, weight= 324, color= 2
	 item 86, weight= 332, color= 13
	 item 87, weight= 338, color= 19
	 item 88, weight= 340, color= 18
	 item 89, weight= 344, color= 14
	 item 90, weight= 344, color= 18
	 item 91, weight= 346, color= 10
	 item 92, weight= 352, color= 2
	 item 93, weight= 352, color= 16
	 item 94, weight= 360, color= 8
	 item 95, weight= 368, color= 18
	 item 96, weight= 372, color= 0
	 item 97, weight= 376, color= 16
	 item 98, weight= 390, color= 6
	 item 99, weight= 392, color= 3
	 item 100, weight= 394, color= 8
	 item 101, weight= 394, color= 14
	 item 102, weight= 402, color= 13
	 item 103, weight= 404, color= 17
	 item 104, weight= 408, color= 10
	 item 105, weight= 416, color= 10
	 item 106, weight= 416, color= 15
	 item 107, weight= 424, color= 5
	 item 108, weight= 432, color= 10
	 item 109, weight= 432, color= 19
	 item 110, weight= 440, color= 14
	 item 111, weight= 448, color= 0
	 item 112, weight= 448, color= 9
	 item 113, weight= 452, color= 15
	 item 114, weight= 472, color= 16
	 item 115, weight= 480, color= 12
	 item 116, weight= 484, color= 16
	 item 117, weight= 496, color= 2
	 item 118, weight= 500, color= 9
	 item 119, weight= 504, color= 1
	 item 120, weight= 508, color= 14
	 item 121, weight= 512, color= 13
	 item 122, weight= 512, color= 19
	 item 123, weight= 516, color= 19
	 item 124, weight= 536, color= 4
	 item 125, weight= 536, color= 18
	 item 126, weight= 548, color= 10
	 item 127, weight= 568, color= 13
	 item 128, weight= 576, color= 7
	 item 129, weight= 576, color= 12
	 item 130, weight= 592, color= 5
	 item 131, weight= 632, color= 10
	 item 132, weight= 632, color= 19
	 item 133, weight= 640, color= 12
	 item 134, weight= 664, color= 2
	 item 135, weight= 664, color= 8
	 item 136, weight= 664, color= 10
	 item 137, weight= 664, color= 12
	 item 138, weight= 674, color= 2
	 item 139, weight= 702, color= 16
	 item 140, weight= 716, color= 12
	 item 141, weight= 724, color= 8
	 item 142, weight= 738, color= 9
	 item 143, weight= 756, color= 19
	 item 144, weight= 774, color= 10
	 item 145, weight= 802, color= 19
	 item 146, weight= 810, color= 10
	 item 147, weight= 818, color= 2
	 item 148, weight= 820, color= 17
	 item 149, weight= 828, color= 11
	 item 150, weight= 830, color= 14
	 item 151, weight= 839, color= 4
	 item 152, weight= 854, color= 0
	 item 153, weight= 859, color= 9
	 item 154, weight= 883, color= 5
	 item 155, weight= 884, color= 18
	 item 156, weight= 894, color= 11
	 item 157, weight= 905, color= 0
	 item 158, weight= 924, color= 2
	 item 159, weight= 931, color= 12
	 item 160, weight= 954, color= 9
	 item 161, weight= 969, color= 0
	 item 162, weight= 983, color= 4
	 item 163, weight= 990, color= 2
	 item 164, weight= 991, color= 14
	 item 165, weight= 992, color= 14
	 item 166, weight= 1007, color= 3
	 item 167, weight= 1020, color= 15
	 item 168, weight= 1028, color= 2
	 item 169, weight= 1031, color= 17
	 item 170, weight= 1046, color= 17
	 item 171, weight= 1053, color= 13
	 item 172, weight= 1061, color= 8
	 item 173, weight= 1088, color= 8
	 item 174, weight= 1101, color= 11
	 item 175, weight= 1102, color= 14
	 item 176, weight= 1106, color= 2
	 item 177, weight= 1124, color= 19
	 item 178, weight= 1146, color= 12
	 item 179, weight= 1149, color= 3
	 item 180, weight= 1154, color= 19
	 item 181, weight= 1155, color= 13
	 item 182, weight= 1156, color= 13
	 item 183, weight= 1162, color= 9
	 item 184, weight= 1178, color= 1
	 item 185, weight= 1195, color= 0
	 item 186, weight= 1196, color= 6
	 item 187, weight= 1202, color= 6
	 item 188, weight= 1208, color= 8
	 item 189, weight= 1211, color= 14
	 item 190, weight= 1231, color= 15
	 item 191, weight= 1240, color= 0
	 item 192, weight= 1251, color= 18
	 item 193, weight= 1252, color= 7
	 item 194, weight= 1284, color= 11
	 item 195, weight= 1294, color= 0
	 item 196, weight= 1298, color= 8
	 item 197, weight= 1305, color= 13
	 item 198, weight= 1310, color= 0
	 item 199, weight= 1331, color= 3
	 item 200, weight= 1339, color= 4
	 item 201, weight= 1347, color= 8
	 item 202, weight= 1356, color= 4
	 item 203, weight= 1362, color= 13
	 item 204, weight= 1414, color= 15
	 item 205, weight= 1436, color= 0
	 item 206, weight= 1443, color= 4
	 item 207, weight= 1454, color= 12
	 item 208, weight= 1474, color= 15
	 item 209, weight= 1481, color= 19
	 item 210, weight= 1490, color= 10
	 item 211, weight= 1512, color= 16
	 item 212, weight= 1524, color= 19
	 item 213, weight= 1540, color= 14
	 item 214, weight= 1541, color= 2
	 item 215, weight= 1603, color= 8
	 item 216, weight= 1614, color= 7
	 item 217, weight= 1634, color= 16
	 item 218, weight= 1665, color= 1
	 item 219, weight= 1699, color= 7
	 item 220, weight= 1706, color= 19
	 item 221, weight= 1739, color= 6
	 item 222, weight= 1748, color= 9
	 item 223, weight= 1762, color= 3
	 item 224, weight= 1764, color= 1
	 item 225, weight= 1804, color= 4
	 item 226, weight= 1806, color= 18
	 item 227, weight= 1863, color= 5
	 item 228, weight= 1957, color= 19
	 item 229, weight= 1962, color= 10
	 item 230, weight= 1977, color= 0
	 item 231, weight= 1981, color= 5
	 item 232, weight= 2012, color= 18
	 item 233, weight= 2017, color= 14
	 item 234, weight= 2038, color= 5
	 item 235, weight= 2084, color= 2
	 item 236, weight= 2102, color= 19
	 item 237, weight= 2104, color= 4
	 item 238, weight= 2140, color= 17
	 item 239, weight= 2164, color= 13
	 item 240, weight= 2169, color= 4
	 item 241, weight= 2193, color= 14
	 item 242, weight= 2202, color= 4
	 item 243, weight= 2247, color= 7
	 item 244, weight= 2278, color= 3
	 item 245, weight= 2412, color= 15
	 item 246, weight= 2429, color= 2
	 item 247, weight= 2490, color= 4
	 item 248, weight= 2510, color= 7
	 item 249, weight= 2540, color= 5
	 item 250, weight= 2547, color= 2
	 item 251, weight= 2582, color= 10
	 item 252, weight= 2604, color= 14
	 item 253, weight= 2686, color= 15
	 item 254, weight= 2716, color= 2
	 item 255, weight= 2741, color= 15
	 item 256, weight= 2858, color= 10
	 item 257, weight= 2883, color= 19
	 item 258, weight= 2900, color= 16
	 item 259, weight= 2976, color= 0
	 item 260, weight= 2982, color= 3
	 item 261, weight= 3161, color= 13
	 item 262, weight= 3212, color= 15
	 item 263, weight= 3228, color= 12
	 item 264, weight= 3260, color= 18
	 item 265, weight= 3274, color= 18
	 item 266, weight= 3311, color= 16
	 item 267, weight= 3330, color= 4
	 item 268, weight= 3331, color= 8
	 item 269, weight= 3332, color= 6
	 item 270, weight= 3334, color= 18
	 item 271, weight= 3512, color= 19
	 item 272, weight= 3709, color= 2
	 item 273, weight= 3952, color= 16
	 item 274, weight= 4001, color= 14
	 item 275, weight= 4002, color= 2
	 item 276, weight= 4004, color= 19
	 item 277, weight= 4005, color= 12
	 item 278, weight= 4006, color= 13
	 item 279, weight= 4148, color= 18
	 item 280, weight= 4207, color= 8
	 item 281, weight= 4268, color= 16
	 item 282, weight= 4426, color= 16
	 item 283, weight= 4430, color= 18
	 item 284, weight= 4497, color= 0
	 item 285, weight= 4524, color= 15
	 item 286, weight= 4541, color= 3
	 item 287, weight= 4574, color= 5
	 item 288, weight= 4660, color= 8
	 item 289, weight= 4711, color= 8
	 item 290, weight= 4748, color= 1
	 item 291, weight= 4778, color= 1
	 item 292, weight= 4884, color= 12
	 item 293, weight= 4902, color= 11
	 item 294, weight= 4945, color= 9
	 item 295, weight= 4956, color= 3
	 item 296, weight= 4990, color= 14
	 item 297, weight= 5014, color= 17
	 item 298, weight= 5087, color= 1
	 item 299, weight= 5108, color= 5
	 item 300, weight= 5270, color= 10
	 item 301, weight= 5305, color= 4
	 item 302, weight= 5358, color= 17
	 item 303, weight= 5399, color= 15
	 item 304, weight= 5404, color= 4
	 item 305, weight= 5436, color= 9
	 item 306, weight= 5480, color= 18
	 item 307, weight= 5482, color= 1
	 item 308, weight= 5508, color= 13
	 item 309, weight= 5558, color= 0
	 item 310, weight= 5581, color= 14
	 item 311, weight= 5620, color= 17
	 item 312, weight= 5625, color= 10
	 item 313, weight= 5629, color= 11
	 item 314, weight= 5646, color= 6
	 item 315, weight= 5653, color= 9
	 item 316, weight= 5657, color= 16
	 item 317, weight= 5765, color= 13
	 item 318, weight= 5834, color= 4
	 item 319, weight= 5844, color= 11
	 item 320, weight= 5886, color= 3
	 item 321, weight= 5892, color= 15
	 item 322, weight= 5908, color= 10
	 item 323, weight= 5915, color= 7
	 item 324, weight= 5954, color= 12
	 item 325, weight= 5963, color= 17
	 item 326, weight= 6003, color= 19
	 item 327, weight= 6042, color= 3
	 item 328, weight= 6066, color= 4
	 item 329, weight= 6153, color= 13
	 item 330, weight= 6156, color= 16
	 item 331, weight= 6172, color= 14
	 item 332, weight= 6193, color= 12
	 item 333, weight= 6214, color= 17
	 item 334, weight= 6225, color= 7
	 item 335, weight= 6234, color= 13
	 item 336, weight= 6258, color= 8
	 item 337, weight= 6269, color= 2
	 item 338, weight= 6284, color= 7
	 item 339, weight= 6306, color= 9
	 item 340, weight= 6380, color= 5
	 item 341, weight= 6385, color= 1
	 item 342, weight= 6392, color= 12
	 item 343, weight= 6395, color= 13
	 item 344, weight= 6403, color= 9
	 item 345, weight= 6430, color= 16
	 item 346, weight= 6435, color= 19
	 item 347, weight= 6446, color= 7
	 item 348, weight= 6468, color= 18
	 item 349, weight= 6500, color= 16
	 item 350, weight= 6523, color= 19
	 item 351, weight= 6547, color= 1
	 item 352, weight= 6550, color= 3
	 item 353, weight= 6562, color= 9
	 item 354, weight= 6567, color= 15
	 item 355, weight= 6568, color= 7
	 item 356, weight= 6572, color= 6
	 item 357, weight= 6579, color= 4
	 item 358, weight= 6594, color= 19
	 item 359, weight= 6610, color= 13
	 item 360, weight= 6615, color= 15
	 item 361, weight= 6620, color= 7
	 item 362, weight= 6623, color= 19
	 item 363, weight= 6626, color= 17
	 item 364, weight= 6634, color= 15
	 item 365, weight= 6652, color= 14
	 item 366, weight= 6674, color= 1
	 item 367, weight= 6679, color= 12
	 item 368, weight= 6682, color= 4
	 item 369, weight= 6727, color= 16
	 item 370, weight= 6737, color= 2
	 item 371, weight= 6746, color= 17
	 item 372, weight= 6765, color= 14
	 item 373, weight= 6772, color= 8
	 item 374, weight= 6780, color= 17
	 item 375, weight= 6802, color= 10
	 item 376, weight= 6814, color= 4
	 item 377, weight= 6821, color= 8
	 item 378, weight= 6831, color= 18
	 item 379, weight= 6839, color= 10
	 item 380, weight= 6858, color= 16
	 item 381, weight= 6883, color= 16
	 item 382, weight= 6900, color= 15
	 item 383, weight= 6915, color= 18
	 item 384, weight= 6923, color= 17
	 item 385, weight= 6930, color= 8
	 item 386, weight= 6941, color= 15
	 item 387, weight= 6948, color= 7
	 item 388, weight= 6971, color= 6
	 item 389, weight= 6978, color= 0
	 item 390, weight= 6995, color= 16
	 item 391, weight= 7006, color= 14
	 item 392, weight= 7012, color= 3
	 item 393, weight= 7020, color= 9
	 item 394, weight= 7022, color= 19
	 item 395, weight= 7030, color= 9
	 item 396, weight= 7042, color= 7
	 item 397, weight= 7074, color= 18
	 item 398, weight= 7100, color= 2
	 item 399, weight= 7118, color= 8
	 item 400, weight= 7140, color= 10
	 item 401, weight= 7148, color= 19
	 item 402, weight= 7158, color= 0
	 item 403, weight= 7194, color= 12

VRPSolver warning: Interval set for resource 1 on source node (when source != sink) is ignored (by definition is [0.0,0.0])
[41m solve [00m
~~~~~~~~~~~~~~~~~~~~~~~~~~~~~~~~~~~~~~~~~~~~~~~~~~~~~~~~~~~~~~~~~~~~~~~~~~~~~~
VRPSolver v0.4.1, 24/03/2021. Web: vrpsolver.math.u-bordeaux.fr
Corresponds to the solver by Pessoa, Sadykov, Uchoa and Vanderbeck (2020)
Paper: dx.doi.org/10.1007/s10107-020-01523-z
USE THIS CODE ONLY FOR ACADEMIC PURPOSES AT YOUR OWN RISK
~~~~~~~~~~~~~~~~~~~~~~~~~~~~~~~~~~~~~~~~~~~~~~~~~~~~~~~~~~~~~~~~~~~~~~~~~~~~~~
BaPCod v053, 24/03/2021, © Inria Bordeaux, France
~~~~~~~~~~~~~~~~~~~~~~~~~~~~~~~~~~~~~~~~~~~~~~~~~~~~~~~~~~~~~~~~~~~~~~~~~~~~~~
VRPSolver parameters:
GlobalTimeLimit = 1800
MaxNbOfBBtreeNodeTreated = 100000
treeSearchStrategy = 1
RCSPstopCutGenTimeThresholdInPricing = 10
RCSPhardTimeThresholdInPricing = 20
RCSPnumberOfBucketsPerVertex = 2000
RCSPdynamicBucketSteps = 0
RCSPuseBidirectionalSearch = 1
RCSPapplyReducedCostFixing = 1
RCSPredCostFixingFalseGap = 0
RCSPmaxNumOfColsPerIteration = 100
RCSPmaxNumOfColsPerExactIteration = 100
RCSPheurLabelingStrategy = 4
StabilizationMinPhaseOfStage = 1
RCSPmaxNumOfLabelsInEnumeration = 100000
RCSPmaxNumOfEnumeratedSolutions = 1000000
RCSPmaxNumOfEnumSolutionsForMIP = 100000
RCSPinitNGneighbourhoodSize = 0
RCSPmaxNGneighbourhoodSize = 0
RCSPrankOneCutsMaxNumPerRound = 100
RCSPrankOneCutsMaxNumRows = -1
RCSPrankOneCutsMemoryType = 2
CutTailingOffThreshold = 0.02
CutTailingOffCounterThreshold = 3
SafeDualBoundScaleFactor = -1
StrongBranchingPhaseOneCandidatesNumber = 100
StrongBranchingPhaseOneTreeSizeEstimRatio = 0.3
StrongBranchingPhaseTwoCandidatesNumber = 1
StrongBranchingPhaseTwoTreeSizeEstimRatio = 0.1
MaxTimeForRestrictedMasterIpHeur = -1
DivingHeurUseDepthLimit = 0
MaxLDSbreadth = 3
MaxLDSdepth = 2
New model incumbent solution 1e+06, TIME = 0h0m0s3t = 3
Model is built TIME = 0h0m3s92t = 392
************************************************************************************************
**** BaB tree root node
**** Local DB = -1e+12, global bounds : [ -1e+12 , 1e+06 ], TIME = 0h0m3s92t = 392
**** 1 open nodes, 0 columns (0 active), 0 dyn. constrs. (0 active), 808 art. vars. (808 active)
************************************************************************************************
<DWph=2> <it= 10> <et=9.45> <Mt= 0.00> <Spt= 5.51> <nCl=1000> <DB=-27752766944.9261> <Mlp=471680911.9270> <PB=1000000> 
<DWph=2> <it= 20> <et=15.27> <Mt= 0.02> <Spt= 5.80> <nCl=1000> <DB=-21850884351.6770> <Mlp=450313567.6377> <PB=1000000> 
<DWph=2> <it= 30> <et=21.04> <Mt= 0.02> <Spt= 5.75> <nCl=1000> <DB=-17943385856.0956> <Mlp=431457766.8771> <PB=1000000> 
<DWph=2> <it= 40> <et=26.81> <Mt= 0.04> <Spt= 5.73> <nCl=1000> <DB=-15146798234.0823> <Mlp=410608421.0660> <PB=1000000> 
<DWph=2> <it= 50> <et=32.50> <Mt= 0.04> <Spt= 5.64> <nCl=1000> <DB=-12665972559.1014> <Mlp=388537873.0617> <PB=1000000> 
<DWph=2> <it= 60> <et=38.05> <Mt= 0.06> <Spt= 5.49> <nCl=1000> <DB=-9302467340.0162> <Mlp=366901507.9207> <PB=1000000> 
<DWph=2> <it= 70> <et=43.57> <Mt= 0.09> <Spt= 5.43> <nCl=1000> <DB=-7386543738.1982> <Mlp=345589279.0602> <PB=1000000> 
<DWph=2> <it= 80> <et=48.83> <Mt= 0.13> <Spt= 5.12> <nCl=1000> <DB=-5459209641.9125> <Mlp=320056979.5939> <PB=1000000> 
<DWph=2> <it= 90> <et=54.16> <Mt= 0.31> <Spt= 5.02> <nCl=1000> <DB=-4051215910.1311> <Mlp=299700006.8115> <PB=1000000> 
<DWph=2> <it=100> <et=59.39> <Mt= 0.28> <Spt= 4.95> <nCl=1000> <DB=-3102288712.3627> <Mlp=276741571.7035> <PB=1000000> 
<DWph=2> <it=110> <et=64.43> <Mt= 0.16> <Spt= 4.81> <nCl=1000> <DB=-2724425923.4110> <Mlp=255133989.2892> <PB=1000000> 
<DWph=2> <it=120> <et=69.34> <Mt= 0.20> <Spt= 4.71> <nCl=1000> <DB=-2436059820.2264> <Mlp=232609448.6261> <PB=1000000> 
<DWph=2> <it=130> <et=74.13> <Mt= 0.29> <Spt= 4.50> <nCl=1000> <DB=-2269052889.3652> <Mlp=207105940.3651> <PB=1000000> 
<DWph=2> <it=140> <et=78.80> <Mt= 0.21> <Spt= 4.41> <nCl=1000> <DB=-1445865923.9576> <Mlp=197737928.9316> <PB=1000000> 
<DWph=2> <it=150> <et=83.35> <Mt= 0.25> <Spt= 4.29> <nCl=1000> <DB=-1062850751.8918> <Mlp=173050914.8431> <PB=1000000> 
<DWph=2> <it=160> <et=88.15> <Mt= 0.41> <Spt= 4.39> <nCl=1000> <DB=-1003548869.6576> <Mlp=160428971.3076> <PB=1000000> 
<DWph=2> <it=170> <et=92.96> <Mt= 0.35> <Spt= 4.40> <nCl=1000> <DB=-580736929.3854> <Mlp=148804810.0279> <PB=1000000> 
<DWph=2> <it=180> <et=97.54> <Mt= 0.12> <Spt= 4.44> <nCl=1000> <DB=-533342414.5847> <Mlp=147497866.9055> <PB=1000000> 
<DWph=2> <it=190> <et=102.23> <Mt= 0.27> <Spt= 4.43> <nCl=1000> <DB=-499232777.5333> <Mlp=144445292.2303> <PB=1000000> 
<DWph=2> <it=200> <et=106.99> <Mt= 0.41> <Spt= 4.34> <nCl=1000> <DB=-441106551.1480> <Mlp=136206156.6560> <PB=1000000> 
<DWph=2> <it=210> <et=111.74> <Mt= 0.21> <Spt= 4.48> <nCl=1000> <DB=-481472896.7062> <Mlp=133283670.4004> <PB=1000000> 
