Application parameters:
  batch  =>  nothing
  instance  =>  "/IN/600_20000_DI_41.txt-Q20"
  ub  =>  1.0e6
  cfg  =>  "/CFG/BPP.cfg"
data = Colored Bin Packing dataset.
number of items = 601
number of colors = 20
capacity = 19648
Items : 
	 item 1, weight= 16, color= 15
	 item 2, weight= 32, color= 1
	 item 3, weight= 52, color= 0
	 item 4, weight= 64, color= 13
	 item 5, weight= 64, color= 15
	 item 6, weight= 80, color= 14
	 item 7, weight= 96, color= 4
	 item 8, weight= 102, color= 16
	 item 9, weight= 128, color= 6
	 item 10, weight= 128, color= 15
	 item 11, weight= 160, color= 8
	 item 12, weight= 160, color= 14
	 item 13, weight= 198, color= 11
	 item 14, weight= 228, color= 19
	 item 15, weight= 244, color= 14
	 item 16, weight= 246, color= 4
	 item 17, weight= 256, color= 13
	 item 18, weight= 288, color= 5
	 item 19, weight= 316, color= 18
	 item 20, weight= 320, color= 1
	 item 21, weight= 320, color= 6
	 item 22, weight= 320, color= 10
	 item 23, weight= 320, color= 12
	 item 24, weight= 320, color= 12
	 item 25, weight= 320, color= 13
	 item 26, weight= 328, color= 5
	 item 27, weight= 332, color= 2
	 item 28, weight= 336, color= 3
	 item 29, weight= 336, color= 14
	 item 30, weight= 352, color= 16
	 item 31, weight= 364, color= 17
	 item 32, weight= 366, color= 5
	 item 33, weight= 372, color= 17
	 item 34, weight= 384, color= 0
	 item 35, weight= 384, color= 4
	 item 36, weight= 384, color= 9
	 item 37, weight= 384, color= 10
	 item 38, weight= 384, color= 12
	 item 39, weight= 392, color= 0
	 item 40, weight= 398, color= 9
	 item 41, weight= 400, color= 4
	 item 42, weight= 408, color= 13
	 item 43, weight= 416, color= 6
	 item 44, weight= 416, color= 9
	 item 45, weight= 416, color= 18
	 item 46, weight= 416, color= 19
	 item 47, weight= 420, color= 8
	 item 48, weight= 422, color= 15
	 item 49, weight= 424, color= 1
	 item 50, weight= 438, color= 18
	 item 51, weight= 440, color= 4
	 item 52, weight= 444, color= 7
	 item 53, weight= 444, color= 9
	 item 54, weight= 448, color= 2
	 item 55, weight= 448, color= 2
	 item 56, weight= 448, color= 17
	 item 57, weight= 448, color= 18
	 item 58, weight= 456, color= 8
	 item 59, weight= 464, color= 5
	 item 60, weight= 464, color= 19
	 item 61, weight= 468, color= 7
	 item 62, weight= 472, color= 7
	 item 63, weight= 496, color= 6
	 item 64, weight= 502, color= 6
	 item 65, weight= 512, color= 4
	 item 66, weight= 512, color= 10
	 item 67, weight= 512, color= 14
	 item 68, weight= 512, color= 17
	 item 69, weight= 528, color= 1
	 item 70, weight= 528, color= 16
	 item 71, weight= 530, color= 18
	 item 72, weight= 544, color= 9
	 item 73, weight= 544, color= 15
	 item 74, weight= 552, color= 6
	 item 75, weight= 552, color= 9
	 item 76, weight= 552, color= 18
	 item 77, weight= 560, color= 13
	 item 78, weight= 568, color= 0
	 item 79, weight= 576, color= 8
	 item 80, weight= 576, color= 11
	 item 81, weight= 576, color= 18
	 item 82, weight= 584, color= 9
	 item 83, weight= 608, color= 6
	 item 84, weight= 608, color= 10
	 item 85, weight= 608, color= 10
	 item 86, weight= 616, color= 4
	 item 87, weight= 618, color= 12
	 item 88, weight= 640, color= 1
	 item 89, weight= 640, color= 14
	 item 90, weight= 640, color= 17
	 item 91, weight= 648, color= 10
	 item 92, weight= 672, color= 17
	 item 93, weight= 680, color= 9
	 item 94, weight= 684, color= 11
	 item 95, weight= 686, color= 11
	 item 96, weight= 690, color= 9
	 item 97, weight= 696, color= 6
	 item 98, weight= 696, color= 8
	 item 99, weight= 704, color= 0
	 item 100, weight= 704, color= 1
	 item 101, weight= 704, color= 8
	 item 102, weight= 704, color= 15
	 item 103, weight= 704, color= 15
	 item 104, weight= 720, color= 13
	 item 105, weight= 752, color= 4
	 item 106, weight= 752, color= 14
	 item 107, weight= 768, color= 0
	 item 108, weight= 768, color= 7
	 item 109, weight= 768, color= 10
	 item 110, weight= 768, color= 14
	 item 111, weight= 768, color= 15
	 item 112, weight= 770, color= 6
	 item 113, weight= 772, color= 14
	 item 114, weight= 772, color= 19
	 item 115, weight= 776, color= 18
	 item 116, weight= 778, color= 4
	 item 117, weight= 800, color= 14
	 item 118, weight= 816, color= 4
	 item 119, weight= 824, color= 3
	 item 120, weight= 824, color= 17
	 item 121, weight= 832, color= 1
	 item 122, weight= 832, color= 10
	 item 123, weight= 840, color= 12
	 item 124, weight= 848, color= 15
	 item 125, weight= 848, color= 19
	 item 126, weight= 852, color= 7
	 item 127, weight= 852, color= 9
	 item 128, weight= 864, color= 1
	 item 129, weight= 864, color= 11
	 item 130, weight= 864, color= 16
	 item 131, weight= 866, color= 11
	 item 132, weight= 876, color= 3
	 item 133, weight= 876, color= 8
	 item 134, weight= 878, color= 8
	 item 135, weight= 880, color= 7
	 item 136, weight= 928, color= 3
	 item 137, weight= 928, color= 6
	 item 138, weight= 944, color= 17
	 item 139, weight= 960, color= 0
	 item 140, weight= 960, color= 0
	 item 141, weight= 960, color= 17
	 item 142, weight= 964, color= 8
	 item 143, weight= 976, color= 2
	 item 144, weight= 978, color= 15
	 item 145, weight= 992, color= 19
	 item 146, weight= 1002, color= 1
	 item 147, weight= 1006, color= 3
	 item 148, weight= 1024, color= 7
	 item 149, weight= 1024, color= 14
	 item 150, weight= 1038, color= 2
	 item 151, weight= 1044, color= 0
	 item 152, weight= 1046, color= 1
	 item 153, weight= 1056, color= 7
	 item 154, weight= 1056, color= 12
	 item 155, weight= 1056, color= 15
	 item 156, weight= 1072, color= 7
	 item 157, weight= 1072, color= 17
	 item 158, weight= 1080, color= 19
	 item 159, weight= 1088, color= 6
	 item 160, weight= 1160, color= 17
	 item 161, weight= 1196, color= 1
	 item 162, weight= 1196, color= 8
	 item 163, weight= 1196, color= 15
	 item 164, weight= 1198, color= 19
	 item 165, weight= 1200, color= 3
	 item 166, weight= 1208, color= 9
	 item 167, weight= 1208, color= 11
	 item 168, weight= 1216, color= 8
	 item 169, weight= 1216, color= 15
	 item 170, weight= 1216, color= 17
	 item 171, weight= 1232, color= 14
	 item 172, weight= 1232, color= 15
	 item 173, weight= 1248, color= 4
	 item 174, weight= 1248, color= 12
	 item 175, weight= 1248, color= 13
	 item 176, weight= 1256, color= 0
	 item 177, weight= 1312, color= 6
	 item 178, weight= 1312, color= 9
	 item 179, weight= 1376, color= 3
	 item 180, weight= 1378, color= 2
	 item 181, weight= 1392, color= 9
	 item 182, weight= 1396, color= 13
	 item 183, weight= 1408, color= 9
	 item 184, weight= 1408, color= 10
	 item 185, weight= 1408, color= 15
	 item 186, weight= 1424, color= 14
	 item 187, weight= 1432, color= 17
	 item 188, weight= 1436, color= 14
	 item 189, weight= 1512, color= 0
	 item 190, weight= 1536, color= 10
	 item 191, weight= 1568, color= 14
	 item 192, weight= 1568, color= 19
	 item 193, weight= 1592, color= 13
	 item 194, weight= 1594, color= 6
	 item 195, weight= 1600, color= 2
	 item 196, weight= 1632, color= 2
	 item 197, weight= 1632, color= 3
	 item 198, weight= 1632, color= 9
	 item 199, weight= 1632, color= 9
	 item 200, weight= 1632, color= 14
	 item 201, weight= 1632, color= 17
	 item 202, weight= 1636, color= 3
	 item 203, weight= 1654, color= 11
	 item 204, weight= 1656, color= 14
	 item 205, weight= 1682, color= 9
	 item 206, weight= 1696, color= 1
	 item 207, weight= 1704, color= 5
	 item 208, weight= 1712, color= 16
	 item 209, weight= 1744, color= 19
	 item 210, weight= 1760, color= 8
	 item 211, weight= 1768, color= 8
	 item 212, weight= 1778, color= 13
	 item 213, weight= 1824, color= 7
	 item 214, weight= 1830, color= 5
	 item 215, weight= 1831, color= 14
	 item 216, weight= 1863, color= 14
	 item 217, weight= 1937, color= 2
	 item 218, weight= 1956, color= 10
	 item 219, weight= 1960, color= 2
	 item 220, weight= 1964, color= 16
	 item 221, weight= 1971, color= 13
	 item 222, weight= 1978, color= 9
	 item 223, weight= 1997, color= 6
	 item 224, weight= 2008, color= 14
	 item 225, weight= 2096, color= 12
	 item 226, weight= 2102, color= 0
	 item 227, weight= 2111, color= 2
	 item 228, weight= 2128, color= 13
	 item 229, weight= 2131, color= 10
	 item 230, weight= 2176, color= 10
	 item 231, weight= 2176, color= 18
	 item 232, weight= 2192, color= 12
	 item 233, weight= 2208, color= 5
	 item 234, weight= 2210, color= 4
	 item 235, weight= 2222, color= 5
	 item 236, weight= 2238, color= 5
	 item 237, weight= 2256, color= 17
	 item 238, weight= 2264, color= 13
	 item 239, weight= 2285, color= 4
	 item 240, weight= 2286, color= 18
	 item 241, weight= 2312, color= 4
	 item 242, weight= 2350, color= 16
	 item 243, weight= 2356, color= 18
	 item 244, weight= 2364, color= 5
	 item 245, weight= 2393, color= 12
	 item 246, weight= 2400, color= 10
	 item 247, weight= 2519, color= 3
	 item 248, weight= 2576, color= 7
	 item 249, weight= 2595, color= 3
	 item 250, weight= 2616, color= 3
	 item 251, weight= 2619, color= 2
	 item 252, weight= 2646, color= 12
	 item 253, weight= 2655, color= 1
	 item 254, weight= 2656, color= 14
	 item 255, weight= 2664, color= 9
	 item 256, weight= 2736, color= 19
	 item 257, weight= 2782, color= 8
	 item 258, weight= 2844, color= 7
	 item 259, weight= 2852, color= 17
	 item 260, weight= 2885, color= 13
	 item 261, weight= 2912, color= 11
	 item 262, weight= 2928, color= 18
	 item 263, weight= 2942, color= 1
	 item 264, weight= 3048, color= 15
	 item 265, weight= 3072, color= 17
	 item 266, weight= 3091, color= 4
	 item 267, weight= 3096, color= 5
	 item 268, weight= 3098, color= 19
	 item 269, weight= 3184, color= 16
	 item 270, weight= 3232, color= 17
	 item 271, weight= 3258, color= 19
	 item 272, weight= 3312, color= 8
	 item 273, weight= 3364, color= 16
	 item 274, weight= 3408, color= 10
	 item 275, weight= 3425, color= 6
	 item 276, weight= 3436, color= 10
	 item 277, weight= 3436, color= 17
	 item 278, weight= 3439, color= 16
	 item 279, weight= 3451, color= 19
	 item 280, weight= 3468, color= 10
	 item 281, weight= 3484, color= 13
	 item 282, weight= 3516, color= 18
	 item 283, weight= 3542, color= 15
	 item 284, weight= 3548, color= 18
	 item 285, weight= 3552, color= 6
	 item 286, weight= 3560, color= 15
	 item 287, weight= 3600, color= 15
	 item 288, weight= 3608, color= 15
	 item 289, weight= 3623, color= 17
	 item 290, weight= 3768, color= 5
	 item 291, weight= 3832, color= 7
	 item 292, weight= 3841, color= 7
	 item 293, weight= 3855, color= 15
	 item 294, weight= 3864, color= 12
	 item 295, weight= 3867, color= 16
	 item 296, weight= 3870, color= 18
	 item 297, weight= 3872, color= 18
	 item 298, weight= 3948, color= 13
	 item 299, weight= 4016, color= 15
	 item 300, weight= 4032, color= 12
	 item 301, weight= 4048, color= 15
	 item 302, weight= 4068, color= 8
	 item 303, weight= 4108, color= 2
	 item 304, weight= 4130, color= 6
	 item 305, weight= 4132, color= 8
	 item 306, weight= 4164, color= 6
	 item 307, weight= 4182, color= 0
	 item 308, weight= 4232, color= 3
	 item 309, weight= 4244, color= 12
	 item 310, weight= 4250, color= 12
	 item 311, weight= 4262, color= 18
	 item 312, weight= 4278, color= 18
	 item 313, weight= 4280, color= 3
	 item 314, weight= 4296, color= 11
	 item 315, weight= 4298, color= 13
	 item 316, weight= 4320, color= 11
	 item 317, weight= 4325, color= 17
	 item 318, weight= 4339, color= 1
	 item 319, weight= 4368, color= 8
	 item 320, weight= 4382, color= 9
	 item 321, weight= 4391, color= 19
	 item 322, weight= 4398, color= 19
	 item 323, weight= 4432, color= 2
	 item 324, weight= 4436, color= 9
	 item 325, weight= 4608, color= 0
	 item 326, weight= 4624, color= 8
	 item 327, weight= 4688, color= 10
	 item 328, weight= 4728, color= 11
	 item 329, weight= 4776, color= 3
	 item 330, weight= 4818, color= 3
	 item 331, weight= 4830, color= 16
	 item 332, weight= 4832, color= 5
	 item 333, weight= 4844, color= 5
	 item 334, weight= 4884, color= 17
	 item 335, weight= 4969, color= 15
	 item 336, weight= 5011, color= 19
	 item 337, weight= 5031, color= 0
	 item 338, weight= 5116, color= 4
	 item 339, weight= 5136, color= 6
	 item 340, weight= 5146, color= 11
	 item 341, weight= 5199, color= 2
	 item 342, weight= 5222, color= 3
	 item 343, weight= 5239, color= 12
	 item 344, weight= 5323, color= 18
	 item 345, weight= 5360, color= 16
	 item 346, weight= 5368, color= 0
	 item 347, weight= 5372, color= 8
	 item 348, weight= 5416, color= 8
	 item 349, weight= 5424, color= 17
	 item 350, weight= 5428, color= 9
	 item 351, weight= 5448, color= 14
	 item 352, weight= 5472, color= 13
	 item 353, weight= 5475, color= 4
	 item 354, weight= 5610, color= 9
	 item 355, weight= 5810, color= 8
	 item 356, weight= 5987, color= 11
	 item 357, weight= 5990, color= 18
	 item 358, weight= 6001, color= 17
	 item 359, weight= 6020, color= 12
	 item 360, weight= 6046, color= 0
	 item 361, weight= 6076, color= 16
	 item 362, weight= 6136, color= 7
	 item 363, weight= 6176, color= 2
	 item 364, weight= 6184, color= 17
	 item 365, weight= 6224, color= 14
	 item 366, weight= 6248, color= 4
	 item 367, weight= 6256, color= 7
	 item 368, weight= 6300, color= 12
	 item 369, weight= 6320, color= 14
	 item 370, weight= 6384, color= 6
	 item 371, weight= 6576, color= 2
	 item 372, weight= 6640, color= 10
	 item 373, weight= 6720, color= 15
	 item 374, weight= 6844, color= 4
	 item 375, weight= 6882, color= 19
	 item 376, weight= 6885, color= 13
	 item 377, weight= 6899, color= 16
	 item 378, weight= 6974, color= 10
	 item 379, weight= 6986, color= 4
	 item 380, weight= 7072, color= 11
	 item 381, weight= 7112, color= 2
	 item 382, weight= 7128, color= 2
	 item 383, weight= 7132, color= 6
	 item 384, weight= 7188, color= 10
	 item 385, weight= 7202, color= 17
	 item 386, weight= 7270, color= 6
	 item 387, weight= 7570, color= 19
	 item 388, weight= 7696, color= 2
	 item 389, weight= 7872, color= 12
	 item 390, weight= 7920, color= 8
	 item 391, weight= 7963, color= 18
	 item 392, weight= 7977, color= 18
	 item 393, weight= 7984, color= 7
	 item 394, weight= 8160, color= 4
	 item 395, weight= 8168, color= 6
	 item 396, weight= 8176, color= 5
	 item 397, weight= 8180, color= 16
	 item 398, weight= 8182, color= 5
	 item 399, weight= 8184, color= 18
	 item 400, weight= 8185, color= 17
	 item 401, weight= 8188, color= 8
	 item 402, weight= 8626, color= 10
	 item 403, weight= 9271, color= 4
	 item 404, weight= 9296, color= 15
	 item 405, weight= 9825, color= 19
	 item 406, weight= 9826, color= 13
	 item 407, weight= 9827, color= 8
	 item 408, weight= 9828, color= 9
	 item 409, weight= 9832, color= 1
	 item 410, weight= 9834, color= 15
	 item 411, weight= 9836, color= 9
	 item 412, weight= 9840, color= 19
	 item 413, weight= 9848, color= 13
	 item 414, weight= 9888, color= 4
	 item 415, weight= 9904, color= 7
	 item 416, weight= 10077, color= 14
	 item 417, weight= 10093, color= 2
	 item 418, weight= 10096, color= 5
	 item 419, weight= 10160, color= 12
	 item 420, weight= 10416, color= 0
	 item 421, weight= 10566, color= 14
	 item 422, weight= 11010, color= 12
	 item 423, weight= 11028, color= 5
	 item 424, weight= 11092, color= 4
	 item 425, weight= 11112, color= 13
	 item 426, weight= 11128, color= 14
	 item 427, weight= 11168, color= 13
	 item 428, weight= 11266, color= 16
	 item 429, weight= 11282, color= 18
	 item 430, weight= 11371, color= 5
	 item 431, weight= 11387, color= 12
	 item 432, weight= 11696, color= 5
	 item 433, weight= 11760, color= 11
	 item 434, weight= 12016, color= 19
	 item 435, weight= 12028, color= 2
	 item 436, weight= 12080, color= 18
	 item 437, weight= 12092, color= 12
	 item 438, weight= 12144, color= 15
	 item 439, weight= 12168, color= 10
	 item 440, weight= 12208, color= 18
	 item 441, weight= 12218, color= 18
	 item 442, weight= 12232, color= 19
	 item 443, weight= 12256, color= 13
	 item 444, weight= 12288, color= 4
	 item 445, weight= 12296, color= 15
	 item 446, weight= 12364, color= 17
	 item 447, weight= 12394, color= 15
	 item 448, weight= 12428, color= 2
	 item 449, weight= 12449, color= 4
	 item 450, weight= 12462, color= 15
	 item 451, weight= 12465, color= 0
	 item 452, weight= 12478, color= 4
	 item 453, weight= 12678, color= 3
	 item 454, weight= 13112, color= 1
	 item 455, weight= 13140, color= 6
	 item 456, weight= 13152, color= 4
	 item 457, weight= 13160, color= 9
	 item 458, weight= 13168, color= 19
	 item 459, weight= 13204, color= 9
	 item 460, weight= 13224, color= 8
	 item 461, weight= 13232, color= 9
	 item 462, weight= 13347, color= 6
	 item 463, weight= 13363, color= 3
	 item 464, weight= 13382, color= 6
	 item 465, weight= 13395, color= 15
	 item 466, weight= 13398, color= 17
	 item 467, weight= 13411, color= 14
	 item 468, weight= 13488, color= 6
	 item 469, weight= 13504, color= 6
	 item 470, weight= 13611, color= 6
	 item 471, weight= 13635, color= 17
	 item 472, weight= 13687, color= 7
	 item 473, weight= 13788, color= 15
	 item 474, weight= 13844, color= 6
	 item 475, weight= 13854, color= 18
	 item 476, weight= 13856, color= 14
	 item 477, weight= 13870, color= 15
	 item 478, weight= 13928, color= 12
	 item 479, weight= 13992, color= 11
	 item 480, weight= 14032, color= 11
	 item 481, weight= 14332, color= 5
	 item 482, weight= 14352, color= 15
	 item 483, weight= 14374, color= 8
	 item 484, weight= 14379, color= 2
	 item 485, weight= 14390, color= 17
	 item 486, weight= 14406, color= 7
	 item 487, weight= 14416, color= 16
	 item 488, weight= 14443, color= 15
	 item 489, weight= 14459, color= 13
	 item 490, weight= 14480, color= 11
	 item 491, weight= 14496, color= 14
	 item 492, weight= 14500, color= 17
	 item 493, weight= 14518, color= 18
	 item 494, weight= 14520, color= 3
	 item 495, weight= 14534, color= 3
	 item 496, weight= 14550, color= 2
	 item 497, weight= 14564, color= 11
	 item 498, weight= 14584, color= 0
	 item 499, weight= 14660, color= 7
	 item 500, weight= 14692, color= 0
	 item 501, weight= 14724, color= 3
	 item 502, weight= 14800, color= 6
	 item 503, weight= 14864, color= 5
	 item 504, weight= 14942, color= 16
	 item 505, weight= 15006, color= 2
	 item 506, weight= 15008, color= 3
	 item 507, weight= 15009, color= 7
	 item 508, weight= 15016, color= 12
	 item 509, weight= 15022, color= 11
	 item 510, weight= 15023, color= 14
	 item 511, weight= 15039, color= 11
	 item 512, weight= 15064, color= 16
	 item 513, weight= 15128, color= 8
	 item 514, weight= 15192, color= 7
	 item 515, weight= 15236, color= 14
	 item 516, weight= 15320, color= 6
	 item 517, weight= 15344, color= 4
	 item 518, weight= 15384, color= 0
	 item 519, weight= 15396, color= 6
	 item 520, weight= 15402, color= 10
	 item 521, weight= 15414, color= 5
	 item 522, weight= 15436, color= 12
	 item 523, weight= 15456, color= 19
	 item 524, weight= 15468, color= 3
	 item 525, weight= 15500, color= 11
	 item 526, weight= 15507, color= 9
	 item 527, weight= 15523, color= 18
	 item 528, weight= 15532, color= 3
	 item 529, weight= 15539, color= 2
	 item 530, weight= 15564, color= 15
	 item 531, weight= 15612, color= 19
	 item 532, weight= 15696, color= 10
	 item 533, weight= 15742, color= 15
	 item 534, weight= 15840, color= 10
	 item 535, weight= 15856, color= 17
	 item 536, weight= 15923, color= 2
	 item 537, weight= 15939, color= 19
	 item 538, weight= 15944, color= 1
	 item 539, weight= 15992, color= 7
	 item 540, weight= 15998, color= 2
	 item 541, weight= 16112, color= 5
	 item 542, weight= 16122, color= 5
	 item 543, weight= 16160, color= 12
	 item 544, weight= 16187, color= 18
	 item 545, weight= 16196, color= 14
	 item 546, weight= 16228, color= 16
	 item 547, weight= 16244, color= 17
	 item 548, weight= 16304, color= 12
	 item 549, weight= 16314, color= 8
	 item 550, weight= 16368, color= 8
	 item 551, weight= 16456, color= 2
	 item 552, weight= 16463, color= 13
	 item 553, weight= 16474, color= 3
	 item 554, weight= 16480, color= 2
	 item 555, weight= 16520, color= 5
	 item 556, weight= 16560, color= 0
	 item 557, weight= 16591, color= 1
	 item 558, weight= 16627, color= 11
	 item 559, weight= 16800, color= 14
	 item 560, weight= 16812, color= 4
	 item 561, weight= 16828, color= 11
	 item 562, weight= 16830, color= 16
	 item 563, weight= 16855, color= 11
	 item 564, weight= 16888, color= 14
	 item 565, weight= 16907, color= 11
	 item 566, weight= 16936, color= 3
	 item 567, weight= 16966, color= 10
	 item 568, weight= 16976, color= 18
	 item 569, weight= 16982, color= 8
	 item 570, weight= 16998, color= 10
	 item 571, weight= 17009, color= 8
	 item 572, weight= 17040, color= 15
	 item 573, weight= 17046, color= 17
	 item 574, weight= 17056, color= 3
	 item 575, weight= 17093, color= 7
	 item 576, weight= 17104, color= 15
	 item 577, weight= 17115, color= 8
	 item 578, weight= 17126, color= 16
	 item 579, weight= 17168, color= 12
	 item 580, weight= 17240, color= 2
	 item 581, weight= 17253, color= 3
	 item 582, weight= 17285, color= 4
	 item 583, weight= 17300, color= 14
	 item 584, weight= 17304, color= 5
	 item 585, weight= 17308, color= 8
	 item 586, weight= 17413, color= 16
	 item 587, weight= 17442, color= 14
	 item 588, weight= 17451, color= 0
	 item 589, weight= 17454, color= 8
	 item 590, weight= 17467, color= 17
	 item 591, weight= 17504, color= 0
	 item 592, weight= 17518, color= 7
	 item 593, weight= 17544, color= 18
	 item 594, weight= 17568, color= 17
	 item 595, weight= 17584, color= 6
	 item 596, weight= 17608, color= 10
	 item 597, weight= 17616, color= 10
	 item 598, weight= 17632, color= 11
	 item 599, weight= 17634, color= 18
	 item 600, weight= 17666, color= 1
	 item 601, weight= 17672, color= 10

VRPSolver warning: Interval set for resource 1 on source node (when source != sink) is ignored (by definition is [0.0,0.0])
[41m solve [00m
~~~~~~~~~~~~~~~~~~~~~~~~~~~~~~~~~~~~~~~~~~~~~~~~~~~~~~~~~~~~~~~~~~~~~~~~~~~~~~
VRPSolver v0.4.1, 24/03/2021. Web: vrpsolver.math.u-bordeaux.fr
Corresponds to the solver by Pessoa, Sadykov, Uchoa and Vanderbeck (2020)
Paper: dx.doi.org/10.1007/s10107-020-01523-z
USE THIS CODE ONLY FOR ACADEMIC PURPOSES AT YOUR OWN RISK
~~~~~~~~~~~~~~~~~~~~~~~~~~~~~~~~~~~~~~~~~~~~~~~~~~~~~~~~~~~~~~~~~~~~~~~~~~~~~~
BaPCod v053, 24/03/2021, © Inria Bordeaux, France
~~~~~~~~~~~~~~~~~~~~~~~~~~~~~~~~~~~~~~~~~~~~~~~~~~~~~~~~~~~~~~~~~~~~~~~~~~~~~~
VRPSolver parameters:
GlobalTimeLimit = 1800
MaxNbOfBBtreeNodeTreated = 100000
treeSearchStrategy = 1
RCSPstopCutGenTimeThresholdInPricing = 10
RCSPhardTimeThresholdInPricing = 20
RCSPnumberOfBucketsPerVertex = 2000
RCSPdynamicBucketSteps = 0
RCSPuseBidirectionalSearch = 1
RCSPapplyReducedCostFixing = 1
RCSPredCostFixingFalseGap = 0
RCSPmaxNumOfColsPerIteration = 100
RCSPmaxNumOfColsPerExactIteration = 100
RCSPheurLabelingStrategy = 4
StabilizationMinPhaseOfStage = 1
RCSPmaxNumOfLabelsInEnumeration = 100000
RCSPmaxNumOfEnumeratedSolutions = 1000000
RCSPmaxNumOfEnumSolutionsForMIP = 100000
RCSPinitNGneighbourhoodSize = 0
RCSPmaxNGneighbourhoodSize = 0
RCSPrankOneCutsMaxNumPerRound = 100
RCSPrankOneCutsMaxNumRows = -1
RCSPrankOneCutsMemoryType = 2
CutTailingOffThreshold = 0.02
CutTailingOffCounterThreshold = 3
SafeDualBoundScaleFactor = -1
StrongBranchingPhaseOneCandidatesNumber = 100
StrongBranchingPhaseOneTreeSizeEstimRatio = 0.3
StrongBranchingPhaseTwoCandidatesNumber = 1
StrongBranchingPhaseTwoTreeSizeEstimRatio = 0.1
MaxTimeForRestrictedMasterIpHeur = -1
DivingHeurUseDepthLimit = 0
MaxLDSbreadth = 3
MaxLDSdepth = 2
New model incumbent solution 1e+06, TIME = 0h0m0s3t = 3
Model is built TIME = 0h0m5s11t = 511
************************************************************************************************
**** BaB tree root node
**** Local DB = -1e+12, global bounds : [ -1e+12 , 1e+06 ], TIME = 0h0m5s11t = 511
**** 1 open nodes, 0 columns (0 active), 0 dyn. constrs. (0 active), 1204 art. vars. (1204 active)
************************************************************************************************
<DWph=2> <it= 10> <et=14.98> <Mt= 0.01> <Spt= 9.84> <nCl=901> <DB=-109333738188.9421> <Mlp=710525339.4367> <PB=1000000> 
<DWph=2> <it= 20> <et=24.36> <Mt= 0.01> <Spt= 9.36> <nCl=1000> <DB=-54145436273.9591> <Mlp=701441897.9977> <PB=1000000> 
<DWph=2> <it= 30> <et=34.12> <Mt= 0.03> <Spt= 9.73> <nCl=1000> <DB=-37542017198.6324> <Mlp=683902072.0373> <PB=1000000> 
<DWph=2> <it= 40> <et=43.88> <Mt= 0.03> <Spt= 9.72> <nCl=1000> <DB=-32324865329.7000> <Mlp=664736367.6181> <PB=1000000> 
<DWph=2> <it= 50> <et=53.59> <Mt= 0.06> <Spt= 9.65> <nCl=1000> <DB=-26758201353.6094> <Mlp=645002499.7729> <PB=1000000> 
<DWph=2> <it= 60> <et=63.20> <Mt= 0.06> <Spt= 9.54> <nCl=1000> <DB=-24197859307.5197> <Mlp=624313462.1301> <PB=1000000> 
<DWph=2> <it= 70> <et=72.70> <Mt= 0.09> <Spt= 9.42> <nCl=1000> <DB=-19585457381.9599> <Mlp=606545521.8585> <PB=1000000> 
<DWph=2> <it= 80> <et=82.09> <Mt= 0.10> <Spt= 9.28> <nCl=1000> <DB=-16737459701.3941> <Mlp=581962313.2566> <PB=1000000> 
<DWph=2> <it= 90> <et=91.54> <Mt= 0.11> <Spt= 9.32> <nCl=1000> <DB=-15300661373.6087> <Mlp=560599076.1212> <PB=1000000> 
<DWph=2> <it=100> <et=101.00> <Mt= 0.16> <Spt= 9.30> <nCl=1000> <DB=-13156207713.2900> <Mlp=544417309.5595> <PB=1000000> 
<DWph=2> <it=110> <et=110.26> <Mt= 0.12> <Spt= 9.03> <nCl=1000> <DB=-11007870161.0622> <Mlp=528435727.7422> <PB=1000000> 
