Application parameters:
  batch  =>  nothing
  instance  =>  "/IN/600_20000_DI_46.txt-Q5"
  ub  =>  1.0e6
  cfg  =>  "/CFG/BPP.cfg"
data = Colored Bin Packing dataset.
number of items = 601
number of colors = 5
capacity = 13904
Items : 
	 item 1, weight= 80, color= 0
	 item 2, weight= 96, color= 2
	 item 3, weight= 104, color= 3
	 item 4, weight= 120, color= 2
	 item 5, weight= 160, color= 0
	 item 6, weight= 168, color= 1
	 item 7, weight= 176, color= 0
	 item 8, weight= 188, color= 4
	 item 9, weight= 206, color= 4
	 item 10, weight= 208, color= 4
	 item 11, weight= 224, color= 0
	 item 12, weight= 232, color= 0
	 item 13, weight= 232, color= 1
	 item 14, weight= 232, color= 1
	 item 15, weight= 240, color= 0
	 item 16, weight= 240, color= 1
	 item 17, weight= 240, color= 3
	 item 18, weight= 244, color= 2
	 item 19, weight= 246, color= 1
	 item 20, weight= 248, color= 2
	 item 21, weight= 248, color= 2
	 item 22, weight= 250, color= 3
	 item 23, weight= 252, color= 0
	 item 24, weight= 252, color= 1
	 item 25, weight= 252, color= 2
	 item 26, weight= 256, color= 0
	 item 27, weight= 256, color= 0
	 item 28, weight= 256, color= 2
	 item 29, weight= 256, color= 2
	 item 30, weight= 256, color= 4
	 item 31, weight= 260, color= 4
	 item 32, weight= 260, color= 4
	 item 33, weight= 264, color= 0
	 item 34, weight= 264, color= 0
	 item 35, weight= 264, color= 1
	 item 36, weight= 270, color= 1
	 item 37, weight= 272, color= 0
	 item 38, weight= 272, color= 0
	 item 39, weight= 272, color= 0
	 item 40, weight= 272, color= 2
	 item 41, weight= 272, color= 4
	 item 42, weight= 272, color= 4
	 item 43, weight= 276, color= 2
	 item 44, weight= 276, color= 3
	 item 45, weight= 278, color= 3
	 item 46, weight= 284, color= 0
	 item 47, weight= 284, color= 2
	 item 48, weight= 284, color= 4
	 item 49, weight= 288, color= 0
	 item 50, weight= 288, color= 1
	 item 51, weight= 288, color= 3
	 item 52, weight= 288, color= 3
	 item 53, weight= 292, color= 0
	 item 54, weight= 292, color= 0
	 item 55, weight= 294, color= 4
	 item 56, weight= 296, color= 4
	 item 57, weight= 300, color= 0
	 item 58, weight= 304, color= 2
	 item 59, weight= 304, color= 2
	 item 60, weight= 304, color= 3
	 item 61, weight= 312, color= 1
	 item 62, weight= 312, color= 2
	 item 63, weight= 316, color= 0
	 item 64, weight= 316, color= 2
	 item 65, weight= 316, color= 4
	 item 66, weight= 320, color= 1
	 item 67, weight= 320, color= 2
	 item 68, weight= 320, color= 2
	 item 69, weight= 320, color= 3
	 item 70, weight= 320, color= 4
	 item 71, weight= 324, color= 0
	 item 72, weight= 324, color= 2
	 item 73, weight= 328, color= 4
	 item 74, weight= 332, color= 3
	 item 75, weight= 334, color= 1
	 item 76, weight= 336, color= 1
	 item 77, weight= 344, color= 4
	 item 78, weight= 348, color= 2
	 item 79, weight= 352, color= 3
	 item 80, weight= 352, color= 4
	 item 81, weight= 354, color= 4
	 item 82, weight= 356, color= 0
	 item 83, weight= 356, color= 3
	 item 84, weight= 358, color= 0
	 item 85, weight= 358, color= 0
	 item 86, weight= 360, color= 2
	 item 87, weight= 360, color= 4
	 item 88, weight= 368, color= 0
	 item 89, weight= 368, color= 3
	 item 90, weight= 372, color= 0
	 item 91, weight= 376, color= 3
	 item 92, weight= 380, color= 1
	 item 93, weight= 380, color= 2
	 item 94, weight= 384, color= 4
	 item 95, weight= 392, color= 2
	 item 96, weight= 396, color= 0
	 item 97, weight= 396, color= 3
	 item 98, weight= 400, color= 1
	 item 99, weight= 400, color= 2
	 item 100, weight= 404, color= 2
	 item 101, weight= 406, color= 2
	 item 102, weight= 408, color= 4
	 item 103, weight= 416, color= 2
	 item 104, weight= 416, color= 3
	 item 105, weight= 416, color= 3
	 item 106, weight= 424, color= 2
	 item 107, weight= 424, color= 3
	 item 108, weight= 428, color= 0
	 item 109, weight= 432, color= 1
	 item 110, weight= 432, color= 3
	 item 111, weight= 440, color= 0
	 item 112, weight= 444, color= 0
	 item 113, weight= 464, color= 1
	 item 114, weight= 464, color= 2
	 item 115, weight= 464, color= 4
	 item 116, weight= 466, color= 4
	 item 117, weight= 470, color= 2
	 item 118, weight= 472, color= 3
	 item 119, weight= 476, color= 2
	 item 120, weight= 476, color= 4
	 item 121, weight= 478, color= 1
	 item 122, weight= 496, color= 2
	 item 123, weight= 504, color= 0
	 item 124, weight= 512, color= 2
	 item 125, weight= 512, color= 3
	 item 126, weight= 520, color= 2
	 item 127, weight= 520, color= 4
	 item 128, weight= 526, color= 2
	 item 129, weight= 528, color= 1
	 item 130, weight= 528, color= 1
	 item 131, weight= 544, color= 0
	 item 132, weight= 564, color= 4
	 item 133, weight= 570, color= 0
	 item 134, weight= 576, color= 0
	 item 135, weight= 576, color= 0
	 item 136, weight= 580, color= 2
	 item 137, weight= 588, color= 2
	 item 138, weight= 592, color= 3
	 item 139, weight= 592, color= 4
	 item 140, weight= 604, color= 1
	 item 141, weight= 606, color= 0
	 item 142, weight= 608, color= 0
	 item 143, weight= 616, color= 0
	 item 144, weight= 640, color= 1
	 item 145, weight= 656, color= 4
	 item 146, weight= 668, color= 1
	 item 147, weight= 668, color= 3
	 item 148, weight= 672, color= 0
	 item 149, weight= 672, color= 0
	 item 150, weight= 672, color= 1
	 item 151, weight= 672, color= 4
	 item 152, weight= 676, color= 2
	 item 153, weight= 680, color= 4
	 item 154, weight= 686, color= 3
	 item 155, weight= 692, color= 4
	 item 156, weight= 698, color= 2
	 item 157, weight= 720, color= 0
	 item 158, weight= 720, color= 0
	 item 159, weight= 720, color= 1
	 item 160, weight= 752, color= 1
	 item 161, weight= 760, color= 4
	 item 162, weight= 776, color= 4
	 item 163, weight= 780, color= 3
	 item 164, weight= 784, color= 4
	 item 165, weight= 788, color= 2
	 item 166, weight= 796, color= 1
	 item 167, weight= 800, color= 4
	 item 168, weight= 816, color= 3
	 item 169, weight= 816, color= 4
	 item 170, weight= 824, color= 1
	 item 171, weight= 832, color= 4
	 item 172, weight= 872, color= 2
	 item 173, weight= 880, color= 3
	 item 174, weight= 886, color= 1
	 item 175, weight= 892, color= 4
	 item 176, weight= 896, color= 0
	 item 177, weight= 896, color= 2
	 item 178, weight= 896, color= 3
	 item 179, weight= 944, color= 1
	 item 180, weight= 944, color= 3
	 item 181, weight= 952, color= 0
	 item 182, weight= 968, color= 0
	 item 183, weight= 976, color= 3
	 item 184, weight= 992, color= 1
	 item 185, weight= 1004, color= 3
	 item 186, weight= 1006, color= 4
	 item 187, weight= 1008, color= 3
	 item 188, weight= 1008, color= 4
	 item 189, weight= 1010, color= 3
	 item 190, weight= 1012, color= 3
	 item 191, weight= 1014, color= 3
	 item 192, weight= 1022, color= 3
	 item 193, weight= 1088, color= 0
	 item 194, weight= 1088, color= 3
	 item 195, weight= 1120, color= 1
	 item 196, weight= 1120, color= 3
	 item 197, weight= 1152, color= 1
	 item 198, weight= 1152, color= 2
	 item 199, weight= 1152, color= 4
	 item 200, weight= 1156, color= 0
	 item 201, weight= 1156, color= 0
	 item 202, weight= 1156, color= 3
	 item 203, weight= 1158, color= 1
	 item 204, weight= 1162, color= 1
	 item 205, weight= 1176, color= 1
	 item 206, weight= 1188, color= 2
	 item 207, weight= 1204, color= 0
	 item 208, weight= 1210, color= 1
	 item 209, weight= 1214, color= 2
	 item 210, weight= 1223, color= 2
	 item 211, weight= 1236, color= 1
	 item 212, weight= 1237, color= 4
	 item 213, weight= 1249, color= 4
	 item 214, weight= 1255, color= 2
	 item 215, weight= 1258, color= 0
	 item 216, weight= 1262, color= 0
	 item 217, weight= 1271, color= 0
	 item 218, weight= 1272, color= 3
	 item 219, weight= 1278, color= 0
	 item 220, weight= 1287, color= 3
	 item 221, weight= 1292, color= 3
	 item 222, weight= 1302, color= 0
	 item 223, weight= 1310, color= 2
	 item 224, weight= 1320, color= 2
	 item 225, weight= 1325, color= 3
	 item 226, weight= 1331, color= 4
	 item 227, weight= 1332, color= 0
	 item 228, weight= 1353, color= 3
	 item 229, weight= 1378, color= 4
	 item 230, weight= 1382, color= 4
	 item 231, weight= 1384, color= 4
	 item 232, weight= 1390, color= 2
	 item 233, weight= 1396, color= 0
	 item 234, weight= 1397, color= 2
	 item 235, weight= 1404, color= 1
	 item 236, weight= 1422, color= 4
	 item 237, weight= 1430, color= 2
	 item 238, weight= 1431, color= 1
	 item 239, weight= 1432, color= 3
	 item 240, weight= 1445, color= 3
	 item 241, weight= 1464, color= 2
	 item 242, weight= 1465, color= 3
	 item 243, weight= 1471, color= 2
	 item 244, weight= 1478, color= 3
	 item 245, weight= 1484, color= 1
	 item 246, weight= 1522, color= 4
	 item 247, weight= 1524, color= 2
	 item 248, weight= 1529, color= 2
	 item 249, weight= 1531, color= 3
	 item 250, weight= 1556, color= 4
	 item 251, weight= 1567, color= 2
	 item 252, weight= 1578, color= 1
	 item 253, weight= 1582, color= 4
	 item 254, weight= 1587, color= 1
	 item 255, weight= 1590, color= 1
	 item 256, weight= 1598, color= 1
	 item 257, weight= 1601, color= 0
	 item 258, weight= 1622, color= 3
	 item 259, weight= 1624, color= 0
	 item 260, weight= 1628, color= 0
	 item 261, weight= 1630, color= 0
	 item 262, weight= 1640, color= 2
	 item 263, weight= 1643, color= 3
	 item 264, weight= 1677, color= 3
	 item 265, weight= 1678, color= 1
	 item 266, weight= 1696, color= 0
	 item 267, weight= 1716, color= 3
	 item 268, weight= 1743, color= 1
	 item 269, weight= 1756, color= 0
	 item 270, weight= 1762, color= 2
	 item 271, weight= 1768, color= 0
	 item 272, weight= 1777, color= 1
	 item 273, weight= 1791, color= 0
	 item 274, weight= 1797, color= 0
	 item 275, weight= 1798, color= 4
	 item 276, weight= 1809, color= 0
	 item 277, weight= 1814, color= 2
	 item 278, weight= 1832, color= 1
	 item 279, weight= 1856, color= 3
	 item 280, weight= 1868, color= 4
	 item 281, weight= 1869, color= 2
	 item 282, weight= 1896, color= 4
	 item 283, weight= 1901, color= 4
	 item 284, weight= 1908, color= 3
	 item 285, weight= 1911, color= 4
	 item 286, weight= 1944, color= 0
	 item 287, weight= 1982, color= 1
	 item 288, weight= 1991, color= 3
	 item 289, weight= 2002, color= 4
	 item 290, weight= 2026, color= 1
	 item 291, weight= 2032, color= 3
	 item 292, weight= 2037, color= 3
	 item 293, weight= 2040, color= 3
	 item 294, weight= 2042, color= 2
	 item 295, weight= 2092, color= 2
	 item 296, weight= 2110, color= 3
	 item 297, weight= 2129, color= 4
	 item 298, weight= 2132, color= 2
	 item 299, weight= 2143, color= 2
	 item 300, weight= 2176, color= 3
	 item 301, weight= 2182, color= 4
	 item 302, weight= 2202, color= 1
	 item 303, weight= 2216, color= 0
	 item 304, weight= 2231, color= 0
	 item 305, weight= 2324, color= 2
	 item 306, weight= 2333, color= 0
	 item 307, weight= 2357, color= 4
	 item 308, weight= 2360, color= 0
	 item 309, weight= 2364, color= 3
	 item 310, weight= 2366, color= 1
	 item 311, weight= 2394, color= 1
	 item 312, weight= 2401, color= 1
	 item 313, weight= 2455, color= 3
	 item 314, weight= 2504, color= 0
	 item 315, weight= 2529, color= 2
	 item 316, weight= 2578, color= 0
	 item 317, weight= 2596, color= 1
	 item 318, weight= 2622, color= 3
	 item 319, weight= 2624, color= 1
	 item 320, weight= 2635, color= 2
	 item 321, weight= 2636, color= 0
	 item 322, weight= 2680, color= 3
	 item 323, weight= 2760, color= 4
	 item 324, weight= 2821, color= 3
	 item 325, weight= 2855, color= 4
	 item 326, weight= 2892, color= 0
	 item 327, weight= 2894, color= 3
	 item 328, weight= 2906, color= 2
	 item 329, weight= 2946, color= 2
	 item 330, weight= 2964, color= 2
	 item 331, weight= 2984, color= 4
	 item 332, weight= 2989, color= 4
	 item 333, weight= 3018, color= 4
	 item 334, weight= 3031, color= 1
	 item 335, weight= 3064, color= 0
	 item 336, weight= 3085, color= 1
	 item 337, weight= 3122, color= 1
	 item 338, weight= 3256, color= 0
	 item 339, weight= 3276, color= 0
	 item 340, weight= 3290, color= 3
	 item 341, weight= 3342, color= 0
	 item 342, weight= 3350, color= 1
	 item 343, weight= 3361, color= 4
	 item 344, weight= 3364, color= 0
	 item 345, weight= 3384, color= 3
	 item 346, weight= 3404, color= 2
	 item 347, weight= 3431, color= 3
	 item 348, weight= 3478, color= 4
	 item 349, weight= 3491, color= 1
	 item 350, weight= 3498, color= 3
	 item 351, weight= 3603, color= 3
	 item 352, weight= 3608, color= 3
	 item 353, weight= 3628, color= 2
	 item 354, weight= 3704, color= 1
	 item 355, weight= 3730, color= 0
	 item 356, weight= 3816, color= 4
	 item 357, weight= 3818, color= 2
	 item 358, weight= 3890, color= 2
	 item 359, weight= 3892, color= 4
	 item 360, weight= 3903, color= 3
	 item 361, weight= 3918, color= 3
	 item 362, weight= 3921, color= 0
	 item 363, weight= 3942, color= 4
	 item 364, weight= 3983, color= 2
	 item 365, weight= 4034, color= 3
	 item 366, weight= 4040, color= 0
	 item 367, weight= 4116, color= 1
	 item 368, weight= 4156, color= 4
	 item 369, weight= 4248, color= 1
	 item 370, weight= 4365, color= 2
	 item 371, weight= 4418, color= 1
	 item 372, weight= 4439, color= 3
	 item 373, weight= 4470, color= 1
	 item 374, weight= 4488, color= 0
	 item 375, weight= 4494, color= 0
	 item 376, weight= 4654, color= 2
	 item 377, weight= 4748, color= 4
	 item 378, weight= 4759, color= 1
	 item 379, weight= 4788, color= 4
	 item 380, weight= 4792, color= 0
	 item 381, weight= 4852, color= 1
	 item 382, weight= 4936, color= 2
	 item 383, weight= 4996, color= 0
	 item 384, weight= 5025, color= 4
	 item 385, weight= 5031, color= 2
	 item 386, weight= 5050, color= 2
	 item 387, weight= 5051, color= 1
	 item 388, weight= 5078, color= 3
	 item 389, weight= 5079, color= 0
	 item 390, weight= 5111, color= 0
	 item 391, weight= 5136, color= 3
	 item 392, weight= 5496, color= 1
	 item 393, weight= 5624, color= 0
	 item 394, weight= 5628, color= 2
	 item 395, weight= 5778, color= 3
	 item 396, weight= 5782, color= 3
	 item 397, weight= 5784, color= 4
	 item 398, weight= 5790, color= 3
	 item 399, weight= 5791, color= 2
	 item 400, weight= 5793, color= 1
	 item 401, weight= 5796, color= 1
	 item 402, weight= 5942, color= 1
	 item 403, weight= 6144, color= 4
	 item 404, weight= 6180, color= 1
	 item 405, weight= 6880, color= 3
	 item 406, weight= 6953, color= 0
	 item 407, weight= 6954, color= 4
	 item 408, weight= 6956, color= 4
	 item 409, weight= 6957, color= 1
	 item 410, weight= 6958, color= 1
	 item 411, weight= 6964, color= 3
	 item 412, weight= 6966, color= 3
	 item 413, weight= 6968, color= 3
	 item 414, weight= 6974, color= 2
	 item 415, weight= 7156, color= 2
	 item 416, weight= 7160, color= 3
	 item 417, weight= 7320, color= 4
	 item 418, weight= 7771, color= 0
	 item 419, weight= 7811, color= 1
	 item 420, weight= 7814, color= 0
	 item 421, weight= 7843, color= 0
	 item 422, weight= 7846, color= 1
	 item 423, weight= 7867, color= 3
	 item 424, weight= 7875, color= 3
	 item 425, weight= 7916, color= 0
	 item 426, weight= 7992, color= 1
	 item 427, weight= 8084, color= 1
	 item 428, weight= 8164, color= 3
	 item 429, weight= 8168, color= 2
	 item 430, weight= 8212, color= 2
	 item 431, weight= 8514, color= 0
	 item 432, weight= 8520, color= 3
	 item 433, weight= 8539, color= 4
	 item 434, weight= 8542, color= 1
	 item 435, weight= 8574, color= 4
	 item 436, weight= 8579, color= 0
	 item 437, weight= 8606, color= 2
	 item 438, weight= 8667, color= 3
	 item 439, weight= 8824, color= 1
	 item 440, weight= 8924, color= 4
	 item 441, weight= 8972, color= 4
	 item 442, weight= 9064, color= 4
	 item 443, weight= 9125, color= 3
	 item 444, weight= 9174, color= 0
	 item 445, weight= 9199, color= 3
	 item 446, weight= 9206, color= 4
	 item 447, weight= 9238, color= 4
	 item 448, weight= 9336, color= 4
	 item 449, weight= 9556, color= 3
	 item 450, weight= 9576, color= 4
	 item 451, weight= 9581, color= 0
	 item 452, weight= 9596, color= 4
	 item 453, weight= 9643, color= 2
	 item 454, weight= 9672, color= 3
	 item 455, weight= 9702, color= 1
	 item 456, weight= 9715, color= 3
	 item 457, weight= 9734, color= 3
	 item 458, weight= 9766, color= 3
	 item 459, weight= 9787, color= 1
	 item 460, weight= 9820, color= 3
	 item 461, weight= 9848, color= 0
	 item 462, weight= 9868, color= 2
	 item 463, weight= 9871, color= 4
	 item 464, weight= 9886, color= 2
	 item 465, weight= 9894, color= 2
	 item 466, weight= 9902, color= 1
	 item 467, weight= 9958, color= 1
	 item 468, weight= 10008, color= 3
	 item 469, weight= 10203, color= 3
	 item 470, weight= 10232, color= 0
	 item 471, weight= 10269, color= 4
	 item 472, weight= 10302, color= 4
	 item 473, weight= 10308, color= 0
	 item 474, weight= 10328, color= 1
	 item 475, weight= 10348, color= 0
	 item 476, weight= 10366, color= 0
	 item 477, weight= 10370, color= 4
	 item 478, weight= 10410, color= 3
	 item 479, weight= 10418, color= 0
	 item 480, weight= 10434, color= 2
	 item 481, weight= 10436, color= 2
	 item 482, weight= 10479, color= 2
	 item 483, weight= 10519, color= 0
	 item 484, weight= 10600, color= 4
	 item 485, weight= 10696, color= 4
	 item 486, weight= 10709, color= 0
	 item 487, weight= 10743, color= 1
	 item 488, weight= 10748, color= 1
	 item 489, weight= 10762, color= 0
	 item 490, weight= 10796, color= 2
	 item 491, weight= 10814, color= 0
	 item 492, weight= 10871, color= 0
	 item 493, weight= 10904, color= 2
	 item 494, weight= 11025, color= 4
	 item 495, weight= 11034, color= 0
	 item 496, weight= 11066, color= 3
	 item 497, weight= 11076, color= 0
	 item 498, weight= 11077, color= 1
	 item 499, weight= 11080, color= 0
	 item 500, weight= 11088, color= 3
	 item 501, weight= 11105, color= 3
	 item 502, weight= 11116, color= 4
	 item 503, weight= 11161, color= 1
	 item 504, weight= 11229, color= 4
	 item 505, weight= 11256, color= 3
	 item 506, weight= 11262, color= 1
	 item 507, weight= 11290, color= 2
	 item 508, weight= 11333, color= 0
	 item 509, weight= 11348, color= 2
	 item 510, weight= 11351, color= 4
	 item 511, weight= 11396, color= 1
	 item 512, weight= 11454, color= 2
	 item 513, weight= 11461, color= 2
	 item 514, weight= 11464, color= 4
	 item 515, weight= 11472, color= 4
	 item 516, weight= 11474, color= 3
	 item 517, weight= 11506, color= 3
	 item 518, weight= 11517, color= 0
	 item 519, weight= 11530, color= 1
	 item 520, weight= 11576, color= 3
	 item 521, weight= 11613, color= 3
	 item 522, weight= 11620, color= 1
	 item 523, weight= 11623, color= 0
	 item 524, weight= 11640, color= 1
	 item 525, weight= 11663, color= 1
	 item 526, weight= 11668, color= 2
	 item 527, weight= 11674, color= 2
	 item 528, weight= 11720, color= 2
	 item 529, weight= 11730, color= 0
	 item 530, weight= 11735, color= 1
	 item 531, weight= 11749, color= 1
	 item 532, weight= 11750, color= 4
	 item 533, weight= 11757, color= 0
	 item 534, weight= 11773, color= 2
	 item 535, weight= 11790, color= 4
	 item 536, weight= 11804, color= 0
	 item 537, weight= 11813, color= 3
	 item 538, weight= 11852, color= 3
	 item 539, weight= 11880, color= 4
	 item 540, weight= 11893, color= 2
	 item 541, weight= 11894, color= 1
	 item 542, weight= 11933, color= 1
	 item 543, weight= 11944, color= 3
	 item 544, weight= 11950, color= 2
	 item 545, weight= 11956, color= 1
	 item 546, weight= 11958, color= 0
	 item 547, weight= 11983, color= 2
	 item 548, weight= 11990, color= 4
	 item 549, weight= 11998, color= 4
	 item 550, weight= 12006, color= 4
	 item 551, weight= 12014, color= 4
	 item 552, weight= 12024, color= 3
	 item 553, weight= 12025, color= 3
	 item 554, weight= 12044, color= 1
	 item 555, weight= 12069, color= 3
	 item 556, weight= 12075, color= 4
	 item 557, weight= 12078, color= 0
	 item 558, weight= 12084, color= 3
	 item 559, weight= 12132, color= 4
	 item 560, weight= 12134, color= 4
	 item 561, weight= 12139, color= 1
	 item 562, weight= 12147, color= 2
	 item 563, weight= 12152, color= 0
	 item 564, weight= 12171, color= 0
	 item 565, weight= 12189, color= 1
	 item 566, weight= 12190, color= 1
	 item 567, weight= 12198, color= 0
	 item 568, weight= 12200, color= 1
	 item 569, weight= 12228, color= 4
	 item 570, weight= 12229, color= 2
	 item 571, weight= 12236, color= 4
	 item 572, weight= 12237, color= 2
	 item 573, weight= 12238, color= 3
	 item 574, weight= 12246, color= 2
	 item 575, weight= 12248, color= 2
	 item 576, weight= 12254, color= 3
	 item 577, weight= 12281, color= 3
	 item 578, weight= 12308, color= 4
	 item 579, weight= 12309, color= 0
	 item 580, weight= 12315, color= 1
	 item 581, weight= 12328, color= 3
	 item 582, weight= 12334, color= 3
	 item 583, weight= 12342, color= 2
	 item 584, weight= 12356, color= 0
	 item 585, weight= 12361, color= 0
	 item 586, weight= 12374, color= 2
	 item 587, weight= 12381, color= 1
	 item 588, weight= 12390, color= 2
	 item 589, weight= 12392, color= 3
	 item 590, weight= 12398, color= 1
	 item 591, weight= 12399, color= 4
	 item 592, weight= 12407, color= 4
	 item 593, weight= 12421, color= 4
	 item 594, weight= 12428, color= 3
	 item 595, weight= 12437, color= 3
	 item 596, weight= 12454, color= 1
	 item 597, weight= 12468, color= 3
	 item 598, weight= 12484, color= 3
	 item 599, weight= 12502, color= 1
	 item 600, weight= 12504, color= 4
	 item 601, weight= 12510, color= 3

VRPSolver warning: Interval set for resource 1 on source node (when source != sink) is ignored (by definition is [0.0,0.0])
[41m solve [00m
~~~~~~~~~~~~~~~~~~~~~~~~~~~~~~~~~~~~~~~~~~~~~~~~~~~~~~~~~~~~~~~~~~~~~~~~~~~~~~
VRPSolver v0.4.1, 24/03/2021. Web: vrpsolver.math.u-bordeaux.fr
Corresponds to the solver by Pessoa, Sadykov, Uchoa and Vanderbeck (2020)
Paper: dx.doi.org/10.1007/s10107-020-01523-z
USE THIS CODE ONLY FOR ACADEMIC PURPOSES AT YOUR OWN RISK
~~~~~~~~~~~~~~~~~~~~~~~~~~~~~~~~~~~~~~~~~~~~~~~~~~~~~~~~~~~~~~~~~~~~~~~~~~~~~~
BaPCod v053, 24/03/2021, © Inria Bordeaux, France
~~~~~~~~~~~~~~~~~~~~~~~~~~~~~~~~~~~~~~~~~~~~~~~~~~~~~~~~~~~~~~~~~~~~~~~~~~~~~~
VRPSolver parameters:
GlobalTimeLimit = 1800
MaxNbOfBBtreeNodeTreated = 100000
treeSearchStrategy = 1
RCSPstopCutGenTimeThresholdInPricing = 10
RCSPhardTimeThresholdInPricing = 20
RCSPnumberOfBucketsPerVertex = 2000
RCSPdynamicBucketSteps = 0
RCSPuseBidirectionalSearch = 1
RCSPapplyReducedCostFixing = 1
RCSPredCostFixingFalseGap = 0
RCSPmaxNumOfColsPerIteration = 100
RCSPmaxNumOfColsPerExactIteration = 100
RCSPheurLabelingStrategy = 4
StabilizationMinPhaseOfStage = 1
RCSPmaxNumOfLabelsInEnumeration = 100000
RCSPmaxNumOfEnumeratedSolutions = 1000000
RCSPmaxNumOfEnumSolutionsForMIP = 100000
RCSPinitNGneighbourhoodSize = 0
RCSPmaxNGneighbourhoodSize = 0
RCSPrankOneCutsMaxNumPerRound = 100
RCSPrankOneCutsMaxNumRows = -1
RCSPrankOneCutsMemoryType = 2
CutTailingOffThreshold = 0.02
CutTailingOffCounterThreshold = 3
SafeDualBoundScaleFactor = -1
StrongBranchingPhaseOneCandidatesNumber = 100
StrongBranchingPhaseOneTreeSizeEstimRatio = 0.3
StrongBranchingPhaseTwoCandidatesNumber = 1
StrongBranchingPhaseTwoTreeSizeEstimRatio = 0.1
MaxTimeForRestrictedMasterIpHeur = -1
DivingHeurUseDepthLimit = 0
MaxLDSbreadth = 3
MaxLDSdepth = 2
New model incumbent solution 1e+06, TIME = 0h0m0s3t = 3
Model is built TIME = 0h0m4s89t = 489
************************************************************************************************
**** BaB tree root node
**** Local DB = -1e+12, global bounds : [ -1e+12 , 1e+06 ], TIME = 0h0m4s89t = 489
**** 1 open nodes, 0 columns (0 active), 0 dyn. constrs. (0 active), 1204 art. vars. (1204 active)
************************************************************************************************
<DWph=2> <it= 10> <et=12.26> <Mt= 0.01> <Spt= 7.35> <nCl=1000> <DB=-41677275404.5168> <Mlp=706065408.7138> <PB=1000000> 
<DWph=2> <it= 20> <et=19.89> <Mt= 0.02> <Spt= 7.61> <nCl=1000> <DB=-38254679896.5931> <Mlp=687270975.4377> <PB=1000000> 
<DWph=2> <it= 30> <et=27.53> <Mt= 0.02> <Spt= 7.60> <nCl=1000> <DB=-34668780549.4176> <Mlp=666926963.1775> <PB=1000000> 
<DWph=2> <it= 40> <et=35.16> <Mt= 0.05> <Spt= 7.58> <nCl=1000> <DB=-31141456909.6679> <Mlp=644322984.0462> <PB=1000000> 
<DWph=2> <it= 50> <et=42.75> <Mt= 0.06> <Spt= 7.52> <nCl=1000> <DB=-27497190911.7509> <Mlp=624142866.1124> <PB=1000000> 
<DWph=2> <it= 60> <et=50.36> <Mt= 0.12> <Spt= 7.49> <nCl=1000> <DB=-23205336005.4729> <Mlp=598212514.2977> <PB=1000000> 
<DWph=2> <it= 70> <et=57.93> <Mt= 0.15> <Spt= 7.42> <nCl=1000> <DB=-19868327760.1903> <Mlp=575836846.2335> <PB=1000000> 
<DWph=2> <it= 80> <et=65.39> <Mt= 0.21> <Spt= 7.24> <nCl=1000> <DB=-15631778873.2842> <Mlp=553487025.0209> <PB=1000000> 
<DWph=2> <it= 90> <et=72.74> <Mt= 0.22> <Spt= 7.13> <nCl=1000> <DB=-13166841053.9084> <Mlp=531954178.3391> <PB=1000000> 
<DWph=2> <it=100> <et=80.09> <Mt= 0.18> <Spt= 7.16> <nCl=1000> <DB=-9984376772.4064> <Mlp=507536836.4820> <PB=1000000> 
<DWph=2> <it=110> <et=87.26> <Mt= 0.19> <Spt= 6.89> <nCl=1000> <DB=-8155026352.3206> <Mlp=488096826.9746> <PB=1000000> 
<DWph=2> <it=120> <et=94.54> <Mt= 0.27> <Spt= 7.01> <nCl=1000> <DB=-7354949193.1453> <Mlp=463352831.7753> <PB=1000000> 
<DWph=2> <it=130> <et=101.65> <Mt= 0.31> <Spt= 6.80> <nCl=1000> <DB=-6229311540.9246> <Mlp=435840196.8702> <PB=1000000> 
<DWph=2> <it=140> <et=108.78> <Mt= 0.40> <Spt= 6.66> <nCl=1000> <DB=-5658003706.2439> <Mlp=413645755.9147> <PB=1000000> 
