Application parameters:
  batch  =>  nothing
  instance  =>  "/IN/600_20000_DI_48.txt-Q20"
  ub  =>  1.0e6
  cfg  =>  "/CFG/BPP.cfg"
data = Colored Bin Packing dataset.
number of items = 601
number of colors = 20
capacity = 15808
Items : 
	 item 1, weight= 64, color= 18
	 item 2, weight= 128, color= 2
	 item 3, weight= 128, color= 13
	 item 4, weight= 142, color= 8
	 item 5, weight= 152, color= 16
	 item 6, weight= 160, color= 9
	 item 7, weight= 176, color= 1
	 item 8, weight= 184, color= 16
	 item 9, weight= 184, color= 19
	 item 10, weight= 192, color= 0
	 item 11, weight= 192, color= 6
	 item 12, weight= 192, color= 13
	 item 13, weight= 208, color= 1
	 item 14, weight= 216, color= 12
	 item 15, weight= 252, color= 0
	 item 16, weight= 256, color= 6
	 item 17, weight= 256, color= 9
	 item 18, weight= 256, color= 15
	 item 19, weight= 256, color= 19
	 item 20, weight= 264, color= 5
	 item 21, weight= 268, color= 14
	 item 22, weight= 272, color= 2
	 item 23, weight= 272, color= 2
	 item 24, weight= 272, color= 5
	 item 25, weight= 272, color= 8
	 item 26, weight= 276, color= 2
	 item 27, weight= 280, color= 14
	 item 28, weight= 280, color= 19
	 item 29, weight= 288, color= 17
	 item 30, weight= 288, color= 18
	 item 31, weight= 292, color= 11
	 item 32, weight= 296, color= 16
	 item 33, weight= 300, color= 17
	 item 34, weight= 304, color= 7
	 item 35, weight= 312, color= 15
	 item 36, weight= 316, color= 13
	 item 37, weight= 320, color= 2
	 item 38, weight= 320, color= 7
	 item 39, weight= 320, color= 11
	 item 40, weight= 320, color= 12
	 item 41, weight= 320, color= 15
	 item 42, weight= 320, color= 18
	 item 43, weight= 320, color= 19
	 item 44, weight= 328, color= 1
	 item 45, weight= 328, color= 3
	 item 46, weight= 328, color= 12
	 item 47, weight= 332, color= 19
	 item 48, weight= 336, color= 3
	 item 49, weight= 336, color= 7
	 item 50, weight= 340, color= 12
	 item 51, weight= 340, color= 12
	 item 52, weight= 340, color= 19
	 item 53, weight= 344, color= 10
	 item 54, weight= 344, color= 13
	 item 55, weight= 344, color= 17
	 item 56, weight= 352, color= 0
	 item 57, weight= 352, color= 1
	 item 58, weight= 352, color= 9
	 item 59, weight= 360, color= 11
	 item 60, weight= 364, color= 7
	 item 61, weight= 364, color= 16
	 item 62, weight= 368, color= 1
	 item 63, weight= 368, color= 12
	 item 64, weight= 368, color= 12
	 item 65, weight= 368, color= 19
	 item 66, weight= 372, color= 15
	 item 67, weight= 384, color= 0
	 item 68, weight= 384, color= 5
	 item 69, weight= 384, color= 6
	 item 70, weight= 384, color= 9
	 item 71, weight= 384, color= 13
	 item 72, weight= 384, color= 16
	 item 73, weight= 388, color= 13
	 item 74, weight= 390, color= 19
	 item 75, weight= 392, color= 9
	 item 76, weight= 400, color= 9
	 item 77, weight= 416, color= 0
	 item 78, weight= 416, color= 8
	 item 79, weight= 416, color= 11
	 item 80, weight= 416, color= 12
	 item 81, weight= 416, color= 16
	 item 82, weight= 420, color= 16
	 item 83, weight= 424, color= 4
	 item 84, weight= 432, color= 4
	 item 85, weight= 436, color= 11
	 item 86, weight= 440, color= 16
	 item 87, weight= 442, color= 0
	 item 88, weight= 448, color= 14
	 item 89, weight= 448, color= 16
	 item 90, weight= 456, color= 10
	 item 91, weight= 458, color= 12
	 item 92, weight= 464, color= 14
	 item 93, weight= 464, color= 16
	 item 94, weight= 468, color= 18
	 item 95, weight= 480, color= 8
	 item 96, weight= 488, color= 8
	 item 97, weight= 488, color= 11
	 item 98, weight= 488, color= 17
	 item 99, weight= 494, color= 13
	 item 100, weight= 496, color= 4
	 item 101, weight= 496, color= 4
	 item 102, weight= 496, color= 8
	 item 103, weight= 496, color= 16
	 item 104, weight= 496, color= 19
	 item 105, weight= 500, color= 17
	 item 106, weight= 506, color= 8
	 item 107, weight= 512, color= 1
	 item 108, weight= 512, color= 16
	 item 109, weight= 512, color= 19
	 item 110, weight= 526, color= 6
	 item 111, weight= 528, color= 14
	 item 112, weight= 532, color= 5
	 item 113, weight= 536, color= 3
	 item 114, weight= 544, color= 3
	 item 115, weight= 544, color= 4
	 item 116, weight= 544, color= 4
	 item 117, weight= 544, color= 6
	 item 118, weight= 544, color= 6
	 item 119, weight= 544, color= 13
	 item 120, weight= 544, color= 17
	 item 121, weight= 552, color= 3
	 item 122, weight= 576, color= 1
	 item 123, weight= 576, color= 6
	 item 124, weight= 576, color= 18
	 item 125, weight= 592, color= 18
	 item 126, weight= 600, color= 4
	 item 127, weight= 608, color= 2
	 item 128, weight= 608, color= 4
	 item 129, weight= 608, color= 9
	 item 130, weight= 612, color= 13
	 item 131, weight= 618, color= 7
	 item 132, weight= 628, color= 8
	 item 133, weight= 636, color= 15
	 item 134, weight= 640, color= 7
	 item 135, weight= 656, color= 5
	 item 136, weight= 656, color= 8
	 item 137, weight= 660, color= 3
	 item 138, weight= 668, color= 4
	 item 139, weight= 672, color= 12
	 item 140, weight= 672, color= 18
	 item 141, weight= 688, color= 2
	 item 142, weight= 688, color= 19
	 item 143, weight= 696, color= 6
	 item 144, weight= 712, color= 7
	 item 145, weight= 736, color= 12
	 item 146, weight= 744, color= 19
	 item 147, weight= 746, color= 8
	 item 148, weight= 746, color= 16
	 item 149, weight= 752, color= 10
	 item 150, weight= 752, color= 13
	 item 151, weight= 752, color= 18
	 item 152, weight= 768, color= 4
	 item 153, weight= 768, color= 12
	 item 154, weight= 774, color= 11
	 item 155, weight= 796, color= 16
	 item 156, weight= 800, color= 6
	 item 157, weight= 832, color= 1
	 item 158, weight= 832, color= 4
	 item 159, weight= 832, color= 7
	 item 160, weight= 848, color= 2
	 item 161, weight= 848, color= 15
	 item 162, weight= 856, color= 9
	 item 163, weight= 856, color= 19
	 item 164, weight= 860, color= 0
	 item 165, weight= 860, color= 6
	 item 166, weight= 860, color= 11
	 item 167, weight= 864, color= 0
	 item 168, weight= 864, color= 0
	 item 169, weight= 864, color= 0
	 item 170, weight= 872, color= 2
	 item 171, weight= 912, color= 5
	 item 172, weight= 956, color= 16
	 item 173, weight= 960, color= 4
	 item 174, weight= 978, color= 6
	 item 175, weight= 984, color= 1
	 item 176, weight= 988, color= 7
	 item 177, weight= 992, color= 2
	 item 178, weight= 992, color= 10
	 item 179, weight= 1010, color= 8
	 item 180, weight= 1024, color= 4
	 item 181, weight= 1032, color= 13
	 item 182, weight= 1056, color= 15
	 item 183, weight= 1080, color= 13
	 item 184, weight= 1092, color= 10
	 item 185, weight= 1104, color= 7
	 item 186, weight= 1136, color= 13
	 item 187, weight= 1136, color= 15
	 item 188, weight= 1144, color= 13
	 item 189, weight= 1154, color= 14
	 item 190, weight= 1166, color= 7
	 item 191, weight= 1168, color= 17
	 item 192, weight= 1200, color= 0
	 item 193, weight= 1216, color= 19
	 item 194, weight= 1232, color= 8
	 item 195, weight= 1296, color= 9
	 item 196, weight= 1312, color= 3
	 item 197, weight= 1312, color= 9
	 item 198, weight= 1312, color= 10
	 item 199, weight= 1312, color= 12
	 item 200, weight= 1316, color= 3
	 item 201, weight= 1316, color= 14
	 item 202, weight= 1316, color= 17
	 item 203, weight= 1336, color= 11
	 item 204, weight= 1352, color= 17
	 item 205, weight= 1362, color= 12
	 item 206, weight= 1384, color= 17
	 item 207, weight= 1392, color= 5
	 item 208, weight= 1394, color= 17
	 item 209, weight= 1404, color= 0
	 item 210, weight= 1410, color= 2
	 item 211, weight= 1414, color= 2
	 item 212, weight= 1424, color= 8
	 item 213, weight= 1432, color= 13
	 item 214, weight= 1452, color= 1
	 item 215, weight= 1458, color= 0
	 item 216, weight= 1460, color= 5
	 item 217, weight= 1462, color= 14
	 item 218, weight= 1500, color= 4
	 item 219, weight= 1508, color= 3
	 item 220, weight= 1510, color= 16
	 item 221, weight= 1522, color= 7
	 item 222, weight= 1582, color= 7
	 item 223, weight= 1586, color= 10
	 item 224, weight= 1624, color= 3
	 item 225, weight= 1628, color= 14
	 item 226, weight= 1632, color= 12
	 item 227, weight= 1636, color= 15
	 item 228, weight= 1652, color= 0
	 item 229, weight= 1652, color= 10
	 item 230, weight= 1662, color= 6
	 item 231, weight= 1666, color= 7
	 item 232, weight= 1672, color= 11
	 item 233, weight= 1692, color= 11
	 item 234, weight= 1706, color= 14
	 item 235, weight= 1712, color= 15
	 item 236, weight= 1714, color= 12
	 item 237, weight= 1720, color= 5
	 item 238, weight= 1722, color= 5
	 item 239, weight= 1722, color= 8
	 item 240, weight= 1728, color= 2
	 item 241, weight= 1744, color= 10
	 item 242, weight= 1748, color= 6
	 item 243, weight= 1768, color= 16
	 item 244, weight= 1780, color= 19
	 item 245, weight= 1796, color= 16
	 item 246, weight= 1822, color= 5
	 item 247, weight= 1826, color= 7
	 item 248, weight= 1832, color= 0
	 item 249, weight= 1834, color= 15
	 item 250, weight= 1848, color= 10
	 item 251, weight= 1868, color= 7
	 item 252, weight= 1888, color= 3
	 item 253, weight= 1912, color= 10
	 item 254, weight= 1922, color= 10
	 item 255, weight= 1924, color= 10
	 item 256, weight= 1958, color= 6
	 item 257, weight= 1976, color= 18
	 item 258, weight= 1996, color= 3
	 item 259, weight= 2008, color= 19
	 item 260, weight= 2096, color= 13
	 item 261, weight= 2100, color= 10
	 item 262, weight= 2102, color= 3
	 item 263, weight= 2106, color= 9
	 item 264, weight= 2128, color= 7
	 item 265, weight= 2156, color= 19
	 item 266, weight= 2189, color= 9
	 item 267, weight= 2192, color= 13
	 item 268, weight= 2204, color= 15
	 item 269, weight= 2213, color= 17
	 item 270, weight= 2248, color= 4
	 item 271, weight= 2248, color= 7
	 item 272, weight= 2250, color= 5
	 item 273, weight= 2256, color= 2
	 item 274, weight= 2284, color= 7
	 item 275, weight= 2286, color= 4
	 item 276, weight= 2301, color= 6
	 item 277, weight= 2344, color= 8
	 item 278, weight= 2347, color= 13
	 item 279, weight= 2356, color= 11
	 item 280, weight= 2424, color= 17
	 item 281, weight= 2432, color= 1
	 item 282, weight= 2445, color= 7
	 item 283, weight= 2456, color= 10
	 item 284, weight= 2458, color= 6
	 item 285, weight= 2498, color= 4
	 item 286, weight= 2502, color= 17
	 item 287, weight= 2504, color= 0
	 item 288, weight= 2524, color= 2
	 item 289, weight= 2531, color= 11
	 item 290, weight= 2568, color= 5
	 item 291, weight= 2571, color= 0
	 item 292, weight= 2648, color= 0
	 item 293, weight= 2662, color= 15
	 item 294, weight= 2671, color= 19
	 item 295, weight= 2704, color= 8
	 item 296, weight= 2708, color= 19
	 item 297, weight= 2736, color= 9
	 item 298, weight= 2753, color= 18
	 item 299, weight= 2762, color= 0
	 item 300, weight= 2772, color= 6
	 item 301, weight= 2792, color= 14
	 item 302, weight= 2800, color= 4
	 item 303, weight= 2884, color= 4
	 item 304, weight= 2893, color= 4
	 item 305, weight= 2904, color= 18
	 item 306, weight= 2916, color= 4
	 item 307, weight= 2950, color= 10
	 item 308, weight= 2982, color= 8
	 item 309, weight= 3004, color= 11
	 item 310, weight= 3040, color= 3
	 item 311, weight= 3043, color= 14
	 item 312, weight= 3082, color= 19
	 item 313, weight= 3084, color= 2
	 item 314, weight= 3097, color= 10
	 item 315, weight= 3100, color= 6
	 item 316, weight= 3128, color= 13
	 item 317, weight= 3145, color= 16
	 item 318, weight= 3202, color= 15
	 item 319, weight= 3220, color= 1
	 item 320, weight= 3248, color= 11
	 item 321, weight= 3263, color= 6
	 item 322, weight= 3264, color= 8
	 item 323, weight= 3303, color= 2
	 item 324, weight= 3304, color= 2
	 item 325, weight= 3316, color= 3
	 item 326, weight= 3354, color= 2
	 item 327, weight= 3404, color= 13
	 item 328, weight= 3408, color= 3
	 item 329, weight= 3449, color= 18
	 item 330, weight= 3528, color= 6
	 item 331, weight= 3562, color= 1
	 item 332, weight= 3585, color= 14
	 item 333, weight= 3648, color= 2
	 item 334, weight= 3684, color= 5
	 item 335, weight= 3725, color= 12
	 item 336, weight= 3731, color= 7
	 item 337, weight= 3739, color= 11
	 item 338, weight= 3782, color= 14
	 item 339, weight= 3788, color= 4
	 item 340, weight= 3848, color= 0
	 item 341, weight= 3856, color= 18
	 item 342, weight= 3879, color= 16
	 item 343, weight= 3880, color= 6
	 item 344, weight= 3880, color= 14
	 item 345, weight= 3987, color= 5
	 item 346, weight= 4144, color= 13
	 item 347, weight= 4180, color= 6
	 item 348, weight= 4241, color= 17
	 item 349, weight= 4248, color= 17
	 item 350, weight= 4294, color= 2
	 item 351, weight= 4294, color= 5
	 item 352, weight= 4296, color= 10
	 item 353, weight= 4300, color= 10
	 item 354, weight= 4306, color= 17
	 item 355, weight= 4314, color= 19
	 item 356, weight= 4322, color= 7
	 item 357, weight= 4360, color= 3
	 item 358, weight= 4371, color= 3
	 item 359, weight= 4464, color= 18
	 item 360, weight= 4572, color= 7
	 item 361, weight= 4588, color= 9
	 item 362, weight= 4781, color= 13
	 item 363, weight= 4792, color= 18
	 item 364, weight= 4836, color= 15
	 item 365, weight= 4848, color= 18
	 item 366, weight= 4872, color= 1
	 item 367, weight= 4895, color= 0
	 item 368, weight= 4916, color= 19
	 item 369, weight= 4938, color= 7
	 item 370, weight= 4942, color= 11
	 item 371, weight= 4980, color= 0
	 item 372, weight= 4984, color= 16
	 item 373, weight= 5055, color= 14
	 item 374, weight= 5072, color= 10
	 item 375, weight= 5196, color= 11
	 item 376, weight= 5232, color= 6
	 item 377, weight= 5344, color= 13
	 item 378, weight= 5436, color= 10
	 item 379, weight= 5456, color= 17
	 item 380, weight= 5467, color= 2
	 item 381, weight= 5608, color= 10
	 item 382, weight= 5624, color= 6
	 item 383, weight= 5686, color= 13
	 item 384, weight= 5690, color= 16
	 item 385, weight= 5724, color= 0
	 item 386, weight= 5781, color= 2
	 item 387, weight= 5833, color= 19
	 item 388, weight= 5864, color= 4
	 item 389, weight= 6160, color= 17
	 item 390, weight= 6184, color= 12
	 item 391, weight= 6348, color= 12
	 item 392, weight= 6396, color= 9
	 item 393, weight= 6400, color= 19
	 item 394, weight= 6417, color= 8
	 item 395, weight= 6568, color= 4
	 item 396, weight= 6576, color= 14
	 item 397, weight= 6580, color= 19
	 item 398, weight= 6582, color= 1
	 item 399, weight= 6585, color= 17
	 item 400, weight= 6586, color= 11
	 item 401, weight= 6587, color= 18
	 item 402, weight= 6588, color= 0
	 item 403, weight= 6696, color= 17
	 item 404, weight= 7304, color= 4
	 item 405, weight= 7905, color= 16
	 item 406, weight= 7906, color= 18
	 item 407, weight= 7907, color= 14
	 item 408, weight= 7908, color= 2
	 item 409, weight= 7912, color= 7
	 item 410, weight= 7914, color= 14
	 item 411, weight= 7916, color= 11
	 item 412, weight= 7920, color= 19
	 item 413, weight= 7944, color= 11
	 item 414, weight= 8008, color= 14
	 item 415, weight= 8392, color= 4
	 item 416, weight= 8432, color= 0
	 item 417, weight= 8776, color= 7
	 item 418, weight= 8809, color= 3
	 item 419, weight= 8873, color= 3
	 item 420, weight= 8897, color= 13
	 item 421, weight= 8916, color= 6
	 item 422, weight= 8924, color= 0
	 item 423, weight= 8940, color= 5
	 item 424, weight= 8982, color= 7
	 item 425, weight= 8986, color= 10
	 item 426, weight= 9096, color= 1
	 item 427, weight= 9249, color= 0
	 item 428, weight= 9292, color= 6
	 item 429, weight= 9296, color= 12
	 item 430, weight= 9352, color= 13
	 item 431, weight= 9552, color= 4
	 item 432, weight= 9580, color= 10
	 item 433, weight= 9743, color= 16
	 item 434, weight= 9832, color= 17
	 item 435, weight= 9836, color= 16
	 item 436, weight= 9878, color= 19
	 item 437, weight= 9886, color= 2
	 item 438, weight= 9888, color= 5
	 item 439, weight= 9935, color= 4
	 item 440, weight= 9976, color= 7
	 item 441, weight= 10071, color= 16
	 item 442, weight= 10096, color= 17
	 item 443, weight= 10324, color= 18
	 item 444, weight= 10472, color= 7
	 item 445, weight= 10480, color= 6
	 item 446, weight= 10524, color= 8
	 item 447, weight= 10544, color= 18
	 item 448, weight= 10565, color= 6
	 item 449, weight= 10584, color= 7
	 item 450, weight= 10588, color= 11
	 item 451, weight= 10626, color= 10
	 item 452, weight= 10634, color= 7
	 item 453, weight= 10642, color= 13
	 item 454, weight= 10652, color= 12
	 item 455, weight= 10658, color= 10
	 item 456, weight= 10664, color= 15
	 item 457, weight= 10719, color= 9
	 item 458, weight= 10728, color= 2
	 item 459, weight= 10780, color= 11
	 item 460, weight= 10796, color= 5
	 item 461, weight= 10864, color= 0
	 item 462, weight= 10944, color= 3
	 item 463, weight= 11025, color= 11
	 item 464, weight= 11155, color= 14
	 item 465, weight= 11160, color= 0
	 item 466, weight= 11184, color= 19
	 item 467, weight= 11208, color= 15
	 item 468, weight= 11262, color= 2
	 item 469, weight= 11268, color= 6
	 item 470, weight= 11274, color= 2
	 item 471, weight= 11323, color= 18
	 item 472, weight= 11331, color= 19
	 item 473, weight= 11339, color= 18
	 item 474, weight= 11388, color= 12
	 item 475, weight= 11528, color= 5
	 item 476, weight= 11534, color= 3
	 item 477, weight= 11592, color= 0
	 item 478, weight= 11671, color= 3
	 item 479, weight= 11728, color= 4
	 item 480, weight= 11732, color= 1
	 item 481, weight= 11786, color= 12
	 item 482, weight= 11833, color= 9
	 item 483, weight= 11836, color= 2
	 item 484, weight= 11845, color= 17
	 item 485, weight= 11848, color= 0
	 item 486, weight= 11920, color= 17
	 item 487, weight= 11970, color= 6
	 item 488, weight= 12035, color= 9
	 item 489, weight= 12072, color= 13
	 item 490, weight= 12093, color= 0
	 item 491, weight= 12114, color= 6
	 item 492, weight= 12116, color= 3
	 item 493, weight= 12157, color= 9
	 item 494, weight= 12192, color= 11
	 item 495, weight= 12204, color= 2
	 item 496, weight= 12234, color= 16
	 item 497, weight= 12268, color= 6
	 item 498, weight= 12328, color= 2
	 item 499, weight= 12348, color= 6
	 item 500, weight= 12403, color= 6
	 item 501, weight= 12427, color= 5
	 item 502, weight= 12464, color= 16
	 item 503, weight= 12472, color= 18
	 item 504, weight= 12486, color= 17
	 item 505, weight= 12494, color= 0
	 item 506, weight= 12516, color= 3
	 item 507, weight= 12528, color= 7
	 item 508, weight= 12529, color= 13
	 item 509, weight= 12564, color= 6
	 item 510, weight= 12592, color= 5
	 item 511, weight= 12605, color= 5
	 item 512, weight= 12618, color= 19
	 item 513, weight= 12628, color= 6
	 item 514, weight= 12664, color= 9
	 item 515, weight= 12692, color= 18
	 item 516, weight= 12725, color= 16
	 item 517, weight= 12728, color= 10
	 item 518, weight= 12771, color= 4
	 item 519, weight= 12788, color= 5
	 item 520, weight= 12806, color= 1
	 item 521, weight= 12808, color= 18
	 item 522, weight= 12814, color= 3
	 item 523, weight= 12872, color= 8
	 item 524, weight= 12875, color= 1
	 item 525, weight= 12988, color= 4
	 item 526, weight= 12993, color= 13
	 item 527, weight= 13000, color= 12
	 item 528, weight= 13049, color= 11
	 item 529, weight= 13066, color= 2
	 item 530, weight= 13070, color= 10
	 item 531, weight= 13076, color= 12
	 item 532, weight= 13110, color= 4
	 item 533, weight= 13128, color= 6
	 item 534, weight= 13136, color= 11
	 item 535, weight= 13153, color= 10
	 item 536, weight= 13164, color= 6
	 item 537, weight= 13183, color= 4
	 item 538, weight= 13192, color= 3
	 item 539, weight= 13200, color= 5
	 item 540, weight= 13228, color= 5
	 item 541, weight= 13256, color= 1
	 item 542, weight= 13264, color= 12
	 item 543, weight= 13282, color= 4
	 item 544, weight= 13290, color= 1
	 item 545, weight= 13292, color= 1
	 item 546, weight= 13328, color= 12
	 item 547, weight= 13416, color= 18
	 item 548, weight= 13420, color= 14
	 item 549, weight= 13448, color= 12
	 item 550, weight= 13462, color= 17
	 item 551, weight= 13500, color= 11
	 item 552, weight= 13502, color= 11
	 item 553, weight= 13528, color= 0
	 item 554, weight= 13572, color= 9
	 item 555, weight= 13592, color= 11
	 item 556, weight= 13600, color= 7
	 item 557, weight= 13610, color= 5
	 item 558, weight= 13618, color= 12
	 item 559, weight= 13624, color= 2
	 item 560, weight= 13626, color= 4
	 item 561, weight= 13660, color= 6
	 item 562, weight= 13688, color= 4
	 item 563, weight= 13700, color= 10
	 item 564, weight= 13716, color= 0
	 item 565, weight= 13742, color= 18
	 item 566, weight= 13744, color= 4
	 item 567, weight= 13746, color= 2
	 item 568, weight= 13752, color= 11
	 item 569, weight= 13754, color= 18
	 item 570, weight= 13762, color= 5
	 item 571, weight= 13776, color= 9
	 item 572, weight= 13780, color= 8
	 item 573, weight= 13810, color= 13
	 item 574, weight= 13816, color= 14
	 item 575, weight= 13818, color= 11
	 item 576, weight= 13828, color= 1
	 item 577, weight= 13864, color= 10
	 item 578, weight= 13906, color= 9
	 item 579, weight= 13908, color= 0
	 item 580, weight= 13914, color= 11
	 item 581, weight= 13956, color= 18
	 item 582, weight= 13972, color= 19
	 item 583, weight= 13998, color= 2
	 item 584, weight= 14004, color= 6
	 item 585, weight= 14054, color= 12
	 item 586, weight= 14062, color= 11
	 item 587, weight= 14068, color= 6
	 item 588, weight= 14104, color= 4
	 item 589, weight= 14110, color= 12
	 item 590, weight= 14118, color= 12
	 item 591, weight= 14124, color= 0
	 item 592, weight= 14128, color= 0
	 item 593, weight= 14132, color= 0
	 item 594, weight= 14138, color= 13
	 item 595, weight= 14152, color= 1
	 item 596, weight= 14160, color= 8
	 item 597, weight= 14178, color= 14
	 item 598, weight= 14186, color= 3
	 item 599, weight= 14196, color= 13
	 item 600, weight= 14200, color= 18
	 item 601, weight= 14216, color= 8

VRPSolver warning: Interval set for resource 1 on source node (when source != sink) is ignored (by definition is [0.0,0.0])
[41m solve [00m
~~~~~~~~~~~~~~~~~~~~~~~~~~~~~~~~~~~~~~~~~~~~~~~~~~~~~~~~~~~~~~~~~~~~~~~~~~~~~~
VRPSolver v0.4.1, 24/03/2021. Web: vrpsolver.math.u-bordeaux.fr
Corresponds to the solver by Pessoa, Sadykov, Uchoa and Vanderbeck (2020)
Paper: dx.doi.org/10.1007/s10107-020-01523-z
USE THIS CODE ONLY FOR ACADEMIC PURPOSES AT YOUR OWN RISK
~~~~~~~~~~~~~~~~~~~~~~~~~~~~~~~~~~~~~~~~~~~~~~~~~~~~~~~~~~~~~~~~~~~~~~~~~~~~~~
BaPCod v053, 24/03/2021, © Inria Bordeaux, France
~~~~~~~~~~~~~~~~~~~~~~~~~~~~~~~~~~~~~~~~~~~~~~~~~~~~~~~~~~~~~~~~~~~~~~~~~~~~~~
VRPSolver parameters:
GlobalTimeLimit = 1800
MaxNbOfBBtreeNodeTreated = 100000
treeSearchStrategy = 1
RCSPstopCutGenTimeThresholdInPricing = 10
RCSPhardTimeThresholdInPricing = 20
RCSPnumberOfBucketsPerVertex = 2000
RCSPdynamicBucketSteps = 0
RCSPuseBidirectionalSearch = 1
RCSPapplyReducedCostFixing = 1
RCSPredCostFixingFalseGap = 0
RCSPmaxNumOfColsPerIteration = 100
RCSPmaxNumOfColsPerExactIteration = 100
RCSPheurLabelingStrategy = 4
StabilizationMinPhaseOfStage = 1
RCSPmaxNumOfLabelsInEnumeration = 100000
RCSPmaxNumOfEnumeratedSolutions = 1000000
RCSPmaxNumOfEnumSolutionsForMIP = 100000
RCSPinitNGneighbourhoodSize = 0
RCSPmaxNGneighbourhoodSize = 0
RCSPrankOneCutsMaxNumPerRound = 100
RCSPrankOneCutsMaxNumRows = -1
RCSPrankOneCutsMemoryType = 2
CutTailingOffThreshold = 0.02
CutTailingOffCounterThreshold = 3
SafeDualBoundScaleFactor = -1
StrongBranchingPhaseOneCandidatesNumber = 100
StrongBranchingPhaseOneTreeSizeEstimRatio = 0.3
StrongBranchingPhaseTwoCandidatesNumber = 1
StrongBranchingPhaseTwoTreeSizeEstimRatio = 0.1
MaxTimeForRestrictedMasterIpHeur = -1
DivingHeurUseDepthLimit = 0
MaxLDSbreadth = 3
MaxLDSdepth = 2
New model incumbent solution 1e+06, TIME = 0h0m0s3t = 3
Model is built TIME = 0h0m5s17t = 517
************************************************************************************************
**** BaB tree root node
**** Local DB = -1e+12, global bounds : [ -1e+12 , 1e+06 ], TIME = 0h0m5s17t = 517
**** 1 open nodes, 0 columns (0 active), 0 dyn. constrs. (0 active), 1204 art. vars. (1204 active)
************************************************************************************************
<DWph=2> <it= 10> <et=13.84> <Mt= 0.01> <Spt= 8.64> <nCl=1000> <DB=-51490311316.3883> <Mlp=705843435.5409> <PB=1000000> 
<DWph=2> <it= 20> <et=22.48> <Mt= 0.02> <Spt= 8.62> <nCl=1000> <DB=-40559319842.4674> <Mlp=692334709.8252> <PB=1000000> 
<DWph=2> <it= 30> <et=31.12> <Mt= 0.02> <Spt= 8.61> <nCl=1000> <DB=-34507278329.3132> <Mlp=671312212.3396> <PB=1000000> 
<DWph=2> <it= 40> <et=39.87> <Mt= 0.04> <Spt= 8.71> <nCl=1000> <DB=-31652809654.1191> <Mlp=655454829.8460> <PB=1000000> 
<DWph=2> <it= 50> <et=48.52> <Mt= 0.04> <Spt= 8.60> <nCl=1000> <DB=-28661297965.3458> <Mlp=634120053.1384> <PB=1000000> 
<DWph=2> <it= 60> <et=57.10> <Mt= 0.07> <Spt= 8.51> <nCl=1000> <DB=-24745200705.7974> <Mlp=616834032.5123> <PB=1000000> 
<DWph=2> <it= 70> <et=65.69> <Mt= 0.07> <Spt= 8.51> <nCl=1000> <DB=-21758669950.4581> <Mlp=595738170.6167> <PB=1000000> 
<DWph=2> <it= 80> <et=74.05> <Mt= 0.10> <Spt= 8.26> <nCl=1000> <DB=-19070039009.8515> <Mlp=575376846.9936> <PB=1000000> 
<DWph=2> <it= 90> <et=82.48> <Mt= 0.11> <Spt= 8.31> <nCl=1000> <DB=-15994280341.0919> <Mlp=552785535.2028> <PB=1000000> 
<DWph=2> <it=100> <et=90.78> <Mt= 0.16> <Spt= 8.14> <nCl=1000> <DB=-12449905893.9498> <Mlp=529436141.4764> <PB=1000000> 
<DWph=2> <it=110> <et=98.95> <Mt= 0.15> <Spt= 7.94> <nCl=1000> <DB=-10559609009.3172> <Mlp=509847204.9159> <PB=1000000> 
<DWph=2> <it=120> <et=106.89> <Mt= 0.17> <Spt= 7.77> <nCl=1000> <DB=-9392314750.8361> <Mlp=493390420.6827> <PB=1000000> 
<DWph=2> <it=130> <et=114.85> <Mt= 0.20> <Spt= 7.75> <nCl=1000> <DB=-7639832641.6396> <Mlp=474001778.0618> <PB=1000000> 
