Application parameters:
  batch  =>  nothing
  instance  =>  "/IN/600_20000_DI_42.txt-Q5"
  ub  =>  1.0e6
  cfg  =>  "/CFG/BPP.cfg"
data = Colored Bin Packing dataset.
number of items = 601
number of colors = 5
capacity = 16400
Items : 
	 item 1, weight= 58, color= 4
	 item 2, weight= 112, color= 3
	 item 3, weight= 140, color= 1
	 item 4, weight= 166, color= 2
	 item 5, weight= 168, color= 1
	 item 6, weight= 168, color= 2
	 item 7, weight= 208, color= 1
	 item 8, weight= 208, color= 3
	 item 9, weight= 214, color= 3
	 item 10, weight= 224, color= 1
	 item 11, weight= 256, color= 3
	 item 12, weight= 256, color= 4
	 item 13, weight= 264, color= 2
	 item 14, weight= 272, color= 0
	 item 15, weight= 272, color= 1
	 item 16, weight= 272, color= 1
	 item 17, weight= 272, color= 3
	 item 18, weight= 272, color= 4
	 item 19, weight= 280, color= 0
	 item 20, weight= 280, color= 1
	 item 21, weight= 280, color= 2
	 item 22, weight= 288, color= 1
	 item 23, weight= 288, color= 2
	 item 24, weight= 288, color= 2
	 item 25, weight= 288, color= 4
	 item 26, weight= 288, color= 4
	 item 27, weight= 296, color= 1
	 item 28, weight= 296, color= 2
	 item 29, weight= 296, color= 3
	 item 30, weight= 300, color= 0
	 item 31, weight= 300, color= 1
	 item 32, weight= 300, color= 3
	 item 33, weight= 304, color= 1
	 item 34, weight= 304, color= 2
	 item 35, weight= 308, color= 0
	 item 36, weight= 308, color= 1
	 item 37, weight= 308, color= 1
	 item 38, weight= 308, color= 4
	 item 39, weight= 312, color= 0
	 item 40, weight= 312, color= 2
	 item 41, weight= 316, color= 0
	 item 42, weight= 320, color= 0
	 item 43, weight= 320, color= 1
	 item 44, weight= 320, color= 2
	 item 45, weight= 320, color= 3
	 item 46, weight= 324, color= 4
	 item 47, weight= 336, color= 2
	 item 48, weight= 336, color= 4
	 item 49, weight= 336, color= 4
	 item 50, weight= 340, color= 2
	 item 51, weight= 344, color= 0
	 item 52, weight= 344, color= 2
	 item 53, weight= 348, color= 3
	 item 54, weight= 348, color= 4
	 item 55, weight= 352, color= 0
	 item 56, weight= 352, color= 2
	 item 57, weight= 364, color= 0
	 item 58, weight= 364, color= 4
	 item 59, weight= 368, color= 1
	 item 60, weight= 368, color= 1
	 item 61, weight= 368, color= 4
	 item 62, weight= 370, color= 2
	 item 63, weight= 372, color= 1
	 item 64, weight= 378, color= 4
	 item 65, weight= 380, color= 0
	 item 66, weight= 384, color= 2
	 item 67, weight= 388, color= 2
	 item 68, weight= 392, color= 3
	 item 69, weight= 400, color= 0
	 item 70, weight= 400, color= 3
	 item 71, weight= 406, color= 0
	 item 72, weight= 406, color= 3
	 item 73, weight= 408, color= 2
	 item 74, weight= 408, color= 4
	 item 75, weight= 416, color= 0
	 item 76, weight= 416, color= 0
	 item 77, weight= 416, color= 1
	 item 78, weight= 416, color= 1
	 item 79, weight= 418, color= 3
	 item 80, weight= 420, color= 1
	 item 81, weight= 420, color= 1
	 item 82, weight= 420, color= 3
	 item 83, weight= 426, color= 4
	 item 84, weight= 428, color= 4
	 item 85, weight= 430, color= 0
	 item 86, weight= 430, color= 2
	 item 87, weight= 432, color= 0
	 item 88, weight= 434, color= 0
	 item 89, weight= 440, color= 0
	 item 90, weight= 440, color= 2
	 item 91, weight= 444, color= 3
	 item 92, weight= 444, color= 4
	 item 93, weight= 448, color= 0
	 item 94, weight= 448, color= 0
	 item 95, weight= 448, color= 4
	 item 96, weight= 456, color= 3
	 item 97, weight= 460, color= 2
	 item 98, weight= 462, color= 1
	 item 99, weight= 464, color= 0
	 item 100, weight= 464, color= 1
	 item 101, weight= 464, color= 4
	 item 102, weight= 472, color= 3
	 item 103, weight= 480, color= 0
	 item 104, weight= 480, color= 0
	 item 105, weight= 488, color= 0
	 item 106, weight= 492, color= 1
	 item 107, weight= 496, color= 0
	 item 108, weight= 496, color= 3
	 item 109, weight= 508, color= 3
	 item 110, weight= 512, color= 1
	 item 111, weight= 516, color= 1
	 item 112, weight= 518, color= 0
	 item 113, weight= 520, color= 1
	 item 114, weight= 524, color= 0
	 item 115, weight= 528, color= 1
	 item 116, weight= 540, color= 1
	 item 117, weight= 544, color= 1
	 item 118, weight= 548, color= 3
	 item 119, weight= 552, color= 3
	 item 120, weight= 552, color= 4
	 item 121, weight= 574, color= 1
	 item 122, weight= 576, color= 3
	 item 123, weight= 584, color= 0
	 item 124, weight= 584, color= 1
	 item 125, weight= 592, color= 0
	 item 126, weight= 592, color= 2
	 item 127, weight= 596, color= 4
	 item 128, weight= 600, color= 1
	 item 129, weight= 608, color= 4
	 item 130, weight= 632, color= 1
	 item 131, weight= 640, color= 1
	 item 132, weight= 640, color= 2
	 item 133, weight= 654, color= 0
	 item 134, weight= 664, color= 0
	 item 135, weight= 668, color= 2
	 item 136, weight= 672, color= 1
	 item 137, weight= 678, color= 1
	 item 138, weight= 678, color= 4
	 item 139, weight= 680, color= 0
	 item 140, weight= 700, color= 2
	 item 141, weight= 712, color= 1
	 item 142, weight= 714, color= 0
	 item 143, weight= 718, color= 4
	 item 144, weight= 728, color= 2
	 item 145, weight= 732, color= 0
	 item 146, weight= 736, color= 4
	 item 147, weight= 744, color= 1
	 item 148, weight= 748, color= 0
	 item 149, weight= 752, color= 0
	 item 150, weight= 752, color= 3
	 item 151, weight= 784, color= 0
	 item 152, weight= 784, color= 1
	 item 153, weight= 794, color= 0
	 item 154, weight= 802, color= 3
	 item 155, weight= 814, color= 3
	 item 156, weight= 824, color= 2
	 item 157, weight= 832, color= 4
	 item 158, weight= 864, color= 1
	 item 159, weight= 880, color= 2
	 item 160, weight= 904, color= 4
	 item 161, weight= 906, color= 3
	 item 162, weight= 910, color= 3
	 item 163, weight= 912, color= 2
	 item 164, weight= 920, color= 4
	 item 165, weight= 928, color= 3
	 item 166, weight= 950, color= 3
	 item 167, weight= 960, color= 1
	 item 168, weight= 1008, color= 3
	 item 169, weight= 1016, color= 3
	 item 170, weight= 1032, color= 0
	 item 171, weight= 1040, color= 3
	 item 172, weight= 1040, color= 4
	 item 173, weight= 1040, color= 4
	 item 174, weight= 1042, color= 2
	 item 175, weight= 1042, color= 4
	 item 176, weight= 1050, color= 2
	 item 177, weight= 1054, color= 1
	 item 178, weight= 1054, color= 2
	 item 179, weight= 1058, color= 2
	 item 180, weight= 1072, color= 0
	 item 181, weight= 1072, color= 3
	 item 182, weight= 1072, color= 4
	 item 183, weight= 1078, color= 4
	 item 184, weight= 1176, color= 0
	 item 185, weight= 1176, color= 3
	 item 186, weight= 1188, color= 4
	 item 187, weight= 1192, color= 3
	 item 188, weight= 1194, color= 3
	 item 189, weight= 1196, color= 2
	 item 190, weight= 1198, color= 1
	 item 191, weight= 1198, color= 4
	 item 192, weight= 1200, color= 0
	 item 193, weight= 1202, color= 4
	 item 194, weight= 1222, color= 0
	 item 195, weight= 1248, color= 4
	 item 196, weight= 1344, color= 2
	 item 197, weight= 1360, color= 0
	 item 198, weight= 1360, color= 1
	 item 199, weight= 1360, color= 3
	 item 200, weight= 1364, color= 1
	 item 201, weight= 1364, color= 2
	 item 202, weight= 1364, color= 2
	 item 203, weight= 1366, color= 1
	 item 204, weight= 1380, color= 1
	 item 205, weight= 1388, color= 1
	 item 206, weight= 1400, color= 1
	 item 207, weight= 1420, color= 4
	 item 208, weight= 1422, color= 2
	 item 209, weight= 1432, color= 1
	 item 210, weight= 1456, color= 2
	 item 211, weight= 1458, color= 1
	 item 212, weight= 1460, color= 4
	 item 213, weight= 1498, color= 4
	 item 214, weight= 1500, color= 0
	 item 215, weight= 1502, color= 1
	 item 216, weight= 1510, color= 2
	 item 217, weight= 1512, color= 4
	 item 218, weight= 1518, color= 2
	 item 219, weight= 1528, color= 4
	 item 220, weight= 1542, color= 1
	 item 221, weight= 1550, color= 1
	 item 222, weight= 1556, color= 1
	 item 223, weight= 1558, color= 0
	 item 224, weight= 1558, color= 1
	 item 225, weight= 1574, color= 0
	 item 226, weight= 1596, color= 1
	 item 227, weight= 1618, color= 2
	 item 228, weight= 1638, color= 4
	 item 229, weight= 1640, color= 1
	 item 230, weight= 1644, color= 2
	 item 231, weight= 1648, color= 4
	 item 232, weight= 1710, color= 1
	 item 233, weight= 1722, color= 1
	 item 234, weight= 1724, color= 0
	 item 235, weight= 1732, color= 1
	 item 236, weight= 1742, color= 1
	 item 237, weight= 1758, color= 4
	 item 238, weight= 1764, color= 1
	 item 239, weight= 1768, color= 0
	 item 240, weight= 1829, color= 4
	 item 241, weight= 1832, color= 1
	 item 242, weight= 1838, color= 1
	 item 243, weight= 1861, color= 1
	 item 244, weight= 1874, color= 4
	 item 245, weight= 1876, color= 4
	 item 246, weight= 1884, color= 0
	 item 247, weight= 1899, color= 0
	 item 248, weight= 1912, color= 1
	 item 249, weight= 1918, color= 2
	 item 250, weight= 1945, color= 0
	 item 251, weight= 1970, color= 1
	 item 252, weight= 2008, color= 4
	 item 253, weight= 2012, color= 2
	 item 254, weight= 2035, color= 1
	 item 255, weight= 2039, color= 2
	 item 256, weight= 2052, color= 0
	 item 257, weight= 2054, color= 3
	 item 258, weight= 2064, color= 1
	 item 259, weight= 2085, color= 0
	 item 260, weight= 2099, color= 3
	 item 261, weight= 2100, color= 1
	 item 262, weight= 2102, color= 4
	 item 263, weight= 2114, color= 2
	 item 264, weight= 2122, color= 4
	 item 265, weight= 2131, color= 1
	 item 266, weight= 2151, color= 1
	 item 267, weight= 2152, color= 4
	 item 268, weight= 2155, color= 2
	 item 269, weight= 2179, color= 1
	 item 270, weight= 2210, color= 3
	 item 271, weight= 2216, color= 2
	 item 272, weight= 2225, color= 1
	 item 273, weight= 2243, color= 3
	 item 274, weight= 2256, color= 4
	 item 275, weight= 2276, color= 0
	 item 276, weight= 2302, color= 1
	 item 277, weight= 2309, color= 1
	 item 278, weight= 2316, color= 0
	 item 279, weight= 2331, color= 2
	 item 280, weight= 2342, color= 4
	 item 281, weight= 2364, color= 4
	 item 282, weight= 2376, color= 3
	 item 283, weight= 2393, color= 0
	 item 284, weight= 2402, color= 0
	 item 285, weight= 2407, color= 1
	 item 286, weight= 2478, color= 0
	 item 287, weight= 2493, color= 0
	 item 288, weight= 2496, color= 4
	 item 289, weight= 2508, color= 4
	 item 290, weight= 2511, color= 2
	 item 291, weight= 2520, color= 3
	 item 292, weight= 2545, color= 4
	 item 293, weight= 2595, color= 3
	 item 294, weight= 2600, color= 3
	 item 295, weight= 2614, color= 1
	 item 296, weight= 2642, color= 3
	 item 297, weight= 2644, color= 3
	 item 298, weight= 2703, color= 3
	 item 299, weight= 2743, color= 0
	 item 300, weight= 2760, color= 0
	 item 301, weight= 2764, color= 0
	 item 302, weight= 2778, color= 3
	 item 303, weight= 2865, color= 4
	 item 304, weight= 2877, color= 3
	 item 305, weight= 2918, color= 1
	 item 306, weight= 2925, color= 3
	 item 307, weight= 2952, color= 1
	 item 308, weight= 2956, color= 1
	 item 309, weight= 2974, color= 4
	 item 310, weight= 2982, color= 4
	 item 311, weight= 3002, color= 3
	 item 312, weight= 3009, color= 4
	 item 313, weight= 3032, color= 3
	 item 314, weight= 3032, color= 3
	 item 315, weight= 3120, color= 2
	 item 316, weight= 3167, color= 1
	 item 317, weight= 3208, color= 1
	 item 318, weight= 3212, color= 3
	 item 319, weight= 3277, color= 3
	 item 320, weight= 3322, color= 4
	 item 321, weight= 3350, color= 1
	 item 322, weight= 3364, color= 1
	 item 323, weight= 3393, color= 2
	 item 324, weight= 3394, color= 4
	 item 325, weight= 3432, color= 2
	 item 326, weight= 3444, color= 4
	 item 327, weight= 3571, color= 3
	 item 328, weight= 3573, color= 0
	 item 329, weight= 3597, color= 1
	 item 330, weight= 3658, color= 3
	 item 331, weight= 3663, color= 0
	 item 332, weight= 3678, color= 2
	 item 333, weight= 3688, color= 3
	 item 334, weight= 3737, color= 2
	 item 335, weight= 3750, color= 4
	 item 336, weight= 3764, color= 1
	 item 337, weight= 3830, color= 3
	 item 338, weight= 3892, color= 3
	 item 339, weight= 3902, color= 4
	 item 340, weight= 3927, color= 3
	 item 341, weight= 3973, color= 0
	 item 342, weight= 4008, color= 1
	 item 343, weight= 4013, color= 0
	 item 344, weight= 4073, color= 0
	 item 345, weight= 4108, color= 0
	 item 346, weight= 4142, color= 2
	 item 347, weight= 4145, color= 2
	 item 348, weight= 4170, color= 1
	 item 349, weight= 4376, color= 3
	 item 350, weight= 4379, color= 0
	 item 351, weight= 4421, color= 2
	 item 352, weight= 4427, color= 2
	 item 353, weight= 4444, color= 1
	 item 354, weight= 4529, color= 3
	 item 355, weight= 4531, color= 0
	 item 356, weight= 4555, color= 3
	 item 357, weight= 4606, color= 2
	 item 358, weight= 4642, color= 2
	 item 359, weight= 4755, color= 1
	 item 360, weight= 4824, color= 3
	 item 361, weight= 5084, color= 1
	 item 362, weight= 5105, color= 2
	 item 363, weight= 5124, color= 4
	 item 364, weight= 5148, color= 3
	 item 365, weight= 5166, color= 0
	 item 366, weight= 5205, color= 0
	 item 367, weight= 5210, color= 1
	 item 368, weight= 5211, color= 4
	 item 369, weight= 5219, color= 0
	 item 370, weight= 5251, color= 1
	 item 371, weight= 5271, color= 1
	 item 372, weight= 5275, color= 3
	 item 373, weight= 5296, color= 2
	 item 374, weight= 5299, color= 4
	 item 375, weight= 5364, color= 4
	 item 376, weight= 5368, color= 2
	 item 377, weight= 5391, color= 0
	 item 378, weight= 5890, color= 3
	 item 379, weight= 5900, color= 4
	 item 380, weight= 5958, color= 3
	 item 381, weight= 5969, color= 0
	 item 382, weight= 5971, color= 0
	 item 383, weight= 5982, color= 2
	 item 384, weight= 5991, color= 2
	 item 385, weight= 5995, color= 2
	 item 386, weight= 6019, color= 3
	 item 387, weight= 6024, color= 1
	 item 388, weight= 6025, color= 0
	 item 389, weight= 6064, color= 4
	 item 390, weight= 6111, color= 0
	 item 391, weight= 6196, color= 4
	 item 392, weight= 6292, color= 3
	 item 393, weight= 6452, color= 0
	 item 394, weight= 6808, color= 2
	 item 395, weight= 6818, color= 4
	 item 396, weight= 6822, color= 2
	 item 397, weight= 6828, color= 0
	 item 398, weight= 6830, color= 4
	 item 399, weight= 6831, color= 3
	 item 400, weight= 6833, color= 2
	 item 401, weight= 6836, color= 4
	 item 402, weight= 7216, color= 4
	 item 403, weight= 7736, color= 3
	 item 404, weight= 7934, color= 0
	 item 405, weight= 8096, color= 0
	 item 406, weight= 8201, color= 0
	 item 407, weight= 8202, color= 4
	 item 408, weight= 8204, color= 0
	 item 409, weight= 8205, color= 2
	 item 410, weight= 8206, color= 1
	 item 411, weight= 8212, color= 3
	 item 412, weight= 8214, color= 0
	 item 413, weight= 8216, color= 1
	 item 414, weight= 8222, color= 3
	 item 415, weight= 8248, color= 1
	 item 416, weight= 9067, color= 4
	 item 417, weight= 9176, color= 4
	 item 418, weight= 9179, color= 3
	 item 419, weight= 9207, color= 0
	 item 420, weight= 9211, color= 0
	 item 421, weight= 9222, color= 1
	 item 422, weight= 9235, color= 0
	 item 423, weight= 9239, color= 4
	 item 424, weight= 9254, color= 0
	 item 425, weight= 9324, color= 4
	 item 426, weight= 9334, color= 2
	 item 427, weight= 9372, color= 4
	 item 428, weight= 9708, color= 1
	 item 429, weight= 9868, color= 3
	 item 430, weight= 9931, color= 4
	 item 431, weight= 9960, color= 2
	 item 432, weight= 9964, color= 2
	 item 433, weight= 10043, color= 2
	 item 434, weight= 10064, color= 4
	 item 435, weight= 10071, color= 1
	 item 436, weight= 10075, color= 2
	 item 437, weight= 10099, color= 1
	 item 438, weight= 10103, color= 3
	 item 439, weight= 10139, color= 4
	 item 440, weight= 10147, color= 0
	 item 441, weight= 10150, color= 3
	 item 442, weight= 10155, color= 1
	 item 443, weight= 10202, color= 1
	 item 444, weight= 10260, color= 1
	 item 445, weight= 10308, color= 0
	 item 446, weight= 10616, color= 4
	 item 447, weight= 10695, color= 2
	 item 448, weight= 10807, color= 0
	 item 449, weight= 10830, color= 0
	 item 450, weight= 10874, color= 1
	 item 451, weight= 10935, color= 0
	 item 452, weight= 10963, color= 1
	 item 453, weight= 10967, color= 4
	 item 454, weight= 11076, color= 2
	 item 455, weight= 11084, color= 4
	 item 456, weight= 11160, color= 2
	 item 457, weight= 11371, color= 1
	 item 458, weight= 11398, color= 1
	 item 459, weight= 11434, color= 1
	 item 460, weight= 11513, color= 0
	 item 461, weight= 11548, color= 2
	 item 462, weight= 11577, color= 0
	 item 463, weight= 11585, color= 4
	 item 464, weight= 11601, color= 1
	 item 465, weight= 11608, color= 2
	 item 466, weight= 11633, color= 1
	 item 467, weight= 11665, color= 3
	 item 468, weight= 11689, color= 3
	 item 469, weight= 11870, color= 3
	 item 470, weight= 11884, color= 0
	 item 471, weight= 11902, color= 0
	 item 472, weight= 11976, color= 4
	 item 473, weight= 11982, color= 3
	 item 474, weight= 11990, color= 3
	 item 475, weight= 12014, color= 4
	 item 476, weight= 12085, color= 3
	 item 477, weight= 12113, color= 3
	 item 478, weight= 12117, color= 4
	 item 479, weight= 12228, color= 4
	 item 480, weight= 12276, color= 2
	 item 481, weight= 12296, color= 1
	 item 482, weight= 12329, color= 4
	 item 483, weight= 12382, color= 0
	 item 484, weight= 12414, color= 0
	 item 485, weight= 12441, color= 2
	 item 486, weight= 12469, color= 3
	 item 487, weight= 12497, color= 3
	 item 488, weight= 12548, color= 3
	 item 489, weight= 12552, color= 3
	 item 490, weight= 12601, color= 2
	 item 491, weight= 12690, color= 2
	 item 492, weight= 12776, color= 2
	 item 493, weight= 12780, color= 3
	 item 494, weight= 12791, color= 4
	 item 495, weight= 12802, color= 0
	 item 496, weight= 12834, color= 3
	 item 497, weight= 12860, color= 3
	 item 498, weight= 12891, color= 3
	 item 499, weight= 12949, color= 3
	 item 500, weight= 12952, color= 3
	 item 501, weight= 13038, color= 3
	 item 502, weight= 13064, color= 2
	 item 503, weight= 13070, color= 2
	 item 504, weight= 13073, color= 3
	 item 505, weight= 13084, color= 0
	 item 506, weight= 13096, color= 1
	 item 507, weight= 13104, color= 0
	 item 508, weight= 13109, color= 4
	 item 509, weight= 13157, color= 0
	 item 510, weight= 13228, color= 0
	 item 511, weight= 13234, color= 0
	 item 512, weight= 13250, color= 2
	 item 513, weight= 13266, color= 2
	 item 514, weight= 13287, color= 4
	 item 515, weight= 13288, color= 1
	 item 516, weight= 13347, color= 4
	 item 517, weight= 13396, color= 1
	 item 518, weight= 13430, color= 2
	 item 519, weight= 13467, color= 1
	 item 520, weight= 13513, color= 4
	 item 521, weight= 13518, color= 2
	 item 522, weight= 13560, color= 4
	 item 523, weight= 13564, color= 4
	 item 524, weight= 13579, color= 4
	 item 525, weight= 13594, color= 3
	 item 526, weight= 13605, color= 1
	 item 527, weight= 13628, color= 4
	 item 528, weight= 13638, color= 2
	 item 529, weight= 13672, color= 4
	 item 530, weight= 13675, color= 0
	 item 531, weight= 13676, color= 3
	 item 532, weight= 13709, color= 3
	 item 533, weight= 13731, color= 0
	 item 534, weight= 13750, color= 1
	 item 535, weight= 13752, color= 3
	 item 536, weight= 13787, color= 2
	 item 537, weight= 13815, color= 3
	 item 538, weight= 13819, color= 3
	 item 539, weight= 13832, color= 1
	 item 540, weight= 13843, color= 0
	 item 541, weight= 13858, color= 0
	 item 542, weight= 13866, color= 2
	 item 543, weight= 13882, color= 2
	 item 544, weight= 13883, color= 2
	 item 545, weight= 13884, color= 3
	 item 546, weight= 13899, color= 2
	 item 547, weight= 13938, color= 2
	 item 548, weight= 13940, color= 2
	 item 549, weight= 13955, color= 0
	 item 550, weight= 13959, color= 4
	 item 551, weight= 13988, color= 2
	 item 552, weight= 14008, color= 1
	 item 553, weight= 14033, color= 3
	 item 554, weight= 14038, color= 3
	 item 555, weight= 14067, color= 3
	 item 556, weight= 14102, color= 2
	 item 557, weight= 14120, color= 0
	 item 558, weight= 14123, color= 0
	 item 559, weight= 14148, color= 3
	 item 560, weight= 14154, color= 4
	 item 561, weight= 14156, color= 0
	 item 562, weight= 14169, color= 0
	 item 563, weight= 14198, color= 2
	 item 564, weight= 14207, color= 2
	 item 565, weight= 14216, color= 1
	 item 566, weight= 14284, color= 4
	 item 567, weight= 14294, color= 4
	 item 568, weight= 14296, color= 1
	 item 569, weight= 14310, color= 3
	 item 570, weight= 14324, color= 2
	 item 571, weight= 14334, color= 0
	 item 572, weight= 14340, color= 0
	 item 573, weight= 14350, color= 4
	 item 574, weight= 14432, color= 4
	 item 575, weight= 14436, color= 0
	 item 576, weight= 14438, color= 3
	 item 577, weight= 14440, color= 4
	 item 578, weight= 14462, color= 4
	 item 579, weight= 14492, color= 4
	 item 580, weight= 14514, color= 3
	 item 581, weight= 14534, color= 3
	 item 582, weight= 14540, color= 2
	 item 583, weight= 14542, color= 3
	 item 584, weight= 14550, color= 0
	 item 585, weight= 14582, color= 2
	 item 586, weight= 14584, color= 1
	 item 587, weight= 14590, color= 1
	 item 588, weight= 14598, color= 1
	 item 589, weight= 14600, color= 1
	 item 590, weight= 14604, color= 0
	 item 591, weight= 14606, color= 4
	 item 592, weight= 14652, color= 3
	 item 593, weight= 14654, color= 1
	 item 594, weight= 14656, color= 0
	 item 595, weight= 14696, color= 4
	 item 596, weight= 14698, color= 0
	 item 597, weight= 14700, color= 4
	 item 598, weight= 14702, color= 0
	 item 599, weight= 14728, color= 2
	 item 600, weight= 14740, color= 1
	 item 601, weight= 14748, color= 2

VRPSolver warning: Interval set for resource 1 on source node (when source != sink) is ignored (by definition is [0.0,0.0])
[41m solve [00m
~~~~~~~~~~~~~~~~~~~~~~~~~~~~~~~~~~~~~~~~~~~~~~~~~~~~~~~~~~~~~~~~~~~~~~~~~~~~~~
VRPSolver v0.4.1, 24/03/2021. Web: vrpsolver.math.u-bordeaux.fr
Corresponds to the solver by Pessoa, Sadykov, Uchoa and Vanderbeck (2020)
Paper: dx.doi.org/10.1007/s10107-020-01523-z
USE THIS CODE ONLY FOR ACADEMIC PURPOSES AT YOUR OWN RISK
~~~~~~~~~~~~~~~~~~~~~~~~~~~~~~~~~~~~~~~~~~~~~~~~~~~~~~~~~~~~~~~~~~~~~~~~~~~~~~
BaPCod v053, 24/03/2021, © Inria Bordeaux, France
~~~~~~~~~~~~~~~~~~~~~~~~~~~~~~~~~~~~~~~~~~~~~~~~~~~~~~~~~~~~~~~~~~~~~~~~~~~~~~
VRPSolver parameters:
GlobalTimeLimit = 1800
MaxNbOfBBtreeNodeTreated = 100000
treeSearchStrategy = 1
RCSPstopCutGenTimeThresholdInPricing = 10
RCSPhardTimeThresholdInPricing = 20
RCSPnumberOfBucketsPerVertex = 2000
RCSPdynamicBucketSteps = 0
RCSPuseBidirectionalSearch = 1
RCSPapplyReducedCostFixing = 1
RCSPredCostFixingFalseGap = 0
RCSPmaxNumOfColsPerIteration = 100
RCSPmaxNumOfColsPerExactIteration = 100
RCSPheurLabelingStrategy = 4
StabilizationMinPhaseOfStage = 1
RCSPmaxNumOfLabelsInEnumeration = 100000
RCSPmaxNumOfEnumeratedSolutions = 1000000
RCSPmaxNumOfEnumSolutionsForMIP = 100000
RCSPinitNGneighbourhoodSize = 0
RCSPmaxNGneighbourhoodSize = 0
RCSPrankOneCutsMaxNumPerRound = 100
RCSPrankOneCutsMaxNumRows = -1
RCSPrankOneCutsMemoryType = 2
CutTailingOffThreshold = 0.02
CutTailingOffCounterThreshold = 3
SafeDualBoundScaleFactor = -1
StrongBranchingPhaseOneCandidatesNumber = 100
StrongBranchingPhaseOneTreeSizeEstimRatio = 0.3
StrongBranchingPhaseTwoCandidatesNumber = 1
StrongBranchingPhaseTwoTreeSizeEstimRatio = 0.1
MaxTimeForRestrictedMasterIpHeur = -1
DivingHeurUseDepthLimit = 0
MaxLDSbreadth = 3
MaxLDSdepth = 2
New model incumbent solution 1e+06, TIME = 0h0m0s3t = 3
Model is built TIME = 0h0m4s53t = 453
************************************************************************************************
**** BaB tree root node
**** Local DB = -1e+12, global bounds : [ -1e+12 , 1e+06 ], TIME = 0h0m4s53t = 453
**** 1 open nodes, 0 columns (0 active), 0 dyn. constrs. (0 active), 1204 art. vars. (1204 active)
************************************************************************************************
<DWph=2> <it= 10> <et=11.51> <Mt= 0.01> <Spt= 6.96> <nCl=1000> <DB=-43331251827.7838> <Mlp=706538692.6741> <PB=1000000> 
<DWph=2> <it= 20> <et=18.95> <Mt= 0.02> <Spt= 7.42> <nCl=1000> <DB=-38733916441.6731> <Mlp=686175206.7370> <PB=1000000> 
<DWph=2> <it= 30> <et=26.34> <Mt= 0.03> <Spt= 7.34> <nCl=1000> <DB=-33946169502.6450> <Mlp=664682976.1195> <PB=1000000> 
<DWph=2> <it= 40> <et=33.57> <Mt= 0.04> <Spt= 7.19> <nCl=1000> <DB=-29220486842.7404> <Mlp=640490443.4821> <PB=1000000> 
<DWph=2> <it= 50> <et=40.81> <Mt= 0.05> <Spt= 7.18> <nCl=1000> <DB=-26773350941.8019> <Mlp=618645693.8804> <PB=1000000> 
<DWph=2> <it= 60> <et=48.09> <Mt= 0.09> <Spt= 7.19> <nCl=1000> <DB=-23199383095.8444> <Mlp=594138491.6870> <PB=1000000> 
<DWph=2> <it= 70> <et=55.41> <Mt= 0.11> <Spt= 7.20> <nCl=1000> <DB=-19188407857.2610> <Mlp=571431639.8610> <PB=1000000> 
<DWph=2> <it= 80> <et=62.69> <Mt= 0.21> <Spt= 7.08> <nCl=1000> <DB=-15316466361.7560> <Mlp=547301724.0198> <PB=1000000> 
<DWph=2> <it= 90> <et=69.84> <Mt= 0.24> <Spt= 6.89> <nCl=1000> <DB=-11734638762.4135> <Mlp=523742876.3850> <PB=1000000> 
<DWph=2> <it=100> <et=76.90> <Mt= 0.25> <Spt= 6.81> <nCl=1000> <DB=-9512562580.3580> <Mlp=500764775.0714> <PB=1000000> 
<DWph=2> <it=110> <et=83.45> <Mt= 0.30> <Spt= 6.14> <nCl=1000> <DB=-8441039146.9546> <Mlp=486560006.7655> <PB=1000000> 
<DWph=2> <it=120> <et=90.37> <Mt= 0.35> <Spt= 6.57> <nCl=1000> <DB=-6747070209.9668> <Mlp=454005784.1885> <PB=1000000> 
<DWph=2> <it=130> <et=96.96> <Mt= 0.41> <Spt= 6.16> <nCl=1000> <DB=-6062529932.9002> <Mlp=435555921.7931> <PB=1000000> 
<DWph=2> <it=140> <et=103.87> <Mt= 0.45> <Spt= 6.40> <nCl=1000> <DB=-28326503710.1901> <Mlp=405841631.2313> <PB=1000000> 
<DWph=2> <it=150> <et=110.25> <Mt= 0.32> <Spt= 6.05> <nCl=1000> <DB=-4772527685.7110> <Mlp=394189160.5697> <PB=1000000> 
