Application parameters:
  batch  =>  nothing
  instance  =>  "/IN/600_20000_DI_7.txt-Q5"
  ub  =>  1.0e6
  cfg  =>  "/CFG/BPP.cfg"
data = Colored Bin Packing dataset.
number of items = 601
number of colors = 5
capacity = 15616
Items : 
	 item 1, weight= 46, color= 2
	 item 2, weight= 80, color= 4
	 item 3, weight= 116, color= 4
	 item 4, weight= 140, color= 1
	 item 5, weight= 140, color= 3
	 item 6, weight= 160, color= 4
	 item 7, weight= 160, color= 4
	 item 8, weight= 176, color= 4
	 item 9, weight= 192, color= 3
	 item 10, weight= 208, color= 0
	 item 11, weight= 210, color= 0
	 item 12, weight= 218, color= 3
	 item 13, weight= 220, color= 2
	 item 14, weight= 256, color= 1
	 item 15, weight= 264, color= 1
	 item 16, weight= 264, color= 1
	 item 17, weight= 264, color= 2
	 item 18, weight= 264, color= 4
	 item 19, weight= 268, color= 2
	 item 20, weight= 272, color= 0
	 item 21, weight= 272, color= 1
	 item 22, weight= 272, color= 2
	 item 23, weight= 276, color= 0
	 item 24, weight= 276, color= 0
	 item 25, weight= 276, color= 0
	 item 26, weight= 280, color= 1
	 item 27, weight= 280, color= 2
	 item 28, weight= 284, color= 1
	 item 29, weight= 288, color= 1
	 item 30, weight= 288, color= 3
	 item 31, weight= 288, color= 3
	 item 32, weight= 288, color= 3
	 item 33, weight= 292, color= 1
	 item 34, weight= 292, color= 2
	 item 35, weight= 296, color= 0
	 item 36, weight= 302, color= 0
	 item 37, weight= 304, color= 0
	 item 38, weight= 304, color= 2
	 item 39, weight= 304, color= 3
	 item 40, weight= 304, color= 3
	 item 41, weight= 304, color= 3
	 item 42, weight= 304, color= 4
	 item 43, weight= 304, color= 4
	 item 44, weight= 316, color= 2
	 item 45, weight= 316, color= 3
	 item 46, weight= 320, color= 0
	 item 47, weight= 320, color= 1
	 item 48, weight= 320, color= 2
	 item 49, weight= 320, color= 3
	 item 50, weight= 320, color= 4
	 item 51, weight= 320, color= 4
	 item 52, weight= 320, color= 4
	 item 53, weight= 328, color= 2
	 item 54, weight= 334, color= 3
	 item 55, weight= 336, color= 2
	 item 56, weight= 336, color= 3
	 item 57, weight= 336, color= 4
	 item 58, weight= 340, color= 3
	 item 59, weight= 342, color= 3
	 item 60, weight= 344, color= 0
	 item 61, weight= 344, color= 4
	 item 62, weight= 348, color= 1
	 item 63, weight= 348, color= 3
	 item 64, weight= 352, color= 1
	 item 65, weight= 354, color= 1
	 item 66, weight= 360, color= 1
	 item 67, weight= 360, color= 1
	 item 68, weight= 360, color= 1
	 item 69, weight= 360, color= 2
	 item 70, weight= 360, color= 3
	 item 71, weight= 368, color= 0
	 item 72, weight= 368, color= 3
	 item 73, weight= 368, color= 4
	 item 74, weight= 372, color= 4
	 item 75, weight= 376, color= 3
	 item 76, weight= 376, color= 3
	 item 77, weight= 380, color= 1
	 item 78, weight= 384, color= 1
	 item 79, weight= 386, color= 4
	 item 80, weight= 388, color= 4
	 item 81, weight= 400, color= 4
	 item 82, weight= 400, color= 4
	 item 83, weight= 404, color= 1
	 item 84, weight= 404, color= 2
	 item 85, weight= 404, color= 3
	 item 86, weight= 408, color= 0
	 item 87, weight= 408, color= 4
	 item 88, weight= 416, color= 2
	 item 89, weight= 416, color= 2
	 item 90, weight= 416, color= 4
	 item 91, weight= 420, color= 2
	 item 92, weight= 424, color= 1
	 item 93, weight= 424, color= 3
	 item 94, weight= 432, color= 0
	 item 95, weight= 432, color= 4
	 item 96, weight= 436, color= 0
	 item 97, weight= 440, color= 4
	 item 98, weight= 456, color= 2
	 item 99, weight= 456, color= 4
	 item 100, weight= 460, color= 4
	 item 101, weight= 464, color= 0
	 item 102, weight= 464, color= 1
	 item 103, weight= 464, color= 1
	 item 104, weight= 464, color= 2
	 item 105, weight= 464, color= 4
	 item 106, weight= 464, color= 4
	 item 107, weight= 466, color= 2
	 item 108, weight= 472, color= 4
	 item 109, weight= 476, color= 4
	 item 110, weight= 480, color= 1
	 item 111, weight= 488, color= 4
	 item 112, weight= 492, color= 3
	 item 113, weight= 494, color= 3
	 item 114, weight= 494, color= 4
	 item 115, weight= 496, color= 3
	 item 116, weight= 504, color= 1
	 item 117, weight= 512, color= 3
	 item 118, weight= 512, color= 4
	 item 119, weight= 516, color= 3
	 item 120, weight= 528, color= 1
	 item 121, weight= 528, color= 2
	 item 122, weight= 528, color= 4
	 item 123, weight= 530, color= 1
	 item 124, weight= 530, color= 1
	 item 125, weight= 532, color= 2
	 item 126, weight= 536, color= 2
	 item 127, weight= 544, color= 1
	 item 128, weight= 552, color= 2
	 item 129, weight= 576, color= 0
	 item 130, weight= 576, color= 2
	 item 131, weight= 576, color= 3
	 item 132, weight= 576, color= 3
	 item 133, weight= 576, color= 4
	 item 134, weight= 600, color= 1
	 item 135, weight= 600, color= 3
	 item 136, weight= 612, color= 2
	 item 137, weight= 614, color= 0
	 item 138, weight= 614, color= 4
	 item 139, weight= 624, color= 0
	 item 140, weight= 624, color= 3
	 item 141, weight= 626, color= 3
	 item 142, weight= 628, color= 0
	 item 143, weight= 664, color= 0
	 item 144, weight= 672, color= 1
	 item 145, weight= 672, color= 2
	 item 146, weight= 674, color= 2
	 item 147, weight= 680, color= 4
	 item 148, weight= 686, color= 3
	 item 149, weight= 688, color= 0
	 item 150, weight= 696, color= 4
	 item 151, weight= 704, color= 1
	 item 152, weight= 720, color= 2
	 item 153, weight= 744, color= 3
	 item 154, weight= 746, color= 2
	 item 155, weight= 746, color= 4
	 item 156, weight= 752, color= 1
	 item 157, weight= 752, color= 3
	 item 158, weight= 758, color= 2
	 item 159, weight= 784, color= 0
	 item 160, weight= 784, color= 2
	 item 161, weight= 808, color= 0
	 item 162, weight= 808, color= 2
	 item 163, weight= 816, color= 2
	 item 164, weight= 820, color= 0
	 item 165, weight= 824, color= 1
	 item 166, weight= 824, color= 2
	 item 167, weight= 824, color= 3
	 item 168, weight= 830, color= 0
	 item 169, weight= 832, color= 0
	 item 170, weight= 840, color= 1
	 item 171, weight= 840, color= 2
	 item 172, weight= 876, color= 2
	 item 173, weight= 880, color= 0
	 item 174, weight= 880, color= 4
	 item 175, weight= 908, color= 2
	 item 176, weight= 912, color= 4
	 item 177, weight= 918, color= 1
	 item 178, weight= 960, color= 0
	 item 179, weight= 968, color= 0
	 item 180, weight= 968, color= 0
	 item 181, weight= 976, color= 1
	 item 182, weight= 992, color= 4
	 item 183, weight= 1008, color= 4
	 item 184, weight= 1008, color= 4
	 item 185, weight= 1012, color= 0
	 item 186, weight= 1022, color= 4
	 item 187, weight= 1024, color= 1
	 item 188, weight= 1056, color= 1
	 item 189, weight= 1072, color= 1
	 item 190, weight= 1072, color= 3
	 item 191, weight= 1120, color= 1
	 item 192, weight= 1136, color= 1
	 item 193, weight= 1148, color= 0
	 item 194, weight= 1148, color= 2
	 item 195, weight= 1184, color= 4
	 item 196, weight= 1184, color= 4
	 item 197, weight= 1248, color= 2
	 item 198, weight= 1296, color= 0
	 item 199, weight= 1296, color= 0
	 item 200, weight= 1296, color= 2
	 item 201, weight= 1296, color= 4
	 item 202, weight= 1300, color= 0
	 item 203, weight= 1300, color= 0
	 item 204, weight= 1300, color= 4
	 item 205, weight= 1320, color= 3
	 item 206, weight= 1324, color= 4
	 item 207, weight= 1330, color= 4
	 item 208, weight= 1342, color= 2
	 item 209, weight= 1358, color= 3
	 item 210, weight= 1364, color= 3
	 item 211, weight= 1382, color= 3
	 item 212, weight= 1384, color= 2
	 item 213, weight= 1390, color= 1
	 item 214, weight= 1396, color= 0
	 item 215, weight= 1404, color= 2
	 item 216, weight= 1420, color= 4
	 item 217, weight= 1422, color= 3
	 item 218, weight= 1448, color= 0
	 item 219, weight= 1458, color= 0
	 item 220, weight= 1467, color= 1
	 item 221, weight= 1478, color= 0
	 item 222, weight= 1484, color= 2
	 item 223, weight= 1513, color= 2
	 item 224, weight= 1522, color= 0
	 item 225, weight= 1525, color= 1
	 item 226, weight= 1528, color= 1
	 item 227, weight= 1528, color= 3
	 item 228, weight= 1532, color= 4
	 item 229, weight= 1534, color= 4
	 item 230, weight= 1550, color= 4
	 item 231, weight= 1556, color= 1
	 item 232, weight= 1561, color= 2
	 item 233, weight= 1581, color= 2
	 item 234, weight= 1584, color= 1
	 item 235, weight= 1590, color= 1
	 item 236, weight= 1592, color= 2
	 item 237, weight= 1603, color= 0
	 item 238, weight= 1612, color= 2
	 item 239, weight= 1614, color= 2
	 item 240, weight= 1621, color= 4
	 item 241, weight= 1622, color= 3
	 item 242, weight= 1636, color= 1
	 item 243, weight= 1649, color= 2
	 item 244, weight= 1671, color= 4
	 item 245, weight= 1682, color= 0
	 item 246, weight= 1688, color= 0
	 item 247, weight= 1708, color= 2
	 item 248, weight= 1710, color= 2
	 item 249, weight= 1715, color= 2
	 item 250, weight= 1748, color= 2
	 item 251, weight= 1751, color= 3
	 item 252, weight= 1764, color= 3
	 item 253, weight= 1775, color= 4
	 item 254, weight= 1784, color= 3
	 item 255, weight= 1802, color= 3
	 item 256, weight= 1805, color= 4
	 item 257, weight= 1806, color= 3
	 item 258, weight= 1812, color= 0
	 item 259, weight= 1814, color= 0
	 item 260, weight= 1828, color= 2
	 item 261, weight= 1850, color= 2
	 item 262, weight= 1867, color= 1
	 item 263, weight= 1892, color= 4
	 item 264, weight= 1893, color= 4
	 item 265, weight= 1904, color= 4
	 item 266, weight= 1911, color= 0
	 item 267, weight= 1912, color= 3
	 item 268, weight= 1933, color= 0
	 item 269, weight= 1958, color= 0
	 item 270, weight= 1960, color= 1
	 item 271, weight= 2020, color= 2
	 item 272, weight= 2021, color= 3
	 item 273, weight= 2022, color= 4
	 item 274, weight= 2024, color= 4
	 item 275, weight= 2034, color= 0
	 item 276, weight= 2060, color= 4
	 item 277, weight= 2065, color= 0
	 item 278, weight= 2076, color= 1
	 item 279, weight= 2088, color= 3
	 item 280, weight= 2090, color= 3
	 item 281, weight= 2098, color= 1
	 item 282, weight= 2101, color= 2
	 item 283, weight= 2124, color= 3
	 item 284, weight= 2128, color= 4
	 item 285, weight= 2140, color= 3
	 item 286, weight= 2167, color= 4
	 item 287, weight= 2168, color= 3
	 item 288, weight= 2190, color= 4
	 item 289, weight= 2204, color= 0
	 item 290, weight= 2209, color= 2
	 item 291, weight= 2298, color= 1
	 item 292, weight= 2310, color= 3
	 item 293, weight= 2325, color= 0
	 item 294, weight= 2339, color= 0
	 item 295, weight= 2342, color= 0
	 item 296, weight= 2356, color= 3
	 item 297, weight= 2360, color= 1
	 item 298, weight= 2383, color= 3
	 item 299, weight= 2408, color= 3
	 item 300, weight= 2412, color= 2
	 item 301, weight= 2442, color= 1
	 item 302, weight= 2467, color= 4
	 item 303, weight= 2477, color= 1
	 item 304, weight= 2481, color= 1
	 item 305, weight= 2491, color= 0
	 item 306, weight= 2538, color= 4
	 item 307, weight= 2596, color= 2
	 item 308, weight= 2598, color= 4
	 item 309, weight= 2616, color= 0
	 item 310, weight= 2647, color= 1
	 item 311, weight= 2648, color= 0
	 item 312, weight= 2657, color= 4
	 item 313, weight= 2661, color= 4
	 item 314, weight= 2668, color= 3
	 item 315, weight= 2670, color= 3
	 item 316, weight= 2729, color= 2
	 item 317, weight= 2782, color= 4
	 item 318, weight= 2863, color= 3
	 item 319, weight= 2881, color= 2
	 item 320, weight= 2890, color= 0
	 item 321, weight= 2900, color= 3
	 item 322, weight= 2952, color= 1
	 item 323, weight= 3022, color= 2
	 item 324, weight= 3052, color= 4
	 item 325, weight= 3065, color= 1
	 item 326, weight= 3068, color= 1
	 item 327, weight= 3075, color= 0
	 item 328, weight= 3079, color= 3
	 item 329, weight= 3131, color= 3
	 item 330, weight= 3154, color= 3
	 item 331, weight= 3180, color= 2
	 item 332, weight= 3192, color= 1
	 item 333, weight= 3208, color= 2
	 item 334, weight= 3338, color= 2
	 item 335, weight= 3365, color= 3
	 item 336, weight= 3372, color= 2
	 item 337, weight= 3375, color= 4
	 item 338, weight= 3412, color= 3
	 item 339, weight= 3431, color= 2
	 item 340, weight= 3444, color= 3
	 item 341, weight= 3496, color= 3
	 item 342, weight= 3524, color= 3
	 item 343, weight= 3534, color= 3
	 item 344, weight= 3608, color= 4
	 item 345, weight= 3636, color= 0
	 item 346, weight= 3688, color= 3
	 item 347, weight= 3725, color= 3
	 item 348, weight= 3735, color= 1
	 item 349, weight= 3739, color= 4
	 item 350, weight= 3770, color= 0
	 item 351, weight= 3780, color= 0
	 item 352, weight= 3784, color= 3
	 item 353, weight= 3791, color= 2
	 item 354, weight= 3913, color= 0
	 item 355, weight= 3940, color= 3
	 item 356, weight= 4040, color= 1
	 item 357, weight= 4054, color= 1
	 item 358, weight= 4092, color= 0
	 item 359, weight= 4103, color= 3
	 item 360, weight= 4132, color= 2
	 item 361, weight= 4148, color= 0
	 item 362, weight= 4157, color= 3
	 item 363, weight= 4164, color= 1
	 item 364, weight= 4200, color= 4
	 item 365, weight= 4212, color= 1
	 item 366, weight= 4228, color= 3
	 item 367, weight= 4394, color= 1
	 item 368, weight= 4424, color= 0
	 item 369, weight= 4541, color= 1
	 item 370, weight= 4595, color= 4
	 item 371, weight= 4616, color= 4
	 item 372, weight= 4802, color= 3
	 item 373, weight= 4836, color= 1
	 item 374, weight= 4844, color= 3
	 item 375, weight= 4860, color= 3
	 item 376, weight= 5048, color= 0
	 item 377, weight= 5067, color= 3
	 item 378, weight= 5112, color= 3
	 item 379, weight= 5121, color= 1
	 item 380, weight= 5142, color= 3
	 item 381, weight= 5328, color= 4
	 item 382, weight= 5352, color= 2
	 item 383, weight= 5404, color= 4
	 item 384, weight= 5416, color= 2
	 item 385, weight= 5604, color= 3
	 item 386, weight= 5698, color= 2
	 item 387, weight= 5744, color= 3
	 item 388, weight= 5749, color= 3
	 item 389, weight= 5751, color= 0
	 item 390, weight= 6032, color= 3
	 item 391, weight= 6146, color= 3
	 item 392, weight= 6264, color= 1
	 item 393, weight= 6268, color= 0
	 item 394, weight= 6412, color= 1
	 item 395, weight= 6500, color= 1
	 item 396, weight= 6502, color= 1
	 item 397, weight= 6504, color= 2
	 item 398, weight= 6505, color= 4
	 item 399, weight= 6506, color= 2
	 item 400, weight= 6507, color= 4
	 item 401, weight= 6508, color= 3
	 item 402, weight= 6520, color= 3
	 item 403, weight= 6622, color= 0
	 item 404, weight= 6880, color= 2
	 item 405, weight= 7728, color= 2
	 item 406, weight= 7809, color= 4
	 item 407, weight= 7810, color= 3
	 item 408, weight= 7811, color= 1
	 item 409, weight= 7812, color= 1
	 item 410, weight= 7816, color= 2
	 item 411, weight= 7818, color= 1
	 item 412, weight= 7820, color= 2
	 item 413, weight= 7912, color= 1
	 item 414, weight= 8104, color= 3
	 item 415, weight= 8400, color= 4
	 item 416, weight= 8717, color= 2
	 item 417, weight= 8718, color= 1
	 item 418, weight= 8719, color= 2
	 item 419, weight= 8782, color= 1
	 item 420, weight= 8884, color= 4
	 item 421, weight= 8892, color= 0
	 item 422, weight= 8980, color= 1
	 item 423, weight= 9128, color= 0
	 item 424, weight= 9140, color= 2
	 item 425, weight= 9208, color= 0
	 item 426, weight= 9250, color= 1
	 item 427, weight= 9450, color= 3
	 item 428, weight= 9473, color= 1
	 item 429, weight= 9496, color= 0
	 item 430, weight= 9537, color= 2
	 item 431, weight= 9576, color= 1
	 item 432, weight= 9788, color= 3
	 item 433, weight= 9804, color= 2
	 item 434, weight= 9820, color= 1
	 item 435, weight= 10006, color= 3
	 item 436, weight= 10088, color= 0
	 item 437, weight= 10103, color= 3
	 item 438, weight= 10167, color= 0
	 item 439, weight= 10312, color= 4
	 item 440, weight= 10346, color= 4
	 item 441, weight= 10548, color= 2
	 item 442, weight= 10564, color= 0
	 item 443, weight= 10584, color= 2
	 item 444, weight= 10628, color= 4
	 item 445, weight= 10629, color= 1
	 item 446, weight= 10644, color= 4
	 item 447, weight= 10660, color= 0
	 item 448, weight= 10693, color= 1
	 item 449, weight= 10708, color= 4
	 item 450, weight= 10754, color= 1
	 item 451, weight= 10792, color= 1
	 item 452, weight= 11067, color= 0
	 item 453, weight= 11080, color= 4
	 item 454, weight= 11094, color= 4
	 item 455, weight= 11131, color= 1
	 item 456, weight= 11135, color= 2
	 item 457, weight= 11147, color= 1
	 item 458, weight= 11260, color= 2
	 item 459, weight= 11300, color= 0
	 item 460, weight= 11352, color= 2
	 item 461, weight= 11378, color= 3
	 item 462, weight= 11380, color= 2
	 item 463, weight= 11396, color= 3
	 item 464, weight= 11432, color= 3
	 item 465, weight= 11492, color= 3
	 item 466, weight= 11499, color= 1
	 item 467, weight= 11512, color= 0
	 item 468, weight= 11563, color= 2
	 item 469, weight= 11567, color= 4
	 item 470, weight= 11572, color= 3
	 item 471, weight= 11579, color= 4
	 item 472, weight= 11614, color= 1
	 item 473, weight= 11784, color= 2
	 item 474, weight= 11800, color= 0
	 item 475, weight= 11834, color= 1
	 item 476, weight= 11859, color= 2
	 item 477, weight= 11923, color= 1
	 item 478, weight= 11927, color= 0
	 item 479, weight= 11939, color= 0
	 item 480, weight= 11948, color= 0
	 item 481, weight= 11964, color= 2
	 item 482, weight= 11994, color= 2
	 item 483, weight= 12028, color= 4
	 item 484, weight= 12044, color= 3
	 item 485, weight= 12088, color= 4
	 item 486, weight= 12140, color= 3
	 item 487, weight= 12150, color= 3
	 item 488, weight= 12159, color= 4
	 item 489, weight= 12282, color= 3
	 item 490, weight= 12289, color= 0
	 item 491, weight= 12343, color= 1
	 item 492, weight= 12414, color= 4
	 item 493, weight= 12420, color= 2
	 item 494, weight= 12425, color= 4
	 item 495, weight= 12429, color= 1
	 item 496, weight= 12440, color= 4
	 item 497, weight= 12441, color= 4
	 item 498, weight= 12480, color= 1
	 item 499, weight= 12488, color= 3
	 item 500, weight= 12502, color= 1
	 item 501, weight= 12508, color= 3
	 item 502, weight= 12574, color= 2
	 item 503, weight= 12641, color= 0
	 item 504, weight= 12645, color= 0
	 item 505, weight= 12657, color= 3
	 item 506, weight= 12686, color= 3
	 item 507, weight= 12724, color= 4
	 item 508, weight= 12744, color= 3
	 item 509, weight= 12757, color= 4
	 item 510, weight= 12792, color= 3
	 item 511, weight= 12796, color= 0
	 item 512, weight= 12810, color= 0
	 item 513, weight= 12811, color= 3
	 item 514, weight= 12827, color= 4
	 item 515, weight= 12846, color= 3
	 item 516, weight= 12862, color= 4
	 item 517, weight= 12967, color= 3
	 item 518, weight= 12980, color= 0
	 item 519, weight= 12990, color= 3
	 item 520, weight= 13017, color= 4
	 item 521, weight= 13032, color= 2
	 item 522, weight= 13052, color= 4
	 item 523, weight= 13068, color= 3
	 item 524, weight= 13079, color= 1
	 item 525, weight= 13095, color= 3
	 item 526, weight= 13102, color= 4
	 item 527, weight= 13112, color= 1
	 item 528, weight= 13132, color= 1
	 item 529, weight= 13148, color= 2
	 item 530, weight= 13178, color= 0
	 item 531, weight= 13190, color= 3
	 item 532, weight= 13191, color= 4
	 item 533, weight= 13192, color= 3
	 item 534, weight= 13196, color= 3
	 item 535, weight= 13203, color= 0
	 item 536, weight= 13270, color= 0
	 item 537, weight= 13272, color= 3
	 item 538, weight= 13297, color= 2
	 item 539, weight= 13325, color= 1
	 item 540, weight= 13334, color= 0
	 item 541, weight= 13336, color= 1
	 item 542, weight= 13348, color= 1
	 item 543, weight= 13377, color= 0
	 item 544, weight= 13398, color= 1
	 item 545, weight= 13428, color= 3
	 item 546, weight= 13442, color= 2
	 item 547, weight= 13444, color= 4
	 item 548, weight= 13451, color= 3
	 item 549, weight= 13454, color= 0
	 item 550, weight= 13474, color= 2
	 item 551, weight= 13480, color= 3
	 item 552, weight= 13487, color= 4
	 item 553, weight= 13508, color= 3
	 item 554, weight= 13517, color= 4
	 item 555, weight= 13524, color= 2
	 item 556, weight= 13559, color= 1
	 item 557, weight= 13566, color= 1
	 item 558, weight= 13572, color= 3
	 item 559, weight= 13598, color= 2
	 item 560, weight= 13607, color= 1
	 item 561, weight= 13608, color= 3
	 item 562, weight= 13611, color= 3
	 item 563, weight= 13639, color= 3
	 item 564, weight= 13660, color= 2
	 item 565, weight= 13674, color= 4
	 item 566, weight= 13682, color= 3
	 item 567, weight= 13684, color= 3
	 item 568, weight= 13693, color= 4
	 item 569, weight= 13710, color= 1
	 item 570, weight= 13719, color= 1
	 item 571, weight= 13720, color= 0
	 item 572, weight= 13728, color= 0
	 item 573, weight= 13756, color= 2
	 item 574, weight= 13777, color= 1
	 item 575, weight= 13778, color= 0
	 item 576, weight= 13780, color= 0
	 item 577, weight= 13787, color= 1
	 item 578, weight= 13790, color= 3
	 item 579, weight= 13800, color= 0
	 item 580, weight= 13801, color= 0
	 item 581, weight= 13836, color= 3
	 item 582, weight= 13845, color= 3
	 item 583, weight= 13846, color= 1
	 item 584, weight= 13857, color= 2
	 item 585, weight= 13870, color= 2
	 item 586, weight= 13880, color= 0
	 item 587, weight= 13910, color= 3
	 item 588, weight= 13912, color= 0
	 item 589, weight= 13916, color= 2
	 item 590, weight= 13926, color= 1
	 item 591, weight= 13932, color= 4
	 item 592, weight= 13948, color= 3
	 item 593, weight= 13950, color= 0
	 item 594, weight= 13958, color= 4
	 item 595, weight= 13960, color= 0
	 item 596, weight= 13988, color= 4
	 item 597, weight= 13990, color= 3
	 item 598, weight= 14010, color= 0
	 item 599, weight= 14022, color= 2
	 item 600, weight= 14028, color= 2
	 item 601, weight= 14040, color= 1

VRPSolver warning: Interval set for resource 1 on source node (when source != sink) is ignored (by definition is [0.0,0.0])
[41m solve [00m
~~~~~~~~~~~~~~~~~~~~~~~~~~~~~~~~~~~~~~~~~~~~~~~~~~~~~~~~~~~~~~~~~~~~~~~~~~~~~~
VRPSolver v0.4.1, 24/03/2021. Web: vrpsolver.math.u-bordeaux.fr
Corresponds to the solver by Pessoa, Sadykov, Uchoa and Vanderbeck (2020)
Paper: dx.doi.org/10.1007/s10107-020-01523-z
USE THIS CODE ONLY FOR ACADEMIC PURPOSES AT YOUR OWN RISK
~~~~~~~~~~~~~~~~~~~~~~~~~~~~~~~~~~~~~~~~~~~~~~~~~~~~~~~~~~~~~~~~~~~~~~~~~~~~~~
BaPCod v053, 24/03/2021, © Inria Bordeaux, France
~~~~~~~~~~~~~~~~~~~~~~~~~~~~~~~~~~~~~~~~~~~~~~~~~~~~~~~~~~~~~~~~~~~~~~~~~~~~~~
VRPSolver parameters:
GlobalTimeLimit = 1800
MaxNbOfBBtreeNodeTreated = 100000
treeSearchStrategy = 1
RCSPstopCutGenTimeThresholdInPricing = 10
RCSPhardTimeThresholdInPricing = 20
RCSPnumberOfBucketsPerVertex = 2000
RCSPdynamicBucketSteps = 0
RCSPuseBidirectionalSearch = 1
RCSPapplyReducedCostFixing = 1
RCSPredCostFixingFalseGap = 0
RCSPmaxNumOfColsPerIteration = 100
RCSPmaxNumOfColsPerExactIteration = 100
RCSPheurLabelingStrategy = 4
StabilizationMinPhaseOfStage = 1
RCSPmaxNumOfLabelsInEnumeration = 100000
RCSPmaxNumOfEnumeratedSolutions = 1000000
RCSPmaxNumOfEnumSolutionsForMIP = 100000
RCSPinitNGneighbourhoodSize = 0
RCSPmaxNGneighbourhoodSize = 0
RCSPrankOneCutsMaxNumPerRound = 100
RCSPrankOneCutsMaxNumRows = -1
RCSPrankOneCutsMemoryType = 2
CutTailingOffThreshold = 0.02
CutTailingOffCounterThreshold = 3
SafeDualBoundScaleFactor = -1
StrongBranchingPhaseOneCandidatesNumber = 100
StrongBranchingPhaseOneTreeSizeEstimRatio = 0.3
StrongBranchingPhaseTwoCandidatesNumber = 1
StrongBranchingPhaseTwoTreeSizeEstimRatio = 0.1
MaxTimeForRestrictedMasterIpHeur = -1
DivingHeurUseDepthLimit = 0
MaxLDSbreadth = 3
MaxLDSdepth = 2
New model incumbent solution 1e+06, TIME = 0h0m0s3t = 3
Model is built TIME = 0h0m4s93t = 493
************************************************************************************************
**** BaB tree root node
**** Local DB = -1e+12, global bounds : [ -1e+12 , 1e+06 ], TIME = 0h0m4s93t = 493
**** 1 open nodes, 0 columns (0 active), 0 dyn. constrs. (0 active), 1204 art. vars. (1204 active)
************************************************************************************************
<DWph=2> <it= 10> <et=12.54> <Mt= 0.01> <Spt= 7.58> <nCl=951> <DB=-58586443298.5521> <Mlp=710329018.1869> <PB=1000000> 
<DWph=2> <it= 20> <et=20.71> <Mt= 0.02> <Spt= 8.15> <nCl=1000> <DB=-39465673502.4986> <Mlp=689939347.2486> <PB=1000000> 
<DWph=2> <it= 30> <et=28.72> <Mt= 0.02> <Spt= 7.97> <nCl=1000> <DB=-34410988190.5898> <Mlp=667398468.4566> <PB=1000000> 
<DWph=2> <it= 40> <et=36.82> <Mt= 0.05> <Spt= 8.07> <nCl=1000> <DB=-30913529434.5927> <Mlp=645855036.7012> <PB=1000000> 
<DWph=2> <it= 50> <et=44.90> <Mt= 0.05> <Spt= 8.00> <nCl=1000> <DB=-27026420247.1638> <Mlp=623482125.3594> <PB=1000000> 
<DWph=2> <it= 60> <et=52.97> <Mt= 0.08> <Spt= 7.99> <nCl=1000> <DB=-23662419598.4182> <Mlp=602114202.7122> <PB=1000000> 
<DWph=2> <it= 70> <et=60.92> <Mt= 0.09> <Spt= 7.86> <nCl=1000> <DB=-21096210871.4369> <Mlp=580675868.8944> <PB=1000000> 
<DWph=2> <it= 80> <et=68.64> <Mt= 0.10> <Spt= 7.62> <nCl=1000> <DB=-17465019217.7114> <Mlp=556427828.8374> <PB=1000000> 
<DWph=2> <it= 90> <et=76.34> <Mt= 0.12> <Spt= 7.57> <nCl=1000> <DB=-16851532843.7498> <Mlp=534189915.2635> <PB=1000000> 
<DWph=2> <it=100> <et=83.85> <Mt= 0.17> <Spt= 7.33> <nCl=1000> <DB=-12226814906.6412> <Mlp=514306961.3742> <PB=1000000> 
<DWph=2> <it=110> <et=91.26> <Mt= 0.17> <Spt= 7.13> <nCl=1000> <DB=-9018638204.1167> <Mlp=493142263.8293> <PB=1000000> 
<DWph=2> <it=120> <et=98.60> <Mt= 0.23> <Spt= 7.10> <nCl=1000> <DB=-7470611166.8761> <Mlp=466149433.0031> <PB=1000000> 
<DWph=2> <it=130> <et=106.11> <Mt= 0.33> <Spt= 7.19> <nCl=1000> <DB=-6759937064.4731> <Mlp=444079870.8417> <PB=1000000> 
<DWph=2> <it=140> <et=113.78> <Mt= 0.35> <Spt= 7.24> <nCl=1000> <DB=-6051904037.6942> <Mlp=426475948.5544> <PB=1000000> 
