Application parameters:
  batch  =>  nothing
  instance  =>  "/IN/600_20000_DI_44.txt-Q5"
  ub  =>  1.0e6
  cfg  =>  "/CFG/BPP.cfg"
data = Colored Bin Packing dataset.
number of items = 601
number of colors = 5
capacity = 15632
Items : 
	 item 1, weight= 40, color= 4
	 item 2, weight= 64, color= 1
	 item 3, weight= 96, color= 0
	 item 4, weight= 112, color= 0
	 item 5, weight= 124, color= 0
	 item 6, weight= 180, color= 2
	 item 7, weight= 208, color= 2
	 item 8, weight= 240, color= 0
	 item 9, weight= 240, color= 2
	 item 10, weight= 242, color= 4
	 item 11, weight= 256, color= 2
	 item 12, weight= 256, color= 2
	 item 13, weight= 256, color= 3
	 item 14, weight= 264, color= 0
	 item 15, weight= 264, color= 3
	 item 16, weight= 268, color= 2
	 item 17, weight= 272, color= 1
	 item 18, weight= 272, color= 1
	 item 19, weight= 272, color= 4
	 item 20, weight= 280, color= 0
	 item 21, weight= 280, color= 3
	 item 22, weight= 280, color= 4
	 item 23, weight= 288, color= 0
	 item 24, weight= 288, color= 0
	 item 25, weight= 288, color= 0
	 item 26, weight= 288, color= 2
	 item 27, weight= 288, color= 3
	 item 28, weight= 292, color= 1
	 item 29, weight= 296, color= 3
	 item 30, weight= 302, color= 0
	 item 31, weight= 304, color= 0
	 item 32, weight= 304, color= 1
	 item 33, weight= 304, color= 3
	 item 34, weight= 304, color= 3
	 item 35, weight= 304, color= 4
	 item 36, weight= 312, color= 0
	 item 37, weight= 316, color= 4
	 item 38, weight= 320, color= 0
	 item 39, weight= 320, color= 3
	 item 40, weight= 320, color= 3
	 item 41, weight= 332, color= 1
	 item 42, weight= 332, color= 3
	 item 43, weight= 334, color= 4
	 item 44, weight= 334, color= 4
	 item 45, weight= 336, color= 0
	 item 46, weight= 336, color= 2
	 item 47, weight= 340, color= 0
	 item 48, weight= 340, color= 1
	 item 49, weight= 344, color= 0
	 item 50, weight= 344, color= 0
	 item 51, weight= 348, color= 3
	 item 52, weight= 348, color= 4
	 item 53, weight= 352, color= 1
	 item 54, weight= 352, color= 3
	 item 55, weight= 352, color= 4
	 item 56, weight= 356, color= 0
	 item 57, weight= 356, color= 0
	 item 58, weight= 356, color= 0
	 item 59, weight= 360, color= 1
	 item 60, weight= 362, color= 0
	 item 61, weight= 364, color= 1
	 item 62, weight= 364, color= 4
	 item 63, weight= 368, color= 4
	 item 64, weight= 370, color= 2
	 item 65, weight= 376, color= 0
	 item 66, weight= 382, color= 4
	 item 67, weight= 384, color= 1
	 item 68, weight= 384, color= 2
	 item 69, weight= 384, color= 3
	 item 70, weight= 392, color= 0
	 item 71, weight= 398, color= 2
	 item 72, weight= 400, color= 3
	 item 73, weight= 402, color= 2
	 item 74, weight= 402, color= 4
	 item 75, weight= 404, color= 1
	 item 76, weight= 404, color= 1
	 item 77, weight= 412, color= 1
	 item 78, weight= 414, color= 4
	 item 79, weight= 416, color= 1
	 item 80, weight= 416, color= 1
	 item 81, weight= 416, color= 3
	 item 82, weight= 416, color= 4
	 item 83, weight= 420, color= 2
	 item 84, weight= 420, color= 4
	 item 85, weight= 424, color= 0
	 item 86, weight= 426, color= 4
	 item 87, weight= 432, color= 2
	 item 88, weight= 432, color= 3
	 item 89, weight= 442, color= 3
	 item 90, weight= 448, color= 3
	 item 91, weight= 456, color= 3
	 item 92, weight= 458, color= 0
	 item 93, weight= 458, color= 0
	 item 94, weight= 460, color= 1
	 item 95, weight= 464, color= 0
	 item 96, weight= 464, color= 2
	 item 97, weight= 464, color= 2
	 item 98, weight= 464, color= 3
	 item 99, weight= 464, color= 4
	 item 100, weight= 468, color= 2
	 item 101, weight= 472, color= 2
	 item 102, weight= 472, color= 3
	 item 103, weight= 472, color= 3
	 item 104, weight= 476, color= 2
	 item 105, weight= 484, color= 4
	 item 106, weight= 488, color= 0
	 item 107, weight= 496, color= 1
	 item 108, weight= 504, color= 3
	 item 109, weight= 508, color= 0
	 item 110, weight= 512, color= 0
	 item 111, weight= 520, color= 4
	 item 112, weight= 528, color= 4
	 item 113, weight= 530, color= 3
	 item 114, weight= 532, color= 2
	 item 115, weight= 540, color= 1
	 item 116, weight= 556, color= 1
	 item 117, weight= 556, color= 2
	 item 118, weight= 560, color= 2
	 item 119, weight= 560, color= 3
	 item 120, weight= 560, color= 4
	 item 121, weight= 574, color= 3
	 item 122, weight= 576, color= 1
	 item 123, weight= 590, color= 4
	 item 124, weight= 592, color= 1
	 item 125, weight= 598, color= 1
	 item 126, weight= 604, color= 0
	 item 127, weight= 608, color= 0
	 item 128, weight= 608, color= 2
	 item 129, weight= 620, color= 4
	 item 130, weight= 624, color= 2
	 item 131, weight= 624, color= 2
	 item 132, weight= 624, color= 3
	 item 133, weight= 640, color= 4
	 item 134, weight= 648, color= 2
	 item 135, weight= 656, color= 0
	 item 136, weight= 668, color= 3
	 item 137, weight= 672, color= 4
	 item 138, weight= 704, color= 2
	 item 139, weight= 712, color= 0
	 item 140, weight= 712, color= 1
	 item 141, weight= 728, color= 1
	 item 142, weight= 728, color= 3
	 item 143, weight= 732, color= 1
	 item 144, weight= 736, color= 2
	 item 145, weight= 740, color= 3
	 item 146, weight= 740, color= 4
	 item 147, weight= 756, color= 0
	 item 148, weight= 760, color= 1
	 item 149, weight= 780, color= 3
	 item 150, weight= 792, color= 3
	 item 151, weight= 800, color= 0
	 item 152, weight= 800, color= 3
	 item 153, weight= 800, color= 4
	 item 154, weight= 808, color= 1
	 item 155, weight= 828, color= 1
	 item 156, weight= 848, color= 3
	 item 157, weight= 864, color= 1
	 item 158, weight= 864, color= 2
	 item 159, weight= 864, color= 3
	 item 160, weight= 884, color= 4
	 item 161, weight= 886, color= 0
	 item 162, weight= 894, color= 3
	 item 163, weight= 912, color= 2
	 item 164, weight= 912, color= 2
	 item 165, weight= 916, color= 2
	 item 166, weight= 928, color= 0
	 item 167, weight= 944, color= 1
	 item 168, weight= 944, color= 3
	 item 169, weight= 964, color= 1
	 item 170, weight= 976, color= 3
	 item 171, weight= 1000, color= 0
	 item 172, weight= 1000, color= 1
	 item 173, weight= 1000, color= 2
	 item 174, weight= 1002, color= 1
	 item 175, weight= 1010, color= 1
	 item 176, weight= 1016, color= 0
	 item 177, weight= 1016, color= 4
	 item 178, weight= 1024, color= 0
	 item 179, weight= 1032, color= 4
	 item 180, weight= 1040, color= 2
	 item 181, weight= 1048, color= 1
	 item 182, weight= 1048, color= 3
	 item 183, weight= 1052, color= 3
	 item 184, weight= 1064, color= 0
	 item 185, weight= 1088, color= 1
	 item 186, weight= 1120, color= 4
	 item 187, weight= 1124, color= 3
	 item 188, weight= 1132, color= 0
	 item 189, weight= 1132, color= 2
	 item 190, weight= 1136, color= 3
	 item 191, weight= 1136, color= 3
	 item 192, weight= 1138, color= 1
	 item 193, weight= 1146, color= 3
	 item 194, weight= 1148, color= 2
	 item 195, weight= 1232, color= 0
	 item 196, weight= 1296, color= 1
	 item 197, weight= 1296, color= 3
	 item 198, weight= 1296, color= 3
	 item 199, weight= 1296, color= 3
	 item 200, weight= 1300, color= 0
	 item 201, weight= 1300, color= 3
	 item 202, weight= 1300, color= 3
	 item 203, weight= 1302, color= 0
	 item 204, weight= 1316, color= 0
	 item 205, weight= 1324, color= 4
	 item 206, weight= 1334, color= 3
	 item 207, weight= 1336, color= 1
	 item 208, weight= 1348, color= 0
	 item 209, weight= 1350, color= 0
	 item 210, weight= 1368, color= 4
	 item 211, weight= 1380, color= 2
	 item 212, weight= 1402, color= 4
	 item 213, weight= 1436, color= 4
	 item 214, weight= 1441, color= 2
	 item 215, weight= 1448, color= 2
	 item 216, weight= 1450, color= 1
	 item 217, weight= 1468, color= 4
	 item 218, weight= 1470, color= 2
	 item 219, weight= 1491, color= 3
	 item 220, weight= 1517, color= 2
	 item 221, weight= 1520, color= 2
	 item 222, weight= 1524, color= 4
	 item 223, weight= 1538, color= 2
	 item 224, weight= 1560, color= 2
	 item 225, weight= 1561, color= 3
	 item 226, weight= 1564, color= 1
	 item 227, weight= 1590, color= 2
	 item 228, weight= 1604, color= 1
	 item 229, weight= 1606, color= 4
	 item 230, weight= 1608, color= 2
	 item 231, weight= 1610, color= 3
	 item 232, weight= 1630, color= 4
	 item 233, weight= 1661, color= 4
	 item 234, weight= 1671, color= 2
	 item 235, weight= 1678, color= 4
	 item 236, weight= 1679, color= 1
	 item 237, weight= 1688, color= 2
	 item 238, weight= 1700, color= 4
	 item 239, weight= 1702, color= 4
	 item 240, weight= 1703, color= 4
	 item 241, weight= 1724, color= 3
	 item 242, weight= 1740, color= 0
	 item 243, weight= 1742, color= 2
	 item 244, weight= 1758, color= 1
	 item 245, weight= 1768, color= 1
	 item 246, weight= 1781, color= 1
	 item 247, weight= 1782, color= 4
	 item 248, weight= 1811, color= 0
	 item 249, weight= 1820, color= 4
	 item 250, weight= 1822, color= 3
	 item 251, weight= 1838, color= 4
	 item 252, weight= 1852, color= 0
	 item 253, weight= 1859, color= 3
	 item 254, weight= 1872, color= 4
	 item 255, weight= 1880, color= 1
	 item 256, weight= 1890, color= 2
	 item 257, weight= 1896, color= 0
	 item 258, weight= 1911, color= 1
	 item 259, weight= 1920, color= 0
	 item 260, weight= 1932, color= 0
	 item 261, weight= 1944, color= 4
	 item 262, weight= 1956, color= 1
	 item 263, weight= 1969, color= 2
	 item 264, weight= 1982, color= 2
	 item 265, weight= 1991, color= 0
	 item 266, weight= 2011, color= 4
	 item 267, weight= 2019, color= 0
	 item 268, weight= 2030, color= 1
	 item 269, weight= 2038, color= 0
	 item 270, weight= 2070, color= 4
	 item 271, weight= 2071, color= 1
	 item 272, weight= 2072, color= 1
	 item 273, weight= 2091, color= 0
	 item 274, weight= 2110, color= 2
	 item 275, weight= 2118, color= 3
	 item 276, weight= 2124, color= 1
	 item 277, weight= 2148, color= 3
	 item 278, weight= 2152, color= 3
	 item 279, weight= 2161, color= 1
	 item 280, weight= 2181, color= 1
	 item 281, weight= 2192, color= 2
	 item 282, weight= 2211, color= 2
	 item 283, weight= 2246, color= 3
	 item 284, weight= 2248, color= 3
	 item 285, weight= 2281, color= 1
	 item 286, weight= 2291, color= 1
	 item 287, weight= 2295, color= 3
	 item 288, weight= 2314, color= 0
	 item 289, weight= 2343, color= 2
	 item 290, weight= 2348, color= 1
	 item 291, weight= 2352, color= 3
	 item 292, weight= 2360, color= 4
	 item 293, weight= 2372, color= 4
	 item 294, weight= 2382, color= 3
	 item 295, weight= 2388, color= 0
	 item 296, weight= 2402, color= 1
	 item 297, weight= 2426, color= 1
	 item 298, weight= 2441, color= 4
	 item 299, weight= 2487, color= 4
	 item 300, weight= 2546, color= 1
	 item 301, weight= 2548, color= 3
	 item 302, weight= 2600, color= 2
	 item 303, weight= 2605, color= 0
	 item 304, weight= 2659, color= 1
	 item 305, weight= 2662, color= 2
	 item 306, weight= 2668, color= 4
	 item 307, weight= 2682, color= 3
	 item 308, weight= 2722, color= 2
	 item 309, weight= 2791, color= 1
	 item 310, weight= 2794, color= 1
	 item 311, weight= 2802, color= 1
	 item 312, weight= 2820, color= 2
	 item 313, weight= 2828, color= 4
	 item 314, weight= 2856, color= 0
	 item 315, weight= 2877, color= 4
	 item 316, weight= 2936, color= 2
	 item 317, weight= 2957, color= 1
	 item 318, weight= 2966, color= 0
	 item 319, weight= 2992, color= 0
	 item 320, weight= 2997, color= 4
	 item 321, weight= 3005, color= 3
	 item 322, weight= 3034, color= 4
	 item 323, weight= 3096, color= 3
	 item 324, weight= 3101, color= 3
	 item 325, weight= 3130, color= 4
	 item 326, weight= 3156, color= 4
	 item 327, weight= 3164, color= 1
	 item 328, weight= 3208, color= 0
	 item 329, weight= 3246, color= 4
	 item 330, weight= 3287, color= 4
	 item 331, weight= 3349, color= 2
	 item 332, weight= 3362, color= 1
	 item 333, weight= 3417, color= 4
	 item 334, weight= 3528, color= 0
	 item 335, weight= 3564, color= 2
	 item 336, weight= 3571, color= 4
	 item 337, weight= 3588, color= 0
	 item 338, weight= 3642, color= 2
	 item 339, weight= 3645, color= 3
	 item 340, weight= 3662, color= 3
	 item 341, weight= 3702, color= 1
	 item 342, weight= 3718, color= 1
	 item 343, weight= 3768, color= 4
	 item 344, weight= 3782, color= 4
	 item 345, weight= 3812, color= 0
	 item 346, weight= 3911, color= 4
	 item 347, weight= 3912, color= 3
	 item 348, weight= 4001, color= 3
	 item 349, weight= 4014, color= 3
	 item 350, weight= 4024, color= 1
	 item 351, weight= 4076, color= 1
	 item 352, weight= 4146, color= 3
	 item 353, weight= 4276, color= 2
	 item 354, weight= 4328, color= 3
	 item 355, weight= 4328, color= 3
	 item 356, weight= 4348, color= 2
	 item 357, weight= 4429, color= 2
	 item 358, weight= 4439, color= 2
	 item 359, weight= 4479, color= 0
	 item 360, weight= 4582, color= 4
	 item 361, weight= 4584, color= 4
	 item 362, weight= 4602, color= 4
	 item 363, weight= 4648, color= 0
	 item 364, weight= 4730, color= 0
	 item 365, weight= 4900, color= 3
	 item 366, weight= 5001, color= 1
	 item 367, weight= 5011, color= 1
	 item 368, weight= 5020, color= 0
	 item 369, weight= 5036, color= 1
	 item 370, weight= 5051, color= 0
	 item 371, weight= 5084, color= 2
	 item 372, weight= 5100, color= 0
	 item 373, weight= 5126, color= 4
	 item 374, weight= 5180, color= 1
	 item 375, weight= 5256, color= 0
	 item 376, weight= 5260, color= 3
	 item 377, weight= 5276, color= 4
	 item 378, weight= 5282, color= 2
	 item 379, weight= 5324, color= 2
	 item 380, weight= 5448, color= 3
	 item 381, weight= 5612, color= 3
	 item 382, weight= 5626, color= 3
	 item 383, weight= 5666, color= 2
	 item 384, weight= 5682, color= 4
	 item 385, weight= 5688, color= 1
	 item 386, weight= 5689, color= 2
	 item 387, weight= 5699, color= 4
	 item 388, weight= 5739, color= 4
	 item 389, weight= 5746, color= 2
	 item 390, weight= 5770, color= 2
	 item 391, weight= 5808, color= 1
	 item 392, weight= 6196, color= 0
	 item 393, weight= 6242, color= 4
	 item 394, weight= 6502, color= 1
	 item 395, weight= 6504, color= 2
	 item 396, weight= 6506, color= 2
	 item 397, weight= 6508, color= 4
	 item 398, weight= 6511, color= 1
	 item 399, weight= 6513, color= 2
	 item 400, weight= 6514, color= 1
	 item 401, weight= 6648, color= 0
	 item 402, weight= 6652, color= 2
	 item 403, weight= 6832, color= 2
	 item 404, weight= 7236, color= 4
	 item 405, weight= 7728, color= 3
	 item 406, weight= 7817, color= 1
	 item 407, weight= 7818, color= 1
	 item 408, weight= 7820, color= 2
	 item 409, weight= 7821, color= 3
	 item 410, weight= 7826, color= 4
	 item 411, weight= 7828, color= 0
	 item 412, weight= 7832, color= 0
	 item 413, weight= 7834, color= 3
	 item 414, weight= 8072, color= 0
	 item 415, weight= 8172, color= 4
	 item 416, weight= 8204, color= 4
	 item 417, weight= 8738, color= 3
	 item 418, weight= 8747, color= 1
	 item 419, weight= 8795, color= 3
	 item 420, weight= 8807, color= 2
	 item 421, weight= 8808, color= 2
	 item 422, weight= 8818, color= 0
	 item 423, weight= 8834, color= 1
	 item 424, weight= 8882, color= 1
	 item 425, weight= 8898, color= 0
	 item 426, weight= 8900, color= 1
	 item 427, weight= 8914, color= 4
	 item 428, weight= 9096, color= 4
	 item 429, weight= 9244, color= 3
	 item 430, weight= 9298, color= 4
	 item 431, weight= 9308, color= 2
	 item 432, weight= 9324, color= 0
	 item 433, weight= 9336, color= 4
	 item 434, weight= 9420, color= 4
	 item 435, weight= 9482, color= 0
	 item 436, weight= 9516, color= 0
	 item 437, weight= 9532, color= 4
	 item 438, weight= 9571, color= 4
	 item 439, weight= 9596, color= 2
	 item 440, weight= 9612, color= 0
	 item 441, weight= 9619, color= 4
	 item 442, weight= 9631, color= 0
	 item 443, weight= 9756, color= 1
	 item 444, weight= 9958, color= 2
	 item 445, weight= 10056, color= 4
	 item 446, weight= 10114, color= 1
	 item 447, weight= 10136, color= 2
	 item 448, weight= 10258, color= 3
	 item 449, weight= 10259, color= 1
	 item 450, weight= 10307, color= 3
	 item 451, weight= 10319, color= 2
	 item 452, weight= 10420, color= 4
	 item 453, weight= 10440, color= 3
	 item 454, weight= 10508, color= 3
	 item 455, weight= 10658, color= 4
	 item 456, weight= 10808, color= 1
	 item 457, weight= 10818, color= 2
	 item 458, weight= 10831, color= 0
	 item 459, weight= 10941, color= 4
	 item 460, weight= 11060, color= 2
	 item 461, weight= 11064, color= 0
	 item 462, weight= 11092, color= 1
	 item 463, weight= 11094, color= 0
	 item 464, weight= 11112, color= 1
	 item 465, weight= 11174, color= 0
	 item 466, weight= 11190, color= 1
	 item 467, weight= 11238, color= 1
	 item 468, weight= 11259, color= 0
	 item 469, weight= 11262, color= 2
	 item 470, weight= 11332, color= 2
	 item 471, weight= 11349, color= 4
	 item 472, weight= 11364, color= 1
	 item 473, weight= 11400, color= 0
	 item 474, weight= 11598, color= 3
	 item 475, weight= 11615, color= 3
	 item 476, weight= 11640, color= 1
	 item 477, weight= 11689, color= 3
	 item 478, weight= 11738, color= 0
	 item 479, weight= 11784, color= 0
	 item 480, weight= 11844, color= 3
	 item 481, weight= 11852, color= 3
	 item 482, weight= 11878, color= 3
	 item 483, weight= 11911, color= 3
	 item 484, weight= 11928, color= 4
	 item 485, weight= 11973, color= 1
	 item 486, weight= 11994, color= 0
	 item 487, weight= 12037, color= 4
	 item 488, weight= 12074, color= 0
	 item 489, weight= 12085, color= 0
	 item 490, weight= 12181, color= 0
	 item 491, weight= 12201, color= 4
	 item 492, weight= 12216, color= 2
	 item 493, weight= 12244, color= 3
	 item 494, weight= 12252, color= 3
	 item 495, weight= 12274, color= 1
	 item 496, weight= 12280, color= 1
	 item 497, weight= 12285, color= 3
	 item 498, weight= 12370, color= 4
	 item 499, weight= 12418, color= 0
	 item 500, weight= 12442, color= 3
	 item 501, weight= 12443, color= 3
	 item 502, weight= 12507, color= 1
	 item 503, weight= 12520, color= 1
	 item 504, weight= 12560, color= 4
	 item 505, weight= 12578, color= 4
	 item 506, weight= 12580, color= 4
	 item 507, weight= 12612, color= 0
	 item 508, weight= 12649, color= 2
	 item 509, weight= 12658, color= 3
	 item 510, weight= 12703, color= 4
	 item 511, weight= 12722, color= 4
	 item 512, weight= 12772, color= 0
	 item 513, weight= 12778, color= 0
	 item 514, weight= 12788, color= 2
	 item 515, weight= 12808, color= 3
	 item 516, weight= 12820, color= 3
	 item 517, weight= 12821, color= 3
	 item 518, weight= 12858, color= 3
	 item 519, weight= 12879, color= 2
	 item 520, weight= 12883, color= 0
	 item 521, weight= 12895, color= 0
	 item 522, weight= 12938, color= 4
	 item 523, weight= 12952, color= 3
	 item 524, weight= 12979, color= 0
	 item 525, weight= 13039, color= 2
	 item 526, weight= 13060, color= 1
	 item 527, weight= 13064, color= 1
	 item 528, weight= 13092, color= 3
	 item 529, weight= 13094, color= 2
	 item 530, weight= 13102, color= 0
	 item 531, weight= 13118, color= 2
	 item 532, weight= 13125, color= 2
	 item 533, weight= 13147, color= 0
	 item 534, weight= 13150, color= 1
	 item 535, weight= 13160, color= 1
	 item 536, weight= 13190, color= 0
	 item 537, weight= 13198, color= 2
	 item 538, weight= 13211, color= 3
	 item 539, weight= 13219, color= 3
	 item 540, weight= 13243, color= 4
	 item 541, weight= 13271, color= 4
	 item 542, weight= 13292, color= 2
	 item 543, weight= 13294, color= 2
	 item 544, weight= 13304, color= 2
	 item 545, weight= 13316, color= 4
	 item 546, weight= 13339, color= 3
	 item 547, weight= 13360, color= 4
	 item 548, weight= 13366, color= 0
	 item 549, weight= 13368, color= 2
	 item 550, weight= 13403, color= 3
	 item 551, weight= 13411, color= 2
	 item 552, weight= 13430, color= 0
	 item 553, weight= 13446, color= 4
	 item 554, weight= 13452, color= 1
	 item 555, weight= 13459, color= 3
	 item 556, weight= 13494, color= 2
	 item 557, weight= 13495, color= 1
	 item 558, weight= 13500, color= 2
	 item 559, weight= 13512, color= 4
	 item 560, weight= 13526, color= 1
	 item 561, weight= 13542, color= 0
	 item 562, weight= 13544, color= 4
	 item 563, weight= 13548, color= 3
	 item 564, weight= 13564, color= 3
	 item 565, weight= 13589, color= 0
	 item 566, weight= 13590, color= 2
	 item 567, weight= 13596, color= 1
	 item 568, weight= 13608, color= 1
	 item 569, weight= 13619, color= 1
	 item 570, weight= 13622, color= 4
	 item 571, weight= 13627, color= 4
	 item 572, weight= 13639, color= 2
	 item 573, weight= 13702, color= 0
	 item 574, weight= 13706, color= 4
	 item 575, weight= 13708, color= 4
	 item 576, weight= 13720, color= 1
	 item 577, weight= 13726, color= 1
	 item 578, weight= 13759, color= 4
	 item 579, weight= 13764, color= 4
	 item 580, weight= 13790, color= 1
	 item 581, weight= 13804, color= 2
	 item 582, weight= 13808, color= 3
	 item 583, weight= 13813, color= 2
	 item 584, weight= 13832, color= 4
	 item 585, weight= 13845, color= 1
	 item 586, weight= 13870, color= 4
	 item 587, weight= 13876, color= 2
	 item 588, weight= 13878, color= 2
	 item 589, weight= 13894, color= 4
	 item 590, weight= 13896, color= 1
	 item 591, weight= 13903, color= 3
	 item 592, weight= 13916, color= 3
	 item 593, weight= 13950, color= 1
	 item 594, weight= 13980, color= 4
	 item 595, weight= 13992, color= 1
	 item 596, weight= 14014, color= 4
	 item 597, weight= 14020, color= 4
	 item 598, weight= 14034, color= 2
	 item 599, weight= 14040, color= 1
	 item 600, weight= 14052, color= 0
	 item 601, weight= 14060, color= 1

VRPSolver warning: Interval set for resource 1 on source node (when source != sink) is ignored (by definition is [0.0,0.0])
[41m solve [00m
~~~~~~~~~~~~~~~~~~~~~~~~~~~~~~~~~~~~~~~~~~~~~~~~~~~~~~~~~~~~~~~~~~~~~~~~~~~~~~
VRPSolver v0.4.1, 24/03/2021. Web: vrpsolver.math.u-bordeaux.fr
Corresponds to the solver by Pessoa, Sadykov, Uchoa and Vanderbeck (2020)
Paper: dx.doi.org/10.1007/s10107-020-01523-z
USE THIS CODE ONLY FOR ACADEMIC PURPOSES AT YOUR OWN RISK
~~~~~~~~~~~~~~~~~~~~~~~~~~~~~~~~~~~~~~~~~~~~~~~~~~~~~~~~~~~~~~~~~~~~~~~~~~~~~~
BaPCod v053, 24/03/2021, © Inria Bordeaux, France
~~~~~~~~~~~~~~~~~~~~~~~~~~~~~~~~~~~~~~~~~~~~~~~~~~~~~~~~~~~~~~~~~~~~~~~~~~~~~~
VRPSolver parameters:
GlobalTimeLimit = 1800
MaxNbOfBBtreeNodeTreated = 100000
treeSearchStrategy = 1
RCSPstopCutGenTimeThresholdInPricing = 10
RCSPhardTimeThresholdInPricing = 20
RCSPnumberOfBucketsPerVertex = 2000
RCSPdynamicBucketSteps = 0
RCSPuseBidirectionalSearch = 1
RCSPapplyReducedCostFixing = 1
RCSPredCostFixingFalseGap = 0
RCSPmaxNumOfColsPerIteration = 100
RCSPmaxNumOfColsPerExactIteration = 100
RCSPheurLabelingStrategy = 4
StabilizationMinPhaseOfStage = 1
RCSPmaxNumOfLabelsInEnumeration = 100000
RCSPmaxNumOfEnumeratedSolutions = 1000000
RCSPmaxNumOfEnumSolutionsForMIP = 100000
RCSPinitNGneighbourhoodSize = 0
RCSPmaxNGneighbourhoodSize = 0
RCSPrankOneCutsMaxNumPerRound = 100
RCSPrankOneCutsMaxNumRows = -1
RCSPrankOneCutsMemoryType = 2
CutTailingOffThreshold = 0.02
CutTailingOffCounterThreshold = 3
SafeDualBoundScaleFactor = -1
StrongBranchingPhaseOneCandidatesNumber = 100
StrongBranchingPhaseOneTreeSizeEstimRatio = 0.3
StrongBranchingPhaseTwoCandidatesNumber = 1
StrongBranchingPhaseTwoTreeSizeEstimRatio = 0.1
MaxTimeForRestrictedMasterIpHeur = -1
DivingHeurUseDepthLimit = 0
MaxLDSbreadth = 3
MaxLDSdepth = 2
New model incumbent solution 1e+06, TIME = 0h0m0s3t = 3
Model is built TIME = 0h0m4s89t = 489
************************************************************************************************
**** BaB tree root node
**** Local DB = -1e+12, global bounds : [ -1e+12 , 1e+06 ], TIME = 0h0m4s89t = 489
**** 1 open nodes, 0 columns (0 active), 0 dyn. constrs. (0 active), 1204 art. vars. (1204 active)
************************************************************************************************
<DWph=2> <it= 10> <et=12.90> <Mt= 0.01> <Spt= 7.99> <nCl=1000> <DB=-43283018523.0191> <Mlp=709497688.7440> <PB=1000000> 
<DWph=2> <it= 20> <et=21.16> <Mt= 0.02> <Spt= 8.22> <nCl=1000> <DB=-37819113909.8040> <Mlp=690756355.2013> <PB=1000000> 
<DWph=2> <it= 30> <et=29.21> <Mt= 0.03> <Spt= 8.03> <nCl=1000> <DB=-32505528344.6729> <Mlp=667528883.0557> <PB=1000000> 
<DWph=2> <it= 40> <et=37.33> <Mt= 0.04> <Spt= 8.06> <nCl=1000> <DB=-29674961337.8970> <Mlp=645625028.7236> <PB=1000000> 
<DWph=2> <it= 50> <et=45.52> <Mt= 0.05> <Spt= 8.13> <nCl=1000> <DB=-26149747276.3795> <Mlp=622540711.5920> <PB=1000000> 
<DWph=2> <it= 60> <et=53.85> <Mt= 0.09> <Spt= 8.24> <nCl=1000> <DB=-23194695249.1099> <Mlp=599186010.7022> <PB=1000000> 
<DWph=2> <it= 70> <et=61.99> <Mt= 0.08> <Spt= 8.05> <nCl=1000> <DB=-19297759271.6115> <Mlp=578941127.7004> <PB=1000000> 
<DWph=2> <it= 80> <et=69.88> <Mt= 0.10> <Spt= 7.79> <nCl=1000> <DB=-14720123321.5643> <Mlp=553539397.5633> <PB=1000000> 
<DWph=2> <it= 90> <et=77.71> <Mt= 0.22> <Spt= 7.60> <nCl=1000> <DB=-11727961250.6216> <Mlp=529468099.8760> <PB=1000000> 
<DWph=2> <it=100> <et=85.58> <Mt= 0.28> <Spt= 7.59> <nCl=1000> <DB=-10304117785.4344> <Mlp=506685042.4178> <PB=1000000> 
<DWph=2> <it=110> <et=93.18> <Mt= 0.18> <Spt= 7.31> <nCl=1000> <DB=-8944399667.1257> <Mlp=491399058.0248> <PB=1000000> 
<DWph=2> <it=120> <et=100.63> <Mt= 0.23> <Spt= 7.21> <nCl=1000> <DB=-7463122321.6694> <Mlp=469434498.1296> <PB=1000000> 
<DWph=2> <it=130> <et=107.85> <Mt= 0.29> <Spt= 6.92> <nCl=1000> <DB=-6184227011.4798> <Mlp=449337097.5560> <PB=1000000> 
