Application parameters:
  batch  =>  nothing
  instance  =>  "/IN/600_20000_DI_26.txt-Q5"
  ub  =>  1.0e6
  cfg  =>  "/CFG/BPP.cfg"
data = Colored Bin Packing dataset.
number of items = 601
number of colors = 5
capacity = 16032
Items : 
	 item 1, weight= 96, color= 1
	 item 2, weight= 128, color= 4
	 item 3, weight= 176, color= 2
	 item 4, weight= 192, color= 0
	 item 5, weight= 192, color= 2
	 item 6, weight= 192, color= 4
	 item 7, weight= 204, color= 4
	 item 8, weight= 208, color= 2
	 item 9, weight= 208, color= 4
	 item 10, weight= 212, color= 2
	 item 11, weight= 216, color= 2
	 item 12, weight= 216, color= 4
	 item 13, weight= 224, color= 4
	 item 14, weight= 236, color= 4
	 item 15, weight= 240, color= 1
	 item 16, weight= 240, color= 3
	 item 17, weight= 268, color= 4
	 item 18, weight= 272, color= 0
	 item 19, weight= 272, color= 0
	 item 20, weight= 272, color= 1
	 item 21, weight= 272, color= 3
	 item 22, weight= 272, color= 3
	 item 23, weight= 272, color= 4
	 item 24, weight= 280, color= 0
	 item 25, weight= 280, color= 0
	 item 26, weight= 284, color= 3
	 item 27, weight= 284, color= 4
	 item 28, weight= 288, color= 2
	 item 29, weight= 288, color= 2
	 item 30, weight= 288, color= 3
	 item 31, weight= 288, color= 3
	 item 32, weight= 296, color= 1
	 item 33, weight= 298, color= 1
	 item 34, weight= 298, color= 2
	 item 35, weight= 304, color= 0
	 item 36, weight= 304, color= 1
	 item 37, weight= 304, color= 2
	 item 38, weight= 304, color= 4
	 item 39, weight= 306, color= 2
	 item 40, weight= 310, color= 1
	 item 41, weight= 312, color= 4
	 item 42, weight= 320, color= 1
	 item 43, weight= 320, color= 1
	 item 44, weight= 320, color= 4
	 item 45, weight= 322, color= 1
	 item 46, weight= 322, color= 2
	 item 47, weight= 324, color= 0
	 item 48, weight= 328, color= 2
	 item 49, weight= 332, color= 3
	 item 50, weight= 334, color= 2
	 item 51, weight= 336, color= 1
	 item 52, weight= 336, color= 3
	 item 53, weight= 344, color= 1
	 item 54, weight= 344, color= 4
	 item 55, weight= 344, color= 4
	 item 56, weight= 350, color= 0
	 item 57, weight= 352, color= 0
	 item 58, weight= 352, color= 0
	 item 59, weight= 352, color= 2
	 item 60, weight= 352, color= 4
	 item 61, weight= 354, color= 0
	 item 62, weight= 356, color= 0
	 item 63, weight= 356, color= 3
	 item 64, weight= 358, color= 1
	 item 65, weight= 360, color= 1
	 item 66, weight= 366, color= 4
	 item 67, weight= 368, color= 1
	 item 68, weight= 370, color= 0
	 item 69, weight= 376, color= 3
	 item 70, weight= 380, color= 4
	 item 71, weight= 382, color= 3
	 item 72, weight= 384, color= 0
	 item 73, weight= 384, color= 1
	 item 74, weight= 388, color= 1
	 item 75, weight= 388, color= 1
	 item 76, weight= 388, color= 4
	 item 77, weight= 390, color= 2
	 item 78, weight= 392, color= 2
	 item 79, weight= 398, color= 0
	 item 80, weight= 400, color= 3
	 item 81, weight= 400, color= 4
	 item 82, weight= 400, color= 4
	 item 83, weight= 406, color= 4
	 item 84, weight= 408, color= 1
	 item 85, weight= 416, color= 2
	 item 86, weight= 418, color= 4
	 item 87, weight= 418, color= 4
	 item 88, weight= 428, color= 3
	 item 89, weight= 432, color= 2
	 item 90, weight= 432, color= 2
	 item 91, weight= 440, color= 1
	 item 92, weight= 440, color= 2
	 item 93, weight= 440, color= 3
	 item 94, weight= 444, color= 1
	 item 95, weight= 448, color= 4
	 item 96, weight= 450, color= 3
	 item 97, weight= 452, color= 0
	 item 98, weight= 456, color= 2
	 item 99, weight= 456, color= 4
	 item 100, weight= 458, color= 3
	 item 101, weight= 464, color= 1
	 item 102, weight= 464, color= 3
	 item 103, weight= 468, color= 0
	 item 104, weight= 476, color= 3
	 item 105, weight= 480, color= 0
	 item 106, weight= 488, color= 0
	 item 107, weight= 488, color= 1
	 item 108, weight= 494, color= 1
	 item 109, weight= 496, color= 2
	 item 110, weight= 498, color= 4
	 item 111, weight= 502, color= 2
	 item 112, weight= 504, color= 2
	 item 113, weight= 512, color= 0
	 item 114, weight= 512, color= 3
	 item 115, weight= 520, color= 2
	 item 116, weight= 528, color= 2
	 item 117, weight= 528, color= 3
	 item 118, weight= 528, color= 3
	 item 119, weight= 534, color= 3
	 item 120, weight= 536, color= 3
	 item 121, weight= 544, color= 2
	 item 122, weight= 548, color= 4
	 item 123, weight= 554, color= 2
	 item 124, weight= 560, color= 0
	 item 125, weight= 568, color= 1
	 item 126, weight= 576, color= 0
	 item 127, weight= 576, color= 4
	 item 128, weight= 582, color= 0
	 item 129, weight= 584, color= 4
	 item 130, weight= 588, color= 0
	 item 131, weight= 600, color= 0
	 item 132, weight= 612, color= 0
	 item 133, weight= 612, color= 1
	 item 134, weight= 616, color= 1
	 item 135, weight= 640, color= 3
	 item 136, weight= 640, color= 3
	 item 137, weight= 640, color= 4
	 item 138, weight= 646, color= 4
	 item 139, weight= 664, color= 3
	 item 140, weight= 672, color= 0
	 item 141, weight= 672, color= 1
	 item 142, weight= 672, color= 2
	 item 143, weight= 676, color= 3
	 item 144, weight= 682, color= 2
	 item 145, weight= 712, color= 4
	 item 146, weight= 718, color= 2
	 item 147, weight= 724, color= 0
	 item 148, weight= 752, color= 0
	 item 149, weight= 752, color= 3
	 item 150, weight= 752, color= 4
	 item 151, weight= 754, color= 4
	 item 152, weight= 758, color= 3
	 item 153, weight= 760, color= 1
	 item 154, weight= 764, color= 1
	 item 155, weight= 768, color= 1
	 item 156, weight= 782, color= 4
	 item 157, weight= 816, color= 1
	 item 158, weight= 816, color= 3
	 item 159, weight= 818, color= 3
	 item 160, weight= 824, color= 3
	 item 161, weight= 826, color= 0
	 item 162, weight= 830, color= 0
	 item 163, weight= 830, color= 2
	 item 164, weight= 832, color= 2
	 item 165, weight= 834, color= 3
	 item 166, weight= 846, color= 4
	 item 167, weight= 850, color= 4
	 item 168, weight= 864, color= 1
	 item 169, weight= 872, color= 3
	 item 170, weight= 880, color= 0
	 item 171, weight= 880, color= 4
	 item 172, weight= 892, color= 3
	 item 173, weight= 912, color= 3
	 item 174, weight= 928, color= 3
	 item 175, weight= 944, color= 0
	 item 176, weight= 960, color= 2
	 item 177, weight= 964, color= 0
	 item 178, weight= 992, color= 4
	 item 179, weight= 1000, color= 1
	 item 180, weight= 1040, color= 3
	 item 181, weight= 1052, color= 4
	 item 182, weight= 1068, color= 0
	 item 183, weight= 1088, color= 0
	 item 184, weight= 1104, color= 1
	 item 185, weight= 1120, color= 2
	 item 186, weight= 1152, color= 2
	 item 187, weight= 1152, color= 2
	 item 188, weight= 1156, color= 3
	 item 189, weight= 1188, color= 0
	 item 190, weight= 1188, color= 2
	 item 191, weight= 1200, color= 1
	 item 192, weight= 1248, color= 3
	 item 193, weight= 1280, color= 0
	 item 194, weight= 1328, color= 0
	 item 195, weight= 1328, color= 2
	 item 196, weight= 1328, color= 4
	 item 197, weight= 1332, color= 1
	 item 198, weight= 1332, color= 3
	 item 199, weight= 1332, color= 4
	 item 200, weight= 1332, color= 4
	 item 201, weight= 1334, color= 1
	 item 202, weight= 1334, color= 2
	 item 203, weight= 1334, color= 4
	 item 204, weight= 1370, color= 0
	 item 205, weight= 1382, color= 0
	 item 206, weight= 1400, color= 2
	 item 207, weight= 1404, color= 3
	 item 208, weight= 1412, color= 3
	 item 209, weight= 1416, color= 3
	 item 210, weight= 1422, color= 0
	 item 211, weight= 1428, color= 1
	 item 212, weight= 1442, color= 3
	 item 213, weight= 1454, color= 3
	 item 214, weight= 1456, color= 1
	 item 215, weight= 1458, color= 4
	 item 216, weight= 1497, color= 3
	 item 217, weight= 1501, color= 3
	 item 218, weight= 1508, color= 0
	 item 219, weight= 1528, color= 0
	 item 220, weight= 1537, color= 0
	 item 221, weight= 1542, color= 0
	 item 222, weight= 1553, color= 2
	 item 223, weight= 1556, color= 3
	 item 224, weight= 1560, color= 4
	 item 225, weight= 1570, color= 0
	 item 226, weight= 1601, color= 0
	 item 227, weight= 1604, color= 4
	 item 228, weight= 1605, color= 3
	 item 229, weight= 1608, color= 1
	 item 230, weight= 1611, color= 3
	 item 231, weight= 1615, color= 3
	 item 232, weight= 1626, color= 1
	 item 233, weight= 1660, color= 0
	 item 234, weight= 1663, color= 4
	 item 235, weight= 1673, color= 0
	 item 236, weight= 1686, color= 3
	 item 237, weight= 1694, color= 4
	 item 238, weight= 1704, color= 0
	 item 239, weight= 1724, color= 2
	 item 240, weight= 1731, color= 0
	 item 241, weight= 1740, color= 1
	 item 242, weight= 1753, color= 1
	 item 243, weight= 1770, color= 1
	 item 244, weight= 1771, color= 2
	 item 245, weight= 1773, color= 1
	 item 246, weight= 1782, color= 4
	 item 247, weight= 1784, color= 3
	 item 248, weight= 1788, color= 1
	 item 249, weight= 1798, color= 0
	 item 250, weight= 1801, color= 3
	 item 251, weight= 1811, color= 2
	 item 252, weight= 1833, color= 1
	 item 253, weight= 1853, color= 2
	 item 254, weight= 1884, color= 0
	 item 255, weight= 1890, color= 1
	 item 256, weight= 1896, color= 1
	 item 257, weight= 1907, color= 4
	 item 258, weight= 1917, color= 1
	 item 259, weight= 1928, color= 4
	 item 260, weight= 1942, color= 1
	 item 261, weight= 1953, color= 1
	 item 262, weight= 1984, color= 0
	 item 263, weight= 1997, color= 3
	 item 264, weight= 2004, color= 2
	 item 265, weight= 2006, color= 1
	 item 266, weight= 2008, color= 2
	 item 267, weight= 2009, color= 4
	 item 268, weight= 2020, color= 0
	 item 269, weight= 2035, color= 3
	 item 270, weight= 2046, color= 4
	 item 271, weight= 2055, color= 0
	 item 272, weight= 2082, color= 1
	 item 273, weight= 2087, color= 0
	 item 274, weight= 2092, color= 3
	 item 275, weight= 2093, color= 1
	 item 276, weight= 2101, color= 0
	 item 277, weight= 2149, color= 4
	 item 278, weight= 2160, color= 1
	 item 279, weight= 2164, color= 4
	 item 280, weight= 2184, color= 2
	 item 281, weight= 2206, color= 1
	 item 282, weight= 2210, color= 4
	 item 283, weight= 2229, color= 4
	 item 284, weight= 2236, color= 0
	 item 285, weight= 2255, color= 2
	 item 286, weight= 2264, color= 1
	 item 287, weight= 2264, color= 4
	 item 288, weight= 2269, color= 0
	 item 289, weight= 2290, color= 0
	 item 290, weight= 2291, color= 1
	 item 291, weight= 2316, color= 4
	 item 292, weight= 2323, color= 1
	 item 293, weight= 2348, color= 3
	 item 294, weight= 2351, color= 3
	 item 295, weight= 2390, color= 4
	 item 296, weight= 2408, color= 2
	 item 297, weight= 2447, color= 3
	 item 298, weight= 2462, color= 4
	 item 299, weight= 2473, color= 1
	 item 300, weight= 2493, color= 0
	 item 301, weight= 2516, color= 1
	 item 302, weight= 2521, color= 0
	 item 303, weight= 2528, color= 4
	 item 304, weight= 2568, color= 1
	 item 305, weight= 2602, color= 4
	 item 306, weight= 2649, color= 1
	 item 307, weight= 2652, color= 4
	 item 308, weight= 2675, color= 3
	 item 309, weight= 2686, color= 1
	 item 310, weight= 2728, color= 3
	 item 311, weight= 2747, color= 0
	 item 312, weight= 2756, color= 4
	 item 313, weight= 2773, color= 0
	 item 314, weight= 2856, color= 1
	 item 315, weight= 2862, color= 2
	 item 316, weight= 2891, color= 3
	 item 317, weight= 2917, color= 1
	 item 318, weight= 2924, color= 2
	 item 319, weight= 2962, color= 1
	 item 320, weight= 3008, color= 1
	 item 321, weight= 3036, color= 4
	 item 322, weight= 3063, color= 0
	 item 323, weight= 3082, color= 2
	 item 324, weight= 3085, color= 2
	 item 325, weight= 3112, color= 2
	 item 326, weight= 3207, color= 0
	 item 327, weight= 3212, color= 3
	 item 328, weight= 3233, color= 1
	 item 329, weight= 3268, color= 2
	 item 330, weight= 3272, color= 1
	 item 331, weight= 3288, color= 0
	 item 332, weight= 3322, color= 4
	 item 333, weight= 3338, color= 0
	 item 334, weight= 3380, color= 3
	 item 335, weight= 3385, color= 1
	 item 336, weight= 3400, color= 2
	 item 337, weight= 3411, color= 1
	 item 338, weight= 3432, color= 3
	 item 339, weight= 3582, color= 3
	 item 340, weight= 3625, color= 3
	 item 341, weight= 3771, color= 3
	 item 342, weight= 3799, color= 4
	 item 343, weight= 3800, color= 2
	 item 344, weight= 3804, color= 1
	 item 345, weight= 3826, color= 1
	 item 346, weight= 3844, color= 2
	 item 347, weight= 3884, color= 2
	 item 348, weight= 3989, color= 0
	 item 349, weight= 4024, color= 3
	 item 350, weight= 4089, color= 4
	 item 351, weight= 4099, color= 3
	 item 352, weight= 4122, color= 2
	 item 353, weight= 4131, color= 3
	 item 354, weight= 4151, color= 4
	 item 355, weight= 4152, color= 4
	 item 356, weight= 4159, color= 4
	 item 357, weight= 4179, color= 0
	 item 358, weight= 4219, color= 0
	 item 359, weight= 4231, color= 1
	 item 360, weight= 4232, color= 4
	 item 361, weight= 4259, color= 3
	 item 362, weight= 4348, color= 3
	 item 363, weight= 4388, color= 0
	 item 364, weight= 4411, color= 0
	 item 365, weight= 4420, color= 0
	 item 366, weight= 4478, color= 4
	 item 367, weight= 4641, color= 0
	 item 368, weight= 4744, color= 1
	 item 369, weight= 4823, color= 4
	 item 370, weight= 4856, color= 0
	 item 371, weight= 4902, color= 0
	 item 372, weight= 5004, color= 3
	 item 373, weight= 5044, color= 4
	 item 374, weight= 5101, color= 4
	 item 375, weight= 5209, color= 0
	 item 376, weight= 5266, color= 2
	 item 377, weight= 5351, color= 0
	 item 378, weight= 5464, color= 0
	 item 379, weight= 5498, color= 1
	 item 380, weight= 5536, color= 1
	 item 381, weight= 5672, color= 1
	 item 382, weight= 5780, color= 1
	 item 383, weight= 5781, color= 0
	 item 384, weight= 5788, color= 3
	 item 385, weight= 5904, color= 0
	 item 386, weight= 5946, color= 1
	 item 387, weight= 5951, color= 2
	 item 388, weight= 6146, color= 4
	 item 389, weight= 6158, color= 3
	 item 390, weight= 6248, color= 1
	 item 391, weight= 6256, color= 0
	 item 392, weight= 6472, color= 0
	 item 393, weight= 6666, color= 2
	 item 394, weight= 6671, color= 2
	 item 395, weight= 6673, color= 1
	 item 396, weight= 6674, color= 1
	 item 397, weight= 6676, color= 1
	 item 398, weight= 6677, color= 0
	 item 399, weight= 6680, color= 0
	 item 400, weight= 6681, color= 3
	 item 401, weight= 6682, color= 4
	 item 402, weight= 6684, color= 1
	 item 403, weight= 7120, color= 4
	 item 404, weight= 7786, color= 0
	 item 405, weight= 7920, color= 2
	 item 406, weight= 8017, color= 3
	 item 407, weight= 8018, color= 3
	 item 408, weight= 8020, color= 1
	 item 409, weight= 8021, color= 4
	 item 410, weight= 8024, color= 3
	 item 411, weight= 8025, color= 2
	 item 412, weight= 8026, color= 2
	 item 413, weight= 8028, color= 4
	 item 414, weight= 8029, color= 2
	 item 415, weight= 8034, color= 0
	 item 416, weight= 8042, color= 1
	 item 417, weight= 8280, color= 1
	 item 418, weight= 8528, color= 1
	 item 419, weight= 8893, color= 3
	 item 420, weight= 8898, color= 1
	 item 421, weight= 9092, color= 4
	 item 422, weight= 9095, color= 1
	 item 423, weight= 9100, color= 3
	 item 424, weight= 9208, color= 4
	 item 425, weight= 9240, color= 0
	 item 426, weight= 9480, color= 3
	 item 427, weight= 9522, color= 2
	 item 428, weight= 9613, color= 3
	 item 429, weight= 9618, color= 1
	 item 430, weight= 9714, color= 3
	 item 431, weight= 9783, color= 0
	 item 432, weight= 9824, color= 1
	 item 433, weight= 9988, color= 0
	 item 434, weight= 10036, color= 3
	 item 435, weight= 10213, color= 0
	 item 436, weight= 10216, color= 1
	 item 437, weight= 10245, color= 0
	 item 438, weight= 10298, color= 3
	 item 439, weight= 10344, color= 1
	 item 440, weight= 10362, color= 1
	 item 441, weight= 10463, color= 4
	 item 442, weight= 10662, color= 3
	 item 443, weight= 10732, color= 1
	 item 444, weight= 10741, color= 2
	 item 445, weight= 10772, color= 0
	 item 446, weight= 10820, color= 4
	 item 447, weight= 10923, color= 3
	 item 448, weight= 10955, color= 3
	 item 449, weight= 10968, color= 0
	 item 450, weight= 11019, color= 0
	 item 451, weight= 11031, color= 4
	 item 452, weight= 11043, color= 3
	 item 453, weight= 11051, color= 3
	 item 454, weight= 11064, color= 2
	 item 455, weight= 11075, color= 2
	 item 456, weight= 11086, color= 1
	 item 457, weight= 11115, color= 4
	 item 458, weight= 11127, color= 1
	 item 459, weight= 11428, color= 1
	 item 460, weight= 11442, color= 3
	 item 461, weight= 11475, color= 4
	 item 462, weight= 11476, color= 1
	 item 463, weight= 11480, color= 0
	 item 464, weight= 11507, color= 1
	 item 465, weight= 11539, color= 1
	 item 466, weight= 11683, color= 3
	 item 467, weight= 11736, color= 4
	 item 468, weight= 11738, color= 0
	 item 469, weight= 11928, color= 3
	 item 470, weight= 11932, color= 1
	 item 471, weight= 11939, color= 0
	 item 472, weight= 11971, color= 2
	 item 473, weight= 11980, color= 1
	 item 474, weight= 12046, color= 3
	 item 475, weight= 12104, color= 2
	 item 476, weight= 12153, color= 0
	 item 477, weight= 12180, color= 4
	 item 478, weight= 12185, color= 3
	 item 479, weight= 12248, color= 3
	 item 480, weight= 12306, color= 4
	 item 481, weight= 12331, color= 1
	 item 482, weight= 12338, color= 4
	 item 483, weight= 12357, color= 4
	 item 484, weight= 12396, color= 2
	 item 485, weight= 12440, color= 3
	 item 486, weight= 12482, color= 1
	 item 487, weight= 12524, color= 4
	 item 488, weight= 12533, color= 4
	 item 489, weight= 12565, color= 4
	 item 490, weight= 12602, color= 4
	 item 491, weight= 12616, color= 1
	 item 492, weight= 12636, color= 1
	 item 493, weight= 12680, color= 0
	 item 494, weight= 12705, color= 2
	 item 495, weight= 12732, color= 2
	 item 496, weight= 12737, color= 4
	 item 497, weight= 12776, color= 0
	 item 498, weight= 12800, color= 0
	 item 499, weight= 12810, color= 1
	 item 500, weight= 12823, color= 4
	 item 501, weight= 12852, color= 4
	 item 502, weight= 12855, color= 0
	 item 503, weight= 12910, color= 0
	 item 504, weight= 12952, color= 2
	 item 505, weight= 13009, color= 1
	 item 506, weight= 13020, color= 0
	 item 507, weight= 13041, color= 2
	 item 508, weight= 13065, color= 2
	 item 509, weight= 13082, color= 1
	 item 510, weight= 13097, color= 2
	 item 511, weight= 13144, color= 4
	 item 512, weight= 13166, color= 4
	 item 513, weight= 13213, color= 3
	 item 514, weight= 13220, color= 1
	 item 515, weight= 13245, color= 2
	 item 516, weight= 13260, color= 0
	 item 517, weight= 13283, color= 3
	 item 518, weight= 13286, color= 4
	 item 519, weight= 13311, color= 2
	 item 520, weight= 13320, color= 4
	 item 521, weight= 13327, color= 2
	 item 522, weight= 13356, color= 4
	 item 523, weight= 13359, color= 2
	 item 524, weight= 13382, color= 2
	 item 525, weight= 13386, color= 3
	 item 526, weight= 13416, color= 1
	 item 527, weight= 13436, color= 0
	 item 528, weight= 13455, color= 0
	 item 529, weight= 13513, color= 0
	 item 530, weight= 13521, color= 1
	 item 531, weight= 13529, color= 0
	 item 532, weight= 13544, color= 2
	 item 533, weight= 13562, color= 0
	 item 534, weight= 13578, color= 0
	 item 535, weight= 13591, color= 3
	 item 536, weight= 13612, color= 0
	 item 537, weight= 13623, color= 1
	 item 538, weight= 13626, color= 0
	 item 539, weight= 13636, color= 1
	 item 540, weight= 13637, color= 3
	 item 541, weight= 13640, color= 3
	 item 542, weight= 13689, color= 3
	 item 543, weight= 13702, color= 3
	 item 544, weight= 13720, color= 0
	 item 545, weight= 13732, color= 2
	 item 546, weight= 13733, color= 4
	 item 547, weight= 13745, color= 1
	 item 548, weight= 13765, color= 1
	 item 549, weight= 13766, color= 3
	 item 550, weight= 13780, color= 0
	 item 551, weight= 13809, color= 2
	 item 552, weight= 13833, color= 4
	 item 553, weight= 13861, color= 2
	 item 554, weight= 13873, color= 2
	 item 555, weight= 13878, color= 1
	 item 556, weight= 13892, color= 1
	 item 557, weight= 13894, color= 1
	 item 558, weight= 13896, color= 0
	 item 559, weight= 13905, color= 3
	 item 560, weight= 13910, color= 0
	 item 561, weight= 13929, color= 4
	 item 562, weight= 13944, color= 1
	 item 563, weight= 13948, color= 3
	 item 564, weight= 13957, color= 3
	 item 565, weight= 13964, color= 2
	 item 566, weight= 13992, color= 3
	 item 567, weight= 14002, color= 0
	 item 568, weight= 14025, color= 1
	 item 569, weight= 14037, color= 0
	 item 570, weight= 14044, color= 3
	 item 571, weight= 14053, color= 2
	 item 572, weight= 14062, color= 0
	 item 573, weight= 14082, color= 1
	 item 574, weight= 14095, color= 2
	 item 575, weight= 14099, color= 0
	 item 576, weight= 14107, color= 4
	 item 577, weight= 14108, color= 3
	 item 578, weight= 14111, color= 0
	 item 579, weight= 14120, color= 1
	 item 580, weight= 14150, color= 4
	 item 581, weight= 14168, color= 4
	 item 582, weight= 14169, color= 3
	 item 583, weight= 14172, color= 3
	 item 584, weight= 14186, color= 4
	 item 585, weight= 14189, color= 2
	 item 586, weight= 14216, color= 1
	 item 587, weight= 14228, color= 3
	 item 588, weight= 14233, color= 2
	 item 589, weight= 14237, color= 2
	 item 590, weight= 14288, color= 2
	 item 591, weight= 14290, color= 4
	 item 592, weight= 14302, color= 1
	 item 593, weight= 14324, color= 3
	 item 594, weight= 14326, color= 3
	 item 595, weight= 14340, color= 3
	 item 596, weight= 14344, color= 1
	 item 597, weight= 14356, color= 0
	 item 598, weight= 14358, color= 3
	 item 599, weight= 14360, color= 4
	 item 600, weight= 14378, color= 0
	 item 601, weight= 14390, color= 2

VRPSolver warning: Interval set for resource 1 on source node (when source != sink) is ignored (by definition is [0.0,0.0])
[41m solve [00m
~~~~~~~~~~~~~~~~~~~~~~~~~~~~~~~~~~~~~~~~~~~~~~~~~~~~~~~~~~~~~~~~~~~~~~~~~~~~~~
VRPSolver v0.4.1, 24/03/2021. Web: vrpsolver.math.u-bordeaux.fr
Corresponds to the solver by Pessoa, Sadykov, Uchoa and Vanderbeck (2020)
Paper: dx.doi.org/10.1007/s10107-020-01523-z
USE THIS CODE ONLY FOR ACADEMIC PURPOSES AT YOUR OWN RISK
~~~~~~~~~~~~~~~~~~~~~~~~~~~~~~~~~~~~~~~~~~~~~~~~~~~~~~~~~~~~~~~~~~~~~~~~~~~~~~
BaPCod v053, 24/03/2021, © Inria Bordeaux, France
~~~~~~~~~~~~~~~~~~~~~~~~~~~~~~~~~~~~~~~~~~~~~~~~~~~~~~~~~~~~~~~~~~~~~~~~~~~~~~
VRPSolver parameters:
GlobalTimeLimit = 1800
MaxNbOfBBtreeNodeTreated = 100000
treeSearchStrategy = 1
RCSPstopCutGenTimeThresholdInPricing = 10
RCSPhardTimeThresholdInPricing = 20
RCSPnumberOfBucketsPerVertex = 2000
RCSPdynamicBucketSteps = 0
RCSPuseBidirectionalSearch = 1
RCSPapplyReducedCostFixing = 1
RCSPredCostFixingFalseGap = 0
RCSPmaxNumOfColsPerIteration = 100
RCSPmaxNumOfColsPerExactIteration = 100
RCSPheurLabelingStrategy = 4
StabilizationMinPhaseOfStage = 1
RCSPmaxNumOfLabelsInEnumeration = 100000
RCSPmaxNumOfEnumeratedSolutions = 1000000
RCSPmaxNumOfEnumSolutionsForMIP = 100000
RCSPinitNGneighbourhoodSize = 0
RCSPmaxNGneighbourhoodSize = 0
RCSPrankOneCutsMaxNumPerRound = 100
RCSPrankOneCutsMaxNumRows = -1
RCSPrankOneCutsMemoryType = 2
CutTailingOffThreshold = 0.02
CutTailingOffCounterThreshold = 3
SafeDualBoundScaleFactor = -1
StrongBranchingPhaseOneCandidatesNumber = 100
StrongBranchingPhaseOneTreeSizeEstimRatio = 0.3
StrongBranchingPhaseTwoCandidatesNumber = 1
StrongBranchingPhaseTwoTreeSizeEstimRatio = 0.1
MaxTimeForRestrictedMasterIpHeur = -1
DivingHeurUseDepthLimit = 0
MaxLDSbreadth = 3
MaxLDSdepth = 2
New model incumbent solution 1e+06, TIME = 0h0m0s3t = 3
Model is built TIME = 0h0m4s45t = 445
************************************************************************************************
**** BaB tree root node
**** Local DB = -1e+12, global bounds : [ -1e+12 , 1e+06 ], TIME = 0h0m4s45t = 445
**** 1 open nodes, 0 columns (0 active), 0 dyn. constrs. (0 active), 1204 art. vars. (1204 active)
************************************************************************************************
<DWph=2> <it= 10> <et=11.64> <Mt= 0.01> <Spt= 7.16> <nCl=1000> <DB=-48466537212.1700> <Mlp=706658997.0405> <PB=1000000> 
<DWph=2> <it= 20> <et=18.77> <Mt= 0.02> <Spt= 7.10> <nCl=1000> <DB=-39380881898.7030> <Mlp=688543644.8862> <PB=1000000> 
<DWph=2> <it= 30> <et=25.90> <Mt= 0.03> <Spt= 7.10> <nCl=1000> <DB=-34702528209.4030> <Mlp=667454286.5195> <PB=1000000> 
<DWph=2> <it= 40> <et=32.97> <Mt= 0.05> <Spt= 7.02> <nCl=1000> <DB=-31419744300.2984> <Mlp=645776629.2011> <PB=1000000> 
<DWph=2> <it= 50> <et=40.08> <Mt= 0.05> <Spt= 7.05> <nCl=1000> <DB=-27502042275.4671> <Mlp=621917927.4245> <PB=1000000> 
<DWph=2> <it= 60> <et=47.22> <Mt= 0.09> <Spt= 7.05> <nCl=1000> <DB=-23478697876.0104> <Mlp=598468016.2485> <PB=1000000> 
<DWph=2> <it= 70> <et=54.35> <Mt= 0.11> <Spt= 7.01> <nCl=1000> <DB=-19977763578.2167> <Mlp=574650228.7219> <PB=1000000> 
<DWph=2> <it= 80> <et=61.25> <Mt= 0.10> <Spt= 6.79> <nCl=1000> <DB=-16352387721.5538> <Mlp=551980336.9279> <PB=1000000> 
<DWph=2> <it= 90> <et=68.07> <Mt= 0.14> <Spt= 6.67> <nCl=1000> <DB=-12504212259.3701> <Mlp=522898377.1184> <PB=1000000> 
<DWph=2> <it=100> <et=74.88> <Mt= 0.29> <Spt= 6.52> <nCl=1000> <DB=-9594986421.0351> <Mlp=499486444.8322> <PB=1000000> 
<DWph=2> <it=110> <et=81.32> <Mt= 0.16> <Spt= 6.18> <nCl=1000> <DB=-7452715044.8916> <Mlp=474872186.7003> <PB=1000000> 
<DWph=2> <it=120> <et=88.03> <Mt= 0.25> <Spt= 6.46> <nCl=1000> <DB=-6953640125.3407> <Mlp=452120696.7405> <PB=1000000> 
<DWph=2> <it=130> <et=94.80> <Mt= 0.37> <Spt= 6.39> <nCl=1000> <DB=-5349626107.5713> <Mlp=417751216.7285> <PB=1000000> 
<DWph=2> <it=140> <et=101.41> <Mt= 0.30> <Spt= 6.23> <nCl=1000> <DB=-4924124505.0619> <Mlp=396139004.9075> <PB=1000000> 
<DWph=2> <it=150> <et=107.63> <Mt= 0.26> <Spt= 5.96> <nCl=1000> <DB=-4495121535.9266> <Mlp=373232321.8241> <PB=1000000> 
<DWph=2> <it=160> <et=113.76> <Mt= 0.28> <Spt= 5.85> <nCl=1000> <DB=-4104980340.6119> <Mlp=350911222.9173> <PB=1000000> 
