Application parameters:
  batch  =>  nothing
  instance  =>  "/IN/N102W1001R2550Q5-002"
  ub  =>  1.0e6
  cfg  =>  "/CFG/BPP.cfg"
data = Colored Bin Packing dataset.
number of items = 102
number of colors = 5
capacity = 1001
Items : 
	 item 1, weight= 250, color= 0
	 item 2, weight= 250, color= 0
	 item 3, weight= 250, color= 2
	 item 4, weight= 251, color= 3
	 item 5, weight= 253, color= 4
	 item 6, weight= 254, color= 0
	 item 7, weight= 256, color= 0
	 item 8, weight= 257, color= 1
	 item 9, weight= 258, color= 0
	 item 10, weight= 259, color= 0
	 item 11, weight= 264, color= 1
	 item 12, weight= 264, color= 3
	 item 13, weight= 265, color= 2
	 item 14, weight= 265, color= 2
	 item 15, weight= 266, color= 1
	 item 16, weight= 266, color= 4
	 item 17, weight= 268, color= 2
	 item 18, weight= 268, color= 4
	 item 19, weight= 270, color= 2
	 item 20, weight= 270, color= 4
	 item 21, weight= 270, color= 4
	 item 22, weight= 273, color= 2
	 item 23, weight= 275, color= 0
	 item 24, weight= 275, color= 3
	 item 25, weight= 277, color= 3
	 item 26, weight= 278, color= 2
	 item 27, weight= 282, color= 1
	 item 28, weight= 284, color= 1
	 item 29, weight= 284, color= 2
	 item 30, weight= 288, color= 0
	 item 31, weight= 289, color= 1
	 item 32, weight= 293, color= 4
	 item 33, weight= 296, color= 0
	 item 34, weight= 296, color= 2
	 item 35, weight= 296, color= 3
	 item 36, weight= 296, color= 3
	 item 37, weight= 297, color= 2
	 item 38, weight= 298, color= 0
	 item 39, weight= 298, color= 4
	 item 40, weight= 298, color= 4
	 item 41, weight= 314, color= 2
	 item 42, weight= 315, color= 3
	 item 43, weight= 316, color= 2
	 item 44, weight= 317, color= 4
	 item 45, weight= 318, color= 0
	 item 46, weight= 319, color= 3
	 item 47, weight= 321, color= 4
	 item 48, weight= 323, color= 2
	 item 49, weight= 326, color= 2
	 item 50, weight= 327, color= 0
	 item 51, weight= 327, color= 1
	 item 52, weight= 327, color= 2
	 item 53, weight= 327, color= 2
	 item 54, weight= 330, color= 1
	 item 55, weight= 330, color= 4
	 item 56, weight= 331, color= 2
	 item 57, weight= 333, color= 1
	 item 58, weight= 333, color= 2
	 item 59, weight= 334, color= 4
	 item 60, weight= 334, color= 4
	 item 61, weight= 337, color= 1
	 item 62, weight= 339, color= 2
	 item 63, weight= 340, color= 0
	 item 64, weight= 343, color= 1
	 item 65, weight= 344, color= 4
	 item 66, weight= 345, color= 0
	 item 67, weight= 347, color= 0
	 item 68, weight= 348, color= 0
	 item 69, weight= 348, color= 4
	 item 70, weight= 351, color= 4
	 item 71, weight= 354, color= 2
	 item 72, weight= 354, color= 4
	 item 73, weight= 355, color= 4
	 item 74, weight= 361, color= 1
	 item 75, weight= 368, color= 0
	 item 76, weight= 371, color= 2
	 item 77, weight= 386, color= 0
	 item 78, weight= 389, color= 4
	 item 79, weight= 390, color= 2
	 item 80, weight= 394, color= 0
	 item 81, weight= 394, color= 2
	 item 82, weight= 395, color= 1
	 item 83, weight= 396, color= 0
	 item 84, weight= 396, color= 3
	 item 85, weight= 403, color= 1
	 item 86, weight= 403, color= 1
	 item 87, weight= 405, color= 0
	 item 88, weight= 406, color= 2
	 item 89, weight= 411, color= 0
	 item 90, weight= 412, color= 1
	 item 91, weight= 420, color= 0
	 item 92, weight= 428, color= 4
	 item 93, weight= 429, color= 4
	 item 94, weight= 433, color= 0
	 item 95, weight= 433, color= 4
	 item 96, weight= 435, color= 3
	 item 97, weight= 440, color= 3
	 item 98, weight= 446, color= 0
	 item 99, weight= 474, color= 4
	 item 100, weight= 476, color= 3
	 item 101, weight= 485, color= 1
	 item 102, weight= 501, color= 4

VRPSolver warning: Interval set for resource 1 on source node (when source != sink) is ignored (by definition is [0.0,0.0])
[41m solve [00m
~~~~~~~~~~~~~~~~~~~~~~~~~~~~~~~~~~~~~~~~~~~~~~~~~~~~~~~~~~~~~~~~~~~~~~~~~~~~~~
VRPSolver v0.4.1, 24/03/2021. Web: vrpsolver.math.u-bordeaux.fr
Corresponds to the solver by Pessoa, Sadykov, Uchoa and Vanderbeck (2020)
Paper: dx.doi.org/10.1007/s10107-020-01523-z
USE THIS CODE ONLY FOR ACADEMIC PURPOSES AT YOUR OWN RISK
~~~~~~~~~~~~~~~~~~~~~~~~~~~~~~~~~~~~~~~~~~~~~~~~~~~~~~~~~~~~~~~~~~~~~~~~~~~~~~
BaPCod v053, 24/03/2021, © Inria Bordeaux, France
~~~~~~~~~~~~~~~~~~~~~~~~~~~~~~~~~~~~~~~~~~~~~~~~~~~~~~~~~~~~~~~~~~~~~~~~~~~~~~
VRPSolver parameters:
GlobalTimeLimit = 1800
MaxNbOfBBtreeNodeTreated = 100000
treeSearchStrategy = 1
RCSPstopCutGenTimeThresholdInPricing = 10
RCSPhardTimeThresholdInPricing = 20
RCSPnumberOfBucketsPerVertex = 2000
RCSPdynamicBucketSteps = 0
RCSPuseBidirectionalSearch = 1
RCSPapplyReducedCostFixing = 1
RCSPredCostFixingFalseGap = 0
RCSPmaxNumOfColsPerIteration = 100
RCSPmaxNumOfColsPerExactIteration = 100
RCSPheurLabelingStrategy = 4
StabilizationMinPhaseOfStage = 1
RCSPmaxNumOfLabelsInEnumeration = 100000
RCSPmaxNumOfEnumeratedSolutions = 1000000
RCSPmaxNumOfEnumSolutionsForMIP = 100000
RCSPinitNGneighbourhoodSize = 0
RCSPmaxNGneighbourhoodSize = 0
RCSPrankOneCutsMaxNumPerRound = 100
RCSPrankOneCutsMaxNumRows = -1
RCSPrankOneCutsMemoryType = 2
CutTailingOffThreshold = 0.02
CutTailingOffCounterThreshold = 3
SafeDualBoundScaleFactor = -1
StrongBranchingPhaseOneCandidatesNumber = 100
StrongBranchingPhaseOneTreeSizeEstimRatio = 0.3
StrongBranchingPhaseTwoCandidatesNumber = 1
StrongBranchingPhaseTwoTreeSizeEstimRatio = 0.1
MaxTimeForRestrictedMasterIpHeur = -1
DivingHeurUseDepthLimit = 0
MaxLDSbreadth = 3
MaxLDSdepth = 2
New model incumbent solution 1e+06, TIME = 0h0m0s3t = 3
Model is built TIME = 0h0m1s42t = 142
************************************************************************************************
**** BaB tree root node
**** Local DB = -1e+12, global bounds : [ -1e+12 , 1e+06 ], TIME = 0h0m1s42t = 142
**** 1 open nodes, 0 columns (0 active), 0 dyn. constrs. (0 active), 206 art. vars. (206 active)
************************************************************************************************
<DWph=2> <it= 10> <et=1.72> <Mt= 0.00> <Spt= 0.29> <nCl=1000> <DB=-256218768.1511> <Mlp=28100033.9167> <PB=1000000> 
<DWph=2> <it= 20> <et=2.09> <Mt= 0.02> <Spt= 0.34> <nCl=841> <DB=   24.5965> <Mlp=   34.1965> <PB=1000000> 
<DWph=2> <it= 27> <et=2.34> <Mt= 0.02> <Spt= 0.24> <nCl=546> <DB=   34.0000> <Mlp=   34.0000> <PB=1000000> 
<DWph=1> <it= 28> <et=2.40> <Mt= 0.00> <Spt= 0.05> <nCl=  0> <DB=   34.0000> <Mlp=   34.0000> <PB=1000000> 
<DWph=0> <it= 29> <et=2.43> <Mt= 0.00> <Spt= 0.03> <nCl=  0> <DB=   34.0000> <Mlp=   34.0000> <PB=1000000> 
Reduced cost fixing for graph G_1... took 0.2 sec., 57392 buck. arcs remain (50% from prev., 19.3% from max.)
Run enumeration... took 0.34 sec. and succeeded! Pricing will be done by inspection.
ColGenEvalAlg final dual bound: 34 (rounded: 34)
----- Terminating the node by MIP -----
MIP found solution with value 34
New model incumbent solution 34, TIME = 0h0m8s70t = 870
************************************************************************************************
Search is finished, global bounds : [ 34 , 34 ], TIME = 0h0m8s71t = 871
************************************************************************************************
[32mBaPCod : solution defined.[00m
statistics_cols: instance & :Optimal & cutoff & :bcRecRootDb & :bcTimeRootEval & :bcCountNodeProc & :bcRecBestDb & :bcRecBestInc & :bcTimeMain \\
statistics: N102W1001R2550Q5-002 & 1 & 1.0e6 & 34.00 & 8.70 & 1 & 34.00 & 34 & 8.72 \\
########################################################
bin_id=1: 296(3) 334(4) 371(2) 
bin_id=2: 253(4) 354(2) 394(2) 
bin_id=3: 265(2) 333(2) 403(1) 
bin_id=4: 268(2) 330(4) 403(1) 
bin_id=5: 318(0) 340(0) 343(1) 
bin_id=6: 275(3) 293(4) 433(4) 
bin_id=7: 250(2) 275(0) 476(3) 
bin_id=8: 264(3) 297(2) 440(3) 
bin_id=9: 257(1) 259(0) 485(1) 
bin_id=10: 265(2) 316(2) 420(0) 
bin_id=11: 258(0) 314(2) 429(4) 
bin_id=12: 270(2) 296(3) 435(3) 
bin_id=13: 296(2) 315(3) 390(2) 
bin_id=14: 288(0) 319(3) 394(0) 
bin_id=15: 270(4) 345(0) 386(0) 
bin_id=16: 270(4) 298(0) 433(0) 
bin_id=17: 298(4) 298(4) 405(0) 
bin_id=18: 331(2) 333(1) 337(1) 
bin_id=19: 266(1) 339(2) 396(3) 
bin_id=20: 327(1) 327(2) 347(0) 
bin_id=21: 284(2) 321(4) 396(0) 
bin_id=22: 296(0) 344(4) 361(1) 
bin_id=23: 264(1) 348(4) 389(4) 
bin_id=24: 277(3) 278(2) 446(0) 
bin_id=25: 317(4) 330(1) 354(4) 
bin_id=26: 251(3) 355(4) 395(1) 
bin_id=27: 282(1) 351(4) 368(0) 
bin_id=28: 326(2) 327(0) 348(0) 
bin_id=29: 256(0) 334(4) 411(0) 
bin_id=30: 268(4) 327(2) 406(2) 
bin_id=31: 254(0) 273(2) 474(4) 
bin_id=32: 250(0) 250(0) 501(4) 
bin_id=33: 266(4) 323(2) 412(1) 
bin_id=34: 284(1) 289(1) 428(4) 
Objective value: 34.0
########################################################
