Application parameters:
  batch  =>  nothing
  instance  =>  "/IN/N2001W1001R2550Q20-003"
  ub  =>  1.0e6
  cfg  =>  "/CFG/BPP.cfg"
data = Colored Bin Packing dataset.
number of items = 2001
number of colors = 20
capacity = 1001
Items : 
	 item 1, weight= 250, color= 0
	 item 2, weight= 250, color= 1
	 item 3, weight= 250, color= 1
	 item 4, weight= 250, color= 2
	 item 5, weight= 250, color= 2
	 item 6, weight= 250, color= 2
	 item 7, weight= 250, color= 3
	 item 8, weight= 250, color= 3
	 item 9, weight= 250, color= 4
	 item 10, weight= 250, color= 5
	 item 11, weight= 250, color= 5
	 item 12, weight= 250, color= 6
	 item 13, weight= 250, color= 7
	 item 14, weight= 250, color= 7
	 item 15, weight= 250, color= 8
	 item 16, weight= 250, color= 8
	 item 17, weight= 250, color= 9
	 item 18, weight= 250, color= 9
	 item 19, weight= 250, color= 9
	 item 20, weight= 250, color= 10
	 item 21, weight= 250, color= 10
	 item 22, weight= 250, color= 11
	 item 23, weight= 250, color= 11
	 item 24, weight= 250, color= 11
	 item 25, weight= 250, color= 12
	 item 26, weight= 250, color= 12
	 item 27, weight= 250, color= 12
	 item 28, weight= 250, color= 15
	 item 29, weight= 250, color= 15
	 item 30, weight= 250, color= 17
	 item 31, weight= 250, color= 17
	 item 32, weight= 250, color= 18
	 item 33, weight= 250, color= 18
	 item 34, weight= 250, color= 18
	 item 35, weight= 250, color= 18
	 item 36, weight= 250, color= 18
	 item 37, weight= 250, color= 18
	 item 38, weight= 250, color= 19
	 item 39, weight= 251, color= 0
	 item 40, weight= 251, color= 0
	 item 41, weight= 251, color= 1
	 item 42, weight= 251, color= 1
	 item 43, weight= 251, color= 2
	 item 44, weight= 251, color= 2
	 item 45, weight= 251, color= 3
	 item 46, weight= 251, color= 3
	 item 47, weight= 251, color= 3
	 item 48, weight= 251, color= 4
	 item 49, weight= 251, color= 4
	 item 50, weight= 251, color= 5
	 item 51, weight= 251, color= 6
	 item 52, weight= 251, color= 7
	 item 53, weight= 251, color= 7
	 item 54, weight= 251, color= 7
	 item 55, weight= 251, color= 7
	 item 56, weight= 251, color= 7
	 item 57, weight= 251, color= 8
	 item 58, weight= 251, color= 10
	 item 59, weight= 251, color= 10
	 item 60, weight= 251, color= 10
	 item 61, weight= 251, color= 11
	 item 62, weight= 251, color= 12
	 item 63, weight= 251, color= 12
	 item 64, weight= 251, color= 15
	 item 65, weight= 251, color= 17
	 item 66, weight= 251, color= 17
	 item 67, weight= 251, color= 18
	 item 68, weight= 251, color= 18
	 item 69, weight= 251, color= 18
	 item 70, weight= 251, color= 19
	 item 71, weight= 252, color= 0
	 item 72, weight= 252, color= 4
	 item 73, weight= 252, color= 4
	 item 74, weight= 252, color= 4
	 item 75, weight= 252, color= 5
	 item 76, weight= 252, color= 5
	 item 77, weight= 252, color= 5
	 item 78, weight= 252, color= 6
	 item 79, weight= 252, color= 6
	 item 80, weight= 252, color= 6
	 item 81, weight= 252, color= 6
	 item 82, weight= 252, color= 6
	 item 83, weight= 252, color= 6
	 item 84, weight= 252, color= 7
	 item 85, weight= 252, color= 7
	 item 86, weight= 252, color= 7
	 item 87, weight= 252, color= 7
	 item 88, weight= 252, color= 9
	 item 89, weight= 252, color= 10
	 item 90, weight= 252, color= 11
	 item 91, weight= 252, color= 12
	 item 92, weight= 252, color= 13
	 item 93, weight= 252, color= 13
	 item 94, weight= 252, color= 14
	 item 95, weight= 252, color= 16
	 item 96, weight= 252, color= 17
	 item 97, weight= 253, color= 1
	 item 98, weight= 253, color= 1
	 item 99, weight= 253, color= 1
	 item 100, weight= 253, color= 1
	 item 101, weight= 253, color= 3
	 item 102, weight= 253, color= 3
	 item 103, weight= 253, color= 3
	 item 104, weight= 253, color= 4
	 item 105, weight= 253, color= 6
	 item 106, weight= 253, color= 7
	 item 107, weight= 253, color= 7
	 item 108, weight= 253, color= 7
	 item 109, weight= 253, color= 8
	 item 110, weight= 253, color= 10
	 item 111, weight= 253, color= 11
	 item 112, weight= 253, color= 11
	 item 113, weight= 253, color= 11
	 item 114, weight= 253, color= 12
	 item 115, weight= 253, color= 12
	 item 116, weight= 253, color= 12
	 item 117, weight= 253, color= 12
	 item 118, weight= 253, color= 14
	 item 119, weight= 253, color= 14
	 item 120, weight= 253, color= 15
	 item 121, weight= 253, color= 17
	 item 122, weight= 253, color= 17
	 item 123, weight= 253, color= 17
	 item 124, weight= 253, color= 18
	 item 125, weight= 253, color= 18
	 item 126, weight= 253, color= 18
	 item 127, weight= 254, color= 0
	 item 128, weight= 254, color= 0
	 item 129, weight= 254, color= 1
	 item 130, weight= 254, color= 2
	 item 131, weight= 254, color= 2
	 item 132, weight= 254, color= 3
	 item 133, weight= 254, color= 3
	 item 134, weight= 254, color= 4
	 item 135, weight= 254, color= 5
	 item 136, weight= 254, color= 6
	 item 137, weight= 254, color= 7
	 item 138, weight= 254, color= 8
	 item 139, weight= 254, color= 10
	 item 140, weight= 254, color= 11
	 item 141, weight= 254, color= 13
	 item 142, weight= 254, color= 18
	 item 143, weight= 254, color= 19
	 item 144, weight= 255, color= 0
	 item 145, weight= 255, color= 1
	 item 146, weight= 255, color= 3
	 item 147, weight= 255, color= 4
	 item 148, weight= 255, color= 4
	 item 149, weight= 255, color= 5
	 item 150, weight= 255, color= 5
	 item 151, weight= 255, color= 6
	 item 152, weight= 255, color= 6
	 item 153, weight= 255, color= 6
	 item 154, weight= 255, color= 7
	 item 155, weight= 255, color= 8
	 item 156, weight= 255, color= 8
	 item 157, weight= 255, color= 8
	 item 158, weight= 255, color= 9
	 item 159, weight= 255, color= 9
	 item 160, weight= 255, color= 9
	 item 161, weight= 255, color= 10
	 item 162, weight= 255, color= 10
	 item 163, weight= 255, color= 12
	 item 164, weight= 255, color= 13
	 item 165, weight= 255, color= 13
	 item 166, weight= 255, color= 14
	 item 167, weight= 255, color= 14
	 item 168, weight= 255, color= 15
	 item 169, weight= 255, color= 17
	 item 170, weight= 255, color= 18
	 item 171, weight= 255, color= 18
	 item 172, weight= 255, color= 18
	 item 173, weight= 255, color= 19
	 item 174, weight= 255, color= 19
	 item 175, weight= 256, color= 2
	 item 176, weight= 256, color= 2
	 item 177, weight= 256, color= 3
	 item 178, weight= 256, color= 4
	 item 179, weight= 256, color= 5
	 item 180, weight= 256, color= 6
	 item 181, weight= 256, color= 7
	 item 182, weight= 256, color= 8
	 item 183, weight= 256, color= 8
	 item 184, weight= 256, color= 10
	 item 185, weight= 256, color= 11
	 item 186, weight= 256, color= 11
	 item 187, weight= 256, color= 12
	 item 188, weight= 256, color= 15
	 item 189, weight= 256, color= 16
	 item 190, weight= 256, color= 16
	 item 191, weight= 256, color= 16
	 item 192, weight= 256, color= 16
	 item 193, weight= 256, color= 18
	 item 194, weight= 256, color= 19
	 item 195, weight= 257, color= 0
	 item 196, weight= 257, color= 1
	 item 197, weight= 257, color= 3
	 item 198, weight= 257, color= 4
	 item 199, weight= 257, color= 5
	 item 200, weight= 257, color= 5
	 item 201, weight= 257, color= 6
	 item 202, weight= 257, color= 8
	 item 203, weight= 257, color= 8
	 item 204, weight= 257, color= 9
	 item 205, weight= 257, color= 9
	 item 206, weight= 257, color= 10
	 item 207, weight= 257, color= 11
	 item 208, weight= 257, color= 12
	 item 209, weight= 257, color= 12
	 item 210, weight= 257, color= 12
	 item 211, weight= 257, color= 12
	 item 212, weight= 257, color= 12
	 item 213, weight= 257, color= 13
	 item 214, weight= 257, color= 13
	 item 215, weight= 257, color= 14
	 item 216, weight= 257, color= 17
	 item 217, weight= 257, color= 17
	 item 218, weight= 257, color= 17
	 item 219, weight= 258, color= 0
	 item 220, weight= 258, color= 2
	 item 221, weight= 258, color= 2
	 item 222, weight= 258, color= 3
	 item 223, weight= 258, color= 5
	 item 224, weight= 258, color= 6
	 item 225, weight= 258, color= 8
	 item 226, weight= 258, color= 8
	 item 227, weight= 258, color= 9
	 item 228, weight= 258, color= 9
	 item 229, weight= 258, color= 10
	 item 230, weight= 258, color= 10
	 item 231, weight= 258, color= 10
	 item 232, weight= 258, color= 11
	 item 233, weight= 258, color= 12
	 item 234, weight= 258, color= 13
	 item 235, weight= 258, color= 15
	 item 236, weight= 258, color= 18
	 item 237, weight= 258, color= 18
	 item 238, weight= 258, color= 18
	 item 239, weight= 258, color= 18
	 item 240, weight= 259, color= 0
	 item 241, weight= 259, color= 1
	 item 242, weight= 259, color= 3
	 item 243, weight= 259, color= 4
	 item 244, weight= 259, color= 4
	 item 245, weight= 259, color= 5
	 item 246, weight= 259, color= 7
	 item 247, weight= 259, color= 7
	 item 248, weight= 259, color= 8
	 item 249, weight= 259, color= 9
	 item 250, weight= 259, color= 11
	 item 251, weight= 259, color= 12
	 item 252, weight= 259, color= 13
	 item 253, weight= 259, color= 15
	 item 254, weight= 259, color= 16
	 item 255, weight= 259, color= 17
	 item 256, weight= 259, color= 18
	 item 257, weight= 260, color= 1
	 item 258, weight= 260, color= 1
	 item 259, weight= 260, color= 5
	 item 260, weight= 260, color= 5
	 item 261, weight= 260, color= 5
	 item 262, weight= 260, color= 6
	 item 263, weight= 260, color= 6
	 item 264, weight= 260, color= 6
	 item 265, weight= 260, color= 6
	 item 266, weight= 260, color= 6
	 item 267, weight= 260, color= 8
	 item 268, weight= 260, color= 9
	 item 269, weight= 260, color= 9
	 item 270, weight= 260, color= 9
	 item 271, weight= 260, color= 11
	 item 272, weight= 260, color= 12
	 item 273, weight= 260, color= 12
	 item 274, weight= 260, color= 15
	 item 275, weight= 260, color= 17
	 item 276, weight= 260, color= 17
	 item 277, weight= 260, color= 17
	 item 278, weight= 261, color= 0
	 item 279, weight= 261, color= 0
	 item 280, weight= 261, color= 1
	 item 281, weight= 261, color= 1
	 item 282, weight= 261, color= 1
	 item 283, weight= 261, color= 4
	 item 284, weight= 261, color= 5
	 item 285, weight= 261, color= 5
	 item 286, weight= 261, color= 8
	 item 287, weight= 261, color= 9
	 item 288, weight= 261, color= 10
	 item 289, weight= 261, color= 12
	 item 290, weight= 261, color= 12
	 item 291, weight= 261, color= 13
	 item 292, weight= 261, color= 14
	 item 293, weight= 261, color= 14
	 item 294, weight= 261, color= 16
	 item 295, weight= 261, color= 16
	 item 296, weight= 261, color= 17
	 item 297, weight= 261, color= 17
	 item 298, weight= 262, color= 0
	 item 299, weight= 262, color= 1
	 item 300, weight= 262, color= 2
	 item 301, weight= 262, color= 2
	 item 302, weight= 262, color= 3
	 item 303, weight= 262, color= 4
	 item 304, weight= 262, color= 5
	 item 305, weight= 262, color= 7
	 item 306, weight= 262, color= 8
	 item 307, weight= 262, color= 13
	 item 308, weight= 262, color= 15
	 item 309, weight= 262, color= 15
	 item 310, weight= 262, color= 17
	 item 311, weight= 262, color= 19
	 item 312, weight= 262, color= 19
	 item 313, weight= 263, color= 2
	 item 314, weight= 263, color= 3
	 item 315, weight= 263, color= 4
	 item 316, weight= 263, color= 4
	 item 317, weight= 263, color= 5
	 item 318, weight= 263, color= 5
	 item 319, weight= 263, color= 7
	 item 320, weight= 263, color= 7
	 item 321, weight= 263, color= 8
	 item 322, weight= 263, color= 8
	 item 323, weight= 263, color= 9
	 item 324, weight= 263, color= 10
	 item 325, weight= 263, color= 10
	 item 326, weight= 263, color= 11
	 item 327, weight= 263, color= 13
	 item 328, weight= 263, color= 13
	 item 329, weight= 263, color= 14
	 item 330, weight= 263, color= 15
	 item 331, weight= 263, color= 17
	 item 332, weight= 263, color= 18
	 item 333, weight= 263, color= 19
	 item 334, weight= 264, color= 2
	 item 335, weight= 264, color= 2
	 item 336, weight= 264, color= 3
	 item 337, weight= 264, color= 4
	 item 338, weight= 264, color= 4
	 item 339, weight= 264, color= 6
	 item 340, weight= 264, color= 7
	 item 341, weight= 264, color= 8
	 item 342, weight= 264, color= 8
	 item 343, weight= 264, color= 9
	 item 344, weight= 264, color= 10
	 item 345, weight= 264, color= 10
	 item 346, weight= 264, color= 12
	 item 347, weight= 264, color= 12
	 item 348, weight= 264, color= 12
	 item 349, weight= 264, color= 13
	 item 350, weight= 264, color= 13
	 item 351, weight= 264, color= 16
	 item 352, weight= 264, color= 16
	 item 353, weight= 264, color= 19
	 item 354, weight= 264, color= 19
	 item 355, weight= 264, color= 19
	 item 356, weight= 265, color= 0
	 item 357, weight= 265, color= 1
	 item 358, weight= 265, color= 1
	 item 359, weight= 265, color= 2
	 item 360, weight= 265, color= 3
	 item 361, weight= 265, color= 3
	 item 362, weight= 265, color= 4
	 item 363, weight= 265, color= 5
	 item 364, weight= 265, color= 5
	 item 365, weight= 265, color= 7
	 item 366, weight= 265, color= 9
	 item 367, weight= 265, color= 10
	 item 368, weight= 265, color= 11
	 item 369, weight= 265, color= 12
	 item 370, weight= 265, color= 12
	 item 371, weight= 265, color= 15
	 item 372, weight= 265, color= 17
	 item 373, weight= 266, color= 1
	 item 374, weight= 266, color= 2
	 item 375, weight= 266, color= 2
	 item 376, weight= 266, color= 5
	 item 377, weight= 266, color= 6
	 item 378, weight= 266, color= 15
	 item 379, weight= 266, color= 15
	 item 380, weight= 266, color= 17
	 item 381, weight= 266, color= 18
	 item 382, weight= 266, color= 18
	 item 383, weight= 266, color= 19
	 item 384, weight= 266, color= 19
	 item 385, weight= 267, color= 0
	 item 386, weight= 267, color= 2
	 item 387, weight= 267, color= 2
	 item 388, weight= 267, color= 2
	 item 389, weight= 267, color= 4
	 item 390, weight= 267, color= 4
	 item 391, weight= 267, color= 5
	 item 392, weight= 267, color= 7
	 item 393, weight= 267, color= 7
	 item 394, weight= 267, color= 9
	 item 395, weight= 267, color= 11
	 item 396, weight= 267, color= 15
	 item 397, weight= 267, color= 16
	 item 398, weight= 267, color= 18
	 item 399, weight= 267, color= 19
	 item 400, weight= 268, color= 0
	 item 401, weight= 268, color= 1
	 item 402, weight= 268, color= 2
	 item 403, weight= 268, color= 9
	 item 404, weight= 268, color= 9
	 item 405, weight= 268, color= 15
	 item 406, weight= 268, color= 15
	 item 407, weight= 268, color= 16
	 item 408, weight= 268, color= 18
	 item 409, weight= 268, color= 18
	 item 410, weight= 268, color= 19
	 item 411, weight= 269, color= 0
	 item 412, weight= 269, color= 1
	 item 413, weight= 269, color= 1
	 item 414, weight= 269, color= 1
	 item 415, weight= 269, color= 1
	 item 416, weight= 269, color= 6
	 item 417, weight= 269, color= 6
	 item 418, weight= 269, color= 6
	 item 419, weight= 269, color= 7
	 item 420, weight= 269, color= 9
	 item 421, weight= 269, color= 10
	 item 422, weight= 269, color= 12
	 item 423, weight= 269, color= 14
	 item 424, weight= 269, color= 15
	 item 425, weight= 269, color= 15
	 item 426, weight= 269, color= 16
	 item 427, weight= 269, color= 16
	 item 428, weight= 269, color= 18
	 item 429, weight= 269, color= 18
	 item 430, weight= 269, color= 19
	 item 431, weight= 270, color= 1
	 item 432, weight= 270, color= 2
	 item 433, weight= 270, color= 6
	 item 434, weight= 270, color= 6
	 item 435, weight= 270, color= 7
	 item 436, weight= 270, color= 9
	 item 437, weight= 270, color= 13
	 item 438, weight= 270, color= 14
	 item 439, weight= 270, color= 14
	 item 440, weight= 270, color= 16
	 item 441, weight= 270, color= 18
	 item 442, weight= 270, color= 19
	 item 443, weight= 270, color= 19
	 item 444, weight= 271, color= 4
	 item 445, weight= 271, color= 5
	 item 446, weight= 271, color= 7
	 item 447, weight= 271, color= 7
	 item 448, weight= 271, color= 7
	 item 449, weight= 271, color= 14
	 item 450, weight= 271, color= 14
	 item 451, weight= 271, color= 14
	 item 452, weight= 271, color= 17
	 item 453, weight= 271, color= 18
	 item 454, weight= 271, color= 19
	 item 455, weight= 272, color= 0
	 item 456, weight= 272, color= 0
	 item 457, weight= 272, color= 2
	 item 458, weight= 272, color= 4
	 item 459, weight= 272, color= 4
	 item 460, weight= 272, color= 6
	 item 461, weight= 272, color= 6
	 item 462, weight= 272, color= 8
	 item 463, weight= 272, color= 8
	 item 464, weight= 272, color= 9
	 item 465, weight= 272, color= 10
	 item 466, weight= 272, color= 10
	 item 467, weight= 272, color= 11
	 item 468, weight= 272, color= 13
	 item 469, weight= 272, color= 13
	 item 470, weight= 272, color= 15
	 item 471, weight= 272, color= 15
	 item 472, weight= 272, color= 16
	 item 473, weight= 272, color= 17
	 item 474, weight= 272, color= 18
	 item 475, weight= 273, color= 0
	 item 476, weight= 273, color= 2
	 item 477, weight= 273, color= 4
	 item 478, weight= 273, color= 9
	 item 479, weight= 273, color= 10
	 item 480, weight= 273, color= 11
	 item 481, weight= 273, color= 12
	 item 482, weight= 273, color= 13
	 item 483, weight= 273, color= 13
	 item 484, weight= 273, color= 13
	 item 485, weight= 273, color= 16
	 item 486, weight= 273, color= 17
	 item 487, weight= 273, color= 18
	 item 488, weight= 273, color= 18
	 item 489, weight= 274, color= 1
	 item 490, weight= 274, color= 2
	 item 491, weight= 274, color= 3
	 item 492, weight= 274, color= 4
	 item 493, weight= 274, color= 4
	 item 494, weight= 274, color= 8
	 item 495, weight= 274, color= 10
	 item 496, weight= 274, color= 13
	 item 497, weight= 274, color= 16
	 item 498, weight= 274, color= 17
	 item 499, weight= 274, color= 19
	 item 500, weight= 274, color= 19
	 item 501, weight= 275, color= 0
	 item 502, weight= 275, color= 5
	 item 503, weight= 275, color= 8
	 item 504, weight= 275, color= 9
	 item 505, weight= 275, color= 9
	 item 506, weight= 275, color= 11
	 item 507, weight= 275, color= 12
	 item 508, weight= 275, color= 16
	 item 509, weight= 275, color= 17
	 item 510, weight= 275, color= 17
	 item 511, weight= 275, color= 18
	 item 512, weight= 276, color= 0
	 item 513, weight= 276, color= 1
	 item 514, weight= 276, color= 1
	 item 515, weight= 276, color= 2
	 item 516, weight= 276, color= 2
	 item 517, weight= 276, color= 4
	 item 518, weight= 276, color= 4
	 item 519, weight= 276, color= 9
	 item 520, weight= 276, color= 14
	 item 521, weight= 276, color= 15
	 item 522, weight= 276, color= 15
	 item 523, weight= 276, color= 16
	 item 524, weight= 276, color= 18
	 item 525, weight= 276, color= 19
	 item 526, weight= 277, color= 6
	 item 527, weight= 277, color= 7
	 item 528, weight= 277, color= 8
	 item 529, weight= 277, color= 9
	 item 530, weight= 277, color= 10
	 item 531, weight= 277, color= 11
	 item 532, weight= 277, color= 11
	 item 533, weight= 277, color= 12
	 item 534, weight= 277, color= 14
	 item 535, weight= 277, color= 19
	 item 536, weight= 278, color= 2
	 item 537, weight= 278, color= 2
	 item 538, weight= 278, color= 3
	 item 539, weight= 278, color= 4
	 item 540, weight= 278, color= 6
	 item 541, weight= 278, color= 7
	 item 542, weight= 278, color= 13
	 item 543, weight= 278, color= 19
	 item 544, weight= 279, color= 1
	 item 545, weight= 279, color= 3
	 item 546, weight= 279, color= 4
	 item 547, weight= 279, color= 5
	 item 548, weight= 279, color= 7
	 item 549, weight= 279, color= 8
	 item 550, weight= 279, color= 9
	 item 551, weight= 279, color= 9
	 item 552, weight= 279, color= 11
	 item 553, weight= 279, color= 12
	 item 554, weight= 279, color= 13
	 item 555, weight= 279, color= 13
	 item 556, weight= 279, color= 14
	 item 557, weight= 279, color= 15
	 item 558, weight= 280, color= 0
	 item 559, weight= 280, color= 5
	 item 560, weight= 280, color= 5
	 item 561, weight= 280, color= 8
	 item 562, weight= 280, color= 9
	 item 563, weight= 280, color= 9
	 item 564, weight= 280, color= 9
	 item 565, weight= 280, color= 9
	 item 566, weight= 280, color= 11
	 item 567, weight= 280, color= 11
	 item 568, weight= 280, color= 12
	 item 569, weight= 280, color= 14
	 item 570, weight= 280, color= 15
	 item 571, weight= 280, color= 15
	 item 572, weight= 280, color= 18
	 item 573, weight= 281, color= 0
	 item 574, weight= 281, color= 2
	 item 575, weight= 281, color= 6
	 item 576, weight= 281, color= 7
	 item 577, weight= 281, color= 8
	 item 578, weight= 281, color= 9
	 item 579, weight= 281, color= 10
	 item 580, weight= 281, color= 10
	 item 581, weight= 281, color= 11
	 item 582, weight= 281, color= 12
	 item 583, weight= 281, color= 14
	 item 584, weight= 281, color= 14
	 item 585, weight= 281, color= 15
	 item 586, weight= 281, color= 17
	 item 587, weight= 281, color= 17
	 item 588, weight= 281, color= 18
	 item 589, weight= 282, color= 1
	 item 590, weight= 282, color= 3
	 item 591, weight= 282, color= 3
	 item 592, weight= 282, color= 5
	 item 593, weight= 282, color= 5
	 item 594, weight= 282, color= 5
	 item 595, weight= 282, color= 6
	 item 596, weight= 282, color= 6
	 item 597, weight= 282, color= 8
	 item 598, weight= 282, color= 9
	 item 599, weight= 282, color= 11
	 item 600, weight= 282, color= 15
	 item 601, weight= 282, color= 17
	 item 602, weight= 282, color= 19
	 item 603, weight= 282, color= 19
	 item 604, weight= 283, color= 0
	 item 605, weight= 283, color= 0
	 item 606, weight= 283, color= 1
	 item 607, weight= 283, color= 3
	 item 608, weight= 283, color= 5
	 item 609, weight= 283, color= 5
	 item 610, weight= 283, color= 6
	 item 611, weight= 283, color= 6
	 item 612, weight= 283, color= 7
	 item 613, weight= 283, color= 8
	 item 614, weight= 283, color= 8
	 item 615, weight= 283, color= 8
	 item 616, weight= 283, color= 8
	 item 617, weight= 283, color= 12
	 item 618, weight= 283, color= 12
	 item 619, weight= 283, color= 14
	 item 620, weight= 283, color= 15
	 item 621, weight= 283, color= 15
	 item 622, weight= 283, color= 19
	 item 623, weight= 283, color= 19
	 item 624, weight= 284, color= 0
	 item 625, weight= 284, color= 1
	 item 626, weight= 284, color= 3
	 item 627, weight= 284, color= 3
	 item 628, weight= 284, color= 4
	 item 629, weight= 284, color= 4
	 item 630, weight= 284, color= 4
	 item 631, weight= 284, color= 7
	 item 632, weight= 284, color= 7
	 item 633, weight= 284, color= 8
	 item 634, weight= 284, color= 12
	 item 635, weight= 284, color= 16
	 item 636, weight= 284, color= 17
	 item 637, weight= 285, color= 0
	 item 638, weight= 285, color= 0
	 item 639, weight= 285, color= 3
	 item 640, weight= 285, color= 4
	 item 641, weight= 285, color= 5
	 item 642, weight= 285, color= 7
	 item 643, weight= 285, color= 11
	 item 644, weight= 285, color= 12
	 item 645, weight= 285, color= 13
	 item 646, weight= 285, color= 16
	 item 647, weight= 285, color= 17
	 item 648, weight= 285, color= 17
	 item 649, weight= 285, color= 18
	 item 650, weight= 285, color= 19
	 item 651, weight= 286, color= 3
	 item 652, weight= 286, color= 4
	 item 653, weight= 286, color= 4
	 item 654, weight= 286, color= 6
	 item 655, weight= 286, color= 10
	 item 656, weight= 286, color= 11
	 item 657, weight= 286, color= 11
	 item 658, weight= 286, color= 11
	 item 659, weight= 286, color= 17
	 item 660, weight= 286, color= 17
	 item 661, weight= 286, color= 18
	 item 662, weight= 287, color= 1
	 item 663, weight= 287, color= 4
	 item 664, weight= 287, color= 9
	 item 665, weight= 287, color= 14
	 item 666, weight= 287, color= 17
	 item 667, weight= 287, color= 17
	 item 668, weight= 288, color= 0
	 item 669, weight= 288, color= 2
	 item 670, weight= 288, color= 4
	 item 671, weight= 288, color= 7
	 item 672, weight= 288, color= 11
	 item 673, weight= 288, color= 12
	 item 674, weight= 288, color= 12
	 item 675, weight= 288, color= 12
	 item 676, weight= 288, color= 13
	 item 677, weight= 288, color= 16
	 item 678, weight= 288, color= 19
	 item 679, weight= 288, color= 19
	 item 680, weight= 289, color= 2
	 item 681, weight= 289, color= 3
	 item 682, weight= 289, color= 4
	 item 683, weight= 289, color= 11
	 item 684, weight= 289, color= 11
	 item 685, weight= 289, color= 12
	 item 686, weight= 289, color= 12
	 item 687, weight= 289, color= 12
	 item 688, weight= 289, color= 13
	 item 689, weight= 289, color= 15
	 item 690, weight= 289, color= 15
	 item 691, weight= 289, color= 16
	 item 692, weight= 289, color= 17
	 item 693, weight= 289, color= 18
	 item 694, weight= 289, color= 18
	 item 695, weight= 289, color= 18
	 item 696, weight= 289, color= 19
	 item 697, weight= 290, color= 1
	 item 698, weight= 290, color= 3
	 item 699, weight= 290, color= 3
	 item 700, weight= 290, color= 4
	 item 701, weight= 290, color= 4
	 item 702, weight= 290, color= 4
	 item 703, weight= 290, color= 5
	 item 704, weight= 290, color= 5
	 item 705, weight= 290, color= 5
	 item 706, weight= 290, color= 6
	 item 707, weight= 290, color= 6
	 item 708, weight= 290, color= 8
	 item 709, weight= 290, color= 8
	 item 710, weight= 290, color= 9
	 item 711, weight= 290, color= 11
	 item 712, weight= 290, color= 12
	 item 713, weight= 290, color= 13
	 item 714, weight= 290, color= 15
	 item 715, weight= 290, color= 15
	 item 716, weight= 291, color= 2
	 item 717, weight= 291, color= 2
	 item 718, weight= 291, color= 5
	 item 719, weight= 291, color= 7
	 item 720, weight= 291, color= 8
	 item 721, weight= 291, color= 10
	 item 722, weight= 291, color= 11
	 item 723, weight= 291, color= 16
	 item 724, weight= 291, color= 16
	 item 725, weight= 291, color= 17
	 item 726, weight= 291, color= 19
	 item 727, weight= 292, color= 0
	 item 728, weight= 292, color= 4
	 item 729, weight= 292, color= 6
	 item 730, weight= 292, color= 7
	 item 731, weight= 292, color= 14
	 item 732, weight= 292, color= 16
	 item 733, weight= 292, color= 17
	 item 734, weight= 292, color= 18
	 item 735, weight= 292, color= 19
	 item 736, weight= 293, color= 0
	 item 737, weight= 293, color= 2
	 item 738, weight= 293, color= 4
	 item 739, weight= 293, color= 5
	 item 740, weight= 293, color= 6
	 item 741, weight= 293, color= 12
	 item 742, weight= 293, color= 16
	 item 743, weight= 293, color= 18
	 item 744, weight= 293, color= 19
	 item 745, weight= 293, color= 19
	 item 746, weight= 294, color= 1
	 item 747, weight= 294, color= 2
	 item 748, weight= 294, color= 2
	 item 749, weight= 294, color= 6
	 item 750, weight= 294, color= 7
	 item 751, weight= 294, color= 7
	 item 752, weight= 294, color= 7
	 item 753, weight= 294, color= 9
	 item 754, weight= 294, color= 9
	 item 755, weight= 294, color= 15
	 item 756, weight= 294, color= 16
	 item 757, weight= 294, color= 18
	 item 758, weight= 294, color= 19
	 item 759, weight= 295, color= 7
	 item 760, weight= 295, color= 8
	 item 761, weight= 295, color= 8
	 item 762, weight= 295, color= 10
	 item 763, weight= 295, color= 17
	 item 764, weight= 295, color= 19
	 item 765, weight= 295, color= 19
	 item 766, weight= 296, color= 0
	 item 767, weight= 296, color= 3
	 item 768, weight= 296, color= 3
	 item 769, weight= 296, color= 4
	 item 770, weight= 296, color= 4
	 item 771, weight= 296, color= 5
	 item 772, weight= 296, color= 6
	 item 773, weight= 296, color= 8
	 item 774, weight= 296, color= 8
	 item 775, weight= 296, color= 8
	 item 776, weight= 296, color= 9
	 item 777, weight= 296, color= 10
	 item 778, weight= 296, color= 10
	 item 779, weight= 296, color= 11
	 item 780, weight= 296, color= 12
	 item 781, weight= 296, color= 12
	 item 782, weight= 296, color= 13
	 item 783, weight= 296, color= 13
	 item 784, weight= 296, color= 13
	 item 785, weight= 296, color= 14
	 item 786, weight= 296, color= 15
	 item 787, weight= 296, color= 15
	 item 788, weight= 296, color= 16
	 item 789, weight= 296, color= 19
	 item 790, weight= 297, color= 0
	 item 791, weight= 297, color= 2
	 item 792, weight= 297, color= 3
	 item 793, weight= 297, color= 7
	 item 794, weight= 297, color= 8
	 item 795, weight= 297, color= 9
	 item 796, weight= 297, color= 10
	 item 797, weight= 297, color= 11
	 item 798, weight= 297, color= 15
	 item 799, weight= 297, color= 18
	 item 800, weight= 297, color= 19
	 item 801, weight= 298, color= 0
	 item 802, weight= 298, color= 6
	 item 803, weight= 298, color= 6
	 item 804, weight= 298, color= 8
	 item 805, weight= 298, color= 10
	 item 806, weight= 298, color= 11
	 item 807, weight= 298, color= 17
	 item 808, weight= 299, color= 1
	 item 809, weight= 299, color= 3
	 item 810, weight= 299, color= 6
	 item 811, weight= 299, color= 7
	 item 812, weight= 299, color= 7
	 item 813, weight= 299, color= 10
	 item 814, weight= 299, color= 11
	 item 815, weight= 299, color= 11
	 item 816, weight= 299, color= 14
	 item 817, weight= 299, color= 18
	 item 818, weight= 300, color= 1
	 item 819, weight= 300, color= 2
	 item 820, weight= 300, color= 2
	 item 821, weight= 300, color= 4
	 item 822, weight= 300, color= 5
	 item 823, weight= 300, color= 7
	 item 824, weight= 300, color= 9
	 item 825, weight= 300, color= 10
	 item 826, weight= 300, color= 13
	 item 827, weight= 300, color= 17
	 item 828, weight= 300, color= 19
	 item 829, weight= 301, color= 1
	 item 830, weight= 301, color= 1
	 item 831, weight= 301, color= 3
	 item 832, weight= 301, color= 6
	 item 833, weight= 301, color= 11
	 item 834, weight= 301, color= 14
	 item 835, weight= 301, color= 14
	 item 836, weight= 301, color= 16
	 item 837, weight= 301, color= 17
	 item 838, weight= 301, color= 18
	 item 839, weight= 302, color= 4
	 item 840, weight= 302, color= 6
	 item 841, weight= 302, color= 9
	 item 842, weight= 302, color= 11
	 item 843, weight= 302, color= 12
	 item 844, weight= 302, color= 14
	 item 845, weight= 302, color= 14
	 item 846, weight= 302, color= 17
	 item 847, weight= 303, color= 0
	 item 848, weight= 303, color= 3
	 item 849, weight= 303, color= 9
	 item 850, weight= 303, color= 11
	 item 851, weight= 303, color= 18
	 item 852, weight= 303, color= 19
	 item 853, weight= 304, color= 0
	 item 854, weight= 304, color= 1
	 item 855, weight= 304, color= 1
	 item 856, weight= 304, color= 9
	 item 857, weight= 304, color= 14
	 item 858, weight= 304, color= 16
	 item 859, weight= 304, color= 18
	 item 860, weight= 304, color= 18
	 item 861, weight= 304, color= 19
	 item 862, weight= 304, color= 19
	 item 863, weight= 305, color= 0
	 item 864, weight= 305, color= 0
	 item 865, weight= 305, color= 1
	 item 866, weight= 305, color= 1
	 item 867, weight= 305, color= 2
	 item 868, weight= 305, color= 3
	 item 869, weight= 305, color= 5
	 item 870, weight= 305, color= 5
	 item 871, weight= 305, color= 6
	 item 872, weight= 305, color= 8
	 item 873, weight= 305, color= 9
	 item 874, weight= 305, color= 10
	 item 875, weight= 305, color= 14
	 item 876, weight= 305, color= 18
	 item 877, weight= 305, color= 18
	 item 878, weight= 305, color= 19
	 item 879, weight= 306, color= 0
	 item 880, weight= 306, color= 0
	 item 881, weight= 306, color= 1
	 item 882, weight= 306, color= 1
	 item 883, weight= 306, color= 3
	 item 884, weight= 306, color= 5
	 item 885, weight= 306, color= 6
	 item 886, weight= 306, color= 9
	 item 887, weight= 306, color= 9
	 item 888, weight= 306, color= 11
	 item 889, weight= 306, color= 14
	 item 890, weight= 306, color= 18
	 item 891, weight= 306, color= 18
	 item 892, weight= 307, color= 1
	 item 893, weight= 307, color= 1
	 item 894, weight= 307, color= 1
	 item 895, weight= 307, color= 2
	 item 896, weight= 307, color= 4
	 item 897, weight= 307, color= 4
	 item 898, weight= 307, color= 12
	 item 899, weight= 307, color= 12
	 item 900, weight= 307, color= 16
	 item 901, weight= 307, color= 16
	 item 902, weight= 307, color= 18
	 item 903, weight= 308, color= 0
	 item 904, weight= 308, color= 3
	 item 905, weight= 308, color= 5
	 item 906, weight= 308, color= 6
	 item 907, weight= 308, color= 11
	 item 908, weight= 308, color= 12
	 item 909, weight= 308, color= 13
	 item 910, weight= 308, color= 16
	 item 911, weight= 309, color= 0
	 item 912, weight= 309, color= 0
	 item 913, weight= 309, color= 1
	 item 914, weight= 309, color= 6
	 item 915, weight= 309, color= 8
	 item 916, weight= 309, color= 9
	 item 917, weight= 309, color= 11
	 item 918, weight= 309, color= 13
	 item 919, weight= 309, color= 15
	 item 920, weight= 309, color= 16
	 item 921, weight= 309, color= 17
	 item 922, weight= 309, color= 18
	 item 923, weight= 309, color= 18
	 item 924, weight= 310, color= 1
	 item 925, weight= 310, color= 2
	 item 926, weight= 310, color= 3
	 item 927, weight= 310, color= 4
	 item 928, weight= 310, color= 5
	 item 929, weight= 310, color= 6
	 item 930, weight= 310, color= 7
	 item 931, weight= 310, color= 16
	 item 932, weight= 310, color= 16
	 item 933, weight= 311, color= 3
	 item 934, weight= 311, color= 4
	 item 935, weight= 311, color= 5
	 item 936, weight= 311, color= 8
	 item 937, weight= 311, color= 10
	 item 938, weight= 311, color= 11
	 item 939, weight= 311, color= 13
	 item 940, weight= 311, color= 13
	 item 941, weight= 311, color= 14
	 item 942, weight= 311, color= 14
	 item 943, weight= 311, color= 17
	 item 944, weight= 311, color= 18
	 item 945, weight= 312, color= 2
	 item 946, weight= 312, color= 2
	 item 947, weight= 312, color= 3
	 item 948, weight= 312, color= 3
	 item 949, weight= 312, color= 3
	 item 950, weight= 312, color= 3
	 item 951, weight= 312, color= 7
	 item 952, weight= 312, color= 9
	 item 953, weight= 312, color= 10
	 item 954, weight= 312, color= 15
	 item 955, weight= 312, color= 16
	 item 956, weight= 313, color= 0
	 item 957, weight= 313, color= 8
	 item 958, weight= 313, color= 12
	 item 959, weight= 313, color= 16
	 item 960, weight= 313, color= 18
	 item 961, weight= 314, color= 2
	 item 962, weight= 314, color= 3
	 item 963, weight= 314, color= 3
	 item 964, weight= 314, color= 5
	 item 965, weight= 314, color= 13
	 item 966, weight= 314, color= 14
	 item 967, weight= 314, color= 15
	 item 968, weight= 314, color= 19
	 item 969, weight= 314, color= 19
	 item 970, weight= 315, color= 1
	 item 971, weight= 315, color= 2
	 item 972, weight= 315, color= 6
	 item 973, weight= 315, color= 7
	 item 974, weight= 315, color= 13
	 item 975, weight= 315, color= 16
	 item 976, weight= 315, color= 16
	 item 977, weight= 315, color= 18
	 item 978, weight= 316, color= 0
	 item 979, weight= 316, color= 4
	 item 980, weight= 316, color= 8
	 item 981, weight= 316, color= 15
	 item 982, weight= 317, color= 0
	 item 983, weight= 317, color= 2
	 item 984, weight= 317, color= 4
	 item 985, weight= 317, color= 7
	 item 986, weight= 317, color= 8
	 item 987, weight= 317, color= 9
	 item 988, weight= 317, color= 11
	 item 989, weight= 317, color= 14
	 item 990, weight= 317, color= 15
	 item 991, weight= 317, color= 18
	 item 992, weight= 318, color= 2
	 item 993, weight= 318, color= 6
	 item 994, weight= 318, color= 7
	 item 995, weight= 318, color= 8
	 item 996, weight= 318, color= 16
	 item 997, weight= 318, color= 17
	 item 998, weight= 318, color= 19
	 item 999, weight= 319, color= 0
	 item 1000, weight= 319, color= 2
	 item 1001, weight= 319, color= 4
	 item 1002, weight= 319, color= 6
	 item 1003, weight= 319, color= 7
	 item 1004, weight= 319, color= 8
	 item 1005, weight= 319, color= 8
	 item 1006, weight= 319, color= 9
	 item 1007, weight= 319, color= 11
	 item 1008, weight= 319, color= 11
	 item 1009, weight= 319, color= 14
	 item 1010, weight= 319, color= 15
	 item 1011, weight= 319, color= 16
	 item 1012, weight= 319, color= 17
	 item 1013, weight= 319, color= 18
	 item 1014, weight= 319, color= 19
	 item 1015, weight= 320, color= 6
	 item 1016, weight= 320, color= 6
	 item 1017, weight= 320, color= 6
	 item 1018, weight= 320, color= 7
	 item 1019, weight= 320, color= 7
	 item 1020, weight= 320, color= 7
	 item 1021, weight= 320, color= 10
	 item 1022, weight= 320, color= 13
	 item 1023, weight= 321, color= 0
	 item 1024, weight= 321, color= 2
	 item 1025, weight= 321, color= 6
	 item 1026, weight= 321, color= 12
	 item 1027, weight= 321, color= 14
	 item 1028, weight= 321, color= 15
	 item 1029, weight= 322, color= 0
	 item 1030, weight= 322, color= 3
	 item 1031, weight= 322, color= 3
	 item 1032, weight= 322, color= 4
	 item 1033, weight= 322, color= 5
	 item 1034, weight= 322, color= 7
	 item 1035, weight= 323, color= 0
	 item 1036, weight= 323, color= 3
	 item 1037, weight= 323, color= 4
	 item 1038, weight= 323, color= 5
	 item 1039, weight= 323, color= 7
	 item 1040, weight= 323, color= 9
	 item 1041, weight= 323, color= 11
	 item 1042, weight= 323, color= 16
	 item 1043, weight= 323, color= 18
	 item 1044, weight= 324, color= 0
	 item 1045, weight= 324, color= 0
	 item 1046, weight= 324, color= 1
	 item 1047, weight= 324, color= 1
	 item 1048, weight= 324, color= 3
	 item 1049, weight= 324, color= 3
	 item 1050, weight= 324, color= 5
	 item 1051, weight= 324, color= 9
	 item 1052, weight= 324, color= 12
	 item 1053, weight= 324, color= 12
	 item 1054, weight= 324, color= 16
	 item 1055, weight= 324, color= 17
	 item 1056, weight= 324, color= 18
	 item 1057, weight= 325, color= 3
	 item 1058, weight= 325, color= 3
	 item 1059, weight= 325, color= 5
	 item 1060, weight= 325, color= 8
	 item 1061, weight= 325, color= 10
	 item 1062, weight= 325, color= 11
	 item 1063, weight= 325, color= 12
	 item 1064, weight= 325, color= 12
	 item 1065, weight= 325, color= 15
	 item 1066, weight= 325, color= 16
	 item 1067, weight= 325, color= 18
	 item 1068, weight= 326, color= 3
	 item 1069, weight= 326, color= 9
	 item 1070, weight= 326, color= 13
	 item 1071, weight= 326, color= 14
	 item 1072, weight= 326, color= 15
	 item 1073, weight= 326, color= 17
	 item 1074, weight= 326, color= 19
	 item 1075, weight= 326, color= 19
	 item 1076, weight= 327, color= 1
	 item 1077, weight= 327, color= 4
	 item 1078, weight= 327, color= 6
	 item 1079, weight= 327, color= 13
	 item 1080, weight= 327, color= 14
	 item 1081, weight= 327, color= 15
	 item 1082, weight= 327, color= 15
	 item 1083, weight= 327, color= 15
	 item 1084, weight= 327, color= 16
	 item 1085, weight= 327, color= 17
	 item 1086, weight= 328, color= 2
	 item 1087, weight= 328, color= 3
	 item 1088, weight= 328, color= 3
	 item 1089, weight= 328, color= 4
	 item 1090, weight= 328, color= 4
	 item 1091, weight= 328, color= 5
	 item 1092, weight= 328, color= 6
	 item 1093, weight= 328, color= 11
	 item 1094, weight= 328, color= 11
	 item 1095, weight= 328, color= 13
	 item 1096, weight= 328, color= 18
	 item 1097, weight= 328, color= 19
	 item 1098, weight= 328, color= 19
	 item 1099, weight= 329, color= 0
	 item 1100, weight= 329, color= 0
	 item 1101, weight= 329, color= 1
	 item 1102, weight= 329, color= 3
	 item 1103, weight= 329, color= 5
	 item 1104, weight= 329, color= 11
	 item 1105, weight= 329, color= 12
	 item 1106, weight= 329, color= 13
	 item 1107, weight= 329, color= 17
	 item 1108, weight= 329, color= 17
	 item 1109, weight= 329, color= 18
	 item 1110, weight= 329, color= 19
	 item 1111, weight= 329, color= 19
	 item 1112, weight= 330, color= 1
	 item 1113, weight= 330, color= 2
	 item 1114, weight= 330, color= 3
	 item 1115, weight= 330, color= 4
	 item 1116, weight= 330, color= 6
	 item 1117, weight= 330, color= 8
	 item 1118, weight= 330, color= 9
	 item 1119, weight= 330, color= 15
	 item 1120, weight= 330, color= 18
	 item 1121, weight= 330, color= 18
	 item 1122, weight= 331, color= 2
	 item 1123, weight= 331, color= 2
	 item 1124, weight= 331, color= 2
	 item 1125, weight= 331, color= 3
	 item 1126, weight= 331, color= 4
	 item 1127, weight= 331, color= 7
	 item 1128, weight= 331, color= 7
	 item 1129, weight= 331, color= 8
	 item 1130, weight= 331, color= 8
	 item 1131, weight= 331, color= 8
	 item 1132, weight= 331, color= 8
	 item 1133, weight= 331, color= 10
	 item 1134, weight= 331, color= 11
	 item 1135, weight= 331, color= 11
	 item 1136, weight= 331, color= 17
	 item 1137, weight= 331, color= 18
	 item 1138, weight= 331, color= 19
	 item 1139, weight= 332, color= 3
	 item 1140, weight= 332, color= 5
	 item 1141, weight= 332, color= 7
	 item 1142, weight= 332, color= 8
	 item 1143, weight= 332, color= 11
	 item 1144, weight= 332, color= 19
	 item 1145, weight= 333, color= 8
	 item 1146, weight= 333, color= 8
	 item 1147, weight= 333, color= 9
	 item 1148, weight= 333, color= 10
	 item 1149, weight= 333, color= 12
	 item 1150, weight= 333, color= 12
	 item 1151, weight= 333, color= 13
	 item 1152, weight= 333, color= 17
	 item 1153, weight= 334, color= 0
	 item 1154, weight= 334, color= 0
	 item 1155, weight= 334, color= 4
	 item 1156, weight= 334, color= 9
	 item 1157, weight= 334, color= 12
	 item 1158, weight= 334, color= 14
	 item 1159, weight= 334, color= 15
	 item 1160, weight= 334, color= 16
	 item 1161, weight= 334, color= 19
	 item 1162, weight= 335, color= 0
	 item 1163, weight= 335, color= 3
	 item 1164, weight= 335, color= 4
	 item 1165, weight= 335, color= 7
	 item 1166, weight= 335, color= 14
	 item 1167, weight= 335, color= 15
	 item 1168, weight= 335, color= 15
	 item 1169, weight= 335, color= 16
	 item 1170, weight= 335, color= 16
	 item 1171, weight= 336, color= 0
	 item 1172, weight= 336, color= 5
	 item 1173, weight= 336, color= 9
	 item 1174, weight= 336, color= 10
	 item 1175, weight= 336, color= 12
	 item 1176, weight= 336, color= 14
	 item 1177, weight= 337, color= 4
	 item 1178, weight= 337, color= 4
	 item 1179, weight= 337, color= 6
	 item 1180, weight= 337, color= 9
	 item 1181, weight= 337, color= 11
	 item 1182, weight= 337, color= 15
	 item 1183, weight= 337, color= 18
	 item 1184, weight= 338, color= 0
	 item 1185, weight= 338, color= 1
	 item 1186, weight= 338, color= 2
	 item 1187, weight= 338, color= 5
	 item 1188, weight= 338, color= 9
	 item 1189, weight= 338, color= 9
	 item 1190, weight= 338, color= 11
	 item 1191, weight= 338, color= 12
	 item 1192, weight= 338, color= 13
	 item 1193, weight= 338, color= 17
	 item 1194, weight= 338, color= 19
	 item 1195, weight= 339, color= 0
	 item 1196, weight= 339, color= 0
	 item 1197, weight= 339, color= 1
	 item 1198, weight= 339, color= 2
	 item 1199, weight= 339, color= 7
	 item 1200, weight= 339, color= 11
	 item 1201, weight= 339, color= 12
	 item 1202, weight= 339, color= 14
	 item 1203, weight= 339, color= 14
	 item 1204, weight= 340, color= 4
	 item 1205, weight= 340, color= 7
	 item 1206, weight= 340, color= 10
	 item 1207, weight= 340, color= 19
	 item 1208, weight= 341, color= 1
	 item 1209, weight= 341, color= 2
	 item 1210, weight= 341, color= 3
	 item 1211, weight= 341, color= 5
	 item 1212, weight= 341, color= 5
	 item 1213, weight= 341, color= 6
	 item 1214, weight= 341, color= 11
	 item 1215, weight= 341, color= 12
	 item 1216, weight= 341, color= 12
	 item 1217, weight= 341, color= 14
	 item 1218, weight= 341, color= 17
	 item 1219, weight= 341, color= 18
	 item 1220, weight= 342, color= 0
	 item 1221, weight= 342, color= 0
	 item 1222, weight= 342, color= 1
	 item 1223, weight= 342, color= 2
	 item 1224, weight= 342, color= 2
	 item 1225, weight= 342, color= 7
	 item 1226, weight= 342, color= 8
	 item 1227, weight= 342, color= 14
	 item 1228, weight= 342, color= 18
	 item 1229, weight= 342, color= 18
	 item 1230, weight= 342, color= 18
	 item 1231, weight= 342, color= 19
	 item 1232, weight= 343, color= 3
	 item 1233, weight= 343, color= 4
	 item 1234, weight= 343, color= 7
	 item 1235, weight= 343, color= 8
	 item 1236, weight= 343, color= 11
	 item 1237, weight= 343, color= 13
	 item 1238, weight= 343, color= 14
	 item 1239, weight= 343, color= 17
	 item 1240, weight= 344, color= 13
	 item 1241, weight= 344, color= 14
	 item 1242, weight= 344, color= 17
	 item 1243, weight= 344, color= 18
	 item 1244, weight= 344, color= 19
	 item 1245, weight= 345, color= 0
	 item 1246, weight= 345, color= 2
	 item 1247, weight= 345, color= 4
	 item 1248, weight= 345, color= 4
	 item 1249, weight= 345, color= 5
	 item 1250, weight= 345, color= 6
	 item 1251, weight= 345, color= 12
	 item 1252, weight= 345, color= 15
	 item 1253, weight= 345, color= 16
	 item 1254, weight= 345, color= 19
	 item 1255, weight= 346, color= 1
	 item 1256, weight= 346, color= 4
	 item 1257, weight= 346, color= 6
	 item 1258, weight= 346, color= 9
	 item 1259, weight= 346, color= 12
	 item 1260, weight= 346, color= 13
	 item 1261, weight= 346, color= 16
	 item 1262, weight= 346, color= 18
	 item 1263, weight= 347, color= 1
	 item 1264, weight= 347, color= 3
	 item 1265, weight= 347, color= 5
	 item 1266, weight= 347, color= 6
	 item 1267, weight= 347, color= 13
	 item 1268, weight= 347, color= 14
	 item 1269, weight= 348, color= 0
	 item 1270, weight= 348, color= 5
	 item 1271, weight= 348, color= 6
	 item 1272, weight= 348, color= 16
	 item 1273, weight= 348, color= 17
	 item 1274, weight= 349, color= 5
	 item 1275, weight= 349, color= 5
	 item 1276, weight= 349, color= 6
	 item 1277, weight= 349, color= 7
	 item 1278, weight= 349, color= 8
	 item 1279, weight= 349, color= 8
	 item 1280, weight= 349, color= 10
	 item 1281, weight= 349, color= 14
	 item 1282, weight= 349, color= 15
	 item 1283, weight= 349, color= 16
	 item 1284, weight= 349, color= 16
	 item 1285, weight= 349, color= 18
	 item 1286, weight= 349, color= 18
	 item 1287, weight= 349, color= 19
	 item 1288, weight= 350, color= 0
	 item 1289, weight= 350, color= 4
	 item 1290, weight= 350, color= 6
	 item 1291, weight= 350, color= 8
	 item 1292, weight= 350, color= 10
	 item 1293, weight= 350, color= 13
	 item 1294, weight= 350, color= 19
	 item 1295, weight= 351, color= 14
	 item 1296, weight= 351, color= 16
	 item 1297, weight= 351, color= 17
	 item 1298, weight= 351, color= 18
	 item 1299, weight= 352, color= 0
	 item 1300, weight= 352, color= 1
	 item 1301, weight= 352, color= 7
	 item 1302, weight= 352, color= 7
	 item 1303, weight= 352, color= 7
	 item 1304, weight= 352, color= 8
	 item 1305, weight= 352, color= 15
	 item 1306, weight= 352, color= 16
	 item 1307, weight= 352, color= 17
	 item 1308, weight= 352, color= 19
	 item 1309, weight= 352, color= 19
	 item 1310, weight= 352, color= 19
	 item 1311, weight= 353, color= 1
	 item 1312, weight= 353, color= 9
	 item 1313, weight= 353, color= 13
	 item 1314, weight= 353, color= 15
	 item 1315, weight= 353, color= 16
	 item 1316, weight= 354, color= 3
	 item 1317, weight= 354, color= 7
	 item 1318, weight= 354, color= 17
	 item 1319, weight= 354, color= 19
	 item 1320, weight= 354, color= 19
	 item 1321, weight= 355, color= 0
	 item 1322, weight= 355, color= 1
	 item 1323, weight= 355, color= 3
	 item 1324, weight= 355, color= 4
	 item 1325, weight= 355, color= 6
	 item 1326, weight= 355, color= 12
	 item 1327, weight= 355, color= 13
	 item 1328, weight= 355, color= 15
	 item 1329, weight= 355, color= 15
	 item 1330, weight= 355, color= 15
	 item 1331, weight= 355, color= 17
	 item 1332, weight= 355, color= 19
	 item 1333, weight= 356, color= 2
	 item 1334, weight= 356, color= 5
	 item 1335, weight= 356, color= 5
	 item 1336, weight= 356, color= 11
	 item 1337, weight= 356, color= 13
	 item 1338, weight= 356, color= 15
	 item 1339, weight= 356, color= 17
	 item 1340, weight= 357, color= 4
	 item 1341, weight= 357, color= 7
	 item 1342, weight= 357, color= 9
	 item 1343, weight= 357, color= 9
	 item 1344, weight= 357, color= 12
	 item 1345, weight= 357, color= 12
	 item 1346, weight= 357, color= 15
	 item 1347, weight= 358, color= 1
	 item 1348, weight= 358, color= 3
	 item 1349, weight= 358, color= 5
	 item 1350, weight= 358, color= 7
	 item 1351, weight= 358, color= 7
	 item 1352, weight= 358, color= 16
	 item 1353, weight= 359, color= 0
	 item 1354, weight= 359, color= 10
	 item 1355, weight= 359, color= 11
	 item 1356, weight= 359, color= 18
	 item 1357, weight= 360, color= 1
	 item 1358, weight= 360, color= 5
	 item 1359, weight= 360, color= 5
	 item 1360, weight= 360, color= 15
	 item 1361, weight= 360, color= 16
	 item 1362, weight= 360, color= 18
	 item 1363, weight= 361, color= 2
	 item 1364, weight= 361, color= 16
	 item 1365, weight= 361, color= 17
	 item 1366, weight= 362, color= 0
	 item 1367, weight= 362, color= 2
	 item 1368, weight= 362, color= 3
	 item 1369, weight= 362, color= 8
	 item 1370, weight= 362, color= 11
	 item 1371, weight= 362, color= 16
	 item 1372, weight= 362, color= 18
	 item 1373, weight= 362, color= 18
	 item 1374, weight= 362, color= 19
	 item 1375, weight= 363, color= 7
	 item 1376, weight= 363, color= 14
	 item 1377, weight= 363, color= 15
	 item 1378, weight= 363, color= 16
	 item 1379, weight= 363, color= 18
	 item 1380, weight= 363, color= 18
	 item 1381, weight= 363, color= 18
	 item 1382, weight= 364, color= 1
	 item 1383, weight= 364, color= 6
	 item 1384, weight= 364, color= 13
	 item 1385, weight= 364, color= 14
	 item 1386, weight= 364, color= 15
	 item 1387, weight= 364, color= 15
	 item 1388, weight= 364, color= 15
	 item 1389, weight= 364, color= 17
	 item 1390, weight= 365, color= 2
	 item 1391, weight= 365, color= 2
	 item 1392, weight= 365, color= 2
	 item 1393, weight= 365, color= 7
	 item 1394, weight= 365, color= 15
	 item 1395, weight= 365, color= 16
	 item 1396, weight= 365, color= 16
	 item 1397, weight= 365, color= 17
	 item 1398, weight= 365, color= 17
	 item 1399, weight= 366, color= 1
	 item 1400, weight= 366, color= 7
	 item 1401, weight= 366, color= 8
	 item 1402, weight= 366, color= 9
	 item 1403, weight= 366, color= 15
	 item 1404, weight= 367, color= 5
	 item 1405, weight= 367, color= 5
	 item 1406, weight= 367, color= 17
	 item 1407, weight= 368, color= 0
	 item 1408, weight= 368, color= 1
	 item 1409, weight= 368, color= 6
	 item 1410, weight= 368, color= 11
	 item 1411, weight= 368, color= 11
	 item 1412, weight= 368, color= 14
	 item 1413, weight= 368, color= 16
	 item 1414, weight= 368, color= 17
	 item 1415, weight= 368, color= 18
	 item 1416, weight= 369, color= 4
	 item 1417, weight= 369, color= 5
	 item 1418, weight= 369, color= 6
	 item 1419, weight= 369, color= 7
	 item 1420, weight= 369, color= 7
	 item 1421, weight= 369, color= 17
	 item 1422, weight= 369, color= 18
	 item 1423, weight= 369, color= 18
	 item 1424, weight= 370, color= 1
	 item 1425, weight= 370, color= 4
	 item 1426, weight= 370, color= 6
	 item 1427, weight= 370, color= 13
	 item 1428, weight= 371, color= 1
	 item 1429, weight= 371, color= 6
	 item 1430, weight= 371, color= 6
	 item 1431, weight= 371, color= 9
	 item 1432, weight= 371, color= 10
	 item 1433, weight= 371, color= 15
	 item 1434, weight= 372, color= 1
	 item 1435, weight= 372, color= 3
	 item 1436, weight= 372, color= 5
	 item 1437, weight= 372, color= 9
	 item 1438, weight= 372, color= 10
	 item 1439, weight= 372, color= 11
	 item 1440, weight= 372, color= 11
	 item 1441, weight= 372, color= 13
	 item 1442, weight= 372, color= 19
	 item 1443, weight= 373, color= 3
	 item 1444, weight= 373, color= 3
	 item 1445, weight= 373, color= 4
	 item 1446, weight= 373, color= 5
	 item 1447, weight= 373, color= 5
	 item 1448, weight= 373, color= 6
	 item 1449, weight= 373, color= 17
	 item 1450, weight= 373, color= 18
	 item 1451, weight= 374, color= 4
	 item 1452, weight= 374, color= 10
	 item 1453, weight= 374, color= 11
	 item 1454, weight= 375, color= 4
	 item 1455, weight= 375, color= 6
	 item 1456, weight= 375, color= 6
	 item 1457, weight= 375, color= 11
	 item 1458, weight= 375, color= 13
	 item 1459, weight= 376, color= 3
	 item 1460, weight= 376, color= 6
	 item 1461, weight= 376, color= 8
	 item 1462, weight= 376, color= 9
	 item 1463, weight= 376, color= 10
	 item 1464, weight= 376, color= 10
	 item 1465, weight= 376, color= 12
	 item 1466, weight= 376, color= 13
	 item 1467, weight= 376, color= 17
	 item 1468, weight= 376, color= 18
	 item 1469, weight= 376, color= 19
	 item 1470, weight= 377, color= 3
	 item 1471, weight= 377, color= 11
	 item 1472, weight= 377, color= 13
	 item 1473, weight= 377, color= 18
	 item 1474, weight= 378, color= 4
	 item 1475, weight= 378, color= 4
	 item 1476, weight= 378, color= 6
	 item 1477, weight= 378, color= 8
	 item 1478, weight= 378, color= 12
	 item 1479, weight= 378, color= 15
	 item 1480, weight= 378, color= 17
	 item 1481, weight= 379, color= 1
	 item 1482, weight= 379, color= 4
	 item 1483, weight= 379, color= 19
	 item 1484, weight= 380, color= 2
	 item 1485, weight= 380, color= 2
	 item 1486, weight= 380, color= 3
	 item 1487, weight= 380, color= 11
	 item 1488, weight= 380, color= 13
	 item 1489, weight= 380, color= 14
	 item 1490, weight= 380, color= 14
	 item 1491, weight= 380, color= 19
	 item 1492, weight= 381, color= 0
	 item 1493, weight= 381, color= 2
	 item 1494, weight= 381, color= 3
	 item 1495, weight= 381, color= 4
	 item 1496, weight= 381, color= 8
	 item 1497, weight= 381, color= 10
	 item 1498, weight= 382, color= 1
	 item 1499, weight= 382, color= 6
	 item 1500, weight= 382, color= 9
	 item 1501, weight= 382, color= 10
	 item 1502, weight= 382, color= 12
	 item 1503, weight= 382, color= 17
	 item 1504, weight= 383, color= 1
	 item 1505, weight= 383, color= 9
	 item 1506, weight= 383, color= 12
	 item 1507, weight= 383, color= 18
	 item 1508, weight= 384, color= 0
	 item 1509, weight= 384, color= 7
	 item 1510, weight= 384, color= 9
	 item 1511, weight= 384, color= 11
	 item 1512, weight= 384, color= 14
	 item 1513, weight= 385, color= 3
	 item 1514, weight= 385, color= 5
	 item 1515, weight= 385, color= 8
	 item 1516, weight= 385, color= 11
	 item 1517, weight= 385, color= 12
	 item 1518, weight= 385, color= 13
	 item 1519, weight= 385, color= 16
	 item 1520, weight= 386, color= 5
	 item 1521, weight= 386, color= 7
	 item 1522, weight= 386, color= 12
	 item 1523, weight= 386, color= 13
	 item 1524, weight= 387, color= 3
	 item 1525, weight= 387, color= 4
	 item 1526, weight= 387, color= 4
	 item 1527, weight= 387, color= 11
	 item 1528, weight= 387, color= 13
	 item 1529, weight= 387, color= 13
	 item 1530, weight= 387, color= 19
	 item 1531, weight= 387, color= 19
	 item 1532, weight= 388, color= 2
	 item 1533, weight= 388, color= 8
	 item 1534, weight= 388, color= 8
	 item 1535, weight= 388, color= 14
	 item 1536, weight= 388, color= 15
	 item 1537, weight= 388, color= 18
	 item 1538, weight= 389, color= 3
	 item 1539, weight= 389, color= 8
	 item 1540, weight= 389, color= 8
	 item 1541, weight= 389, color= 9
	 item 1542, weight= 389, color= 12
	 item 1543, weight= 390, color= 3
	 item 1544, weight= 390, color= 4
	 item 1545, weight= 390, color= 4
	 item 1546, weight= 390, color= 8
	 item 1547, weight= 391, color= 0
	 item 1548, weight= 391, color= 9
	 item 1549, weight= 391, color= 15
	 item 1550, weight= 392, color= 3
	 item 1551, weight= 392, color= 7
	 item 1552, weight= 392, color= 8
	 item 1553, weight= 392, color= 8
	 item 1554, weight= 392, color= 16
	 item 1555, weight= 392, color= 18
	 item 1556, weight= 393, color= 0
	 item 1557, weight= 393, color= 5
	 item 1558, weight= 393, color= 6
	 item 1559, weight= 393, color= 9
	 item 1560, weight= 393, color= 12
	 item 1561, weight= 393, color= 16
	 item 1562, weight= 393, color= 17
	 item 1563, weight= 393, color= 17
	 item 1564, weight= 394, color= 6
	 item 1565, weight= 394, color= 7
	 item 1566, weight= 394, color= 10
	 item 1567, weight= 394, color= 10
	 item 1568, weight= 394, color= 12
	 item 1569, weight= 394, color= 12
	 item 1570, weight= 394, color= 12
	 item 1571, weight= 394, color= 14
	 item 1572, weight= 394, color= 16
	 item 1573, weight= 394, color= 19
	 item 1574, weight= 395, color= 1
	 item 1575, weight= 395, color= 1
	 item 1576, weight= 395, color= 3
	 item 1577, weight= 395, color= 4
	 item 1578, weight= 395, color= 5
	 item 1579, weight= 395, color= 9
	 item 1580, weight= 395, color= 13
	 item 1581, weight= 395, color= 13
	 item 1582, weight= 395, color= 13
	 item 1583, weight= 395, color= 18
	 item 1584, weight= 395, color= 18
	 item 1585, weight= 395, color= 19
	 item 1586, weight= 396, color= 0
	 item 1587, weight= 396, color= 1
	 item 1588, weight= 396, color= 8
	 item 1589, weight= 396, color= 11
	 item 1590, weight= 396, color= 12
	 item 1591, weight= 396, color= 17
	 item 1592, weight= 397, color= 1
	 item 1593, weight= 397, color= 1
	 item 1594, weight= 397, color= 1
	 item 1595, weight= 397, color= 4
	 item 1596, weight= 397, color= 6
	 item 1597, weight= 397, color= 9
	 item 1598, weight= 397, color= 17
	 item 1599, weight= 397, color= 17
	 item 1600, weight= 397, color= 17
	 item 1601, weight= 398, color= 0
	 item 1602, weight= 398, color= 1
	 item 1603, weight= 398, color= 1
	 item 1604, weight= 398, color= 3
	 item 1605, weight= 398, color= 15
	 item 1606, weight= 398, color= 17
	 item 1607, weight= 398, color= 19
	 item 1608, weight= 398, color= 19
	 item 1609, weight= 398, color= 19
	 item 1610, weight= 399, color= 9
	 item 1611, weight= 399, color= 13
	 item 1612, weight= 399, color= 17
	 item 1613, weight= 399, color= 17
	 item 1614, weight= 400, color= 0
	 item 1615, weight= 400, color= 0
	 item 1616, weight= 400, color= 4
	 item 1617, weight= 400, color= 6
	 item 1618, weight= 400, color= 10
	 item 1619, weight= 400, color= 10
	 item 1620, weight= 400, color= 15
	 item 1621, weight= 401, color= 5
	 item 1622, weight= 401, color= 7
	 item 1623, weight= 401, color= 11
	 item 1624, weight= 401, color= 18
	 item 1625, weight= 402, color= 5
	 item 1626, weight= 402, color= 5
	 item 1627, weight= 402, color= 6
	 item 1628, weight= 402, color= 7
	 item 1629, weight= 403, color= 1
	 item 1630, weight= 403, color= 5
	 item 1631, weight= 403, color= 10
	 item 1632, weight= 403, color= 11
	 item 1633, weight= 403, color= 16
	 item 1634, weight= 404, color= 0
	 item 1635, weight= 404, color= 2
	 item 1636, weight= 404, color= 2
	 item 1637, weight= 404, color= 4
	 item 1638, weight= 404, color= 4
	 item 1639, weight= 404, color= 16
	 item 1640, weight= 405, color= 1
	 item 1641, weight= 405, color= 5
	 item 1642, weight= 405, color= 9
	 item 1643, weight= 405, color= 10
	 item 1644, weight= 405, color= 15
	 item 1645, weight= 405, color= 19
	 item 1646, weight= 406, color= 3
	 item 1647, weight= 406, color= 6
	 item 1648, weight= 406, color= 9
	 item 1649, weight= 406, color= 9
	 item 1650, weight= 406, color= 11
	 item 1651, weight= 406, color= 11
	 item 1652, weight= 406, color= 19
	 item 1653, weight= 407, color= 17
	 item 1654, weight= 408, color= 4
	 item 1655, weight= 408, color= 5
	 item 1656, weight= 408, color= 5
	 item 1657, weight= 408, color= 11
	 item 1658, weight= 408, color= 15
	 item 1659, weight= 408, color= 19
	 item 1660, weight= 409, color= 2
	 item 1661, weight= 409, color= 2
	 item 1662, weight= 409, color= 8
	 item 1663, weight= 409, color= 12
	 item 1664, weight= 409, color= 16
	 item 1665, weight= 409, color= 18
	 item 1666, weight= 410, color= 0
	 item 1667, weight= 410, color= 3
	 item 1668, weight= 410, color= 5
	 item 1669, weight= 410, color= 5
	 item 1670, weight= 410, color= 6
	 item 1671, weight= 410, color= 14
	 item 1672, weight= 410, color= 15
	 item 1673, weight= 411, color= 1
	 item 1674, weight= 411, color= 5
	 item 1675, weight= 411, color= 13
	 item 1676, weight= 411, color= 16
	 item 1677, weight= 411, color= 16
	 item 1678, weight= 411, color= 17
	 item 1679, weight= 411, color= 19
	 item 1680, weight= 412, color= 5
	 item 1681, weight= 412, color= 12
	 item 1682, weight= 412, color= 14
	 item 1683, weight= 412, color= 14
	 item 1684, weight= 412, color= 18
	 item 1685, weight= 413, color= 7
	 item 1686, weight= 413, color= 8
	 item 1687, weight= 413, color= 9
	 item 1688, weight= 413, color= 14
	 item 1689, weight= 413, color= 15
	 item 1690, weight= 413, color= 17
	 item 1691, weight= 414, color= 0
	 item 1692, weight= 414, color= 1
	 item 1693, weight= 414, color= 2
	 item 1694, weight= 414, color= 4
	 item 1695, weight= 414, color= 5
	 item 1696, weight= 414, color= 8
	 item 1697, weight= 414, color= 13
	 item 1698, weight= 414, color= 13
	 item 1699, weight= 414, color= 16
	 item 1700, weight= 414, color= 16
	 item 1701, weight= 415, color= 18
	 item 1702, weight= 416, color= 1
	 item 1703, weight= 416, color= 4
	 item 1704, weight= 416, color= 14
	 item 1705, weight= 416, color= 16
	 item 1706, weight= 416, color= 18
	 item 1707, weight= 417, color= 0
	 item 1708, weight= 417, color= 14
	 item 1709, weight= 417, color= 15
	 item 1710, weight= 417, color= 19
	 item 1711, weight= 418, color= 2
	 item 1712, weight= 418, color= 8
	 item 1713, weight= 420, color= 9
	 item 1714, weight= 420, color= 10
	 item 1715, weight= 420, color= 13
	 item 1716, weight= 420, color= 15
	 item 1717, weight= 421, color= 2
	 item 1718, weight= 421, color= 7
	 item 1719, weight= 421, color= 8
	 item 1720, weight= 421, color= 13
	 item 1721, weight= 422, color= 5
	 item 1722, weight= 422, color= 7
	 item 1723, weight= 422, color= 19
	 item 1724, weight= 423, color= 0
	 item 1725, weight= 423, color= 9
	 item 1726, weight= 423, color= 15
	 item 1727, weight= 424, color= 1
	 item 1728, weight= 424, color= 6
	 item 1729, weight= 424, color= 18
	 item 1730, weight= 425, color= 13
	 item 1731, weight= 425, color= 16
	 item 1732, weight= 426, color= 0
	 item 1733, weight= 426, color= 3
	 item 1734, weight= 426, color= 3
	 item 1735, weight= 426, color= 6
	 item 1736, weight= 426, color= 11
	 item 1737, weight= 427, color= 1
	 item 1738, weight= 427, color= 5
	 item 1739, weight= 427, color= 7
	 item 1740, weight= 427, color= 11
	 item 1741, weight= 427, color= 19
	 item 1742, weight= 428, color= 3
	 item 1743, weight= 428, color= 8
	 item 1744, weight= 428, color= 16
	 item 1745, weight= 428, color= 17
	 item 1746, weight= 428, color= 19
	 item 1747, weight= 428, color= 19
	 item 1748, weight= 429, color= 5
	 item 1749, weight= 429, color= 9
	 item 1750, weight= 429, color= 19
	 item 1751, weight= 431, color= 0
	 item 1752, weight= 432, color= 1
	 item 1753, weight= 432, color= 4
	 item 1754, weight= 432, color= 8
	 item 1755, weight= 432, color= 10
	 item 1756, weight= 432, color= 13
	 item 1757, weight= 432, color= 17
	 item 1758, weight= 433, color= 12
	 item 1759, weight= 433, color= 12
	 item 1760, weight= 433, color= 14
	 item 1761, weight= 433, color= 15
	 item 1762, weight= 434, color= 0
	 item 1763, weight= 434, color= 18
	 item 1764, weight= 435, color= 1
	 item 1765, weight= 435, color= 8
	 item 1766, weight= 435, color= 8
	 item 1767, weight= 435, color= 11
	 item 1768, weight= 435, color= 16
	 item 1769, weight= 436, color= 3
	 item 1770, weight= 436, color= 5
	 item 1771, weight= 436, color= 8
	 item 1772, weight= 437, color= 5
	 item 1773, weight= 437, color= 7
	 item 1774, weight= 437, color= 12
	 item 1775, weight= 437, color= 16
	 item 1776, weight= 437, color= 19
	 item 1777, weight= 438, color= 5
	 item 1778, weight= 438, color= 19
	 item 1779, weight= 439, color= 7
	 item 1780, weight= 439, color= 8
	 item 1781, weight= 439, color= 11
	 item 1782, weight= 439, color= 15
	 item 1783, weight= 440, color= 5
	 item 1784, weight= 440, color= 9
	 item 1785, weight= 440, color= 12
	 item 1786, weight= 440, color= 19
	 item 1787, weight= 441, color= 0
	 item 1788, weight= 441, color= 5
	 item 1789, weight= 441, color= 10
	 item 1790, weight= 441, color= 12
	 item 1791, weight= 441, color= 13
	 item 1792, weight= 441, color= 15
	 item 1793, weight= 442, color= 6
	 item 1794, weight= 442, color= 10
	 item 1795, weight= 442, color= 13
	 item 1796, weight= 443, color= 2
	 item 1797, weight= 443, color= 9
	 item 1798, weight= 443, color= 11
	 item 1799, weight= 443, color= 14
	 item 1800, weight= 443, color= 17
	 item 1801, weight= 444, color= 1
	 item 1802, weight= 444, color= 3
	 item 1803, weight= 444, color= 5
	 item 1804, weight= 444, color= 19
	 item 1805, weight= 445, color= 0
	 item 1806, weight= 445, color= 11
	 item 1807, weight= 445, color= 15
	 item 1808, weight= 445, color= 15
	 item 1809, weight= 445, color= 15
	 item 1810, weight= 445, color= 19
	 item 1811, weight= 446, color= 1
	 item 1812, weight= 446, color= 3
	 item 1813, weight= 446, color= 5
	 item 1814, weight= 446, color= 10
	 item 1815, weight= 447, color= 1
	 item 1816, weight= 447, color= 3
	 item 1817, weight= 447, color= 4
	 item 1818, weight= 447, color= 14
	 item 1819, weight= 447, color= 14
	 item 1820, weight= 447, color= 14
	 item 1821, weight= 447, color= 16
	 item 1822, weight= 448, color= 2
	 item 1823, weight= 448, color= 8
	 item 1824, weight= 448, color= 10
	 item 1825, weight= 448, color= 11
	 item 1826, weight= 448, color= 14
	 item 1827, weight= 448, color= 18
	 item 1828, weight= 448, color= 19
	 item 1829, weight= 448, color= 19
	 item 1830, weight= 449, color= 0
	 item 1831, weight= 449, color= 4
	 item 1832, weight= 449, color= 14
	 item 1833, weight= 449, color= 17
	 item 1834, weight= 449, color= 19
	 item 1835, weight= 450, color= 3
	 item 1836, weight= 450, color= 7
	 item 1837, weight= 450, color= 11
	 item 1838, weight= 450, color= 13
	 item 1839, weight= 450, color= 15
	 item 1840, weight= 450, color= 15
	 item 1841, weight= 451, color= 7
	 item 1842, weight= 451, color= 12
	 item 1843, weight= 451, color= 13
	 item 1844, weight= 452, color= 0
	 item 1845, weight= 452, color= 1
	 item 1846, weight= 452, color= 6
	 item 1847, weight= 452, color= 6
	 item 1848, weight= 452, color= 7
	 item 1849, weight= 452, color= 18
	 item 1850, weight= 452, color= 18
	 item 1851, weight= 453, color= 12
	 item 1852, weight= 453, color= 12
	 item 1853, weight= 453, color= 13
	 item 1854, weight= 454, color= 0
	 item 1855, weight= 454, color= 1
	 item 1856, weight= 454, color= 14
	 item 1857, weight= 454, color= 16
	 item 1858, weight= 455, color= 1
	 item 1859, weight= 455, color= 3
	 item 1860, weight= 455, color= 6
	 item 1861, weight= 455, color= 7
	 item 1862, weight= 455, color= 12
	 item 1863, weight= 456, color= 0
	 item 1864, weight= 456, color= 9
	 item 1865, weight= 456, color= 10
	 item 1866, weight= 456, color= 13
	 item 1867, weight= 456, color= 16
	 item 1868, weight= 456, color= 17
	 item 1869, weight= 456, color= 19
	 item 1870, weight= 457, color= 0
	 item 1871, weight= 457, color= 2
	 item 1872, weight= 457, color= 3
	 item 1873, weight= 457, color= 11
	 item 1874, weight= 457, color= 17
	 item 1875, weight= 458, color= 0
	 item 1876, weight= 458, color= 4
	 item 1877, weight= 458, color= 5
	 item 1878, weight= 458, color= 11
	 item 1879, weight= 459, color= 2
	 item 1880, weight= 459, color= 6
	 item 1881, weight= 459, color= 11
	 item 1882, weight= 459, color= 17
	 item 1883, weight= 460, color= 4
	 item 1884, weight= 460, color= 17
	 item 1885, weight= 461, color= 3
	 item 1886, weight= 461, color= 4
	 item 1887, weight= 461, color= 17
	 item 1888, weight= 462, color= 5
	 item 1889, weight= 462, color= 8
	 item 1890, weight= 462, color= 14
	 item 1891, weight= 462, color= 18
	 item 1892, weight= 463, color= 19
	 item 1893, weight= 464, color= 0
	 item 1894, weight= 464, color= 1
	 item 1895, weight= 464, color= 2
	 item 1896, weight= 464, color= 19
	 item 1897, weight= 465, color= 7
	 item 1898, weight= 465, color= 9
	 item 1899, weight= 465, color= 10
	 item 1900, weight= 465, color= 11
	 item 1901, weight= 465, color= 19
	 item 1902, weight= 466, color= 0
	 item 1903, weight= 466, color= 1
	 item 1904, weight= 467, color= 3
	 item 1905, weight= 467, color= 14
	 item 1906, weight= 467, color= 14
	 item 1907, weight= 467, color= 16
	 item 1908, weight= 467, color= 17
	 item 1909, weight= 468, color= 5
	 item 1910, weight= 468, color= 8
	 item 1911, weight= 468, color= 14
	 item 1912, weight= 469, color= 3
	 item 1913, weight= 469, color= 13
	 item 1914, weight= 469, color= 14
	 item 1915, weight= 469, color= 16
	 item 1916, weight= 469, color= 16
	 item 1917, weight= 470, color= 2
	 item 1918, weight= 470, color= 14
	 item 1919, weight= 471, color= 9
	 item 1920, weight= 471, color= 15
	 item 1921, weight= 471, color= 18
	 item 1922, weight= 472, color= 2
	 item 1923, weight= 472, color= 8
	 item 1924, weight= 472, color= 11
	 item 1925, weight= 472, color= 16
	 item 1926, weight= 473, color= 17
	 item 1927, weight= 474, color= 11
	 item 1928, weight= 474, color= 14
	 item 1929, weight= 474, color= 16
	 item 1930, weight= 475, color= 14
	 item 1931, weight= 475, color= 19
	 item 1932, weight= 475, color= 19
	 item 1933, weight= 476, color= 1
	 item 1934, weight= 476, color= 5
	 item 1935, weight= 476, color= 12
	 item 1936, weight= 476, color= 13
	 item 1937, weight= 476, color= 19
	 item 1938, weight= 477, color= 17
	 item 1939, weight= 478, color= 6
	 item 1940, weight= 478, color= 7
	 item 1941, weight= 478, color= 8
	 item 1942, weight= 478, color= 16
	 item 1943, weight= 479, color= 10
	 item 1944, weight= 479, color= 10
	 item 1945, weight= 480, color= 10
	 item 1946, weight= 480, color= 10
	 item 1947, weight= 480, color= 18
	 item 1948, weight= 481, color= 2
	 item 1949, weight= 481, color= 8
	 item 1950, weight= 482, color= 12
	 item 1951, weight= 482, color= 13
	 item 1952, weight= 483, color= 1
	 item 1953, weight= 483, color= 4
	 item 1954, weight= 483, color= 7
	 item 1955, weight= 483, color= 8
	 item 1956, weight= 483, color= 15
	 item 1957, weight= 484, color= 1
	 item 1958, weight= 484, color= 2
	 item 1959, weight= 484, color= 4
	 item 1960, weight= 485, color= 3
	 item 1961, weight= 485, color= 14
	 item 1962, weight= 485, color= 17
	 item 1963, weight= 486, color= 8
	 item 1964, weight= 486, color= 11
	 item 1965, weight= 486, color= 15
	 item 1966, weight= 487, color= 17
	 item 1967, weight= 488, color= 13
	 item 1968, weight= 488, color= 15
	 item 1969, weight= 490, color= 0
	 item 1970, weight= 490, color= 2
	 item 1971, weight= 490, color= 2
	 item 1972, weight= 491, color= 7
	 item 1973, weight= 491, color= 16
	 item 1974, weight= 492, color= 15
	 item 1975, weight= 493, color= 8
	 item 1976, weight= 493, color= 12
	 item 1977, weight= 493, color= 13
	 item 1978, weight= 493, color= 19
	 item 1979, weight= 494, color= 0
	 item 1980, weight= 494, color= 1
	 item 1981, weight= 494, color= 18
	 item 1982, weight= 495, color= 5
	 item 1983, weight= 495, color= 8
	 item 1984, weight= 495, color= 19
	 item 1985, weight= 496, color= 0
	 item 1986, weight= 497, color= 10
	 item 1987, weight= 497, color= 11
	 item 1988, weight= 498, color= 6
	 item 1989, weight= 498, color= 8
	 item 1990, weight= 498, color= 14
	 item 1991, weight= 499, color= 3
	 item 1992, weight= 499, color= 4
	 item 1993, weight= 499, color= 6
	 item 1994, weight= 499, color= 14
	 item 1995, weight= 500, color= 3
	 item 1996, weight= 500, color= 8
	 item 1997, weight= 500, color= 9
	 item 1998, weight= 500, color= 17
	 item 1999, weight= 500, color= 17
	 item 2000, weight= 501, color= 2
	 item 2001, weight= 501, color= 14

VRPSolver warning: Interval set for resource 1 on source node (when source != sink) is ignored (by definition is [0.0,0.0])
[41m solve [00m
~~~~~~~~~~~~~~~~~~~~~~~~~~~~~~~~~~~~~~~~~~~~~~~~~~~~~~~~~~~~~~~~~~~~~~~~~~~~~~
VRPSolver v0.4.1, 24/03/2021. Web: vrpsolver.math.u-bordeaux.fr
Corresponds to the solver by Pessoa, Sadykov, Uchoa and Vanderbeck (2020)
Paper: dx.doi.org/10.1007/s10107-020-01523-z
USE THIS CODE ONLY FOR ACADEMIC PURPOSES AT YOUR OWN RISK
~~~~~~~~~~~~~~~~~~~~~~~~~~~~~~~~~~~~~~~~~~~~~~~~~~~~~~~~~~~~~~~~~~~~~~~~~~~~~~
BaPCod v053, 24/03/2021, © Inria Bordeaux, France
~~~~~~~~~~~~~~~~~~~~~~~~~~~~~~~~~~~~~~~~~~~~~~~~~~~~~~~~~~~~~~~~~~~~~~~~~~~~~~
VRPSolver parameters:
GlobalTimeLimit = 1800
MaxNbOfBBtreeNodeTreated = 100000
treeSearchStrategy = 1
RCSPstopCutGenTimeThresholdInPricing = 10
RCSPhardTimeThresholdInPricing = 20
RCSPnumberOfBucketsPerVertex = 2000
RCSPdynamicBucketSteps = 0
RCSPuseBidirectionalSearch = 1
RCSPapplyReducedCostFixing = 1
RCSPredCostFixingFalseGap = 0
RCSPmaxNumOfColsPerIteration = 100
RCSPmaxNumOfColsPerExactIteration = 100
RCSPheurLabelingStrategy = 4
StabilizationMinPhaseOfStage = 1
RCSPmaxNumOfLabelsInEnumeration = 100000
RCSPmaxNumOfEnumeratedSolutions = 1000000
RCSPmaxNumOfEnumSolutionsForMIP = 100000
RCSPinitNGneighbourhoodSize = 0
RCSPmaxNGneighbourhoodSize = 0
RCSPrankOneCutsMaxNumPerRound = 100
RCSPrankOneCutsMaxNumRows = -1
RCSPrankOneCutsMemoryType = 2
CutTailingOffThreshold = 0.02
CutTailingOffCounterThreshold = 3
SafeDualBoundScaleFactor = -1
StrongBranchingPhaseOneCandidatesNumber = 100
StrongBranchingPhaseOneTreeSizeEstimRatio = 0.3
StrongBranchingPhaseTwoCandidatesNumber = 1
StrongBranchingPhaseTwoTreeSizeEstimRatio = 0.1
MaxTimeForRestrictedMasterIpHeur = -1
DivingHeurUseDepthLimit = 0
MaxLDSbreadth = 3
MaxLDSdepth = 2
New model incumbent solution 1e+06, TIME = 0h0m0s3t = 3
statistics_cols: instance & :Optimal & cutoff & :bcRecRootDb & :bcTimeRootEval & :bcCountNodeProc & :bcRecBestDb & :bcRecBestInc & :bcTimeMain \\
statistics: N2001W1001R2550Q20-003 & 0 & 1.0e6 & 0.00 & 0.00 & 0 & 0.00 & -- & 0.00 \\
########################################################
Solution not found
########################################################
