Application parameters:
  batch  =>  nothing
  instance  =>  "/IN/N501W1000001R2550Q20-004"
  ub  =>  1.0e6
  cfg  =>  "/CFG/BPP.cfg"
data = Colored Bin Packing dataset.
number of items = 501
number of colors = 20
capacity = 1000001
Items : 
	 item 1, weight= 250039, color= 19
	 item 2, weight= 250062, color= 1
	 item 3, weight= 250073, color= 11
	 item 4, weight= 250174, color= 4
	 item 5, weight= 250188, color= 13
	 item 6, weight= 250257, color= 10
	 item 7, weight= 250261, color= 8
	 item 8, weight= 250275, color= 8
	 item 9, weight= 250319, color= 5
	 item 10, weight= 250423, color= 3
	 item 11, weight= 250432, color= 19
	 item 12, weight= 250560, color= 11
	 item 13, weight= 250664, color= 9
	 item 14, weight= 250678, color= 9
	 item 15, weight= 250859, color= 1
	 item 16, weight= 251091, color= 13
	 item 17, weight= 251113, color= 9
	 item 18, weight= 251525, color= 14
	 item 19, weight= 251545, color= 11
	 item 20, weight= 251579, color= 15
	 item 21, weight= 251684, color= 5
	 item 22, weight= 251736, color= 9
	 item 23, weight= 251802, color= 8
	 item 24, weight= 251841, color= 4
	 item 25, weight= 252058, color= 18
	 item 26, weight= 252151, color= 6
	 item 27, weight= 252236, color= 2
	 item 28, weight= 252887, color= 13
	 item 29, weight= 252898, color= 14
	 item 30, weight= 252966, color= 18
	 item 31, weight= 252967, color= 0
	 item 32, weight= 253131, color= 6
	 item 33, weight= 253276, color= 17
	 item 34, weight= 253286, color= 6
	 item 35, weight= 253307, color= 3
	 item 36, weight= 253667, color= 4
	 item 37, weight= 253863, color= 14
	 item 38, weight= 253982, color= 12
	 item 39, weight= 254358, color= 13
	 item 40, weight= 254524, color= 2
	 item 41, weight= 254920, color= 10
	 item 42, weight= 255038, color= 8
	 item 43, weight= 255256, color= 0
	 item 44, weight= 255279, color= 13
	 item 45, weight= 255773, color= 17
	 item 46, weight= 255880, color= 4
	 item 47, weight= 256411, color= 19
	 item 48, weight= 256442, color= 7
	 item 49, weight= 256562, color= 3
	 item 50, weight= 256596, color= 4
	 item 51, weight= 256734, color= 1
	 item 52, weight= 256746, color= 2
	 item 53, weight= 256913, color= 5
	 item 54, weight= 256959, color= 3
	 item 55, weight= 257053, color= 15
	 item 56, weight= 257265, color= 15
	 item 57, weight= 257360, color= 12
	 item 58, weight= 257564, color= 3
	 item 59, weight= 257901, color= 19
	 item 60, weight= 257973, color= 9
	 item 61, weight= 257981, color= 11
	 item 62, weight= 258064, color= 19
	 item 63, weight= 258669, color= 2
	 item 64, weight= 258899, color= 17
	 item 65, weight= 259054, color= 3
	 item 66, weight= 259341, color= 13
	 item 67, weight= 260181, color= 3
	 item 68, weight= 260300, color= 0
	 item 69, weight= 260335, color= 1
	 item 70, weight= 260449, color= 8
	 item 71, weight= 260486, color= 4
	 item 72, weight= 260509, color= 17
	 item 73, weight= 260855, color= 4
	 item 74, weight= 261582, color= 13
	 item 75, weight= 261970, color= 4
	 item 76, weight= 262052, color= 2
	 item 77, weight= 262321, color= 8
	 item 78, weight= 262356, color= 12
	 item 79, weight= 262937, color= 6
	 item 80, weight= 263237, color= 14
	 item 81, weight= 263303, color= 10
	 item 82, weight= 263320, color= 3
	 item 83, weight= 263353, color= 5
	 item 84, weight= 263490, color= 0
	 item 85, weight= 263848, color= 18
	 item 86, weight= 264056, color= 5
	 item 87, weight= 264134, color= 9
	 item 88, weight= 264318, color= 12
	 item 89, weight= 265033, color= 8
	 item 90, weight= 265325, color= 18
	 item 91, weight= 265460, color= 10
	 item 92, weight= 265475, color= 4
	 item 93, weight= 266033, color= 0
	 item 94, weight= 266150, color= 13
	 item 95, weight= 266492, color= 6
	 item 96, weight= 266590, color= 2
	 item 97, weight= 266813, color= 14
	 item 98, weight= 266854, color= 4
	 item 99, weight= 266856, color= 12
	 item 100, weight= 267416, color= 4
	 item 101, weight= 267853, color= 10
	 item 102, weight= 268778, color= 5
	 item 103, weight= 268873, color= 9
	 item 104, weight= 268893, color= 2
	 item 105, weight= 269320, color= 8
	 item 106, weight= 269519, color= 19
	 item 107, weight= 269714, color= 8
	 item 108, weight= 269764, color= 10
	 item 109, weight= 270144, color= 14
	 item 110, weight= 270196, color= 17
	 item 111, weight= 270273, color= 7
	 item 112, weight= 270544, color= 5
	 item 113, weight= 270558, color= 13
	 item 114, weight= 270999, color= 15
	 item 115, weight= 271397, color= 2
	 item 116, weight= 271512, color= 12
	 item 117, weight= 271771, color= 19
	 item 118, weight= 271790, color= 5
	 item 119, weight= 271829, color= 3
	 item 120, weight= 271956, color= 1
	 item 121, weight= 272274, color= 11
	 item 122, weight= 272337, color= 17
	 item 123, weight= 272379, color= 16
	 item 124, weight= 272586, color= 19
	 item 125, weight= 272790, color= 4
	 item 126, weight= 272971, color= 15
	 item 127, weight= 273208, color= 6
	 item 128, weight= 273221, color= 1
	 item 129, weight= 273232, color= 19
	 item 130, weight= 273296, color= 16
	 item 131, weight= 273342, color= 17
	 item 132, weight= 273391, color= 13
	 item 133, weight= 273482, color= 15
	 item 134, weight= 273800, color= 0
	 item 135, weight= 274113, color= 6
	 item 136, weight= 274304, color= 19
	 item 137, weight= 274535, color= 8
	 item 138, weight= 274993, color= 2
	 item 139, weight= 275101, color= 13
	 item 140, weight= 275535, color= 19
	 item 141, weight= 275748, color= 7
	 item 142, weight= 275831, color= 10
	 item 143, weight= 276082, color= 2
	 item 144, weight= 276573, color= 9
	 item 145, weight= 276747, color= 5
	 item 146, weight= 277341, color= 0
	 item 147, weight= 277466, color= 19
	 item 148, weight= 277699, color= 1
	 item 149, weight= 277703, color= 14
	 item 150, weight= 277715, color= 4
	 item 151, weight= 277798, color= 4
	 item 152, weight= 279394, color= 16
	 item 153, weight= 280078, color= 3
	 item 154, weight= 280088, color= 5
	 item 155, weight= 280181, color= 19
	 item 156, weight= 280903, color= 19
	 item 157, weight= 281035, color= 4
	 item 158, weight= 281047, color= 9
	 item 159, weight= 281257, color= 4
	 item 160, weight= 281302, color= 1
	 item 161, weight= 281339, color= 9
	 item 162, weight= 281652, color= 6
	 item 163, weight= 282297, color= 7
	 item 164, weight= 282477, color= 4
	 item 165, weight= 282518, color= 10
	 item 166, weight= 282625, color= 2
	 item 167, weight= 282808, color= 9
	 item 168, weight= 282855, color= 0
	 item 169, weight= 283774, color= 5
	 item 170, weight= 284944, color= 13
	 item 171, weight= 285073, color= 17
	 item 172, weight= 285522, color= 18
	 item 173, weight= 286083, color= 13
	 item 174, weight= 286311, color= 17
	 item 175, weight= 286488, color= 15
	 item 176, weight= 286651, color= 6
	 item 177, weight= 286942, color= 18
	 item 178, weight= 286971, color= 16
	 item 179, weight= 287112, color= 13
	 item 180, weight= 287336, color= 2
	 item 181, weight= 287679, color= 16
	 item 182, weight= 288455, color= 11
	 item 183, weight= 288787, color= 19
	 item 184, weight= 289005, color= 3
	 item 185, weight= 289308, color= 5
	 item 186, weight= 289893, color= 9
	 item 187, weight= 289937, color= 9
	 item 188, weight= 290164, color= 7
	 item 189, weight= 290866, color= 13
	 item 190, weight= 291289, color= 19
	 item 191, weight= 291369, color= 2
	 item 192, weight= 291416, color= 0
	 item 193, weight= 292680, color= 10
	 item 194, weight= 293869, color= 0
	 item 195, weight= 294054, color= 11
	 item 196, weight= 294135, color= 5
	 item 197, weight= 294727, color= 16
	 item 198, weight= 294823, color= 14
	 item 199, weight= 294969, color= 17
	 item 200, weight= 296068, color= 12
	 item 201, weight= 296353, color= 0
	 item 202, weight= 296728, color= 13
	 item 203, weight= 297182, color= 11
	 item 204, weight= 297523, color= 13
	 item 205, weight= 297863, color= 0
	 item 206, weight= 298959, color= 17
	 item 207, weight= 300043, color= 6
	 item 208, weight= 300514, color= 19
	 item 209, weight= 300863, color= 11
	 item 210, weight= 301223, color= 9
	 item 211, weight= 301448, color= 14
	 item 212, weight= 301699, color= 8
	 item 213, weight= 302902, color= 18
	 item 214, weight= 303573, color= 15
	 item 215, weight= 303945, color= 5
	 item 216, weight= 304818, color= 19
	 item 217, weight= 305065, color= 11
	 item 218, weight= 305228, color= 8
	 item 219, weight= 305810, color= 9
	 item 220, weight= 305835, color= 19
	 item 221, weight= 305906, color= 12
	 item 222, weight= 306123, color= 13
	 item 223, weight= 306175, color= 16
	 item 224, weight= 306305, color= 7
	 item 225, weight= 307914, color= 2
	 item 226, weight= 308994, color= 0
	 item 227, weight= 309009, color= 9
	 item 228, weight= 309298, color= 6
	 item 229, weight= 309636, color= 12
	 item 230, weight= 310031, color= 11
	 item 231, weight= 310614, color= 2
	 item 232, weight= 310633, color= 10
	 item 233, weight= 310771, color= 19
	 item 234, weight= 310885, color= 5
	 item 235, weight= 310890, color= 17
	 item 236, weight= 311344, color= 1
	 item 237, weight= 311717, color= 3
	 item 238, weight= 312987, color= 12
	 item 239, weight= 313926, color= 9
	 item 240, weight= 314089, color= 17
	 item 241, weight= 314191, color= 1
	 item 242, weight= 314236, color= 17
	 item 243, weight= 314246, color= 4
	 item 244, weight= 314689, color= 7
	 item 245, weight= 314729, color= 4
	 item 246, weight= 315287, color= 10
	 item 247, weight= 315921, color= 7
	 item 248, weight= 316126, color= 4
	 item 249, weight= 316653, color= 16
	 item 250, weight= 317746, color= 8
	 item 251, weight= 317843, color= 16
	 item 252, weight= 318098, color= 18
	 item 253, weight= 318516, color= 13
	 item 254, weight= 318622, color= 2
	 item 255, weight= 319279, color= 9
	 item 256, weight= 319352, color= 5
	 item 257, weight= 320200, color= 9
	 item 258, weight= 322287, color= 6
	 item 259, weight= 322776, color= 2
	 item 260, weight= 323551, color= 8
	 item 261, weight= 323591, color= 1
	 item 262, weight= 324487, color= 12
	 item 263, weight= 324999, color= 7
	 item 264, weight= 325566, color= 6
	 item 265, weight= 325663, color= 10
	 item 266, weight= 325796, color= 18
	 item 267, weight= 325858, color= 12
	 item 268, weight= 327130, color= 15
	 item 269, weight= 327367, color= 11
	 item 270, weight= 327423, color= 12
	 item 271, weight= 328408, color= 17
	 item 272, weight= 328466, color= 11
	 item 273, weight= 329094, color= 1
	 item 274, weight= 329114, color= 15
	 item 275, weight= 329357, color= 2
	 item 276, weight= 329760, color= 12
	 item 277, weight= 329792, color= 0
	 item 278, weight= 330036, color= 13
	 item 279, weight= 330591, color= 16
	 item 280, weight= 331384, color= 4
	 item 281, weight= 331855, color= 0
	 item 282, weight= 332233, color= 6
	 item 283, weight= 333147, color= 6
	 item 284, weight= 333412, color= 4
	 item 285, weight= 333430, color= 3
	 item 286, weight= 334172, color= 19
	 item 287, weight= 334542, color= 2
	 item 288, weight= 334636, color= 4
	 item 289, weight= 334728, color= 10
	 item 290, weight= 335100, color= 6
	 item 291, weight= 335748, color= 5
	 item 292, weight= 335898, color= 2
	 item 293, weight= 337861, color= 9
	 item 294, weight= 338343, color= 1
	 item 295, weight= 338415, color= 12
	 item 296, weight= 339299, color= 11
	 item 297, weight= 339905, color= 7
	 item 298, weight= 340407, color= 16
	 item 299, weight= 340842, color= 0
	 item 300, weight= 341066, color= 0
	 item 301, weight= 341291, color= 14
	 item 302, weight= 341747, color= 19
	 item 303, weight= 342013, color= 2
	 item 304, weight= 342536, color= 4
	 item 305, weight= 343910, color= 17
	 item 306, weight= 343988, color= 3
	 item 307, weight= 344421, color= 4
	 item 308, weight= 344434, color= 3
	 item 309, weight= 345110, color= 6
	 item 310, weight= 345320, color= 3
	 item 311, weight= 347260, color= 18
	 item 312, weight= 348473, color= 6
	 item 313, weight= 349529, color= 11
	 item 314, weight= 349882, color= 0
	 item 315, weight= 351946, color= 8
	 item 316, weight= 351964, color= 19
	 item 317, weight= 352402, color= 1
	 item 318, weight= 352971, color= 17
	 item 319, weight= 353086, color= 7
	 item 320, weight= 353127, color= 6
	 item 321, weight= 353276, color= 0
	 item 322, weight= 353384, color= 12
	 item 323, weight= 353397, color= 18
	 item 324, weight= 354041, color= 0
	 item 325, weight= 354118, color= 4
	 item 326, weight= 354803, color= 11
	 item 327, weight= 354870, color= 0
	 item 328, weight= 355284, color= 11
	 item 329, weight= 355328, color= 16
	 item 330, weight= 355505, color= 17
	 item 331, weight= 356062, color= 10
	 item 332, weight= 356709, color= 10
	 item 333, weight= 357505, color= 5
	 item 334, weight= 357602, color= 7
	 item 335, weight= 357918, color= 18
	 item 336, weight= 359751, color= 8
	 item 337, weight= 360463, color= 9
	 item 338, weight= 360753, color= 10
	 item 339, weight= 361111, color= 7
	 item 340, weight= 362361, color= 3
	 item 341, weight= 363406, color= 8
	 item 342, weight= 363822, color= 6
	 item 343, weight= 364164, color= 18
	 item 344, weight= 364170, color= 9
	 item 345, weight= 364908, color= 5
	 item 346, weight= 364952, color= 7
	 item 347, weight= 365043, color= 16
	 item 348, weight= 365090, color= 14
	 item 349, weight= 365097, color= 8
	 item 350, weight= 365906, color= 4
	 item 351, weight= 367406, color= 2
	 item 352, weight= 368055, color= 10
	 item 353, weight= 368324, color= 19
	 item 354, weight= 368960, color= 0
	 item 355, weight= 369017, color= 19
	 item 356, weight= 369727, color= 8
	 item 357, weight= 370586, color= 13
	 item 358, weight= 371780, color= 13
	 item 359, weight= 371808, color= 2
	 item 360, weight= 374038, color= 8
	 item 361, weight= 374420, color= 14
	 item 362, weight= 374764, color= 12
	 item 363, weight= 375853, color= 0
	 item 364, weight= 376048, color= 8
	 item 365, weight= 376420, color= 7
	 item 366, weight= 377141, color= 0
	 item 367, weight= 377584, color= 15
	 item 368, weight= 378019, color= 1
	 item 369, weight= 378314, color= 14
	 item 370, weight= 379356, color= 14
	 item 371, weight= 379405, color= 6
	 item 372, weight= 379765, color= 2
	 item 373, weight= 380055, color= 0
	 item 374, weight= 380124, color= 17
	 item 375, weight= 380262, color= 15
	 item 376, weight= 380722, color= 1
	 item 377, weight= 381938, color= 7
	 item 378, weight= 382468, color= 0
	 item 379, weight= 383943, color= 11
	 item 380, weight= 384528, color= 11
	 item 381, weight= 384687, color= 12
	 item 382, weight= 386159, color= 12
	 item 383, weight= 388121, color= 12
	 item 384, weight= 388151, color= 8
	 item 385, weight= 388661, color= 18
	 item 386, weight= 388662, color= 17
	 item 387, weight= 388731, color= 3
	 item 388, weight= 389036, color= 13
	 item 389, weight= 389412, color= 16
	 item 390, weight= 390431, color= 7
	 item 391, weight= 391142, color= 15
	 item 392, weight= 391264, color= 18
	 item 393, weight= 392779, color= 14
	 item 394, weight= 394071, color= 5
	 item 395, weight= 394830, color= 13
	 item 396, weight= 394901, color= 19
	 item 397, weight= 394962, color= 9
	 item 398, weight= 395595, color= 8
	 item 399, weight= 398043, color= 7
	 item 400, weight= 398751, color= 14
	 item 401, weight= 398758, color= 2
	 item 402, weight= 398903, color= 18
	 item 403, weight= 399136, color= 8
	 item 404, weight= 399237, color= 13
	 item 405, weight= 399988, color= 14
	 item 406, weight= 400046, color= 4
	 item 407, weight= 400844, color= 8
	 item 408, weight= 400953, color= 15
	 item 409, weight= 401166, color= 15
	 item 410, weight= 401183, color= 14
	 item 411, weight= 401208, color= 16
	 item 412, weight= 401358, color= 14
	 item 413, weight= 403656, color= 7
	 item 414, weight= 404022, color= 2
	 item 415, weight= 406753, color= 4
	 item 416, weight= 407372, color= 6
	 item 417, weight= 408881, color= 15
	 item 418, weight= 409252, color= 11
	 item 419, weight= 409579, color= 14
	 item 420, weight= 409664, color= 13
	 item 421, weight= 410021, color= 0
	 item 422, weight= 412040, color= 4
	 item 423, weight= 412975, color= 14
	 item 424, weight= 413219, color= 10
	 item 425, weight= 413910, color= 7
	 item 426, weight= 414534, color= 2
	 item 427, weight= 415000, color= 14
	 item 428, weight= 415548, color= 12
	 item 429, weight= 417348, color= 11
	 item 430, weight= 417763, color= 6
	 item 431, weight= 418866, color= 9
	 item 432, weight= 419389, color= 4
	 item 433, weight= 419499, color= 5
	 item 434, weight= 421012, color= 5
	 item 435, weight= 422019, color= 19
	 item 436, weight= 423161, color= 2
	 item 437, weight= 423165, color= 15
	 item 438, weight= 423840, color= 15
	 item 439, weight= 423927, color= 1
	 item 440, weight= 424417, color= 14
	 item 441, weight= 424658, color= 8
	 item 442, weight= 424775, color= 17
	 item 443, weight= 424875, color= 4
	 item 444, weight= 425257, color= 8
	 item 445, weight= 427529, color= 11
	 item 446, weight= 431724, color= 12
	 item 447, weight= 432120, color= 4
	 item 448, weight= 432388, color= 7
	 item 449, weight= 433108, color= 14
	 item 450, weight= 433610, color= 1
	 item 451, weight= 437310, color= 11
	 item 452, weight= 437627, color= 9
	 item 453, weight= 438803, color= 1
	 item 454, weight= 438859, color= 12
	 item 455, weight= 439348, color= 19
	 item 456, weight= 439403, color= 19
	 item 457, weight= 442217, color= 2
	 item 458, weight= 444660, color= 11
	 item 459, weight= 445102, color= 10
	 item 460, weight= 446260, color= 9
	 item 461, weight= 447980, color= 14
	 item 462, weight= 450156, color= 0
	 item 463, weight= 452878, color= 9
	 item 464, weight= 454205, color= 12
	 item 465, weight= 457034, color= 0
	 item 466, weight= 457440, color= 1
	 item 467, weight= 461318, color= 5
	 item 468, weight= 462256, color= 16
	 item 469, weight= 462352, color= 11
	 item 470, weight= 462784, color= 17
	 item 471, weight= 465294, color= 5
	 item 472, weight= 466060, color= 0
	 item 473, weight= 467825, color= 11
	 item 474, weight= 468644, color= 2
	 item 475, weight= 469002, color= 5
	 item 476, weight= 470195, color= 0
	 item 477, weight= 473314, color= 13
	 item 478, weight= 474313, color= 0
	 item 479, weight= 474759, color= 10
	 item 480, weight= 475085, color= 3
	 item 481, weight= 475346, color= 8
	 item 482, weight= 475914, color= 15
	 item 483, weight= 477702, color= 10
	 item 484, weight= 477721, color= 4
	 item 485, weight= 478692, color= 18
	 item 486, weight= 480685, color= 1
	 item 487, weight= 482025, color= 13
	 item 488, weight= 482460, color= 0
	 item 489, weight= 483321, color= 19
	 item 490, weight= 484236, color= 15
	 item 491, weight= 485559, color= 15
	 item 492, weight= 486147, color= 1
	 item 493, weight= 491755, color= 17
	 item 494, weight= 492072, color= 5
	 item 495, weight= 492348, color= 17
	 item 496, weight= 492731, color= 6
	 item 497, weight= 493058, color= 14
	 item 498, weight= 495604, color= 7
	 item 499, weight= 495758, color= 0
	 item 500, weight= 496621, color= 5
	 item 501, weight= 499664, color= 2

VRPSolver warning: Interval set for resource 1 on source node (when source != sink) is ignored (by definition is [0.0,0.0])
[41m solve [00m
~~~~~~~~~~~~~~~~~~~~~~~~~~~~~~~~~~~~~~~~~~~~~~~~~~~~~~~~~~~~~~~~~~~~~~~~~~~~~~
VRPSolver v0.4.1, 24/03/2021. Web: vrpsolver.math.u-bordeaux.fr
Corresponds to the solver by Pessoa, Sadykov, Uchoa and Vanderbeck (2020)
Paper: dx.doi.org/10.1007/s10107-020-01523-z
USE THIS CODE ONLY FOR ACADEMIC PURPOSES AT YOUR OWN RISK
~~~~~~~~~~~~~~~~~~~~~~~~~~~~~~~~~~~~~~~~~~~~~~~~~~~~~~~~~~~~~~~~~~~~~~~~~~~~~~
BaPCod v053, 24/03/2021, © Inria Bordeaux, France
~~~~~~~~~~~~~~~~~~~~~~~~~~~~~~~~~~~~~~~~~~~~~~~~~~~~~~~~~~~~~~~~~~~~~~~~~~~~~~
VRPSolver parameters:
GlobalTimeLimit = 1800
MaxNbOfBBtreeNodeTreated = 100000
treeSearchStrategy = 1
RCSPstopCutGenTimeThresholdInPricing = 10
RCSPhardTimeThresholdInPricing = 20
RCSPnumberOfBucketsPerVertex = 2000
RCSPdynamicBucketSteps = 0
RCSPuseBidirectionalSearch = 1
RCSPapplyReducedCostFixing = 1
RCSPredCostFixingFalseGap = 0
RCSPmaxNumOfColsPerIteration = 100
RCSPmaxNumOfColsPerExactIteration = 100
RCSPheurLabelingStrategy = 4
StabilizationMinPhaseOfStage = 1
RCSPmaxNumOfLabelsInEnumeration = 100000
RCSPmaxNumOfEnumeratedSolutions = 1000000
RCSPmaxNumOfEnumSolutionsForMIP = 100000
RCSPinitNGneighbourhoodSize = 0
RCSPmaxNGneighbourhoodSize = 0
RCSPrankOneCutsMaxNumPerRound = 100
RCSPrankOneCutsMaxNumRows = -1
RCSPrankOneCutsMemoryType = 2
CutTailingOffThreshold = 0.02
CutTailingOffCounterThreshold = 3
SafeDualBoundScaleFactor = -1
StrongBranchingPhaseOneCandidatesNumber = 100
StrongBranchingPhaseOneTreeSizeEstimRatio = 0.3
StrongBranchingPhaseTwoCandidatesNumber = 1
StrongBranchingPhaseTwoTreeSizeEstimRatio = 0.1
MaxTimeForRestrictedMasterIpHeur = -1
DivingHeurUseDepthLimit = 0
MaxLDSbreadth = 3
MaxLDSdepth = 2
New model incumbent solution 1e+06, TIME = 0h0m0s3t = 3
Model is built TIME = 0h0m4s59t = 459
************************************************************************************************
**** BaB tree root node
**** Local DB = -1e+12, global bounds : [ -1e+12 , 1e+06 ], TIME = 0h0m4s59t = 459
**** 1 open nodes, 0 columns (0 active), 0 dyn. constrs. (0 active), 1004 art. vars. (1004 active)
************************************************************************************************
<DWph=2> <it= 10> <et=8.22> <Mt= 0.01> <Spt= 3.61> <nCl=1000> <DB=-1219717187.4005> <Mlp=511800038.5000> <PB=1000000> 
<DWph=2> <it= 20> <et=11.93> <Mt= 0.01> <Spt= 3.68> <nCl=1000> <DB=-1214867855.4573> <Mlp=416600072.5000> <PB=1000000> 
<DWph=2> <it= 30> <et=15.63> <Mt= 0.03> <Spt= 3.67> <nCl=1000> <DB=-1209202099.9247> <Mlp=312350103.8750> <PB=1000000> 
<DWph=2> <it= 40> <et=19.18> <Mt= 0.02> <Spt= 3.53> <nCl=1000> <DB=-1205545362.4768> <Mlp=218100135.0833> <PB=1000000> 
<DWph=2> <it= 50> <et=22.70> <Mt= 0.04> <Spt= 3.48> <nCl=1000> <DB=-1202873503.4360> <Mlp=135050153.6250> <PB=1000000> 
<DWph=2> <it= 60> <et=26.19> <Mt= 0.07> <Spt= 3.41> <nCl=1000> <DB=-1202629246.8506> <Mlp=70470166.6417> <PB=1000000> 
<DWph=2> <it= 70> <et=29.70> <Mt= 0.12> <Spt= 3.38> <nCl=1000> <DB=-1199066717.4342> <Mlp=32693192.8036> <PB=1000000> 
<DWph=2> <it= 80> <et=33.31> <Mt= 0.28> <Spt= 3.33> <nCl=946> <DB=-553123631.1007> <Mlp=  167.7243> <PB=1000000> 
<DWph=2> <it= 90> <et=37.33> <Mt= 0.36> <Spt= 3.65> <nCl=873> <DB=  154.4599> <Mlp=  167.1928> <PB=1000000> 
<DWph=2> <it=100> <et=41.47> <Mt= 0.51> <Spt= 3.62> <nCl=1000> <DB=  165.7428> <Mlp=  167.0425> <PB=1000000> 
<DWph=2> <it=110> <et=45.70> <Mt= 0.44> <Spt= 3.73> <nCl=958> <DB=  166.7778> <Mlp=  167.0176> <PB=1000000> 
<DWph=2> <it=120> <et=49.91> <Mt= 0.45> <Spt= 3.74> <nCl=738> <DB=  166.9216> <Mlp=  167.0062> <PB=1000000> 
<DWph=2> <it=130> <et=54.14> <Mt= 0.40> <Spt= 3.82> <nCl=680> <DB=  166.9480> <Mlp=  167.0029> <PB=1000000> 
<DWph=2> <it=140> <et=58.22> <Mt= 0.34> <Spt= 3.73> <nCl=536> <DB=  166.9934> <Mlp=  167.0018> <PB=1000000> 
<DWph=2> <it=150> <et=62.10> <Mt= 0.14> <Spt= 3.74> <nCl=179> <DB=  166.9999> <Mlp=  167.0017> <PB=1000000> 
<DWph=2> <it=151> <et=62.86> <Mt= 0.01> <Spt= 0.74> <nCl= 10> <DB=  167.0018> <Mlp=  167.0017> <PB=1000000> 
<DWph=1> <it=160> <et=66.92> <Mt= 0.41> <Spt= 3.57> <nCl=808> <DB=  166.9871> <Mlp=  167.0004> <PB=1000000> 
<DWph=1> <it=170> <et=71.11> <Mt= 0.21> <Spt= 3.96> <nCl=568> <DB=  166.9967> <Mlp=  167.0000> <PB=167> 
<DWph=1> <it=180> <et=75.25> <Mt= 0.10> <Spt= 4.05> <nCl=298> <DB=  166.9988> <Mlp=  167.0000> <PB=167> 
<DWph=1> <it=189> <et=79.65> <Mt= 0.06> <Spt= 4.33> <nCl=248> <DB=  166.9991> <Mlp=  167.0000> <PB=167> 
<DWph=0> <it=190> <et=80.06> <Mt= 0.01> <Spt= 0.40> <nCl= 44> <DB=  166.9949> <Mlp=  167.0000> <PB=167> 
ColGenEvalAlg final dual bound: 166.995 (rounded: 167)
New model incumbent solution 167, TIME = 0h1m20s27t = 8027
************************************************************************************************
Search is finished, global bounds : [ 167 , 167 ], TIME = 0h1m20s27t = 8027
************************************************************************************************
[32mBaPCod : solution defined.[00m
statistics_cols: instance & :Optimal & cutoff & :bcRecRootDb & :bcTimeRootEval & :bcCountNodeProc & :bcRecBestDb & :bcRecBestInc & :bcTimeMain \\
statistics: N501W1000001R2550Q20-004 & 1 & 1.0e6 & 167.00 & 80.27 & 1 & 167.00 & 167 & 80.29 \\
########################################################
bin_id=1: 253276(17) 253667(4) 493058(14) 
bin_id=2: 251802(8) 262052(2) 486147(1) 
bin_id=3: 269714(8) 276082(2) 454205(12) 
bin_id=4: 277703(14) 297523(13) 424775(17) 
bin_id=5: 257564(3) 280181(19) 462256(16) 
bin_id=6: 259341(13) 292680(10) 447980(14) 
bin_id=7: 284944(13) 315921(7) 399136(8) 
bin_id=8: 287679(16) 323591(1) 388731(3) 
bin_id=9: 297863(0) 320200(9) 381938(7) 
bin_id=10: 265460(10) 310614(2) 423927(1) 
bin_id=11: 266856(12) 365090(14) 368055(10) 
bin_id=12: 261582(13) 310890(17) 427529(11) 
bin_id=13: 269519(19) 356062(10) 374420(14) 
bin_id=14: 251736(9) 270544(5) 477721(4) 
bin_id=15: 294969(17) 351946(8) 353086(7) 
bin_id=16: 287336(2) 309009(9) 403656(7) 
bin_id=17: 279394(16) 340842(0) 379765(2) 
bin_id=18: 273342(17) 360753(10) 365906(4) 
bin_id=19: 258064(19) 353276(0) 388661(18) 
bin_id=20: 264056(5) 313926(9) 422019(19) 
bin_id=21: 263848(18) 289893(9) 446260(9) 
bin_id=22: 288787(19) 310031(11) 401183(14) 
bin_id=23: 257981(11) 264318(12) 477702(10) 
bin_id=24: 291289(19) 353384(12) 355328(16) 
bin_id=25: 263320(3) 303573(15) 433108(14) 
bin_id=26: 250073(11) 253307(3) 496621(5) 
bin_id=27: 322287(6) 338415(12) 339299(11) 
bin_id=28: 260855(4) 270144(14) 469002(5) 
bin_id=29: 290866(13) 294135(5) 415000(14) 
bin_id=30: 310771(19) 343910(17) 345320(3) 
bin_id=31: 280088(5) 354870(0) 365043(16) 
bin_id=32: 251545(11) 344434(3) 404022(2) 
bin_id=33: 256746(2) 330036(13) 413219(10) 
bin_id=34: 291416(0) 344421(4) 364164(18) 
bin_id=35: 274535(8) 327423(12) 398043(7) 
bin_id=36: 254920(10) 282297(7) 462784(17) 
bin_id=37: 298959(17) 341291(14) 359751(8) 
bin_id=38: 266150(13) 335100(6) 398751(14) 
bin_id=39: 250261(8) 253982(12) 495758(0) 
bin_id=40: 296068(12) 303945(5) 399988(14) 
bin_id=41: 251579(15) 369017(19) 379405(6) 
bin_id=42: 282477(4) 354118(4) 363406(8) 
bin_id=43: 261970(4) 314191(1) 423840(15) 
bin_id=44: 281302(1) 286311(17) 432388(7) 
bin_id=45: 252236(2) 363822(6) 383943(11) 
bin_id=46: 255773(17) 258669(2) 485559(15) 
bin_id=47: 294727(16) 305228(8) 400046(4) 
bin_id=48: 273221(1) 307914(2) 418866(9) 
bin_id=49: 250257(10) 310885(5) 438859(12) 
bin_id=50: 265325(18) 315287(10) 419389(4) 
bin_id=51: 253131(6) 325858(12) 421012(5) 
bin_id=52: 250423(3) 268893(2) 480685(1) 
bin_id=53: 257360(12) 260181(3) 482460(0) 
bin_id=54: 262356(12) 312987(12) 424658(8) 
bin_id=55: 252151(6) 316126(4) 431724(12) 
bin_id=56: 286942(18) 330591(16) 382468(0) 
bin_id=57: 256442(7) 325796(18) 417763(6) 
bin_id=58: 256913(5) 368324(19) 374764(12) 
bin_id=59: 281035(4) 281339(9) 437627(9) 
bin_id=60: 258899(17) 301699(8) 439403(19) 
bin_id=61: 251091(13) 256562(3) 492348(17) 
bin_id=62: 251841(4) 324999(7) 423161(2) 
bin_id=63: 302902(18) 305835(19) 391264(18) 
bin_id=64: 289005(3) 333412(4) 377584(15) 
bin_id=65: 250319(5) 368960(0) 380722(1) 
bin_id=66: 254524(2) 349882(0) 395595(8) 
bin_id=67: 257901(19) 334728(10) 407372(6) 
bin_id=68: 306305(7) 317843(16) 375853(0) 
bin_id=69: 251113(9) 270196(17) 478692(18) 
bin_id=70: 286488(15) 352402(1) 361111(7) 
bin_id=71: 273482(15) 325566(6) 400953(15) 
bin_id=72: 266033(0) 289308(5) 444660(11) 
bin_id=73: 273296(16) 301448(14) 425257(8) 
bin_id=74: 271829(3) 342013(2) 386159(12) 
bin_id=75: 262937(6) 335898(2) 401166(15) 
bin_id=76: 273232(19) 314729(4) 412040(4) 
bin_id=77: 289937(9) 300043(6) 410021(0) 
bin_id=78: 297182(11) 332233(6) 370586(13) 
bin_id=79: 260486(4) 269320(8) 470195(0) 
bin_id=80: 251684(5) 272971(15) 475346(8) 
bin_id=81: 270558(13) 340407(16) 389036(13) 
bin_id=82: 277798(4) 282855(0) 439348(19) 
bin_id=83: 277715(4) 331855(0) 390431(7) 
bin_id=84: 311717(3) 314246(4) 374038(8) 
bin_id=85: 265475(4) 273208(6) 461318(5) 
bin_id=86: 263237(14) 337861(9) 398903(18) 
bin_id=87: 271397(2) 319352(5) 409252(11) 
bin_id=88: 252967(0) 255279(13) 491755(17) 
bin_id=89: 257053(15) 274304(19) 468644(2) 
bin_id=90: 275831(10) 309636(12) 414534(2) 
bin_id=91: 256734(1) 329357(2) 413910(7) 
bin_id=92: 257973(9) 333147(6) 408881(15) 
bin_id=93: 276747(5) 305906(12) 417348(11) 
bin_id=94: 266854(4) 267853(10) 465294(5) 
bin_id=95: 272379(16) 277466(19) 450156(0) 
bin_id=96: 296353(0) 314236(17) 389412(16) 
bin_id=97: 316653(16) 331384(4) 351964(19) 
bin_id=98: 250188(13) 266492(6) 483321(19) 
bin_id=99: 250664(9) 257265(15) 492072(5) 
bin_id=100: 255038(8) 364908(5) 380055(0) 
bin_id=101: 250039(19) 254358(13) 495604(7) 
bin_id=102: 271771(19) 305065(11) 423165(15) 
bin_id=103: 252898(14) 272790(4) 474313(0) 
bin_id=104: 274113(6) 327130(15) 398758(2) 
bin_id=105: 271512(12) 356709(10) 371780(13) 
bin_id=106: 286083(13) 322776(2) 391142(15) 
bin_id=107: 250062(1) 250275(8) 499664(2) 
bin_id=108: 259054(3) 265033(8) 475914(15) 
bin_id=109: 266813(14) 275748(7) 457440(1) 
bin_id=110: 272274(11) 282625(2) 445102(10) 
bin_id=111: 281257(4) 293869(0) 424875(4) 
bin_id=112: 260449(8) 282518(10) 457034(0) 
bin_id=113: 251525(14) 273391(13) 475085(3) 
bin_id=114: 263303(10) 268873(9) 467825(11) 
bin_id=115: 288455(11) 354041(0) 357505(5) 
bin_id=116: 255880(4) 334542(2) 409579(14) 
bin_id=117: 250174(4) 371808(2) 378019(1) 
bin_id=118: 270999(15) 334172(19) 394830(13) 
bin_id=119: 300514(19) 329760(12) 369727(8) 
bin_id=120: 294823(14) 347260(18) 357918(18) 
bin_id=121: 250859(1) 256411(19) 492731(6) 
bin_id=122: 260335(1) 300863(11) 438803(1) 
bin_id=123: 253863(14) 280078(3) 466060(0) 
bin_id=124: 252058(18) 310633(10) 437310(11) 
bin_id=125: 282808(9) 285073(17) 432120(4) 
bin_id=126: 253286(6) 271956(1) 474759(10) 
bin_id=127: 266590(2) 308994(0) 424417(14) 
bin_id=128: 276573(9) 328466(11) 394962(9) 
bin_id=129: 306175(16) 309298(6) 384528(11) 
bin_id=130: 262321(8) 349529(11) 388151(8) 
bin_id=131: 314089(17) 323551(8) 362361(3) 
bin_id=132: 263353(5) 341747(19) 394901(19) 
bin_id=133: 318622(2) 328408(17) 352971(17) 
bin_id=134: 256596(4) 355284(11) 388121(12) 
bin_id=135: 286651(6) 319279(9) 394071(5) 
bin_id=136: 250560(11) 267416(4) 482025(13) 
bin_id=137: 268778(5) 354803(11) 376420(7) 
bin_id=138: 269764(10) 314689(7) 415548(12) 
bin_id=139: 263490(0) 360463(9) 376048(8) 
bin_id=140: 275535(19) 345110(6) 379356(14) 
bin_id=141: 271790(5) 327367(11) 400844(8) 
bin_id=142: 256959(3) 290164(7) 452878(9) 
bin_id=143: 255256(0) 260509(17) 484236(15) 
bin_id=144: 301223(9) 318516(13) 380262(15) 
bin_id=145: 287112(13) 335748(5) 377141(0) 
bin_id=146: 252966(18) 304818(19) 442217(2) 
bin_id=147: 311344(1) 324487(12) 364170(9) 
bin_id=148: 277699(1) 343988(3) 378314(14) 
bin_id=149: 274993(2) 357602(7) 367406(2) 
bin_id=150: 318098(18) 333430(3) 348473(6) 
bin_id=151: 250432(19) 339905(7) 409664(13) 
bin_id=152: 277341(0) 342536(4) 380124(17) 
bin_id=153: 252887(13) 273800(0) 473314(13) 
bin_id=154: 275101(13) 325663(10) 399237(13) 
bin_id=155: 260300(0) 338343(1) 401358(14) 
bin_id=156: 281652(6) 353397(18) 364952(7) 
bin_id=157: 281047(9) 317746(8) 401208(16) 
bin_id=158: 270273(7) 341066(0) 388662(17) 
bin_id=159: 305810(9) 329094(1) 365097(8) 
bin_id=160: 283774(5) 296728(13) 419499(5) 
bin_id=161: 272586(19) 334636(4) 392779(14) 
bin_id=162: 280903(19) 306123(13) 412975(14) 
bin_id=163: 264134(9) 329114(15) 406753(4) 
bin_id=164: 250678(9) 286971(16) 462352(11) 
bin_id=165: 285522(18) 329792(0) 384687(12) 
bin_id=166: 272337(17) 294054(11) 433610(1) 
bin_id=167: 291369(2) 353127(6) 355505(17) 
Objective value: 167.0
########################################################
