Application parameters:
  batch  =>  nothing
  instance  =>  "/IN/N501W1000001R2550Q20-003"
  ub  =>  1.0e6
  cfg  =>  "/CFG/BPP.cfg"
data = Colored Bin Packing dataset.
number of items = 501
number of colors = 20
capacity = 1000001
Items : 
	 item 1, weight= 250035, color= 1
	 item 2, weight= 250048, color= 15
	 item 3, weight= 250101, color= 12
	 item 4, weight= 250112, color= 7
	 item 5, weight= 250158, color= 18
	 item 6, weight= 250210, color= 3
	 item 7, weight= 250232, color= 4
	 item 8, weight= 250329, color= 12
	 item 9, weight= 250342, color= 17
	 item 10, weight= 250345, color= 3
	 item 11, weight= 250396, color= 7
	 item 12, weight= 250469, color= 12
	 item 13, weight= 250469, color= 18
	 item 14, weight= 250642, color= 18
	 item 15, weight= 250764, color= 13
	 item 16, weight= 250796, color= 9
	 item 17, weight= 250932, color= 19
	 item 18, weight= 250999, color= 14
	 item 19, weight= 251248, color= 6
	 item 20, weight= 251274, color= 14
	 item 21, weight= 251426, color= 4
	 item 22, weight= 251457, color= 13
	 item 23, weight= 252138, color= 5
	 item 24, weight= 252175, color= 0
	 item 25, weight= 252225, color= 7
	 item 26, weight= 252261, color= 8
	 item 27, weight= 252342, color= 9
	 item 28, weight= 252372, color= 14
	 item 29, weight= 252798, color= 15
	 item 30, weight= 252808, color= 4
	 item 31, weight= 252883, color= 15
	 item 32, weight= 252975, color= 5
	 item 33, weight= 253217, color= 2
	 item 34, weight= 253360, color= 12
	 item 35, weight= 253419, color= 15
	 item 36, weight= 253573, color= 9
	 item 37, weight= 253772, color= 0
	 item 38, weight= 253980, color= 13
	 item 39, weight= 254003, color= 19
	 item 40, weight= 254072, color= 14
	 item 41, weight= 254137, color= 7
	 item 42, weight= 254250, color= 16
	 item 43, weight= 254276, color= 4
	 item 44, weight= 254364, color= 14
	 item 45, weight= 254502, color= 10
	 item 46, weight= 254765, color= 3
	 item 47, weight= 254777, color= 13
	 item 48, weight= 254829, color= 10
	 item 49, weight= 254840, color= 7
	 item 50, weight= 255173, color= 3
	 item 51, weight= 255936, color= 1
	 item 52, weight= 256336, color= 2
	 item 53, weight= 256947, color= 7
	 item 54, weight= 256949, color= 5
	 item 55, weight= 257150, color= 16
	 item 56, weight= 257300, color= 4
	 item 57, weight= 257596, color= 16
	 item 58, weight= 257755, color= 10
	 item 59, weight= 257830, color= 13
	 item 60, weight= 257845, color= 14
	 item 61, weight= 257861, color= 8
	 item 62, weight= 258294, color= 0
	 item 63, weight= 258905, color= 12
	 item 64, weight= 259362, color= 11
	 item 65, weight= 261232, color= 19
	 item 66, weight= 261366, color= 11
	 item 67, weight= 261594, color= 1
	 item 68, weight= 261719, color= 0
	 item 69, weight= 261922, color= 10
	 item 70, weight= 261974, color= 11
	 item 71, weight= 262065, color= 19
	 item 72, weight= 262070, color= 9
	 item 73, weight= 262225, color= 1
	 item 74, weight= 262242, color= 14
	 item 75, weight= 262624, color= 1
	 item 76, weight= 262778, color= 4
	 item 77, weight= 262829, color= 15
	 item 78, weight= 262913, color= 11
	 item 79, weight= 262985, color= 11
	 item 80, weight= 263159, color= 2
	 item 81, weight= 263807, color= 4
	 item 82, weight= 263974, color= 9
	 item 83, weight= 264119, color= 12
	 item 84, weight= 264736, color= 12
	 item 85, weight= 265106, color= 0
	 item 86, weight= 265469, color= 4
	 item 87, weight= 265678, color= 6
	 item 88, weight= 265759, color= 19
	 item 89, weight= 265956, color= 8
	 item 90, weight= 265987, color= 5
	 item 91, weight= 266250, color= 2
	 item 92, weight= 266611, color= 14
	 item 93, weight= 266663, color= 10
	 item 94, weight= 267112, color= 8
	 item 95, weight= 267237, color= 16
	 item 96, weight= 267879, color= 13
	 item 97, weight= 267883, color= 14
	 item 98, weight= 268384, color= 18
	 item 99, weight= 268411, color= 19
	 item 100, weight= 269178, color= 15
	 item 101, weight= 269386, color= 13
	 item 102, weight= 269455, color= 0
	 item 103, weight= 269530, color= 8
	 item 104, weight= 269642, color= 15
	 item 105, weight= 270134, color= 6
	 item 106, weight= 270171, color= 10
	 item 107, weight= 270507, color= 11
	 item 108, weight= 270680, color= 0
	 item 109, weight= 271502, color= 12
	 item 110, weight= 271763, color= 10
	 item 111, weight= 272156, color= 17
	 item 112, weight= 272267, color= 16
	 item 113, weight= 272931, color= 13
	 item 114, weight= 273127, color= 4
	 item 115, weight= 273154, color= 18
	 item 116, weight= 273238, color= 9
	 item 117, weight= 273942, color= 4
	 item 118, weight= 274068, color= 18
	 item 119, weight= 274082, color= 12
	 item 120, weight= 274109, color= 14
	 item 121, weight= 274207, color= 3
	 item 122, weight= 276106, color= 6
	 item 123, weight= 276140, color= 18
	 item 124, weight= 276322, color= 1
	 item 125, weight= 276592, color= 17
	 item 126, weight= 277071, color= 3
	 item 127, weight= 277660, color= 7
	 item 128, weight= 277999, color= 11
	 item 129, weight= 278525, color= 5
	 item 130, weight= 278794, color= 15
	 item 131, weight= 278912, color= 19
	 item 132, weight= 278919, color= 8
	 item 133, weight= 279128, color= 6
	 item 134, weight= 279498, color= 5
	 item 135, weight= 279543, color= 13
	 item 136, weight= 280062, color= 7
	 item 137, weight= 280065, color= 11
	 item 138, weight= 280776, color= 6
	 item 139, weight= 280864, color= 3
	 item 140, weight= 280875, color= 7
	 item 141, weight= 281261, color= 0
	 item 142, weight= 281709, color= 6
	 item 143, weight= 281733, color= 3
	 item 144, weight= 281865, color= 9
	 item 145, weight= 282181, color= 0
	 item 146, weight= 282196, color= 4
	 item 147, weight= 282474, color= 1
	 item 148, weight= 282560, color= 15
	 item 149, weight= 282918, color= 14
	 item 150, weight= 283239, color= 8
	 item 151, weight= 283337, color= 6
	 item 152, weight= 283611, color= 17
	 item 153, weight= 283727, color= 6
	 item 154, weight= 284153, color= 3
	 item 155, weight= 284308, color= 9
	 item 156, weight= 284544, color= 18
	 item 157, weight= 284591, color= 17
	 item 158, weight= 285238, color= 2
	 item 159, weight= 285286, color= 16
	 item 160, weight= 285414, color= 5
	 item 161, weight= 285879, color= 13
	 item 162, weight= 285982, color= 1
	 item 163, weight= 286233, color= 9
	 item 164, weight= 286237, color= 8
	 item 165, weight= 286340, color= 3
	 item 166, weight= 286363, color= 8
	 item 167, weight= 286624, color= 7
	 item 168, weight= 286789, color= 10
	 item 169, weight= 286857, color= 9
	 item 170, weight= 288476, color= 10
	 item 171, weight= 288732, color= 8
	 item 172, weight= 288828, color= 5
	 item 173, weight= 289627, color= 18
	 item 174, weight= 289729, color= 6
	 item 175, weight= 290076, color= 5
	 item 176, weight= 290134, color= 16
	 item 177, weight= 290177, color= 16
	 item 178, weight= 290218, color= 19
	 item 179, weight= 290352, color= 19
	 item 180, weight= 290590, color= 11
	 item 181, weight= 291729, color= 5
	 item 182, weight= 292254, color= 9
	 item 183, weight= 292306, color= 0
	 item 184, weight= 293210, color= 14
	 item 185, weight= 293294, color= 3
	 item 186, weight= 293475, color= 9
	 item 187, weight= 294318, color= 4
	 item 188, weight= 294344, color= 14
	 item 189, weight= 295029, color= 12
	 item 190, weight= 295233, color= 1
	 item 191, weight= 295863, color= 16
	 item 192, weight= 296291, color= 2
	 item 193, weight= 296502, color= 18
	 item 194, weight= 297785, color= 2
	 item 195, weight= 298005, color= 9
	 item 196, weight= 298025, color= 18
	 item 197, weight= 298223, color= 18
	 item 198, weight= 298698, color= 5
	 item 199, weight= 298816, color= 18
	 item 200, weight= 298969, color= 11
	 item 201, weight= 299292, color= 10
	 item 202, weight= 299528, color= 17
	 item 203, weight= 299926, color= 19
	 item 204, weight= 300088, color= 8
	 item 205, weight= 300130, color= 0
	 item 206, weight= 300947, color= 16
	 item 207, weight= 301072, color= 8
	 item 208, weight= 301248, color= 18
	 item 209, weight= 301429, color= 12
	 item 210, weight= 301458, color= 14
	 item 211, weight= 301534, color= 16
	 item 212, weight= 301597, color= 12
	 item 213, weight= 301744, color= 15
	 item 214, weight= 302229, color= 0
	 item 215, weight= 302353, color= 2
	 item 216, weight= 302447, color= 14
	 item 217, weight= 302487, color= 17
	 item 218, weight= 302579, color= 8
	 item 219, weight= 302861, color= 6
	 item 220, weight= 303027, color= 9
	 item 221, weight= 303098, color= 14
	 item 222, weight= 303336, color= 14
	 item 223, weight= 303383, color= 0
	 item 224, weight= 303474, color= 17
	 item 225, weight= 303941, color= 16
	 item 226, weight= 304223, color= 0
	 item 227, weight= 304262, color= 1
	 item 228, weight= 304771, color= 8
	 item 229, weight= 305473, color= 6
	 item 230, weight= 305582, color= 12
	 item 231, weight= 305961, color= 10
	 item 232, weight= 306072, color= 9
	 item 233, weight= 306579, color= 6
	 item 234, weight= 307853, color= 2
	 item 235, weight= 308566, color= 12
	 item 236, weight= 308740, color= 12
	 item 237, weight= 308771, color= 15
	 item 238, weight= 309295, color= 8
	 item 239, weight= 309749, color= 1
	 item 240, weight= 310084, color= 5
	 item 241, weight= 310198, color= 12
	 item 242, weight= 310421, color= 6
	 item 243, weight= 310920, color= 16
	 item 244, weight= 311228, color= 16
	 item 245, weight= 311744, color= 12
	 item 246, weight= 311767, color= 9
	 item 247, weight= 312234, color= 17
	 item 248, weight= 312693, color= 14
	 item 249, weight= 313031, color= 19
	 item 250, weight= 313525, color= 7
	 item 251, weight= 313680, color= 9
	 item 252, weight= 313893, color= 6
	 item 253, weight= 314585, color= 6
	 item 254, weight= 315344, color= 3
	 item 255, weight= 315370, color= 15
	 item 256, weight= 315917, color= 2
	 item 257, weight= 316017, color= 18
	 item 258, weight= 316922, color= 13
	 item 259, weight= 317087, color= 18
	 item 260, weight= 317578, color= 17
	 item 261, weight= 318960, color= 18
	 item 262, weight= 319309, color= 8
	 item 263, weight= 319499, color= 5
	 item 264, weight= 319735, color= 4
	 item 265, weight= 320314, color= 1
	 item 266, weight= 320677, color= 0
	 item 267, weight= 320882, color= 16
	 item 268, weight= 321701, color= 3
	 item 269, weight= 322104, color= 0
	 item 270, weight= 322406, color= 8
	 item 271, weight= 322499, color= 13
	 item 272, weight= 322887, color= 19
	 item 273, weight= 322888, color= 1
	 item 274, weight= 323106, color= 9
	 item 275, weight= 323817, color= 11
	 item 276, weight= 323929, color= 7
	 item 277, weight= 324476, color= 12
	 item 278, weight= 325003, color= 8
	 item 279, weight= 325112, color= 14
	 item 280, weight= 325687, color= 16
	 item 281, weight= 325824, color= 16
	 item 282, weight= 325922, color= 8
	 item 283, weight= 326032, color= 17
	 item 284, weight= 326138, color= 15
	 item 285, weight= 326230, color= 4
	 item 286, weight= 326307, color= 8
	 item 287, weight= 327506, color= 13
	 item 288, weight= 327866, color= 15
	 item 289, weight= 328384, color= 5
	 item 290, weight= 328401, color= 15
	 item 291, weight= 328936, color= 17
	 item 292, weight= 329012, color= 7
	 item 293, weight= 329125, color= 14
	 item 294, weight= 329915, color= 11
	 item 295, weight= 329933, color= 15
	 item 296, weight= 330044, color= 11
	 item 297, weight= 330056, color= 11
	 item 298, weight= 331206, color= 10
	 item 299, weight= 331216, color= 5
	 item 300, weight= 331486, color= 13
	 item 301, weight= 332387, color= 10
	 item 302, weight= 332800, color= 6
	 item 303, weight= 333079, color= 16
	 item 304, weight= 333446, color= 13
	 item 305, weight= 333595, color= 14
	 item 306, weight= 334920, color= 12
	 item 307, weight= 335435, color= 5
	 item 308, weight= 335440, color= 5
	 item 309, weight= 335687, color= 13
	 item 310, weight= 335690, color= 18
	 item 311, weight= 337406, color= 4
	 item 312, weight= 340189, color= 14
	 item 313, weight= 340495, color= 10
	 item 314, weight= 342079, color= 8
	 item 315, weight= 342486, color= 2
	 item 316, weight= 342624, color= 10
	 item 317, weight= 342901, color= 0
	 item 318, weight= 343141, color= 19
	 item 319, weight= 343764, color= 10
	 item 320, weight= 344356, color= 15
	 item 321, weight= 344968, color= 11
	 item 322, weight= 345260, color= 19
	 item 323, weight= 346478, color= 1
	 item 324, weight= 347293, color= 16
	 item 325, weight= 347423, color= 16
	 item 326, weight= 348634, color= 16
	 item 327, weight= 349028, color= 6
	 item 328, weight= 349644, color= 19
	 item 329, weight= 351336, color= 10
	 item 330, weight= 351643, color= 16
	 item 331, weight= 352287, color= 14
	 item 332, weight= 353522, color= 8
	 item 333, weight= 353633, color= 17
	 item 334, weight= 354631, color= 11
	 item 335, weight= 354902, color= 8
	 item 336, weight= 354995, color= 19
	 item 337, weight= 355194, color= 18
	 item 338, weight= 355244, color= 0
	 item 339, weight= 355523, color= 18
	 item 340, weight= 356039, color= 4
	 item 341, weight= 358599, color= 6
	 item 342, weight= 358635, color= 0
	 item 343, weight= 359066, color= 5
	 item 344, weight= 359306, color= 4
	 item 345, weight= 360507, color= 7
	 item 346, weight= 361402, color= 16
	 item 347, weight= 361735, color= 7
	 item 348, weight= 365342, color= 4
	 item 349, weight= 365937, color= 0
	 item 350, weight= 366561, color= 19
	 item 351, weight= 366610, color= 9
	 item 352, weight= 366800, color= 5
	 item 353, weight= 367364, color= 17
	 item 354, weight= 368216, color= 19
	 item 355, weight= 370373, color= 15
	 item 356, weight= 370840, color= 17
	 item 357, weight= 371825, color= 10
	 item 358, weight= 372335, color= 18
	 item 359, weight= 372342, color= 2
	 item 360, weight= 372698, color= 18
	 item 361, weight= 372816, color= 17
	 item 362, weight= 373493, color= 18
	 item 363, weight= 373823, color= 18
	 item 364, weight= 374597, color= 10
	 item 365, weight= 375202, color= 10
	 item 366, weight= 375647, color= 1
	 item 367, weight= 376645, color= 19
	 item 368, weight= 378023, color= 8
	 item 369, weight= 378177, color= 11
	 item 370, weight= 378245, color= 19
	 item 371, weight= 378436, color= 12
	 item 372, weight= 379537, color= 15
	 item 373, weight= 381094, color= 18
	 item 374, weight= 382376, color= 7
	 item 375, weight= 382394, color= 2
	 item 376, weight= 382562, color= 16
	 item 377, weight= 382822, color= 18
	 item 378, weight= 382938, color= 4
	 item 379, weight= 383158, color= 0
	 item 380, weight= 384330, color= 4
	 item 381, weight= 384679, color= 6
	 item 382, weight= 385994, color= 14
	 item 383, weight= 386749, color= 13
	 item 384, weight= 386762, color= 16
	 item 385, weight= 387184, color= 2
	 item 386, weight= 387269, color= 11
	 item 387, weight= 387899, color= 14
	 item 388, weight= 389634, color= 1
	 item 389, weight= 390927, color= 6
	 item 390, weight= 390938, color= 3
	 item 391, weight= 391281, color= 0
	 item 392, weight= 392486, color= 15
	 item 393, weight= 394493, color= 2
	 item 394, weight= 394784, color= 4
	 item 395, weight= 397229, color= 8
	 item 396, weight= 397738, color= 17
	 item 397, weight= 397950, color= 6
	 item 398, weight= 398799, color= 2
	 item 399, weight= 399947, color= 9
	 item 400, weight= 400478, color= 6
	 item 401, weight= 401468, color= 14
	 item 402, weight= 403523, color= 3
	 item 403, weight= 403643, color= 1
	 item 404, weight= 404002, color= 14
	 item 405, weight= 406757, color= 3
	 item 406, weight= 407167, color= 16
	 item 407, weight= 409438, color= 0
	 item 408, weight= 412374, color= 17
	 item 409, weight= 413484, color= 12
	 item 410, weight= 413640, color= 17
	 item 411, weight= 414150, color= 0
	 item 412, weight= 415152, color= 0
	 item 413, weight= 416695, color= 11
	 item 414, weight= 417317, color= 13
	 item 415, weight= 417457, color= 13
	 item 416, weight= 417845, color= 15
	 item 417, weight= 418144, color= 2
	 item 418, weight= 418383, color= 19
	 item 419, weight= 418794, color= 13
	 item 420, weight= 419107, color= 6
	 item 421, weight= 419141, color= 12
	 item 422, weight= 419193, color= 8
	 item 423, weight= 421211, color= 4
	 item 424, weight= 421348, color= 14
	 item 425, weight= 421713, color= 16
	 item 426, weight= 422406, color= 13
	 item 427, weight= 423538, color= 4
	 item 428, weight= 424305, color= 8
	 item 429, weight= 424582, color= 3
	 item 430, weight= 426016, color= 10
	 item 431, weight= 426889, color= 1
	 item 432, weight= 427103, color= 13
	 item 433, weight= 427164, color= 15
	 item 434, weight= 427519, color= 9
	 item 435, weight= 428206, color= 14
	 item 436, weight= 428411, color= 19
	 item 437, weight= 428823, color= 13
	 item 438, weight= 428825, color= 17
	 item 439, weight= 428919, color= 17
	 item 440, weight= 429474, color= 10
	 item 441, weight= 430883, color= 0
	 item 442, weight= 431818, color= 7
	 item 443, weight= 433688, color= 5
	 item 444, weight= 434717, color= 2
	 item 445, weight= 435200, color= 1
	 item 446, weight= 435346, color= 7
	 item 447, weight= 435614, color= 8
	 item 448, weight= 435921, color= 1
	 item 449, weight= 436432, color= 11
	 item 450, weight= 437319, color= 12
	 item 451, weight= 438011, color= 12
	 item 452, weight= 439733, color= 8
	 item 453, weight= 440207, color= 11
	 item 454, weight= 440214, color= 1
	 item 455, weight= 442128, color= 0
	 item 456, weight= 444841, color= 3
	 item 457, weight= 445013, color= 5
	 item 458, weight= 445443, color= 9
	 item 459, weight= 447812, color= 0
	 item 460, weight= 448333, color= 12
	 item 461, weight= 449207, color= 19
	 item 462, weight= 449251, color= 11
	 item 463, weight= 449354, color= 5
	 item 464, weight= 449842, color= 3
	 item 465, weight= 451566, color= 2
	 item 466, weight= 451978, color= 15
	 item 467, weight= 454031, color= 2
	 item 468, weight= 455389, color= 5
	 item 469, weight= 455903, color= 18
	 item 470, weight= 456499, color= 14
	 item 471, weight= 457422, color= 8
	 item 472, weight= 458491, color= 6
	 item 473, weight= 458873, color= 16
	 item 474, weight= 459456, color= 0
	 item 475, weight= 460338, color= 2
	 item 476, weight= 462979, color= 7
	 item 477, weight= 465169, color= 1
	 item 478, weight= 468463, color= 10
	 item 479, weight= 472895, color= 16
	 item 480, weight= 473195, color= 1
	 item 481, weight= 473213, color= 19
	 item 482, weight= 473758, color= 16
	 item 483, weight= 476188, color= 2
	 item 484, weight= 479546, color= 3
	 item 485, weight= 480829, color= 8
	 item 486, weight= 481505, color= 9
	 item 487, weight= 483442, color= 0
	 item 488, weight= 484056, color= 4
	 item 489, weight= 487140, color= 9
	 item 490, weight= 487682, color= 15
	 item 491, weight= 490745, color= 13
	 item 492, weight= 491244, color= 4
	 item 493, weight= 492954, color= 4
	 item 494, weight= 493115, color= 5
	 item 495, weight= 493353, color= 13
	 item 496, weight= 495267, color= 5
	 item 497, weight= 496312, color= 0
	 item 498, weight= 496660, color= 18
	 item 499, weight= 498427, color= 9
	 item 500, weight= 499431, color= 10
	 item 501, weight= 499611, color= 0

VRPSolver warning: Interval set for resource 1 on source node (when source != sink) is ignored (by definition is [0.0,0.0])
[41m solve [00m
~~~~~~~~~~~~~~~~~~~~~~~~~~~~~~~~~~~~~~~~~~~~~~~~~~~~~~~~~~~~~~~~~~~~~~~~~~~~~~
VRPSolver v0.4.1, 24/03/2021. Web: vrpsolver.math.u-bordeaux.fr
Corresponds to the solver by Pessoa, Sadykov, Uchoa and Vanderbeck (2020)
Paper: dx.doi.org/10.1007/s10107-020-01523-z
USE THIS CODE ONLY FOR ACADEMIC PURPOSES AT YOUR OWN RISK
~~~~~~~~~~~~~~~~~~~~~~~~~~~~~~~~~~~~~~~~~~~~~~~~~~~~~~~~~~~~~~~~~~~~~~~~~~~~~~
BaPCod v053, 24/03/2021, © Inria Bordeaux, France
~~~~~~~~~~~~~~~~~~~~~~~~~~~~~~~~~~~~~~~~~~~~~~~~~~~~~~~~~~~~~~~~~~~~~~~~~~~~~~
VRPSolver parameters:
GlobalTimeLimit = 1800
MaxNbOfBBtreeNodeTreated = 100000
treeSearchStrategy = 1
RCSPstopCutGenTimeThresholdInPricing = 10
RCSPhardTimeThresholdInPricing = 20
RCSPnumberOfBucketsPerVertex = 2000
RCSPdynamicBucketSteps = 0
RCSPuseBidirectionalSearch = 1
RCSPapplyReducedCostFixing = 1
RCSPredCostFixingFalseGap = 0
RCSPmaxNumOfColsPerIteration = 100
RCSPmaxNumOfColsPerExactIteration = 100
RCSPheurLabelingStrategy = 4
StabilizationMinPhaseOfStage = 1
RCSPmaxNumOfLabelsInEnumeration = 100000
RCSPmaxNumOfEnumeratedSolutions = 1000000
RCSPmaxNumOfEnumSolutionsForMIP = 100000
RCSPinitNGneighbourhoodSize = 0
RCSPmaxNGneighbourhoodSize = 0
RCSPrankOneCutsMaxNumPerRound = 100
RCSPrankOneCutsMaxNumRows = -1
RCSPrankOneCutsMemoryType = 2
CutTailingOffThreshold = 0.02
CutTailingOffCounterThreshold = 3
SafeDualBoundScaleFactor = -1
StrongBranchingPhaseOneCandidatesNumber = 100
StrongBranchingPhaseOneTreeSizeEstimRatio = 0.3
StrongBranchingPhaseTwoCandidatesNumber = 1
StrongBranchingPhaseTwoTreeSizeEstimRatio = 0.1
MaxTimeForRestrictedMasterIpHeur = -1
DivingHeurUseDepthLimit = 0
MaxLDSbreadth = 3
MaxLDSdepth = 2
New model incumbent solution 1e+06, TIME = 0h0m0s3t = 3
Model is built TIME = 0h0m4s67t = 467
************************************************************************************************
**** BaB tree root node
**** Local DB = -1e+12, global bounds : [ -1e+12 , 1e+06 ], TIME = 0h0m4s68t = 468
**** 1 open nodes, 0 columns (0 active), 0 dyn. constrs. (0 active), 1004 art. vars. (1004 active)
************************************************************************************************
<DWph=2> <it= 10> <et=8.39> <Mt= 0.01> <Spt= 3.69> <nCl=1000> <DB=-1220501713.5275> <Mlp=507750040.3750> <PB=1000000> 
<DWph=2> <it= 20> <et=12.01> <Mt= 0.01> <Spt= 3.60> <nCl=1000> <DB=-1215435213.1393> <Mlp=408200073.0833> <PB=1000000> 
<DWph=2> <it= 30> <et=15.66> <Mt= 0.03> <Spt= 3.63> <nCl=1000> <DB=-1209489417.7595> <Mlp=300150104.5417> <PB=1000000> 
<DWph=2> <it= 40> <et=19.19> <Mt= 0.02> <Spt= 3.50> <nCl=1000> <DB=-1205827944.1368> <Mlp=183687644.9687> <PB=1000000> 
<DWph=2> <it= 50> <et=22.67> <Mt= 0.04> <Spt= 3.44> <nCl=1000> <DB=-1202961784.5705> <Mlp=104217213.5653> <PB=1000000> 
<DWph=2> <it= 60> <et=26.15> <Mt= 0.05> <Spt= 3.41> <nCl=1000> <DB=-1148983584.1064> <Mlp=61465350.0112> <PB=1000000> 
<DWph=2> <it= 70> <et=29.49> <Mt= 0.06> <Spt= 3.28> <nCl=1000> <DB=-1153864691.4791> <Mlp=30281955.8807> <PB=1000000> 
<DWph=2> <it= 80> <et=32.91> <Mt= 0.12> <Spt= 3.30> <nCl=1000> <DB=-785718562.6670> <Mlp=4550169.0917> <PB=1000000> 
<DWph=2> <it= 90> <et=37.17> <Mt= 0.33> <Spt= 3.92> <nCl=796> <DB=  152.8557> <Mlp=  167.2833> <PB=1000000> 
<DWph=2> <it=100> <et=41.20> <Mt= 0.48> <Spt= 3.54> <nCl=999> <DB=  164.3243> <Mlp=  167.0589> <PB=1000000> 
<DWph=2> <it=110> <et=45.38> <Mt= 0.47> <Spt= 3.65> <nCl=999> <DB=  166.6952> <Mlp=  167.0185> <PB=1000000> 
<DWph=2> <it=120> <et=49.56> <Mt= 0.42> <Spt= 3.75> <nCl=873> <DB=  166.9051> <Mlp=  167.0068> <PB=1000000> 
<DWph=2> <it=130> <et=53.67> <Mt= 0.39> <Spt= 3.72> <nCl=770> <DB=  166.9698> <Mlp=  167.0025> <PB=1000000> 
<DWph=2> <it=140> <et=57.70> <Mt= 0.31> <Spt= 3.71> <nCl=534> <DB=  166.9907> <Mlp=  167.0015> <PB=1000000> 
<DWph=2> <it=150> <et=62.66> <Mt= 0.13> <Spt= 4.82> <nCl=160> <DB=  167.0015> <Mlp=  167.0015> <PB=1000000> 
<DWph=1> <it=160> <et=67.19> <Mt= 0.48> <Spt= 3.96> <nCl=819> <DB=  166.9858> <Mlp=  167.0002> <PB=1000000> 
<DWph=1> <it=170> <et=71.28> <Mt= 0.15> <Spt= 3.95> <nCl=507> <DB=  166.9962> <Mlp=  167.0000> <PB=167> 
<DWph=1> <it=180> <et=75.77> <Mt= 0.09> <Spt= 4.38> <nCl=386> <DB=  166.9986> <Mlp=  167.0000> <PB=167> 
<DWph=1> <it=184> <et=77.38> <Mt= 0.03> <Spt= 1.58> <nCl= 66> <DB=  167.0000> <Mlp=  167.0000> <PB=167> 
<DWph=0> <it=185> <et=77.78> <Mt= 0.00> <Spt= 0.40> <nCl= 32> <DB=  166.9942> <Mlp=  167.0000> <PB=167> 
ColGenEvalAlg final dual bound: 166.994 (rounded: 167)
New model incumbent solution 167, TIME = 0h1m18s0t = 7800
************************************************************************************************
Search is finished, global bounds : [ 167 , 167 ], TIME = 0h1m18s0t = 7800
************************************************************************************************
[32mBaPCod : solution defined.[00m
statistics_cols: instance & :Optimal & cutoff & :bcRecRootDb & :bcTimeRootEval & :bcCountNodeProc & :bcRecBestDb & :bcRecBestInc & :bcTimeMain \\
statistics: N501W1000001R2550Q20-003 & 1 & 1.0e6 & 167.00 & 78.00 & 1 & 167.00 & 167 & 78.01 \\
########################################################
bin_id=1: 250112(7) 268384(18) 481505(9) 
bin_id=2: 278919(8) 280875(7) 440207(11) 
bin_id=3: 308771(15) 314585(6) 376645(19) 
bin_id=4: 255173(3) 355194(18) 389634(1) 
bin_id=5: 250158(18) 318960(18) 430883(0) 
bin_id=6: 252808(4) 322888(1) 424305(8) 
bin_id=7: 293475(9) 306579(6) 399947(9) 
bin_id=8: 279498(5) 352287(14) 368216(19) 
bin_id=9: 257845(14) 290590(11) 451566(2) 
bin_id=10: 250396(7) 315917(2) 433688(5) 
bin_id=11: 256336(2) 264119(12) 479546(3) 
bin_id=12: 254137(7) 307853(2) 438011(12) 
bin_id=13: 312234(17) 326032(17) 361735(7) 
bin_id=14: 256949(5) 293210(14) 449842(3) 
bin_id=15: 265106(0) 317578(17) 417317(13) 
bin_id=16: 250642(18) 250932(19) 498427(9) 
bin_id=17: 262829(15) 291729(5) 445443(9) 
bin_id=18: 261232(19) 309295(8) 429474(10) 
bin_id=19: 250999(14) 252342(9) 496660(18) 
bin_id=20: 277999(11) 302861(6) 419141(12) 
bin_id=21: 257596(16) 273942(4) 468463(10) 
bin_id=22: 301744(15) 325922(8) 372335(18) 
bin_id=23: 263974(9) 353633(17) 382394(2) 
bin_id=24: 285414(5) 300947(16) 413640(17) 
bin_id=25: 303383(0) 313680(9) 382938(4) 
bin_id=26: 271502(12) 300088(8) 428411(19) 
bin_id=27: 324476(12) 333446(13) 342079(8) 
bin_id=28: 267237(16) 303941(16) 428823(13) 
bin_id=29: 306072(9) 322104(0) 371825(10) 
bin_id=30: 265987(5) 276592(17) 457422(8) 
bin_id=31: 282560(15) 356039(4) 361402(16) 
bin_id=32: 288476(10) 290177(16) 421348(14) 
bin_id=33: 308566(12) 332800(6) 358635(0) 
bin_id=34: 253217(2) 328401(15) 418383(19) 
bin_id=35: 252372(14) 254276(4) 493353(13) 
bin_id=36: 250469(12) 290076(5) 459456(0) 
bin_id=37: 286789(10) 311744(12) 401468(14) 
bin_id=38: 292306(0) 321701(3) 385994(14) 
bin_id=39: 269530(8) 335687(13) 394784(4) 
bin_id=40: 284153(3) 315370(15) 400478(6) 
bin_id=41: 262070(9) 264736(12) 473195(1) 
bin_id=42: 290352(19) 322887(19) 386762(16) 
bin_id=43: 270507(11) 315344(3) 414150(0) 
bin_id=44: 279543(13) 293294(3) 427164(15) 
bin_id=45: 271763(10) 274207(3) 454031(2) 
bin_id=46: 286340(3) 304223(0) 409438(0) 
bin_id=47: 305961(10) 316017(18) 378023(8) 
bin_id=48: 250101(12) 250469(18) 499431(10) 
bin_id=49: 261366(11) 365937(0) 372698(18) 
bin_id=50: 265956(8) 286233(9) 447812(0) 
bin_id=51: 303474(17) 325687(16) 370840(17) 
bin_id=52: 252975(5) 254072(14) 492954(4) 
bin_id=53: 285238(2) 332387(10) 382376(7) 
bin_id=54: 270171(10) 326307(8) 403523(3) 
bin_id=55: 285879(13) 355523(18) 358599(6) 
bin_id=56: 251274(14) 329933(15) 418794(13) 
bin_id=57: 263159(2) 344356(15) 392486(15) 
bin_id=58: 256947(7) 262225(1) 480829(8) 
bin_id=59: 281865(9) 351336(10) 366800(5) 
bin_id=60: 255936(1) 283727(6) 460338(2) 
bin_id=61: 302447(14) 319309(8) 378245(19) 
bin_id=62: 250764(13) 330044(11) 419193(8) 
bin_id=63: 258905(12) 267883(14) 473213(19) 
bin_id=64: 258294(0) 289729(6) 451978(15) 
bin_id=65: 280864(3) 290218(19) 428919(17) 
bin_id=66: 298969(11) 335690(18) 365342(4) 
bin_id=67: 261922(10) 288828(5) 449251(11) 
bin_id=68: 262913(11) 274109(14) 462979(7) 
bin_id=69: 269386(13) 281261(0) 449354(5) 
bin_id=70: 322406(8) 337406(4) 340189(14) 
bin_id=71: 252261(8) 310421(6) 437319(12) 
bin_id=72: 331486(13) 333595(14) 334920(12) 
bin_id=73: 253419(15) 329125(14) 417457(13) 
bin_id=74: 268411(19) 349028(6) 382562(16) 
bin_id=75: 257150(16) 266663(10) 476188(2) 
bin_id=76: 252798(15) 320314(1) 426889(1) 
bin_id=77: 276322(1) 316922(13) 406757(3) 
bin_id=78: 295863(16) 328936(17) 375202(10) 
bin_id=79: 282181(0) 282474(1) 435346(7) 
bin_id=80: 251457(13) 326138(15) 422406(13) 
bin_id=81: 259362(11) 342901(0) 397738(17) 
bin_id=82: 305473(6) 310198(12) 384330(4) 
bin_id=83: 250210(3) 301458(14) 448333(12) 
bin_id=84: 283239(8) 325824(16) 390938(3) 
bin_id=85: 301248(18) 323106(9) 375647(1) 
bin_id=86: 250035(1) 277071(3) 472895(16) 
bin_id=87: 254250(16) 319735(4) 426016(10) 
bin_id=88: 303098(14) 345260(19) 351643(16) 
bin_id=89: 250796(9) 262065(19) 487140(9) 
bin_id=90: 313893(6) 331206(10) 354902(8) 
bin_id=91: 266611(14) 335440(5) 397950(6) 
bin_id=92: 254364(14) 310920(16) 434717(2) 
bin_id=93: 272156(17) 312693(14) 415152(0) 
bin_id=94: 300130(0) 301072(8) 398799(2) 
bin_id=95: 267879(13) 359306(4) 372816(17) 
bin_id=96: 282918(14) 342486(2) 374597(10) 
bin_id=97: 278912(19) 317087(18) 404002(14) 
bin_id=98: 250345(3) 261974(11) 487682(15) 
bin_id=99: 262985(11) 278525(5) 458491(6) 
bin_id=100: 252175(0) 274068(18) 473758(16) 
bin_id=101: 272267(16) 299528(17) 428206(14) 
bin_id=102: 288732(8) 297785(2) 413484(12) 
bin_id=103: 269642(15) 301534(16) 428825(17) 
bin_id=104: 299926(19) 305582(12) 394493(2) 
bin_id=105: 252138(5) 263807(4) 484056(4) 
bin_id=106: 250232(4) 254502(10) 495267(5) 
bin_id=107: 302579(8) 323929(7) 373493(18) 
bin_id=108: 269178(15) 285982(1) 444841(3) 
bin_id=109: 252883(15) 254003(19) 493115(5) 
bin_id=110: 273127(4) 303336(14) 423538(4) 
bin_id=111: 280062(7) 329012(7) 390927(6) 
bin_id=112: 280776(6) 283611(17) 435614(8) 
bin_id=113: 282196(4) 298698(5) 419107(6) 
bin_id=114: 254829(10) 308740(12) 436432(11) 
bin_id=115: 267112(8) 359066(5) 373823(18) 
bin_id=116: 251426(4) 257830(13) 490745(13) 
bin_id=117: 281709(6) 301597(12) 416695(11) 
bin_id=118: 253573(9) 311228(16) 435200(1) 
bin_id=119: 251248(6) 292254(9) 456499(14) 
bin_id=120: 278794(15) 285286(16) 435921(1) 
bin_id=121: 323817(11) 331216(5) 344968(11) 
bin_id=122: 265759(19) 313031(19) 421211(4) 
bin_id=123: 283337(6) 329915(11) 386749(13) 
bin_id=124: 270134(6) 290134(16) 439733(8) 
bin_id=125: 250048(15) 250342(17) 499611(0) 
bin_id=126: 294318(4) 327506(13) 378177(11) 
bin_id=127: 257755(10) 286857(9) 455389(5) 
bin_id=128: 319499(5) 333079(16) 347423(16) 
bin_id=129: 253772(0) 328384(5) 417845(15) 
bin_id=130: 310084(5) 342624(10) 347293(16) 
bin_id=131: 273154(18) 295029(12) 431818(7) 
bin_id=132: 250329(12) 253360(12) 496312(0) 
bin_id=133: 254765(3) 286363(8) 458873(16) 
bin_id=134: 286624(7) 295233(1) 418144(2) 
bin_id=135: 265678(6) 349644(19) 384679(6) 
bin_id=136: 262624(1) 325003(8) 412374(17) 
bin_id=137: 304771(8) 327866(15) 367364(17) 
bin_id=138: 253980(13) 254777(13) 491244(4) 
bin_id=139: 254840(7) 261719(0) 483442(0) 
bin_id=140: 265469(4) 354995(19) 379537(15) 
bin_id=141: 270680(0) 284308(9) 445013(5) 
bin_id=142: 299292(10) 313525(7) 387184(2) 
bin_id=143: 276140(18) 281733(3) 442128(0) 
bin_id=144: 269455(0) 303027(9) 427519(9) 
bin_id=145: 304262(1) 340495(10) 355244(0) 
bin_id=146: 262778(4) 330056(11) 407167(16) 
bin_id=147: 262242(14) 346478(1) 391281(0) 
bin_id=148: 274082(12) 298816(18) 427103(13) 
bin_id=149: 289627(18) 343764(10) 366610(9) 
bin_id=150: 266250(2) 284544(18) 449207(19) 
bin_id=151: 276106(6) 353522(8) 370373(15) 
bin_id=152: 284591(17) 311767(9) 403643(1) 
bin_id=153: 261594(1) 273238(9) 465169(1) 
bin_id=154: 277660(7) 325112(14) 397229(8) 
bin_id=155: 302229(0) 343141(19) 354631(11) 
bin_id=156: 252225(7) 360507(7) 387269(11) 
bin_id=157: 257300(4) 302487(17) 440214(1) 
bin_id=158: 298025(18) 320882(16) 381094(18) 
bin_id=159: 302353(2) 309749(1) 387899(14) 
bin_id=160: 294344(14) 322499(13) 383158(0) 
bin_id=161: 272931(13) 348634(16) 378436(12) 
bin_id=162: 301429(12) 326230(4) 372342(2) 
bin_id=163: 280065(11) 298223(18) 421713(16) 
bin_id=164: 296502(18) 320677(0) 382822(18) 
bin_id=165: 257861(8) 286237(8) 455903(18) 
bin_id=166: 279128(6) 296291(2) 424582(3) 
bin_id=167: 298005(9) 335435(5) 366561(19) 
Objective value: 167.0
########################################################
