Application parameters:
  batch  =>  nothing
  instance  =>  "/IN/N501W1000001R2550Q5-001"
  ub  =>  1.0e6
  cfg  =>  "/CFG/BPP.cfg"
data = Colored Bin Packing dataset.
number of items = 501
number of colors = 5
capacity = 1000001
Items : 
	 item 1, weight= 250086, color= 2
	 item 2, weight= 250103, color= 2
	 item 3, weight= 250148, color= 3
	 item 4, weight= 250248, color= 3
	 item 5, weight= 250296, color= 0
	 item 6, weight= 250565, color= 0
	 item 7, weight= 250670, color= 0
	 item 8, weight= 250812, color= 1
	 item 9, weight= 250889, color= 1
	 item 10, weight= 250909, color= 4
	 item 11, weight= 251017, color= 2
	 item 12, weight= 251067, color= 4
	 item 13, weight= 251364, color= 0
	 item 14, weight= 251438, color= 2
	 item 15, weight= 251439, color= 0
	 item 16, weight= 251493, color= 3
	 item 17, weight= 251706, color= 2
	 item 18, weight= 251918, color= 3
	 item 19, weight= 252436, color= 4
	 item 20, weight= 252475, color= 2
	 item 21, weight= 252764, color= 1
	 item 22, weight= 252804, color= 0
	 item 23, weight= 253115, color= 0
	 item 24, weight= 253518, color= 0
	 item 25, weight= 253727, color= 0
	 item 26, weight= 253756, color= 3
	 item 27, weight= 253978, color= 0
	 item 28, weight= 254113, color= 3
	 item 29, weight= 254211, color= 4
	 item 30, weight= 254274, color= 3
	 item 31, weight= 254318, color= 1
	 item 32, weight= 254559, color= 0
	 item 33, weight= 254760, color= 2
	 item 34, weight= 254819, color= 4
	 item 35, weight= 255070, color= 1
	 item 36, weight= 255331, color= 1
	 item 37, weight= 255771, color= 2
	 item 38, weight= 255879, color= 4
	 item 39, weight= 255928, color= 2
	 item 40, weight= 255994, color= 2
	 item 41, weight= 256098, color= 2
	 item 42, weight= 256316, color= 4
	 item 43, weight= 256321, color= 0
	 item 44, weight= 256390, color= 4
	 item 45, weight= 256513, color= 1
	 item 46, weight= 256573, color= 4
	 item 47, weight= 256797, color= 1
	 item 48, weight= 256882, color= 0
	 item 49, weight= 257139, color= 4
	 item 50, weight= 257214, color= 2
	 item 51, weight= 257314, color= 1
	 item 52, weight= 257748, color= 1
	 item 53, weight= 257957, color= 1
	 item 54, weight= 258165, color= 0
	 item 55, weight= 258303, color= 3
	 item 56, weight= 258308, color= 2
	 item 57, weight= 258484, color= 2
	 item 58, weight= 258699, color= 1
	 item 59, weight= 259312, color= 1
	 item 60, weight= 259366, color= 2
	 item 61, weight= 259578, color= 2
	 item 62, weight= 259686, color= 2
	 item 63, weight= 259834, color= 4
	 item 64, weight= 259860, color= 0
	 item 65, weight= 260144, color= 2
	 item 66, weight= 260172, color= 2
	 item 67, weight= 260261, color= 3
	 item 68, weight= 260611, color= 4
	 item 69, weight= 260815, color= 2
	 item 70, weight= 261046, color= 0
	 item 71, weight= 261156, color= 4
	 item 72, weight= 261402, color= 2
	 item 73, weight= 261810, color= 0
	 item 74, weight= 262111, color= 2
	 item 75, weight= 262135, color= 1
	 item 76, weight= 262180, color= 0
	 item 77, weight= 262595, color= 1
	 item 78, weight= 262627, color= 0
	 item 79, weight= 262765, color= 4
	 item 80, weight= 263075, color= 2
	 item 81, weight= 263473, color= 3
	 item 82, weight= 263493, color= 4
	 item 83, weight= 263749, color= 3
	 item 84, weight= 264135, color= 3
	 item 85, weight= 264406, color= 3
	 item 86, weight= 264534, color= 1
	 item 87, weight= 265171, color= 3
	 item 88, weight= 265279, color= 2
	 item 89, weight= 265392, color= 0
	 item 90, weight= 265778, color= 2
	 item 91, weight= 265794, color= 1
	 item 92, weight= 265809, color= 2
	 item 93, weight= 266119, color= 3
	 item 94, weight= 266373, color= 0
	 item 95, weight= 266673, color= 3
	 item 96, weight= 266953, color= 3
	 item 97, weight= 267029, color= 3
	 item 98, weight= 267142, color= 1
	 item 99, weight= 267562, color= 2
	 item 100, weight= 267632, color= 0
	 item 101, weight= 267900, color= 3
	 item 102, weight= 268573, color= 1
	 item 103, weight= 268709, color= 2
	 item 104, weight= 268736, color= 4
	 item 105, weight= 268881, color= 2
	 item 106, weight= 269307, color= 0
	 item 107, weight= 270339, color= 3
	 item 108, weight= 270851, color= 2
	 item 109, weight= 271758, color= 3
	 item 110, weight= 271907, color= 4
	 item 111, weight= 272330, color= 4
	 item 112, weight= 272572, color= 4
	 item 113, weight= 273268, color= 4
	 item 114, weight= 273283, color= 4
	 item 115, weight= 273387, color= 4
	 item 116, weight= 273620, color= 3
	 item 117, weight= 273730, color= 1
	 item 118, weight= 273752, color= 2
	 item 119, weight= 274082, color= 0
	 item 120, weight= 274199, color= 0
	 item 121, weight= 274252, color= 2
	 item 122, weight= 274325, color= 4
	 item 123, weight= 274372, color= 4
	 item 124, weight= 274411, color= 2
	 item 125, weight= 274906, color= 3
	 item 126, weight= 275032, color= 3
	 item 127, weight= 275378, color= 2
	 item 128, weight= 275561, color= 3
	 item 129, weight= 275668, color= 3
	 item 130, weight= 275683, color= 3
	 item 131, weight= 276617, color= 3
	 item 132, weight= 276659, color= 0
	 item 133, weight= 277238, color= 3
	 item 134, weight= 278285, color= 2
	 item 135, weight= 278345, color= 3
	 item 136, weight= 278421, color= 2
	 item 137, weight= 278727, color= 3
	 item 138, weight= 279147, color= 4
	 item 139, weight= 279257, color= 0
	 item 140, weight= 279370, color= 2
	 item 141, weight= 279437, color= 4
	 item 142, weight= 279478, color= 3
	 item 143, weight= 280147, color= 3
	 item 144, weight= 280706, color= 1
	 item 145, weight= 281025, color= 1
	 item 146, weight= 281995, color= 4
	 item 147, weight= 282185, color= 4
	 item 148, weight= 282725, color= 3
	 item 149, weight= 283006, color= 1
	 item 150, weight= 284255, color= 1
	 item 151, weight= 284809, color= 2
	 item 152, weight= 284920, color= 4
	 item 153, weight= 285747, color= 4
	 item 154, weight= 285851, color= 0
	 item 155, weight= 286345, color= 4
	 item 156, weight= 287050, color= 2
	 item 157, weight= 287342, color= 0
	 item 158, weight= 287422, color= 3
	 item 159, weight= 287492, color= 1
	 item 160, weight= 287568, color= 4
	 item 161, weight= 287603, color= 4
	 item 162, weight= 287609, color= 1
	 item 163, weight= 287683, color= 1
	 item 164, weight= 288119, color= 0
	 item 165, weight= 288600, color= 0
	 item 166, weight= 288609, color= 4
	 item 167, weight= 289095, color= 3
	 item 168, weight= 289366, color= 2
	 item 169, weight= 289626, color= 3
	 item 170, weight= 289682, color= 3
	 item 171, weight= 289731, color= 1
	 item 172, weight= 290523, color= 0
	 item 173, weight= 290649, color= 0
	 item 174, weight= 290817, color= 1
	 item 175, weight= 291035, color= 1
	 item 176, weight= 291707, color= 2
	 item 177, weight= 291778, color= 4
	 item 178, weight= 292191, color= 2
	 item 179, weight= 292574, color= 1
	 item 180, weight= 292959, color= 3
	 item 181, weight= 293374, color= 2
	 item 182, weight= 293387, color= 0
	 item 183, weight= 293875, color= 3
	 item 184, weight= 293879, color= 3
	 item 185, weight= 294093, color= 0
	 item 186, weight= 294129, color= 1
	 item 187, weight= 294191, color= 1
	 item 188, weight= 294232, color= 1
	 item 189, weight= 294950, color= 2
	 item 190, weight= 295105, color= 1
	 item 191, weight= 295142, color= 1
	 item 192, weight= 296610, color= 2
	 item 193, weight= 296673, color= 4
	 item 194, weight= 296694, color= 1
	 item 195, weight= 299275, color= 1
	 item 196, weight= 300132, color= 1
	 item 197, weight= 300473, color= 4
	 item 198, weight= 300819, color= 2
	 item 199, weight= 301495, color= 1
	 item 200, weight= 301571, color= 2
	 item 201, weight= 301575, color= 3
	 item 202, weight= 301665, color= 4
	 item 203, weight= 301991, color= 4
	 item 204, weight= 302384, color= 4
	 item 205, weight= 302475, color= 0
	 item 206, weight= 303167, color= 1
	 item 207, weight= 303394, color= 3
	 item 208, weight= 303571, color= 4
	 item 209, weight= 303665, color= 1
	 item 210, weight= 303712, color= 0
	 item 211, weight= 304168, color= 3
	 item 212, weight= 304455, color= 0
	 item 213, weight= 304644, color= 3
	 item 214, weight= 305133, color= 4
	 item 215, weight= 305329, color= 3
	 item 216, weight= 305529, color= 4
	 item 217, weight= 306707, color= 2
	 item 218, weight= 306844, color= 2
	 item 219, weight= 307413, color= 3
	 item 220, weight= 307938, color= 3
	 item 221, weight= 307951, color= 4
	 item 222, weight= 308477, color= 2
	 item 223, weight= 308526, color= 4
	 item 224, weight= 308527, color= 4
	 item 225, weight= 309613, color= 1
	 item 226, weight= 310191, color= 2
	 item 227, weight= 311217, color= 1
	 item 228, weight= 311290, color= 4
	 item 229, weight= 311718, color= 1
	 item 230, weight= 312008, color= 3
	 item 231, weight= 312250, color= 3
	 item 232, weight= 312251, color= 2
	 item 233, weight= 312395, color= 4
	 item 234, weight= 312876, color= 0
	 item 235, weight= 314046, color= 0
	 item 236, weight= 314128, color= 0
	 item 237, weight= 314302, color= 2
	 item 238, weight= 314562, color= 0
	 item 239, weight= 315091, color= 0
	 item 240, weight= 315144, color= 4
	 item 241, weight= 315273, color= 4
	 item 242, weight= 315662, color= 2
	 item 243, weight= 316099, color= 2
	 item 244, weight= 316426, color= 1
	 item 245, weight= 316656, color= 3
	 item 246, weight= 316699, color= 1
	 item 247, weight= 317208, color= 4
	 item 248, weight= 317362, color= 2
	 item 249, weight= 318080, color= 3
	 item 250, weight= 318760, color= 2
	 item 251, weight= 319221, color= 1
	 item 252, weight= 319608, color= 3
	 item 253, weight= 320358, color= 1
	 item 254, weight= 320410, color= 0
	 item 255, weight= 322498, color= 3
	 item 256, weight= 322844, color= 2
	 item 257, weight= 323471, color= 4
	 item 258, weight= 323823, color= 3
	 item 259, weight= 324348, color= 1
	 item 260, weight= 324536, color= 0
	 item 261, weight= 324548, color= 2
	 item 262, weight= 324597, color= 2
	 item 263, weight= 324812, color= 2
	 item 264, weight= 324996, color= 0
	 item 265, weight= 325678, color= 2
	 item 266, weight= 325761, color= 3
	 item 267, weight= 326218, color= 4
	 item 268, weight= 326266, color= 4
	 item 269, weight= 326267, color= 4
	 item 270, weight= 326438, color= 0
	 item 271, weight= 326452, color= 0
	 item 272, weight= 328381, color= 1
	 item 273, weight= 328688, color= 4
	 item 274, weight= 328721, color= 0
	 item 275, weight= 329276, color= 0
	 item 276, weight= 329731, color= 0
	 item 277, weight= 329860, color= 1
	 item 278, weight= 330403, color= 4
	 item 279, weight= 331392, color= 4
	 item 280, weight= 331393, color= 2
	 item 281, weight= 331443, color= 2
	 item 282, weight= 331913, color= 0
	 item 283, weight= 332474, color= 2
	 item 284, weight= 333150, color= 3
	 item 285, weight= 333456, color= 3
	 item 286, weight= 334672, color= 0
	 item 287, weight= 334806, color= 0
	 item 288, weight= 335473, color= 4
	 item 289, weight= 335552, color= 4
	 item 290, weight= 336533, color= 2
	 item 291, weight= 336888, color= 2
	 item 292, weight= 337204, color= 0
	 item 293, weight= 337912, color= 3
	 item 294, weight= 338542, color= 3
	 item 295, weight= 338546, color= 1
	 item 296, weight= 338628, color= 0
	 item 297, weight= 339754, color= 0
	 item 298, weight= 339952, color= 2
	 item 299, weight= 339960, color= 3
	 item 300, weight= 340093, color= 4
	 item 301, weight= 340217, color= 3
	 item 302, weight= 340381, color= 1
	 item 303, weight= 340649, color= 0
	 item 304, weight= 340829, color= 4
	 item 305, weight= 341013, color= 1
	 item 306, weight= 341308, color= 4
	 item 307, weight= 341513, color= 1
	 item 308, weight= 343892, color= 3
	 item 309, weight= 344350, color= 3
	 item 310, weight= 344434, color= 1
	 item 311, weight= 344924, color= 3
	 item 312, weight= 346407, color= 1
	 item 313, weight= 347326, color= 3
	 item 314, weight= 347345, color= 0
	 item 315, weight= 348464, color= 0
	 item 316, weight= 348495, color= 2
	 item 317, weight= 349667, color= 1
	 item 318, weight= 349892, color= 4
	 item 319, weight= 350200, color= 2
	 item 320, weight= 350787, color= 1
	 item 321, weight= 351958, color= 4
	 item 322, weight= 352829, color= 2
	 item 323, weight= 353376, color= 2
	 item 324, weight= 353814, color= 1
	 item 325, weight= 353888, color= 1
	 item 326, weight= 353933, color= 2
	 item 327, weight= 354604, color= 0
	 item 328, weight= 355078, color= 2
	 item 329, weight= 355252, color= 0
	 item 330, weight= 356240, color= 2
	 item 331, weight= 356337, color= 0
	 item 332, weight= 356493, color= 2
	 item 333, weight= 356952, color= 1
	 item 334, weight= 357245, color= 1
	 item 335, weight= 359694, color= 0
	 item 336, weight= 359708, color= 4
	 item 337, weight= 359830, color= 4
	 item 338, weight= 360919, color= 1
	 item 339, weight= 361647, color= 3
	 item 340, weight= 361901, color= 0
	 item 341, weight= 362129, color= 1
	 item 342, weight= 362692, color= 1
	 item 343, weight= 364002, color= 3
	 item 344, weight= 364276, color= 3
	 item 345, weight= 364517, color= 4
	 item 346, weight= 365375, color= 1
	 item 347, weight= 365799, color= 1
	 item 348, weight= 365968, color= 2
	 item 349, weight= 366015, color= 1
	 item 350, weight= 366553, color= 4
	 item 351, weight= 366766, color= 2
	 item 352, weight= 366775, color= 0
	 item 353, weight= 367542, color= 4
	 item 354, weight= 367615, color= 0
	 item 355, weight= 367919, color= 4
	 item 356, weight= 368342, color= 0
	 item 357, weight= 369234, color= 2
	 item 358, weight= 369261, color= 1
	 item 359, weight= 369322, color= 2
	 item 360, weight= 369369, color= 2
	 item 361, weight= 370864, color= 4
	 item 362, weight= 372531, color= 3
	 item 363, weight= 373259, color= 3
	 item 364, weight= 373503, color= 3
	 item 365, weight= 374666, color= 1
	 item 366, weight= 375136, color= 4
	 item 367, weight= 375420, color= 4
	 item 368, weight= 376595, color= 3
	 item 369, weight= 376845, color= 4
	 item 370, weight= 377792, color= 0
	 item 371, weight= 378703, color= 2
	 item 372, weight= 379510, color= 0
	 item 373, weight= 380090, color= 1
	 item 374, weight= 380149, color= 2
	 item 375, weight= 380463, color= 2
	 item 376, weight= 380929, color= 2
	 item 377, weight= 380993, color= 4
	 item 378, weight= 381166, color= 1
	 item 379, weight= 382202, color= 2
	 item 380, weight= 382939, color= 3
	 item 381, weight= 383411, color= 1
	 item 382, weight= 383420, color= 3
	 item 383, weight= 383661, color= 2
	 item 384, weight= 383868, color= 2
	 item 385, weight= 384225, color= 1
	 item 386, weight= 384767, color= 3
	 item 387, weight= 384847, color= 3
	 item 388, weight= 384915, color= 0
	 item 389, weight= 384968, color= 1
	 item 390, weight= 385462, color= 3
	 item 391, weight= 386099, color= 3
	 item 392, weight= 387020, color= 2
	 item 393, weight= 387890, color= 2
	 item 394, weight= 388895, color= 2
	 item 395, weight= 389096, color= 3
	 item 396, weight= 389395, color= 3
	 item 397, weight= 389548, color= 1
	 item 398, weight= 389834, color= 3
	 item 399, weight= 390574, color= 3
	 item 400, weight= 391276, color= 1
	 item 401, weight= 393233, color= 2
	 item 402, weight= 394179, color= 2
	 item 403, weight= 395120, color= 2
	 item 404, weight= 397021, color= 4
	 item 405, weight= 397168, color= 1
	 item 406, weight= 397557, color= 2
	 item 407, weight= 397980, color= 4
	 item 408, weight= 398207, color= 0
	 item 409, weight= 399631, color= 3
	 item 410, weight= 400390, color= 0
	 item 411, weight= 401349, color= 3
	 item 412, weight= 401816, color= 4
	 item 413, weight= 403742, color= 1
	 item 414, weight= 404641, color= 1
	 item 415, weight= 405346, color= 2
	 item 416, weight= 406097, color= 0
	 item 417, weight= 406337, color= 1
	 item 418, weight= 406523, color= 3
	 item 419, weight= 406863, color= 0
	 item 420, weight= 407295, color= 4
	 item 421, weight= 407839, color= 0
	 item 422, weight= 408161, color= 3
	 item 423, weight= 409323, color= 1
	 item 424, weight= 409329, color= 3
	 item 425, weight= 409564, color= 3
	 item 426, weight= 409938, color= 2
	 item 427, weight= 410338, color= 1
	 item 428, weight= 411038, color= 3
	 item 429, weight= 412105, color= 2
	 item 430, weight= 412531, color= 1
	 item 431, weight= 413368, color= 0
	 item 432, weight= 413798, color= 0
	 item 433, weight= 414739, color= 3
	 item 434, weight= 417870, color= 3
	 item 435, weight= 418731, color= 2
	 item 436, weight= 420345, color= 3
	 item 437, weight= 421289, color= 1
	 item 438, weight= 421677, color= 3
	 item 439, weight= 422100, color= 3
	 item 440, weight= 423104, color= 3
	 item 441, weight= 423937, color= 4
	 item 442, weight= 424094, color= 3
	 item 443, weight= 425035, color= 0
	 item 444, weight= 426132, color= 3
	 item 445, weight= 427351, color= 1
	 item 446, weight= 428804, color= 2
	 item 447, weight= 429723, color= 0
	 item 448, weight= 429993, color= 1
	 item 449, weight= 430438, color= 2
	 item 450, weight= 431010, color= 2
	 item 451, weight= 432393, color= 1
	 item 452, weight= 433346, color= 0
	 item 453, weight= 433444, color= 4
	 item 454, weight= 433684, color= 1
	 item 455, weight= 434447, color= 0
	 item 456, weight= 436014, color= 4
	 item 457, weight= 436045, color= 2
	 item 458, weight= 438168, color= 0
	 item 459, weight= 438720, color= 3
	 item 460, weight= 440818, color= 1
	 item 461, weight= 443143, color= 0
	 item 462, weight= 446572, color= 3
	 item 463, weight= 447010, color= 0
	 item 464, weight= 447111, color= 3
	 item 465, weight= 448258, color= 1
	 item 466, weight= 451353, color= 2
	 item 467, weight= 453437, color= 0
	 item 468, weight= 454467, color= 4
	 item 469, weight= 455506, color= 1
	 item 470, weight= 456371, color= 2
	 item 471, weight= 457676, color= 3
	 item 472, weight= 458142, color= 2
	 item 473, weight= 458187, color= 4
	 item 474, weight= 459038, color= 4
	 item 475, weight= 459202, color= 2
	 item 476, weight= 461273, color= 4
	 item 477, weight= 461602, color= 2
	 item 478, weight= 465190, color= 3
	 item 479, weight= 466521, color= 2
	 item 480, weight= 467482, color= 0
	 item 481, weight= 469368, color= 3
	 item 482, weight= 471922, color= 4
	 item 483, weight= 471936, color= 4
	 item 484, weight= 472791, color= 0
	 item 485, weight= 473544, color= 2
	 item 486, weight= 477255, color= 2
	 item 487, weight= 477700, color= 3
	 item 488, weight= 478783, color= 3
	 item 489, weight= 479321, color= 3
	 item 490, weight= 480060, color= 0
	 item 491, weight= 480648, color= 3
	 item 492, weight= 480757, color= 0
	 item 493, weight= 482859, color= 3
	 item 494, weight= 482860, color= 1
	 item 495, weight= 484868, color= 0
	 item 496, weight= 487574, color= 2
	 item 497, weight= 492639, color= 4
	 item 498, weight= 492886, color= 1
	 item 499, weight= 497696, color= 3
	 item 500, weight= 499009, color= 1
	 item 501, weight= 499767, color= 1

VRPSolver warning: Interval set for resource 1 on source node (when source != sink) is ignored (by definition is [0.0,0.0])
[41m solve [00m
~~~~~~~~~~~~~~~~~~~~~~~~~~~~~~~~~~~~~~~~~~~~~~~~~~~~~~~~~~~~~~~~~~~~~~~~~~~~~~
VRPSolver v0.4.1, 24/03/2021. Web: vrpsolver.math.u-bordeaux.fr
Corresponds to the solver by Pessoa, Sadykov, Uchoa and Vanderbeck (2020)
Paper: dx.doi.org/10.1007/s10107-020-01523-z
USE THIS CODE ONLY FOR ACADEMIC PURPOSES AT YOUR OWN RISK
~~~~~~~~~~~~~~~~~~~~~~~~~~~~~~~~~~~~~~~~~~~~~~~~~~~~~~~~~~~~~~~~~~~~~~~~~~~~~~
BaPCod v053, 24/03/2021, © Inria Bordeaux, France
~~~~~~~~~~~~~~~~~~~~~~~~~~~~~~~~~~~~~~~~~~~~~~~~~~~~~~~~~~~~~~~~~~~~~~~~~~~~~~
VRPSolver parameters:
GlobalTimeLimit = 1800
MaxNbOfBBtreeNodeTreated = 100000
treeSearchStrategy = 1
RCSPstopCutGenTimeThresholdInPricing = 10
RCSPhardTimeThresholdInPricing = 20
RCSPnumberOfBucketsPerVertex = 2000
RCSPdynamicBucketSteps = 0
RCSPuseBidirectionalSearch = 1
RCSPapplyReducedCostFixing = 1
RCSPredCostFixingFalseGap = 0
RCSPmaxNumOfColsPerIteration = 100
RCSPmaxNumOfColsPerExactIteration = 100
RCSPheurLabelingStrategy = 4
StabilizationMinPhaseOfStage = 1
RCSPmaxNumOfLabelsInEnumeration = 100000
RCSPmaxNumOfEnumeratedSolutions = 1000000
RCSPmaxNumOfEnumSolutionsForMIP = 100000
RCSPinitNGneighbourhoodSize = 0
RCSPmaxNGneighbourhoodSize = 0
RCSPrankOneCutsMaxNumPerRound = 100
RCSPrankOneCutsMaxNumRows = -1
RCSPrankOneCutsMemoryType = 2
CutTailingOffThreshold = 0.02
CutTailingOffCounterThreshold = 3
SafeDualBoundScaleFactor = -1
StrongBranchingPhaseOneCandidatesNumber = 100
StrongBranchingPhaseOneTreeSizeEstimRatio = 0.3
StrongBranchingPhaseTwoCandidatesNumber = 1
StrongBranchingPhaseTwoTreeSizeEstimRatio = 0.1
MaxTimeForRestrictedMasterIpHeur = -1
DivingHeurUseDepthLimit = 0
MaxLDSbreadth = 3
MaxLDSdepth = 2
New model incumbent solution 1e+06, TIME = 0h0m0s3t = 3
Model is built TIME = 0h0m4s21t = 421
************************************************************************************************
**** BaB tree root node
**** Local DB = -1e+12, global bounds : [ -1e+12 , 1e+06 ], TIME = 0h0m4s21t = 421
**** 1 open nodes, 0 columns (0 active), 0 dyn. constrs. (0 active), 1004 art. vars. (1004 active)
************************************************************************************************
<DWph=2> <it= 10> <et=7.66> <Mt= 0.01> <Spt= 3.43> <nCl=1000> <DB=-1220356429.8998> <Mlp=508500045.2500> <PB=1000000> 
<DWph=2> <it= 20> <et=11.06> <Mt= 0.02> <Spt= 3.37> <nCl=1000> <DB=-1216705013.1066> <Mlp=389400082.6667> <PB=1000000> 
<DWph=2> <it= 30> <et=14.40> <Mt= 0.02> <Spt= 3.32> <nCl=1000> <DB=-1210196643.2013> <Mlp=270120120.7667> <PB=1000000> 
<DWph=2> <it= 40> <et=17.65> <Mt= 0.03> <Spt= 3.21> <nCl=1000> <DB=-1205276714.8894> <Mlp=157415511.3997> <PB=1000000> 
<DWph=2> <it= 50> <et=21.01> <Mt= 0.06> <Spt= 3.30> <nCl=1000> <DB=-1203000075.5010> <Mlp=90843779.1313> <PB=1000000> 
<DWph=2> <it= 60> <et=24.19> <Mt= 0.08> <Spt= 3.09> <nCl=1000> <DB=-1181315819.2095> <Mlp=41436602.0756> <PB=1000000> 
<DWph=2> <it= 70> <et=27.44> <Mt= 0.16> <Spt= 3.08> <nCl=1000> <DB=-1106207717.3095> <Mlp=9928294.9999> <PB=1000000> 
<DWph=2> <it= 80> <et=31.56> <Mt= 0.45> <Spt= 3.68> <nCl=1000> <DB=  149.3798> <Mlp=  167.2134> <PB=1000000> 
<DWph=2> <it= 90> <et=35.45> <Mt= 0.57> <Spt= 3.30> <nCl=998> <DB=  165.8096> <Mlp=  167.0391> <PB=1000000> 
<DWph=2> <it=100> <et=39.37> <Mt= 0.47> <Spt= 3.44> <nCl=986> <DB=  166.8081> <Mlp=  167.0136> <PB=1000000> 
<DWph=2> <it=110> <et=43.29> <Mt= 0.43> <Spt= 3.42> <nCl=879> <DB=  166.9436> <Mlp=  167.0047> <PB=1000000> 
<DWph=2> <it=120> <et=47.15> <Mt= 0.40> <Spt= 3.45> <nCl=720> <DB=  166.9851> <Mlp=  167.0020> <PB=1000000> 
<DWph=2> <it=130> <et=50.83> <Mt= 0.22> <Spt= 3.45> <nCl=360> <DB=  166.9989> <Mlp=  167.0016> <PB=1000000> 
<DWph=2> <it=136> <et=53.32> <Mt= 0.07> <Spt= 2.42> <nCl= 90> <DB=  166.9903> <Mlp=  167.0016> <PB=1000000> 
<DWph=1> <it=140> <et=54.97> <Mt= 0.20> <Spt= 1.45> <nCl=382> <DB=  166.9808> <Mlp=  167.0007> <PB=1000000> 
<DWph=1> <it=150> <et=59.47> <Mt= 0.78> <Spt= 3.71> <nCl=588> <DB=  166.9959> <Mlp=  167.0000> <PB=167> 
<DWph=1> <it=160> <et=63.57> <Mt= 0.09> <Spt= 4.00> <nCl=262> <DB=  166.9995> <Mlp=  167.0000> <PB=167> 
<DWph=1> <it=163> <et=65.02> <Mt= 0.01> <Spt= 1.43> <nCl= 42> <DB=  166.9989> <Mlp=  167.0000> <PB=167> 
<DWph=0> <it=164> <et=65.38> <Mt= 0.01> <Spt= 0.36> <nCl=  0> <DB=  167.0000> <Mlp=  167.0000> <PB=167> 
ColGenEvalAlg final dual bound: 167 (rounded: 167)
New model incumbent solution 167, TIME = 0h1m5s58t = 6558
************************************************************************************************
Search is finished, global bounds : [ 167 , 167 ], TIME = 0h1m5s58t = 6558
************************************************************************************************
[32mBaPCod : solution defined.[00m
statistics_cols: instance & :Optimal & cutoff & :bcRecRootDb & :bcTimeRootEval & :bcCountNodeProc & :bcRecBestDb & :bcRecBestInc & :bcTimeMain \\
statistics: N501W1000001R2550Q5-001 & 1 & 1.0e6 & 167.00 & 65.58 & 1 & 167.00 & 167 & 65.59 \\
########################################################
bin_id=1: 314046(0) 315091(0) 370864(4) 
bin_id=2: 250086(2) 250148(3) 499767(1) 
bin_id=3: 256316(4) 362692(1) 380993(4) 
bin_id=4: 276659(0) 301665(4) 421677(3) 
bin_id=5: 256390(4) 278421(2) 465190(3) 
bin_id=6: 256321(0) 271758(3) 471922(4) 
bin_id=7: 252436(4) 323471(4) 424094(3) 
bin_id=8: 258308(2) 323823(3) 417870(3) 
bin_id=9: 274325(4) 340829(4) 384847(3) 
bin_id=10: 289626(3) 312395(4) 397980(4) 
bin_id=11: 254819(4) 264534(1) 480648(3) 
bin_id=12: 260261(3) 348464(0) 391276(1) 
bin_id=13: 280147(3) 344434(1) 375420(4) 
bin_id=14: 258303(3) 272330(4) 469368(3) 
bin_id=15: 294129(1) 320410(0) 385462(3) 
bin_id=16: 303394(3) 328688(4) 367919(4) 
bin_id=17: 301571(2) 314562(0) 383868(2) 
bin_id=18: 304644(3) 333456(3) 361901(0) 
bin_id=19: 268573(1) 273752(2) 457676(3) 
bin_id=20: 272572(4) 305329(3) 422100(3) 
bin_id=21: 254211(4) 372531(3) 373259(3) 
bin_id=22: 288119(0) 312251(2) 399631(3) 
bin_id=23: 263749(3) 311217(1) 425035(0) 
bin_id=24: 275668(3) 290649(0) 433684(1) 
bin_id=25: 273387(4) 357245(1) 369369(2) 
bin_id=26: 294232(1) 339754(0) 366015(1) 
bin_id=27: 319221(1) 336888(2) 343892(3) 
bin_id=28: 259860(0) 273620(3) 466521(2) 
bin_id=29: 294950(2) 306844(2) 398207(0) 
bin_id=30: 260611(4) 262135(1) 477255(2) 
bin_id=31: 252804(0) 308477(2) 438720(3) 
bin_id=32: 307951(4) 330403(4) 361647(3) 
bin_id=33: 288600(0) 334806(0) 376595(3) 
bin_id=34: 251364(0) 265778(2) 482859(3) 
bin_id=35: 254318(1) 260815(2) 484868(0) 
bin_id=36: 262180(0) 270339(3) 467482(0) 
bin_id=37: 295105(1) 331393(2) 373503(3) 
bin_id=38: 292959(3) 317208(4) 389834(3) 
bin_id=39: 291035(1) 353888(1) 355078(2) 
bin_id=40: 291778(4) 324812(2) 383411(1) 
bin_id=41: 253518(0) 339960(3) 406523(3) 
bin_id=42: 302475(0) 347326(3) 350200(2) 
bin_id=43: 267142(1) 314128(0) 418731(2) 
bin_id=44: 262111(2) 276617(3) 461273(4) 
bin_id=45: 265392(0) 365375(1) 369234(2) 
bin_id=46: 275378(2) 288609(4) 436014(4) 
bin_id=47: 263493(4) 274906(3) 461602(2) 
bin_id=48: 257957(1) 283006(1) 459038(4) 
bin_id=49: 255771(2) 263473(3) 480757(0) 
bin_id=50: 320358(1) 326267(4) 353376(2) 
bin_id=51: 274199(0) 337912(3) 387890(2) 
bin_id=52: 281025(1) 307938(3) 411038(3) 
bin_id=53: 255928(2) 266373(0) 477700(3) 
bin_id=54: 310191(2) 315144(4) 374666(1) 
bin_id=55: 287342(0) 352829(2) 359830(4) 
bin_id=56: 255879(4) 284920(4) 459202(2) 
bin_id=57: 259834(4) 355252(0) 384915(0) 
bin_id=58: 279257(0) 338542(3) 382202(2) 
bin_id=59: 280706(1) 285851(0) 433444(4) 
bin_id=60: 268881(2) 296673(4) 434447(0) 
bin_id=61: 250103(2) 250889(1) 499009(1) 
bin_id=62: 282185(4) 293879(3) 423937(4) 
bin_id=63: 256882(0) 289682(3) 453437(0) 
bin_id=64: 282725(3) 328381(1) 388895(2) 
bin_id=65: 275032(3) 341308(4) 383661(2) 
bin_id=66: 254559(0) 364276(3) 381166(1) 
bin_id=67: 278345(3) 311718(1) 409938(2) 
bin_id=68: 273268(4) 293387(0) 433346(0) 
bin_id=69: 255331(1) 261810(0) 482860(1) 
bin_id=70: 287609(1) 305529(4) 406863(0) 
bin_id=71: 265279(2) 303712(0) 431010(2) 
bin_id=72: 253115(0) 259312(1) 487574(2) 
bin_id=73: 304455(0) 308526(4) 387020(2) 
bin_id=74: 267900(3) 317362(2) 414739(3) 
bin_id=75: 285747(4) 309613(1) 404641(1) 
bin_id=76: 261402(2) 329276(0) 409323(1) 
bin_id=77: 326218(4) 326438(0) 347345(0) 
bin_id=78: 277238(3) 316426(1) 406337(1) 
bin_id=79: 251438(2) 301991(4) 446572(3) 
bin_id=80: 275683(3) 340093(4) 384225(1) 
bin_id=81: 279437(4) 299275(1) 421289(1) 
bin_id=82: 265794(1) 350787(1) 383420(3) 
bin_id=83: 253978(0) 325678(2) 420345(3) 
bin_id=84: 278727(3) 295142(1) 426132(3) 
bin_id=85: 289366(2) 324536(0) 386099(3) 
bin_id=86: 250909(4) 316699(1) 432393(1) 
bin_id=87: 312876(0) 324996(0) 362129(1) 
bin_id=88: 253727(0) 266953(3) 479321(3) 
bin_id=89: 266119(3) 340649(0) 393233(2) 
bin_id=90: 257139(4) 341513(1) 401349(3) 
bin_id=91: 287683(1) 335473(4) 376845(4) 
bin_id=92: 264406(3) 326266(4) 409329(3) 
bin_id=93: 290817(1) 331392(4) 377792(0) 
bin_id=94: 259366(2) 332474(2) 408161(3) 
bin_id=95: 324348(1) 325761(3) 349892(4) 
bin_id=96: 254274(3) 340381(1) 405346(2) 
bin_id=97: 293875(3) 302384(4) 403742(1) 
bin_id=98: 265809(2) 293374(2) 440818(1) 
bin_id=99: 250565(0) 256797(1) 492639(4) 
bin_id=100: 258165(0) 329731(0) 412105(2) 
bin_id=101: 251017(2) 256098(2) 492886(1) 
bin_id=102: 250670(0) 319608(3) 429723(0) 
bin_id=103: 296610(2) 301575(3) 401816(4) 
bin_id=104: 255070(1) 364002(3) 380929(2) 
bin_id=105: 256513(1) 333150(3) 410338(1) 
bin_id=106: 265171(3) 359694(0) 375136(4) 
bin_id=107: 275561(3) 344350(3) 380090(1) 
bin_id=108: 250812(1) 251493(3) 497696(3) 
bin_id=109: 255994(2) 316656(3) 427351(1) 
bin_id=110: 292574(1) 300132(1) 407295(4) 
bin_id=111: 250248(3) 301495(1) 448258(1) 
bin_id=112: 264135(3) 322498(3) 413368(0) 
bin_id=113: 260172(2) 261046(0) 478783(3) 
bin_id=114: 260144(2) 359708(4) 380149(2) 
bin_id=115: 257314(1) 262627(0) 480060(0) 
bin_id=116: 267029(3) 304168(3) 428804(2) 
bin_id=117: 259578(2) 267632(0) 472791(0) 
bin_id=118: 262765(4) 294093(0) 443143(0) 
bin_id=119: 273283(4) 360919(1) 365799(1) 
bin_id=120: 274372(4) 336533(2) 389096(3) 
bin_id=121: 251067(4) 353814(1) 395120(2) 
bin_id=122: 261156(4) 287492(1) 451353(2) 
bin_id=123: 254760(2) 331443(2) 413798(0) 
bin_id=124: 286345(4) 316099(2) 397557(2) 
bin_id=125: 253756(3) 367542(4) 378703(2) 
bin_id=126: 306707(2) 308527(4) 384767(3) 
bin_id=127: 278285(2) 324548(2) 397168(1) 
bin_id=128: 263075(2) 351958(4) 384968(1) 
bin_id=129: 252475(2) 356952(1) 390574(3) 
bin_id=130: 268736(4) 284255(1) 447010(0) 
bin_id=131: 315662(2) 334672(0) 349667(1) 
bin_id=132: 257214(2) 270851(2) 471936(4) 
bin_id=133: 256573(4) 346407(1) 397021(4) 
bin_id=134: 251706(2) 312250(3) 436045(2) 
bin_id=135: 258484(2) 287050(2) 454467(4) 
bin_id=136: 279147(4) 311290(4) 409564(3) 
bin_id=137: 251439(0) 292191(2) 456371(2) 
bin_id=138: 305133(4) 338628(0) 356240(2) 
bin_id=139: 259686(2) 284809(2) 455506(1) 
bin_id=140: 300473(4) 344924(3) 354604(0) 
bin_id=141: 254113(3) 356493(2) 389395(3) 
bin_id=142: 296694(1) 322844(2) 380463(2) 
bin_id=143: 250296(0) 366766(2) 382939(3) 
bin_id=144: 257748(1) 268709(2) 473544(2) 
bin_id=145: 274082(0) 318080(3) 407839(0) 
bin_id=146: 271907(4) 338546(1) 389548(1) 
bin_id=147: 251918(3) 335552(4) 412531(1) 
bin_id=148: 279370(2) 326452(0) 394179(2) 
bin_id=149: 273730(1) 303167(1) 423104(3) 
bin_id=150: 258699(1) 294191(1) 447111(3) 
bin_id=151: 252764(1) 289095(3) 458142(2) 
bin_id=152: 274411(2) 287422(3) 438168(0) 
bin_id=153: 279478(3) 341013(1) 379510(0) 
bin_id=154: 269307(0) 324597(2) 406097(0) 
bin_id=155: 290523(0) 340217(3) 369261(1) 
bin_id=156: 287603(4) 312008(3) 400390(0) 
bin_id=157: 281995(4) 287568(4) 430438(2) 
bin_id=158: 303571(4) 331913(0) 364517(4) 
bin_id=159: 300819(2) 329860(1) 369322(2) 
bin_id=160: 291707(2) 339952(2) 368342(0) 
bin_id=161: 267562(2) 274252(2) 458187(4) 
bin_id=162: 262595(1) 307413(3) 429993(1) 
bin_id=163: 266673(3) 366553(4) 366775(0) 
bin_id=164: 289731(1) 353933(2) 356337(0) 
bin_id=165: 315273(4) 318760(2) 365968(2) 
bin_id=166: 314302(2) 337204(0) 348495(2) 
bin_id=167: 303665(1) 328721(0) 367615(0) 
Objective value: 167.0
########################################################
