Application parameters:
  batch  =>  nothing
  instance  =>  "/IN/Falkenauer_t120_15.txt-Q20"
  ub  =>  1.0e6
  cfg  =>  "/CFG/BPP.cfg"
data = Colored Bin Packing dataset.
number of items = 120
number of colors = 20
capacity = 1000
Items : 
	 item 1, weight= 250, color= 1
	 item 2, weight= 250, color= 11
	 item 3, weight= 250, color= 14
	 item 4, weight= 251, color= 5
	 item 5, weight= 251, color= 6
	 item 6, weight= 251, color= 14
	 item 7, weight= 251, color= 16
	 item 8, weight= 252, color= 2
	 item 9, weight= 252, color= 8
	 item 10, weight= 255, color= 8
	 item 11, weight= 255, color= 19
	 item 12, weight= 256, color= 1
	 item 13, weight= 256, color= 4
	 item 14, weight= 257, color= 16
	 item 15, weight= 258, color= 7
	 item 16, weight= 258, color= 14
	 item 17, weight= 260, color= 12
	 item 18, weight= 261, color= 2
	 item 19, weight= 261, color= 16
	 item 20, weight= 262, color= 4
	 item 21, weight= 262, color= 16
	 item 22, weight= 263, color= 4
	 item 23, weight= 264, color= 0
	 item 24, weight= 264, color= 17
	 item 25, weight= 266, color= 11
	 item 26, weight= 266, color= 11
	 item 27, weight= 267, color= 5
	 item 28, weight= 267, color= 11
	 item 29, weight= 267, color= 12
	 item 30, weight= 269, color= 6
	 item 31, weight= 270, color= 9
	 item 32, weight= 270, color= 11
	 item 33, weight= 270, color= 13
	 item 34, weight= 271, color= 4
	 item 35, weight= 271, color= 7
	 item 36, weight= 272, color= 2
	 item 37, weight= 274, color= 5
	 item 38, weight= 274, color= 11
	 item 39, weight= 274, color= 19
	 item 40, weight= 276, color= 15
	 item 41, weight= 277, color= 5
	 item 42, weight= 277, color= 15
	 item 43, weight= 278, color= 16
	 item 44, weight= 279, color= 5
	 item 45, weight= 279, color= 7
	 item 46, weight= 280, color= 0
	 item 47, weight= 281, color= 3
	 item 48, weight= 282, color= 14
	 item 49, weight= 285, color= 11
	 item 50, weight= 287, color= 6
	 item 51, weight= 292, color= 1
	 item 52, weight= 294, color= 8
	 item 53, weight= 296, color= 1
	 item 54, weight= 296, color= 17
	 item 55, weight= 302, color= 13
	 item 56, weight= 303, color= 7
	 item 57, weight= 303, color= 9
	 item 58, weight= 303, color= 10
	 item 59, weight= 304, color= 11
	 item 60, weight= 305, color= 0
	 item 61, weight= 306, color= 7
	 item 62, weight= 306, color= 14
	 item 63, weight= 307, color= 10
	 item 64, weight= 310, color= 17
	 item 65, weight= 317, color= 0
	 item 66, weight= 320, color= 7
	 item 67, weight= 322, color= 3
	 item 68, weight= 322, color= 8
	 item 69, weight= 322, color= 12
	 item 70, weight= 330, color= 6
	 item 71, weight= 332, color= 13
	 item 72, weight= 333, color= 6
	 item 73, weight= 334, color= 16
	 item 74, weight= 337, color= 11
	 item 75, weight= 344, color= 15
	 item 76, weight= 354, color= 10
	 item 77, weight= 357, color= 7
	 item 78, weight= 362, color= 5
	 item 79, weight= 362, color= 15
	 item 80, weight= 363, color= 15
	 item 81, weight= 363, color= 16
	 item 82, weight= 363, color= 17
	 item 83, weight= 365, color= 18
	 item 84, weight= 367, color= 19
	 item 85, weight= 372, color= 4
	 item 86, weight= 373, color= 17
	 item 87, weight= 378, color= 14
	 item 88, weight= 386, color= 8
	 item 89, weight= 386, color= 13
	 item 90, weight= 387, color= 1
	 item 91, weight= 387, color= 5
	 item 92, weight= 400, color= 6
	 item 93, weight= 400, color= 16
	 item 94, weight= 404, color= 11
	 item 95, weight= 408, color= 4
	 item 96, weight= 411, color= 14
	 item 97, weight= 422, color= 19
	 item 98, weight= 425, color= 16
	 item 99, weight= 426, color= 2
	 item 100, weight= 426, color= 17
	 item 101, weight= 433, color= 19
	 item 102, weight= 440, color= 18
	 item 103, weight= 443, color= 5
	 item 104, weight= 443, color= 13
	 item 105, weight= 443, color= 19
	 item 106, weight= 446, color= 4
	 item 107, weight= 446, color= 19
	 item 108, weight= 453, color= 18
	 item 109, weight= 458, color= 16
	 item 110, weight= 463, color= 10
	 item 111, weight= 465, color= 2
	 item 112, weight= 469, color= 19
	 item 113, weight= 472, color= 9
	 item 114, weight= 472, color= 12
	 item 115, weight= 473, color= 11
	 item 116, weight= 479, color= 4
	 item 117, weight= 482, color= 13
	 item 118, weight= 483, color= 8
	 item 119, weight= 484, color= 4
	 item 120, weight= 487, color= 2

VRPSolver warning: Interval set for resource 1 on source node (when source != sink) is ignored (by definition is [0.0,0.0])
[41m solve [00m
~~~~~~~~~~~~~~~~~~~~~~~~~~~~~~~~~~~~~~~~~~~~~~~~~~~~~~~~~~~~~~~~~~~~~~~~~~~~~~
VRPSolver v0.4.1, 24/03/2021. Web: vrpsolver.math.u-bordeaux.fr
Corresponds to the solver by Pessoa, Sadykov, Uchoa and Vanderbeck (2020)
Paper: dx.doi.org/10.1007/s10107-020-01523-z
USE THIS CODE ONLY FOR ACADEMIC PURPOSES AT YOUR OWN RISK
~~~~~~~~~~~~~~~~~~~~~~~~~~~~~~~~~~~~~~~~~~~~~~~~~~~~~~~~~~~~~~~~~~~~~~~~~~~~~~
BaPCod v053, 24/03/2021, © Inria Bordeaux, France
~~~~~~~~~~~~~~~~~~~~~~~~~~~~~~~~~~~~~~~~~~~~~~~~~~~~~~~~~~~~~~~~~~~~~~~~~~~~~~
VRPSolver parameters:
GlobalTimeLimit = 1800
MaxNbOfBBtreeNodeTreated = 100000
treeSearchStrategy = 1
RCSPstopCutGenTimeThresholdInPricing = 10
RCSPhardTimeThresholdInPricing = 20
RCSPnumberOfBucketsPerVertex = 2000
RCSPdynamicBucketSteps = 0
RCSPuseBidirectionalSearch = 1
RCSPapplyReducedCostFixing = 1
RCSPredCostFixingFalseGap = 0
RCSPmaxNumOfColsPerIteration = 100
RCSPmaxNumOfColsPerExactIteration = 100
RCSPheurLabelingStrategy = 4
StabilizationMinPhaseOfStage = 1
RCSPmaxNumOfLabelsInEnumeration = 100000
RCSPmaxNumOfEnumeratedSolutions = 1000000
RCSPmaxNumOfEnumSolutionsForMIP = 100000
RCSPinitNGneighbourhoodSize = 0
RCSPmaxNGneighbourhoodSize = 0
RCSPrankOneCutsMaxNumPerRound = 100
RCSPrankOneCutsMaxNumRows = -1
RCSPrankOneCutsMemoryType = 2
CutTailingOffThreshold = 0.02
CutTailingOffCounterThreshold = 3
SafeDualBoundScaleFactor = -1
StrongBranchingPhaseOneCandidatesNumber = 100
StrongBranchingPhaseOneTreeSizeEstimRatio = 0.3
StrongBranchingPhaseTwoCandidatesNumber = 1
StrongBranchingPhaseTwoTreeSizeEstimRatio = 0.1
MaxTimeForRestrictedMasterIpHeur = -1
DivingHeurUseDepthLimit = 0
MaxLDSbreadth = 3
MaxLDSdepth = 2
New model incumbent solution 1e+06, TIME = 0h0m0s3t = 3
Model is built TIME = 0h0m1s65t = 165
************************************************************************************************
**** BaB tree root node
**** Local DB = -1e+12, global bounds : [ -1e+12 , 1e+06 ], TIME = 0h0m1s65t = 165
**** 1 open nodes, 0 columns (0 active), 0 dyn. constrs. (0 active), 242 art. vars. (242 active)
************************************************************************************************
<DWph=2> <it= 10> <et=2.07> <Mt= 0.00> <Spt= 0.40> <nCl=1000> <DB=-329160074.6454> <Mlp=47200030.0833> <PB=1000000> 
<DWph=2> <it= 20> <et=2.49> <Mt= 0.02> <Spt= 0.40> <nCl=923> <DB=-102301612.2621> <Mlp=   40.2399> <PB=1000000> 
<DWph=2> <it= 30> <et=3.05> <Mt= 0.03> <Spt= 0.53> <nCl=870> <DB=   40.0000> <Mlp=   40.0000> <PB=1000000> 
<DWph=1> <it= 31> <et=3.13> <Mt= 0.00> <Spt= 0.08> <nCl=  0> <DB=   40.0000> <Mlp=   40.0000> <PB=1000000> 
<DWph=0> <it= 32> <et=3.17> <Mt= 0.00> <Spt= 0.04> <nCl=  0> <DB=   40.0000> <Mlp=   40.0000> <PB=1000000> 
Reduced cost fixing for graph G_1... took 0.36 sec., 136298 buck. arcs remain (45.9% from prev., 20.2% from max.)
Run enumeration... took 0.67 sec. and succeeded! Pricing will be done by inspection.
<DWph=2> <it= 33> <et=4.34> <Mt= 0.03> <Spt= 0.02> <nCl=  0> <DB=   40.0011> <Mlp=   40.0011> <PB=1000000> 
<DWph=1> <it= 34> <et=4.34> <Mt= 0.00> <Spt= 0.00> <nCl=  0> <DB=   40.0011> <Mlp=   40.0011> <PB=1000000> 
<DWph=0> <it= 36> <et=4.35> <Mt= 0.01> <Spt= 0.01> <nCl=  9> <DB=   40.0000> <Mlp=   40.0000> <PB=1000000> 
ColGenEvalAlg final dual bound: 40 (rounded: 40)
----------- Diving heuristic started -----------
<DWph=2> <it=  1> <et=4.39> <Mt= 0.00> <Spt= 0.00> <nCl=  0> <DB=   40.0000> <Mlp=   40.0000> <PB=1000000> 
<DWph=1> <it=  2> <et=4.39> <Mt= 0.00> <Spt= 0.00> <nCl=  0> <DB=   40.0000> <Mlp=   40.0000> <PB=1000000> 
<DWph=0> <it=  3> <et=4.39> <Mt= 0.00> <Spt= 0.00> <nCl=  0> <DB=   40.0000> <Mlp=   40.0000> <PB=1000000> 
ColGenEvalAlg final dual bound: 40 (rounded: 40)
---- Diving heuristic node with dive number = 0, fix depth = 0 and tabu list size = 0
Fixed projected solution = [x_1_0_1_OspV=1, x_1_7_1_OspV=1, x_1_41_1_OspV=1, x_1_114_1_OspV=1]
<DWph=2> <it=  1> <et=4.44> <Mt= 0.01> <Spt= 0.00> <nCl=  0> <DB=   40.0000> <Mlp=   40.0000> <PB=1000000> 
<DWph=1> <it=  2> <et=4.44> <Mt= 0.00> <Spt= 0.00> <nCl=  0> <DB=   40.0000> <Mlp=   40.0000> <PB=1000000> 
<DWph=0> <it=  3> <et=4.44> <Mt= 0.00> <Spt= 0.00> <nCl=  0> <DB=   40.0000> <Mlp=   40.0000> <PB=1000000> 
ColGenEvalAlg final dual bound: 40 (rounded: 40)
---- Diving heuristic node with dive number = 0, fix depth = 0 and tabu list size = 0
Fixed projected solution = [x_1_0_1_OspV=1, x_1_6_1_OspV=1, x_1_42_1_OspV=1, x_1_113_1_OspV=1]
<DWph=2> <it=  1> <et=4.49> <Mt= 0.00> <Spt= 0.00> <nCl=  0> <DB=   40.0000> <Mlp=   40.0000> <PB=1000000> 
<DWph=1> <it=  2> <et=4.49> <Mt= 0.00> <Spt= 0.00> <nCl=  0> <DB=   40.0000> <Mlp=   40.0000> <PB=1000000> 
<DWph=0> <it=  3> <et=4.49> <Mt= 0.00> <Spt= 0.00> <nCl=  0> <DB=   40.0000> <Mlp=   40.0000> <PB=1000000> 
ColGenEvalAlg final dual bound: 40 (rounded: 40)
---- Diving heuristic node with dive number = 0, fix depth = 0 and tabu list size = 0
Fixed projected solution = [x_1_0_1_OspV=1, x_1_15_1_OspV=1, x_1_53_1_OspV=1, x_1_107_1_OspV=1]
<DWph=2> <it=  1> <et=4.53> <Mt= 0.00> <Spt= 0.00> <nCl=  0> <DB=   40.0000> <Mlp=   40.0000> <PB=1000000> 
<DWph=1> <it=  2> <et=4.53> <Mt= 0.00> <Spt= 0.00> <nCl=  0> <DB=   40.0000> <Mlp=   40.0000> <PB=1000000> 
<DWph=0> <it=  3> <et=4.53> <Mt= 0.00> <Spt= 0.00> <nCl=  0> <DB=   40.0000> <Mlp=   40.0000> <PB=1000000> 
ColGenEvalAlg final dual bound: 40 (rounded: 40)
---- Diving heuristic node with dive number = 0, fix depth = 1 and tabu list size = 0
Fixed projected solution = [x_1_0_1_OspV=1, x_1_31_1_OspV=1, x_1_36_1_OspV=1, x_1_109_1_OspV=1]
<DWph=2> <it=  1> <et=4.56> <Mt= 0.00> <Spt= 0.00> <nCl=  0> <DB=   40.0000> <Mlp=   40.0000> <PB=1000000> 
<DWph=1> <it=  2> <et=4.56> <Mt= 0.00> <Spt= 0.00> <nCl=  0> <DB=   40.0000> <Mlp=   40.0000> <PB=1000000> 
<DWph=0> <it=  3> <et=4.56> <Mt= 0.00> <Spt= 0.00> <nCl=  0> <DB=   40.0000> <Mlp=   40.0000> <PB=1000000> 
ColGenEvalAlg final dual bound: 40 (rounded: 40)
---- Diving heuristic node with dive number = 0, fix depth = 2 and tabu list size = 0
Fixed projected solution = [x_1_0_1_OspV=1, x_1_37_1_OspV=1, x_1_69_1_OspV=1, x_1_94_1_OspV=1]
<DWph=2> <it=  1> <et=4.60> <Mt= 0.00> <Spt= 0.00> <nCl=  0> <DB=   40.0000> <Mlp=   40.0000> <PB=1000000> 
<DWph=1> <it=  2> <et=4.60> <Mt= 0.00> <Spt= 0.00> <nCl=  0> <DB=   40.0000> <Mlp=   40.0000> <PB=1000000> 
<DWph=0> <it=  3> <et=4.60> <Mt= 0.00> <Spt= 0.00> <nCl=  0> <DB=   40.0000> <Mlp=   40.0000> <PB=1000000> 
ColGenEvalAlg final dual bound: 40 (rounded: 40)
---- Diving heuristic node with dive number = 0, fix depth = 3 and tabu list size = 0
Fixed projected solution = [x_1_0_1_OspV=1, x_1_3_1_OspV=1, x_1_35_1_OspV=1, x_1_116_1_OspV=1]
<DWph=2> <it=  1> <et=4.60> <Mt= 0.01> <Spt= 0.00> <nCl=  0> <DB=   40.0000> <Mlp=   40.0000> <PB=1000000> 
<DWph=1> <it=  2> <et=4.60> <Mt= 0.00> <Spt= 0.00> <nCl=  0> <DB=   40.0000> <Mlp=   40.0000> <PB=1000000> 
<DWph=0> <it=  3> <et=4.60> <Mt= 0.00> <Spt= 0.00> <nCl=  0> <DB=   40.0000> <Mlp=   40.0000> <PB=1000000> 
ColGenEvalAlg final dual bound: 40 (rounded: 40)
---- Diving heuristic node with dive number = 0, fix depth = 4 and tabu list size = 0
Fixed projected solution = [x_1_0_1_OspV=1, x_1_33_1_OspV=1, x_1_50_1_OspV=1, x_1_103_1_OspV=1]
<DWph=2> <it=  1> <et=4.61> <Mt= 0.00> <Spt= 0.00> <nCl=  0> <DB=   40.0000> <Mlp=   40.0000> <PB=1000000> 
<DWph=1> <it=  2> <et=4.61> <Mt= 0.00> <Spt= 0.00> <nCl=  0> <DB=   40.0000> <Mlp=   40.0000> <PB=1000000> 
<DWph=0> <it=  3> <et=4.61> <Mt= 0.00> <Spt= 0.00> <nCl=  0> <DB=   40.0000> <Mlp=   40.0000> <PB=1000000> 
ColGenEvalAlg final dual bound: 40 (rounded: 40)
---- Diving heuristic node with dive number = 0, fix depth = 5 and tabu list size = 0
Fixed projected solution = [x_1_0_1_OspV=1, x_1_54_1_OspV=1, x_1_65_1_OspV=1, x_1_90_1_OspV=1]
<DWph=2> <it=  1> <et=4.61> <Mt= 0.00> <Spt= 0.00> <nCl=  0> <DB=   40.0000> <Mlp=   40.0000> <PB=1000000> 
<DWph=1> <it=  2> <et=4.61> <Mt= 0.00> <Spt= 0.00> <nCl=  0> <DB=   40.0000> <Mlp=   40.0000> <PB=1000000> 
<DWph=0> <it=  3> <et=4.61> <Mt= 0.00> <Spt= 0.00> <nCl=  0> <DB=   40.0000> <Mlp=   40.0000> <PB=1000000> 
ColGenEvalAlg final dual bound: 40 (rounded: 40)
---- Diving heuristic node with dive number = 0, fix depth = 6 and tabu list size = 0
Fixed projected solution = [x_1_0_1_OspV=1, x_1_9_1_OspV=1, x_1_19_1_OspV=1, x_1_120_1_OspV=1]
<DWph=2> <it=  1> <et=4.62> <Mt= 0.00> <Spt= 0.00> <nCl=  0> <DB=   40.0000> <Mlp=   40.0000> <PB=1000000> 
<DWph=1> <it=  2> <et=4.62> <Mt= 0.00> <Spt= 0.00> <nCl=  0> <DB=   40.0000> <Mlp=   40.0000> <PB=1000000> 
<DWph=0> <it=  3> <et=4.62> <Mt= 0.00> <Spt= 0.00> <nCl=  0> <DB=   40.0000> <Mlp=   40.0000> <PB=1000000> 
ColGenEvalAlg final dual bound: 40 (rounded: 40)
---- Diving heuristic node with dive number = 0, fix depth = 7 and tabu list size = 0
Fixed projected solution = [x_1_0_1_OspV=1, x_1_12_1_OspV=1, x_1_68_1_OspV=1, x_1_97_1_OspV=1]
<DWph=2> <it=  1> <et=4.62> <Mt= 0.01> <Spt= 0.00> <nCl=  0> <DB=   40.0001> <Mlp=   40.0001> <PB=1000000> 
<DWph=1> <it=  2> <et=4.62> <Mt= 0.00> <Spt= 0.00> <nCl=  0> <DB=   40.0001> <Mlp=   40.0001> <PB=1000000> 
<DWph=0> <it=  4> <et=4.63> <Mt= 0.00> <Spt= 0.00> <nCl=100> <DB=   40.0000> <Mlp=   40.0000> <PB=1000000> 
ColGenEvalAlg final dual bound: 40 (rounded: 40)
---- Diving heuristic node with dive number = 0, fix depth = 8 and tabu list size = 0
Fixed projected solution = [x_1_0_1_OspV=1, x_1_22_1_OspV=1, x_1_74_1_OspV=1, x_1_92_1_OspV=1]
<DWph=2> <it=  1> <et=4.64> <Mt= 0.00> <Spt= 0.00> <nCl=  0> <DB=   40.0000> <Mlp=   40.0000> <PB=1000000> 
<DWph=1> <it=  2> <et=4.64> <Mt= 0.00> <Spt= 0.00> <nCl=  0> <DB=   40.0000> <Mlp=   40.0000> <PB=1000000> 
<DWph=0> <it=  3> <et=4.64> <Mt= 0.00> <Spt= 0.00> <nCl=  0> <DB=   40.0000> <Mlp=   40.0000> <PB=1000000> 
ColGenEvalAlg final dual bound: 40 (rounded: 40)
---- Diving heuristic node with dive number = 0, fix depth = 9 and tabu list size = 0
Fixed projected solution = [x_1_0_1_OspV=1, x_1_39_1_OspV=1, x_1_81_1_OspV=1, x_1_82_1_OspV=1]
<DWph=2> <it=  1> <et=4.64> <Mt= 0.00> <Spt= 0.00> <nCl=  0> <DB=   40.0000> <Mlp=   40.0000> <PB=1000000> 
<DWph=1> <it=  2> <et=4.64> <Mt= 0.00> <Spt= 0.00> <nCl=  0> <DB=   40.0000> <Mlp=   40.0000> <PB=1000000> 
<DWph=0> <it=  3> <et=4.64> <Mt= 0.00> <Spt= 0.00> <nCl=  0> <DB=   40.0000> <Mlp=   40.0000> <PB=1000000> 
ColGenEvalAlg final dual bound: 40 (rounded: 40)
---- Diving heuristic node with dive number = 0, fix depth = 10 and tabu list size = 0
Fixed projected solution = [x_1_0_1_OspV=1, x_1_52_1_OspV=1, x_1_66_1_OspV=1, x_1_88_1_OspV=1]
<DWph=2> <it=  1> <et=4.64> <Mt= 0.00> <Spt= 0.00> <nCl=  0> <DB=   40.0000> <Mlp=   40.0000> <PB=1000000> 
<DWph=1> <it=  2> <et=4.64> <Mt= 0.00> <Spt= 0.00> <nCl=  0> <DB=   40.0000> <Mlp=   40.0000> <PB=1000000> 
<DWph=0> <it=  3> <et=4.64> <Mt= 0.00> <Spt= 0.00> <nCl=  0> <DB=   40.0000> <Mlp=   40.0000> <PB=1000000> 
ColGenEvalAlg final dual bound: 40 (rounded: 40)
---- Diving heuristic node with dive number = 0, fix depth = 10 and tabu list size = 0
Fixed projected solution = [x_1_0_1_OspV=1, x_1_55_1_OspV=1, x_1_75_1_OspV=1, x_1_76_1_OspV=1]
<DWph=2> <it=  1> <et=4.65> <Mt= 0.01> <Spt= 0.00> <nCl=  0> <DB=   40.0000> <Mlp=   40.0000> <PB=1000000> 
<DWph=1> <it=  2> <et=4.65> <Mt= 0.00> <Spt= 0.00> <nCl=  0> <DB=   40.0000> <Mlp=   40.0000> <PB=1000000> 
<DWph=0> <it=  3> <et=4.65> <Mt= 0.00> <Spt= 0.00> <nCl=  0> <DB=   40.0000> <Mlp=   40.0000> <PB=1000000> 
ColGenEvalAlg final dual bound: 40 (rounded: 40)
---- Diving heuristic node with dive number = 0, fix depth = 11 and tabu list size = 0
Fixed projected solution = [x_1_0_1_OspV=1, x_1_57_1_OspV=1, x_1_71_1_OspV=1, x_1_83_1_OspV=1]
<DWph=2> <it=  1> <et=4.65> <Mt= 0.00> <Spt= 0.00> <nCl=  0> <DB=   40.0000> <Mlp=   40.0000> <PB=1000000> 
<DWph=1> <it=  2> <et=4.65> <Mt= 0.00> <Spt= 0.00> <nCl=  0> <DB=   40.0000> <Mlp=   40.0000> <PB=1000000> 
<DWph=0> <it=  3> <et=4.65> <Mt= 0.00> <Spt= 0.00> <nCl=  0> <DB=   40.0000> <Mlp=   40.0000> <PB=1000000> 
ColGenEvalAlg final dual bound: 40 (rounded: 40)
---- Diving heuristic node with dive number = 0, fix depth = 12 and tabu list size = 0
Fixed projected solution = [x_1_0_1_OspV=1, x_1_21_1_OspV=1, x_1_70_1_OspV=1, x_1_95_1_OspV=1]
<DWph=2> <it=  1> <et=4.66> <Mt= 0.00> <Spt= 0.00> <nCl=  0> <DB=   40.0000> <Mlp=   40.0000> <PB=1000000> 
<DWph=1> <it=  2> <et=4.66> <Mt= 0.00> <Spt= 0.00> <nCl=  0> <DB=   40.0000> <Mlp=   40.0000> <PB=1000000> 
<DWph=0> <it=  3> <et=4.66> <Mt= 0.01> <Spt= 0.00> <nCl=  0> <DB=   40.0000> <Mlp=   40.0000> <PB=1000000> 
ColGenEvalAlg final dual bound: 40 (rounded: 40)
---- Diving heuristic node with dive number = 0, fix depth = 13 and tabu list size = 0
Fixed projected solution = [x_1_0_1_OspV=1, x_1_24_1_OspV=1, x_1_28_1_OspV=1, x_1_112_1_OspV=1]
<DWph=2> <it=  1> <et=4.67> <Mt= 0.00> <Spt= 0.00> <nCl=  0> <DB=   40.0000> <Mlp=   40.0000> <PB=1000000> 
<DWph=1> <it=  2> <et=4.67> <Mt= 0.00> <Spt= 0.00> <nCl=  0> <DB=   40.0000> <Mlp=   40.0000> <PB=1000000> 
<DWph=0> <it=  3> <et=4.67> <Mt= 0.00> <Spt= 0.00> <nCl=  0> <DB=   40.0000> <Mlp=   40.0000> <PB=1000000> 
ColGenEvalAlg final dual bound: 40 (rounded: 40)
---- Diving heuristic node with dive number = 0, fix depth = 14 and tabu list size = 0
Fixed projected solution = [x_1_0_1_OspV=1, x_1_29_1_OspV=1, x_1_72_1_OspV=1, x_1_93_1_OspV=1]
<DWph=2> <it=  1> <et=4.67> <Mt= 0.00> <Spt= 0.00> <nCl=  0> <DB=   40.0000> <Mlp=   40.0000> <PB=1000000> 
<DWph=1> <it=  2> <et=4.67> <Mt= 0.00> <Spt= 0.00> <nCl=  0> <DB=   40.0000> <Mlp=   40.0000> <PB=1000000> 
<DWph=0> <it=  3> <et=4.67> <Mt= 0.00> <Spt= 0.00> <nCl=  0> <DB=   40.0000> <Mlp=   40.0000> <PB=1000000> 
ColGenEvalAlg final dual bound: 40 (rounded: 40)
---- Diving heuristic node with dive number = 0, fix depth = 15 and tabu list size = 0
Fixed projected solution = [x_1_0_1_OspV=1, x_1_32_1_OspV=1, x_1_60_1_OspV=1, x_1_98_1_OspV=1]
<DWph=2> <it=  1> <et=4.68> <Mt= 0.01> <Spt= 0.00> <nCl=  0> <DB=   40.0000> <Mlp=   40.0000> <PB=40> 
New model incumbent solution 40, TIME = 0h0m4s69t = 469
************************************************************************************************
Search is finished, global bounds : [ 40 , 40 ], TIME = 0h0m4s71t = 471
************************************************************************************************
[32mBaPCod : solution defined.[00m
statistics_cols: instance & :Optimal & cutoff & :bcRecRootDb & :bcTimeRootEval & :bcCountNodeProc & :bcRecBestDb & :bcRecBestInc & :bcTimeMain \\
statistics: Falkenauer_t120_15 & 1 & 1.0e6 & 40.00 & 4.39 & 1 & 40.00 & 40 & 4.71 \\
########################################################
bin_id=1: 252(8) 261(16) 487(2) 
bin_id=2: 250(1) 266(11) 484(4) 
bin_id=3: 255(19) 262(4) 483(8) 
bin_id=4: 251(6) 267(5) 482(13) 
bin_id=5: 250(14) 271(7) 479(4) 
bin_id=6: 258(14) 269(6) 473(11) 
bin_id=7: 251(16) 277(5) 472(12) 
bin_id=8: 264(17) 267(11) 469(19) 
bin_id=9: 270(9) 272(2) 458(16) 
bin_id=10: 278(16) 279(5) 443(13) 
bin_id=11: 270(13) 287(6) 443(5) 
bin_id=12: 306(7) 307(10) 387(5) 
bin_id=13: 296(17) 317(0) 387(1) 
bin_id=14: 303(9) 332(13) 365(18) 
bin_id=15: 266(11) 362(5) 372(4) 
bin_id=16: 260(12) 362(15) 378(14) 
bin_id=17: 263(4) 337(11) 400(6) 
bin_id=18: 257(16) 303(7) 440(18) 
bin_id=19: 252(2) 322(3) 426(17) 
bin_id=20: 262(16) 330(6) 408(4) 
bin_id=21: 264(0) 363(15) 373(17) 
bin_id=22: 270(11) 305(0) 425(16) 
bin_id=23: 274(19) 363(16) 363(17) 
bin_id=24: 279(7) 310(17) 411(14) 
bin_id=25: 256(1) 322(8) 422(19) 
bin_id=26: 251(14) 277(15) 472(9) 
bin_id=27: 276(15) 357(7) 367(19) 
bin_id=28: 271(4) 303(10) 426(2) 
bin_id=29: 274(5) 322(12) 404(11) 
bin_id=30: 251(5) 306(14) 443(19) 
bin_id=31: 282(14) 285(11) 433(19) 
bin_id=32: 267(12) 333(6) 400(16) 
bin_id=33: 294(8) 320(7) 386(8) 
bin_id=34: 261(2) 274(11) 465(2) 
bin_id=35: 255(8) 292(1) 453(18) 
bin_id=36: 258(7) 296(1) 446(19) 
bin_id=37: 302(13) 344(15) 354(10) 
bin_id=38: 250(11) 304(11) 446(4) 
bin_id=39: 256(4) 281(3) 463(10) 
bin_id=40: 280(0) 334(16) 386(13) 
Objective value: 40.0
########################################################
