Application parameters:
  batch  =>  nothing
  instance  =>  "/IN/Falkenauer_t120_16.txt-Q5"
  ub  =>  1.0e6
  cfg  =>  "/CFG/BPP.cfg"
data = Colored Bin Packing dataset.
number of items = 120
number of colors = 5
capacity = 1000
Items : 
	 item 1, weight= 250, color= 0
	 item 2, weight= 250, color= 3
	 item 3, weight= 251, color= 4
	 item 4, weight= 251, color= 4
	 item 5, weight= 252, color= 3
	 item 6, weight= 252, color= 3
	 item 7, weight= 253, color= 3
	 item 8, weight= 254, color= 2
	 item 9, weight= 254, color= 4
	 item 10, weight= 255, color= 0
	 item 11, weight= 255, color= 3
	 item 12, weight= 256, color= 0
	 item 13, weight= 257, color= 0
	 item 14, weight= 257, color= 4
	 item 15, weight= 259, color= 0
	 item 16, weight= 259, color= 1
	 item 17, weight= 260, color= 0
	 item 18, weight= 260, color= 0
	 item 19, weight= 260, color= 2
	 item 20, weight= 261, color= 2
	 item 21, weight= 262, color= 0
	 item 22, weight= 262, color= 2
	 item 23, weight= 262, color= 3
	 item 24, weight= 264, color= 0
	 item 25, weight= 264, color= 0
	 item 26, weight= 264, color= 2
	 item 27, weight= 265, color= 2
	 item 28, weight= 265, color= 2
	 item 29, weight= 265, color= 3
	 item 30, weight= 267, color= 1
	 item 31, weight= 267, color= 4
	 item 32, weight= 270, color= 1
	 item 33, weight= 272, color= 2
	 item 34, weight= 272, color= 3
	 item 35, weight= 273, color= 3
	 item 36, weight= 273, color= 4
	 item 37, weight= 274, color= 4
	 item 38, weight= 275, color= 4
	 item 39, weight= 278, color= 1
	 item 40, weight= 279, color= 0
	 item 41, weight= 279, color= 3
	 item 42, weight= 281, color= 2
	 item 43, weight= 282, color= 4
	 item 44, weight= 284, color= 0
	 item 45, weight= 284, color= 3
	 item 46, weight= 285, color= 0
	 item 47, weight= 285, color= 0
	 item 48, weight= 285, color= 3
	 item 49, weight= 287, color= 3
	 item 50, weight= 290, color= 0
	 item 51, weight= 290, color= 1
	 item 52, weight= 293, color= 0
	 item 53, weight= 293, color= 3
	 item 54, weight= 294, color= 0
	 item 55, weight= 294, color= 0
	 item 56, weight= 298, color= 0
	 item 57, weight= 298, color= 2
	 item 58, weight= 299, color= 4
	 item 59, weight= 303, color= 2
	 item 60, weight= 310, color= 1
	 item 61, weight= 316, color= 0
	 item 62, weight= 317, color= 0
	 item 63, weight= 319, color= 0
	 item 64, weight= 321, color= 1
	 item 65, weight= 323, color= 2
	 item 66, weight= 324, color= 3
	 item 67, weight= 329, color= 3
	 item 68, weight= 329, color= 4
	 item 69, weight= 330, color= 2
	 item 70, weight= 337, color= 1
	 item 71, weight= 337, color= 2
	 item 72, weight= 349, color= 2
	 item 73, weight= 352, color= 0
	 item 74, weight= 355, color= 2
	 item 75, weight= 358, color= 1
	 item 76, weight= 359, color= 2
	 item 77, weight= 361, color= 2
	 item 78, weight= 364, color= 2
	 item 79, weight= 365, color= 3
	 item 80, weight= 367, color= 1
	 item 81, weight= 368, color= 4
	 item 82, weight= 369, color= 1
	 item 83, weight= 369, color= 2
	 item 84, weight= 370, color= 1
	 item 85, weight= 376, color= 3
	 item 86, weight= 377, color= 3
	 item 87, weight= 377, color= 4
	 item 88, weight= 381, color= 2
	 item 89, weight= 381, color= 4
	 item 90, weight= 383, color= 2
	 item 91, weight= 387, color= 4
	 item 92, weight= 393, color= 4
	 item 93, weight= 397, color= 0
	 item 94, weight= 403, color= 0
	 item 95, weight= 404, color= 1
	 item 96, weight= 404, color= 3
	 item 97, weight= 412, color= 0
	 item 98, weight= 414, color= 0
	 item 99, weight= 419, color= 3
	 item 100, weight= 422, color= 0
	 item 101, weight= 427, color= 2
	 item 102, weight= 428, color= 3
	 item 103, weight= 431, color= 4
	 item 104, weight= 432, color= 3
	 item 105, weight= 434, color= 4
	 item 106, weight= 437, color= 1
	 item 107, weight= 442, color= 0
	 item 108, weight= 442, color= 1
	 item 109, weight= 443, color= 0
	 item 110, weight= 446, color= 4
	 item 111, weight= 447, color= 4
	 item 112, weight= 454, color= 0
	 item 113, weight= 461, color= 3
	 item 114, weight= 467, color= 2
	 item 115, weight= 472, color= 3
	 item 116, weight= 475, color= 3
	 item 117, weight= 484, color= 2
	 item 118, weight= 485, color= 0
	 item 119, weight= 490, color= 0
	 item 120, weight= 492, color= 4

VRPSolver warning: Interval set for resource 1 on source node (when source != sink) is ignored (by definition is [0.0,0.0])
[41m solve [00m
~~~~~~~~~~~~~~~~~~~~~~~~~~~~~~~~~~~~~~~~~~~~~~~~~~~~~~~~~~~~~~~~~~~~~~~~~~~~~~
VRPSolver v0.4.1, 24/03/2021. Web: vrpsolver.math.u-bordeaux.fr
Corresponds to the solver by Pessoa, Sadykov, Uchoa and Vanderbeck (2020)
Paper: dx.doi.org/10.1007/s10107-020-01523-z
USE THIS CODE ONLY FOR ACADEMIC PURPOSES AT YOUR OWN RISK
~~~~~~~~~~~~~~~~~~~~~~~~~~~~~~~~~~~~~~~~~~~~~~~~~~~~~~~~~~~~~~~~~~~~~~~~~~~~~~
BaPCod v053, 24/03/2021, © Inria Bordeaux, France
~~~~~~~~~~~~~~~~~~~~~~~~~~~~~~~~~~~~~~~~~~~~~~~~~~~~~~~~~~~~~~~~~~~~~~~~~~~~~~
VRPSolver parameters:
GlobalTimeLimit = 1800
MaxNbOfBBtreeNodeTreated = 100000
treeSearchStrategy = 1
RCSPstopCutGenTimeThresholdInPricing = 10
RCSPhardTimeThresholdInPricing = 20
RCSPnumberOfBucketsPerVertex = 2000
RCSPdynamicBucketSteps = 0
RCSPuseBidirectionalSearch = 1
RCSPapplyReducedCostFixing = 1
RCSPredCostFixingFalseGap = 0
RCSPmaxNumOfColsPerIteration = 100
RCSPmaxNumOfColsPerExactIteration = 100
RCSPheurLabelingStrategy = 4
StabilizationMinPhaseOfStage = 1
RCSPmaxNumOfLabelsInEnumeration = 100000
RCSPmaxNumOfEnumeratedSolutions = 1000000
RCSPmaxNumOfEnumSolutionsForMIP = 100000
RCSPinitNGneighbourhoodSize = 0
RCSPmaxNGneighbourhoodSize = 0
RCSPrankOneCutsMaxNumPerRound = 100
RCSPrankOneCutsMaxNumRows = -1
RCSPrankOneCutsMemoryType = 2
CutTailingOffThreshold = 0.02
CutTailingOffCounterThreshold = 3
SafeDualBoundScaleFactor = -1
StrongBranchingPhaseOneCandidatesNumber = 100
StrongBranchingPhaseOneTreeSizeEstimRatio = 0.3
StrongBranchingPhaseTwoCandidatesNumber = 1
StrongBranchingPhaseTwoTreeSizeEstimRatio = 0.1
MaxTimeForRestrictedMasterIpHeur = -1
DivingHeurUseDepthLimit = 0
MaxLDSbreadth = 3
MaxLDSdepth = 2
New model incumbent solution 1e+06, TIME = 0h0m0s3t = 3
Model is built TIME = 0h0m1s50t = 150
************************************************************************************************
**** BaB tree root node
**** Local DB = -1e+12, global bounds : [ -1e+12 , 1e+06 ], TIME = 0h0m1s51t = 151
**** 1 open nodes, 0 columns (0 active), 0 dyn. constrs. (0 active), 242 art. vars. (242 active)
************************************************************************************************
<DWph=2> <it= 10> <et=1.82> <Mt= 0.00> <Spt= 0.30> <nCl=1000> <DB=-299035948.2575> <Mlp=42000034.5000> <PB=1000000> 
<DWph=2> <it= 20> <et=2.19> <Mt= 0.02> <Spt= 0.35> <nCl=985> <DB=   31.8226> <Mlp=   40.2107> <PB=1000000> 
<DWph=2> <it= 28> <et=2.50> <Mt= 0.03> <Spt= 0.28> <nCl=508> <DB=   40.0000> <Mlp=   40.0000> <PB=1000000> 
<DWph=1> <it= 29> <et=2.56> <Mt= 0.00> <Spt= 0.06> <nCl=  0> <DB=   40.0000> <Mlp=   40.0000> <PB=1000000> 
<DWph=0> <it= 30> <et=2.60> <Mt= 0.00> <Spt= 0.03> <nCl=  0> <DB=   40.0000> <Mlp=   40.0000> <PB=1000000> 
Reduced cost fixing for graph G_1... took 0.22 sec., 70450 buck. arcs remain (51.1% from prev., 19.8% from max.)
Run enumeration... took 0.06 sec. and not succeeded.
ColGenEvalAlg final dual bound: 40 (rounded: 40)
----------- Diving heuristic started -----------
<DWph=2> <it=  1> <et=2.91> <Mt= 0.00> <Spt= 0.00> <nCl=  0> <DB=   40.0000> <Mlp=   40.0000> <PB=1000000> 
<DWph=1> <it=  2> <et=2.91> <Mt= 0.00> <Spt= 0.00> <nCl=  0> <DB=   40.0000> <Mlp=   40.0000> <PB=1000000> 
---- Diving heuristic node with dive number = 0, fix depth = 0 and tabu list size = 0
Fixed projected solution = [x_1_0_1_OspV=1, x_1_25_1_OspV=1, x_1_50_1_OspV=1, x_1_110_1_OspV=1]
<DWph=2> <it=  1> <et=2.93> <Mt= 0.00> <Spt= 0.00> <nCl=  0> <DB=   40.0000> <Mlp=   40.0000> <PB=1000000> 
<DWph=1> <it=  2> <et=2.93> <Mt= 0.01> <Spt= 0.00> <nCl=  0> <DB=   40.0000> <Mlp=   40.0000> <PB=1000000> 
---- Diving heuristic node with dive number = 0, fix depth = 1 and tabu list size = 0
Fixed projected solution = [x_1_0_1_OspV=1, x_1_11_1_OspV=1, x_1_65_1_OspV=1, x_1_100_1_OspV=1]
<DWph=2> <it=  1> <et=2.95> <Mt= 0.00> <Spt= 0.00> <nCl=  0> <DB=   40.0000> <Mlp=   40.0000> <PB=1000000> 
<DWph=1> <it=  2> <et=2.95> <Mt= 0.00> <Spt= 0.00> <nCl=  0> <DB=   40.0000> <Mlp=   40.0000> <PB=1000000> 
---- Diving heuristic node with dive number = 0, fix depth = 2 and tabu list size = 0
Fixed projected solution = [x_1_0_1_OspV=1, x_1_9_1_OspV=1, x_1_72_1_OspV=1, x_1_93_1_OspV=1]
<DWph=2> <it=  1> <et=2.97> <Mt= 0.00> <Spt= 0.00> <nCl=  0> <DB=   40.0000> <Mlp=   40.0000> <PB=1000000> 
<DWph=1> <it=  2> <et=2.97> <Mt= 0.00> <Spt= 0.00> <nCl=  0> <DB=   40.0000> <Mlp=   40.0000> <PB=1000000> 
---- Diving heuristic node with dive number = 0, fix depth = 3 and tabu list size = 0
Fixed projected solution = [x_1_0_1_OspV=1, x_1_1_1_OspV=1, x_1_82_1_OspV=1, x_1_88_1_OspV=1]
<DWph=2> <it=  1> <et=2.97> <Mt= 0.00> <Spt= 0.00> <nCl=  0> <DB=   40.0000> <Mlp=   40.0000> <PB=1000000> 
<DWph=1> <it=  2> <et=2.98> <Mt= 0.00> <Spt= 0.00> <nCl=  0> <DB=   40.0000> <Mlp=   40.0000> <PB=1000000> 
---- Diving heuristic node with dive number = 0, fix depth = 4 and tabu list size = 0
Fixed projected solution = [x_1_0_1_OspV=1, x_1_29_1_OspV=1, x_1_73_1_OspV=1, x_1_90_1_OspV=1]
<DWph=2> <it=  1> <et=2.98> <Mt= 0.00> <Spt= 0.00> <nCl=  0> <DB=   40.0000> <Mlp=   40.0000> <PB=1000000> 
<DWph=1> <it=  2> <et=2.98> <Mt= 0.00> <Spt= 0.00> <nCl=  0> <DB=   40.0000> <Mlp=   40.0000> <PB=1000000> 
---- Diving heuristic node with dive number = 0, fix depth = 5 and tabu list size = 0
Fixed projected solution = [x_1_0_1_OspV=1, x_1_3_1_OspV=1, x_1_26_1_OspV=1, x_1_118_1_OspV=1]
<DWph=2> <it=  2> <et=3.03> <Mt= 0.01> <Spt= 0.04> <nCl=100> <DB=   39.9332> <Mlp=   40.0000> <PB=1000000> 
<DWph=1> <it=  3> <et=3.03> <Mt= 0.00> <Spt= 0.00> <nCl=  0> <DB=   40.0000> <Mlp=   40.0000> <PB=1000000> 
---- Diving heuristic node with dive number = 0, fix depth = 6 and tabu list size = 0
Fixed projected solution = [x_1_0_1_OspV=1, x_1_2_1_OspV=1, x_1_19_1_OspV=1, x_1_119_1_OspV=1]
<DWph=2> <it=  1> <et=3.03> <Mt= 0.00> <Spt= 0.00> <nCl=  0> <DB=   40.0000> <Mlp=   40.0000> <PB=1000000> 
<DWph=1> <it=  2> <et=3.03> <Mt= 0.00> <Spt= 0.00> <nCl=  0> <DB=   40.0000> <Mlp=   40.0000> <PB=1000000> 
---- Diving heuristic node with dive number = 0, fix depth = 7 and tabu list size = 0
Fixed projected solution = [x_1_0_1_OspV=1, x_1_14_1_OspV=1, x_1_67_1_OspV=1, x_1_98_1_OspV=1]
<DWph=2> <it=  1> <et=3.04> <Mt= 0.00> <Spt= 0.00> <nCl=  0> <DB=   40.0000> <Mlp=   40.0000> <PB=1000000> 
<DWph=1> <it=  2> <et=3.04> <Mt= 0.00> <Spt= 0.00> <nCl=  0> <DB=   40.0000> <Mlp=   40.0000> <PB=1000000> 
---- Diving heuristic node with dive number = 0, fix depth = 8 and tabu list size = 0
Fixed projected solution = [x_1_0_1_OspV=1, x_1_36_1_OspV=1, x_1_46_1_OspV=1, x_1_108_1_OspV=1]
<DWph=2> <it=  1> <et=3.04> <Mt= 0.00> <Spt= 0.00> <nCl=  0> <DB=   40.0000> <Mlp=   40.0000> <PB=1000000> 
<DWph=1> <it=  2> <et=3.04> <Mt= 0.00> <Spt= 0.00> <nCl=  0> <DB=   40.0000> <Mlp=   40.0000> <PB=1000000> 
---- Diving heuristic node with dive number = 0, fix depth = 8 and tabu list size = 0
Fixed projected solution = [x_1_0_1_OspV=1, x_1_40_1_OspV=1, x_1_44_1_OspV=1, x_1_106_1_OspV=1]
<DWph=2> <it=  1> <et=3.05> <Mt= 0.01> <Spt= 0.00> <nCl=  0> <DB=   40.0000> <Mlp=   40.0000> <PB=1000000> 
<DWph=1> <it=  2> <et=3.05> <Mt= 0.00> <Spt= 0.00> <nCl=  0> <DB=   40.0000> <Mlp=   40.0000> <PB=1000000> 
---- Diving heuristic node with dive number = 0, fix depth = 9 and tabu list size = 0
Fixed projected solution = [x_1_0_1_OspV=1, x_1_17_1_OspV=1, x_1_35_1_OspV=1, x_1_114_1_OspV=1]
<DWph=2> <it=  1> <et=3.05> <Mt= 0.00> <Spt= 0.00> <nCl=  0> <DB=   40.0000> <Mlp=   40.0000> <PB=1000000> 
<DWph=1> <it=  2> <et=3.05> <Mt= 0.00> <Spt= 0.00> <nCl=  0> <DB=   40.0000> <Mlp=   40.0000> <PB=1000000> 
---- Diving heuristic node with dive number = 0, fix depth = 10 and tabu list size = 0
Fixed projected solution = [x_1_0_1_OspV=1, x_1_21_1_OspV=1, x_1_81_1_OspV=1, x_1_84_1_OspV=1]
<DWph=2> <it=  1> <et=3.06> <Mt= 0.00> <Spt= 0.00> <nCl=  0> <DB=   40.0000> <Mlp=   40.0000> <PB=1000000> 
<DWph=1> <it=  2> <et=3.06> <Mt= 0.00> <Spt= 0.00> <nCl=  0> <DB=   40.0000> <Mlp=   40.0000> <PB=1000000> 
---- Diving heuristic node with dive number = 0, fix depth = 11 and tabu list size = 0
Fixed projected solution = [x_1_0_1_OspV=1, x_1_61_1_OspV=1, x_1_63_1_OspV=1, x_1_79_1_OspV=1]
<DWph=2> <it=  1> <et=3.06> <Mt= 0.00> <Spt= 0.00> <nCl=  0> <DB=   40.0000> <Mlp=   40.0000> <PB=1000000> 
<DWph=1> <it=  2> <et=3.06> <Mt= 0.01> <Spt= 0.00> <nCl=  0> <DB=   40.0000> <Mlp=   40.0000> <PB=1000000> 
---- Diving heuristic node with dive number = 0, fix depth = 11 and tabu list size = 0
Fixed projected solution = [x_1_0_1_OspV=1, x_1_5_1_OspV=1, x_1_77_1_OspV=1, x_1_91_1_OspV=1]
<DWph=2> <it=  1> <et=3.06> <Mt= 0.00> <Spt= 0.00> <nCl=  0> <DB=   40.0000> <Mlp=   40.0000> <PB=1000000> 
<DWph=1> <it=  2> <et=3.07> <Mt= 0.00> <Spt= 0.00> <nCl=  0> <DB=   40.0000> <Mlp=   40.0000> <PB=1000000> 
---- Diving heuristic node with dive number = 0, fix depth = 12 and tabu list size = 0
Fixed projected solution = [x_1_0_1_OspV=1, x_1_22_1_OspV=1, x_1_45_1_OspV=1, x_1_112_1_OspV=1]
<DWph=2> <it=  1> <et=3.07> <Mt= 0.00> <Spt= 0.00> <nCl=  0> <DB=   40.0000> <Mlp=   40.0000> <PB=1000000> 
<DWph=1> <it=  2> <et=3.07> <Mt= 0.00> <Spt= 0.00> <nCl=  0> <DB=   40.0000> <Mlp=   40.0000> <PB=1000000> 
---- Diving heuristic node with dive number = 0, fix depth = 13 and tabu list size = 0
Fixed projected solution = [x_1_0_1_OspV=1, x_1_18_1_OspV=1, x_1_64_1_OspV=1, x_1_99_1_OspV=1]
<DWph=2> <it=  1> <et=3.07> <Mt= 0.00> <Spt= 0.00> <nCl=  0> <DB=   40.0000> <Mlp=   40.0000> <PB=1000000> 
<DWph=1> <it=  2> <et=3.07> <Mt= 0.00> <Spt= 0.00> <nCl=  0> <DB=   40.0000> <Mlp=   40.0000> <PB=1000000> 
---- Diving heuristic node with dive number = 0, fix depth = 14 and tabu list size = 0
Fixed projected solution = [x_1_0_1_OspV=1, x_1_28_1_OspV=1, x_1_53_1_OspV=1, x_1_107_1_OspV=1]
<DWph=2> <it=  1> <et=3.08> <Mt= 0.01> <Spt= 0.00> <nCl=  0> <DB=   40.0000> <Mlp=   40.0000> <PB=1000000> 
<DWph=1> <it=  2> <et=3.08> <Mt= 0.00> <Spt= 0.00> <nCl=  0> <DB=   40.0000> <Mlp=   40.0000> <PB=1000000> 
---- Diving heuristic node with dive number = 0, fix depth = 15 and tabu list size = 0
Fixed projected solution = [x_1_0_1_OspV=1, x_1_55_1_OspV=1, x_1_68_1_OspV=1, x_1_86_1_OspV=1]
<DWph=2> <it=  1> <et=3.08> <Mt= 0.00> <Spt= 0.00> <nCl=  0> <DB=   40.0000> <Mlp=   40.0000> <PB=1000000> 
<DWph=1> <it=  2> <et=3.09> <Mt= 0.00> <Spt= 0.00> <nCl=  0> <DB=   40.0000> <Mlp=   40.0000> <PB=1000000> 
---- Diving heuristic node with dive number = 0, fix depth = 16 and tabu list size = 0
Fixed projected solution = [x_1_0_1_OspV=1, x_1_7_1_OspV=1, x_1_10_1_OspV=1, x_1_120_1_OspV=1]
<DWph=2> <it=  2> <et=3.13> <Mt= 0.01> <Spt= 0.04> <nCl=100> <DB=   39.4799> <Mlp=   40.0000> <PB=1000000> 
<DWph=1> <it=  3> <et=3.13> <Mt= 0.00> <Spt= 0.00> <nCl=  0> <DB=   40.0000> <Mlp=   40.0000> <PB=1000000> 
---- Diving heuristic node with dive number = 0, fix depth = 16 and tabu list size = 0
Fixed projected solution = [x_1_0_1_OspV=1, x_1_4_1_OspV=1, x_1_37_1_OspV=1, x_1_116_1_OspV=1]
<DWph=2> <it=  1> <et=3.13> <Mt= 0.00> <Spt= 0.00> <nCl=  0> <DB=   40.0000> <Mlp=   40.0000> <PB=1000000> 
<DWph=1> <it=  2> <et=3.13> <Mt= 0.00> <Spt= 0.00> <nCl=  0> <DB=   40.0000> <Mlp=   40.0000> <PB=1000000> 
---- Diving heuristic node with dive number = 0, fix depth = 17 and tabu list size = 0
Fixed projected solution = [x_1_0_1_OspV=1, x_1_6_1_OspV=1, x_1_74_1_OspV=1, x_1_92_1_OspV=1]
<DWph=2> <it=  2> <et=3.17> <Mt= 0.00> <Spt= 0.03> <nCl=100> <DB=   39.9127> <Mlp=   40.0000> <PB=1000000> 
<DWph=1> <it=  3> <et=3.17> <Mt= 0.01> <Spt= 0.00> <nCl=  0> <DB=   40.0000> <Mlp=   40.0000> <PB=1000000> 
---- Diving heuristic node with dive number = 0, fix depth = 18 and tabu list size = 0
Fixed projected solution = [x_1_0_1_OspV=1, x_1_16_1_OspV=1, x_1_70_1_OspV=1, x_1_96_1_OspV=1]
<DWph=2> <it=  1> <et=3.18> <Mt= 0.00> <Spt= 0.00> <nCl=  0> <DB=   40.0000> <Mlp=   40.0000> <PB=1000000> 
<DWph=1> <it=  2> <et=3.18> <Mt= 0.00> <Spt= 0.00> <nCl=  0> <DB=   40.0000> <Mlp=   40.0000> <PB=1000000> 
---- Diving heuristic node with dive number = 0, fix depth = 19 and tabu list size = 0
Fixed projected solution = [x_1_0_1_OspV=1, x_1_39_1_OspV=1, x_1_41_1_OspV=1, x_1_109_1_OspV=1]
<DWph=2> <it=  7> <et=3.53> <Mt= 0.01> <Spt= 0.32> <nCl=319> <DB=   40.0001> <Mlp=   40.0001> <PB=1000000> 
<DWph=1> <it=  8> <et=3.59> <Mt= 0.01> <Spt= 0.06> <nCl=  0> <DB=   40.0001> <Mlp=   40.0001> <PB=1000000> 
---- Diving heuristic node with dive number = 0, fix depth = 20 and tabu list size = 0
Fixed projected solution = [x_1_0_1_OspV=1, x_1_13_1_OspV=1, x_1_80_1_OspV=1, x_1_85_1_OspV=1]
<DWph=2> <it=  2> <et=3.71> <Mt= 0.00> <Spt= 0.12> <nCl= 78> <DB=   40.0004> <Mlp=   40.0004> <PB=1000000> 
<DWph=1> <it=  3> <et=3.77> <Mt= 0.00> <Spt= 0.06> <nCl=  0> <DB=   40.0004> <Mlp=   40.0004> <PB=1000000> 
---- Diving heuristic node with dive number = 0, fix depth = 21 and tabu list size = 0
Fixed projected solution = [x_1_0_1_OspV=1, x_1_8_1_OspV=1, x_1_23_1_OspV=1, x_1_117_1_OspV=1]
<DWph=2> <it=  4> <et=4.02> <Mt= 0.01> <Spt= 0.24> <nCl= 29> <DB=   40.0005> <Mlp=   40.0005> <PB=1000000> 
<DWph=1> <it=  5> <et=4.08> <Mt= 0.00> <Spt= 0.05> <nCl=  0> <DB=   40.0005> <Mlp=   40.0005> <PB=1000000> 
---- Diving heuristic node with dive number = 0, fix depth = 22 and tabu list size = 0
Fixed projected solution = [x_1_0_1_OspV=1, x_1_42_1_OspV=1, x_1_48_1_OspV=1, x_1_105_1_OspV=1]
<DWph=2> <it=  3> <et=4.24> <Mt= 0.01> <Spt= 0.15> <nCl= 42> <DB=   40.0006> <Mlp=   40.0006> <PB=1000000> 
<DWph=1> <it=  4> <et=4.30> <Mt= 0.00> <Spt= 0.06> <nCl=  0> <DB=   40.0006> <Mlp=   40.0006> <PB=1000000> 
---- Diving heuristic node with dive number = 0, fix depth = 23 and tabu list size = 0
Fixed projected solution = [x_1_0_1_OspV=1, x_1_32_1_OspV=1, x_1_58_1_OspV=1, x_1_103_1_OspV=1]
<DWph=2> <it=  4> <et=4.52> <Mt= 0.00> <Spt= 0.20> <nCl= 38> <DB=   40.0008> <Mlp=   40.0008> <PB=1000000> 
<DWph=1> <it=  5> <et=4.58> <Mt= 0.01> <Spt= 0.06> <nCl=  0> <DB=   40.0008> <Mlp=   40.0008> <PB=1000000> 
---- Diving heuristic node with dive number = 0, fix depth = 24 and tabu list size = 0
Fixed projected solution = [x_1_0_1_OspV=1, x_1_49_1_OspV=1, x_1_60_1_OspV=1, x_1_94_1_OspV=1]
<DWph=2> <it=  4> <et=4.77> <Mt= 0.01> <Spt= 0.18> <nCl=130> <DB=   40.0017> <Mlp=   40.0017> <PB=1000000> 
<DWph=1> <it=  5> <et=4.83> <Mt= 0.00> <Spt= 0.06> <nCl=  0> <DB=   40.0017> <Mlp=   40.0017> <PB=1000000> 
---- Diving heuristic node with dive number = 0, fix depth = 25 and tabu list size = 0
Fixed projected solution = [x_1_0_1_OspV=1, x_1_20_1_OspV=1, x_1_75_1_OspV=1, x_1_89_1_OspV=1]
<DWph=2> <it=  4> <et=5.02> <Mt= 0.01> <Spt= 0.17> <nCl= 98> <DB=   40.0022> <Mlp=   40.0022> <PB=1000000> 
<DWph=1> <it=  5> <et=5.08> <Mt= 0.00> <Spt= 0.06> <nCl=  0> <DB=   40.0022> <Mlp=   40.0022> <PB=1000000> 
---- Diving heuristic node with dive number = 0, fix depth = 26 and tabu list size = 0
Fixed projected solution = [x_1_0_1_OspV=1, x_1_31_1_OspV=1, x_1_34_1_OspV=1, x_1_113_1_OspV=1]
<DWph=2> <it=  2> <et=5.21> <Mt= 0.00> <Spt= 0.12> <nCl=  2> <DB=   40.0024> <Mlp=   40.0024> <PB=1000000> 
<DWph=1> <it=  3> <et=5.27> <Mt= 0.00> <Spt= 0.05> <nCl=  0> <DB=   40.0024> <Mlp=   40.0024> <PB=1000000> 
---- Diving heuristic node with dive number = 0, fix depth = 27 and tabu list size = 0
Fixed projected solution = [x_1_0_1_OspV=1, x_1_12_1_OspV=1, x_1_33_1_OspV=1, x_1_115_1_OspV=1]
<DWph=2> <it=  3> <et=5.43> <Mt= 0.01> <Spt= 0.15> <nCl= 24> <DB=   40.0038> <Mlp=   40.0038> <PB=1000000> 
<DWph=1> <it=  4> <et=5.48> <Mt= 0.00> <Spt= 0.06> <nCl=  0> <DB=   40.0038> <Mlp=   40.0038> <PB=1000000> 
---- Diving heuristic node with dive number = 0, fix depth = 28 and tabu list size = 0
Fixed projected solution = [x_1_0_1_OspV=1, x_1_38_1_OspV=1, x_1_56_1_OspV=1, x_1_101_1_OspV=1]
<DWph=2> <it=  5> <et=5.74> <Mt= 0.02> <Spt= 0.23> <nCl=204> <DB=   40.0042> <Mlp=   40.0042> <PB=1000000> 
<DWph=1> <it=  6> <et=5.80> <Mt= 0.00> <Spt= 0.06> <nCl=  0> <DB=   40.0042> <Mlp=   40.0042> <PB=1000000> 
---- Diving heuristic node with dive number = 0, fix depth = 29 and tabu list size = 0
Fixed projected solution = [x_1_0_1_OspV=1, x_1_52_1_OspV=1, x_1_69_1_OspV=1, x_1_87_1_OspV=1]
<DWph=2> <it=  5> <et=6.05> <Mt= 0.02> <Spt= 0.23> <nCl=100> <DB=   40.0071> <Mlp=   40.0071> <PB=1000000> 
<DWph=1> <it=  6> <et=6.11> <Mt= 0.00> <Spt= 0.05> <nCl=  0> <DB=   40.0071> <Mlp=   40.0071> <PB=1000000> 
---- Diving heuristic node with dive number = 0, fix depth = 29 and tabu list size = 0
Fixed projected solution = [x_1_0_1_OspV=1, x_1_27_1_OspV=1, x_1_59_1_OspV=1, x_1_104_1_OspV=1]
<DWph=2> <it=  1> <et=6.17> <Mt= 0.00> <Spt= 0.06> <nCl=  0> <DB=   40.0071> <Mlp=   40.0071> <PB=1000000> 
<DWph=1> <it=  2> <et=6.23> <Mt= 0.00> <Spt= 0.06> <nCl=  0> <DB=   40.0071> <Mlp=   40.0071> <PB=1000000> 
---- Diving heuristic node with dive number = 0, fix depth = 30 and tabu list size = 0
Fixed projected solution = [x_1_0_1_OspV=1, x_1_43_1_OspV=1, x_1_51_1_OspV=1, x_1_102_1_OspV=1]
<DWph=2> <it=  7> <et=6.55> <Mt= 0.03> <Spt= 0.28> <nCl=276> <DB=   40.0169> <Mlp=   40.0169> <PB=1000000> 
<DWph=1> <it=  8> <et=6.64> <Mt= 0.00> <Spt= 0.09> <nCl=  0> <DB=   40.0169> <Mlp=   40.0169> <PB=1000000> 
---- Diving heuristic node with dive number = 0, fix depth = 31 and tabu list size = 0
Fixed projected solution = [x_1_0_1_OspV=1, x_1_15_1_OspV=1, x_1_71_1_OspV=1, x_1_95_1_OspV=1]
<DWph=2> <it=  4> <et=6.84> <Mt= 0.02> <Spt= 0.17> <nCl=154> <DB=   40.0769> <Mlp=   40.0769> <PB=1000000> 
<DWph=1> <it=  5> <et=6.93> <Mt= 0.01> <Spt= 0.08> <nCl=  0> <DB=   40.0769> <Mlp=   40.0769> <PB=1000000> 
---- Diving heuristic node with dive number = 0, fix depth = 32 and tabu list size = 0
Fixed projected solution = [x_1_0_1_OspV=1, x_1_30_1_OspV=1, x_1_47_1_OspV=1, x_1_111_1_OspV=1]
<DWph=2> <it=  2> <et=7.06> <Mt= 0.01> <Spt= 0.12> <nCl=  8> <DB=   40.1429> <Mlp=   40.1429> <PB=1000000> 
<DWph=1> <it=  3> <et=7.12> <Mt= 0.00> <Spt= 0.06> <nCl=  0> <DB=   40.1429> <Mlp=   40.1429> <PB=1000000> 
---- Diving heuristic node with dive number = 0, fix depth = 32 and tabu list size = 0
Fixed projected solution = [x_1_0_1_OspV=1, x_1_54_1_OspV=1, x_1_57_1_OspV=1, x_1_83_1_OspV=1]
<DWph=2> <it=  1> <et=7.18> <Mt= 0.00> <Spt= 0.05> <nCl=  0> <DB=   40.1429> <Mlp=   40.1429> <PB=1000000> 
<DWph=1> <it=  2> <et=7.24> <Mt= 0.00> <Spt= 0.06> <nCl=  0> <DB=   40.1429> <Mlp=   40.1429> <PB=1000000> 
---- Diving heuristic node with dive number = 0, fix depth = 33 and tabu list size = 0
Fixed projected solution = [x_1_0_1_OspV=1, x_1_24_1_OspV=1, x_1_66_1_OspV=1, x_1_97_1_OspV=1]
<DWph=2> <it=  5> <et=7.47> <Mt= 0.02> <Spt= 0.20> <nCl=276> <DB=   41.0000> <Mlp=   41.0000> <PB=41> 
<DWph=1> <it=  6> <et=7.55> <Mt= 0.00> <Spt= 0.09> <nCl=  0> <DB=   41.0000> <Mlp=   41.0000> <PB=41> 
---- Diving heuristic node with dive number = 1, fix depth = 2 and tabu list size = 1
Fixed projected solution = [x_1_0_1_OspV=1, x_1_1_1_OspV=1, x_1_82_1_OspV=1, x_1_88_1_OspV=1]
<DWph=2> <it=  1> <et=7.63> <Mt= 0.00> <Spt= 0.00> <nCl=  0> <DB=   40.0000> <Mlp=   40.0000> <PB=41> 
<DWph=1> <it=  2> <et=7.63> <Mt= 0.00> <Spt= 0.00> <nCl=  0> <DB=   40.0000> <Mlp=   40.0000> <PB=41> 
---- Diving heuristic node with dive number = 1, fix depth = 3 and tabu list size = 1
Fixed projected solution = [x_1_0_1_OspV=1, x_1_29_1_OspV=1, x_1_73_1_OspV=1, x_1_90_1_OspV=1]
<DWph=2> <it=  1> <et=7.64> <Mt= 0.00> <Spt= 0.00> <nCl=  0> <DB=   40.0000> <Mlp=   40.0000> <PB=41> 
<DWph=1> <it=  2> <et=7.64> <Mt= 0.00> <Spt= 0.00> <nCl=  0> <DB=   40.0000> <Mlp=   40.0000> <PB=41> 
---- Diving heuristic node with dive number = 1, fix depth = 4 and tabu list size = 1
Fixed projected solution = [x_1_0_1_OspV=1, x_1_3_1_OspV=1, x_1_26_1_OspV=1, x_1_118_1_OspV=1]
<DWph=2> <it=  1> <et=7.64> <Mt= 0.00> <Spt= 0.00> <nCl=  0> <DB=   40.0000> <Mlp=   40.0000> <PB=41> 
<DWph=1> <it=  2> <et=7.64> <Mt= 0.00> <Spt= 0.00> <nCl=  0> <DB=   40.0000> <Mlp=   40.0000> <PB=41> 
---- Diving heuristic node with dive number = 1, fix depth = 5 and tabu list size = 1
Fixed projected solution = [x_1_0_1_OspV=1, x_1_2_1_OspV=1, x_1_19_1_OspV=1, x_1_119_1_OspV=1]
<DWph=2> <it=  2> <et=7.69> <Mt= 0.01> <Spt= 0.03> <nCl=100> <DB=   39.9258> <Mlp=   40.0000> <PB=41> 
<DWph=1> <it=  3> <et=7.69> <Mt= 0.00> <Spt= 0.00> <nCl=  0> <DB=   40.0000> <Mlp=   40.0000> <PB=41> 
---- Diving heuristic node with dive number = 1, fix depth = 5 and tabu list size = 1
Fixed projected solution = [x_1_0_1_OspV=1, x_1_9_1_OspV=1, x_1_72_1_OspV=1, x_1_93_1_OspV=1]
<DWph=2> <it=  1> <et=7.69> <Mt= 0.00> <Spt= 0.00> <nCl=  0> <DB=   40.0000> <Mlp=   40.0000> <PB=41> 
<DWph=1> <it=  2> <et=7.69> <Mt= 0.00> <Spt= 0.00> <nCl=  0> <DB=   40.0000> <Mlp=   40.0000> <PB=41> 
---- Diving heuristic node with dive number = 1, fix depth = 6 and tabu list size = 1
Fixed projected solution = [x_1_0_1_OspV=1, x_1_14_1_OspV=1, x_1_67_1_OspV=1, x_1_98_1_OspV=1]
<DWph=2> <it=  1> <et=7.70> <Mt= 0.00> <Spt= 0.00> <nCl=  0> <DB=   40.0000> <Mlp=   40.0000> <PB=41> 
<DWph=1> <it=  2> <et=7.70> <Mt= 0.00> <Spt= 0.00> <nCl=  0> <DB=   40.0000> <Mlp=   40.0000> <PB=41> 
---- Diving heuristic node with dive number = 1, fix depth = 7 and tabu list size = 1
Fixed projected solution = [x_1_0_1_OspV=1, x_1_17_1_OspV=1, x_1_35_1_OspV=1, x_1_114_1_OspV=1]
<DWph=2> <it=  1> <et=7.70> <Mt= 0.01> <Spt= 0.00> <nCl=  0> <DB=   40.0000> <Mlp=   40.0000> <PB=41> 
<DWph=1> <it=  2> <et=7.71> <Mt= 0.00> <Spt= 0.00> <nCl=  0> <DB=   40.0000> <Mlp=   40.0000> <PB=41> 
---- Diving heuristic node with dive number = 1, fix depth = 8 and tabu list size = 1
Fixed projected solution = [x_1_0_1_OspV=1, x_1_8_1_OspV=1, x_1_47_1_OspV=1, x_1_113_1_OspV=1]
<DWph=2> <it=  1> <et=7.71> <Mt= 0.00> <Spt= 0.00> <nCl=  0> <DB=   40.0000> <Mlp=   40.0000> <PB=41> 
<DWph=1> <it=  2> <et=7.71> <Mt= 0.00> <Spt= 0.00> <nCl=  0> <DB=   40.0000> <Mlp=   40.0000> <PB=41> 
---- Diving heuristic node with dive number = 1, fix depth = 9 and tabu list size = 1
Fixed projected solution = [x_1_0_1_OspV=1, x_1_36_1_OspV=1, x_1_46_1_OspV=1, x_1_108_1_OspV=1]
<DWph=2> <it=  1> <et=7.72> <Mt= 0.00> <Spt= 0.00> <nCl=  0> <DB=   40.0000> <Mlp=   40.0000> <PB=41> 
<DWph=1> <it=  2> <et=7.72> <Mt= 0.00> <Spt= 0.00> <nCl=  0> <DB=   40.0000> <Mlp=   40.0000> <PB=41> 
---- Diving heuristic node with dive number = 1, fix depth = 9 and tabu list size = 1
Fixed projected solution = [x_1_0_1_OspV=1, x_1_22_1_OspV=1, x_1_45_1_OspV=1, x_1_112_1_OspV=1]
<DWph=2> <it=  1> <et=7.72> <Mt= 0.00> <Spt= 0.00> <nCl=  0> <DB=   40.0000> <Mlp=   40.0000> <PB=41> 
<DWph=1> <it=  2> <et=7.72> <Mt= 0.00> <Spt= 0.00> <nCl=  0> <DB=   40.0000> <Mlp=   40.0000> <PB=41> 
---- Diving heuristic node with dive number = 1, fix depth = 9 and tabu list size = 1
Fixed projected solution = [x_1_0_1_OspV=1, x_1_40_1_OspV=1, x_1_44_1_OspV=1, x_1_106_1_OspV=1]
<DWph=2> <it=  1> <et=7.72> <Mt= 0.00> <Spt= 0.00> <nCl=  0> <DB=   40.0000> <Mlp=   40.0000> <PB=41> 
<DWph=1> <it=  2> <et=7.73> <Mt= 0.00> <Spt= 0.00> <nCl=  0> <DB=   40.0000> <Mlp=   40.0000> <PB=41> 
---- Diving heuristic node with dive number = 1, fix depth = 10 and tabu list size = 1
Fixed projected solution = [x_1_0_1_OspV=1, x_1_43_1_OspV=1, x_1_49_1_OspV=1, x_1_103_1_OspV=1]
<DWph=2> <it=  1> <et=7.73> <Mt= 0.01> <Spt= 0.00> <nCl=  0> <DB=   40.0000> <Mlp=   40.0000> <PB=41> 
<DWph=1> <it=  2> <et=7.73> <Mt= 0.00> <Spt= 0.00> <nCl=  0> <DB=   40.0000> <Mlp=   40.0000> <PB=41> 
---- Diving heuristic node with dive number = 1, fix depth = 11 and tabu list size = 1
Fixed projected solution = [x_1_0_1_OspV=1, x_1_28_1_OspV=1, x_1_53_1_OspV=1, x_1_107_1_OspV=1]
<DWph=2> <it=  1> <et=7.74> <Mt= 0.00> <Spt= 0.00> <nCl=  0> <DB=   40.0000> <Mlp=   40.0000> <PB=41> 
<DWph=1> <it=  2> <et=7.74> <Mt= 0.00> <Spt= 0.00> <nCl=  0> <DB=   40.0000> <Mlp=   40.0000> <PB=41> 
---- Diving heuristic node with dive number = 1, fix depth = 12 and tabu list size = 1
Fixed projected solution = [x_1_0_1_OspV=1, x_1_16_1_OspV=1, x_1_71_1_OspV=1, x_1_96_1_OspV=1]
<DWph=2> <it=  1> <et=7.74> <Mt= 0.00> <Spt= 0.00> <nCl=  0> <DB=   40.0000> <Mlp=   40.0000> <PB=41> 
<DWph=1> <it=  2> <et=7.74> <Mt= 0.00> <Spt= 0.00> <nCl=  0> <DB=   40.0000> <Mlp=   40.0000> <PB=41> 
---- Diving heuristic node with dive number = 1, fix depth = 13 and tabu list size = 1
Fixed projected solution = [x_1_0_1_OspV=1, x_1_13_1_OspV=1, x_1_15_1_OspV=1, x_1_117_1_OspV=1]
<DWph=2> <it=  2> <et=7.79> <Mt= 0.01> <Spt= 0.04> <nCl=100> <DB=   39.7709> <Mlp=   40.0000> <PB=41> 
<DWph=1> <it=  3> <et=7.79> <Mt= 0.00> <Spt= 0.00> <nCl=  0> <DB=   40.0000> <Mlp=   40.0000> <PB=41> 
---- Diving heuristic node with dive number = 1, fix depth = 14 and tabu list size = 1
Fixed projected solution = [x_1_0_1_OspV=1, x_1_23_1_OspV=1, x_1_60_1_OspV=1, x_1_102_1_OspV=1]
<DWph=2> <it=  1> <et=7.79> <Mt= 0.00> <Spt= 0.00> <nCl=  0> <DB=   40.0000> <Mlp=   40.0000> <PB=41> 
<DWph=1> <it=  2> <et=7.80> <Mt= 0.00> <Spt= 0.00> <nCl=  0> <DB=   40.0000> <Mlp=   40.0000> <PB=41> 
---- Diving heuristic node with dive number = 1, fix depth = 15 and tabu list size = 1
Fixed projected solution = [x_1_0_1_OspV=1, x_1_59_1_OspV=1, x_1_61_1_OspV=1, x_1_89_1_OspV=1]
<DWph=2> <it=  3> <et=7.88> <Mt= 0.01> <Spt= 0.06> <nCl=200> <DB=   39.9506> <Mlp=   40.0000> <PB=41> 
<DWph=1> <it=  4> <et=7.88> <Mt= 0.00> <Spt= 0.00> <nCl=  0> <DB=   40.0000> <Mlp=   40.0000> <PB=41> 
---- Diving heuristic node with dive number = 1, fix depth = 16 and tabu list size = 1
Fixed projected solution = [x_1_0_1_OspV=1, x_1_62_1_OspV=1, x_1_63_1_OspV=1, x_1_78_1_OspV=1]
<DWph=2> <it=  1> <et=7.89> <Mt= 0.01> <Spt= 0.00> <nCl=  0> <DB=   40.0000> <Mlp=   40.0000> <PB=41> 
<DWph=1> <it=  2> <et=7.89> <Mt= 0.00> <Spt= 0.00> <nCl=  0> <DB=   40.0000> <Mlp=   40.0000> <PB=41> 
---- Diving heuristic node with dive number = 1, fix depth = 17 and tabu list size = 1
Fixed projected solution = [x_1_0_1_OspV=1, x_1_57_1_OspV=1, x_1_58_1_OspV=1, x_1_94_1_OspV=1]
<DWph=2> <it=  2> <et=7.93> <Mt= 0.01> <Spt= 0.04> <nCl=100> <DB=   39.9211> <Mlp=   40.0000> <PB=41> 
<DWph=1> <it=  3> <et=7.93> <Mt= 0.00> <Spt= 0.00> <nCl=  0> <DB=   40.0000> <Mlp=   40.0000> <PB=41> 
---- Diving heuristic node with dive number = 1, fix depth = 18 and tabu list size = 1
Fixed projected solution = [x_1_0_1_OspV=1, x_1_33_1_OspV=1, x_1_66_1_OspV=1, x_1_95_1_OspV=1]
<DWph=2> <it=  1> <et=7.94> <Mt= 0.00> <Spt= 0.00> <nCl=  0> <DB=   40.0000> <Mlp=   40.0000> <PB=41> 
<DWph=1> <it=  2> <et=7.94> <Mt= 0.00> <Spt= 0.00> <nCl=  0> <DB=   40.0000> <Mlp=   40.0000> <PB=41> 
---- Diving heuristic node with dive number = 1, fix depth = 19 and tabu list size = 1
Fixed projected solution = [x_1_0_1_OspV=1, x_1_18_1_OspV=1, x_1_52_1_OspV=1, x_1_111_1_OspV=1]
<DWph=2> <it=  5> <et=8.25> <Mt= 0.01> <Spt= 0.29> <nCl=182> <DB=   40.0001> <Mlp=   40.0001> <PB=41> 
<DWph=1> <it=  6> <et=8.35> <Mt= 0.00> <Spt= 0.10> <nCl=  0> <DB=   40.0001> <Mlp=   40.0001> <PB=41> 
---- Diving heuristic node with dive number = 1, fix depth = 19 and tabu list size = 1
Fixed projected solution = [x_1_0_1_OspV=1, x_1_31_1_OspV=1, x_1_64_1_OspV=1, x_1_97_1_OspV=1]
<DWph=2> <it=  1> <et=8.42> <Mt= 0.01> <Spt= 0.06> <nCl=  0> <DB=   40.0001> <Mlp=   40.0001> <PB=41> 
<DWph=1> <it=  2> <et=8.49> <Mt= 0.00> <Spt= 0.07> <nCl=  0> <DB=   40.0001> <Mlp=   40.0001> <PB=41> 
---- Diving heuristic node with dive number = 1, fix depth = 20 and tabu list size = 1
Fixed projected solution = [x_1_0_1_OspV=1, x_1_42_1_OspV=1, x_1_48_1_OspV=1, x_1_105_1_OspV=1]
<DWph=2> <it=  2> <et=8.63> <Mt= 0.00> <Spt= 0.13> <nCl= 15> <DB=   40.0002> <Mlp=   40.0002> <PB=41> 
<DWph=1> <it=  3> <et=8.70> <Mt= 0.00> <Spt= 0.06> <nCl=  0> <DB=   40.0002> <Mlp=   40.0002> <PB=41> 
---- Diving heuristic node with dive number = 1, fix depth = 21 and tabu list size = 1
Fixed projected solution = [x_1_0_1_OspV=1, x_1_34_1_OspV=1, x_1_75_1_OspV=1, x_1_84_1_OspV=1]
<DWph=2> <it=  4> <et=8.92> <Mt= 0.01> <Spt= 0.20> <nCl= 38> <DB=   40.0003> <Mlp=   40.0003> <PB=41> 
<DWph=1> <it=  5> <et=8.98> <Mt= 0.01> <Spt= 0.07> <nCl=  0> <DB=   40.0003> <Mlp=   40.0003> <PB=41> 
---- Diving heuristic node with dive number = 1, fix depth = 22 and tabu list size = 1
Fixed projected solution = [x_1_0_1_OspV=1, x_1_32_1_OspV=1, x_1_70_1_OspV=1, x_1_92_1_OspV=1]
<DWph=2> <it= 10> <et=9.45> <Mt= 0.03> <Spt= 0.42> <nCl=462> <DB=   39.9846> <Mlp=   40.0032> <PB=41> 
<DWph=2> <it= 11> <et=9.52> <Mt= 0.01> <Spt= 0.07> <nCl=  0> <DB=   40.0032> <Mlp=   40.0032> <PB=41> 
<DWph=1> <it= 12> <et=9.59> <Mt= 0.00> <Spt= 0.06> <nCl=  0> <DB=   40.0032> <Mlp=   40.0032> <PB=41> 
---- Diving heuristic node with dive number = 1, fix depth = 23 and tabu list size = 1
Fixed projected solution = [x_1_0_1_OspV=1, x_1_4_1_OspV=1, x_1_37_1_OspV=1, x_1_116_1_OspV=1]
<DWph=2> <it=  4> <et=9.84> <Mt= 0.02> <Spt= 0.23> <nCl=156> <DB=   40.0041> <Mlp=   40.0041> <PB=41> 
<DWph=1> <it=  5> <et=9.90> <Mt= 0.00> <Spt= 0.06> <nCl=  0> <DB=   40.0041> <Mlp=   40.0041> <PB=41> 
---- Diving heuristic node with dive number = 1, fix depth = 24 and tabu list size = 1
Fixed projected solution = [x_1_0_1_OspV=1, x_1_55_1_OspV=1, x_1_69_1_OspV=1, x_1_85_1_OspV=1]
<DWph=2> <it=  1> <et=9.98> <Mt= 0.00> <Spt= 0.06> <nCl=  0> <DB=   40.0041> <Mlp=   40.0041> <PB=41> 
<DWph=1> <it=  2> <et=10.04> <Mt= 0.00> <Spt= 0.06> <nCl=  0> <DB=   40.0041> <Mlp=   40.0041> <PB=41> 
---- Diving heuristic node with dive number = 1, fix depth = 25 and tabu list size = 1
Fixed projected solution = [x_1_0_1_OspV=1, x_1_5_1_OspV=1, x_1_68_1_OspV=1, x_1_99_1_OspV=1]
<DWph=2> <it=  5> <et=10.32> <Mt= 0.01> <Spt= 0.26> <nCl=311> <DB=   40.0047> <Mlp=   40.0047> <PB=41> 
<DWph=1> <it=  6> <et=10.38> <Mt= 0.01> <Spt= 0.06> <nCl=  0> <DB=   40.0047> <Mlp=   40.0047> <PB=41> 
---- Diving heuristic node with dive number = 1, fix depth = 26 and tabu list size = 1
Fixed projected solution = [x_1_0_1_OspV=1, x_1_6_1_OspV=1, x_1_77_1_OspV=1, x_1_91_1_OspV=1]
<DWph=2> <it=  2> <et=10.53> <Mt= 0.00> <Spt= 0.13> <nCl= 14> <DB=   40.0065> <Mlp=   40.0065> <PB=41> 
<DWph=1> <it=  3> <et=10.60> <Mt= 0.01> <Spt= 0.07> <nCl=  0> <DB=   40.0065> <Mlp=   40.0065> <PB=41> 
---- Diving heuristic node with dive number = 1, fix depth = 27 and tabu list size = 1
Fixed projected solution = [x_1_0_1_OspV=1, x_1_7_1_OspV=1, x_1_10_1_OspV=1, x_1_120_1_OspV=1]
<DWph=2> <it=  3> <et=10.77> <Mt= 0.00> <Spt= 0.15> <nCl=  5> <DB=   40.0083> <Mlp=   40.0083> <PB=41> 
<DWph=1> <it=  4> <et=10.83> <Mt= 0.00> <Spt= 0.06> <nCl=  0> <DB=   40.0083> <Mlp=   40.0083> <PB=41> 
---- Diving heuristic node with dive number = 1, fix depth = 28 and tabu list size = 1
Fixed projected solution = [x_1_0_1_OspV=1, x_1_12_1_OspV=1, x_1_80_1_OspV=1, x_1_87_1_OspV=1]
<DWph=2> <it=  1> <et=10.91> <Mt= 0.01> <Spt= 0.06> <nCl=  0> <DB=   40.0083> <Mlp=   40.0083> <PB=41> 
<DWph=1> <it=  2> <et=10.97> <Mt= 0.00> <Spt= 0.07> <nCl=  0> <DB=   40.0083> <Mlp=   40.0083> <PB=41> 
---- Diving heuristic node with dive number = 1, fix depth = 29 and tabu list size = 1
Fixed projected solution = [x_1_0_1_OspV=1, x_1_24_1_OspV=1, x_1_76_1_OspV=1, x_1_86_1_OspV=1]
<DWph=2> <it=  4> <et=11.18> <Mt= 0.01> <Spt= 0.18> <nCl=142> <DB=   40.0096> <Mlp=   40.0096> <PB=41> 
<DWph=1> <it=  5> <et=11.24> <Mt= 0.00> <Spt= 0.07> <nCl=  0> <DB=   40.0096> <Mlp=   40.0096> <PB=41> 
---- Diving heuristic node with dive number = 1, fix depth = 30 and tabu list size = 1
Fixed projected solution = [x_1_0_1_OspV=1, x_1_21_1_OspV=1, x_1_27_1_OspV=1, x_1_115_1_OspV=1]
<DWph=2> <it=  5> <et=11.54> <Mt= 0.04> <Spt= 0.25> <nCl=244> <DB=   40.0135> <Mlp=   40.0135> <PB=41> 
<DWph=1> <it=  6> <et=11.60> <Mt= 0.00> <Spt= 0.06> <nCl=  0> <DB=   40.0135> <Mlp=   40.0135> <PB=41> 
---- Diving heuristic node with dive number = 1, fix depth = 31 and tabu list size = 1
Fixed projected solution = [x_1_0_1_OspV=1, x_1_39_1_OspV=1, x_1_51_1_OspV=1, x_1_104_1_OspV=1]
<DWph=2> <it=  3> <et=11.79> <Mt= 0.02> <Spt= 0.15> <nCl=108> <DB=   40.0250> <Mlp=   40.0250> <PB=41> 
<DWph=1> <it=  4> <et=11.85> <Mt= 0.00> <Spt= 0.06> <nCl=  0> <DB=   40.0250> <Mlp=   40.0250> <PB=41> 
---- Diving heuristic node with dive number = 1, fix depth = 32 and tabu list size = 1
Fixed projected solution = [x_1_0_1_OspV=1, x_1_30_1_OspV=1, x_1_79_1_OspV=1, x_1_81_1_OspV=1]
<DWph=2> <it=  3> <et=12.05> <Mt= 0.03> <Spt= 0.16> <nCl=106> <DB=   40.0370> <Mlp=   40.0370> <PB=41> 
<DWph=1> <it=  4> <et=12.11> <Mt= 0.00> <Spt= 0.06> <nCl=  0> <DB=   40.0370> <Mlp=   40.0370> <PB=41> 
---- Diving heuristic node with dive number = 1, fix depth = 33 and tabu list size = 1
Fixed projected solution = [x_1_0_1_OspV=1, x_1_38_1_OspV=1, x_1_74_1_OspV=1, x_1_83_1_OspV=1]
<DWph=2> <it=  4> <et=12.33> <Mt= 0.03> <Spt= 0.18> <nCl=190> <DB=   40.0909> <Mlp=   40.0909> <PB=41> 
<DWph=1> <it=  5> <et=12.42> <Mt= 0.00> <Spt= 0.09> <nCl=  0> <DB=   40.0909> <Mlp=   40.0909> <PB=41> 
---- Diving heuristic node with dive number = 1, fix depth = 34 and tabu list size = 1
Fixed projected solution = [x_1_0_1_OspV=1, x_1_20_1_OspV=1, x_1_54_1_OspV=1, x_1_109_1_OspV=1]
<DWph=2> <it=  7> <et=12.75> <Mt= 0.04> <Spt= 0.28> <nCl=317> <DB=   40.2000> <Mlp=   40.2000> <PB=41> 
<DWph=1> <it=  8> <et=12.84> <Mt= 0.00> <Spt= 0.09> <nCl=  0> <DB=   40.2000> <Mlp=   40.2000> <PB=41> 
---- Diving heuristic node with dive number = 1, fix depth = 35 and tabu list size = 1
Fixed projected solution = [x_1_0_1_OspV=1, x_1_56_1_OspV=1, x_1_101_1_OspV=1]
<DWph=2> <it=  6> <et=13.15> <Mt= 0.04> <Spt= 0.24> <nCl=244> <DB=   41.0000> <Mlp=   41.0000> <PB=41> 
<DWph=1> <it=  7> <et=13.24> <Mt= 0.01> <Spt= 0.09> <nCl=  0> <DB=   41.0000> <Mlp=   41.0000> <PB=41> 
---- Diving heuristic node with dive number = 2, fix depth = 2 and tabu list size = 2
Fixed projected solution = [x_1_0_1_OspV=1, x_1_2_1_OspV=1, x_1_19_1_OspV=1, x_1_119_1_OspV=1]
<DWph=2> <it=  1> <et=13.32> <Mt= 0.00> <Spt= 0.00> <nCl=  0> <DB=   40.0000> <Mlp=   40.0000> <PB=41> 
<DWph=1> <it=  2> <et=13.32> <Mt= 0.00> <Spt= 0.00> <nCl=  0> <DB=   40.0000> <Mlp=   40.0000> <PB=41> 
---- Diving heuristic node with dive number = 2, fix depth = 3 and tabu list size = 2
Fixed projected solution = [x_1_0_1_OspV=1, x_1_3_1_OspV=1, x_1_26_1_OspV=1, x_1_118_1_OspV=1]
<DWph=2> <it=  1> <et=13.32> <Mt= 0.00> <Spt= 0.00> <nCl=  0> <DB=   40.0000> <Mlp=   40.0000> <PB=41> 
<DWph=1> <it=  2> <et=13.32> <Mt= 0.00> <Spt= 0.00> <nCl=  0> <DB=   40.0000> <Mlp=   40.0000> <PB=41> 
---- Diving heuristic node with dive number = 2, fix depth = 4 and tabu list size = 2
Fixed projected solution = [x_1_0_1_OspV=1, x_1_17_1_OspV=1, x_1_35_1_OspV=1, x_1_114_1_OspV=1]
<DWph=2> <it=  1> <et=13.33> <Mt= 0.00> <Spt= 0.00> <nCl=  0> <DB=   40.0000> <Mlp=   40.0000> <PB=41> 
<DWph=1> <it=  2> <et=13.33> <Mt= 0.00> <Spt= 0.00> <nCl=  0> <DB=   40.0000> <Mlp=   40.0000> <PB=41> 
---- Diving heuristic node with dive number = 2, fix depth = 4 and tabu list size = 2
Fixed projected solution = [x_1_0_1_OspV=1, x_1_20_1_OspV=1, x_1_75_1_OspV=1, x_1_89_1_OspV=1]
<DWph=2> <it=  1> <et=13.34> <Mt= 0.00> <Spt= 0.00> <nCl=  0> <DB=   40.0000> <Mlp=   40.0000> <PB=41> 
<DWph=1> <it=  2> <et=13.34> <Mt= 0.00> <Spt= 0.00> <nCl=  0> <DB=   40.0000> <Mlp=   40.0000> <PB=41> 
---- Diving heuristic node with dive number = 2, fix depth = 5 and tabu list size = 2
Fixed projected solution = [x_1_0_1_OspV=1, x_1_14_1_OspV=1, x_1_67_1_OspV=1, x_1_98_1_OspV=1]
<DWph=2> <it=  1> <et=13.34> <Mt= 0.01> <Spt= 0.00> <nCl=  0> <DB=   40.0000> <Mlp=   40.0000> <PB=41> 
<DWph=1> <it=  2> <et=13.34> <Mt= 0.00> <Spt= 0.00> <nCl=  0> <DB=   40.0000> <Mlp=   40.0000> <PB=41> 
---- Diving heuristic node with dive number = 2, fix depth = 6 and tabu list size = 2
Fixed projected solution = [x_1_0_1_OspV=1, x_1_31_1_OspV=1, x_1_69_1_OspV=1, x_1_94_1_OspV=1]
<DWph=2> <it=  1> <et=13.35> <Mt= 0.00> <Spt= 0.00> <nCl=  0> <DB=   40.0000> <Mlp=   40.0000> <PB=41> 
<DWph=1> <it=  2> <et=13.35> <Mt= 0.00> <Spt= 0.00> <nCl=  0> <DB=   40.0000> <Mlp=   40.0000> <PB=41> 
---- Diving heuristic node with dive number = 2, fix depth = 6 and tabu list size = 2
Fixed projected solution = [x_1_0_1_OspV=1, x_1_9_1_OspV=1, x_1_72_1_OspV=1, x_1_93_1_OspV=1]
<DWph=2> <it=  1> <et=13.36> <Mt= 0.00> <Spt= 0.00> <nCl=  0> <DB=   40.0000> <Mlp=   40.0000> <PB=41> 
<DWph=1> <it=  2> <et=13.36> <Mt= 0.00> <Spt= 0.00> <nCl=  0> <DB=   40.0000> <Mlp=   40.0000> <PB=41> 
---- Diving heuristic node with dive number = 2, fix depth = 7 and tabu list size = 2
Fixed projected solution = [x_1_0_1_OspV=1, x_1_28_1_OspV=1, x_1_53_1_OspV=1, x_1_107_1_OspV=1]
<DWph=2> <it=  1> <et=13.36> <Mt= 0.00> <Spt= 0.00> <nCl=  0> <DB=   40.0000> <Mlp=   40.0000> <PB=41> 
<DWph=1> <it=  2> <et=13.36> <Mt= 0.00> <Spt= 0.00> <nCl=  0> <DB=   40.0000> <Mlp=   40.0000> <PB=41> 
---- Diving heuristic node with dive number = 2, fix depth = 8 and tabu list size = 2
Fixed projected solution = [x_1_0_1_OspV=1, x_1_41_1_OspV=1, x_1_54_1_OspV=1, x_1_101_1_OspV=1]
<DWph=2> <it=  1> <et=13.37> <Mt= 0.01> <Spt= 0.00> <nCl=  0> <DB=   40.0000> <Mlp=   40.0000> <PB=41> 
<DWph=1> <it=  2> <et=13.37> <Mt= 0.00> <Spt= 0.00> <nCl=  0> <DB=   40.0000> <Mlp=   40.0000> <PB=41> 
---- Diving heuristic node with dive number = 2, fix depth = 9 and tabu list size = 2
Fixed projected solution = [x_1_0_1_OspV=1, x_1_36_1_OspV=1, x_1_46_1_OspV=1, x_1_108_1_OspV=1]
<DWph=2> <it=  2> <et=13.41> <Mt= 0.00> <Spt= 0.04> <nCl=100> <DB=   39.8824> <Mlp=   40.0000> <PB=41> 
<DWph=1> <it=  3> <et=13.41> <Mt= 0.00> <Spt= 0.00> <nCl=  0> <DB=   40.0000> <Mlp=   40.0000> <PB=41> 
---- Diving heuristic node with dive number = 2, fix depth = 10 and tabu list size = 2
Fixed projected solution = [x_1_0_1_OspV=1, x_1_40_1_OspV=1, x_1_44_1_OspV=1, x_1_106_1_OspV=1]
<DWph=2> <it=  1> <et=13.42> <Mt= 0.00> <Spt= 0.00> <nCl=  0> <DB=   40.0000> <Mlp=   40.0000> <PB=41> 
<DWph=1> <it=  2> <et=13.42> <Mt= 0.00> <Spt= 0.00> <nCl=  0> <DB=   40.0000> <Mlp=   40.0000> <PB=41> 
---- Diving heuristic node with dive number = 2, fix depth = 11 and tabu list size = 2
Fixed projected solution = [x_1_0_1_OspV=1, x_1_16_1_OspV=1, x_1_70_1_OspV=1, x_1_96_1_OspV=1]
<DWph=2> <it=  1> <et=13.43> <Mt= 0.01> <Spt= 0.00> <nCl=  0> <DB=   40.0000> <Mlp=   40.0000> <PB=41> 
<DWph=1> <it=  2> <et=13.43> <Mt= 0.00> <Spt= 0.00> <nCl=  0> <DB=   40.0000> <Mlp=   40.0000> <PB=41> 
---- Diving heuristic node with dive number = 2, fix depth = 12 and tabu list size = 2
Fixed projected solution = [x_1_0_1_OspV=1, x_1_22_1_OspV=1, x_1_45_1_OspV=1, x_1_112_1_OspV=1]
<DWph=2> <it=  2> <et=13.48> <Mt= 0.00> <Spt= 0.03> <nCl=100> <DB=   39.9340> <Mlp=   40.0000> <PB=41> 
<DWph=1> <it=  3> <et=13.48> <Mt= 0.00> <Spt= 0.00> <nCl=  0> <DB=   40.0000> <Mlp=   40.0000> <PB=41> 
---- Diving heuristic node with dive number = 2, fix depth = 13 and tabu list size = 2
Fixed projected solution = [x_1_0_1_OspV=1, x_1_62_1_OspV=1, x_1_66_1_OspV=1, x_1_76_1_OspV=1]
<DWph=2> <it=  1> <et=13.49> <Mt= 0.01> <Spt= 0.00> <nCl=  0> <DB=   40.0000> <Mlp=   40.0000> <PB=41> 
<DWph=1> <it=  2> <et=13.49> <Mt= 0.00> <Spt= 0.00> <nCl=  0> <DB=   40.0000> <Mlp=   40.0000> <PB=41> 
---- Diving heuristic node with dive number = 2, fix depth = 14 and tabu list size = 2
Fixed projected solution = [x_1_0_1_OspV=1, x_1_51_1_OspV=1, x_1_57_1_OspV=1, x_1_97_1_OspV=1]
<DWph=2> <it=  1> <et=13.50> <Mt= 0.00> <Spt= 0.00> <nCl=  0> <DB=   40.0000> <Mlp=   40.0000> <PB=41> 
<DWph=1> <it=  2> <et=13.50> <Mt= 0.00> <Spt= 0.00> <nCl=  0> <DB=   40.0000> <Mlp=   40.0000> <PB=41> 
---- Diving heuristic node with dive number = 2, fix depth = 15 and tabu list size = 2
Fixed projected solution = [x_1_0_1_OspV=1, x_1_6_1_OspV=1, x_1_74_1_OspV=1, x_1_92_1_OspV=1]
<DWph=2> <it=  1> <et=13.51> <Mt= 0.01> <Spt= 0.00> <nCl=  0> <DB=   40.0000> <Mlp=   40.0000> <PB=41> 
<DWph=1> <it=  2> <et=13.51> <Mt= 0.00> <Spt= 0.00> <nCl=  0> <DB=   40.0000> <Mlp=   40.0000> <PB=41> 
---- Diving heuristic node with dive number = 2, fix depth = 16 and tabu list size = 2
Fixed projected solution = [x_1_0_1_OspV=1, x_1_43_1_OspV=1, x_1_49_1_OspV=1, x_1_103_1_OspV=1]
<DWph=2> <it=  1> <et=13.51> <Mt= 0.00> <Spt= 0.00> <nCl=  0> <DB=   40.0000> <Mlp=   40.0000> <PB=41> 
<DWph=1> <it=  2> <et=13.52> <Mt= 0.00> <Spt= 0.00> <nCl=  0> <DB=   40.0000> <Mlp=   40.0000> <PB=41> 
---- Diving heuristic node with dive number = 2, fix depth = 17 and tabu list size = 2
Fixed projected solution = [x_1_0_1_OspV=1, x_1_18_1_OspV=1, x_1_64_1_OspV=1, x_1_99_1_OspV=1]
<DWph=2> <it=  1> <et=13.52> <Mt= 0.00> <Spt= 0.00> <nCl=  0> <DB=   40.0000> <Mlp=   40.0000> <PB=41> 
<DWph=1> <it=  2> <et=13.52> <Mt= 0.00> <Spt= 0.00> <nCl=  0> <DB=   40.0000> <Mlp=   40.0000> <PB=41> 
---- Diving heuristic node with dive number = 2, fix depth = 18 and tabu list size = 2
Fixed projected solution = [x_1_0_1_OspV=1, x_1_23_1_OspV=1, x_1_60_1_OspV=1, x_1_102_1_OspV=1]
<DWph=2> <it=  2> <et=13.57> <Mt= 0.01> <Spt= 0.03> <nCl=100> <DB=   39.9075> <Mlp=   40.0000> <PB=41> 
<DWph=1> <it=  3> <et=13.57> <Mt= 0.00> <Spt= 0.00> <nCl=  0> <DB=   40.0000> <Mlp=   40.0000> <PB=41> 
---- Diving heuristic node with dive number = 2, fix depth = 19 and tabu list size = 2
Fixed projected solution = [x_1_0_1_OspV=1, x_1_7_1_OspV=1, x_1_84_1_OspV=1, x_1_87_1_OspV=1]
<DWph=2> <it=  2> <et=13.62> <Mt= 0.01> <Spt= 0.03> <nCl=100> <DB=   39.8928> <Mlp=   40.0000> <PB=41> 
<DWph=1> <it=  3> <et=13.62> <Mt= 0.00> <Spt= 0.00> <nCl=  0> <DB=   40.0000> <Mlp=   40.0000> <PB=41> 
---- Diving heuristic node with dive number = 2, fix depth = 20 and tabu list size = 2
Fixed projected solution = [x_1_0_1_OspV=1, x_1_10_1_OspV=1, x_1_32_1_OspV=1, x_1_116_1_OspV=1]
<DWph=2> <it=  1> <et=13.64> <Mt= 0.01> <Spt= 0.00> <nCl=  0> <DB=   40.0000> <Mlp=   40.0000> <PB=41> 
<DWph=1> <it=  2> <et=13.64> <Mt= 0.00> <Spt= 0.00> <nCl=  0> <DB=   40.0000> <Mlp=   40.0000> <PB=41> 
---- Diving heuristic node with dive number = 2, fix depth = 21 and tabu list size = 2
Fixed projected solution = [x_1_0_1_OspV=1, x_1_5_1_OspV=1, x_1_77_1_OspV=1, x_1_91_1_OspV=1]
<DWph=2> <it=  7> <et=14.03> <Mt= 0.01> <Spt= 0.38> <nCl=334> <DB=   40.0002> <Mlp=   40.0002> <PB=41> 
<DWph=1> <it=  8> <et=14.10> <Mt= 0.00> <Spt= 0.06> <nCl=  0> <DB=   40.0002> <Mlp=   40.0002> <PB=41> 
---- Diving heuristic node with dive number = 2, fix depth = 22 and tabu list size = 2
Fixed projected solution = [x_1_0_1_OspV=1, x_1_58_1_OspV=1, x_1_71_1_OspV=1, x_1_78_1_OspV=1]
<DWph=2> <it=  1> <et=14.17> <Mt= 0.01> <Spt= 0.07> <nCl=  0> <DB=   40.0002> <Mlp=   40.0002> <PB=41> 
<DWph=1> <it=  2> <et=14.24> <Mt= 0.00> <Spt= 0.06> <nCl=  0> <DB=   40.0002> <Mlp=   40.0002> <PB=41> 
---- Diving heuristic node with dive number = 2, fix depth = 23 and tabu list size = 2
Fixed projected solution = [x_1_0_1_OspV=1, x_1_34_1_OspV=1, x_1_48_1_OspV=1, x_1_109_1_OspV=1]
<DWph=2> <it=  1> <et=14.31> <Mt= 0.00> <Spt= 0.06> <nCl=  0> <DB=   40.0002> <Mlp=   40.0002> <PB=41> 
<DWph=1> <it=  2> <et=14.37> <Mt= 0.00> <Spt= 0.06> <nCl=  0> <DB=   40.0002> <Mlp=   40.0002> <PB=41> 
---- Diving heuristic node with dive number = 2, fix depth = 24 and tabu list size = 2
Fixed projected solution = [x_1_0_1_OspV=1, x_1_42_1_OspV=1, x_1_47_1_OspV=1, x_1_105_1_OspV=1]
<DWph=2> <it=  1> <et=14.45> <Mt= 0.00> <Spt= 0.06> <nCl=  0> <DB=   40.0002> <Mlp=   40.0002> <PB=41> 
<DWph=1> <it=  2> <et=14.51> <Mt= 0.00> <Spt= 0.07> <nCl=  0> <DB=   40.0002> <Mlp=   40.0002> <PB=41> 
---- Diving heuristic node with dive number = 2, fix depth = 25 and tabu list size = 2
Fixed projected solution = [x_1_0_1_OspV=1, x_1_4_1_OspV=1, x_1_13_1_OspV=1, x_1_120_1_OspV=1]
<DWph=2> <it=  5> <et=14.79> <Mt= 0.02> <Spt= 0.24> <nCl=132> <DB=   40.0005> <Mlp=   40.0005> <PB=41> 
<DWph=1> <it=  6> <et=14.85> <Mt= 0.00> <Spt= 0.07> <nCl=  0> <DB=   40.0005> <Mlp=   40.0005> <PB=41> 
---- Diving heuristic node with dive number = 2, fix depth = 26 and tabu list size = 2
Fixed projected solution = [x_1_0_1_OspV=1, x_1_8_1_OspV=1, x_1_21_1_OspV=1, x_1_117_1_OspV=1]
<DWph=2> <it=  5> <et=15.13> <Mt= 0.02> <Spt= 0.25> <nCl=162> <DB=   40.0014> <Mlp=   40.0014> <PB=41> 
<DWph=1> <it=  6> <et=15.20> <Mt= 0.00> <Spt= 0.06> <nCl=  0> <DB=   40.0014> <Mlp=   40.0014> <PB=41> 
---- Diving heuristic node with dive number = 2, fix depth = 26 and tabu list size = 2
Fixed projected solution = [x_1_0_1_OspV=1, x_1_56_1_OspV=1, x_1_63_1_OspV=1, x_1_90_1_OspV=1]
<DWph=2> <it=  1> <et=15.27> <Mt= 0.00> <Spt= 0.06> <nCl=  0> <DB=   40.0014> <Mlp=   40.0014> <PB=41> 
<DWph=1> <it=  2> <et=15.33> <Mt= 0.00> <Spt= 0.06> <nCl=  0> <DB=   40.0014> <Mlp=   40.0014> <PB=41> 
---- Diving heuristic node with dive number = 2, fix depth = 27 and tabu list size = 2
Fixed projected solution = [x_1_0_1_OspV=1, x_1_27_1_OspV=1, x_1_37_1_OspV=1, x_1_113_1_OspV=1]
<DWph=2> <it=  3> <et=15.51> <Mt= 0.02> <Spt= 0.16> <nCl=116> <DB=   40.0015> <Mlp=   40.0015> <PB=41> 
<DWph=1> <it=  4> <et=15.58> <Mt= 0.00> <Spt= 0.06> <nCl=  0> <DB=   40.0015> <Mlp=   40.0015> <PB=41> 
---- Diving heuristic node with dive number = 2, fix depth = 28 and tabu list size = 2
Fixed projected solution = [x_1_0_1_OspV=1, x_1_33_1_OspV=1, x_1_73_1_OspV=1, x_1_85_1_OspV=1]
<DWph=2> <it=  3> <et=15.77> <Mt= 0.02> <Spt= 0.15> <nCl= 97> <DB=   40.0038> <Mlp=   40.0038> <PB=41> 
<DWph=1> <it=  4> <et=15.83> <Mt= 0.00> <Spt= 0.06> <nCl=  0> <DB=   40.0038> <Mlp=   40.0038> <PB=41> 
---- Diving heuristic node with dive number = 2, fix depth = 29 and tabu list size = 2
Fixed projected solution = [x_1_0_1_OspV=1, x_1_38_1_OspV=1, x_1_52_1_OspV=1, x_1_104_1_OspV=1]
<DWph=2> <it=  7> <et=16.18> <Mt= 0.03> <Spt= 0.30> <nCl=321> <DB=   40.0055> <Mlp=   40.0055> <PB=41> 
<DWph=1> <it=  8> <et=16.24> <Mt= 0.01> <Spt= 0.06> <nCl=  0> <DB=   40.0055> <Mlp=   40.0055> <PB=41> 
---- Diving heuristic node with dive number = 2, fix depth = 30 and tabu list size = 2
Fixed projected solution = [x_1_0_1_OspV=1, x_1_29_1_OspV=1, x_1_79_1_OspV=1, x_1_83_1_OspV=1]
<DWph=2> <it=  1> <et=16.32> <Mt= 0.00> <Spt= 0.06> <nCl=  0> <DB=   40.0055> <Mlp=   40.0055> <PB=41> 
<DWph=1> <it=  2> <et=16.38> <Mt= 0.00> <Spt= 0.06> <nCl=  0> <DB=   40.0055> <Mlp=   40.0055> <PB=41> 
---- Diving heuristic node with dive number = 2, fix depth = 31 and tabu list size = 2
Fixed projected solution = [x_1_0_1_OspV=1, x_1_59_1_OspV=1, x_1_61_1_OspV=1, x_1_88_1_OspV=1]
<DWph=2> <it=  6> <et=16.70> <Mt= 0.04> <Spt= 0.28> <nCl=263> <DB=   40.0064> <Mlp=   40.0064> <PB=41> 
<DWph=1> <it=  7> <et=16.77> <Mt= 0.00> <Spt= 0.06> <nCl=  0> <DB=   40.0064> <Mlp=   40.0064> <PB=41> 
---- Diving heuristic node with dive number = 2, fix depth = 32 and tabu list size = 2
Fixed projected solution = [x_1_0_1_OspV=1, x_1_30_1_OspV=1, x_1_68_1_OspV=1, x_1_95_1_OspV=1]
<DWph=2> <it=  4> <et=17.00> <Mt= 0.01> <Spt= 0.20> <nCl=  6> <DB=   40.0093> <Mlp=   40.0093> <PB=41> 
<DWph=1> <it=  5> <et=17.07> <Mt= 0.00> <Spt= 0.07> <nCl=  0> <DB=   40.0093> <Mlp=   40.0093> <PB=41> 
---- Diving heuristic node with dive number = 2, fix depth = 33 and tabu list size = 2
Fixed projected solution = [x_1_0_1_OspV=1, x_1_1_1_OspV=1, x_1_39_1_OspV=1, x_1_115_1_OspV=1]
<DWph=2> <it=  4> <et=17.30> <Mt= 0.04> <Spt= 0.18> <nCl=244> <DB=   40.0227> <Mlp=   40.0227> <PB=41> 
<DWph=1> <it=  5> <et=17.50> <Mt= 0.00> <Spt= 0.09> <nCl=  0> <DB=   40.0227> <Mlp=   40.0227> <PB=41> 
---- Diving heuristic node with dive number = 2, fix depth = 34 and tabu list size = 2
Fixed projected solution = [x_1_0_1_OspV=1, x_1_12_1_OspV=1, x_1_80_1_OspV=1, x_1_86_1_OspV=1]
<DWph=2> <it=  7> <et=17.87> <Mt= 0.03> <Spt= 0.33> <nCl=471> <DB=   40.0357> <Mlp=   40.0357> <PB=41> 
<DWph=1> <it=  8> <et=17.96> <Mt= 0.00> <Spt= 0.08> <nCl=  0> <DB=   40.0357> <Mlp=   40.0357> <PB=41> 
---- Diving heuristic node with dive number = 2, fix depth = 35 and tabu list size = 2
Fixed projected solution = [x_1_0_1_OspV=1, x_1_15_1_OspV=1, x_1_55_1_OspV=1, x_1_111_1_OspV=1]
<DWph=2> <it=  9> <et=18.38> <Mt= 0.04> <Spt= 0.35> <nCl=721> <DB=   40.2000> <Mlp=   40.2000> <PB=41> 
<DWph=1> <it= 10> <et=18.46> <Mt= 0.00> <Spt= 0.09> <nCl=  0> <DB=   40.2000> <Mlp=   40.2000> <PB=41> 
---- Diving heuristic node with dive number = 2, fix depth = 36 and tabu list size = 2
Fixed projected solution = [x_1_0_1_OspV=1, x_1_81_1_OspV=1, x_1_82_1_OspV=1]
<DWph=2> <it= 10> <et=18.89> <Mt= 0.05> <Spt= 0.35> <nCl=415> <DB=   41.0000> <Mlp=   41.0000> <PB=41> 
<DWph=1> <it= 11> <et=18.98> <Mt= 0.01> <Spt= 0.08> <nCl=  0> <DB=   41.0000> <Mlp=   41.0000> <PB=41> 
---- Diving heuristic node with dive number = 3, fix depth = 2 and tabu list size = 3
Fixed projected solution = [x_1_0_1_OspV=1, x_1_3_1_OspV=1, x_1_26_1_OspV=1, x_1_118_1_OspV=1]
<DWph=2> <it=  1> <et=19.07> <Mt= 0.00> <Spt= 0.00> <nCl=  0> <DB=   40.0000> <Mlp=   40.0000> <PB=41> 
<DWph=1> <it=  2> <et=19.07> <Mt= 0.00> <Spt= 0.00> <nCl=  0> <DB=   40.0000> <Mlp=   40.0000> <PB=41> 
---- Diving heuristic node with dive number = 3, fix depth = 2 and tabu list size = 3
Fixed projected solution = [x_1_0_1_OspV=1, x_1_9_1_OspV=1, x_1_72_1_OspV=1, x_1_93_1_OspV=1]
<DWph=2> <it=  1> <et=19.07> <Mt= 0.00> <Spt= 0.00> <nCl=  0> <DB=   40.0000> <Mlp=   40.0000> <PB=41> 
<DWph=1> <it=  2> <et=19.07> <Mt= 0.00> <Spt= 0.00> <nCl=  0> <DB=   40.0000> <Mlp=   40.0000> <PB=41> 
---- Diving heuristic node with dive number = 3, fix depth = 3 and tabu list size = 3
Fixed projected solution = [x_1_0_1_OspV=1, x_1_29_1_OspV=1, x_1_73_1_OspV=1, x_1_90_1_OspV=1]
<DWph=2> <it=  1> <et=19.08> <Mt= 0.00> <Spt= 0.00> <nCl=  0> <DB=   40.0000> <Mlp=   40.0000> <PB=41> 
<DWph=1> <it=  2> <et=19.08> <Mt= 0.00> <Spt= 0.00> <nCl=  0> <DB=   40.0000> <Mlp=   40.0000> <PB=41> 
---- Diving heuristic node with dive number = 3, fix depth = 4 and tabu list size = 3
Fixed projected solution = [x_1_0_1_OspV=1, x_1_14_1_OspV=1, x_1_67_1_OspV=1, x_1_98_1_OspV=1]
<DWph=2> <it=  1> <et=19.08> <Mt= 0.00> <Spt= 0.00> <nCl=  0> <DB=   40.0000> <Mlp=   40.0000> <PB=41> 
<DWph=1> <it=  2> <et=19.08> <Mt= 0.00> <Spt= 0.00> <nCl=  0> <DB=   40.0000> <Mlp=   40.0000> <PB=41> 
---- Diving heuristic node with dive number = 3, fix depth = 4 and tabu list size = 3
Fixed projected solution = [x_1_0_1_OspV=1, x_1_2_1_OspV=1, x_1_19_1_OspV=1, x_1_119_1_OspV=1]
<DWph=2> <it=  1> <et=19.09> <Mt= 0.01> <Spt= 0.00> <nCl=  0> <DB=   40.0000> <Mlp=   40.0000> <PB=41> 
<DWph=1> <it=  2> <et=19.09> <Mt= 0.00> <Spt= 0.00> <nCl=  0> <DB=   40.0000> <Mlp=   40.0000> <PB=41> 
---- Diving heuristic node with dive number = 3, fix depth = 5 and tabu list size = 3
Fixed projected solution = [x_1_0_1_OspV=1, x_1_20_1_OspV=1, x_1_75_1_OspV=1, x_1_89_1_OspV=1]
<DWph=2> <it=  1> <et=19.10> <Mt= 0.00> <Spt= 0.00> <nCl=  0> <DB=   40.0000> <Mlp=   40.0000> <PB=41> 
<DWph=1> <it=  2> <et=19.10> <Mt= 0.00> <Spt= 0.00> <nCl=  0> <DB=   40.0000> <Mlp=   40.0000> <PB=41> 
---- Diving heuristic node with dive number = 3, fix depth = 6 and tabu list size = 3
Fixed projected solution = [x_1_0_1_OspV=1, x_1_17_1_OspV=1, x_1_35_1_OspV=1, x_1_114_1_OspV=1]
<DWph=2> <it=  1> <et=19.10> <Mt= 0.00> <Spt= 0.00> <nCl=  0> <DB=   40.0000> <Mlp=   40.0000> <PB=41> 
<DWph=1> <it=  2> <et=19.10> <Mt= 0.00> <Spt= 0.00> <nCl=  0> <DB=   40.0000> <Mlp=   40.0000> <PB=41> 
---- Diving heuristic node with dive number = 3, fix depth = 7 and tabu list size = 3
Fixed projected solution = [x_1_0_1_OspV=1, x_1_28_1_OspV=1, x_1_53_1_OspV=1, x_1_107_1_OspV=1]
<DWph=2> <it=  2> <et=19.15> <Mt= 0.00> <Spt= 0.04> <nCl=100> <DB=   39.9253> <Mlp=   40.0000> <PB=41> 
<DWph=1> <it=  3> <et=19.15> <Mt= 0.01> <Spt= 0.00> <nCl=  0> <DB=   40.0000> <Mlp=   40.0000> <PB=41> 
---- Diving heuristic node with dive number = 3, fix depth = 8 and tabu list size = 3
Fixed projected solution = [x_1_0_1_OspV=1, x_1_13_1_OspV=1, x_1_15_1_OspV=1, x_1_117_1_OspV=1]
<DWph=2> <it=  1> <et=19.15> <Mt= 0.00> <Spt= 0.00> <nCl=  0> <DB=   40.0000> <Mlp=   40.0000> <PB=41> 
<DWph=1> <it=  2> <et=19.16> <Mt= 0.00> <Spt= 0.00> <nCl=  0> <DB=   40.0000> <Mlp=   40.0000> <PB=41> 
---- Diving heuristic node with dive number = 3, fix depth = 9 and tabu list size = 3
Fixed projected solution = [x_1_0_1_OspV=1, x_1_41_1_OspV=1, x_1_54_1_OspV=1, x_1_101_1_OspV=1]
<DWph=2> <it=  1> <et=19.16> <Mt= 0.00> <Spt= 0.00> <nCl=  0> <DB=   40.0000> <Mlp=   40.0000> <PB=41> 
<DWph=1> <it=  2> <et=19.16> <Mt= 0.00> <Spt= 0.00> <nCl=  0> <DB=   40.0000> <Mlp=   40.0000> <PB=41> 
---- Diving heuristic node with dive number = 3, fix depth = 10 and tabu list size = 3
Fixed projected solution = [x_1_0_1_OspV=1, x_1_36_1_OspV=1, x_1_46_1_OspV=1, x_1_108_1_OspV=1]
<DWph=2> <it=  1> <et=19.17> <Mt= 0.00> <Spt= 0.00> <nCl=  0> <DB=   40.0000> <Mlp=   40.0000> <PB=41> 
<DWph=1> <it=  2> <et=19.17> <Mt= 0.00> <Spt= 0.00> <nCl=  0> <DB=   40.0000> <Mlp=   40.0000> <PB=41> 
---- Diving heuristic node with dive number = 3, fix depth = 10 and tabu list size = 3
Fixed projected solution = [x_1_0_1_OspV=1, x_1_40_1_OspV=1, x_1_44_1_OspV=1, x_1_106_1_OspV=1]
<DWph=2> <it=  1> <et=19.17> <Mt= 0.00> <Spt= 0.00> <nCl=  0> <DB=   40.0000> <Mlp=   40.0000> <PB=41> 
<DWph=1> <it=  2> <et=19.17> <Mt= 0.00> <Spt= 0.00> <nCl=  0> <DB=   40.0000> <Mlp=   40.0000> <PB=41> 
---- Diving heuristic node with dive number = 3, fix depth = 11 and tabu list size = 3
Fixed projected solution = [x_1_0_1_OspV=1, x_1_6_1_OspV=1, x_1_74_1_OspV=1, x_1_92_1_OspV=1]
<DWph=2> <it=  1> <et=19.18> <Mt= 0.01> <Spt= 0.00> <nCl=  0> <DB=   40.0000> <Mlp=   40.0000> <PB=41> 
<DWph=1> <it=  2> <et=19.18> <Mt= 0.00> <Spt= 0.00> <nCl=  0> <DB=   40.0000> <Mlp=   40.0000> <PB=41> 
---- Diving heuristic node with dive number = 3, fix depth = 12 and tabu list size = 3
Fixed projected solution = [x_1_0_1_OspV=1, x_1_39_1_OspV=1, x_1_51_1_OspV=1, x_1_104_1_OspV=1]
<DWph=2> <it=  2> <et=19.23> <Mt= 0.00> <Spt= 0.03> <nCl=100> <DB=   39.9350> <Mlp=   40.0000> <PB=41> 
<DWph=1> <it=  3> <et=19.23> <Mt= 0.01> <Spt= 0.00> <nCl=  0> <DB=   40.0000> <Mlp=   40.0000> <PB=41> 
---- Diving heuristic node with dive number = 3, fix depth = 13 and tabu list size = 3
Fixed projected solution = [x_1_0_1_OspV=1, x_1_57_1_OspV=1, x_1_58_1_OspV=1, x_1_94_1_OspV=1]
<DWph=2> <it=  1> <et=19.24> <Mt= 0.00> <Spt= 0.00> <nCl=  0> <DB=   40.0000> <Mlp=   40.0000> <PB=41> 
<DWph=1> <it=  2> <et=19.24> <Mt= 0.00> <Spt= 0.00> <nCl=  0> <DB=   40.0000> <Mlp=   40.0000> <PB=41> 
---- Diving heuristic node with dive number = 3, fix depth = 14 and tabu list size = 3
Fixed projected solution = [x_1_0_1_OspV=1, x_1_42_1_OspV=1, x_1_48_1_OspV=1, x_1_105_1_OspV=1]
<DWph=2> <it=  1> <et=19.25> <Mt= 0.00> <Spt= 0.00> <nCl=  0> <DB=   40.0000> <Mlp=   40.0000> <PB=41> 
<DWph=1> <it=  2> <et=19.25> <Mt= 0.00> <Spt= 0.00> <nCl=  0> <DB=   40.0000> <Mlp=   40.0000> <PB=41> 
---- Diving heuristic node with dive number = 3, fix depth = 14 and tabu list size = 3
Fixed projected solution = [x_1_0_1_OspV=1, x_1_45_1_OspV=1, x_1_47_1_OspV=1, x_1_103_1_OspV=1]
<DWph=2> <it=  1> <et=19.25> <Mt= 0.00> <Spt= 0.00> <nCl=  0> <DB=   40.0000> <Mlp=   40.0000> <PB=41> 
<DWph=1> <it=  2> <et=19.25> <Mt= 0.01> <Spt= 0.00> <nCl=  0> <DB=   40.0000> <Mlp=   40.0000> <PB=41> 
---- Diving heuristic node with dive number = 3, fix depth = 15 and tabu list size = 3
Fixed projected solution = [x_1_0_1_OspV=1, x_1_62_1_OspV=1, x_1_66_1_OspV=1, x_1_76_1_OspV=1]
<DWph=2> <it=  2> <et=19.30> <Mt= 0.00> <Spt= 0.04> <nCl=100> <DB=   39.8968> <Mlp=   40.0000> <PB=41> 
<DWph=1> <it=  3> <et=19.30> <Mt= 0.00> <Spt= 0.00> <nCl=  0> <DB=   40.0000> <Mlp=   40.0000> <PB=41> 
---- Diving heuristic node with dive number = 3, fix depth = 16 and tabu list size = 3
Fixed projected solution = [x_1_0_1_OspV=1, x_1_1_1_OspV=1, x_1_59_1_OspV=1, x_1_111_1_OspV=1]
<DWph=2> <it=  1> <et=19.31> <Mt= 0.01> <Spt= 0.00> <nCl=  0> <DB=   40.0000> <Mlp=   40.0000> <PB=41> 
<DWph=1> <it=  2> <et=19.31> <Mt= 0.00> <Spt= 0.00> <nCl=  0> <DB=   40.0000> <Mlp=   40.0000> <PB=41> 
---- Diving heuristic node with dive number = 3, fix depth = 17 and tabu list size = 3
Fixed projected solution = [x_1_0_1_OspV=1, x_1_10_1_OspV=1, x_1_82_1_OspV=1, x_1_85_1_OspV=1]
<DWph=2> <it=  1> <et=19.32> <Mt= 0.00> <Spt= 0.00> <nCl=  0> <DB=   40.0000> <Mlp=   40.0000> <PB=41> 
<DWph=1> <it=  2> <et=19.32> <Mt= 0.00> <Spt= 0.00> <nCl=  0> <DB=   40.0000> <Mlp=   40.0000> <PB=41> 
---- Diving heuristic node with dive number = 3, fix depth = 17 and tabu list size = 3
Fixed projected solution = [x_1_0_1_OspV=1, x_1_55_1_OspV=1, x_1_63_1_OspV=1, x_1_91_1_OspV=1]
<DWph=2> <it=  1> <et=19.32> <Mt= 0.00> <Spt= 0.00> <nCl=  0> <DB=   40.0000> <Mlp=   40.0000> <PB=41> 
<DWph=1> <it=  2> <et=19.33> <Mt= 0.00> <Spt= 0.00> <nCl=  0> <DB=   40.0000> <Mlp=   40.0000> <PB=41> 
---- Diving heuristic node with dive number = 3, fix depth = 17 and tabu list size = 3
Fixed projected solution = [x_1_0_1_OspV=1, x_1_30_1_OspV=1, x_1_68_1_OspV=1, x_1_95_1_OspV=1]
<DWph=2> <it=  1> <et=19.33> <Mt= 0.00> <Spt= 0.00> <nCl=  0> <DB=   40.0000> <Mlp=   40.0000> <PB=41> 
<DWph=1> <it=  2> <et=19.33> <Mt= 0.00> <Spt= 0.00> <nCl=  0> <DB=   40.0000> <Mlp=   40.0000> <PB=41> 
---- Diving heuristic node with dive number = 3, fix depth = 18 and tabu list size = 3
Fixed projected solution = [x_1_0_1_OspV=1, x_1_5_1_OspV=1, x_1_12_1_OspV=1, x_1_120_1_OspV=1]
<DWph=2> <it=  3> <et=19.42> <Mt= 0.02> <Spt= 0.07> <nCl=200> <DB=   39.8821> <Mlp=   40.0000> <PB=40> 
New model incumbent solution 40, TIME = 0h0m19s43t = 1943
************************************************************************************************
Search is finished, global bounds : [ 40 , 40 ], TIME = 0h0m19s43t = 1943
************************************************************************************************
[32mBaPCod : solution defined.[00m
statistics_cols: instance & :Optimal & cutoff & :bcRecRootDb & :bcTimeRootEval & :bcCountNodeProc & :bcRecBestDb & :bcRecBestInc & :bcTimeMain \\
statistics: Falkenauer_t120_16 & 1 & 1.0e6 & 40.00 & 2.91 & 1 & 40.00 & 40 & 19.43 \\
########################################################
bin_id=1: 252(3) 256(0) 492(4) 
bin_id=2: 250(3) 260(2) 490(0) 
bin_id=3: 251(4) 264(2) 485(0) 
bin_id=4: 257(0) 259(0) 484(2) 
bin_id=5: 260(0) 273(3) 467(2) 
bin_id=6: 264(0) 290(0) 446(4) 
bin_id=7: 273(4) 285(0) 442(1) 
bin_id=8: 279(0) 284(0) 437(1) 
bin_id=9: 298(2) 299(4) 403(0) 
bin_id=10: 294(0) 319(0) 387(4) 
bin_id=11: 317(0) 324(3) 359(2) 
bin_id=12: 254(4) 349(2) 397(0) 
bin_id=13: 252(3) 355(2) 393(4) 
bin_id=14: 261(2) 358(1) 381(4) 
bin_id=15: 259(1) 364(2) 377(4) 
bin_id=16: 262(0) 368(4) 370(1) 
bin_id=17: 255(0) 369(1) 376(3) 
bin_id=18: 255(3) 323(2) 422(0) 
bin_id=19: 257(4) 329(3) 414(0) 
bin_id=20: 262(2) 310(1) 428(3) 
bin_id=21: 265(2) 293(3) 442(0) 
bin_id=22: 279(3) 294(0) 427(2) 
bin_id=23: 267(1) 329(4) 404(1) 
bin_id=24: 265(3) 352(0) 383(2) 
bin_id=25: 281(2) 285(3) 434(4) 
bin_id=26: 267(4) 272(2) 461(3) 
bin_id=27: 251(4) 330(2) 419(3) 
bin_id=28: 278(1) 290(1) 432(3) 
bin_id=29: 298(0) 337(2) 365(3) 
bin_id=30: 250(0) 303(2) 447(4) 
bin_id=31: 284(3) 285(0) 431(4) 
bin_id=32: 282(4) 337(1) 381(2) 
bin_id=33: 260(0) 265(2) 475(3) 
bin_id=34: 270(1) 287(3) 443(0) 
bin_id=35: 253(3) 293(0) 454(0) 
bin_id=36: 254(2) 274(4) 472(3) 
bin_id=37: 275(4) 321(1) 404(3) 
bin_id=38: 262(3) 361(2) 377(3) 
bin_id=39: 264(0) 367(1) 369(2) 
bin_id=40: 272(3) 316(0) 412(0) 
Objective value: 40.0
########################################################
