Application parameters:
  batch  =>  nothing
  instance  =>  "/IN/Falkenauer_t501_16.txt-Q20"
  ub  =>  1.0e6
  cfg  =>  "/CFG/BPP.cfg"
data = Colored Bin Packing dataset.
number of items = 501
number of colors = 20
capacity = 1000
Items : 
	 item 1, weight= 250, color= 0
	 item 2, weight= 250, color= 6
	 item 3, weight= 250, color= 8
	 item 4, weight= 250, color= 8
	 item 5, weight= 250, color= 8
	 item 6, weight= 250, color= 9
	 item 7, weight= 250, color= 9
	 item 8, weight= 250, color= 10
	 item 9, weight= 250, color= 11
	 item 10, weight= 250, color= 14
	 item 11, weight= 250, color= 16
	 item 12, weight= 250, color= 16
	 item 13, weight= 250, color= 18
	 item 14, weight= 251, color= 0
	 item 15, weight= 251, color= 3
	 item 16, weight= 251, color= 6
	 item 17, weight= 251, color= 13
	 item 18, weight= 251, color= 14
	 item 19, weight= 251, color= 18
	 item 20, weight= 251, color= 19
	 item 21, weight= 252, color= 1
	 item 22, weight= 252, color= 1
	 item 23, weight= 252, color= 1
	 item 24, weight= 252, color= 4
	 item 25, weight= 252, color= 5
	 item 26, weight= 252, color= 7
	 item 27, weight= 252, color= 11
	 item 28, weight= 252, color= 14
	 item 29, weight= 252, color= 19
	 item 30, weight= 253, color= 0
	 item 31, weight= 253, color= 1
	 item 32, weight= 253, color= 1
	 item 33, weight= 253, color= 3
	 item 34, weight= 253, color= 4
	 item 35, weight= 253, color= 4
	 item 36, weight= 253, color= 5
	 item 37, weight= 253, color= 6
	 item 38, weight= 253, color= 6
	 item 39, weight= 253, color= 6
	 item 40, weight= 253, color= 8
	 item 41, weight= 253, color= 10
	 item 42, weight= 253, color= 11
	 item 43, weight= 253, color= 12
	 item 44, weight= 253, color= 15
	 item 45, weight= 253, color= 15
	 item 46, weight= 253, color= 15
	 item 47, weight= 253, color= 17
	 item 48, weight= 254, color= 5
	 item 49, weight= 254, color= 8
	 item 50, weight= 254, color= 9
	 item 51, weight= 254, color= 10
	 item 52, weight= 254, color= 10
	 item 53, weight= 254, color= 12
	 item 54, weight= 254, color= 13
	 item 55, weight= 254, color= 17
	 item 56, weight= 254, color= 17
	 item 57, weight= 254, color= 18
	 item 58, weight= 254, color= 18
	 item 59, weight= 254, color= 18
	 item 60, weight= 255, color= 2
	 item 61, weight= 255, color= 3
	 item 62, weight= 255, color= 4
	 item 63, weight= 255, color= 7
	 item 64, weight= 255, color= 12
	 item 65, weight= 255, color= 17
	 item 66, weight= 256, color= 0
	 item 67, weight= 256, color= 7
	 item 68, weight= 256, color= 8
	 item 69, weight= 256, color= 8
	 item 70, weight= 256, color= 9
	 item 71, weight= 256, color= 10
	 item 72, weight= 256, color= 15
	 item 73, weight= 256, color= 16
	 item 74, weight= 257, color= 2
	 item 75, weight= 257, color= 4
	 item 76, weight= 257, color= 11
	 item 77, weight= 257, color= 14
	 item 78, weight= 257, color= 17
	 item 79, weight= 258, color= 11
	 item 80, weight= 258, color= 13
	 item 81, weight= 258, color= 16
	 item 82, weight= 258, color= 19
	 item 83, weight= 259, color= 0
	 item 84, weight= 259, color= 3
	 item 85, weight= 259, color= 3
	 item 86, weight= 259, color= 8
	 item 87, weight= 259, color= 15
	 item 88, weight= 260, color= 3
	 item 89, weight= 260, color= 9
	 item 90, weight= 260, color= 13
	 item 91, weight= 261, color= 11
	 item 92, weight= 261, color= 14
	 item 93, weight= 261, color= 16
	 item 94, weight= 261, color= 17
	 item 95, weight= 261, color= 18
	 item 96, weight= 262, color= 5
	 item 97, weight= 262, color= 10
	 item 98, weight= 262, color= 11
	 item 99, weight= 262, color= 19
	 item 100, weight= 263, color= 4
	 item 101, weight= 263, color= 6
	 item 102, weight= 263, color= 6
	 item 103, weight= 263, color= 8
	 item 104, weight= 263, color= 10
	 item 105, weight= 263, color= 11
	 item 106, weight= 263, color= 17
	 item 107, weight= 263, color= 17
	 item 108, weight= 264, color= 2
	 item 109, weight= 264, color= 4
	 item 110, weight= 264, color= 5
	 item 111, weight= 264, color= 8
	 item 112, weight= 264, color= 9
	 item 113, weight= 264, color= 13
	 item 114, weight= 264, color= 13
	 item 115, weight= 264, color= 14
	 item 116, weight= 264, color= 16
	 item 117, weight= 264, color= 17
	 item 118, weight= 265, color= 7
	 item 119, weight= 265, color= 7
	 item 120, weight= 265, color= 17
	 item 121, weight= 266, color= 0
	 item 122, weight= 266, color= 1
	 item 123, weight= 266, color= 5
	 item 124, weight= 266, color= 10
	 item 125, weight= 267, color= 4
	 item 126, weight= 267, color= 9
	 item 127, weight= 267, color= 12
	 item 128, weight= 267, color= 15
	 item 129, weight= 268, color= 6
	 item 130, weight= 268, color= 11
	 item 131, weight= 268, color= 13
	 item 132, weight= 268, color= 14
	 item 133, weight= 268, color= 14
	 item 134, weight= 268, color= 16
	 item 135, weight= 269, color= 7
	 item 136, weight= 269, color= 13
	 item 137, weight= 270, color= 0
	 item 138, weight= 270, color= 1
	 item 139, weight= 270, color= 1
	 item 140, weight= 270, color= 3
	 item 141, weight= 270, color= 5
	 item 142, weight= 270, color= 6
	 item 143, weight= 270, color= 9
	 item 144, weight= 270, color= 11
	 item 145, weight= 271, color= 4
	 item 146, weight= 271, color= 6
	 item 147, weight= 272, color= 7
	 item 148, weight= 272, color= 9
	 item 149, weight= 272, color= 14
	 item 150, weight= 272, color= 17
	 item 151, weight= 273, color= 4
	 item 152, weight= 273, color= 9
	 item 153, weight= 273, color= 19
	 item 154, weight= 274, color= 8
	 item 155, weight= 274, color= 18
	 item 156, weight= 275, color= 5
	 item 157, weight= 275, color= 6
	 item 158, weight= 275, color= 8
	 item 159, weight= 275, color= 9
	 item 160, weight= 275, color= 10
	 item 161, weight= 275, color= 15
	 item 162, weight= 275, color= 19
	 item 163, weight= 276, color= 9
	 item 164, weight= 276, color= 11
	 item 165, weight= 276, color= 15
	 item 166, weight= 276, color= 19
	 item 167, weight= 277, color= 2
	 item 168, weight= 277, color= 10
	 item 169, weight= 277, color= 17
	 item 170, weight= 277, color= 19
	 item 171, weight= 278, color= 0
	 item 172, weight= 278, color= 5
	 item 173, weight= 278, color= 9
	 item 174, weight= 278, color= 18
	 item 175, weight= 279, color= 7
	 item 176, weight= 279, color= 7
	 item 177, weight= 279, color= 15
	 item 178, weight= 280, color= 2
	 item 179, weight= 280, color= 3
	 item 180, weight= 280, color= 10
	 item 181, weight= 280, color= 15
	 item 182, weight= 280, color= 18
	 item 183, weight= 281, color= 0
	 item 184, weight= 281, color= 9
	 item 185, weight= 281, color= 18
	 item 186, weight= 282, color= 7
	 item 187, weight= 283, color= 6
	 item 188, weight= 283, color= 12
	 item 189, weight= 283, color= 17
	 item 190, weight= 284, color= 12
	 item 191, weight= 285, color= 3
	 item 192, weight= 285, color= 17
	 item 193, weight= 286, color= 1
	 item 194, weight= 286, color= 6
	 item 195, weight= 286, color= 14
	 item 196, weight= 286, color= 16
	 item 197, weight= 286, color= 16
	 item 198, weight= 286, color= 19
	 item 199, weight= 287, color= 17
	 item 200, weight= 287, color= 17
	 item 201, weight= 288, color= 6
	 item 202, weight= 289, color= 19
	 item 203, weight= 289, color= 19
	 item 204, weight= 290, color= 11
	 item 205, weight= 290, color= 13
	 item 206, weight= 290, color= 15
	 item 207, weight= 290, color= 18
	 item 208, weight= 291, color= 1
	 item 209, weight= 291, color= 2
	 item 210, weight= 291, color= 5
	 item 211, weight= 291, color= 7
	 item 212, weight= 292, color= 18
	 item 213, weight= 293, color= 1
	 item 214, weight= 293, color= 4
	 item 215, weight= 293, color= 16
	 item 216, weight= 293, color= 18
	 item 217, weight= 294, color= 6
	 item 218, weight= 294, color= 11
	 item 219, weight= 294, color= 15
	 item 220, weight= 294, color= 19
	 item 221, weight= 296, color= 0
	 item 222, weight= 296, color= 4
	 item 223, weight= 296, color= 6
	 item 224, weight= 296, color= 8
	 item 225, weight= 296, color= 12
	 item 226, weight= 296, color= 17
	 item 227, weight= 297, color= 13
	 item 228, weight= 298, color= 1
	 item 229, weight= 298, color= 8
	 item 230, weight= 298, color= 11
	 item 231, weight= 299, color= 2
	 item 232, weight= 299, color= 6
	 item 233, weight= 300, color= 1
	 item 234, weight= 301, color= 2
	 item 235, weight= 301, color= 5
	 item 236, weight= 301, color= 9
	 item 237, weight= 301, color= 13
	 item 238, weight= 301, color= 17
	 item 239, weight= 302, color= 6
	 item 240, weight= 302, color= 10
	 item 241, weight= 304, color= 10
	 item 242, weight= 305, color= 1
	 item 243, weight= 305, color= 13
	 item 244, weight= 305, color= 19
	 item 245, weight= 306, color= 8
	 item 246, weight= 307, color= 14
	 item 247, weight= 308, color= 3
	 item 248, weight= 309, color= 5
	 item 249, weight= 309, color= 9
	 item 250, weight= 309, color= 9
	 item 251, weight= 309, color= 9
	 item 252, weight= 309, color= 10
	 item 253, weight= 309, color= 12
	 item 254, weight= 310, color= 2
	 item 255, weight= 311, color= 14
	 item 256, weight= 312, color= 10
	 item 257, weight= 312, color= 10
	 item 258, weight= 312, color= 13
	 item 259, weight= 313, color= 17
	 item 260, weight= 314, color= 14
	 item 261, weight= 316, color= 6
	 item 262, weight= 316, color= 12
	 item 263, weight= 319, color= 0
	 item 264, weight= 319, color= 1
	 item 265, weight= 319, color= 12
	 item 266, weight= 320, color= 5
	 item 267, weight= 321, color= 5
	 item 268, weight= 321, color= 7
	 item 269, weight= 321, color= 8
	 item 270, weight= 321, color= 9
	 item 271, weight= 322, color= 10
	 item 272, weight= 322, color= 19
	 item 273, weight= 322, color= 19
	 item 274, weight= 323, color= 6
	 item 275, weight= 323, color= 6
	 item 276, weight= 323, color= 14
	 item 277, weight= 324, color= 4
	 item 278, weight= 325, color= 4
	 item 279, weight= 326, color= 4
	 item 280, weight= 326, color= 19
	 item 281, weight= 327, color= 12
	 item 282, weight= 329, color= 5
	 item 283, weight= 329, color= 19
	 item 284, weight= 330, color= 6
	 item 285, weight= 330, color= 14
	 item 286, weight= 330, color= 19
	 item 287, weight= 331, color= 12
	 item 288, weight= 332, color= 6
	 item 289, weight= 333, color= 19
	 item 290, weight= 334, color= 13
	 item 291, weight= 334, color= 19
	 item 292, weight= 335, color= 7
	 item 293, weight= 336, color= 3
	 item 294, weight= 336, color= 4
	 item 295, weight= 337, color= 0
	 item 296, weight= 337, color= 9
	 item 297, weight= 337, color= 13
	 item 298, weight= 338, color= 5
	 item 299, weight= 339, color= 12
	 item 300, weight= 340, color= 8
	 item 301, weight= 340, color= 17
	 item 302, weight= 342, color= 16
	 item 303, weight= 343, color= 4
	 item 304, weight= 345, color= 19
	 item 305, weight= 347, color= 2
	 item 306, weight= 347, color= 9
	 item 307, weight= 348, color= 5
	 item 308, weight= 350, color= 12
	 item 309, weight= 351, color= 8
	 item 310, weight= 352, color= 5
	 item 311, weight= 352, color= 6
	 item 312, weight= 352, color= 8
	 item 313, weight= 352, color= 10
	 item 314, weight= 354, color= 17
	 item 315, weight= 355, color= 13
	 item 316, weight= 355, color= 19
	 item 317, weight= 356, color= 6
	 item 318, weight= 356, color= 14
	 item 319, weight= 357, color= 2
	 item 320, weight= 357, color= 17
	 item 321, weight= 358, color= 1
	 item 322, weight= 358, color= 2
	 item 323, weight= 359, color= 4
	 item 324, weight= 359, color= 5
	 item 325, weight= 359, color= 13
	 item 326, weight= 360, color= 16
	 item 327, weight= 361, color= 3
	 item 328, weight= 361, color= 3
	 item 329, weight= 361, color= 10
	 item 330, weight= 361, color= 11
	 item 331, weight= 361, color= 14
	 item 332, weight= 361, color= 15
	 item 333, weight= 361, color= 18
	 item 334, weight= 362, color= 0
	 item 335, weight= 362, color= 17
	 item 336, weight= 363, color= 10
	 item 337, weight= 363, color= 15
	 item 338, weight= 364, color= 2
	 item 339, weight= 364, color= 4
	 item 340, weight= 364, color= 7
	 item 341, weight= 364, color= 19
	 item 342, weight= 365, color= 10
	 item 343, weight= 365, color= 10
	 item 344, weight= 365, color= 16
	 item 345, weight= 365, color= 17
	 item 346, weight= 365, color= 19
	 item 347, weight= 365, color= 19
	 item 348, weight= 367, color= 0
	 item 349, weight= 367, color= 5
	 item 350, weight= 367, color= 7
	 item 351, weight= 368, color= 2
	 item 352, weight= 368, color= 16
	 item 353, weight= 369, color= 1
	 item 354, weight= 371, color= 5
	 item 355, weight= 372, color= 8
	 item 356, weight= 372, color= 13
	 item 357, weight= 372, color= 19
	 item 358, weight= 373, color= 2
	 item 359, weight= 373, color= 5
	 item 360, weight= 374, color= 3
	 item 361, weight= 374, color= 8
	 item 362, weight= 375, color= 11
	 item 363, weight= 375, color= 19
	 item 364, weight= 379, color= 1
	 item 365, weight= 379, color= 2
	 item 366, weight= 379, color= 2
	 item 367, weight= 379, color= 3
	 item 368, weight= 379, color= 5
	 item 369, weight= 380, color= 13
	 item 370, weight= 381, color= 7
	 item 371, weight= 381, color= 7
	 item 372, weight= 382, color= 1
	 item 373, weight= 382, color= 4
	 item 374, weight= 382, color= 8
	 item 375, weight= 383, color= 1
	 item 376, weight= 383, color= 13
	 item 377, weight= 383, color= 16
	 item 378, weight= 383, color= 18
	 item 379, weight= 385, color= 0
	 item 380, weight= 385, color= 12
	 item 381, weight= 387, color= 10
	 item 382, weight= 387, color= 12
	 item 383, weight= 388, color= 12
	 item 384, weight= 391, color= 13
	 item 385, weight= 392, color= 17
	 item 386, weight= 393, color= 18
	 item 387, weight= 394, color= 7
	 item 388, weight= 395, color= 1
	 item 389, weight= 395, color= 7
	 item 390, weight= 396, color= 1
	 item 391, weight= 397, color= 10
	 item 392, weight= 398, color= 2
	 item 393, weight= 398, color= 4
	 item 394, weight= 400, color= 4
	 item 395, weight= 401, color= 9
	 item 396, weight= 401, color= 18
	 item 397, weight= 402, color= 9
	 item 398, weight= 403, color= 2
	 item 399, weight= 403, color= 7
	 item 400, weight= 404, color= 19
	 item 401, weight= 405, color= 6
	 item 402, weight= 405, color= 17
	 item 403, weight= 407, color= 13
	 item 404, weight= 412, color= 18
	 item 405, weight= 413, color= 18
	 item 406, weight= 413, color= 18
	 item 407, weight= 414, color= 3
	 item 408, weight= 415, color= 1
	 item 409, weight= 415, color= 7
	 item 410, weight= 416, color= 12
	 item 411, weight= 420, color= 0
	 item 412, weight= 420, color= 2
	 item 413, weight= 421, color= 5
	 item 414, weight= 421, color= 5
	 item 415, weight= 421, color= 10
	 item 416, weight= 421, color= 11
	 item 417, weight= 421, color= 18
	 item 418, weight= 421, color= 19
	 item 419, weight= 423, color= 12
	 item 420, weight= 424, color= 18
	 item 421, weight= 425, color= 18
	 item 422, weight= 426, color= 10
	 item 423, weight= 428, color= 5
	 item 424, weight= 429, color= 4
	 item 425, weight= 429, color= 10
	 item 426, weight= 431, color= 15
	 item 427, weight= 433, color= 8
	 item 428, weight= 435, color= 0
	 item 429, weight= 436, color= 8
	 item 430, weight= 437, color= 10
	 item 431, weight= 440, color= 2
	 item 432, weight= 441, color= 10
	 item 433, weight= 442, color= 3
	 item 434, weight= 442, color= 7
	 item 435, weight= 442, color= 13
	 item 436, weight= 443, color= 19
	 item 437, weight= 446, color= 13
	 item 438, weight= 447, color= 4
	 item 439, weight= 447, color= 13
	 item 440, weight= 449, color= 13
	 item 441, weight= 450, color= 2
	 item 442, weight= 450, color= 19
	 item 443, weight= 451, color= 18
	 item 444, weight= 453, color= 3
	 item 445, weight= 453, color= 10
	 item 446, weight= 453, color= 13
	 item 447, weight= 453, color= 14
	 item 448, weight= 454, color= 12
	 item 449, weight= 454, color= 16
	 item 450, weight= 456, color= 2
	 item 451, weight= 456, color= 3
	 item 452, weight= 456, color= 9
	 item 453, weight= 458, color= 14
	 item 454, weight= 459, color= 15
	 item 455, weight= 460, color= 0
	 item 456, weight= 461, color= 0
	 item 457, weight= 461, color= 15
	 item 458, weight= 462, color= 1
	 item 459, weight= 462, color= 7
	 item 460, weight= 462, color= 11
	 item 461, weight= 463, color= 18
	 item 462, weight= 465, color= 14
	 item 463, weight= 467, color= 5
	 item 464, weight= 468, color= 17
	 item 465, weight= 470, color= 16
	 item 466, weight= 470, color= 17
	 item 467, weight= 471, color= 18
	 item 468, weight= 473, color= 9
	 item 469, weight= 475, color= 3
	 item 470, weight= 475, color= 15
	 item 471, weight= 475, color= 19
	 item 472, weight= 477, color= 4
	 item 473, weight= 478, color= 4
	 item 474, weight= 478, color= 12
	 item 475, weight= 479, color= 14
	 item 476, weight= 479, color= 15
	 item 477, weight= 480, color= 9
	 item 478, weight= 480, color= 10
	 item 479, weight= 481, color= 4
	 item 480, weight= 481, color= 15
	 item 481, weight= 483, color= 1
	 item 482, weight= 483, color= 18
	 item 483, weight= 484, color= 19
	 item 484, weight= 485, color= 9
	 item 485, weight= 486, color= 2
	 item 486, weight= 486, color= 14
	 item 487, weight= 487, color= 2
	 item 488, weight= 489, color= 5
	 item 489, weight= 490, color= 0
	 item 490, weight= 491, color= 5
	 item 491, weight= 491, color= 18
	 item 492, weight= 493, color= 0
	 item 493, weight= 495, color= 4
	 item 494, weight= 495, color= 16
	 item 495, weight= 496, color= 6
	 item 496, weight= 496, color= 17
	 item 497, weight= 497, color= 5
	 item 498, weight= 497, color= 16
	 item 499, weight= 497, color= 17
	 item 500, weight= 498, color= 12
	 item 501, weight= 499, color= 6

VRPSolver warning: Interval set for resource 1 on source node (when source != sink) is ignored (by definition is [0.0,0.0])
[41m solve [00m
~~~~~~~~~~~~~~~~~~~~~~~~~~~~~~~~~~~~~~~~~~~~~~~~~~~~~~~~~~~~~~~~~~~~~~~~~~~~~~
VRPSolver v0.4.1, 24/03/2021. Web: vrpsolver.math.u-bordeaux.fr
Corresponds to the solver by Pessoa, Sadykov, Uchoa and Vanderbeck (2020)
Paper: dx.doi.org/10.1007/s10107-020-01523-z
USE THIS CODE ONLY FOR ACADEMIC PURPOSES AT YOUR OWN RISK
~~~~~~~~~~~~~~~~~~~~~~~~~~~~~~~~~~~~~~~~~~~~~~~~~~~~~~~~~~~~~~~~~~~~~~~~~~~~~~
BaPCod v053, 24/03/2021, © Inria Bordeaux, France
~~~~~~~~~~~~~~~~~~~~~~~~~~~~~~~~~~~~~~~~~~~~~~~~~~~~~~~~~~~~~~~~~~~~~~~~~~~~~~
VRPSolver parameters:
GlobalTimeLimit = 1800
MaxNbOfBBtreeNodeTreated = 100000
treeSearchStrategy = 1
RCSPstopCutGenTimeThresholdInPricing = 10
RCSPhardTimeThresholdInPricing = 20
RCSPnumberOfBucketsPerVertex = 2000
RCSPdynamicBucketSteps = 0
RCSPuseBidirectionalSearch = 1
RCSPapplyReducedCostFixing = 1
RCSPredCostFixingFalseGap = 0
RCSPmaxNumOfColsPerIteration = 100
RCSPmaxNumOfColsPerExactIteration = 100
RCSPheurLabelingStrategy = 4
StabilizationMinPhaseOfStage = 1
RCSPmaxNumOfLabelsInEnumeration = 100000
RCSPmaxNumOfEnumeratedSolutions = 1000000
RCSPmaxNumOfEnumSolutionsForMIP = 100000
RCSPinitNGneighbourhoodSize = 0
RCSPmaxNGneighbourhoodSize = 0
RCSPrankOneCutsMaxNumPerRound = 100
RCSPrankOneCutsMaxNumRows = -1
RCSPrankOneCutsMemoryType = 2
CutTailingOffThreshold = 0.02
CutTailingOffCounterThreshold = 3
SafeDualBoundScaleFactor = -1
StrongBranchingPhaseOneCandidatesNumber = 100
StrongBranchingPhaseOneTreeSizeEstimRatio = 0.3
StrongBranchingPhaseTwoCandidatesNumber = 1
StrongBranchingPhaseTwoTreeSizeEstimRatio = 0.1
MaxTimeForRestrictedMasterIpHeur = -1
DivingHeurUseDepthLimit = 0
MaxLDSbreadth = 3
MaxLDSdepth = 2
New model incumbent solution 1e+06, TIME = 0h0m0s3t = 3
Model is built TIME = 0h0m2s92t = 292
************************************************************************************************
**** BaB tree root node
**** Local DB = -1e+12, global bounds : [ -1e+12 , 1e+06 ], TIME = 0h0m2s92t = 292
**** 1 open nodes, 0 columns (0 active), 0 dyn. constrs. (0 active), 1004 art. vars. (1004 active)
************************************************************************************************
<DWph=2> <it= 10> <et=5.17> <Mt= 0.01> <Spt= 2.22> <nCl=1000> <DB=-1245645705.5330> <Mlp=504075035.5312> <PB=1000000> 
<DWph=2> <it= 20> <et=7.23> <Mt= 0.02> <Spt= 2.05> <nCl=1000> <DB=-1263108885.7006> <Mlp=399075073.6979> <PB=1000000> 
<DWph=2> <it= 30> <et=9.29> <Mt= 0.02> <Spt= 2.03> <nCl=1000> <DB=-1256231543.9221> <Mlp=281741781.0312> <PB=1000000> 
<DWph=2> <it= 40> <et=11.35> <Mt= 0.02> <Spt= 2.03> <nCl=1000> <DB=-1250566165.5809> <Mlp=189741810.3646> <PB=1000000> 
<DWph=2> <it= 50> <et=13.34> <Mt= 0.04> <Spt= 1.94> <nCl=1000> <DB=-1246321535.2513> <Mlp=112308497.3924> <PB=1000000> 
<DWph=2> <it= 60> <et=15.31> <Mt= 0.05> <Spt= 1.92> <nCl=1000> <DB=-1238177408.9426> <Mlp=62005172.1264> <PB=1000000> 
<DWph=2> <it= 70> <et=17.25> <Mt= 0.06> <Spt= 1.87> <nCl=1000> <DB=-1090772577.5336> <Mlp=34198004.9890> <PB=1000000> 
<DWph=2> <it= 80> <et=19.24> <Mt= 0.13> <Spt= 1.86> <nCl=1000> <DB=-871569145.5608> <Mlp=8608836.9239> <PB=1000000> 
<DWph=2> <it= 90> <et=21.68> <Mt= 0.32> <Spt= 2.11> <nCl=953> <DB=  128.6542> <Mlp=  167.5308> <PB=1000000> 
<DWph=2> <it=100> <et=24.08> <Mt= 0.40> <Spt= 1.99> <nCl=1000> <DB=  159.0643> <Mlp=  167.0564> <PB=1000000> 
<DWph=2> <it=108> <et=26.31> <Mt= 0.30> <Spt= 1.88> <nCl=696> <DB=  167.0000> <Mlp=  167.0000> <PB=1000000> 
<DWph=1> <it=109> <et=26.73> <Mt= 0.00> <Spt= 0.41> <nCl=  0> <DB=  167.0000> <Mlp=  167.0000> <PB=1000000> 
<DWph=0> <it=110> <et=26.95> <Mt= 0.00> <Spt= 0.22> <nCl=  0> <DB=  167.0000> <Mlp=  167.0000> <PB=1000000> 
Reduced cost fixing for graph G_1... took 2.14 sec., 533993 buck. arcs remain (58.7% from prev., 24.8% from max.)
Run enumeration... took 0.63 sec. and not succeeded.
ColGenEvalAlg final dual bound: 167 (rounded: 167)
----------- Diving heuristic started -----------
<DWph=2> <it=  1> <et=29.84> <Mt= 0.00> <Spt= 0.00> <nCl=  0> <DB=  167.0000> <Mlp=  167.0000> <PB=1000000> 
<DWph=1> <it=  2> <et=29.84> <Mt= 0.01> <Spt= 0.00> <nCl=  0> <DB=  167.0000> <Mlp=  167.0000> <PB=1000000> 
---- Diving heuristic node with dive number = 0, fix depth = 0 and tabu list size = 0
Fixed projected solution = [x_1_0_1_OspV=1, x_1_59_1_OspV=1, x_1_135_1_OspV=1, x_1_472_1_OspV=1]
<DWph=2> <it=  1> <et=29.92> <Mt= 0.00> <Spt= 0.00> <nCl=  0> <DB=  167.0000> <Mlp=  167.0000> <PB=1000000> 
<DWph=1> <it=  2> <et=29.93> <Mt= 0.00> <Spt= 0.00> <nCl=  0> <DB=  167.0000> <Mlp=  167.0000> <PB=1000000> 
---- Diving heuristic node with dive number = 0, fix depth = 0 and tabu list size = 0
Fixed projected solution = [x_1_0_1_OspV=1, x_1_42_1_OspV=1, x_1_147_1_OspV=1, x_1_471_1_OspV=1]
<DWph=2> <it=  1> <et=30.01> <Mt= 0.00> <Spt= 0.00> <nCl=  0> <DB=  167.0000> <Mlp=  167.0000> <PB=1000000> 
<DWph=1> <it=  2> <et=30.01> <Mt= 0.00> <Spt= 0.00> <nCl=  0> <DB=  167.0000> <Mlp=  167.0000> <PB=1000000> 
---- Diving heuristic node with dive number = 0, fix depth = 0 and tabu list size = 0
Fixed projected solution = [x_1_0_1_OspV=1, x_1_159_1_OspV=1, x_1_176_1_OspV=1, x_1_437_1_OspV=1]
<DWph=2> <it=  1> <et=30.09> <Mt= 0.00> <Spt= 0.00> <nCl=  0> <DB=  167.0000> <Mlp=  167.0000> <PB=1000000> 
<DWph=1> <it=  2> <et=30.09> <Mt= 0.01> <Spt= 0.00> <nCl=  0> <DB=  167.0000> <Mlp=  167.0000> <PB=1000000> 
---- Diving heuristic node with dive number = 0, fix depth = 0 and tabu list size = 0
Fixed projected solution = [x_1_0_1_OspV=1, x_1_185_1_OspV=1, x_1_188_1_OspV=1, x_1_429_1_OspV=1]
<DWph=2> <it=  1> <et=30.17> <Mt= 0.00> <Spt= 0.00> <nCl=  0> <DB=  167.0000> <Mlp=  167.0000> <PB=1000000> 
<DWph=1> <it=  2> <et=30.17> <Mt= 0.00> <Spt= 0.00> <nCl=  0> <DB=  167.0000> <Mlp=  167.0000> <PB=1000000> 
---- Diving heuristic node with dive number = 0, fix depth = 0 and tabu list size = 0
Fixed projected solution = [x_1_0_1_OspV=1, x_1_258_1_OspV=1, x_1_266_1_OspV=1, x_1_352_1_OspV=1]
<DWph=2> <it=  1> <et=30.25> <Mt= 0.00> <Spt= 0.00> <nCl=  0> <DB=  167.0000> <Mlp=  167.0000> <PB=1000000> 
<DWph=1> <it=  2> <et=30.25> <Mt= 0.00> <Spt= 0.00> <nCl=  0> <DB=  167.0000> <Mlp=  167.0000> <PB=1000000> 
---- Diving heuristic node with dive number = 0, fix depth = 0 and tabu list size = 0
Fixed projected solution = [x_1_0_1_OspV=1, x_1_30_1_OspV=1, x_1_280_1_OspV=1, x_1_413_1_OspV=1]
<DWph=2> <it=  1> <et=30.33> <Mt= 0.00> <Spt= 0.00> <nCl=  0> <DB=  167.0000> <Mlp=  167.0000> <PB=1000000> 
<DWph=1> <it=  2> <et=30.34> <Mt= 0.01> <Spt= 0.00> <nCl=  0> <DB=  167.0000> <Mlp=  167.0000> <PB=1000000> 
---- Diving heuristic node with dive number = 0, fix depth = 0 and tabu list size = 0
Fixed projected solution = [x_1_0_1_OspV=1, x_1_54_1_OspV=1, x_1_349_1_OspV=1, x_1_366_1_OspV=1]
<DWph=2> <it=  1> <et=30.41> <Mt= 0.00> <Spt= 0.00> <nCl=  0> <DB=  167.0000> <Mlp=  167.0000> <PB=1000000> 
<DWph=1> <it=  2> <et=30.42> <Mt= 0.00> <Spt= 0.00> <nCl=  0> <DB=  167.0000> <Mlp=  167.0000> <PB=1000000> 
---- Diving heuristic node with dive number = 0, fix depth = 0 and tabu list size = 0
Fixed projected solution = [x_1_0_1_OspV=1, x_1_75_1_OspV=1, x_1_88_1_OspV=1, x_1_482_1_OspV=1]
<DWph=2> <it=  1> <et=30.50> <Mt= 0.00> <Spt= 0.00> <nCl=  0> <DB=  167.0000> <Mlp=  167.0000> <PB=1000000> 
<DWph=1> <it=  2> <et=30.50> <Mt= 0.00> <Spt= 0.00> <nCl=  0> <DB=  167.0000> <Mlp=  167.0000> <PB=1000000> 
---- Diving heuristic node with dive number = 0, fix depth = 1 and tabu list size = 0
Fixed projected solution = [x_1_0_1_OspV=1, x_1_149_1_OspV=1, x_1_328_1_OspV=1, x_1_348_1_OspV=1]
<DWph=2> <it=  1> <et=30.57> <Mt= 0.01> <Spt= 0.00> <nCl=  0> <DB=  167.0000> <Mlp=  167.0000> <PB=1000000> 
<DWph=1> <it=  2> <et=30.57> <Mt= 0.00> <Spt= 0.00> <nCl=  0> <DB=  167.0000> <Mlp=  167.0000> <PB=1000000> 
---- Diving heuristic node with dive number = 0, fix depth = 2 and tabu list size = 0
Fixed projected solution = [x_1_0_1_OspV=1, x_1_117_1_OspV=1, x_1_186_1_OspV=1, x_1_449_1_OspV=1]
<DWph=2> <it=  1> <et=30.65> <Mt= 0.00> <Spt= 0.00> <nCl=  0> <DB=  167.0000> <Mlp=  167.0000> <PB=1000000> 
<DWph=1> <it=  2> <et=30.65> <Mt= 0.00> <Spt= 0.00> <nCl=  0> <DB=  167.0000> <Mlp=  167.0000> <PB=1000000> 
---- Diving heuristic node with dive number = 0, fix depth = 3 and tabu list size = 0
Fixed projected solution = [x_1_0_1_OspV=1, x_1_52_1_OspV=1, x_1_354_1_OspV=1, x_1_362_1_OspV=1]
<DWph=2> <it=  1> <et=30.66> <Mt= 0.00> <Spt= 0.00> <nCl=  0> <DB=  167.0000> <Mlp=  167.0000> <PB=1000000> 
<DWph=1> <it=  2> <et=30.66> <Mt= 0.01> <Spt= 0.00> <nCl=  0> <DB=  167.0000> <Mlp=  167.0000> <PB=1000000> 
---- Diving heuristic node with dive number = 0, fix depth = 4 and tabu list size = 0
Fixed projected solution = [x_1_0_1_OspV=1, x_1_166_1_OspV=1, x_1_169_1_OspV=1, x_1_438_1_OspV=1]
<DWph=2> <it=  1> <et=30.68> <Mt= 0.01> <Spt= 0.00> <nCl=  0> <DB=  167.0000> <Mlp=  167.0000> <PB=1000000> 
<DWph=1> <it=  2> <et=30.68> <Mt= 0.00> <Spt= 0.00> <nCl=  0> <DB=  167.0000> <Mlp=  167.0000> <PB=1000000> 
---- Diving heuristic node with dive number = 0, fix depth = 4 and tabu list size = 0
Fixed projected solution = [x_1_0_1_OspV=1, x_1_110_1_OspV=1, x_1_122_1_OspV=1, x_1_466_1_OspV=1]
<DWph=2> <it=  1> <et=30.69> <Mt= 0.00> <Spt= 0.00> <nCl=  0> <DB=  167.0000> <Mlp=  167.0000> <PB=1000000> 
<DWph=1> <it=  2> <et=30.69> <Mt= 0.00> <Spt= 0.00> <nCl=  0> <DB=  167.0000> <Mlp=  167.0000> <PB=1000000> 
---- Diving heuristic node with dive number = 0, fix depth = 4 and tabu list size = 0
Fixed projected solution = [x_1_0_1_OspV=1, x_1_144_1_OspV=1, x_1_199_1_OspV=1, x_1_436_1_OspV=1]
<DWph=2> <it=  1> <et=30.70> <Mt= 0.00> <Spt= 0.00> <nCl=  0> <DB=  167.0000> <Mlp=  167.0000> <PB=1000000> 
<DWph=1> <it=  2> <et=30.70> <Mt= 0.00> <Spt= 0.00> <nCl=  0> <DB=  167.0000> <Mlp=  167.0000> <PB=1000000> 
---- Diving heuristic node with dive number = 0, fix depth = 5 and tabu list size = 0
Fixed projected solution = [x_1_0_1_OspV=1, x_1_111_1_OspV=1, x_1_309_1_OspV=1, x_1_379_1_OspV=1]
<DWph=2> <it=  1> <et=30.71> <Mt= 0.01> <Spt= 0.00> <nCl=  0> <DB=  167.0000> <Mlp=  167.0000> <PB=1000000> 
<DWph=1> <it=  2> <et=30.71> <Mt= 0.00> <Spt= 0.00> <nCl=  0> <DB=  167.0000> <Mlp=  167.0000> <PB=1000000> 
---- Diving heuristic node with dive number = 0, fix depth = 6 and tabu list size = 0
Fixed projected solution = [x_1_0_1_OspV=1, x_1_120_1_OspV=1, x_1_310_1_OspV=1, x_1_378_1_OspV=1]
<DWph=2> <it=  1> <et=30.72> <Mt= 0.00> <Spt= 0.00> <nCl=  0> <DB=  167.0000> <Mlp=  167.0000> <PB=1000000> 
<DWph=1> <it=  2> <et=30.72> <Mt= 0.00> <Spt= 0.00> <nCl=  0> <DB=  167.0000> <Mlp=  167.0000> <PB=1000000> 
---- Diving heuristic node with dive number = 0, fix depth = 7 and tabu list size = 0
Fixed projected solution = [x_1_0_1_OspV=1, x_1_55_1_OspV=1, x_1_248_1_OspV=1, x_1_430_1_OspV=1]
<DWph=2> <it=  1> <et=30.73> <Mt= 0.01> <Spt= 0.00> <nCl=  0> <DB=  167.0000> <Mlp=  167.0000> <PB=1000000> 
<DWph=1> <it=  2> <et=30.73> <Mt= 0.00> <Spt= 0.00> <nCl=  0> <DB=  167.0000> <Mlp=  167.0000> <PB=1000000> 
---- Diving heuristic node with dive number = 0, fix depth = 8 and tabu list size = 0
Fixed projected solution = [x_1_0_1_OspV=1, x_1_141_1_OspV=1, x_1_342_1_OspV=1, x_1_347_1_OspV=1]
<DWph=2> <it=  1> <et=30.74> <Mt= 0.00> <Spt= 0.00> <nCl=  0> <DB=  167.0000> <Mlp=  167.0000> <PB=1000000> 
<DWph=1> <it=  2> <et=30.74> <Mt= 0.00> <Spt= 0.00> <nCl=  0> <DB=  167.0000> <Mlp=  167.0000> <PB=1000000> 
---- Diving heuristic node with dive number = 0, fix depth = 9 and tabu list size = 0
Fixed projected solution = [x_1_0_1_OspV=1, x_1_208_1_OspV=1, x_1_285_1_OspV=1, x_1_365_1_OspV=1]
<DWph=2> <it=  1> <et=30.76> <Mt= 0.01> <Spt= 0.00> <nCl=  0> <DB=  167.0000> <Mlp=  167.0000> <PB=1000000> 
<DWph=1> <it=  2> <et=30.76> <Mt= 0.00> <Spt= 0.00> <nCl=  0> <DB=  167.0000> <Mlp=  167.0000> <PB=1000000> 
---- Diving heuristic node with dive number = 0, fix depth = 9 and tabu list size = 0
Fixed projected solution = [x_1_0_1_OspV=1, x_1_93_1_OspV=1, x_1_293_1_OspV=1, x_1_399_1_OspV=1]
<DWph=2> <it=  1> <et=30.77> <Mt= 0.00> <Spt= 0.00> <nCl=  0> <DB=  167.0000> <Mlp=  167.0000> <PB=1000000> 
<DWph=1> <it=  2> <et=30.77> <Mt= 0.01> <Spt= 0.00> <nCl=  0> <DB=  167.0000> <Mlp=  167.0000> <PB=1000000> 
---- Diving heuristic node with dive number = 0, fix depth = 10 and tabu list size = 0
Fixed projected solution = [x_1_0_1_OspV=1, x_1_7_1_OspV=1, x_1_25_1_OspV=1, x_1_500_1_OspV=1]
<DWph=2> <it=  1> <et=30.78> <Mt= 0.00> <Spt= 0.00> <nCl=  0> <DB=  167.0000> <Mlp=  167.0000> <PB=1000000> 
<DWph=1> <it=  2> <et=30.78> <Mt= 0.00> <Spt= 0.00> <nCl=  0> <DB=  167.0000> <Mlp=  167.0000> <PB=1000000> 
---- Diving heuristic node with dive number = 0, fix depth = 11 and tabu list size = 0
Fixed projected solution = [x_1_0_1_OspV=1, x_1_158_1_OspV=1, x_1_165_1_OspV=1, x_1_440_1_OspV=1]
<DWph=2> <it=  1> <et=30.80> <Mt= 0.01> <Spt= 0.00> <nCl=  0> <DB=  167.0000> <Mlp=  167.0000> <PB=1000000> 
<DWph=1> <it=  2> <et=30.80> <Mt= 0.00> <Spt= 0.00> <nCl=  0> <DB=  167.0000> <Mlp=  167.0000> <PB=1000000> 
---- Diving heuristic node with dive number = 0, fix depth = 12 and tabu list size = 0
Fixed projected solution = [x_1_0_1_OspV=1, x_1_209_1_OspV=1, x_1_217_1_OspV=1, x_1_409_1_OspV=1]
<DWph=2> <it=  1> <et=30.81> <Mt= 0.01> <Spt= 0.00> <nCl=  0> <DB=  167.0000> <Mlp=  167.0000> <PB=1000000> 
<DWph=1> <it=  2> <et=30.81> <Mt= 0.00> <Spt= 0.00> <nCl=  0> <DB=  167.0000> <Mlp=  167.0000> <PB=1000000> 
---- Diving heuristic node with dive number = 0, fix depth = 13 and tabu list size = 0
Fixed projected solution = [x_1_0_1_OspV=1, x_1_210_1_OspV=1, x_1_214_1_OspV=1, x_1_410_1_OspV=1]
<DWph=2> <it=  1> <et=30.82> <Mt= 0.01> <Spt= 0.00> <nCl=  0> <DB=  167.0000> <Mlp=  167.0000> <PB=1000000> 
<DWph=1> <it=  2> <et=30.83> <Mt= 0.00> <Spt= 0.00> <nCl=  0> <DB=  167.0000> <Mlp=  167.0000> <PB=1000000> 
---- Diving heuristic node with dive number = 0, fix depth = 14 and tabu list size = 0
Fixed projected solution = [x_1_0_1_OspV=1, x_1_66_1_OspV=1, x_1_211_1_OspV=1, x_1_445_1_OspV=1]
<DWph=2> <it=  1> <et=30.84> <Mt= 0.00> <Spt= 0.00> <nCl=  0> <DB=  167.0000> <Mlp=  167.0000> <PB=1000000> 
<DWph=1> <it=  2> <et=30.84> <Mt= 0.01> <Spt= 0.00> <nCl=  0> <DB=  167.0000> <Mlp=  167.0000> <PB=1000000> 
---- Diving heuristic node with dive number = 0, fix depth = 15 and tabu list size = 0
Fixed projected solution = [x_1_0_1_OspV=1, x_1_196_1_OspV=1, x_1_215_1_OspV=1, x_1_418_1_OspV=1]
<DWph=2> <it=  1> <et=30.86> <Mt= 0.01> <Spt= 0.00> <nCl=  0> <DB=  167.0000> <Mlp=  167.0000> <PB=1000000> 
<DWph=1> <it=  2> <et=30.86> <Mt= 0.00> <Spt= 0.00> <nCl=  0> <DB=  167.0000> <Mlp=  167.0000> <PB=1000000> 
---- Diving heuristic node with dive number = 0, fix depth = 16 and tabu list size = 0
Fixed projected solution = [x_1_0_1_OspV=1, x_1_78_1_OspV=1, x_1_341_1_OspV=1, x_1_367_1_OspV=1]
<DWph=2> <it=  1> <et=30.87> <Mt= 0.00> <Spt= 0.00> <nCl=  0> <DB=  167.0000> <Mlp=  167.0000> <PB=1000000> 
<DWph=1> <it=  2> <et=30.87> <Mt= 0.01> <Spt= 0.00> <nCl=  0> <DB=  167.0000> <Mlp=  167.0000> <PB=1000000> 
---- Diving heuristic node with dive number = 0, fix depth = 17 and tabu list size = 0
Fixed projected solution = [x_1_0_1_OspV=1, x_1_193_1_OspV=1, x_1_202_1_OspV=1, x_1_421_1_OspV=1]
<DWph=2> <it=  1> <et=30.90> <Mt= 0.02> <Spt= 0.00> <nCl=  0> <DB=  167.0000> <Mlp=  167.0000> <PB=1000000> 
<DWph=1> <it=  2> <et=30.90> <Mt= 0.00> <Spt= 0.00> <nCl=  0> <DB=  167.0000> <Mlp=  167.0000> <PB=1000000> 
---- Diving heuristic node with dive number = 0, fix depth = 18 and tabu list size = 0
Fixed projected solution = [x_1_0_1_OspV=1, x_1_133_1_OspV=1, x_1_148_1_OspV=1, x_1_455_1_OspV=1]
<DWph=2> <it=  1> <et=30.92> <Mt= 0.02> <Spt= 0.00> <nCl=  0> <DB=  167.0000> <Mlp=  167.0000> <PB=1000000> 
<DWph=1> <it=  2> <et=30.93> <Mt= 0.00> <Spt= 0.00> <nCl=  0> <DB=  167.0000> <Mlp=  167.0000> <PB=1000000> 
---- Diving heuristic node with dive number = 0, fix depth = 19 and tabu list size = 0
Fixed projected solution = [x_1_0_1_OspV=1, x_1_167_1_OspV=1, x_1_325_1_OspV=1, x_1_339_1_OspV=1]
<DWph=2> <it=  1> <et=30.95> <Mt= 0.01> <Spt= 0.00> <nCl=  0> <DB=  167.0000> <Mlp=  167.0000> <PB=1000000> 
<DWph=1> <it=  2> <et=30.95> <Mt= 0.00> <Spt= 0.00> <nCl=  0> <DB=  167.0000> <Mlp=  167.0000> <PB=1000000> 
---- Diving heuristic node with dive number = 0, fix depth = 20 and tabu list size = 0
Fixed projected solution = [x_1_0_1_OspV=1, x_1_70_1_OspV=1, x_1_331_1_OspV=1, x_1_376_1_OspV=1]
<DWph=2> <it=  1> <et=30.97> <Mt= 0.02> <Spt= 0.00> <nCl=  0> <DB=  167.0000> <Mlp=  167.0000> <PB=1000000> 
<DWph=1> <it=  2> <et=30.97> <Mt= 0.00> <Spt= 0.00> <nCl=  0> <DB=  167.0000> <Mlp=  167.0000> <PB=1000000> 
---- Diving heuristic node with dive number = 0, fix depth = 21 and tabu list size = 0
Fixed projected solution = [x_1_0_1_OspV=1, x_1_269_1_OspV=1, x_1_273_1_OspV=1, x_1_320_1_OspV=1]
<DWph=2> <it=  1> <et=30.99> <Mt= 0.02> <Spt= 0.00> <nCl=  0> <DB=  167.0000> <Mlp=  167.0000> <PB=1000000> 
<DWph=1> <it=  2> <et=31.00> <Mt= 0.00> <Spt= 0.00> <nCl=  0> <DB=  167.0000> <Mlp=  167.0000> <PB=1000000> 
---- Diving heuristic node with dive number = 0, fix depth = 22 and tabu list size = 0
Fixed projected solution = [x_1_0_1_OspV=1, x_1_113_1_OspV=1, x_1_154_1_OspV=1, x_1_458_1_OspV=1]
<DWph=2> <it=  1> <et=31.01> <Mt= 0.01> <Spt= 0.00> <nCl=  0> <DB=  167.0000> <Mlp=  167.0000> <PB=1000000> 
<DWph=1> <it=  2> <et=31.01> <Mt= 0.00> <Spt= 0.00> <nCl=  0> <DB=  167.0000> <Mlp=  167.0000> <PB=1000000> 
---- Diving heuristic node with dive number = 0, fix depth = 23 and tabu list size = 0
Fixed projected solution = [x_1_0_1_OspV=1, x_1_128_1_OspV=1, x_1_138_1_OspV=1, x_1_461_1_OspV=1]
<DWph=2> <it=  1> <et=31.03> <Mt= 0.02> <Spt= 0.00> <nCl=  0> <DB=  167.0000> <Mlp=  167.0000> <PB=1000000> 
<DWph=1> <it=  2> <et=31.04> <Mt= 0.00> <Spt= 0.00> <nCl=  0> <DB=  167.0000> <Mlp=  167.0000> <PB=1000000> 
---- Diving heuristic node with dive number = 0, fix depth = 24 and tabu list size = 0
Fixed projected solution = [x_1_0_1_OspV=1, x_1_112_1_OspV=1, x_1_315_1_OspV=1, x_1_370_1_OspV=1]
<DWph=2> <it=  1> <et=31.06> <Mt= 0.02> <Spt= 0.00> <nCl=  0> <DB=  167.0000> <Mlp=  167.0000> <PB=1000000> 
<DWph=1> <it=  2> <et=31.06> <Mt= 0.00> <Spt= 0.00> <nCl=  0> <DB=  167.0000> <Mlp=  167.0000> <PB=1000000> 
---- Diving heuristic node with dive number = 0, fix depth = 25 and tabu list size = 0
Fixed projected solution = [x_1_0_1_OspV=1, x_1_19_1_OspV=1, x_1_35_1_OspV=1, x_1_496_1_OspV=1]
<DWph=2> <it=  1> <et=31.08> <Mt= 0.01> <Spt= 0.00> <nCl=  0> <DB=  167.0000> <Mlp=  167.0000> <PB=1000000> 
<DWph=1> <it=  2> <et=31.08> <Mt= 0.00> <Spt= 0.00> <nCl=  0> <DB=  167.0000> <Mlp=  167.0000> <PB=1000000> 
---- Diving heuristic node with dive number = 0, fix depth = 26 and tabu list size = 0
Fixed projected solution = [x_1_0_1_OspV=1, x_1_173_1_OspV=1, x_1_180_1_OspV=1, x_1_433_1_OspV=1]
<DWph=2> <it=  1> <et=31.14> <Mt= 0.05> <Spt= 0.00> <nCl=  0> <DB=  167.0000> <Mlp=  167.0000> <PB=1000000> 
<DWph=1> <it=  2> <et=31.14> <Mt= 0.00> <Spt= 0.00> <nCl=  0> <DB=  167.0000> <Mlp=  167.0000> <PB=1000000> 
---- Diving heuristic node with dive number = 0, fix depth = 26 and tabu list size = 0
Fixed projected solution = [x_1_0_1_OspV=1, x_1_170_1_OspV=1, x_1_184_1_OspV=1, x_1_435_1_OspV=1]
<DWph=2> <it=  1> <et=31.15> <Mt= 0.00> <Spt= 0.00> <nCl=  0> <DB=  167.0000> <Mlp=  167.0000> <PB=1000000> 
<DWph=1> <it=  2> <et=31.15> <Mt= 0.00> <Spt= 0.00> <nCl=  0> <DB=  167.0000> <Mlp=  167.0000> <PB=1000000> 
---- Diving heuristic node with dive number = 0, fix depth = 26 and tabu list size = 0
Fixed projected solution = [x_1_0_1_OspV=1, x_1_161_1_OspV=1, x_1_190_1_OspV=1, x_1_432_1_OspV=1]
<DWph=2> <it=  1> <et=31.15> <Mt= 0.01> <Spt= 0.00> <nCl=  0> <DB=  167.0000> <Mlp=  167.0000> <PB=1000000> 
<DWph=1> <it=  2> <et=31.16> <Mt= 0.00> <Spt= 0.00> <nCl=  0> <DB=  167.0000> <Mlp=  167.0000> <PB=1000000> 
---- Diving heuristic node with dive number = 0, fix depth = 27 and tabu list size = 0
Fixed projected solution = [x_1_0_1_OspV=1, x_1_194_1_OspV=1, x_1_213_1_OspV=1, x_1_415_1_OspV=1]
<DWph=2> <it=  1> <et=31.18> <Mt= 0.01> <Spt= 0.00> <nCl=  0> <DB=  167.0000> <Mlp=  167.0000> <PB=1000000> 
<DWph=1> <it=  2> <et=31.18> <Mt= 0.00> <Spt= 0.00> <nCl=  0> <DB=  167.0000> <Mlp=  167.0000> <PB=1000000> 
---- Diving heuristic node with dive number = 0, fix depth = 28 and tabu list size = 0
Fixed projected solution = [x_1_0_1_OspV=1, x_1_28_1_OspV=1, x_1_306_1_OspV=1, x_1_395_1_OspV=1]
<DWph=2> <it=  1> <et=31.20> <Mt= 0.02> <Spt= 0.00> <nCl=  0> <DB=  167.0000> <Mlp=  167.0000> <PB=1000000> 
<DWph=1> <it=  2> <et=31.20> <Mt= 0.00> <Spt= 0.00> <nCl=  0> <DB=  167.0000> <Mlp=  167.0000> <PB=1000000> 
---- Diving heuristic node with dive number = 0, fix depth = 29 and tabu list size = 0
Fixed projected solution = [x_1_0_1_OspV=1, x_1_131_1_OspV=1, x_1_146_1_OspV=1, x_1_456_1_OspV=1]
<DWph=2> <it=  1> <et=31.26> <Mt= 0.06> <Spt= 0.00> <nCl=  0> <DB=  167.0000> <Mlp=  167.0000> <PB=1000000> 
<DWph=1> <it=  2> <et=31.26> <Mt= 0.00> <Spt= 0.00> <nCl=  0> <DB=  167.0000> <Mlp=  167.0000> <PB=1000000> 
---- Diving heuristic node with dive number = 0, fix depth = 29 and tabu list size = 0
Fixed projected solution = [x_1_0_1_OspV=1, x_1_153_1_OspV=1, x_1_337_1_OspV=1, x_1_340_1_OspV=1]
<DWph=2> <it=  1> <et=31.27> <Mt= 0.00> <Spt= 0.00> <nCl=  0> <DB=  167.0000> <Mlp=  167.0000> <PB=1000000> 
<DWph=1> <it=  2> <et=31.27> <Mt= 0.00> <Spt= 0.00> <nCl=  0> <DB=  167.0000> <Mlp=  167.0000> <PB=1000000> 
---- Diving heuristic node with dive number = 0, fix depth = 30 and tabu list size = 0
Fixed projected solution = [x_1_0_1_OspV=1, x_1_284_1_OspV=1, x_1_289_1_OspV=1, x_1_296_1_OspV=1]
<DWph=2> <it=  1> <et=31.31> <Mt= 0.03> <Spt= 0.00> <nCl=  0> <DB=  167.0000> <Mlp=  167.0000> <PB=1000000> 
<DWph=1> <it=  2> <et=31.31> <Mt= 0.00> <Spt= 0.00> <nCl=  0> <DB=  167.0000> <Mlp=  167.0000> <PB=1000000> 
---- Diving heuristic node with dive number = 0, fix depth = 31 and tabu list size = 0
Fixed projected solution = [x_1_0_1_OspV=1, x_1_4_1_OspV=1, x_1_32_1_OspV=1, x_1_499_1_OspV=1]
<DWph=2> <it=  1> <et=31.34> <Mt= 0.03> <Spt= 0.00> <nCl=  0> <DB=  167.0000> <Mlp=  167.0000> <PB=1000000> 
<DWph=1> <it=  2> <et=31.35> <Mt= 0.00> <Spt= 0.00> <nCl=  0> <DB=  167.0000> <Mlp=  167.0000> <PB=1000000> 
---- Diving heuristic node with dive number = 0, fix depth = 32 and tabu list size = 0
Fixed projected solution = [x_1_0_1_OspV=1, x_1_207_1_OspV=1, x_1_221_1_OspV=1, x_1_407_1_OspV=1]
<DWph=2> <it=  2> <et=31.73> <Mt= 0.07> <Spt= 0.31> <nCl=100> <DB=  166.5318> <Mlp=  167.0000> <PB=1000000> 
<DWph=1> <it=  3> <et=31.73> <Mt= 0.00> <Spt= 0.00> <nCl=  0> <DB=  167.0000> <Mlp=  167.0000> <PB=1000000> 
---- Diving heuristic node with dive number = 0, fix depth = 32 and tabu list size = 0
Fixed projected solution = [x_1_0_1_OspV=1, x_1_12_1_OspV=1, x_1_191_1_OspV=1, x_1_462_1_OspV=1]
<DWph=2> <it=  1> <et=31.75> <Mt= 0.00> <Spt= 0.00> <nCl=  0> <DB=  167.0000> <Mlp=  167.0000> <PB=1000000> 
<DWph=1> <it=  2> <et=31.75> <Mt= 0.00> <Spt= 0.00> <nCl=  0> <DB=  167.0000> <Mlp=  167.0000> <PB=1000000> 
---- Diving heuristic node with dive number = 0, fix depth = 32 and tabu list size = 0
Fixed projected solution = [x_1_0_1_OspV=1, x_1_46_1_OspV=1, x_1_281_1_OspV=1, x_1_411_1_OspV=1]
<DWph=2> <it=  1> <et=31.75> <Mt= 0.01> <Spt= 0.00> <nCl=  0> <DB=  167.0000> <Mlp=  167.0000> <PB=1000000> 
<DWph=1> <it=  2> <et=31.76> <Mt= 0.00> <Spt= 0.00> <nCl=  0> <DB=  167.0000> <Mlp=  167.0000> <PB=1000000> 
---- Diving heuristic node with dive number = 0, fix depth = 33 and tabu list size = 0
Fixed projected solution = [x_1_0_1_OspV=1, x_1_179_1_OspV=1, x_1_324_1_OspV=1, x_1_329_1_OspV=1]
<DWph=2> <it=  1> <et=31.77> <Mt= 0.01> <Spt= 0.00> <nCl=  0> <DB=  167.0000> <Mlp=  167.0000> <PB=1000000> 
<DWph=1> <it=  2> <et=31.77> <Mt= 0.00> <Spt= 0.00> <nCl=  0> <DB=  167.0000> <Mlp=  167.0000> <PB=1000000> 
---- Diving heuristic node with dive number = 0, fix depth = 34 and tabu list size = 0
Fixed projected solution = [x_1_0_1_OspV=1, x_1_34_1_OspV=1, x_1_192_1_OspV=1, x_1_460_1_OspV=1]
<DWph=2> <it=  1> <et=31.81> <Mt= 0.03> <Spt= 0.00> <nCl=  0> <DB=  167.0000> <Mlp=  167.0000> <PB=1000000> 
<DWph=1> <it=  2> <et=31.81> <Mt= 0.00> <Spt= 0.00> <nCl=  0> <DB=  167.0000> <Mlp=  167.0000> <PB=1000000> 
---- Diving heuristic node with dive number = 0, fix depth = 35 and tabu list size = 0
Fixed projected solution = [x_1_0_1_OspV=1, x_1_162_1_OspV=1, x_1_204_1_OspV=1, x_1_428_1_OspV=1]
<DWph=2> <it=  1> <et=31.86> <Mt= 0.04> <Spt= 0.00> <nCl=  0> <DB=  167.0000> <Mlp=  167.0000> <PB=1000000> 
<DWph=1> <it=  2> <et=31.86> <Mt= 0.00> <Spt= 0.00> <nCl=  0> <DB=  167.0000> <Mlp=  167.0000> <PB=1000000> 
---- Diving heuristic node with dive number = 0, fix depth = 36 and tabu list size = 0
Fixed projected solution = [x_1_0_1_OspV=1, x_1_36_1_OspV=1, x_1_313_1_OspV=1, x_1_389_1_OspV=1]
<DWph=2> <it=  1> <et=31.89> <Mt= 0.03> <Spt= 0.00> <nCl=  0> <DB=  167.0000> <Mlp=  167.0000> <PB=1000000> 
<DWph=1> <it=  2> <et=31.89> <Mt= 0.00> <Spt= 0.00> <nCl=  0> <DB=  167.0000> <Mlp=  167.0000> <PB=1000000> 
---- Diving heuristic node with dive number = 0, fix depth = 37 and tabu list size = 0
Fixed projected solution = [x_1_0_1_OspV=1, x_1_72_1_OspV=1, x_1_101_1_OspV=1, x_1_479_1_OspV=1]
<DWph=2> <it=  1> <et=31.92> <Mt= 0.02> <Spt= 0.00> <nCl=  0> <DB=  167.0000> <Mlp=  167.0000> <PB=1000000> 
<DWph=1> <it=  2> <et=31.92> <Mt= 0.00> <Spt= 0.00> <nCl=  0> <DB=  167.0000> <Mlp=  167.0000> <PB=1000000> 
---- Diving heuristic node with dive number = 0, fix depth = 38 and tabu list size = 0
Fixed projected solution = [x_1_0_1_OspV=1, x_1_102_1_OspV=1, x_1_109_1_OspV=1, x_1_468_1_OspV=1]
<DWph=2> <it=  1> <et=31.96> <Mt= 0.04> <Spt= 0.00> <nCl=  0> <DB=  167.0000> <Mlp=  167.0000> <PB=1000000> 
<DWph=1> <it=  2> <et=31.96> <Mt= 0.00> <Spt= 0.00> <nCl=  0> <DB=  167.0000> <Mlp=  167.0000> <PB=1000000> 
---- Diving heuristic node with dive number = 0, fix depth = 38 and tabu list size = 0
Fixed projected solution = [x_1_0_1_OspV=1, x_1_132_1_OspV=1, x_1_139_1_OspV=1, x_1_459_1_OspV=1]
<DWph=2> <it=  1> <et=31.97> <Mt= 0.00> <Spt= 0.00> <nCl=  0> <DB=  167.0000> <Mlp=  167.0000> <PB=1000000> 
<DWph=1> <it=  2> <et=31.97> <Mt= 0.00> <Spt= 0.00> <nCl=  0> <DB=  167.0000> <Mlp=  167.0000> <PB=1000000> 
---- Diving heuristic node with dive number = 0, fix depth = 38 and tabu list size = 0
Fixed projected solution = [x_1_0_1_OspV=1, x_1_114_1_OspV=1, x_1_156_1_OspV=1, x_1_457_1_OspV=1]
<DWph=2> <it=  1> <et=31.98> <Mt= 0.00> <Spt= 0.00> <nCl=  0> <DB=  167.0000> <Mlp=  167.0000> <PB=1000000> 
<DWph=1> <it=  2> <et=31.98> <Mt= 0.00> <Spt= 0.00> <nCl=  0> <DB=  167.0000> <Mlp=  167.0000> <PB=1000000> 
---- Diving heuristic node with dive number = 0, fix depth = 38 and tabu list size = 0
Fixed projected solution = [x_1_0_1_OspV=1, x_1_197_1_OspV=1, x_1_239_1_OspV=1, x_1_404_1_OspV=1]
<DWph=2> <it=  1> <et=31.99> <Mt= 0.00> <Spt= 0.00> <nCl=  0> <DB=  167.0000> <Mlp=  167.0000> <PB=1000000> 
<DWph=1> <it=  2> <et=31.99> <Mt= 0.00> <Spt= 0.00> <nCl=  0> <DB=  167.0000> <Mlp=  167.0000> <PB=1000000> 
---- Diving heuristic node with dive number = 0, fix depth = 38 and tabu list size = 0
Fixed projected solution = [x_1_0_1_OspV=1, x_1_224_1_OspV=1, x_1_246_1_OspV=1, x_1_391_1_OspV=1]
<DWph=2> <it=  1> <et=32.00> <Mt= 0.01> <Spt= 0.00> <nCl=  0> <DB=  167.0000> <Mlp=  167.0000> <PB=1000000> 
<DWph=1> <it=  2> <et=32.00> <Mt= 0.00> <Spt= 0.00> <nCl=  0> <DB=  167.0000> <Mlp=  167.0000> <PB=1000000> 
---- Diving heuristic node with dive number = 0, fix depth = 39 and tabu list size = 0
Fixed projected solution = [x_1_0_1_OspV=1, x_1_39_1_OspV=1, x_1_304_1_OspV=1, x_1_397_1_OspV=1]
<DWph=2> <it=  1> <et=32.05> <Mt= 0.04> <Spt= 0.00> <nCl=  0> <DB=  167.0000> <Mlp=  167.0000> <PB=1000000> 
<DWph=1> <it=  2> <et=32.05> <Mt= 0.01> <Spt= 0.00> <nCl=  0> <DB=  167.0000> <Mlp=  167.0000> <PB=1000000> 
---- Diving heuristic node with dive number = 0, fix depth = 40 and tabu list size = 0
Fixed projected solution = [x_1_0_1_OspV=1, x_1_68_1_OspV=1, x_1_79_1_OspV=1, x_1_486_1_OspV=1]
<DWph=2> <it=  1> <et=32.10> <Mt= 0.04> <Spt= 0.00> <nCl=  0> <DB=  167.0000> <Mlp=  167.0000> <PB=1000000> 
<DWph=1> <it=  2> <et=32.10> <Mt= 0.00> <Spt= 0.00> <nCl=  0> <DB=  167.0000> <Mlp=  167.0000> <PB=1000000> 
---- Diving heuristic node with dive number = 0, fix depth = 41 and tabu list size = 0
Fixed projected solution = [x_1_0_1_OspV=1, x_1_16_1_OspV=1, x_1_23_1_OspV=1, x_1_498_1_OspV=1]
<DWph=2> <it=  1> <et=32.13> <Mt= 0.03> <Spt= 0.00> <nCl=  0> <DB=  167.0000> <Mlp=  167.0000> <PB=1000000> 
<DWph=1> <it=  2> <et=32.13> <Mt= 0.00> <Spt= 0.00> <nCl=  0> <DB=  167.0000> <Mlp=  167.0000> <PB=1000000> 
---- Diving heuristic node with dive number = 0, fix depth = 41 and tabu list size = 0
Fixed projected solution = [x_1_0_1_OspV=1, x_1_50_1_OspV=1, x_1_61_1_OspV=1, x_1_491_1_OspV=1]
<DWph=2> <it=  1> <et=32.14> <Mt= 0.00> <Spt= 0.00> <nCl=  0> <DB=  167.0000> <Mlp=  167.0000> <PB=1000000> 
<DWph=1> <it=  2> <et=32.14> <Mt= 0.00> <Spt= 0.00> <nCl=  0> <DB=  167.0000> <Mlp=  167.0000> <PB=1000000> 
---- Diving heuristic node with dive number = 0, fix depth = 42 and tabu list size = 0
Fixed projected solution = [x_1_0_1_OspV=1, x_1_238_1_OspV=1, x_1_242_1_OspV=1, x_1_387_1_OspV=1]
<DWph=2> <it=  2> <et=32.39> <Mt= 0.03> <Spt= 0.20> <nCl=100> <DB=  166.6845> <Mlp=  167.0000> <PB=1000000> 
<DWph=1> <it=  3> <et=32.39> <Mt= 0.00> <Spt= 0.00> <nCl=  0> <DB=  167.0000> <Mlp=  167.0000> <PB=1000000> 
---- Diving heuristic node with dive number = 0, fix depth = 43 and tabu list size = 0
Fixed projected solution = [x_1_0_1_OspV=1, x_1_251_1_OspV=1, x_1_264_1_OspV=1, x_1_355_1_OspV=1]
<DWph=2> <it=  1> <et=32.43> <Mt= 0.04> <Spt= 0.00> <nCl=  0> <DB=  167.0000> <Mlp=  167.0000> <PB=1000000> 
<DWph=1> <it=  2> <et=32.43> <Mt= 0.00> <Spt= 0.00> <nCl=  0> <DB=  167.0000> <Mlp=  167.0000> <PB=1000000> 
---- Diving heuristic node with dive number = 0, fix depth = 44 and tabu list size = 0
Fixed projected solution = [x_1_0_1_OspV=1, x_1_272_1_OspV=1, x_1_298_1_OspV=1, x_1_300_1_OspV=1]
<DWph=2> <it=  2> <et=32.75> <Mt= 0.11> <Spt= 0.21> <nCl=100> <DB=  166.5558> <Mlp=  167.0000> <PB=1000000> 
<DWph=1> <it=  3> <et=32.76> <Mt= 0.00> <Spt= 0.00> <nCl=  0> <DB=  167.0000> <Mlp=  167.0000> <PB=1000000> 
---- Diving heuristic node with dive number = 0, fix depth = 45 and tabu list size = 0
Fixed projected solution = [x_1_0_1_OspV=1, x_1_252_1_OspV=1, x_1_279_1_OspV=1, x_1_345_1_OspV=1]
<DWph=2> <it=  1> <et=32.80> <Mt= 0.03> <Spt= 0.00> <nCl=  0> <DB=  167.0000> <Mlp=  167.0000> <PB=1000000> 
<DWph=1> <it=  2> <et=32.80> <Mt= 0.00> <Spt= 0.00> <nCl=  0> <DB=  167.0000> <Mlp=  167.0000> <PB=1000000> 
---- Diving heuristic node with dive number = 0, fix depth = 46 and tabu list size = 0
Fixed projected solution = [x_1_0_1_OspV=1, x_1_57_1_OspV=1, x_1_118_1_OspV=1, x_1_480_1_OspV=1]
<DWph=2> <it=  1> <et=32.85> <Mt= 0.04> <Spt= 0.00> <nCl=  0> <DB=  167.0000> <Mlp=  167.0000> <PB=1000000> 
<DWph=1> <it=  2> <et=32.85> <Mt= 0.00> <Spt= 0.00> <nCl=  0> <DB=  167.0000> <Mlp=  167.0000> <PB=1000000> 
---- Diving heuristic node with dive number = 0, fix depth = 47 and tabu list size = 0
Fixed projected solution = [x_1_0_1_OspV=1, x_1_40_1_OspV=1, x_1_125_1_OspV=1, x_1_478_1_OspV=1]
<DWph=2> <it=  1> <et=32.91> <Mt= 0.06> <Spt= 0.00> <nCl=  0> <DB=  167.0000> <Mlp=  167.0000> <PB=1000000> 
<DWph=1> <it=  2> <et=32.91> <Mt= 0.00> <Spt= 0.00> <nCl=  0> <DB=  167.0000> <Mlp=  167.0000> <PB=1000000> 
---- Diving heuristic node with dive number = 0, fix depth = 48 and tabu list size = 0
Fixed projected solution = [x_1_0_1_OspV=1, x_1_219_1_OspV=1, x_1_231_1_OspV=1, x_1_403_1_OspV=1]
<DWph=2> <it=  1> <et=32.95> <Mt= 0.03> <Spt= 0.00> <nCl=  0> <DB=  167.0000> <Mlp=  167.0000> <PB=1000000> 
<DWph=1> <it=  2> <et=32.95> <Mt= 0.00> <Spt= 0.00> <nCl=  0> <DB=  167.0000> <Mlp=  167.0000> <PB=1000000> 
---- Diving heuristic node with dive number = 0, fix depth = 49 and tabu list size = 0
Fixed projected solution = [x_1_0_1_OspV=1, x_1_287_1_OspV=1, x_1_288_1_OspV=1, x_1_295_1_OspV=1]
<DWph=2> <it=  1> <et=32.99> <Mt= 0.04> <Spt= 0.00> <nCl=  0> <DB=  167.0000> <Mlp=  167.0000> <PB=1000000> 
<DWph=1> <it=  2> <et=33.00> <Mt= 0.00> <Spt= 0.00> <nCl=  0> <DB=  167.0000> <Mlp=  167.0000> <PB=1000000> 
---- Diving heuristic node with dive number = 0, fix depth = 50 and tabu list size = 0
Fixed projected solution = [x_1_0_1_OspV=1, x_1_222_1_OspV=1, x_1_233_1_OspV=1, x_1_400_1_OspV=1]
<DWph=2> <it=  1> <et=33.07> <Mt= 0.07> <Spt= 0.00> <nCl=  0> <DB=  167.0000> <Mlp=  167.0000> <PB=1000000> 
<DWph=1> <it=  2> <et=33.07> <Mt= 0.00> <Spt= 0.00> <nCl=  0> <DB=  167.0000> <Mlp=  167.0000> <PB=1000000> 
---- Diving heuristic node with dive number = 0, fix depth = 50 and tabu list size = 0
Fixed projected solution = [x_1_0_1_OspV=1, x_1_227_1_OspV=1, x_1_228_1_OspV=1, x_1_401_1_OspV=1]
<DWph=2> <it=  1> <et=33.07> <Mt= 0.00> <Spt= 0.00> <nCl=  0> <DB=  167.0000> <Mlp=  167.0000> <PB=1000000> 
<DWph=1> <it=  2> <et=33.08> <Mt= 0.00> <Spt= 0.00> <nCl=  0> <DB=  167.0000> <Mlp=  167.0000> <PB=1000000> 
---- Diving heuristic node with dive number = 0, fix depth = 50 and tabu list size = 0
Fixed projected solution = [x_1_0_1_OspV=1, x_1_123_1_OspV=1, x_1_311_1_OspV=1, x_1_373_1_OspV=1]
<DWph=2> <it=  1> <et=33.08> <Mt= 0.00> <Spt= 0.00> <nCl=  0> <DB=  167.0000> <Mlp=  167.0000> <PB=1000000> 
<DWph=1> <it=  2> <et=33.08> <Mt= 0.00> <Spt= 0.00> <nCl=  0> <DB=  167.0000> <Mlp=  167.0000> <PB=1000000> 
---- Diving heuristic node with dive number = 0, fix depth = 51 and tabu list size = 0
Fixed projected solution = [x_1_0_1_OspV=1, x_1_43_1_OspV=1, x_1_220_1_OspV=1, x_1_446_1_OspV=1]
<DWph=2> <it=  1> <et=33.09> <Mt= 0.01> <Spt= 0.00> <nCl=  0> <DB=  167.0000> <Mlp=  167.0000> <PB=1000000> 
<DWph=1> <it=  2> <et=33.09> <Mt= 0.00> <Spt= 0.00> <nCl=  0> <DB=  167.0000> <Mlp=  167.0000> <PB=1000000> 
---- Diving heuristic node with dive number = 0, fix depth = 52 and tabu list size = 0
Fixed projected solution = [x_1_0_1_OspV=1, x_1_255_1_OspV=1, x_1_260_1_OspV=1, x_1_363_1_OspV=1]
<DWph=2> <it=  1> <et=33.13> <Mt= 0.03> <Spt= 0.00> <nCl=  0> <DB=  167.0000> <Mlp=  167.0000> <PB=1000000> 
<DWph=1> <it=  2> <et=33.13> <Mt= 0.00> <Spt= 0.00> <nCl=  0> <DB=  167.0000> <Mlp=  167.0000> <PB=1000000> 
---- Diving heuristic node with dive number = 0, fix depth = 53 and tabu list size = 0
Fixed projected solution = [x_1_0_1_OspV=1, x_1_41_1_OspV=1, x_1_129_1_OspV=1, x_1_476_1_OspV=1]
<DWph=2> <it=  1> <et=33.18> <Mt= 0.04> <Spt= 0.00> <nCl=  0> <DB=  167.0000> <Mlp=  167.0000> <PB=1000000> 
<DWph=1> <it=  2> <et=33.18> <Mt= 0.01> <Spt= 0.00> <nCl=  0> <DB=  167.0000> <Mlp=  167.0000> <PB=1000000> 
---- Diving heuristic node with dive number = 0, fix depth = 54 and tabu list size = 0
Fixed projected solution = [x_1_0_1_OspV=1, x_1_81_1_OspV=1, x_1_100_1_OspV=1, x_1_475_1_OspV=1]
<DWph=2> <it=  1> <et=33.25> <Mt= 0.06> <Spt= 0.00> <nCl=  0> <DB=  167.0000> <Mlp=  167.0000> <PB=1000000> 
<DWph=1> <it=  2> <et=33.25> <Mt= 0.00> <Spt= 0.00> <nCl=  0> <DB=  167.0000> <Mlp=  167.0000> <PB=1000000> 
---- Diving heuristic node with dive number = 0, fix depth = 55 and tabu list size = 0
Fixed projected solution = [x_1_0_1_OspV=1, x_1_134_1_OspV=1, x_1_152_1_OspV=1, x_1_454_1_OspV=1]
<DWph=2> <it=  2> <et=33.49> <Mt= 0.02> <Spt= 0.20> <nCl=100> <DB=  166.7842> <Mlp=  167.0000> <PB=1000000> 
<DWph=1> <it=  3> <et=33.49> <Mt= 0.00> <Spt= 0.00> <nCl=  0> <DB=  167.0000> <Mlp=  167.0000> <PB=1000000> 
---- Diving heuristic node with dive number = 0, fix depth = 56 and tabu list size = 0
Fixed projected solution = [x_1_0_1_OspV=1, x_1_64_1_OspV=1, x_1_92_1_OspV=1, x_1_483_1_OspV=1]
<DWph=2> <it=  1> <et=33.55> <Mt= 0.05> <Spt= 0.00> <nCl=  0> <DB=  167.0000> <Mlp=  167.0000> <PB=1000000> 
<DWph=1> <it=  2> <et=33.55> <Mt= 0.00> <Spt= 0.00> <nCl=  0> <DB=  167.0000> <Mlp=  167.0000> <PB=1000000> 
---- Diving heuristic node with dive number = 0, fix depth = 57 and tabu list size = 0
Fixed projected solution = [x_1_0_1_OspV=1, x_1_18_1_OspV=1, x_1_84_1_OspV=1, x_1_489_1_OspV=1]
<DWph=2> <it=  1> <et=33.59> <Mt= 0.03> <Spt= 0.00> <nCl=  0> <DB=  167.0000> <Mlp=  167.0000> <PB=1000000> 
<DWph=1> <it=  2> <et=33.59> <Mt= 0.00> <Spt= 0.00> <nCl=  0> <DB=  167.0000> <Mlp=  167.0000> <PB=1000000> 
---- Diving heuristic node with dive number = 0, fix depth = 58 and tabu list size = 0
Fixed projected solution = [x_1_0_1_OspV=1, x_1_82_1_OspV=1, x_1_299_1_OspV=1, x_1_398_1_OspV=1]
<DWph=2> <it=  2> <et=33.91> <Mt= 0.11> <Spt= 0.21> <nCl=100> <DB=  166.3610> <Mlp=  167.0000> <PB=1000000> 
<DWph=1> <it=  3> <et=33.91> <Mt= 0.00> <Spt= 0.00> <nCl=  0> <DB=  167.0000> <Mlp=  167.0000> <PB=1000000> 
---- Diving heuristic node with dive number = 0, fix depth = 59 and tabu list size = 0
Fixed projected solution = [x_1_0_1_OspV=1, x_1_189_1_OspV=1, x_1_201_1_OspV=1, x_1_424_1_OspV=1]
<DWph=2> <it=  1> <et=33.98> <Mt= 0.06> <Spt= 0.00> <nCl=  0> <DB=  167.0000> <Mlp=  167.0000> <PB=1000000> 
<DWph=1> <it=  2> <et=33.98> <Mt= 0.00> <Spt= 0.00> <nCl=  0> <DB=  167.0000> <Mlp=  167.0000> <PB=1000000> 
---- Diving heuristic node with dive number = 0, fix depth = 60 and tabu list size = 0
Fixed projected solution = [x_1_0_1_OspV=1, x_1_6_1_OspV=1, x_1_157_1_OspV=1, x_1_469_1_OspV=1]
<DWph=2> <it=  3> <et=34.49> <Mt= 0.09> <Spt= 0.41> <nCl=200> <DB=  166.7640> <Mlp=  167.0000> <PB=1000000> 
<DWph=1> <it=  4> <et=34.49> <Mt= 0.00> <Spt= 0.00> <nCl=  0> <DB=  167.0000> <Mlp=  167.0000> <PB=1000000> 
---- Diving heuristic node with dive number = 0, fix depth = 61 and tabu list size = 0
Fixed projected solution = [x_1_0_1_OspV=1, x_1_45_1_OspV=1, x_1_326_1_OspV=1, x_1_381_1_OspV=1]
<DWph=2> <it=  1> <et=34.55> <Mt= 0.05> <Spt= 0.00> <nCl=  0> <DB=  167.0000> <Mlp=  167.0000> <PB=1000000> 
<DWph=1> <it=  2> <et=34.55> <Mt= 0.00> <Spt= 0.00> <nCl=  0> <DB=  167.0000> <Mlp=  167.0000> <PB=1000000> 
---- Diving heuristic node with dive number = 0, fix depth = 62 and tabu list size = 0
Fixed projected solution = [x_1_0_1_OspV=1, x_1_13_1_OspV=1, x_1_308_1_OspV=1, x_1_394_1_OspV=1]
<DWph=2> <it=  1> <et=34.60> <Mt= 0.05> <Spt= 0.00> <nCl=  0> <DB=  167.0000> <Mlp=  167.0000> <PB=1000000> 
<DWph=1> <it=  2> <et=34.60> <Mt= 0.00> <Spt= 0.00> <nCl=  0> <DB=  167.0000> <Mlp=  167.0000> <PB=1000000> 
---- Diving heuristic node with dive number = 0, fix depth = 63 and tabu list size = 0
Fixed projected solution = [x_1_0_1_OspV=1, x_1_240_1_OspV=1, x_1_262_1_OspV=1, x_1_372_1_OspV=1]
<DWph=2> <it=  1> <et=34.67> <Mt= 0.06> <Spt= 0.00> <nCl=  0> <DB=  167.0000> <Mlp=  167.0000> <PB=1000000> 
<DWph=1> <it=  2> <et=34.67> <Mt= 0.00> <Spt= 0.00> <nCl=  0> <DB=  167.0000> <Mlp=  167.0000> <PB=1000000> 
---- Diving heuristic node with dive number = 0, fix depth = 64 and tabu list size = 0
Fixed projected solution = [x_1_0_1_OspV=1, x_1_96_1_OspV=1, x_1_343_1_OspV=1, x_1_359_1_OspV=1]
<DWph=2> <it=  2> <et=34.96> <Mt= 0.08> <Spt= 0.20> <nCl=100> <DB=  166.7045> <Mlp=  167.0000> <PB=1000000> 
<DWph=1> <it=  3> <et=34.97> <Mt= 0.00> <Spt= 0.00> <nCl=  0> <DB=  167.0000> <Mlp=  167.0000> <PB=1000000> 
---- Diving heuristic node with dive number = 0, fix depth = 64 and tabu list size = 0
Fixed projected solution = [x_1_0_1_OspV=1, x_1_9_1_OspV=1, x_1_265_1_OspV=1, x_1_426_1_OspV=1]
<DWph=2> <it=  1> <et=34.98> <Mt= 0.01> <Spt= 0.00> <nCl=  0> <DB=  167.0000> <Mlp=  167.0000> <PB=1000000> 
<DWph=1> <it=  2> <et=34.98> <Mt= 0.00> <Spt= 0.00> <nCl=  0> <DB=  167.0000> <Mlp=  167.0000> <PB=1000000> 
---- Diving heuristic node with dive number = 0, fix depth = 65 and tabu list size = 0
Fixed projected solution = [x_1_0_1_OspV=1, x_1_244_1_OspV=1, x_1_254_1_OspV=1, x_1_380_1_OspV=1]
<DWph=2> <it=  1> <et=35.03> <Mt= 0.04> <Spt= 0.00> <nCl=  0> <DB=  167.0000> <Mlp=  167.0000> <PB=1000000> 
<DWph=1> <it=  2> <et=35.03> <Mt= 0.00> <Spt= 0.00> <nCl=  0> <DB=  167.0000> <Mlp=  167.0000> <PB=1000000> 
---- Diving heuristic node with dive number = 0, fix depth = 66 and tabu list size = 0
Fixed projected solution = [x_1_0_1_OspV=1, x_1_76_1_OspV=1, x_1_216_1_OspV=1, x_1_442_1_OspV=1]
<DWph=2> <it=  1> <et=35.07> <Mt= 0.04> <Spt= 0.00> <nCl=  0> <DB=  167.0000> <Mlp=  167.0000> <PB=1000000> 
<DWph=1> <it=  2> <et=35.08> <Mt= 0.00> <Spt= 0.00> <nCl=  0> <DB=  167.0000> <Mlp=  167.0000> <PB=1000000> 
---- Diving heuristic node with dive number = 0, fix depth = 67 and tabu list size = 0
Fixed projected solution = [x_1_0_1_OspV=1, x_1_20_1_OspV=1, x_1_274_1_OspV=1, x_1_422_1_OspV=1]
<DWph=2> <it=  1> <et=35.18> <Mt= 0.10> <Spt= 0.00> <nCl=  0> <DB=  167.0000> <Mlp=  167.0000> <PB=1000000> 
<DWph=1> <it=  2> <et=35.18> <Mt= 0.00> <Spt= 0.00> <nCl=  0> <DB=  167.0000> <Mlp=  167.0000> <PB=1000000> 
---- Diving heuristic node with dive number = 0, fix depth = 68 and tabu list size = 0
Fixed projected solution = [x_1_0_1_OspV=1, x_1_95_1_OspV=1, x_1_277_1_OspV=1, x_1_408_1_OspV=1]
<DWph=2> <it=  1> <et=35.25> <Mt= 0.06> <Spt= 0.00> <nCl=  0> <DB=  167.0000> <Mlp=  167.0000> <PB=1000000> 
<DWph=1> <it=  2> <et=35.25> <Mt= 0.00> <Spt= 0.00> <nCl=  0> <DB=  167.0000> <Mlp=  167.0000> <PB=1000000> 
---- Diving heuristic node with dive number = 0, fix depth = 69 and tabu list size = 0
Fixed projected solution = [x_1_0_1_OspV=1, x_1_145_1_OspV=1, x_1_338_1_OspV=1, x_1_346_1_OspV=1]
<DWph=2> <it=  2> <et=35.56> <Mt= 0.10> <Spt= 0.21> <nCl=100> <DB=  166.7371> <Mlp=  167.0000> <PB=1000000> 
<DWph=1> <it=  3> <et=35.56> <Mt= 0.00> <Spt= 0.00> <nCl=  0> <DB=  167.0000> <Mlp=  167.0000> <PB=1000000> 
---- Diving heuristic node with dive number = 0, fix depth = 70 and tabu list size = 0
Fixed projected solution = [x_1_0_1_OspV=1, x_1_24_1_OspV=1, x_1_74_1_OspV=1, x_1_490_1_OspV=1]
<DWph=2> <it=  1> <et=35.64> <Mt= 0.07> <Spt= 0.00> <nCl=  0> <DB=  167.0000> <Mlp=  167.0000> <PB=1000000> 
<DWph=1> <it=  2> <et=35.64> <Mt= 0.00> <Spt= 0.00> <nCl=  0> <DB=  167.0000> <Mlp=  167.0000> <PB=1000000> 
---- Diving heuristic node with dive number = 0, fix depth = 71 and tabu list size = 0
Fixed projected solution = [x_1_0_1_OspV=1, x_1_65_1_OspV=1, x_1_90_1_OspV=1, x_1_484_1_OspV=1]
<DWph=2> <it=  2> <et=35.94> <Mt= 0.08> <Spt= 0.20> <nCl=100> <DB=  166.8852> <Mlp=  167.0000> <PB=1000000> 
<DWph=1> <it=  3> <et=35.94> <Mt= 0.00> <Spt= 0.00> <nCl=  0> <DB=  167.0000> <Mlp=  167.0000> <PB=1000000> 
---- Diving heuristic node with dive number = 0, fix depth = 72 and tabu list size = 0
Fixed projected solution = [x_1_0_1_OspV=1, x_1_62_1_OspV=1, x_1_73_1_OspV=1, x_1_488_1_OspV=1]
<DWph=2> <it=  1> <et=36.01> <Mt= 0.06> <Spt= 0.00> <nCl=  0> <DB=  167.0000> <Mlp=  167.0000> <PB=1000000> 
<DWph=1> <it=  2> <et=36.01> <Mt= 0.00> <Spt= 0.00> <nCl=  0> <DB=  167.0000> <Mlp=  167.0000> <PB=1000000> 
---- Diving heuristic node with dive number = 0, fix depth = 73 and tabu list size = 0
Fixed projected solution = [x_1_0_1_OspV=1, x_1_106_1_OspV=1, x_1_318_1_OspV=1, x_1_371_1_OspV=1]
<DWph=2> <it=  2> <et=36.27> <Mt= 0.05> <Spt= 0.21> <nCl=100> <DB=  166.8561> <Mlp=  167.0000> <PB=1000000> 
<DWph=1> <it=  3> <et=36.27> <Mt= 0.00> <Spt= 0.00> <nCl=  0> <DB=  167.0000> <Mlp=  167.0000> <PB=1000000> 
---- Diving heuristic node with dive number = 0, fix depth = 73 and tabu list size = 0
Fixed projected solution = [x_1_0_1_OspV=1, x_1_27_1_OspV=1, x_1_317_1_OspV=1, x_1_385_1_OspV=1]
<DWph=2> <it=  1> <et=36.28> <Mt= 0.00> <Spt= 0.00> <nCl=  0> <DB=  167.0000> <Mlp=  167.0000> <PB=1000000> 
<DWph=1> <it=  2> <et=36.29> <Mt= 0.01> <Spt= 0.00> <nCl=  0> <DB=  167.0000> <Mlp=  167.0000> <PB=1000000> 
---- Diving heuristic node with dive number = 0, fix depth = 74 and tabu list size = 0
Fixed projected solution = [x_1_0_1_OspV=1, x_1_140_1_OspV=1, x_1_321_1_OspV=1, x_1_357_1_OspV=1]
<DWph=2> <it=  1> <et=36.31> <Mt= 0.02> <Spt= 0.00> <nCl=  0> <DB=  167.0000> <Mlp=  167.0000> <PB=1000000> 
<DWph=1> <it=  2> <et=36.32> <Mt= 0.00> <Spt= 0.00> <nCl=  0> <DB=  167.0000> <Mlp=  167.0000> <PB=1000000> 
---- Diving heuristic node with dive number = 0, fix depth = 75 and tabu list size = 0
Fixed projected solution = [x_1_0_1_OspV=1, x_1_115_1_OspV=1, x_1_178_1_OspV=1, x_1_452_1_OspV=1]
<DWph=2> <it=  1> <et=36.36> <Mt= 0.04> <Spt= 0.00> <nCl=  0> <DB=  167.0000> <Mlp=  167.0000> <PB=1000000> 
<DWph=1> <it=  2> <et=36.37> <Mt= 0.00> <Spt= 0.00> <nCl=  0> <DB=  167.0000> <Mlp=  167.0000> <PB=1000000> 
---- Diving heuristic node with dive number = 0, fix depth = 76 and tabu list size = 0
Fixed projected solution = [x_1_0_1_OspV=1, x_1_85_1_OspV=1, x_1_107_1_OspV=1, x_1_474_1_OspV=1]
<DWph=2> <it=  2> <et=36.68> <Mt= 0.10> <Spt= 0.20> <nCl=100> <DB=  166.8621> <Mlp=  167.0000> <PB=1000000> 
<DWph=1> <it=  3> <et=36.68> <Mt= 0.00> <Spt= 0.00> <nCl=  0> <DB=  167.0000> <Mlp=  167.0000> <PB=1000000> 
---- Diving heuristic node with dive number = 0, fix depth = 77 and tabu list size = 0
Fixed projected solution = [x_1_0_1_OspV=1, x_1_104_1_OspV=1, x_1_137_1_OspV=1, x_1_463_1_OspV=1]
<DWph=2> <it=  1> <et=36.74> <Mt= 0.05> <Spt= 0.00> <nCl=  0> <DB=  167.0000> <Mlp=  167.0000> <PB=1000000> 
<DWph=1> <it=  2> <et=36.74> <Mt= 0.00> <Spt= 0.00> <nCl=  0> <DB=  167.0000> <Mlp=  167.0000> <PB=1000000> 
---- Diving heuristic node with dive number = 0, fix depth = 78 and tabu list size = 0
Fixed projected solution = [x_1_0_1_OspV=1, x_1_71_1_OspV=1, x_1_344_1_OspV=1, x_1_364_1_OspV=1]
<DWph=2> <it=  2> <et=37.02> <Mt= 0.07> <Spt= 0.21> <nCl=100> <DB=  166.8034> <Mlp=  167.0000> <PB=1000000> 
<DWph=1> <it=  3> <et=37.02> <Mt= 0.00> <Spt= 0.00> <nCl=  0> <DB=  167.0000> <Mlp=  167.0000> <PB=1000000> 
---- Diving heuristic node with dive number = 0, fix depth = 78 and tabu list size = 0
Fixed projected solution = [x_1_0_1_OspV=1, x_1_249_1_OspV=1, x_1_256_1_OspV=1, x_1_368_1_OspV=1]
<DWph=2> <it=  1> <et=37.04> <Mt= 0.01> <Spt= 0.00> <nCl=  0> <DB=  167.0000> <Mlp=  167.0000> <PB=1000000> 
<DWph=1> <it=  2> <et=37.04> <Mt= 0.00> <Spt= 0.00> <nCl=  0> <DB=  167.0000> <Mlp=  167.0000> <PB=1000000> 
---- Diving heuristic node with dive number = 0, fix depth = 78 and tabu list size = 0
Fixed projected solution = [x_1_0_1_OspV=1, x_1_257_1_OspV=1, x_1_263_1_OspV=1, x_1_353_1_OspV=1]
<DWph=2> <it=  1> <et=37.05> <Mt= 0.00> <Spt= 0.00> <nCl=  0> <DB=  167.0000> <Mlp=  167.0000> <PB=1000000> 
<DWph=1> <it=  2> <et=37.05> <Mt= 0.00> <Spt= 0.00> <nCl=  0> <DB=  167.0000> <Mlp=  167.0000> <PB=1000000> 
---- Diving heuristic node with dive number = 0, fix depth = 79 and tabu list size = 0
Fixed projected solution = [x_1_0_1_OspV=1, x_1_11_1_OspV=1, x_1_126_1_OspV=1, x_1_481_1_OspV=1]
<DWph=2> <it=  2> <et=37.37> <Mt= 0.11> <Spt= 0.20> <nCl=100> <DB=  166.8709> <Mlp=  167.0000> <PB=1000000> 
<DWph=1> <it=  3> <et=37.37> <Mt= 0.00> <Spt= 0.00> <nCl=  0> <DB=  167.0000> <Mlp=  167.0000> <PB=1000000> 
---- Diving heuristic node with dive number = 0, fix depth = 80 and tabu list size = 0
Fixed projected solution = [x_1_0_1_OspV=1, x_1_1_1_OspV=1, x_1_14_1_OspV=1, x_1_501_1_OspV=1]
<DWph=2> <it=  1> <et=37.41> <Mt= 0.03> <Spt= 0.00> <nCl=  0> <DB=  167.0000> <Mlp=  167.0000> <PB=1000000> 
<DWph=1> <it=  2> <et=37.41> <Mt= 0.00> <Spt= 0.00> <nCl=  0> <DB=  167.0000> <Mlp=  167.0000> <PB=1000000> 
---- Diving heuristic node with dive number = 0, fix depth = 81 and tabu list size = 0
Fixed projected solution = [x_1_0_1_OspV=1, x_1_253_1_OspV=1, x_1_275_1_OspV=1, x_1_351_1_OspV=1]
<DWph=2> <it=  3> <et=37.94> <Mt= 0.11> <Spt= 0.41> <nCl=200> <DB=  166.9255> <Mlp=  167.0000> <PB=1000000> 
<DWph=1> <it=  4> <et=37.94> <Mt= 0.00> <Spt= 0.00> <nCl=  0> <DB=  167.0000> <Mlp=  167.0000> <PB=1000000> 
---- Diving heuristic node with dive number = 0, fix depth = 82 and tabu list size = 0
Fixed projected solution = [x_1_0_1_OspV=1, x_1_203_1_OspV=1, x_1_205_1_OspV=1, x_1_417_1_OspV=1]
<DWph=2> <it=  2> <et=38.31> <Mt= 0.15> <Spt= 0.21> <nCl=100> <DB=  166.9389> <Mlp=  167.0000> <PB=1000000> 
<DWph=1> <it=  3> <et=38.31> <Mt= 0.01> <Spt= 0.00> <nCl=  0> <DB=  167.0000> <Mlp=  167.0000> <PB=1000000> 
---- Diving heuristic node with dive number = 0, fix depth = 83 and tabu list size = 0
Fixed projected solution = [x_1_0_1_OspV=1, x_1_225_1_OspV=1, x_1_259_1_OspV=1, x_1_384_1_OspV=1]
<DWph=2> <it=  1> <et=38.40> <Mt= 0.07> <Spt= 0.00> <nCl=  0> <DB=  167.0000> <Mlp=  167.0000> <PB=1000000> 
<DWph=1> <it=  2> <et=38.40> <Mt= 0.00> <Spt= 0.00> <nCl=  0> <DB=  167.0000> <Mlp=  167.0000> <PB=1000000> 
---- Diving heuristic node with dive number = 0, fix depth = 84 and tabu list size = 0
Fixed projected solution = [x_1_0_1_OspV=1, x_1_44_1_OspV=1, x_1_302_1_OspV=1, x_1_402_1_OspV=1]
<DWph=2> <it=  3> <et=38.92> <Mt= 0.10> <Spt= 0.41> <nCl=200> <DB=  166.9356> <Mlp=  167.0000> <PB=1000000> 
<DWph=1> <it=  4> <et=38.92> <Mt= 0.00> <Spt= 0.00> <nCl=  0> <DB=  167.0000> <Mlp=  167.0000> <PB=1000000> 
---- Diving heuristic node with dive number = 0, fix depth = 85 and tabu list size = 0
Fixed projected solution = [x_1_0_1_OspV=1, x_1_15_1_OspV=1, x_1_67_1_OspV=1, x_1_492_1_OspV=1]
<DWph=2> <it=  2> <et=39.24> <Mt= 0.11> <Spt= 0.21> <nCl=100> <DB=  166.9516> <Mlp=  167.0000> <PB=1000000> 
<DWph=1> <it=  3> <et=39.25> <Mt= 0.00> <Spt= 0.00> <nCl=  0> <DB=  167.0000> <Mlp=  167.0000> <PB=1000000> 
---- Diving heuristic node with dive number = 0, fix depth = 86 and tabu list size = 0
Fixed projected solution = [x_1_0_1_OspV=1, x_1_69_1_OspV=1, x_1_136_1_OspV=1, x_1_470_1_OspV=1]
<DWph=2> <it=  1> <et=39.30> <Mt= 0.04> <Spt= 0.00> <nCl=  0> <DB=  167.0000> <Mlp=  167.0000> <PB=1000000> 
<DWph=1> <it=  2> <et=39.31> <Mt= 0.01> <Spt= 0.00> <nCl=  0> <DB=  167.0000> <Mlp=  167.0000> <PB=1000000> 
---- Diving heuristic node with dive number = 0, fix depth = 87 and tabu list size = 0
Fixed projected solution = [x_1_0_1_OspV=1, x_1_38_1_OspV=1, x_1_218_1_OspV=1, x_1_447_1_OspV=1]
<DWph=2> <it=  1> <et=39.37> <Mt= 0.05> <Spt= 0.00> <nCl=  0> <DB=  167.0000> <Mlp=  167.0000> <PB=1000000> 
<DWph=1> <it=  2> <et=39.37> <Mt= 0.00> <Spt= 0.00> <nCl=  0> <DB=  167.0000> <Mlp=  167.0000> <PB=1000000> 
---- Diving heuristic node with dive number = 0, fix depth = 88 and tabu list size = 0
Fixed projected solution = [x_1_0_1_OspV=1, x_1_29_1_OspV=1, x_1_47_1_OspV=1, x_1_494_1_OspV=1]
<DWph=2> <it=  3> <et=39.87> <Mt= 0.07> <Spt= 0.42> <nCl=200> <DB=  166.9255> <Mlp=  167.0000> <PB=1000000> 
<DWph=1> <it=  4> <et=39.87> <Mt= 0.00> <Spt= 0.00> <nCl=  0> <DB=  167.0000> <Mlp=  167.0000> <PB=1000000> 
---- Diving heuristic node with dive number = 0, fix depth = 89 and tabu list size = 0
Fixed projected solution = [x_1_0_1_OspV=1, x_1_63_1_OspV=1, x_1_312_1_OspV=1, x_1_386_1_OspV=1]
<DWph=2> <it=  4> <et=40.73> <Mt= 0.23> <Spt= 0.62> <nCl=300> <DB=  166.9694> <Mlp=  167.0000> <PB=1000000> 
<DWph=1> <it=  5> <et=40.73> <Mt= 0.00> <Spt= 0.00> <nCl=  0> <DB=  167.0000> <Mlp=  167.0000> <PB=1000000> 
---- Diving heuristic node with dive number = 0, fix depth = 89 and tabu list size = 0
Fixed projected solution = [x_1_0_1_OspV=1, x_1_56_1_OspV=1, x_1_356_1_OspV=1, x_1_361_1_OspV=1]
<DWph=2> <it=  1> <et=40.74> <Mt= 0.00> <Spt= 0.00> <nCl=  0> <DB=  167.0000> <Mlp=  167.0000> <PB=1000000> 
<DWph=1> <it=  2> <et=40.75> <Mt= 0.00> <Spt= 0.00> <nCl=  0> <DB=  167.0000> <Mlp=  167.0000> <PB=1000000> 
---- Diving heuristic node with dive number = 0, fix depth = 90 and tabu list size = 0
Fixed projected solution = [x_1_0_1_OspV=1, x_1_10_1_OspV=1, x_1_282_1_OspV=1, x_1_414_1_OspV=1]
<DWph=2> <it=  1> <et=40.83> <Mt= 0.07> <Spt= 0.00> <nCl=  0> <DB=  167.0000> <Mlp=  167.0000> <PB=1000000> 
<DWph=1> <it=  2> <et=40.83> <Mt= 0.00> <Spt= 0.00> <nCl=  0> <DB=  167.0000> <Mlp=  167.0000> <PB=1000000> 
---- Diving heuristic node with dive number = 0, fix depth = 91 and tabu list size = 0
Fixed projected solution = [x_1_0_1_OspV=1, x_1_48_1_OspV=1, x_1_271_1_OspV=1, x_1_420_1_OspV=1]
<DWph=2> <it=  1> <et=40.92> <Mt= 0.09> <Spt= 0.00> <nCl=  0> <DB=  167.0000> <Mlp=  167.0000> <PB=1000000> 
<DWph=1> <it=  2> <et=40.92> <Mt= 0.00> <Spt= 0.00> <nCl=  0> <DB=  167.0000> <Mlp=  167.0000> <PB=1000000> 
---- Diving heuristic node with dive number = 0, fix depth = 91 and tabu list size = 0
Fixed projected solution = [x_1_0_1_OspV=1, x_1_98_1_OspV=1, x_1_303_1_OspV=1, x_1_388_1_OspV=1]
<DWph=2> <it=  1> <et=40.93> <Mt= 0.00> <Spt= 0.00> <nCl=  0> <DB=  167.0000> <Mlp=  167.0000> <PB=1000000> 
<DWph=1> <it=  2> <et=40.93> <Mt= 0.00> <Spt= 0.00> <nCl=  0> <DB=  167.0000> <Mlp=  167.0000> <PB=1000000> 
---- Diving heuristic node with dive number = 0, fix depth = 92 and tabu list size = 0
Fixed projected solution = [x_1_0_1_OspV=1, x_1_223_1_OspV=1, x_1_268_1_OspV=1, x_1_377_1_OspV=1]
<DWph=2> <it=  1> <et=40.99> <Mt= 0.06> <Spt= 0.00> <nCl=  0> <DB=  167.0000> <Mlp=  167.0000> <PB=1000000> 
<DWph=1> <it=  2> <et=40.99> <Mt= 0.00> <Spt= 0.00> <nCl=  0> <DB=  167.0000> <Mlp=  167.0000> <PB=1000000> 
---- Diving heuristic node with dive number = 0, fix depth = 93 and tabu list size = 0
Fixed projected solution = [x_1_0_1_OspV=1, x_1_183_1_OspV=1, x_1_294_1_OspV=1, x_1_375_1_OspV=1]
<DWph=2> <it=  2> <et=41.45> <Mt= 0.24> <Spt= 0.20> <nCl=100> <DB=  166.8271> <Mlp=  167.0000> <PB=1000000> 
<DWph=1> <it=  3> <et=41.46> <Mt= 0.01> <Spt= 0.00> <nCl=  0> <DB=  167.0000> <Mlp=  167.0000> <PB=1000000> 
---- Diving heuristic node with dive number = 0, fix depth = 94 and tabu list size = 0
Fixed projected solution = [x_1_0_1_OspV=1, x_1_80_1_OspV=1, x_1_316_1_OspV=1, x_1_382_1_OspV=1]
<DWph=2> <it=  1> <et=41.53> <Mt= 0.06> <Spt= 0.00> <nCl=  0> <DB=  167.0000> <Mlp=  167.0000> <PB=1000000> 
<DWph=1> <it=  2> <et=41.53> <Mt= 0.00> <Spt= 0.00> <nCl=  0> <DB=  167.0000> <Mlp=  167.0000> <PB=1000000> 
---- Diving heuristic node with dive number = 0, fix depth = 95 and tabu list size = 0
Fixed projected solution = [x_1_0_1_OspV=1, x_1_168_1_OspV=1, x_1_330_1_OspV=1, x_1_335_1_OspV=1]
<DWph=2> <it=  2> <et=41.93> <Mt= 0.18> <Spt= 0.21> <nCl=100> <DB=  166.9780> <Mlp=  167.0000> <PB=1000000> 
<DWph=1> <it=  3> <et=41.93> <Mt= 0.00> <Spt= 0.00> <nCl=  0> <DB=  167.0000> <Mlp=  167.0000> <PB=1000000> 
---- Diving heuristic node with dive number = 0, fix depth = 96 and tabu list size = 0
Fixed projected solution = [x_1_0_1_OspV=1, x_1_142_1_OspV=1, x_1_155_1_OspV=1, x_1_451_1_OspV=1]
<DWph=2> <it=  1> <et=42.03> <Mt= 0.09> <Spt= 0.00> <nCl=  0> <DB=  167.0000> <Mlp=  167.0000> <PB=1000000> 
<DWph=1> <it=  2> <et=42.04> <Mt= 0.00> <Spt= 0.00> <nCl=  0> <DB=  167.0000> <Mlp=  167.0000> <PB=1000000> 
---- Diving heuristic node with dive number = 0, fix depth = 97 and tabu list size = 0
Fixed projected solution = [x_1_0_1_OspV=1, x_1_283_1_OspV=1, x_1_291_1_OspV=1, x_1_297_1_OspV=1]
<DWph=2> <it=  2> <et=42.50> <Mt= 0.20> <Spt= 0.20> <nCl=100> <DB=  166.8934> <Mlp=  167.0000> <PB=1000000> 
<DWph=1> <it=  3> <et=42.50> <Mt= 0.01> <Spt= 0.00> <nCl=  0> <DB=  167.0000> <Mlp=  167.0000> <PB=1000000> 
---- Diving heuristic node with dive number = 0, fix depth = 98 and tabu list size = 0
Fixed projected solution = [x_1_0_1_OspV=1, x_1_97_1_OspV=1, x_1_243_1_OspV=1, x_1_427_1_OspV=1]
<DWph=2> <it=  1> <et=42.54> <Mt= 0.03> <Spt= 0.00> <nCl=  0> <DB=  167.0000> <Mlp=  167.0000> <PB=1000000> 
<DWph=1> <it=  2> <et=42.54> <Mt= 0.00> <Spt= 0.00> <nCl=  0> <DB=  167.0000> <Mlp=  167.0000> <PB=1000000> 
---- Diving heuristic node with dive number = 0, fix depth = 99 and tabu list size = 0
Fixed projected solution = [x_1_0_1_OspV=1, x_1_3_1_OspV=1, x_1_232_1_OspV=1, x_1_443_1_OspV=1]
<DWph=2> <it=  6> <et=43.69> <Mt= 0.11> <Spt= 1.03> <nCl=500> <DB=  166.9887> <Mlp=  167.0000> <PB=1000000> 
<DWph=1> <it=  7> <et=43.70> <Mt= 0.01> <Spt= 0.00> <nCl=  0> <DB=  167.0000> <Mlp=  167.0000> <PB=1000000> 
---- Diving heuristic node with dive number = 0, fix depth = 99 and tabu list size = 0
Fixed projected solution = [x_1_0_1_OspV=1, x_1_116_1_OspV=1, x_1_195_1_OspV=1, x_1_441_1_OspV=1]
<DWph=2> <it=  1> <et=43.71> <Mt= 0.00> <Spt= 0.00> <nCl=  0> <DB=  167.0000> <Mlp=  167.0000> <PB=1000000> 
<DWph=1> <it=  2> <et=43.71> <Mt= 0.00> <Spt= 0.00> <nCl=  0> <DB=  167.0000> <Mlp=  167.0000> <PB=1000000> 
---- Diving heuristic node with dive number = 0, fix depth = 100 and tabu list size = 0
Fixed projected solution = [x_1_0_1_OspV=1, x_1_37_1_OspV=1, x_1_290_1_OspV=1, x_1_406_1_OspV=1]
<DWph=2> <it=  2> <et=43.99> <Mt= 0.06> <Spt= 0.21> <nCl=100> <DB=  166.9830> <Mlp=  167.0000> <PB=1000000> 
<DWph=1> <it=  3> <et=43.99> <Mt= 0.00> <Spt= 0.00> <nCl=  0> <DB=  167.0000> <Mlp=  167.0000> <PB=1000000> 
---- Diving heuristic node with dive number = 0, fix depth = 101 and tabu list size = 0
Fixed projected solution = [x_1_0_1_OspV=1, x_1_99_1_OspV=1, x_1_278_1_OspV=1, x_1_405_1_OspV=1]
<DWph=2> <it=  3> <et=44.50> <Mt= 0.10> <Spt= 0.41> <nCl=200> <DB=  166.9889> <Mlp=  167.0000> <PB=1000000> 
<DWph=1> <it=  4> <et=44.51> <Mt= 0.00> <Spt= 0.00> <nCl=  0> <DB=  167.0000> <Mlp=  167.0000> <PB=1000000> 
---- Diving heuristic node with dive number = 0, fix depth = 102 and tabu list size = 0
Fixed projected solution = [x_1_0_1_OspV=1, x_1_5_1_OspV=1, x_1_33_1_OspV=1, x_1_497_1_OspV=1]
<DWph=2> <it=  2> <et=44.82> <Mt= 0.10> <Spt= 0.20> <nCl=100> <DB=  166.9895> <Mlp=  167.0000> <PB=1000000> 
<DWph=1> <it=  3> <et=44.83> <Mt= 0.00> <Spt= 0.00> <nCl=  0> <DB=  167.0000> <Mlp=  167.0000> <PB=1000000> 
---- Diving heuristic node with dive number = 0, fix depth = 103 and tabu list size = 0
Fixed projected solution = [x_1_0_1_OspV=1, x_1_49_1_OspV=1, x_1_160_1_OspV=1, x_1_467_1_OspV=1]
<DWph=2> <it=  1> <et=44.94> <Mt= 0.10> <Spt= 0.00> <nCl=  0> <DB=  167.0000> <Mlp=  167.0000> <PB=1000000> 
<DWph=1> <it=  2> <et=44.94> <Mt= 0.00> <Spt= 0.00> <nCl=  0> <DB=  167.0000> <Mlp=  167.0000> <PB=1000000> 
---- Diving heuristic node with dive number = 0, fix depth = 104 and tabu list size = 0
Fixed projected solution = [x_1_0_1_OspV=1, x_1_127_1_OspV=1, x_1_181_1_OspV=1, x_1_444_1_OspV=1]
<DWph=2> <it=  2> <et=45.35> <Mt= 0.20> <Spt= 0.21> <nCl=100> <DB=  166.5956> <Mlp=  167.0000> <PB=1000000> 
<DWph=1> <it=  3> <et=45.35> <Mt= 0.00> <Spt= 0.00> <nCl=  0> <DB=  167.0000> <Mlp=  167.0000> <PB=1000000> 
---- Diving heuristic node with dive number = 0, fix depth = 105 and tabu list size = 0
Fixed projected solution = [x_1_0_1_OspV=1, x_1_22_1_OspV=1, x_1_31_1_OspV=1, x_1_493_1_OspV=1]
<DWph=2> <it=  5> <et=46.36> <Mt= 0.23> <Spt= 0.77> <nCl=400> <DB=  166.9665> <Mlp=  167.0000> <PB=1000000> 
<DWph=1> <it=  6> <et=46.37> <Mt= 0.00> <Spt= 0.00> <nCl=  0> <DB=  167.0000> <Mlp=  167.0000> <PB=1000000> 
---- Diving heuristic node with dive number = 0, fix depth = 106 and tabu list size = 0
Fixed projected solution = [x_1_0_1_OspV=1, x_1_171_1_OspV=1, x_1_234_1_OspV=1, x_1_416_1_OspV=1]
<DWph=2> <it=  5> <et=47.31> <Mt= 0.11> <Spt= 0.82> <nCl=400> <DB=  166.9935> <Mlp=  167.0000> <PB=1000000> 
<DWph=1> <it=  6> <et=47.32> <Mt= 0.00> <Spt= 0.00> <nCl=  0> <DB=  167.0000> <Mlp=  167.0000> <PB=1000000> 
---- Diving heuristic node with dive number = 0, fix depth = 107 and tabu list size = 0
Fixed projected solution = [x_1_0_1_OspV=1, x_1_247_1_OspV=1, x_1_292_1_OspV=1, x_1_319_1_OspV=1]
<DWph=2> <it=  2> <et=47.75> <Mt= 0.22> <Spt= 0.21> <nCl=100> <DB=  166.9522> <Mlp=  167.0000> <PB=1000000> 
<DWph=1> <it=  3> <et=47.75> <Mt= 0.00> <Spt= 0.00> <nCl=  0> <DB=  167.0000> <Mlp=  167.0000> <PB=1000000> 
---- Diving heuristic node with dive number = 0, fix depth = 108 and tabu list size = 0
Fixed projected solution = [x_1_0_1_OspV=1, x_1_26_1_OspV=1, x_1_91_1_OspV=1, x_1_487_1_OspV=1]
<DWph=2> <it=  2> <et=48.06> <Mt= 0.09> <Spt= 0.20> <nCl=100> <DB=  166.9926> <Mlp=  167.0000> <PB=1000000> 
<DWph=1> <it=  3> <et=48.06> <Mt= 0.00> <Spt= 0.00> <nCl=  0> <DB=  167.0000> <Mlp=  167.0000> <PB=1000000> 
---- Diving heuristic node with dive number = 0, fix depth = 109 and tabu list size = 0
Fixed projected solution = [x_1_0_1_OspV=1, x_1_108_1_OspV=1, x_1_301_1_OspV=1, x_1_390_1_OspV=1]
<DWph=2> <it=  5> <et=49.21> <Mt= 0.34> <Spt= 0.80> <nCl=400> <DB=  166.9872> <Mlp=  167.0000> <PB=1000000> 
<DWph=1> <it=  6> <et=49.21> <Mt= 0.00> <Spt= 0.00> <nCl=  0> <DB=  167.0000> <Mlp=  167.0000> <PB=1000000> 
---- Diving heuristic node with dive number = 0, fix depth = 110 and tabu list size = 0
Fixed projected solution = [x_1_0_1_OspV=1, x_1_8_1_OspV=1, x_1_53_1_OspV=1, x_1_495_1_OspV=1]
<DWph=2> <it=  7> <et=50.88> <Mt= 0.46> <Spt= 1.19> <nCl=600> <DB=  166.9969> <Mlp=  167.0000> <PB=1000000> 
<DWph=1> <it=  8> <et=50.89> <Mt= 0.00> <Spt= 0.00> <nCl=  0> <DB=  167.0000> <Mlp=  167.0000> <PB=1000000> 
---- Diving heuristic node with dive number = 0, fix depth = 111 and tabu list size = 0
Fixed projected solution = [x_1_0_1_OspV=1, x_1_230_1_OspV=1, x_1_236_1_OspV=1, x_1_396_1_OspV=1]
<DWph=2> <it=  2> <et=51.26> <Mt= 0.15> <Spt= 0.21> <nCl=100> <DB=  166.9992> <Mlp=  167.0000> <PB=1000000> 
<DWph=1> <it=  3> <et=51.26> <Mt= 0.01> <Spt= 0.00> <nCl=  0> <DB=  167.0000> <Mlp=  167.0000> <PB=1000000> 
---- Diving heuristic node with dive number = 0, fix depth = 112 and tabu list size = 0
Fixed projected solution = [x_1_0_1_OspV=1, x_1_175_1_OspV=1, x_1_212_1_OspV=1, x_1_425_1_OspV=1]
<DWph=2> <it=  2> <et=51.60> <Mt= 0.12> <Spt= 0.20> <nCl=100> <DB=  166.9990> <Mlp=  167.0000> <PB=1000000> 
<DWph=1> <it=  3> <et=51.61> <Mt= 0.00> <Spt= 0.00> <nCl=  0> <DB=  167.0000> <Mlp=  167.0000> <PB=1000000> 
---- Diving heuristic node with dive number = 0, fix depth = 113 and tabu list size = 0
Fixed projected solution = [x_1_0_1_OspV=1, x_1_94_1_OspV=1, x_1_261_1_OspV=1, x_1_419_1_OspV=1]
<DWph=2> <it=  1> <et=51.65> <Mt= 0.04> <Spt= 0.00> <nCl=  0> <DB=  167.0000> <Mlp=  167.0000> <PB=1000000> 
<DWph=1> <it=  2> <et=51.66> <Mt= 0.00> <Spt= 0.00> <nCl=  0> <DB=  167.0000> <Mlp=  167.0000> <PB=1000000> 
---- Diving heuristic node with dive number = 0, fix depth = 114 and tabu list size = 0
Fixed projected solution = [x_1_0_1_OspV=1, x_1_89_1_OspV=1, x_1_229_1_OspV=1, x_1_434_1_OspV=1]
<DWph=2> <it=  3> <et=52.55> <Mt= 0.43> <Spt= 0.42> <nCl=200> <DB=  166.9986> <Mlp=  167.0000> <PB=1000000> 
<DWph=1> <it=  4> <et=52.55> <Mt= 0.00> <Spt= 0.00> <nCl=  0> <DB=  167.0000> <Mlp=  167.0000> <PB=1000000> 
---- Diving heuristic node with dive number = 0, fix depth = 114 and tabu list size = 0
Fixed projected solution = [x_1_0_1_OspV=1, x_1_60_1_OspV=1, x_1_83_1_OspV=1, x_1_485_1_OspV=1]
<DWph=2> <it=  1> <et=52.57> <Mt= 0.00> <Spt= 0.00> <nCl=  0> <DB=  167.0000> <Mlp=  167.0000> <PB=1000000> 
<DWph=1> <it=  2> <et=52.57> <Mt= 0.00> <Spt= 0.00> <nCl=  0> <DB=  167.0000> <Mlp=  167.0000> <PB=1000000> 
---- Diving heuristic node with dive number = 0, fix depth = 115 and tabu list size = 0
Fixed projected solution = [x_1_0_1_OspV=1, x_1_17_1_OspV=1, x_1_332_1_OspV=1, x_1_383_1_OspV=1]
<DWph=2> <it= 10> <et=54.86> <Mt= 0.23> <Spt= 2.05> <nCl=1000> <DB=  166.9990> <Mlp=  167.0001> <PB=1000000> 
<DWph=2> <it= 11> <et=54.87> <Mt= 0.01> <Spt= 0.00> <nCl=  0> <DB=  166.9990> <Mlp=  167.0000> <PB=1000000> 
<DWph=1> <it= 12> <et=54.87> <Mt= 0.00> <Spt= 0.00> <nCl=  0> <DB=  167.0000> <Mlp=  167.0000> <PB=1000000> 
---- Diving heuristic node with dive number = 0, fix depth = 116 and tabu list size = 0
Fixed projected solution = [x_1_0_1_OspV=1, x_1_2_1_OspV=1, x_1_286_1_OspV=1, x_1_412_1_OspV=1]
<DWph=2> <it= 10> <et=57.26> <Mt= 0.39> <Spt= 1.98> <nCl=1000> <DB=  166.9709> <Mlp=  167.0212> <PB=1000000> 
<DWph=2> <it= 12> <et=57.49> <Mt= 0.03> <Spt= 0.20> <nCl=100> <DB=  166.9783> <Mlp=  167.0000> <PB=1000000> 
<DWph=1> <it= 13> <et=57.50> <Mt= 0.00> <Spt= 0.00> <nCl=  0> <DB=  167.0000> <Mlp=  167.0000> <PB=1000000> 
---- Diving heuristic node with dive number = 0, fix depth = 116 and tabu list size = 0
Fixed projected solution = [x_1_0_1_OspV=1, x_1_86_1_OspV=1, x_1_350_1_OspV=1, x_1_360_1_OspV=1]
<DWph=2> <it=  1> <et=57.51> <Mt= 0.00> <Spt= 0.00> <nCl=  0> <DB=  167.0000> <Mlp=  167.0000> <PB=1000000> 
<DWph=1> <it=  2> <et=57.51> <Mt= 0.00> <Spt= 0.00> <nCl=  0> <DB=  167.0000> <Mlp=  167.0000> <PB=1000000> 
---- Diving heuristic node with dive number = 0, fix depth = 117 and tabu list size = 0
Fixed projected solution = [x_1_0_1_OspV=1, x_1_51_1_OspV=1, x_1_174_1_OspV=1, x_1_464_1_OspV=1]
<DWph=2> <it= 10> <et=59.82> <Mt= 0.30> <Spt= 2.00> <nCl=1000> <DB=  166.9820> <Mlp=  167.0054> <PB=1000000> 
<DWph=2> <it= 17> <et=61.18> <Mt= 0.09> <Spt= 1.22> <nCl=600> <DB=  166.9995> <Mlp=  167.0000> <PB=1000000> 
<DWph=1> <it= 18> <et=61.18> <Mt= 0.00> <Spt= 0.00> <nCl=  0> <DB=  167.0000> <Mlp=  167.0000> <PB=1000000> 
---- Diving heuristic node with dive number = 0, fix depth = 118 and tabu list size = 0
Fixed projected solution = [x_1_0_1_OspV=1, x_1_21_1_OspV=1, x_1_143_1_OspV=1, x_1_473_1_OspV=1]
<DWph=2> <it=  1> <et=61.24> <Mt= 0.04> <Spt= 0.00> <nCl=  0> <DB=  167.0000> <Mlp=  167.0000> <PB=1000000> 
<DWph=1> <it=  2> <et=61.24> <Mt= 0.00> <Spt= 0.00> <nCl=  0> <DB=  167.0000> <Mlp=  167.0000> <PB=1000000> 
---- Diving heuristic node with dive number = 0, fix depth = 119 and tabu list size = 0
Fixed projected solution = [x_1_0_1_OspV=1, x_1_164_1_OspV=1, x_1_333_1_OspV=1, x_1_336_1_OspV=1]
<DWph=2> <it=  1> <et=61.26> <Mt= 0.01> <Spt= 0.00> <nCl=  0> <DB=  167.0000> <Mlp=  167.0000> <PB=1000000> 
<DWph=1> <it=  2> <et=61.26> <Mt= 0.00> <Spt= 0.00> <nCl=  0> <DB=  167.0000> <Mlp=  167.0000> <PB=1000000> 
---- Diving heuristic node with dive number = 0, fix depth = 120 and tabu list size = 0
Fixed projected solution = [x_1_0_1_OspV=1, x_1_124_1_OspV=1, x_1_314_1_OspV=1, x_1_369_1_OspV=1]
<DWph=2> <it=  1> <et=61.28> <Mt= 0.01> <Spt= 0.00> <nCl=  0> <DB=  167.0000> <Mlp=  167.0000> <PB=1000000> 
<DWph=1> <it=  2> <et=61.28> <Mt= 0.00> <Spt= 0.00> <nCl=  0> <DB=  167.0000> <Mlp=  167.0000> <PB=1000000> 
---- Diving heuristic node with dive number = 0, fix depth = 121 and tabu list size = 0
Fixed projected solution = [x_1_0_1_OspV=1, x_1_58_1_OspV=1, x_1_121_1_OspV=1, x_1_477_1_OspV=1]
<DWph=2> <it= 10> <et=63.59> <Mt= 0.30> <Spt= 2.01> <nCl=1000> <DB=  166.9762> <Mlp=  167.0071> <PB=1000000> 
<DWph=2> <it= 13> <et=64.02> <Mt= 0.03> <Spt= 0.40> <nCl=200> <DB=  166.9842> <Mlp=  167.0000> <PB=1000000> 
<DWph=1> <it= 14> <et=64.02> <Mt= 0.00> <Spt= 0.00> <nCl=  0> <DB=  167.0000> <Mlp=  167.0000> <PB=1000000> 
---- Diving heuristic node with dive number = 0, fix depth = 122 and tabu list size = 0
Fixed projected solution = [x_1_0_1_OspV=1, x_1_87_1_OspV=1, x_1_323_1_OspV=1, x_1_374_1_OspV=1]
<DWph=2> <it= 10> <et=66.12> <Mt= 0.18> <Spt= 1.90> <nCl=1000> <DB=  166.9725> <Mlp=  167.0606> <PB=1000000> 
<DWph=2> <it= 20> <et=68.27> <Mt= 0.07> <Spt= 2.02> <nCl=1000> <DB=  166.9892> <Mlp=  167.0526> <PB=1000000> 
<DWph=2> <it= 30> <et=71.34> <Mt= 0.04> <Spt= 3.02> <nCl=918> <DB=  161.4091> <Mlp=  167.0285> <PB=1000000> 
<DWph=2> <it= 40> <et=73.41> <Mt= 0.06> <Spt= 2.00> <nCl=946> <DB=  166.9109> <Mlp=  167.0167> <PB=1000000> 
<DWph=2> <it= 50> <et=75.90> <Mt= 0.04> <Spt= 2.44> <nCl=740> <DB=  166.8651> <Mlp=  167.0137> <PB=1000000> 
<DWph=2> <it= 60> <et=78.58> <Mt= 0.05> <Spt= 2.59> <nCl=591> <DB=  165.5280> <Mlp=  167.0060> <PB=1000000> 
<DWph=2> <it= 65> <et=80.37> <Mt= 0.01> <Spt= 1.77> <nCl=212> <DB=  167.0060> <Mlp=  167.0060> <PB=1000000> 
<DWph=1> <it= 66> <et=80.74> <Mt= 0.01> <Spt= 0.37> <nCl=  0> <DB=  167.0060> <Mlp=  167.0060> <PB=1000000> 
---- Diving heuristic node with dive number = 0, fix depth = 123 and tabu list size = 0
Fixed projected solution = [x_1_0_1_OspV=1, x_1_241_1_OspV=1, x_1_276_1_OspV=1, x_1_358_1_OspV=1]
<DWph=2> <it= 10> <et=82.71> <Mt= 0.12> <Spt= 1.82> <nCl=1000> <DB=  159.0975> <Mlp=  167.0357> <PB=1000000> 
<DWph=2> <it= 20> <et=85.01> <Mt= 0.05> <Spt= 2.24> <nCl=790> <DB=  166.8967> <Mlp=  167.0064> <PB=1000000> 
<DWph=2> <it= 24> <et=86.53> <Mt= 0.01> <Spt= 1.51> <nCl=158> <DB=  167.0064> <Mlp=  167.0064> <PB=1000000> 
<DWph=1> <it= 25> <et=86.95> <Mt= 0.01> <Spt= 0.41> <nCl=  0> <DB=  167.0064> <Mlp=  167.0064> <PB=1000000> 
---- Diving heuristic node with dive number = 0, fix depth = 124 and tabu list size = 0
Fixed projected solution = [x_1_0_1_OspV=1, x_1_151_1_OspV=1, x_1_182_1_OspV=1, x_1_439_1_OspV=1]
<DWph=2> <it= 10> <et=89.47> <Mt= 0.18> <Spt= 2.27> <nCl=788> <DB=  166.9669> <Mlp=  167.0075> <PB=1000000> 
<DWph=2> <it= 15> <et=91.19> <Mt= 0.01> <Spt= 1.71> <nCl=154> <DB=  167.0075> <Mlp=  167.0075> <PB=1000000> 
<DWph=1> <it= 16> <et=91.57> <Mt= 0.01> <Spt= 0.37> <nCl=  0> <DB=  167.0075> <Mlp=  167.0075> <PB=1000000> 
---- Diving heuristic node with dive number = 0, fix depth = 125 and tabu list size = 0
Fixed projected solution = [x_1_0_1_OspV=1, x_1_105_1_OspV=1, x_1_177_1_OspV=1, x_1_453_1_OspV=1]
<DWph=2> <it=  8> <et=93.69> <Mt= 0.05> <Spt= 2.05> <nCl=652> <DB=  167.0091> <Mlp=  167.0091> <PB=1000000> 
<DWph=1> <it=  9> <et=94.23> <Mt= 0.00> <Spt= 0.54> <nCl=  0> <DB=  167.0091> <Mlp=  167.0091> <PB=1000000> 
---- Diving heuristic node with dive number = 0, fix depth = 126 and tabu list size = 0
Fixed projected solution = [x_1_0_1_OspV=1, x_1_77_1_OspV=1, x_1_200_1_OspV=1, x_1_450_1_OspV=1]
<DWph=2> <it= 10> <et=96.25> <Mt= 0.18> <Spt= 1.82> <nCl=1000> <DB=  166.1048> <Mlp=  167.0182> <PB=1000000> 
<DWph=2> <it= 14> <et=97.91> <Mt= 0.01> <Spt= 1.64> <nCl=259> <DB=  167.0172> <Mlp=  167.0172> <PB=1000000> 
<DWph=1> <it= 15> <et=98.50> <Mt= 0.00> <Spt= 0.55> <nCl=  0> <DB=  167.0172> <Mlp=  167.0172> <PB=1000000> 
---- Diving heuristic node with dive number = 0, fix depth = 127 and tabu list size = 0
Fixed projected solution = [x_1_0_1_OspV=1, x_1_103_1_OspV=1, x_1_119_1_OspV=1, x_1_465_1_OspV=1]
<DWph=2> <it= 10> <et=100.42> <Mt= 0.06> <Spt= 1.85> <nCl=1000> <DB=-105227750.0916> <Mlp=  167.0204> <PB=1000000> 
<DWph=2> <it= 20> <et=103.02> <Mt= 0.03> <Spt= 2.55> <nCl=934> <DB=  165.5146> <Mlp=  167.0204> <PB=1000000> 
<DWph=2> <it= 29> <et=105.43> <Mt= 0.02> <Spt= 2.38> <nCl=586> <DB=  167.0204> <Mlp=  167.0204> <PB=1000000> 
<DWph=1> <it= 30> <et=105.98> <Mt= 0.00> <Spt= 0.54> <nCl=  0> <DB=  167.0204> <Mlp=  167.0204> <PB=1000000> 
---- Diving heuristic node with dive number = 0, fix depth = 128 and tabu list size = 0
Fixed projected solution = [x_1_0_1_OspV=1, x_1_206_1_OspV=1, x_1_250_1_OspV=1, x_1_392_1_OspV=1]
<DWph=2> <it= 10> <et=107.96> <Mt= 0.10> <Spt= 1.81> <nCl=1000> <DB=  166.0761> <Mlp=  167.0476> <PB=1000000> 
<DWph=2> <it= 20> <et=110.73> <Mt= 0.04> <Spt= 2.74> <nCl=762> <DB=  167.0303> <Mlp=  167.0303> <PB=1000000> 
<DWph=1> <it= 21> <et=111.28> <Mt= 0.00> <Spt= 0.54> <nCl=  0> <DB=  167.0303> <Mlp=  167.0303> <PB=1000000> 
---- Diving heuristic node with dive number = 0, fix depth = 129 and tabu list size = 0
Fixed projected solution = [x_1_0_1_OspV=1, x_1_130_1_OspV=1, x_1_172_1_OspV=1, x_1_448_1_OspV=1]
<DWph=2> <it= 10> <et=113.24> <Mt= 0.13> <Spt= 1.80> <nCl=1000> <DB=  154.4886> <Mlp=  167.0476> <PB=1000000> 
