Application parameters:
  batch  =>  nothing
  instance  =>  "/IN/Falkenauer_t501_18.txt-Q20"
  ub  =>  1.0e6
  cfg  =>  "/CFG/BPP.cfg"
data = Colored Bin Packing dataset.
number of items = 501
number of colors = 20
capacity = 1000
Items : 
	 item 1, weight= 250, color= 1
	 item 2, weight= 250, color= 3
	 item 3, weight= 250, color= 7
	 item 4, weight= 250, color= 10
	 item 5, weight= 250, color= 10
	 item 6, weight= 250, color= 11
	 item 7, weight= 250, color= 11
	 item 8, weight= 250, color= 12
	 item 9, weight= 250, color= 13
	 item 10, weight= 250, color= 13
	 item 11, weight= 250, color= 15
	 item 12, weight= 250, color= 16
	 item 13, weight= 250, color= 16
	 item 14, weight= 250, color= 16
	 item 15, weight= 250, color= 18
	 item 16, weight= 250, color= 18
	 item 17, weight= 251, color= 2
	 item 18, weight= 251, color= 3
	 item 19, weight= 251, color= 4
	 item 20, weight= 251, color= 5
	 item 21, weight= 251, color= 13
	 item 22, weight= 251, color= 16
	 item 23, weight= 251, color= 16
	 item 24, weight= 251, color= 17
	 item 25, weight= 251, color= 18
	 item 26, weight= 251, color= 19
	 item 27, weight= 252, color= 2
	 item 28, weight= 252, color= 2
	 item 29, weight= 252, color= 4
	 item 30, weight= 252, color= 5
	 item 31, weight= 252, color= 8
	 item 32, weight= 252, color= 8
	 item 33, weight= 252, color= 13
	 item 34, weight= 252, color= 17
	 item 35, weight= 252, color= 18
	 item 36, weight= 252, color= 19
	 item 37, weight= 252, color= 19
	 item 38, weight= 253, color= 8
	 item 39, weight= 253, color= 10
	 item 40, weight= 253, color= 12
	 item 41, weight= 254, color= 3
	 item 42, weight= 254, color= 7
	 item 43, weight= 254, color= 16
	 item 44, weight= 254, color= 19
	 item 45, weight= 255, color= 1
	 item 46, weight= 255, color= 3
	 item 47, weight= 255, color= 9
	 item 48, weight= 255, color= 9
	 item 49, weight= 255, color= 15
	 item 50, weight= 255, color= 16
	 item 51, weight= 256, color= 1
	 item 52, weight= 256, color= 16
	 item 53, weight= 257, color= 1
	 item 54, weight= 257, color= 7
	 item 55, weight= 257, color= 8
	 item 56, weight= 257, color= 8
	 item 57, weight= 257, color= 11
	 item 58, weight= 257, color= 13
	 item 59, weight= 257, color= 18
	 item 60, weight= 258, color= 1
	 item 61, weight= 258, color= 3
	 item 62, weight= 258, color= 5
	 item 63, weight= 258, color= 7
	 item 64, weight= 258, color= 10
	 item 65, weight= 258, color= 19
	 item 66, weight= 258, color= 19
	 item 67, weight= 259, color= 2
	 item 68, weight= 259, color= 3
	 item 69, weight= 259, color= 4
	 item 70, weight= 259, color= 7
	 item 71, weight= 259, color= 10
	 item 72, weight= 259, color= 14
	 item 73, weight= 259, color= 14
	 item 74, weight= 260, color= 0
	 item 75, weight= 260, color= 4
	 item 76, weight= 260, color= 6
	 item 77, weight= 260, color= 8
	 item 78, weight= 260, color= 10
	 item 79, weight= 260, color= 19
	 item 80, weight= 260, color= 19
	 item 81, weight= 261, color= 1
	 item 82, weight= 261, color= 1
	 item 83, weight= 261, color= 3
	 item 84, weight= 261, color= 11
	 item 85, weight= 261, color= 14
	 item 86, weight= 262, color= 1
	 item 87, weight= 262, color= 4
	 item 88, weight= 262, color= 7
	 item 89, weight= 262, color= 7
	 item 90, weight= 262, color= 12
	 item 91, weight= 262, color= 15
	 item 92, weight= 262, color= 17
	 item 93, weight= 263, color= 2
	 item 94, weight= 263, color= 2
	 item 95, weight= 263, color= 4
	 item 96, weight= 263, color= 8
	 item 97, weight= 263, color= 10
	 item 98, weight= 263, color= 14
	 item 99, weight= 263, color= 14
	 item 100, weight= 264, color= 0
	 item 101, weight= 264, color= 2
	 item 102, weight= 264, color= 3
	 item 103, weight= 264, color= 12
	 item 104, weight= 264, color= 17
	 item 105, weight= 265, color= 1
	 item 106, weight= 265, color= 4
	 item 107, weight= 265, color= 6
	 item 108, weight= 265, color= 8
	 item 109, weight= 265, color= 10
	 item 110, weight= 265, color= 17
	 item 111, weight= 266, color= 1
	 item 112, weight= 266, color= 2
	 item 113, weight= 266, color= 6
	 item 114, weight= 266, color= 9
	 item 115, weight= 266, color= 16
	 item 116, weight= 266, color= 18
	 item 117, weight= 266, color= 18
	 item 118, weight= 267, color= 6
	 item 119, weight= 267, color= 14
	 item 120, weight= 268, color= 12
	 item 121, weight= 268, color= 14
	 item 122, weight= 268, color= 18
	 item 123, weight= 269, color= 3
	 item 124, weight= 269, color= 6
	 item 125, weight= 269, color= 8
	 item 126, weight= 269, color= 11
	 item 127, weight= 270, color= 2
	 item 128, weight= 270, color= 2
	 item 129, weight= 270, color= 8
	 item 130, weight= 270, color= 10
	 item 131, weight= 271, color= 0
	 item 132, weight= 271, color= 4
	 item 133, weight= 271, color= 5
	 item 134, weight= 271, color= 5
	 item 135, weight= 271, color= 9
	 item 136, weight= 271, color= 12
	 item 137, weight= 271, color= 17
	 item 138, weight= 271, color= 18
	 item 139, weight= 271, color= 19
	 item 140, weight= 272, color= 2
	 item 141, weight= 272, color= 13
	 item 142, weight= 273, color= 0
	 item 143, weight= 273, color= 1
	 item 144, weight= 273, color= 9
	 item 145, weight= 273, color= 18
	 item 146, weight= 274, color= 2
	 item 147, weight= 274, color= 2
	 item 148, weight= 274, color= 6
	 item 149, weight= 274, color= 8
	 item 150, weight= 274, color= 8
	 item 151, weight= 274, color= 9
	 item 152, weight= 274, color= 14
	 item 153, weight= 275, color= 0
	 item 154, weight= 275, color= 1
	 item 155, weight= 275, color= 2
	 item 156, weight= 275, color= 8
	 item 157, weight= 275, color= 14
	 item 158, weight= 275, color= 19
	 item 159, weight= 277, color= 1
	 item 160, weight= 277, color= 8
	 item 161, weight= 277, color= 10
	 item 162, weight= 277, color= 12
	 item 163, weight= 277, color= 17
	 item 164, weight= 277, color= 18
	 item 165, weight= 278, color= 3
	 item 166, weight= 278, color= 9
	 item 167, weight= 278, color= 10
	 item 168, weight= 278, color= 12
	 item 169, weight= 278, color= 12
	 item 170, weight= 279, color= 18
	 item 171, weight= 279, color= 19
	 item 172, weight= 280, color= 9
	 item 173, weight= 281, color= 1
	 item 174, weight= 281, color= 1
	 item 175, weight= 281, color= 3
	 item 176, weight= 281, color= 9
	 item 177, weight= 281, color= 14
	 item 178, weight= 282, color= 1
	 item 179, weight= 282, color= 5
	 item 180, weight= 282, color= 8
	 item 181, weight= 283, color= 0
	 item 182, weight= 283, color= 0
	 item 183, weight= 283, color= 7
	 item 184, weight= 283, color= 8
	 item 185, weight= 283, color= 11
	 item 186, weight= 283, color= 14
	 item 187, weight= 283, color= 16
	 item 188, weight= 283, color= 19
	 item 189, weight= 284, color= 15
	 item 190, weight= 284, color= 18
	 item 191, weight= 284, color= 18
	 item 192, weight= 284, color= 19
	 item 193, weight= 285, color= 1
	 item 194, weight= 285, color= 1
	 item 195, weight= 285, color= 6
	 item 196, weight= 285, color= 8
	 item 197, weight= 285, color= 9
	 item 198, weight= 285, color= 16
	 item 199, weight= 286, color= 0
	 item 200, weight= 286, color= 5
	 item 201, weight= 286, color= 7
	 item 202, weight= 287, color= 7
	 item 203, weight= 287, color= 12
	 item 204, weight= 287, color= 18
	 item 205, weight= 288, color= 4
	 item 206, weight= 288, color= 13
	 item 207, weight= 288, color= 13
	 item 208, weight= 288, color= 17
	 item 209, weight= 289, color= 3
	 item 210, weight= 289, color= 14
	 item 211, weight= 290, color= 2
	 item 212, weight= 290, color= 18
	 item 213, weight= 291, color= 1
	 item 214, weight= 291, color= 16
	 item 215, weight= 292, color= 0
	 item 216, weight= 292, color= 2
	 item 217, weight= 292, color= 12
	 item 218, weight= 292, color= 19
	 item 219, weight= 293, color= 4
	 item 220, weight= 293, color= 4
	 item 221, weight= 293, color= 12
	 item 222, weight= 293, color= 15
	 item 223, weight= 293, color= 17
	 item 224, weight= 293, color= 19
	 item 225, weight= 294, color= 1
	 item 226, weight= 294, color= 5
	 item 227, weight= 294, color= 8
	 item 228, weight= 294, color= 16
	 item 229, weight= 294, color= 18
	 item 230, weight= 295, color= 17
	 item 231, weight= 296, color= 12
	 item 232, weight= 297, color= 0
	 item 233, weight= 297, color= 10
	 item 234, weight= 298, color= 3
	 item 235, weight= 298, color= 5
	 item 236, weight= 298, color= 15
	 item 237, weight= 299, color= 0
	 item 238, weight= 299, color= 4
	 item 239, weight= 299, color= 13
	 item 240, weight= 300, color= 0
	 item 241, weight= 300, color= 14
	 item 242, weight= 300, color= 17
	 item 243, weight= 301, color= 3
	 item 244, weight= 301, color= 11
	 item 245, weight= 301, color= 12
	 item 246, weight= 301, color= 15
	 item 247, weight= 301, color= 18
	 item 248, weight= 302, color= 5
	 item 249, weight= 302, color= 10
	 item 250, weight= 302, color= 11
	 item 251, weight= 302, color= 14
	 item 252, weight= 303, color= 6
	 item 253, weight= 304, color= 13
	 item 254, weight= 305, color= 3
	 item 255, weight= 305, color= 7
	 item 256, weight= 305, color= 12
	 item 257, weight= 305, color= 12
	 item 258, weight= 306, color= 3
	 item 259, weight= 306, color= 5
	 item 260, weight= 306, color= 18
	 item 261, weight= 307, color= 5
	 item 262, weight= 307, color= 10
	 item 263, weight= 308, color= 1
	 item 264, weight= 308, color= 8
	 item 265, weight= 308, color= 17
	 item 266, weight= 309, color= 9
	 item 267, weight= 309, color= 19
	 item 268, weight= 311, color= 1
	 item 269, weight= 312, color= 15
	 item 270, weight= 312, color= 19
	 item 271, weight= 313, color= 2
	 item 272, weight= 313, color= 14
	 item 273, weight= 315, color= 5
	 item 274, weight= 315, color= 6
	 item 275, weight= 316, color= 4
	 item 276, weight= 316, color= 12
	 item 277, weight= 316, color= 15
	 item 278, weight= 317, color= 0
	 item 279, weight= 317, color= 5
	 item 280, weight= 317, color= 9
	 item 281, weight= 317, color= 13
	 item 282, weight= 318, color= 7
	 item 283, weight= 321, color= 9
	 item 284, weight= 323, color= 1
	 item 285, weight= 323, color= 9
	 item 286, weight= 323, color= 16
	 item 287, weight= 325, color= 9
	 item 288, weight= 326, color= 2
	 item 289, weight= 327, color= 0
	 item 290, weight= 327, color= 4
	 item 291, weight= 327, color= 18
	 item 292, weight= 327, color= 19
	 item 293, weight= 330, color= 3
	 item 294, weight= 330, color= 12
	 item 295, weight= 331, color= 6
	 item 296, weight= 332, color= 17
	 item 297, weight= 334, color= 3
	 item 298, weight= 334, color= 10
	 item 299, weight= 334, color= 14
	 item 300, weight= 335, color= 1
	 item 301, weight= 336, color= 6
	 item 302, weight= 336, color= 9
	 item 303, weight= 338, color= 7
	 item 304, weight= 339, color= 3
	 item 305, weight= 340, color= 5
	 item 306, weight= 341, color= 5
	 item 307, weight= 342, color= 4
	 item 308, weight= 342, color= 12
	 item 309, weight= 344, color= 15
	 item 310, weight= 345, color= 2
	 item 311, weight= 345, color= 2
	 item 312, weight= 345, color= 9
	 item 313, weight= 346, color= 5
	 item 314, weight= 348, color= 8
	 item 315, weight= 350, color= 7
	 item 316, weight= 350, color= 11
	 item 317, weight= 351, color= 18
	 item 318, weight= 352, color= 10
	 item 319, weight= 352, color= 18
	 item 320, weight= 353, color= 2
	 item 321, weight= 353, color= 5
	 item 322, weight= 354, color= 7
	 item 323, weight= 355, color= 14
	 item 324, weight= 357, color= 3
	 item 325, weight= 357, color= 10
	 item 326, weight= 357, color= 12
	 item 327, weight= 357, color= 14
	 item 328, weight= 357, color= 14
	 item 329, weight= 357, color= 17
	 item 330, weight= 358, color= 5
	 item 331, weight= 358, color= 19
	 item 332, weight= 359, color= 7
	 item 333, weight= 359, color= 12
	 item 334, weight= 360, color= 15
	 item 335, weight= 362, color= 4
	 item 336, weight= 362, color= 9
	 item 337, weight= 362, color= 9
	 item 338, weight= 362, color= 11
	 item 339, weight= 362, color= 13
	 item 340, weight= 362, color= 15
	 item 341, weight= 363, color= 13
	 item 342, weight= 365, color= 17
	 item 343, weight= 366, color= 16
	 item 344, weight= 367, color= 15
	 item 345, weight= 367, color= 17
	 item 346, weight= 368, color= 9
	 item 347, weight= 368, color= 13
	 item 348, weight= 368, color= 18
	 item 349, weight= 369, color= 4
	 item 350, weight= 369, color= 7
	 item 351, weight= 369, color= 13
	 item 352, weight= 369, color= 19
	 item 353, weight= 370, color= 14
	 item 354, weight= 371, color= 6
	 item 355, weight= 371, color= 19
	 item 356, weight= 372, color= 15
	 item 357, weight= 372, color= 16
	 item 358, weight= 373, color= 2
	 item 359, weight= 373, color= 8
	 item 360, weight= 373, color= 15
	 item 361, weight= 375, color= 0
	 item 362, weight= 375, color= 8
	 item 363, weight= 375, color= 15
	 item 364, weight= 376, color= 10
	 item 365, weight= 377, color= 7
	 item 366, weight= 377, color= 8
	 item 367, weight= 379, color= 7
	 item 368, weight= 379, color= 19
	 item 369, weight= 380, color= 4
	 item 370, weight= 381, color= 0
	 item 371, weight= 382, color= 19
	 item 372, weight= 383, color= 1
	 item 373, weight= 384, color= 11
	 item 374, weight= 385, color= 17
	 item 375, weight= 386, color= 2
	 item 376, weight= 388, color= 18
	 item 377, weight= 390, color= 2
	 item 378, weight= 390, color= 18
	 item 379, weight= 395, color= 8
	 item 380, weight= 395, color= 11
	 item 381, weight= 398, color= 15
	 item 382, weight= 400, color= 8
	 item 383, weight= 402, color= 3
	 item 384, weight= 402, color= 4
	 item 385, weight= 402, color= 7
	 item 386, weight= 402, color= 18
	 item 387, weight= 404, color= 7
	 item 388, weight= 405, color= 4
	 item 389, weight= 405, color= 7
	 item 390, weight= 408, color= 2
	 item 391, weight= 411, color= 15
	 item 392, weight= 412, color= 1
	 item 393, weight= 412, color= 14
	 item 394, weight= 412, color= 17
	 item 395, weight= 413, color= 0
	 item 396, weight= 414, color= 15
	 item 397, weight= 417, color= 16
	 item 398, weight= 419, color= 4
	 item 399, weight= 420, color= 7
	 item 400, weight= 422, color= 16
	 item 401, weight= 423, color= 6
	 item 402, weight= 423, color= 10
	 item 403, weight= 423, color= 13
	 item 404, weight= 423, color= 15
	 item 405, weight= 423, color= 18
	 item 406, weight= 424, color= 15
	 item 407, weight= 425, color= 8
	 item 408, weight= 425, color= 9
	 item 409, weight= 426, color= 10
	 item 410, weight= 428, color= 4
	 item 411, weight= 428, color= 12
	 item 412, weight= 429, color= 10
	 item 413, weight= 429, color= 15
	 item 414, weight= 431, color= 0
	 item 415, weight= 431, color= 1
	 item 416, weight= 433, color= 9
	 item 417, weight= 433, color= 11
	 item 418, weight= 434, color= 3
	 item 419, weight= 434, color= 15
	 item 420, weight= 435, color= 4
	 item 421, weight= 438, color= 1
	 item 422, weight= 438, color= 4
	 item 423, weight= 438, color= 9
	 item 424, weight= 438, color= 13
	 item 425, weight= 438, color= 15
	 item 426, weight= 439, color= 3
	 item 427, weight= 439, color= 9
	 item 428, weight= 440, color= 17
	 item 429, weight= 441, color= 14
	 item 430, weight= 441, color= 18
	 item 431, weight= 442, color= 16
	 item 432, weight= 443, color= 19
	 item 433, weight= 444, color= 9
	 item 434, weight= 444, color= 10
	 item 435, weight= 444, color= 12
	 item 436, weight= 445, color= 3
	 item 437, weight= 445, color= 15
	 item 438, weight= 446, color= 9
	 item 439, weight= 447, color= 12
	 item 440, weight= 448, color= 14
	 item 441, weight= 449, color= 17
	 item 442, weight= 451, color= 7
	 item 443, weight= 451, color= 18
	 item 444, weight= 451, color= 18
	 item 445, weight= 452, color= 4
	 item 446, weight= 453, color= 18
	 item 447, weight= 454, color= 7
	 item 448, weight= 454, color= 11
	 item 449, weight= 454, color= 14
	 item 450, weight= 455, color= 1
	 item 451, weight= 457, color= 12
	 item 452, weight= 458, color= 3
	 item 453, weight= 459, color= 8
	 item 454, weight= 459, color= 11
	 item 455, weight= 460, color= 3
	 item 456, weight= 460, color= 5
	 item 457, weight= 460, color= 14
	 item 458, weight= 461, color= 3
	 item 459, weight= 461, color= 13
	 item 460, weight= 462, color= 3
	 item 461, weight= 462, color= 5
	 item 462, weight= 462, color= 6
	 item 463, weight= 462, color= 9
	 item 464, weight= 462, color= 14
	 item 465, weight= 463, color= 13
	 item 466, weight= 463, color= 16
	 item 467, weight= 464, color= 5
	 item 468, weight= 464, color= 9
	 item 469, weight= 464, color= 10
	 item 470, weight= 465, color= 14
	 item 471, weight= 466, color= 2
	 item 472, weight= 467, color= 7
	 item 473, weight= 467, color= 13
	 item 474, weight= 468, color= 5
	 item 475, weight= 468, color= 19
	 item 476, weight= 470, color= 9
	 item 477, weight= 471, color= 0
	 item 478, weight= 472, color= 5
	 item 479, weight= 472, color= 6
	 item 480, weight= 476, color= 3
	 item 481, weight= 476, color= 15
	 item 482, weight= 477, color= 3
	 item 483, weight= 477, color= 19
	 item 484, weight= 479, color= 13
	 item 485, weight= 480, color= 3
	 item 486, weight= 481, color= 4
	 item 487, weight= 482, color= 16
	 item 488, weight= 483, color= 4
	 item 489, weight= 485, color= 11
	 item 490, weight= 488, color= 6
	 item 491, weight= 491, color= 14
	 item 492, weight= 493, color= 6
	 item 493, weight= 494, color= 1
	 item 494, weight= 494, color= 11
	 item 495, weight= 496, color= 11
	 item 496, weight= 497, color= 4
	 item 497, weight= 498, color= 3
	 item 498, weight= 498, color= 13
	 item 499, weight= 498, color= 19
	 item 500, weight= 499, color= 4
	 item 501, weight= 499, color= 11

VRPSolver warning: Interval set for resource 1 on source node (when source != sink) is ignored (by definition is [0.0,0.0])
[41m solve [00m
~~~~~~~~~~~~~~~~~~~~~~~~~~~~~~~~~~~~~~~~~~~~~~~~~~~~~~~~~~~~~~~~~~~~~~~~~~~~~~
VRPSolver v0.4.1, 24/03/2021. Web: vrpsolver.math.u-bordeaux.fr
Corresponds to the solver by Pessoa, Sadykov, Uchoa and Vanderbeck (2020)
Paper: dx.doi.org/10.1007/s10107-020-01523-z
USE THIS CODE ONLY FOR ACADEMIC PURPOSES AT YOUR OWN RISK
~~~~~~~~~~~~~~~~~~~~~~~~~~~~~~~~~~~~~~~~~~~~~~~~~~~~~~~~~~~~~~~~~~~~~~~~~~~~~~
BaPCod v053, 24/03/2021, © Inria Bordeaux, France
~~~~~~~~~~~~~~~~~~~~~~~~~~~~~~~~~~~~~~~~~~~~~~~~~~~~~~~~~~~~~~~~~~~~~~~~~~~~~~
VRPSolver parameters:
GlobalTimeLimit = 1800
MaxNbOfBBtreeNodeTreated = 100000
treeSearchStrategy = 1
RCSPstopCutGenTimeThresholdInPricing = 10
RCSPhardTimeThresholdInPricing = 20
RCSPnumberOfBucketsPerVertex = 2000
RCSPdynamicBucketSteps = 0
RCSPuseBidirectionalSearch = 1
RCSPapplyReducedCostFixing = 1
RCSPredCostFixingFalseGap = 0
RCSPmaxNumOfColsPerIteration = 100
RCSPmaxNumOfColsPerExactIteration = 100
RCSPheurLabelingStrategy = 4
StabilizationMinPhaseOfStage = 1
RCSPmaxNumOfLabelsInEnumeration = 100000
RCSPmaxNumOfEnumeratedSolutions = 1000000
RCSPmaxNumOfEnumSolutionsForMIP = 100000
RCSPinitNGneighbourhoodSize = 0
RCSPmaxNGneighbourhoodSize = 0
RCSPrankOneCutsMaxNumPerRound = 100
RCSPrankOneCutsMaxNumRows = -1
RCSPrankOneCutsMemoryType = 2
CutTailingOffThreshold = 0.02
CutTailingOffCounterThreshold = 3
SafeDualBoundScaleFactor = -1
StrongBranchingPhaseOneCandidatesNumber = 100
StrongBranchingPhaseOneTreeSizeEstimRatio = 0.3
StrongBranchingPhaseTwoCandidatesNumber = 1
StrongBranchingPhaseTwoTreeSizeEstimRatio = 0.1
MaxTimeForRestrictedMasterIpHeur = -1
DivingHeurUseDepthLimit = 0
MaxLDSbreadth = 3
MaxLDSdepth = 2
New model incumbent solution 1e+06, TIME = 0h0m0s3t = 3
Model is built TIME = 0h0m2s77t = 277
************************************************************************************************
**** BaB tree root node
**** Local DB = -1e+12, global bounds : [ -1e+12 , 1e+06 ], TIME = 0h0m2s77t = 277
**** 1 open nodes, 0 columns (0 active), 0 dyn. constrs. (0 active), 1004 art. vars. (1004 active)
************************************************************************************************
<DWph=2> <it= 10> <et=4.82> <Mt= 0.01> <Spt= 2.03> <nCl=1000> <DB=-1247902127.2496> <Mlp=499800039.5000> <PB=1000000> 
<DWph=2> <it= 20> <et=6.85> <Mt= 0.02> <Spt= 2.00> <nCl=1000> <DB=-1266246670.0527> <Mlp=388800080.0000> <PB=1000000> 
<DWph=2> <it= 30> <et=8.86> <Mt= 0.02> <Spt= 1.98> <nCl=1000> <DB=-1258975618.7154> <Mlp=266761224.2269> <PB=1000000> 
<DWph=2> <it= 40> <et=10.86> <Mt= 0.02> <Spt= 1.97> <nCl=1000> <DB=-1253224619.9588> <Mlp=157400144.1667> <PB=1000000> 
<DWph=2> <it= 50> <et=12.84> <Mt= 0.05> <Spt= 1.94> <nCl=1000> <DB=-1250030542.3435> <Mlp=98900160.4167> <PB=1000000> 
<DWph=2> <it= 60> <et=14.81> <Mt= 0.07> <Spt= 1.89> <nCl=1000> <DB=-1207131228.1938> <Mlp=54263801.6418> <PB=1000000> 
<DWph=2> <it= 70> <et=16.73> <Mt= 0.09> <Spt= 1.83> <nCl=1000> <DB=-1081012007.0127> <Mlp=20559723.2272> <PB=1000000> 
<DWph=2> <it= 80> <et=19.10> <Mt= 0.17> <Spt= 2.18> <nCl=1000> <DB=  134.4380> <Mlp=  168.0404> <PB=1000000> 
<DWph=2> <it= 90> <et=21.41> <Mt= 0.36> <Spt= 1.94> <nCl=1000> <DB=  153.0306> <Mlp=  167.2852> <PB=1000000> 
<DWph=2> <it=100> <et=23.87> <Mt= 0.47> <Spt= 1.99> <nCl=980> <DB=  165.3217> <Mlp=  167.0031> <PB=1000000> 
<DWph=2> <it=103> <et=24.81> <Mt= 0.06> <Spt= 0.82> <nCl=200> <DB=  167.0000> <Mlp=  167.0000> <PB=1000000> 
<DWph=1> <it=104> <et=25.22> <Mt= 0.01> <Spt= 0.41> <nCl=  0> <DB=  167.0000> <Mlp=  167.0000> <PB=1000000> 
<DWph=0> <it=105> <et=25.43> <Mt= 0.00> <Spt= 0.20> <nCl=  0> <DB=  167.0000> <Mlp=  167.0000> <PB=1000000> 
Reduced cost fixing for graph G_1... took 2.12 sec., 527642 buck. arcs remain (58.4% from prev., 24.7% from max.)
Run enumeration... took 0.63 sec. and not succeeded.
ColGenEvalAlg final dual bound: 167 (rounded: 167)
----------- Diving heuristic started -----------
<DWph=2> <it=  1> <et=28.30> <Mt= 0.00> <Spt= 0.00> <nCl=  0> <DB=  167.0000> <Mlp=  167.0000> <PB=1000000> 
<DWph=1> <it=  2> <et=28.31> <Mt= 0.00> <Spt= 0.00> <nCl=  0> <DB=  167.0000> <Mlp=  167.0000> <PB=1000000> 
---- Diving heuristic node with dive number = 0, fix depth = 0 and tabu list size = 0
Fixed projected solution = [x_1_0_1_OspV=1, x_1_9_1_OspV=1, x_1_24_1_OspV=1, x_1_501_1_OspV=1]
<DWph=2> <it=  1> <et=28.39> <Mt= 0.00> <Spt= 0.00> <nCl=  0> <DB=  167.0000> <Mlp=  167.0000> <PB=1000000> 
<DWph=1> <it=  2> <et=28.39> <Mt= 0.00> <Spt= 0.00> <nCl=  0> <DB=  167.0000> <Mlp=  167.0000> <PB=1000000> 
---- Diving heuristic node with dive number = 0, fix depth = 0 and tabu list size = 0
Fixed projected solution = [x_1_0_1_OspV=1, x_1_37_1_OspV=1, x_1_140_1_OspV=1, x_1_480_1_OspV=1]
<DWph=2> <it=  1> <et=28.47> <Mt= 0.01> <Spt= 0.00> <nCl=  0> <DB=  167.0000> <Mlp=  167.0000> <PB=1000000> 
<DWph=1> <it=  2> <et=28.47> <Mt= 0.00> <Spt= 0.00> <nCl=  0> <DB=  167.0000> <Mlp=  167.0000> <PB=1000000> 
---- Diving heuristic node with dive number = 0, fix depth = 0 and tabu list size = 0
Fixed projected solution = [x_1_0_1_OspV=1, x_1_198_1_OspV=1, x_1_215_1_OspV=1, x_1_405_1_OspV=1]
<DWph=2> <it=  1> <et=28.56> <Mt= 0.00> <Spt= 0.00> <nCl=  0> <DB=  167.0000> <Mlp=  167.0000> <PB=1000000> 
<DWph=1> <it=  2> <et=28.56> <Mt= 0.00> <Spt= 0.00> <nCl=  0> <DB=  167.0000> <Mlp=  167.0000> <PB=1000000> 
---- Diving heuristic node with dive number = 0, fix depth = 0 and tabu list size = 0
Fixed projected solution = [x_1_0_1_OspV=1, x_1_220_1_OspV=1, x_1_237_1_OspV=1, x_1_390_1_OspV=1]
<DWph=2> <it=  1> <et=28.64> <Mt= 0.00> <Spt= 0.00> <nCl=  0> <DB=  167.0000> <Mlp=  167.0000> <PB=1000000> 
<DWph=1> <it=  2> <et=28.64> <Mt= 0.00> <Spt= 0.00> <nCl=  0> <DB=  167.0000> <Mlp=  167.0000> <PB=1000000> 
---- Diving heuristic node with dive number = 0, fix depth = 0 and tabu list size = 0
Fixed projected solution = [x_1_0_1_OspV=1, x_1_233_1_OspV=1, x_1_234_1_OspV=1, x_1_389_1_OspV=1]
<DWph=2> <it=  1> <et=28.72> <Mt= 0.01> <Spt= 0.00> <nCl=  0> <DB=  167.0000> <Mlp=  167.0000> <PB=1000000> 
<DWph=1> <it=  2> <et=28.73> <Mt= 0.00> <Spt= 0.00> <nCl=  0> <DB=  167.0000> <Mlp=  167.0000> <PB=1000000> 
---- Diving heuristic node with dive number = 0, fix depth = 0 and tabu list size = 0
Fixed projected solution = [x_1_0_1_OspV=1, x_1_279_1_OspV=1, x_1_283_1_OspV=1, x_1_340_1_OspV=1]
<DWph=2> <it=  1> <et=28.81> <Mt= 0.00> <Spt= 0.00> <nCl=  0> <DB=  167.0000> <Mlp=  167.0000> <PB=1000000> 
<DWph=1> <it=  2> <et=28.81> <Mt= 0.00> <Spt= 0.00> <nCl=  0> <DB=  167.0000> <Mlp=  167.0000> <PB=1000000> 
---- Diving heuristic node with dive number = 0, fix depth = 0 and tabu list size = 0
Fixed projected solution = [x_1_0_1_OspV=1, x_1_66_1_OspV=1, x_1_344_1_OspV=1, x_1_362_1_OspV=1]
<DWph=2> <it=  1> <et=28.89> <Mt= 0.00> <Spt= 0.00> <nCl=  0> <DB=  167.0000> <Mlp=  167.0000> <PB=1000000> 
<DWph=1> <it=  2> <et=28.89> <Mt= 0.00> <Spt= 0.00> <nCl=  0> <DB=  167.0000> <Mlp=  167.0000> <PB=1000000> 
---- Diving heuristic node with dive number = 0, fix depth = 0 and tabu list size = 0
Fixed projected solution = [x_1_0_1_OspV=1, x_1_10_1_OspV=1, x_1_246_1_OspV=1, x_1_441_1_OspV=1]
<DWph=2> <it=  1> <et=28.98> <Mt= 0.01> <Spt= 0.00> <nCl=  0> <DB=  167.0000> <Mlp=  167.0000> <PB=1000000> 
<DWph=1> <it=  2> <et=28.98> <Mt= 0.00> <Spt= 0.00> <nCl=  0> <DB=  167.0000> <Mlp=  167.0000> <PB=1000000> 
---- Diving heuristic node with dive number = 0, fix depth = 0 and tabu list size = 0
Fixed projected solution = [x_1_0_1_OspV=1, x_1_14_1_OspV=1, x_1_232_1_OspV=1, x_1_446_1_OspV=1]
<DWph=2> <it=  1> <et=29.06> <Mt= 0.00> <Spt= 0.00> <nCl=  0> <DB=  167.0000> <Mlp=  167.0000> <PB=1000000> 
<DWph=1> <it=  2> <et=29.06> <Mt= 0.00> <Spt= 0.00> <nCl=  0> <DB=  167.0000> <Mlp=  167.0000> <PB=1000000> 
---- Diving heuristic node with dive number = 0, fix depth = 0 and tabu list size = 0
Fixed projected solution = [x_1_0_1_OspV=1, x_1_7_1_OspV=1, x_1_214_1_OspV=1, x_1_453_1_OspV=1]
<DWph=2> <it=  1> <et=29.14> <Mt= 0.00> <Spt= 0.00> <nCl=  0> <DB=  167.0000> <Mlp=  167.0000> <PB=1000000> 
<DWph=1> <it=  2> <et=29.15> <Mt= 0.00> <Spt= 0.00> <nCl=  0> <DB=  167.0000> <Mlp=  167.0000> <PB=1000000> 
---- Diving heuristic node with dive number = 0, fix depth = 0 and tabu list size = 0
Fixed projected solution = [x_1_0_1_OspV=1, x_1_13_1_OspV=1, x_1_213_1_OspV=1, x_1_454_1_OspV=1]
<DWph=2> <it=  1> <et=29.23> <Mt= 0.01> <Spt= 0.00> <nCl=  0> <DB=  167.0000> <Mlp=  167.0000> <PB=1000000> 
<DWph=1> <it=  2> <et=29.23> <Mt= 0.00> <Spt= 0.00> <nCl=  0> <DB=  167.0000> <Mlp=  167.0000> <PB=1000000> 
---- Diving heuristic node with dive number = 0, fix depth = 0 and tabu list size = 0
Fixed projected solution = [x_1_0_1_OspV=1, x_1_56_1_OspV=1, x_1_250_1_OspV=1, x_1_430_1_OspV=1]
<DWph=2> <it=  1> <et=29.31> <Mt= 0.00> <Spt= 0.00> <nCl=  0> <DB=  167.0000> <Mlp=  167.0000> <PB=1000000> 
<DWph=1> <it=  2> <et=29.31> <Mt= 0.00> <Spt= 0.00> <nCl=  0> <DB=  167.0000> <Mlp=  167.0000> <PB=1000000> 
---- Diving heuristic node with dive number = 0, fix depth = 1 and tabu list size = 0
Fixed projected solution = [x_1_0_1_OspV=1, x_1_11_1_OspV=1, x_1_293_1_OspV=1, x_1_399_1_OspV=1]
<DWph=2> <it=  1> <et=29.38> <Mt= 0.00> <Spt= 0.00> <nCl=  0> <DB=  167.0000> <Mlp=  167.0000> <PB=1000000> 
<DWph=1> <it=  2> <et=29.38> <Mt= 0.00> <Spt= 0.00> <nCl=  0> <DB=  167.0000> <Mlp=  167.0000> <PB=1000000> 
---- Diving heuristic node with dive number = 0, fix depth = 2 and tabu list size = 0
Fixed projected solution = [x_1_0_1_OspV=1, x_1_185_1_OspV=1, x_1_219_1_OspV=1, x_1_406_1_OspV=1]
<DWph=2> <it=  1> <et=29.47> <Mt= 0.01> <Spt= 0.00> <nCl=  0> <DB=  167.0000> <Mlp=  167.0000> <PB=1000000> 
<DWph=1> <it=  2> <et=29.47> <Mt= 0.00> <Spt= 0.00> <nCl=  0> <DB=  167.0000> <Mlp=  167.0000> <PB=1000000> 
---- Diving heuristic node with dive number = 0, fix depth = 2 and tabu list size = 0
Fixed projected solution = [x_1_0_1_OspV=1, x_1_204_1_OspV=1, x_1_212_1_OspV=1, x_1_404_1_OspV=1]
<DWph=2> <it=  1> <et=29.47> <Mt= 0.00> <Spt= 0.00> <nCl=  0> <DB=  167.0000> <Mlp=  167.0000> <PB=1000000> 
<DWph=1> <it=  2> <et=29.48> <Mt= 0.00> <Spt= 0.00> <nCl=  0> <DB=  167.0000> <Mlp=  167.0000> <PB=1000000> 
---- Diving heuristic node with dive number = 0, fix depth = 2 and tabu list size = 0
Fixed projected solution = [x_1_0_1_OspV=1, x_1_188_1_OspV=1, x_1_240_1_OspV=1, x_1_397_1_OspV=1]
<DWph=2> <it=  1> <et=29.48> <Mt= 0.00> <Spt= 0.00> <nCl=  0> <DB=  167.0000> <Mlp=  167.0000> <PB=1000000> 
<DWph=1> <it=  2> <et=29.49> <Mt= 0.01> <Spt= 0.00> <nCl=  0> <DB=  167.0000> <Mlp=  167.0000> <PB=1000000> 
---- Diving heuristic node with dive number = 0, fix depth = 2 and tabu list size = 0
Fixed projected solution = [x_1_0_1_OspV=1, x_1_35_1_OspV=1, x_1_208_1_OspV=1, x_1_456_1_OspV=1]
<DWph=2> <it=  1> <et=29.49> <Mt= 0.00> <Spt= 0.00> <nCl=  0> <DB=  167.0000> <Mlp=  167.0000> <PB=1000000> 
<DWph=1> <it=  2> <et=29.50> <Mt= 0.00> <Spt= 0.00> <nCl=  0> <DB=  167.0000> <Mlp=  167.0000> <PB=1000000> 
---- Diving heuristic node with dive number = 0, fix depth = 3 and tabu list size = 0
Fixed projected solution = [x_1_0_1_OspV=1, x_1_44_1_OspV=1, x_1_81_1_OspV=1, x_1_489_1_OspV=1]
<DWph=2> <it=  1> <et=29.51> <Mt= 0.00> <Spt= 0.00> <nCl=  0> <DB=  167.0000> <Mlp=  167.0000> <PB=1000000> 
<DWph=1> <it=  2> <et=29.51> <Mt= 0.01> <Spt= 0.00> <nCl=  0> <DB=  167.0000> <Mlp=  167.0000> <PB=1000000> 
---- Diving heuristic node with dive number = 0, fix depth = 4 and tabu list size = 0
Fixed projected solution = [x_1_0_1_OspV=1, x_1_203_1_OspV=1, x_1_206_1_OspV=1, x_1_407_1_OspV=1]
<DWph=2> <it=  1> <et=29.53> <Mt= 0.01> <Spt= 0.00> <nCl=  0> <DB=  167.0000> <Mlp=  167.0000> <PB=1000000> 
<DWph=1> <it=  2> <et=29.53> <Mt= 0.00> <Spt= 0.00> <nCl=  0> <DB=  167.0000> <Mlp=  167.0000> <PB=1000000> 
---- Diving heuristic node with dive number = 0, fix depth = 4 and tabu list size = 0
Fixed projected solution = [x_1_0_1_OspV=1, x_1_196_1_OspV=1, x_1_211_1_OspV=1, x_1_408_1_OspV=1]
<DWph=2> <it=  1> <et=29.54> <Mt= 0.00> <Spt= 0.00> <nCl=  0> <DB=  167.0000> <Mlp=  167.0000> <PB=1000000> 
<DWph=1> <it=  2> <et=29.54> <Mt= 0.00> <Spt= 0.00> <nCl=  0> <DB=  167.0000> <Mlp=  167.0000> <PB=1000000> 
---- Diving heuristic node with dive number = 0, fix depth = 4 and tabu list size = 0
Fixed projected solution = [x_1_0_1_OspV=1, x_1_186_1_OspV=1, x_1_225_1_OspV=1, x_1_403_1_OspV=1]
<DWph=2> <it=  1> <et=29.55> <Mt= 0.01> <Spt= 0.00> <nCl=  0> <DB=  167.0000> <Mlp=  167.0000> <PB=1000000> 
<DWph=1> <it=  2> <et=29.55> <Mt= 0.00> <Spt= 0.00> <nCl=  0> <DB=  167.0000> <Mlp=  167.0000> <PB=1000000> 
---- Diving heuristic node with dive number = 0, fix depth = 4 and tabu list size = 0
Fixed projected solution = [x_1_0_1_OspV=1, x_1_176_1_OspV=1, x_1_207_1_OspV=1, x_1_415_1_OspV=1]
<DWph=2> <it=  1> <et=29.55> <Mt= 0.00> <Spt= 0.00> <nCl=  0> <DB=  167.0000> <Mlp=  167.0000> <PB=1000000> 
<DWph=1> <it=  2> <et=29.56> <Mt= 0.00> <Spt= 0.00> <nCl=  0> <DB=  167.0000> <Mlp=  167.0000> <PB=1000000> 
---- Diving heuristic node with dive number = 0, fix depth = 5 and tabu list size = 0
Fixed projected solution = [x_1_0_1_OspV=1, x_1_117_1_OspV=1, x_1_126_1_OspV=1, x_1_470_1_OspV=1]
<DWph=2> <it=  1> <et=29.57> <Mt= 0.01> <Spt= 0.00> <nCl=  0> <DB=  167.0000> <Mlp=  167.0000> <PB=1000000> 
<DWph=1> <it=  2> <et=29.57> <Mt= 0.00> <Spt= 0.00> <nCl=  0> <DB=  167.0000> <Mlp=  167.0000> <PB=1000000> 
---- Diving heuristic node with dive number = 0, fix depth = 5 and tabu list size = 0
Fixed projected solution = [x_1_0_1_OspV=1, x_1_184_1_OspV=1, x_1_209_1_OspV=1, x_1_410_1_OspV=1]
<DWph=2> <it=  1> <et=29.58> <Mt= 0.00> <Spt= 0.00> <nCl=  0> <DB=  167.0000> <Mlp=  167.0000> <PB=1000000> 
<DWph=1> <it=  2> <et=29.58> <Mt= 0.00> <Spt= 0.00> <nCl=  0> <DB=  167.0000> <Mlp=  167.0000> <PB=1000000> 
---- Diving heuristic node with dive number = 0, fix depth = 6 and tabu list size = 0
Fixed projected solution = [x_1_0_1_OspV=1, x_1_262_1_OspV=1, x_1_308_1_OspV=1, x_1_317_1_OspV=1]
<DWph=2> <it=  1> <et=29.59> <Mt= 0.01> <Spt= 0.00> <nCl=  0> <DB=  167.0000> <Mlp=  167.0000> <PB=1000000> 
<DWph=1> <it=  2> <et=29.59> <Mt= 0.00> <Spt= 0.00> <nCl=  0> <DB=  167.0000> <Mlp=  167.0000> <PB=1000000> 
---- Diving heuristic node with dive number = 0, fix depth = 7 and tabu list size = 0
Fixed projected solution = [x_1_0_1_OspV=1, x_1_12_1_OspV=1, x_1_323_1_OspV=1, x_1_379_1_OspV=1]
<DWph=2> <it=  1> <et=29.61> <Mt= 0.01> <Spt= 0.00> <nCl=  0> <DB=  167.0000> <Mlp=  167.0000> <PB=1000000> 
<DWph=1> <it=  2> <et=29.61> <Mt= 0.00> <Spt= 0.00> <nCl=  0> <DB=  167.0000> <Mlp=  167.0000> <PB=1000000> 
---- Diving heuristic node with dive number = 0, fix depth = 8 and tabu list size = 0
Fixed projected solution = [x_1_0_1_OspV=1, x_1_82_1_OspV=1, x_1_164_1_OspV=1, x_1_464_1_OspV=1]
<DWph=2> <it=  1> <et=29.64> <Mt= 0.02> <Spt= 0.00> <nCl=  0> <DB=  167.0000> <Mlp=  167.0000> <PB=1000000> 
<DWph=1> <it=  2> <et=29.64> <Mt= 0.00> <Spt= 0.00> <nCl=  0> <DB=  167.0000> <Mlp=  167.0000> <PB=1000000> 
---- Diving heuristic node with dive number = 0, fix depth = 9 and tabu list size = 0
Fixed projected solution = [x_1_0_1_OspV=1, x_1_192_1_OspV=1, x_1_195_1_OspV=1, x_1_414_1_OspV=1]
<DWph=2> <it=  1> <et=29.65> <Mt= 0.01> <Spt= 0.00> <nCl=  0> <DB=  167.0000> <Mlp=  167.0000> <PB=1000000> 
<DWph=1> <it=  2> <et=29.65> <Mt= 0.00> <Spt= 0.00> <nCl=  0> <DB=  167.0000> <Mlp=  167.0000> <PB=1000000> 
---- Diving heuristic node with dive number = 0, fix depth = 10 and tabu list size = 0
Fixed projected solution = [x_1_0_1_OspV=1, x_1_94_1_OspV=1, x_1_106_1_OspV=1, x_1_478_1_OspV=1]
<DWph=2> <it=  1> <et=29.67> <Mt= 0.01> <Spt= 0.00> <nCl=  0> <DB=  167.0000> <Mlp=  167.0000> <PB=1000000> 
<DWph=1> <it=  2> <et=29.67> <Mt= 0.00> <Spt= 0.00> <nCl=  0> <DB=  167.0000> <Mlp=  167.0000> <PB=1000000> 
---- Diving heuristic node with dive number = 0, fix depth = 11 and tabu list size = 0
Fixed projected solution = [x_1_0_1_OspV=1, x_1_244_1_OspV=1, x_1_266_1_OspV=1, x_1_377_1_OspV=1]
<DWph=2> <it=  1> <et=29.69> <Mt= 0.01> <Spt= 0.00> <nCl=  0> <DB=  167.0000> <Mlp=  167.0000> <PB=1000000> 
<DWph=1> <it=  2> <et=29.69> <Mt= 0.00> <Spt= 0.00> <nCl=  0> <DB=  167.0000> <Mlp=  167.0000> <PB=1000000> 
---- Diving heuristic node with dive number = 0, fix depth = 12 and tabu list size = 0
Fixed projected solution = [x_1_0_1_OspV=1, x_1_249_1_OspV=1, x_1_310_1_OspV=1, x_1_321_1_OspV=1]
<DWph=2> <it=  1> <et=29.70> <Mt= 0.01> <Spt= 0.00> <nCl=  0> <DB=  167.0000> <Mlp=  167.0000> <PB=1000000> 
<DWph=1> <it=  2> <et=29.70> <Mt= 0.00> <Spt= 0.00> <nCl=  0> <DB=  167.0000> <Mlp=  167.0000> <PB=1000000> 
---- Diving heuristic node with dive number = 0, fix depth = 13 and tabu list size = 0
Fixed projected solution = [x_1_0_1_OspV=1, x_1_157_1_OspV=1, x_1_172_1_OspV=1, x_1_437_1_OspV=1]
<DWph=2> <it=  1> <et=29.73> <Mt= 0.02> <Spt= 0.00> <nCl=  0> <DB=  167.0000> <Mlp=  167.0000> <PB=1000000> 
<DWph=1> <it=  2> <et=29.73> <Mt= 0.00> <Spt= 0.00> <nCl=  0> <DB=  167.0000> <Mlp=  167.0000> <PB=1000000> 
---- Diving heuristic node with dive number = 0, fix depth = 14 and tabu list size = 0
Fixed projected solution = [x_1_0_1_OspV=1, x_1_105_1_OspV=1, x_1_341_1_OspV=1, x_1_356_1_OspV=1]
<DWph=2> <it=  1> <et=29.75> <Mt= 0.02> <Spt= 0.00> <nCl=  0> <DB=  167.0000> <Mlp=  167.0000> <PB=1000000> 
<DWph=1> <it=  2> <et=29.76> <Mt= 0.00> <Spt= 0.00> <nCl=  0> <DB=  167.0000> <Mlp=  167.0000> <PB=1000000> 
---- Diving heuristic node with dive number = 0, fix depth = 15 and tabu list size = 0
Fixed projected solution = [x_1_0_1_OspV=1, x_1_123_1_OspV=1, x_1_337_1_OspV=1, x_1_349_1_OspV=1]
<DWph=2> <it=  1> <et=29.79> <Mt= 0.03> <Spt= 0.00> <nCl=  0> <DB=  167.0000> <Mlp=  167.0000> <PB=1000000> 
<DWph=1> <it=  2> <et=29.79> <Mt= 0.00> <Spt= 0.00> <nCl=  0> <DB=  167.0000> <Mlp=  167.0000> <PB=1000000> 
---- Diving heuristic node with dive number = 0, fix depth = 16 and tabu list size = 0
Fixed projected solution = [x_1_0_1_OspV=1, x_1_5_1_OspV=1, x_1_30_1_OspV=1, x_1_499_1_OspV=1]
<DWph=2> <it=  1> <et=29.81> <Mt= 0.02> <Spt= 0.00> <nCl=  0> <DB=  167.0000> <Mlp=  167.0000> <PB=1000000> 
<DWph=1> <it=  2> <et=29.82> <Mt= 0.00> <Spt= 0.00> <nCl=  0> <DB=  167.0000> <Mlp=  167.0000> <PB=1000000> 
---- Diving heuristic node with dive number = 0, fix depth = 17 and tabu list size = 0
Fixed projected solution = [x_1_0_1_OspV=1, x_1_23_1_OspV=1, x_1_31_1_OspV=1, x_1_496_1_OspV=1]
<DWph=2> <it=  1> <et=29.83> <Mt= 0.01> <Spt= 0.00> <nCl=  0> <DB=  167.0000> <Mlp=  167.0000> <PB=1000000> 
<DWph=1> <it=  2> <et=29.83> <Mt= 0.00> <Spt= 0.00> <nCl=  0> <DB=  167.0000> <Mlp=  167.0000> <PB=1000000> 
---- Diving heuristic node with dive number = 0, fix depth = 17 and tabu list size = 0
Fixed projected solution = [x_1_0_1_OspV=1, x_1_6_1_OspV=1, x_1_118_1_OspV=1, x_1_488_1_OspV=1]
<DWph=2> <it=  1> <et=29.84> <Mt= 0.00> <Spt= 0.00> <nCl=  0> <DB=  167.0000> <Mlp=  167.0000> <PB=1000000> 
<DWph=1> <it=  2> <et=29.84> <Mt= 0.00> <Spt= 0.00> <nCl=  0> <DB=  167.0000> <Mlp=  167.0000> <PB=1000000> 
---- Diving heuristic node with dive number = 0, fix depth = 18 and tabu list size = 0
Fixed projected solution = [x_1_0_1_OspV=1, x_1_248_1_OspV=1, x_1_312_1_OspV=1, x_1_320_1_OspV=1]
<DWph=2> <it=  1> <et=29.88> <Mt= 0.03> <Spt= 0.00> <nCl=  0> <DB=  167.0000> <Mlp=  167.0000> <PB=1000000> 
<DWph=1> <it=  2> <et=29.88> <Mt= 0.00> <Spt= 0.00> <nCl=  0> <DB=  167.0000> <Mlp=  167.0000> <PB=1000000> 
---- Diving heuristic node with dive number = 0, fix depth = 19 and tabu list size = 0
Fixed projected solution = [x_1_0_1_OspV=1, x_1_79_1_OspV=1, x_1_247_1_OspV=1, x_1_426_1_OspV=1]
<DWph=2> <it=  1> <et=29.91> <Mt= 0.03> <Spt= 0.00> <nCl=  0> <DB=  167.0000> <Mlp=  167.0000> <PB=1000000> 
<DWph=1> <it=  2> <et=29.91> <Mt= 0.00> <Spt= 0.00> <nCl=  0> <DB=  167.0000> <Mlp=  167.0000> <PB=1000000> 
---- Diving heuristic node with dive number = 0, fix depth = 20 and tabu list size = 0
Fixed projected solution = [x_1_0_1_OspV=1, x_1_86_1_OspV=1, x_1_160_1_OspV=1, x_1_458_1_OspV=1]
<DWph=2> <it=  1> <et=29.94> <Mt= 0.02> <Spt= 0.00> <nCl=  0> <DB=  167.0000> <Mlp=  167.0000> <PB=1000000> 
<DWph=1> <it=  2> <et=29.94> <Mt= 0.00> <Spt= 0.00> <nCl=  0> <DB=  167.0000> <Mlp=  167.0000> <PB=1000000> 
---- Diving heuristic node with dive number = 0, fix depth = 21 and tabu list size = 0
Fixed projected solution = [x_1_0_1_OspV=1, x_1_15_1_OspV=1, x_1_231_1_OspV=1, x_1_447_1_OspV=1]
<DWph=2> <it=  1> <et=29.97> <Mt= 0.03> <Spt= 0.00> <nCl=  0> <DB=  167.0000> <Mlp=  167.0000> <PB=1000000> 
<DWph=1> <it=  2> <et=29.97> <Mt= 0.00> <Spt= 0.00> <nCl=  0> <DB=  167.0000> <Mlp=  167.0000> <PB=1000000> 
---- Diving heuristic node with dive number = 0, fix depth = 22 and tabu list size = 0
Fixed projected solution = [x_1_0_1_OspV=1, x_1_216_1_OspV=1, x_1_230_1_OspV=1, x_1_395_1_OspV=1]
<DWph=2> <it=  1> <et=30.01> <Mt= 0.03> <Spt= 0.00> <nCl=  0> <DB=  167.0000> <Mlp=  167.0000> <PB=1000000> 
<DWph=1> <it=  2> <et=30.01> <Mt= 0.00> <Spt= 0.00> <nCl=  0> <DB=  167.0000> <Mlp=  167.0000> <PB=1000000> 
---- Diving heuristic node with dive number = 0, fix depth = 22 and tabu list size = 0
Fixed projected solution = [x_1_0_1_OspV=1, x_1_111_1_OspV=1, x_1_285_1_OspV=1, x_1_391_1_OspV=1]
<DWph=2> <it=  1> <et=30.02> <Mt= 0.01> <Spt= 0.00> <nCl=  0> <DB=  167.0000> <Mlp=  167.0000> <PB=1000000> 
<DWph=1> <it=  2> <et=30.02> <Mt= 0.00> <Spt= 0.00> <nCl=  0> <DB=  167.0000> <Mlp=  167.0000> <PB=1000000> 
---- Diving heuristic node with dive number = 0, fix depth = 22 and tabu list size = 0
Fixed projected solution = [x_1_0_1_OspV=1, x_1_43_1_OspV=1, x_1_265_1_OspV=1, x_1_421_1_OspV=1]
<DWph=2> <it=  1> <et=30.03> <Mt= 0.00> <Spt= 0.00> <nCl=  0> <DB=  167.0000> <Mlp=  167.0000> <PB=1000000> 
<DWph=1> <it=  2> <et=30.03> <Mt= 0.00> <Spt= 0.00> <nCl=  0> <DB=  167.0000> <Mlp=  167.0000> <PB=1000000> 
---- Diving heuristic node with dive number = 0, fix depth = 23 and tabu list size = 0
Fixed projected solution = [x_1_0_1_OspV=1, x_1_39_1_OspV=1, x_1_264_1_OspV=1, x_1_427_1_OspV=1]
<DWph=2> <it=  1> <et=30.06> <Mt= 0.03> <Spt= 0.00> <nCl=  0> <DB=  167.0000> <Mlp=  167.0000> <PB=1000000> 
<DWph=1> <it=  2> <et=30.06> <Mt= 0.00> <Spt= 0.00> <nCl=  0> <DB=  167.0000> <Mlp=  167.0000> <PB=1000000> 
---- Diving heuristic node with dive number = 0, fix depth = 24 and tabu list size = 0
Fixed projected solution = [x_1_0_1_OspV=1, x_1_69_1_OspV=1, x_1_304_1_OspV=1, x_1_385_1_OspV=1]
<DWph=2> <it=  1> <et=30.09> <Mt= 0.02> <Spt= 0.00> <nCl=  0> <DB=  167.0000> <Mlp=  167.0000> <PB=1000000> 
<DWph=1> <it=  2> <et=30.09> <Mt= 0.00> <Spt= 0.00> <nCl=  0> <DB=  167.0000> <Mlp=  167.0000> <PB=1000000> 
---- Diving heuristic node with dive number = 0, fix depth = 25 and tabu list size = 0
Fixed projected solution = [x_1_0_1_OspV=1, x_1_90_1_OspV=1, x_1_151_1_OspV=1, x_1_468_1_OspV=1]
<DWph=2> <it=  1> <et=30.11> <Mt= 0.01> <Spt= 0.00> <nCl=  0> <DB=  167.0000> <Mlp=  167.0000> <PB=1000000> 
<DWph=1> <it=  2> <et=30.11> <Mt= 0.00> <Spt= 0.00> <nCl=  0> <DB=  167.0000> <Mlp=  167.0000> <PB=1000000> 
---- Diving heuristic node with dive number = 0, fix depth = 26 and tabu list size = 0
Fixed projected solution = [x_1_0_1_OspV=1, x_1_54_1_OspV=1, x_1_251_1_OspV=1, x_1_429_1_OspV=1]
<DWph=2> <it=  1> <et=30.14> <Mt= 0.03> <Spt= 0.00> <nCl=  0> <DB=  167.0000> <Mlp=  167.0000> <PB=1000000> 
<DWph=1> <it=  2> <et=30.15> <Mt= 0.00> <Spt= 0.00> <nCl=  0> <DB=  167.0000> <Mlp=  167.0000> <PB=1000000> 
---- Diving heuristic node with dive number = 0, fix depth = 27 and tabu list size = 0
Fixed projected solution = [x_1_0_1_OspV=1, x_1_28_1_OspV=1, x_1_45_1_OspV=1, x_1_492_1_OspV=1]
<DWph=2> <it=  1> <et=30.17> <Mt= 0.02> <Spt= 0.00> <nCl=  0> <DB=  167.0000> <Mlp=  167.0000> <PB=1000000> 
<DWph=1> <it=  2> <et=30.17> <Mt= 0.00> <Spt= 0.00> <nCl=  0> <DB=  167.0000> <Mlp=  167.0000> <PB=1000000> 
---- Diving heuristic node with dive number = 0, fix depth = 28 and tabu list size = 0
Fixed projected solution = [x_1_0_1_OspV=1, x_1_138_1_OspV=1, x_1_189_1_OspV=1, x_1_436_1_OspV=1]
<DWph=2> <it=  1> <et=30.21> <Mt= 0.04> <Spt= 0.00> <nCl=  0> <DB=  167.0000> <Mlp=  167.0000> <PB=1000000> 
<DWph=1> <it=  2> <et=30.22> <Mt= 0.00> <Spt= 0.00> <nCl=  0> <DB=  167.0000> <Mlp=  167.0000> <PB=1000000> 
---- Diving heuristic node with dive number = 0, fix depth = 29 and tabu list size = 0
Fixed projected solution = [x_1_0_1_OspV=1, x_1_119_1_OspV=1, x_1_330_1_OspV=1, x_1_361_1_OspV=1]
<DWph=2> <it=  2> <et=30.55> <Mt= 0.06> <Spt= 0.27> <nCl=100> <DB=  166.4081> <Mlp=  167.0000> <PB=1000000> 
<DWph=1> <it=  3> <et=30.56> <Mt= 0.01> <Spt= 0.00> <nCl=  0> <DB=  167.0000> <Mlp=  167.0000> <PB=1000000> 
---- Diving heuristic node with dive number = 0, fix depth = 30 and tabu list size = 0
Fixed projected solution = [x_1_0_1_OspV=1, x_1_163_1_OspV=1, x_1_193_1_OspV=1, x_1_424_1_OspV=1]
<DWph=2> <it=  1> <et=30.60> <Mt= 0.03> <Spt= 0.00> <nCl=  0> <DB=  167.0000> <Mlp=  167.0000> <PB=1000000> 
<DWph=1> <it=  2> <et=30.60> <Mt= 0.00> <Spt= 0.00> <nCl=  0> <DB=  167.0000> <Mlp=  167.0000> <PB=1000000> 
---- Diving heuristic node with dive number = 0, fix depth = 30 and tabu list size = 0
Fixed projected solution = [x_1_0_1_OspV=1, x_1_110_1_OspV=1, x_1_122_1_OspV=1, x_1_472_1_OspV=1]
<DWph=2> <it=  1> <et=30.61> <Mt= 0.00> <Spt= 0.00> <nCl=  0> <DB=  167.0000> <Mlp=  167.0000> <PB=1000000> 
<DWph=1> <it=  2> <et=30.61> <Mt= 0.01> <Spt= 0.00> <nCl=  0> <DB=  167.0000> <Mlp=  167.0000> <PB=1000000> 
---- Diving heuristic node with dive number = 0, fix depth = 31 and tabu list size = 0
Fixed projected solution = [x_1_0_1_OspV=1, x_1_71_1_OspV=1, x_1_335_1_OspV=1, x_1_367_1_OspV=1]
<DWph=2> <it=  1> <et=30.68> <Mt= 0.05> <Spt= 0.00> <nCl=  0> <DB=  167.0000> <Mlp=  167.0000> <PB=1000000> 
<DWph=1> <it=  2> <et=30.68> <Mt= 0.00> <Spt= 0.00> <nCl=  0> <DB=  167.0000> <Mlp=  167.0000> <PB=1000000> 
---- Diving heuristic node with dive number = 0, fix depth = 32 and tabu list size = 0
Fixed projected solution = [x_1_0_1_OspV=1, x_1_77_1_OspV=1, x_1_95_1_OspV=1, x_1_483_1_OspV=1]
<DWph=2> <it=  1> <et=30.71> <Mt= 0.04> <Spt= 0.00> <nCl=  0> <DB=  167.0000> <Mlp=  167.0000> <PB=1000000> 
<DWph=1> <it=  2> <et=30.72> <Mt= 0.00> <Spt= 0.00> <nCl=  0> <DB=  167.0000> <Mlp=  167.0000> <PB=1000000> 
---- Diving heuristic node with dive number = 0, fix depth = 33 and tabu list size = 0
Fixed projected solution = [x_1_0_1_OspV=1, x_1_152_1_OspV=1, x_1_181_1_OspV=1, x_1_432_1_OspV=1]
<DWph=2> <it=  1> <et=30.79> <Mt= 0.07> <Spt= 0.00> <nCl=  0> <DB=  167.0000> <Mlp=  167.0000> <PB=1000000> 
<DWph=1> <it=  2> <et=30.79> <Mt= 0.00> <Spt= 0.00> <nCl=  0> <DB=  167.0000> <Mlp=  167.0000> <PB=1000000> 
---- Diving heuristic node with dive number = 0, fix depth = 34 and tabu list size = 0
Fixed projected solution = [x_1_0_1_OspV=1, x_1_36_1_OspV=1, x_1_302_1_OspV=1, x_1_393_1_OspV=1]
<DWph=2> <it=  1> <et=30.81> <Mt= 0.01> <Spt= 0.00> <nCl=  0> <DB=  167.0000> <Mlp=  167.0000> <PB=1000000> 
<DWph=1> <it=  2> <et=30.81> <Mt= 0.00> <Spt= 0.00> <nCl=  0> <DB=  167.0000> <Mlp=  167.0000> <PB=1000000> 
---- Diving heuristic node with dive number = 0, fix depth = 34 and tabu list size = 0
Fixed projected solution = [x_1_0_1_OspV=1, x_1_32_1_OspV=1, x_1_42_1_OspV=1, x_1_493_1_OspV=1]
<DWph=2> <it=  1> <et=30.82> <Mt= 0.00> <Spt= 0.00> <nCl=  0> <DB=  167.0000> <Mlp=  167.0000> <PB=1000000> 
<DWph=1> <it=  2> <et=30.82> <Mt= 0.00> <Spt= 0.00> <nCl=  0> <DB=  167.0000> <Mlp=  167.0000> <PB=1000000> 
---- Diving heuristic node with dive number = 0, fix depth = 35 and tabu list size = 0
Fixed projected solution = [x_1_0_1_OspV=1, x_1_25_1_OspV=1, x_1_217_1_OspV=1, x_1_451_1_OspV=1]
<DWph=2> <it=  2> <et=31.09> <Mt= 0.06> <Spt= 0.20> <nCl=100> <DB=  166.4299> <Mlp=  167.0000> <PB=1000000> 
<DWph=1> <it=  3> <et=31.09> <Mt= 0.01> <Spt= 0.00> <nCl=  0> <DB=  167.0000> <Mlp=  167.0000> <PB=1000000> 
---- Diving heuristic node with dive number = 0, fix depth = 35 and tabu list size = 0
Fixed projected solution = [x_1_0_1_OspV=1, x_1_26_1_OspV=1, x_1_359_1_OspV=1, x_1_364_1_OspV=1]
<DWph=2> <it=  1> <et=31.10> <Mt= 0.00> <Spt= 0.00> <nCl=  0> <DB=  167.0000> <Mlp=  167.0000> <PB=1000000> 
<DWph=1> <it=  2> <et=31.10> <Mt= 0.00> <Spt= 0.00> <nCl=  0> <DB=  167.0000> <Mlp=  167.0000> <PB=1000000> 
---- Diving heuristic node with dive number = 0, fix depth = 36 and tabu list size = 0
Fixed projected solution = [x_1_0_1_OspV=1, x_1_59_1_OspV=1, x_1_355_1_OspV=1, x_1_357_1_OspV=1]
<DWph=2> <it=  1> <et=31.15> <Mt= 0.04> <Spt= 0.00> <nCl=  0> <DB=  167.0000> <Mlp=  167.0000> <PB=1000000> 
<DWph=1> <it=  2> <et=31.15> <Mt= 0.00> <Spt= 0.00> <nCl=  0> <DB=  167.0000> <Mlp=  167.0000> <PB=1000000> 
---- Diving heuristic node with dive number = 0, fix depth = 37 and tabu list size = 0
Fixed projected solution = [x_1_0_1_OspV=1, x_1_221_1_OspV=1, x_1_315_1_OspV=1, x_1_325_1_OspV=1]
<DWph=2> <it=  1> <et=31.19> <Mt= 0.03> <Spt= 0.00> <nCl=  0> <DB=  167.0000> <Mlp=  167.0000> <PB=1000000> 
<DWph=1> <it=  2> <et=31.19> <Mt= 0.00> <Spt= 0.00> <nCl=  0> <DB=  167.0000> <Mlp=  167.0000> <PB=1000000> 
---- Diving heuristic node with dive number = 0, fix depth = 38 and tabu list size = 0
Fixed projected solution = [x_1_0_1_OspV=1, x_1_256_1_OspV=1, x_1_311_1_OspV=1, x_1_316_1_OspV=1]
<DWph=2> <it=  1> <et=31.22> <Mt= 0.03> <Spt= 0.00> <nCl=  0> <DB=  167.0000> <Mlp=  167.0000> <PB=1000000> 
<DWph=1> <it=  2> <et=31.22> <Mt= 0.00> <Spt= 0.00> <nCl=  0> <DB=  167.0000> <Mlp=  167.0000> <PB=1000000> 
---- Diving heuristic node with dive number = 0, fix depth = 39 and tabu list size = 0
Fixed projected solution = [x_1_0_1_OspV=1, x_1_18_1_OspV=1, x_1_60_1_OspV=1, x_1_491_1_OspV=1]
<DWph=2> <it=  1> <et=31.26> <Mt= 0.03> <Spt= 0.00> <nCl=  0> <DB=  167.0000> <Mlp=  167.0000> <PB=1000000> 
<DWph=1> <it=  2> <et=31.27> <Mt= 0.00> <Spt= 0.00> <nCl=  0> <DB=  167.0000> <Mlp=  167.0000> <PB=1000000> 
---- Diving heuristic node with dive number = 0, fix depth = 40 and tabu list size = 0
Fixed projected solution = [x_1_0_1_OspV=1, x_1_158_1_OspV=1, x_1_174_1_OspV=1, x_1_435_1_OspV=1]
<DWph=2> <it=  1> <et=31.30> <Mt= 0.03> <Spt= 0.00> <nCl=  0> <DB=  167.0000> <Mlp=  167.0000> <PB=1000000> 
<DWph=1> <it=  2> <et=31.30> <Mt= 0.00> <Spt= 0.00> <nCl=  0> <DB=  167.0000> <Mlp=  167.0000> <PB=1000000> 
---- Diving heuristic node with dive number = 0, fix depth = 41 and tabu list size = 0
Fixed projected solution = [x_1_0_1_OspV=1, x_1_68_1_OspV=1, x_1_76_1_OspV=1, x_1_486_1_OspV=1]
<DWph=2> <it=  1> <et=31.35> <Mt= 0.05> <Spt= 0.00> <nCl=  0> <DB=  167.0000> <Mlp=  167.0000> <PB=1000000> 
<DWph=1> <it=  2> <et=31.36> <Mt= 0.00> <Spt= 0.00> <nCl=  0> <DB=  167.0000> <Mlp=  167.0000> <PB=1000000> 
---- Diving heuristic node with dive number = 0, fix depth = 42 and tabu list size = 0
Fixed projected solution = [x_1_0_1_OspV=1, x_1_75_1_OspV=1, x_1_83_1_OspV=1, x_1_484_1_OspV=1]
<DWph=2> <it=  1> <et=31.40> <Mt= 0.04> <Spt= 0.00> <nCl=  0> <DB=  167.0000> <Mlp=  167.0000> <PB=1000000> 
<DWph=1> <it=  2> <et=31.40> <Mt= 0.00> <Spt= 0.00> <nCl=  0> <DB=  167.0000> <Mlp=  167.0000> <PB=1000000> 
---- Diving heuristic node with dive number = 0, fix depth = 43 and tabu list size = 0
Fixed projected solution = [x_1_0_1_OspV=1, x_1_48_1_OspV=1, x_1_281_1_OspV=1, x_1_411_1_OspV=1]
<DWph=2> <it=  1> <et=31.44> <Mt= 0.04> <Spt= 0.00> <nCl=  0> <DB=  167.0000> <Mlp=  167.0000> <PB=1000000> 
<DWph=1> <it=  2> <et=31.45> <Mt= 0.00> <Spt= 0.00> <nCl=  0> <DB=  167.0000> <Mlp=  167.0000> <PB=1000000> 
---- Diving heuristic node with dive number = 0, fix depth = 44 and tabu list size = 0
Fixed projected solution = [x_1_0_1_OspV=1, x_1_129_1_OspV=1, x_1_336_1_OspV=1, x_1_346_1_OspV=1]
<DWph=2> <it=  1> <et=31.48> <Mt= 0.03> <Spt= 0.00> <nCl=  0> <DB=  167.0000> <Mlp=  167.0000> <PB=1000000> 
<DWph=1> <it=  2> <et=31.48> <Mt= 0.00> <Spt= 0.00> <nCl=  0> <DB=  167.0000> <Mlp=  167.0000> <PB=1000000> 
---- Diving heuristic node with dive number = 0, fix depth = 45 and tabu list size = 0
Fixed projected solution = [x_1_0_1_OspV=1, x_1_177_1_OspV=1, x_1_200_1_OspV=1, x_1_416_1_OspV=1]
<DWph=2> <it=  1> <et=31.52> <Mt= 0.03> <Spt= 0.00> <nCl=  0> <DB=  167.0000> <Mlp=  167.0000> <PB=1000000> 
<DWph=1> <it=  2> <et=31.52> <Mt= 0.01> <Spt= 0.00> <nCl=  0> <DB=  167.0000> <Mlp=  167.0000> <PB=1000000> 
---- Diving heuristic node with dive number = 0, fix depth = 46 and tabu list size = 0
Fixed projected solution = [x_1_0_1_OspV=1, x_1_57_1_OspV=1, x_1_303_1_OspV=1, x_1_388_1_OspV=1]
<DWph=2> <it=  2> <et=31.84> <Mt= 0.07> <Spt= 0.24> <nCl=100> <DB=  166.6484> <Mlp=  167.0000> <PB=1000000> 
<DWph=1> <it=  3> <et=31.85> <Mt= 0.00> <Spt= 0.00> <nCl=  0> <DB=  167.0000> <Mlp=  167.0000> <PB=1000000> 
---- Diving heuristic node with dive number = 0, fix depth = 47 and tabu list size = 0
Fixed projected solution = [x_1_0_1_OspV=1, x_1_103_1_OspV=1, x_1_347_1_OspV=1, x_1_348_1_OspV=1]
<DWph=2> <it=  2> <et=32.13> <Mt= 0.08> <Spt= 0.20> <nCl=100> <DB=  166.5146> <Mlp=  167.0000> <PB=1000000> 
<DWph=1> <it=  3> <et=32.13> <Mt= 0.00> <Spt= 0.00> <nCl=  0> <DB=  167.0000> <Mlp=  167.0000> <PB=1000000> 
---- Diving heuristic node with dive number = 0, fix depth = 47 and tabu list size = 0
Fixed projected solution = [x_1_0_1_OspV=1, x_1_282_1_OspV=1, x_1_297_1_OspV=1, x_1_314_1_OspV=1]
<DWph=2> <it=  1> <et=32.15> <Mt= 0.00> <Spt= 0.00> <nCl=  0> <DB=  167.0000> <Mlp=  167.0000> <PB=1000000> 
<DWph=1> <it=  2> <et=32.15> <Mt= 0.00> <Spt= 0.00> <nCl=  0> <DB=  167.0000> <Mlp=  167.0000> <PB=1000000> 
---- Diving heuristic node with dive number = 0, fix depth = 48 and tabu list size = 0
Fixed projected solution = [x_1_0_1_OspV=1, x_1_242_1_OspV=1, x_1_255_1_OspV=1, x_1_380_1_OspV=1]
<DWph=2> <it=  1> <et=32.19> <Mt= 0.04> <Spt= 0.00> <nCl=  0> <DB=  167.0000> <Mlp=  167.0000> <PB=1000000> 
<DWph=1> <it=  2> <et=32.19> <Mt= 0.00> <Spt= 0.00> <nCl=  0> <DB=  167.0000> <Mlp=  167.0000> <PB=1000000> 
---- Diving heuristic node with dive number = 0, fix depth = 49 and tabu list size = 0
Fixed projected solution = [x_1_0_1_OspV=1, x_1_61_1_OspV=1, x_1_284_1_OspV=1, x_1_398_1_OspV=1]
<DWph=2> <it=  1> <et=32.24> <Mt= 0.04> <Spt= 0.00> <nCl=  0> <DB=  167.0000> <Mlp=  167.0000> <PB=1000000> 
<DWph=1> <it=  2> <et=32.24> <Mt= 0.00> <Spt= 0.00> <nCl=  0> <DB=  167.0000> <Mlp=  167.0000> <PB=1000000> 
---- Diving heuristic node with dive number = 0, fix depth = 49 and tabu list size = 0
Fixed projected solution = [x_1_0_1_OspV=1, x_1_62_1_OspV=1, x_1_339_1_OspV=1, x_1_369_1_OspV=1]
<DWph=2> <it=  1> <et=32.25> <Mt= 0.00> <Spt= 0.00> <nCl=  0> <DB=  167.0000> <Mlp=  167.0000> <PB=1000000> 
<DWph=1> <it=  2> <et=32.25> <Mt= 0.01> <Spt= 0.00> <nCl=  0> <DB=  167.0000> <Mlp=  167.0000> <PB=1000000> 
---- Diving heuristic node with dive number = 0, fix depth = 50 and tabu list size = 0
Fixed projected solution = [x_1_0_1_OspV=1, x_1_84_1_OspV=1, x_1_278_1_OspV=1, x_1_400_1_OspV=1]
<DWph=2> <it=  1> <et=32.30> <Mt= 0.04> <Spt= 0.00> <nCl=  0> <DB=  167.0000> <Mlp=  167.0000> <PB=1000000> 
<DWph=1> <it=  2> <et=32.30> <Mt= 0.00> <Spt= 0.00> <nCl=  0> <DB=  167.0000> <Mlp=  167.0000> <PB=1000000> 
---- Diving heuristic node with dive number = 0, fix depth = 51 and tabu list size = 0
Fixed projected solution = [x_1_0_1_OspV=1, x_1_124_1_OspV=1, x_1_131_1_OspV=1, x_1_455_1_OspV=1]
<DWph=2> <it=  1> <et=32.31> <Mt= 0.00> <Spt= 0.00> <nCl=  0> <DB=  167.0000> <Mlp=  167.0000> <PB=1000000> 
<DWph=1> <it=  2> <et=32.31> <Mt= 0.00> <Spt= 0.00> <nCl=  0> <DB=  167.0000> <Mlp=  167.0000> <PB=1000000> 
---- Diving heuristic node with dive number = 0, fix depth = 52 and tabu list size = 0
Fixed projected solution = [x_1_0_1_OspV=1, x_1_52_1_OspV=1, x_1_338_1_OspV=1, x_1_371_1_OspV=1]
<DWph=2> <it=  1> <et=32.35> <Mt= 0.04> <Spt= 0.00> <nCl=  0> <DB=  167.0000> <Mlp=  167.0000> <PB=1000000> 
<DWph=1> <it=  2> <et=32.36> <Mt= 0.00> <Spt= 0.00> <nCl=  0> <DB=  167.0000> <Mlp=  167.0000> <PB=1000000> 
---- Diving heuristic node with dive number = 0, fix depth = 53 and tabu list size = 0
Fixed projected solution = [x_1_0_1_OspV=1, x_1_34_1_OspV=1, x_1_120_1_OspV=1, x_1_485_1_OspV=1]
<DWph=2> <it=  2> <et=32.67> <Mt= 0.11> <Spt= 0.20> <nCl=100> <DB=  166.5774> <Mlp=  167.0000> <PB=1000000> 
<DWph=1> <it=  3> <et=32.67> <Mt= 0.00> <Spt= 0.00> <nCl=  0> <DB=  167.0000> <Mlp=  167.0000> <PB=1000000> 
---- Diving heuristic node with dive number = 0, fix depth = 54 and tabu list size = 0
Fixed projected solution = [x_1_0_1_OspV=1, x_1_65_1_OspV=1, x_1_107_1_OspV=1, x_1_482_1_OspV=1]
<DWph=2> <it=  2> <et=32.96> <Mt= 0.07> <Spt= 0.21> <nCl=100> <DB=  166.5977> <Mlp=  167.0000> <PB=1000000> 
<DWph=1> <it=  3> <et=32.96> <Mt= 0.00> <Spt= 0.00> <nCl=  0> <DB=  167.0000> <Mlp=  167.0000> <PB=1000000> 
---- Diving heuristic node with dive number = 0, fix depth = 55 and tabu list size = 0
Fixed projected solution = [x_1_0_1_OspV=1, x_1_91_1_OspV=1, x_1_332_1_OspV=1, x_1_368_1_OspV=1]
<DWph=2> <it=  2> <et=33.25> <Mt= 0.07> <Spt= 0.20> <nCl=100> <DB=  166.7143> <Mlp=  167.0000> <PB=1000000> 
<DWph=1> <it=  3> <et=33.25> <Mt= 0.01> <Spt= 0.00> <nCl=  0> <DB=  167.0000> <Mlp=  167.0000> <PB=1000000> 
---- Diving heuristic node with dive number = 0, fix depth = 56 and tabu list size = 0
Fixed projected solution = [x_1_0_1_OspV=1, x_1_134_1_OspV=1, x_1_165_1_OspV=1, x_1_443_1_OspV=1]
<DWph=2> <it=  1> <et=33.30> <Mt= 0.03> <Spt= 0.00> <nCl=  0> <DB=  167.0000> <Mlp=  167.0000> <PB=1000000> 
<DWph=1> <it=  2> <et=33.30> <Mt= 0.00> <Spt= 0.00> <nCl=  0> <DB=  167.0000> <Mlp=  167.0000> <PB=1000000> 
---- Diving heuristic node with dive number = 0, fix depth = 57 and tabu list size = 0
Fixed projected solution = [x_1_0_1_OspV=1, x_1_148_1_OspV=1, x_1_154_1_OspV=1, x_1_442_1_OspV=1]
<DWph=2> <it=  1> <et=33.33> <Mt= 0.03> <Spt= 0.00> <nCl=  0> <DB=  167.0000> <Mlp=  167.0000> <PB=1000000> 
<DWph=1> <it=  2> <et=33.33> <Mt= 0.00> <Spt= 0.00> <nCl=  0> <DB=  167.0000> <Mlp=  167.0000> <PB=1000000> 
---- Diving heuristic node with dive number = 0, fix depth = 58 and tabu list size = 0
Fixed projected solution = [x_1_0_1_OspV=1, x_1_156_1_OspV=1, x_1_159_1_OspV=1, x_1_440_1_OspV=1]
<DWph=2> <it=  2> <et=33.61> <Mt= 0.07> <Spt= 0.20> <nCl=100> <DB=  166.7247> <Mlp=  167.0000> <PB=1000000> 
<DWph=1> <it=  3> <et=33.61> <Mt= 0.00> <Spt= 0.00> <nCl=  0> <DB=  167.0000> <Mlp=  167.0000> <PB=1000000> 
---- Diving heuristic node with dive number = 0, fix depth = 59 and tabu list size = 0
Fixed projected solution = [x_1_0_1_OspV=1, x_1_3_1_OspV=1, x_1_292_1_OspV=1, x_1_401_1_OspV=1]
<DWph=2> <it=  1> <et=33.63> <Mt= 0.01> <Spt= 0.00> <nCl=  0> <DB=  167.0000> <Mlp=  167.0000> <PB=1000000> 
<DWph=1> <it=  2> <et=33.64> <Mt= 0.00> <Spt= 0.00> <nCl=  0> <DB=  167.0000> <Mlp=  167.0000> <PB=1000000> 
---- Diving heuristic node with dive number = 0, fix depth = 60 and tabu list size = 0
Fixed projected solution = [x_1_0_1_OspV=1, x_1_270_1_OspV=1, x_1_272_1_OspV=1, x_1_363_1_OspV=1]
<DWph=2> <it=  1> <et=33.70> <Mt= 0.06> <Spt= 0.00> <nCl=  0> <DB=  167.0000> <Mlp=  167.0000> <PB=1000000> 
<DWph=1> <it=  2> <et=33.70> <Mt= 0.00> <Spt= 0.00> <nCl=  0> <DB=  167.0000> <Mlp=  167.0000> <PB=1000000> 
---- Diving heuristic node with dive number = 0, fix depth = 61 and tabu list size = 0
Fixed projected solution = [x_1_0_1_OspV=1, x_1_150_1_OspV=1, x_1_170_1_OspV=1, x_1_439_1_OspV=1]
<DWph=2> <it=  1> <et=33.76> <Mt= 0.06> <Spt= 0.00> <nCl=  0> <DB=  167.0000> <Mlp=  167.0000> <PB=1000000> 
<DWph=1> <it=  2> <et=33.76> <Mt= 0.00> <Spt= 0.00> <nCl=  0> <DB=  167.0000> <Mlp=  167.0000> <PB=1000000> 
---- Diving heuristic node with dive number = 0, fix depth = 62 and tabu list size = 0
Fixed projected solution = [x_1_0_1_OspV=1, x_1_169_1_OspV=1, x_1_178_1_OspV=1, x_1_428_1_OspV=1]
<DWph=2> <it=  3> <et=34.27> <Mt= 0.09> <Spt= 0.41> <nCl=200> <DB=  166.8382> <Mlp=  167.0000> <PB=1000000> 
<DWph=1> <it=  4> <et=34.27> <Mt= 0.00> <Spt= 0.00> <nCl=  0> <DB=  167.0000> <Mlp=  167.0000> <PB=1000000> 
---- Diving heuristic node with dive number = 0, fix depth = 63 and tabu list size = 0
Fixed projected solution = [x_1_0_1_OspV=1, x_1_8_1_OspV=1, x_1_210_1_OspV=1, x_1_459_1_OspV=1]
<DWph=2> <it=  3> <et=34.78> <Mt= 0.10> <Spt= 0.40> <nCl=200> <DB=  166.9137> <Mlp=  167.0000> <PB=1000000> 
<DWph=1> <it=  4> <et=34.78> <Mt= 0.00> <Spt= 0.00> <nCl=  0> <DB=  167.0000> <Mlp=  167.0000> <PB=1000000> 
---- Diving heuristic node with dive number = 0, fix depth = 64 and tabu list size = 0
Fixed projected solution = [x_1_0_1_OspV=1, x_1_2_1_OspV=1, x_1_190_1_OspV=1, x_1_471_1_OspV=1]
<DWph=2> <it=  2> <et=35.13> <Mt= 0.13> <Spt= 0.20> <nCl=100> <DB=  166.7172> <Mlp=  167.0000> <PB=1000000> 
<DWph=1> <it=  3> <et=35.13> <Mt= 0.00> <Spt= 0.00> <nCl=  0> <DB=  167.0000> <Mlp=  167.0000> <PB=1000000> 
---- Diving heuristic node with dive number = 0, fix depth = 65 and tabu list size = 0
Fixed projected solution = [x_1_0_1_OspV=1, x_1_141_1_OspV=1, x_1_144_1_OspV=1, x_1_450_1_OspV=1]
<DWph=2> <it=  2> <et=35.41> <Mt= 0.07> <Spt= 0.21> <nCl=100> <DB=  166.8402> <Mlp=  167.0000> <PB=1000000> 
<DWph=1> <it=  3> <et=35.41> <Mt= 0.00> <Spt= 0.00> <nCl=  0> <DB=  167.0000> <Mlp=  167.0000> <PB=1000000> 
---- Diving heuristic node with dive number = 0, fix depth = 65 and tabu list size = 0
Fixed projected solution = [x_1_0_1_OspV=1, x_1_100_1_OspV=1, x_1_147_1_OspV=1, x_1_463_1_OspV=1]
<DWph=2> <it=  1> <et=35.43> <Mt= 0.00> <Spt= 0.00> <nCl=  0> <DB=  167.0000> <Mlp=  167.0000> <PB=1000000> 
<DWph=1> <it=  2> <et=35.43> <Mt= 0.01> <Spt= 0.00> <nCl=  0> <DB=  167.0000> <Mlp=  167.0000> <PB=1000000> 
---- Diving heuristic node with dive number = 0, fix depth = 66 and tabu list size = 0
Fixed projected solution = [x_1_0_1_OspV=1, x_1_51_1_OspV=1, x_1_180_1_OspV=1, x_1_461_1_OspV=1]
<DWph=2> <it=  2> <et=35.78> <Mt= 0.13> <Spt= 0.20> <nCl=100> <DB=  166.6934> <Mlp=  167.0000> <PB=1000000> 
<DWph=1> <it=  3> <et=35.78> <Mt= 0.00> <Spt= 0.00> <nCl=  0> <DB=  167.0000> <Mlp=  167.0000> <PB=1000000> 
---- Diving heuristic node with dive number = 0, fix depth = 67 and tabu list size = 0
Fixed projected solution = [x_1_0_1_OspV=1, x_1_49_1_OspV=1, x_1_187_1_OspV=1, x_1_460_1_OspV=1]
<DWph=2> <it=  2> <et=36.13> <Mt= 0.14> <Spt= 0.20> <nCl=100> <DB=  166.7527> <Mlp=  167.0000> <PB=1000000> 
<DWph=1> <it=  3> <et=36.13> <Mt= 0.00> <Spt= 0.00> <nCl=  0> <DB=  167.0000> <Mlp=  167.0000> <PB=1000000> 
---- Diving heuristic node with dive number = 0, fix depth = 68 and tabu list size = 0
Fixed projected solution = [x_1_0_1_OspV=1, x_1_72_1_OspV=1, x_1_166_1_OspV=1, x_1_465_1_OspV=1]
<DWph=2> <it=  1> <et=36.18> <Mt= 0.04> <Spt= 0.00> <nCl=  0> <DB=  167.0000> <Mlp=  167.0000> <PB=1000000> 
<DWph=1> <it=  2> <et=36.18> <Mt= 0.00> <Spt= 0.00> <nCl=  0> <DB=  167.0000> <Mlp=  167.0000> <PB=1000000> 
---- Diving heuristic node with dive number = 0, fix depth = 69 and tabu list size = 0
Fixed projected solution = [x_1_0_1_OspV=1, x_1_47_1_OspV=1, x_1_93_1_OspV=1, x_1_487_1_OspV=1]
<DWph=2> <it=  2> <et=36.49> <Mt= 0.10> <Spt= 0.20> <nCl=100> <DB=  166.8944> <Mlp=  167.0000> <PB=1000000> 
<DWph=1> <it=  3> <et=36.49> <Mt= 0.00> <Spt= 0.00> <nCl=  0> <DB=  167.0000> <Mlp=  167.0000> <PB=1000000> 
---- Diving heuristic node with dive number = 0, fix depth = 69 and tabu list size = 0
Fixed projected solution = [x_1_0_1_OspV=1, x_1_40_1_OspV=1, x_1_67_1_OspV=1, x_1_490_1_OspV=1]
<DWph=2> <it=  1> <et=36.50> <Mt= 0.00> <Spt= 0.00> <nCl=  0> <DB=  167.0000> <Mlp=  167.0000> <PB=1000000> 
<DWph=1> <it=  2> <et=36.51> <Mt= 0.01> <Spt= 0.00> <nCl=  0> <DB=  167.0000> <Mlp=  167.0000> <PB=1000000> 
---- Diving heuristic node with dive number = 0, fix depth = 69 and tabu list size = 0
Fixed projected solution = [x_1_0_1_OspV=1, x_1_55_1_OspV=1, x_1_173_1_OspV=1, x_1_462_1_OspV=1]
<DWph=2> <it=  1> <et=36.51> <Mt= 0.00> <Spt= 0.00> <nCl=  0> <DB=  167.0000> <Mlp=  167.0000> <PB=1000000> 
<DWph=1> <it=  2> <et=36.52> <Mt= 0.00> <Spt= 0.00> <nCl=  0> <DB=  167.0000> <Mlp=  167.0000> <PB=1000000> 
---- Diving heuristic node with dive number = 0, fix depth = 70 and tabu list size = 0
Fixed projected solution = [x_1_0_1_OspV=1, x_1_197_1_OspV=1, x_1_201_1_OspV=1, x_1_413_1_OspV=1]
<DWph=2> <it=  1> <et=36.53> <Mt= 0.00> <Spt= 0.00> <nCl=  0> <DB=  167.0000> <Mlp=  167.0000> <PB=1000000> 
<DWph=1> <it=  2> <et=36.53> <Mt= 0.00> <Spt= 0.00> <nCl=  0> <DB=  167.0000> <Mlp=  167.0000> <PB=1000000> 
---- Diving heuristic node with dive number = 0, fix depth = 71 and tabu list size = 0
Fixed projected solution = [x_1_0_1_OspV=1, x_1_74_1_OspV=1, x_1_268_1_OspV=1, x_1_412_1_OspV=1]
<DWph=2> <it=  2> <et=36.79> <Mt= 0.06> <Spt= 0.20> <nCl=100> <DB=  166.9298> <Mlp=  167.0000> <PB=1000000> 
<DWph=1> <it=  3> <et=36.79> <Mt= 0.00> <Spt= 0.00> <nCl=  0> <DB=  167.0000> <Mlp=  167.0000> <PB=1000000> 
---- Diving heuristic node with dive number = 0, fix depth = 72 and tabu list size = 0
Fixed projected solution = [x_1_0_1_OspV=1, x_1_133_1_OspV=1, x_1_153_1_OspV=1, x_1_449_1_OspV=1]
<DWph=2> <it=  1> <et=36.85> <Mt= 0.05> <Spt= 0.00> <nCl=  0> <DB=  167.0000> <Mlp=  167.0000> <PB=1000000> 
<DWph=1> <it=  2> <et=36.85> <Mt= 0.00> <Spt= 0.00> <nCl=  0> <DB=  167.0000> <Mlp=  167.0000> <PB=1000000> 
---- Diving heuristic node with dive number = 0, fix depth = 73 and tabu list size = 0
Fixed projected solution = [x_1_0_1_OspV=1, x_1_245_1_OspV=1, x_1_307_1_OspV=1, x_1_324_1_OspV=1]
<DWph=2> <it=  1> <et=36.94> <Mt= 0.08> <Spt= 0.00> <nCl=  0> <DB=  167.0000> <Mlp=  167.0000> <PB=1000000> 
<DWph=1> <it=  2> <et=36.94> <Mt= 0.00> <Spt= 0.00> <nCl=  0> <DB=  167.0000> <Mlp=  167.0000> <PB=1000000> 
---- Diving heuristic node with dive number = 0, fix depth = 74 and tabu list size = 0
Fixed projected solution = [x_1_0_1_OspV=1, x_1_162_1_OspV=1, x_1_171_1_OspV=1, x_1_434_1_OspV=1]
<DWph=2> <it=  1> <et=37.01> <Mt= 0.06> <Spt= 0.00> <nCl=  0> <DB=  167.0000> <Mlp=  167.0000> <PB=1000000> 
<DWph=1> <it=  2> <et=37.01> <Mt= 0.00> <Spt= 0.00> <nCl=  0> <DB=  167.0000> <Mlp=  167.0000> <PB=1000000> 
---- Diving heuristic node with dive number = 0, fix depth = 74 and tabu list size = 0
Fixed projected solution = [x_1_0_1_OspV=1, x_1_273_1_OspV=1, x_1_275_1_OspV=1, x_1_352_1_OspV=1]
<DWph=2> <it=  1> <et=37.02> <Mt= 0.01> <Spt= 0.00> <nCl=  0> <DB=  167.0000> <Mlp=  167.0000> <PB=1000000> 
<DWph=1> <it=  2> <et=37.02> <Mt= 0.00> <Spt= 0.00> <nCl=  0> <DB=  167.0000> <Mlp=  167.0000> <PB=1000000> 
---- Diving heuristic node with dive number = 0, fix depth = 74 and tabu list size = 0
Fixed projected solution = [x_1_0_1_OspV=1, x_1_168_1_OspV=1, x_1_296_1_OspV=1, x_1_378_1_OspV=1]
<DWph=2> <it=  1> <et=37.03> <Mt= 0.00> <Spt= 0.00> <nCl=  0> <DB=  167.0000> <Mlp=  167.0000> <PB=1000000> 
<DWph=1> <it=  2> <et=37.03> <Mt= 0.00> <Spt= 0.00> <nCl=  0> <DB=  167.0000> <Mlp=  167.0000> <PB=1000000> 
---- Diving heuristic node with dive number = 0, fix depth = 74 and tabu list size = 0
Fixed projected solution = [x_1_0_1_OspV=1, x_1_295_1_OspV=1, x_1_299_1_OspV=1, x_1_300_1_OspV=1]
<DWph=2> <it=  1> <et=37.04> <Mt= 0.00> <Spt= 0.00> <nCl=  0> <DB=  167.0000> <Mlp=  167.0000> <PB=1000000> 
<DWph=1> <it=  2> <et=37.04> <Mt= 0.00> <Spt= 0.00> <nCl=  0> <DB=  167.0000> <Mlp=  167.0000> <PB=1000000> 
---- Diving heuristic node with dive number = 0, fix depth = 75 and tabu list size = 0
Fixed projected solution = [x_1_0_1_OspV=1, x_1_63_1_OspV=1, x_1_328_1_OspV=1, x_1_374_1_OspV=1]
<DWph=2> <it=  1> <et=37.09> <Mt= 0.04> <Spt= 0.00> <nCl=  0> <DB=  167.0000> <Mlp=  167.0000> <PB=1000000> 
<DWph=1> <it=  2> <et=37.09> <Mt= 0.00> <Spt= 0.00> <nCl=  0> <DB=  167.0000> <Mlp=  167.0000> <PB=1000000> 
---- Diving heuristic node with dive number = 0, fix depth = 76 and tabu list size = 0
Fixed projected solution = [x_1_0_1_OspV=1, x_1_101_1_OspV=1, x_1_218_1_OspV=1, x_1_433_1_OspV=1]
<DWph=2> <it=  5> <et=38.10> <Mt= 0.21> <Spt= 0.79> <nCl=400> <DB=  166.9416> <Mlp=  167.0000> <PB=1000000> 
<DWph=1> <it=  6> <et=38.10> <Mt= 0.00> <Spt= 0.00> <nCl=  0> <DB=  167.0000> <Mlp=  167.0000> <PB=1000000> 
---- Diving heuristic node with dive number = 0, fix depth = 77 and tabu list size = 0
Fixed projected solution = [x_1_0_1_OspV=1, x_1_274_1_OspV=1, x_1_276_1_OspV=1, x_1_350_1_OspV=1]
<DWph=2> <it=  1> <et=38.17> <Mt= 0.06> <Spt= 0.00> <nCl=  0> <DB=  167.0000> <Mlp=  167.0000> <PB=1000000> 
<DWph=1> <it=  2> <et=38.18> <Mt= 0.00> <Spt= 0.00> <nCl=  0> <DB=  167.0000> <Mlp=  167.0000> <PB=1000000> 
---- Diving heuristic node with dive number = 0, fix depth = 78 and tabu list size = 0
Fixed projected solution = [x_1_0_1_OspV=1, x_1_96_1_OspV=1, x_1_108_1_OspV=1, x_1_479_1_OspV=1]
<DWph=2> <it=  2> <et=38.51> <Mt= 0.13> <Spt= 0.21> <nCl=100> <DB=  166.8495> <Mlp=  167.0000> <PB=1000000> 
<DWph=1> <it=  3> <et=38.52> <Mt= 0.00> <Spt= 0.00> <nCl=  0> <DB=  167.0000> <Mlp=  167.0000> <PB=1000000> 
---- Diving heuristic node with dive number = 0, fix depth = 79 and tabu list size = 0
Fixed projected solution = [x_1_0_1_OspV=1, x_1_175_1_OspV=1, x_1_194_1_OspV=1, x_1_419_1_OspV=1]
<DWph=2> <it=  2> <et=38.84> <Mt= 0.11> <Spt= 0.20> <nCl=100> <DB=  166.9302> <Mlp=  167.0000> <PB=1000000> 
<DWph=1> <it=  3> <et=38.84> <Mt= 0.00> <Spt= 0.00> <nCl=  0> <DB=  167.0000> <Mlp=  167.0000> <PB=1000000> 
---- Diving heuristic node with dive number = 0, fix depth = 80 and tabu list size = 0
Fixed projected solution = [x_1_0_1_OspV=1, x_1_92_1_OspV=1, x_1_319_1_OspV=1, x_1_375_1_OspV=1]
<DWph=2> <it=  1> <et=38.93> <Mt= 0.09> <Spt= 0.00> <nCl=  0> <DB=  167.0000> <Mlp=  167.0000> <PB=1000000> 
<DWph=1> <it=  2> <et=38.94> <Mt= 0.00> <Spt= 0.00> <nCl=  0> <DB=  167.0000> <Mlp=  167.0000> <PB=1000000> 
---- Diving heuristic node with dive number = 0, fix depth = 81 and tabu list size = 0
Fixed projected solution = [x_1_0_1_OspV=1, x_1_132_1_OspV=1, x_1_167_1_OspV=1, x_1_444_1_OspV=1]
<DWph=2> <it=  5> <et=39.91> <Mt= 0.18> <Spt= 0.78> <nCl=400> <DB=  166.9625> <Mlp=  167.0000> <PB=1000000> 
<DWph=1> <it=  6> <et=39.92> <Mt= 0.00> <Spt= 0.00> <nCl=  0> <DB=  167.0000> <Mlp=  167.0000> <PB=1000000> 
---- Diving heuristic node with dive number = 0, fix depth = 81 and tabu list size = 0
Fixed projected solution = [x_1_0_1_OspV=1, x_1_4_1_OspV=1, x_1_20_1_OspV=1, x_1_500_1_OspV=1]
<DWph=2> <it=  1> <et=39.93> <Mt= 0.00> <Spt= 0.00> <nCl=  0> <DB=  167.0000> <Mlp=  167.0000> <PB=1000000> 
<DWph=1> <it=  2> <et=39.93> <Mt= 0.00> <Spt= 0.00> <nCl=  0> <DB=  167.0000> <Mlp=  167.0000> <PB=1000000> 
---- Diving heuristic node with dive number = 0, fix depth = 82 and tabu list size = 0
Fixed projected solution = [x_1_0_1_OspV=1, x_1_16_1_OspV=1, x_1_269_1_OspV=1, x_1_422_1_OspV=1]
<DWph=2> <it=  3> <et=40.55> <Mt= 0.20> <Spt= 0.41> <nCl=200> <DB=  166.9829> <Mlp=  167.0000> <PB=1000000> 
<DWph=1> <it=  4> <et=40.55> <Mt= 0.01> <Spt= 0.00> <nCl=  0> <DB=  167.0000> <Mlp=  167.0000> <PB=1000000> 
---- Diving heuristic node with dive number = 0, fix depth = 82 and tabu list size = 0
Fixed projected solution = [x_1_0_1_OspV=1, x_1_53_1_OspV=1, x_1_334_1_OspV=1, x_1_372_1_OspV=1]
<DWph=2> <it=  1> <et=40.56> <Mt= 0.00> <Spt= 0.00> <nCl=  0> <DB=  167.0000> <Mlp=  167.0000> <PB=1000000> 
<DWph=1> <it=  2> <et=40.56> <Mt= 0.00> <Spt= 0.00> <nCl=  0> <DB=  167.0000> <Mlp=  167.0000> <PB=1000000> 
---- Diving heuristic node with dive number = 0, fix depth = 82 and tabu list size = 0
Fixed projected solution = [x_1_0_1_OspV=1, x_1_267_1_OspV=1, x_1_298_1_OspV=1, x_1_327_1_OspV=1]
<DWph=2> <it=  1> <et=40.57> <Mt= 0.00> <Spt= 0.00> <nCl=  0> <DB=  167.0000> <Mlp=  167.0000> <PB=1000000> 
<DWph=1> <it=  2> <et=40.58> <Mt= 0.00> <Spt= 0.00> <nCl=  0> <DB=  167.0000> <Mlp=  167.0000> <PB=1000000> 
---- Diving heuristic node with dive number = 0, fix depth = 83 and tabu list size = 0
Fixed projected solution = [x_1_0_1_OspV=1, x_1_50_1_OspV=1, x_1_261_1_OspV=1, x_1_425_1_OspV=1]
<DWph=2> <it=  2> <et=40.90> <Mt= 0.11> <Spt= 0.20> <nCl=100> <DB=  166.9776> <Mlp=  167.0000> <PB=1000000> 
<DWph=1> <it=  3> <et=40.90> <Mt= 0.01> <Spt= 0.00> <nCl=  0> <DB=  167.0000> <Mlp=  167.0000> <PB=1000000> 
---- Diving heuristic node with dive number = 0, fix depth = 84 and tabu list size = 0
Fixed projected solution = [x_1_0_1_OspV=1, x_1_98_1_OspV=1, x_1_128_1_OspV=1, x_1_473_1_OspV=1]
<DWph=2> <it=  1> <et=40.96> <Mt= 0.05> <Spt= 0.00> <nCl=  0> <DB=  167.0000> <Mlp=  167.0000> <PB=1000000> 
<DWph=1> <it=  2> <et=40.97> <Mt= 0.00> <Spt= 0.00> <nCl=  0> <DB=  167.0000> <Mlp=  167.0000> <PB=1000000> 
---- Diving heuristic node with dive number = 0, fix depth = 85 and tabu list size = 0
Fixed projected solution = [x_1_0_1_OspV=1, x_1_183_1_OspV=1, x_1_318_1_OspV=1, x_1_342_1_OspV=1]
<DWph=2> <it=  2> <et=41.34> <Mt= 0.17> <Spt= 0.20> <nCl=100> <DB=  166.9621> <Mlp=  167.0000> <PB=1000000> 
<DWph=1> <it=  3> <et=41.35> <Mt= 0.00> <Spt= 0.00> <nCl=  0> <DB=  167.0000> <Mlp=  167.0000> <PB=1000000> 
---- Diving heuristic node with dive number = 0, fix depth = 86 and tabu list size = 0
Fixed projected solution = [x_1_0_1_OspV=1, x_1_73_1_OspV=1, x_1_161_1_OspV=1, x_1_467_1_OspV=1]
<DWph=2> <it=  6> <et=42.71> <Mt= 0.29> <Spt= 1.01> <nCl=500> <DB=  166.9908> <Mlp=  167.0000> <PB=1000000> 
<DWph=1> <it=  7> <et=42.71> <Mt= 0.00> <Spt= 0.00> <nCl=  0> <DB=  167.0000> <Mlp=  167.0000> <PB=1000000> 
---- Diving heuristic node with dive number = 0, fix depth = 87 and tabu list size = 0
Fixed projected solution = [x_1_0_1_OspV=1, x_1_41_1_OspV=1, x_1_241_1_OspV=1, x_1_438_1_OspV=1]
<DWph=2> <it=  2> <et=43.02> <Mt= 0.10> <Spt= 0.21> <nCl=100> <DB=  166.9908> <Mlp=  167.0000> <PB=1000000> 
<DWph=1> <it=  3> <et=43.03> <Mt= 0.00> <Spt= 0.00> <nCl=  0> <DB=  167.0000> <Mlp=  167.0000> <PB=1000000> 
---- Diving heuristic node with dive number = 0, fix depth = 88 and tabu list size = 0
Fixed projected solution = [x_1_0_1_OspV=1, x_1_80_1_OspV=1, x_1_257_1_OspV=1, x_1_420_1_OspV=1]
<DWph=2> <it=  1> <et=43.13> <Mt= 0.09> <Spt= 0.00> <nCl=  0> <DB=  167.0000> <Mlp=  167.0000> <PB=1000000> 
<DWph=1> <it=  2> <et=43.13> <Mt= 0.00> <Spt= 0.00> <nCl=  0> <DB=  167.0000> <Mlp=  167.0000> <PB=1000000> 
---- Diving heuristic node with dive number = 0, fix depth = 89 and tabu list size = 0
Fixed projected solution = [x_1_0_1_OspV=1, x_1_33_1_OspV=1, x_1_259_1_OspV=1, x_1_431_1_OspV=1]
<DWph=2> <it=  2> <et=43.46> <Mt= 0.12> <Spt= 0.20> <nCl=100> <DB=  166.9931> <Mlp=  167.0000> <PB=1000000> 
<DWph=1> <it=  3> <et=43.46> <Mt= 0.00> <Spt= 0.00> <nCl=  0> <DB=  167.0000> <Mlp=  167.0000> <PB=1000000> 
---- Diving heuristic node with dive number = 0, fix depth = 90 and tabu list size = 0
Fixed projected solution = [x_1_0_1_OspV=1, x_1_85_1_OspV=1, x_1_343_1_OspV=1, x_1_360_1_OspV=1]
<DWph=2> <it=  5> <et=44.46> <Mt= 0.18> <Spt= 0.80> <nCl=400> <DB=  166.9964> <Mlp=  167.0000> <PB=1000000> 
<DWph=1> <it=  6> <et=44.46> <Mt= 0.00> <Spt= 0.00> <nCl=  0> <DB=  167.0000> <Mlp=  167.0000> <PB=1000000> 
---- Diving heuristic node with dive number = 0, fix depth = 91 and tabu list size = 0
Fixed projected solution = [x_1_0_1_OspV=1, x_1_182_1_OspV=1, x_1_191_1_OspV=1, x_1_417_1_OspV=1]
<DWph=2> <it=  1> <et=44.56> <Mt= 0.09> <Spt= 0.00> <nCl=  0> <DB=  167.0000> <Mlp=  167.0000> <PB=1000000> 
<DWph=1> <it=  2> <et=44.56> <Mt= 0.00> <Spt= 0.00> <nCl=  0> <DB=  167.0000> <Mlp=  167.0000> <PB=1000000> 
---- Diving heuristic node with dive number = 0, fix depth = 92 and tabu list size = 0
Fixed projected solution = [x_1_0_1_OspV=1, x_1_70_1_OspV=1, x_1_291_1_OspV=1, x_1_396_1_OspV=1]
<DWph=2> <it=  2> <et=44.91> <Mt= 0.13> <Spt= 0.21> <nCl=100> <DB=  166.9845> <Mlp=  167.0000> <PB=1000000> 
<DWph=1> <it=  3> <et=44.91> <Mt= 0.00> <Spt= 0.00> <nCl=  0> <DB=  167.0000> <Mlp=  167.0000> <PB=1000000> 
---- Diving heuristic node with dive number = 0, fix depth = 93 and tabu list size = 0
Fixed projected solution = [x_1_0_1_OspV=1, x_1_228_1_OspV=1, x_1_253_1_OspV=1, x_1_386_1_OspV=1]
<DWph=2> <it=  2> <et=45.25> <Mt= 0.14> <Spt= 0.20> <nCl=100> <DB=  166.9944> <Mlp=  167.0000> <PB=1000000> 
<DWph=1> <it=  3> <et=45.26> <Mt= 0.00> <Spt= 0.00> <nCl=  0> <DB=  167.0000> <Mlp=  167.0000> <PB=1000000> 
---- Diving heuristic node with dive number = 0, fix depth = 94 and tabu list size = 0
Fixed projected solution = [x_1_0_1_OspV=1, x_1_116_1_OspV=1, x_1_139_1_OspV=1, x_1_466_1_OspV=1]
<DWph=2> <it=  1> <et=45.29> <Mt= 0.02> <Spt= 0.00> <nCl=  0> <DB=  167.0000> <Mlp=  167.0000> <PB=1000000> 
<DWph=1> <it=  2> <et=45.29> <Mt= 0.00> <Spt= 0.00> <nCl=  0> <DB=  167.0000> <Mlp=  167.0000> <PB=1000000> 
---- Diving heuristic node with dive number = 0, fix depth = 95 and tabu list size = 0
Fixed projected solution = [x_1_0_1_OspV=1, x_1_99_1_OspV=1, x_1_115_1_OspV=1, x_1_477_1_OspV=1]
<DWph=2> <it=  4> <et=46.03> <Mt= 0.13> <Spt= 0.60> <nCl=300> <DB=  166.9956> <Mlp=  167.0000> <PB=1000000> 
<DWph=1> <it=  5> <et=46.04> <Mt= 0.00> <Spt= 0.00> <nCl=  0> <DB=  167.0000> <Mlp=  167.0000> <PB=1000000> 
---- Diving heuristic node with dive number = 0, fix depth = 96 and tabu list size = 0
Fixed projected solution = [x_1_0_1_OspV=1, x_1_97_1_OspV=1, x_1_125_1_OspV=1, x_1_475_1_OspV=1]
<DWph=2> <it=  1> <et=46.09> <Mt= 0.04> <Spt= 0.00> <nCl=  0> <DB=  167.0000> <Mlp=  167.0000> <PB=1000000> 
<DWph=1> <it=  2> <et=46.09> <Mt= 0.00> <Spt= 0.00> <nCl=  0> <DB=  167.0000> <Mlp=  167.0000> <PB=1000000> 
---- Diving heuristic node with dive number = 0, fix depth = 97 and tabu list size = 0
Fixed projected solution = [x_1_0_1_OspV=1, x_1_102_1_OspV=1, x_1_271_1_OspV=1, x_1_402_1_OspV=1]
<DWph=2> <it=  2> <et=46.43> <Mt= 0.14> <Spt= 0.20> <nCl=100> <DB=  166.9927> <Mlp=  167.0000> <PB=1000000> 
<DWph=1> <it=  3> <et=46.44> <Mt= 0.00> <Spt= 0.00> <nCl=  0> <DB=  167.0000> <Mlp=  167.0000> <PB=1000000> 
---- Diving heuristic node with dive number = 0, fix depth = 98 and tabu list size = 0
Fixed projected solution = [x_1_0_1_OspV=1, x_1_104_1_OspV=1, x_1_236_1_OspV=1, x_1_423_1_OspV=1]
<DWph=2> <it=  3> <et=46.98> <Mt= 0.12> <Spt= 0.41> <nCl=200> <DB=  166.9967> <Mlp=  167.0000> <PB=1000000> 
<DWph=1> <it=  4> <et=46.98> <Mt= 0.00> <Spt= 0.00> <nCl=  0> <DB=  167.0000> <Mlp=  167.0000> <PB=1000000> 
---- Diving heuristic node with dive number = 0, fix depth = 99 and tabu list size = 0
Fixed projected solution = [x_1_0_1_OspV=1, x_1_280_1_OspV=1, x_1_287_1_OspV=1, x_1_331_1_OspV=1]
<DWph=2> <it=  2> <et=47.28> <Mt= 0.09> <Spt= 0.20> <nCl=100> <DB=  166.9975> <Mlp=  167.0000> <PB=1000000> 
<DWph=1> <it=  3> <et=47.28> <Mt= 0.00> <Spt= 0.00> <nCl=  0> <DB=  167.0000> <Mlp=  167.0000> <PB=1000000> 
---- Diving heuristic node with dive number = 0, fix depth = 99 and tabu list size = 0
Fixed projected solution = [x_1_0_1_OspV=1, x_1_277_1_OspV=1, x_1_289_1_OspV=1, x_1_329_1_OspV=1]
<DWph=2> <it=  1> <et=47.30> <Mt= 0.00> <Spt= 0.00> <nCl=  0> <DB=  167.0000> <Mlp=  167.0000> <PB=1000000> 
<DWph=1> <it=  2> <et=47.30> <Mt= 0.01> <Spt= 0.00> <nCl=  0> <DB=  167.0000> <Mlp=  167.0000> <PB=1000000> 
---- Diving heuristic node with dive number = 0, fix depth = 100 and tabu list size = 0
Fixed projected solution = [x_1_0_1_OspV=1, x_1_19_1_OspV=1, x_1_46_1_OspV=1, x_1_494_1_OspV=1]
<DWph=2> <it=  2> <et=47.70> <Mt= 0.18> <Spt= 0.20> <nCl=100> <DB=  166.9917> <Mlp=  167.0000> <PB=1000000> 
<DWph=1> <it=  3> <et=47.70> <Mt= 0.00> <Spt= 0.00> <nCl=  0> <DB=  167.0000> <Mlp=  167.0000> <PB=1000000> 
---- Diving heuristic node with dive number = 0, fix depth = 101 and tabu list size = 0
Fixed projected solution = [x_1_0_1_OspV=1, x_1_113_1_OspV=1, x_1_326_1_OspV=1, x_1_365_1_OspV=1]
<DWph=2> <it=  1> <et=47.77> <Mt= 0.06> <Spt= 0.00> <nCl=  0> <DB=  167.0000> <Mlp=  167.0000> <PB=1000000> 
<DWph=1> <it=  2> <et=47.77> <Mt= 0.00> <Spt= 0.00> <nCl=  0> <DB=  167.0000> <Mlp=  167.0000> <PB=1000000> 
---- Diving heuristic node with dive number = 0, fix depth = 102 and tabu list size = 0
Fixed projected solution = [x_1_0_1_OspV=1, x_1_202_1_OspV=1, x_1_301_1_OspV=1, x_1_366_1_OspV=1]
<DWph=2> <it=  1> <et=47.84> <Mt= 0.06> <Spt= 0.00> <nCl=  0> <DB=  167.0000> <Mlp=  167.0000> <PB=1000000> 
<DWph=1> <it=  2> <et=47.84> <Mt= 0.00> <Spt= 0.00> <nCl=  0> <DB=  167.0000> <Mlp=  167.0000> <PB=1000000> 
---- Diving heuristic node with dive number = 0, fix depth = 103 and tabu list size = 0
Fixed projected solution = [x_1_0_1_OspV=1, x_1_199_1_OspV=1, x_1_205_1_OspV=1, x_1_409_1_OspV=1]
<DWph=2> <it= 10> <et=50.25> <Mt= 0.39> <Spt= 2.01> <nCl=1000> <DB=  166.9993> <Mlp=  167.0004> <PB=1000000> 
<DWph=2> <it= 13> <et=50.77> <Mt= 0.10> <Spt= 0.41> <nCl=200> <DB=  166.9996> <Mlp=  167.0000> <PB=1000000> 
<DWph=1> <it= 14> <et=50.77> <Mt= 0.01> <Spt= 0.00> <nCl=  0> <DB=  167.0000> <Mlp=  167.0000> <PB=1000000> 
---- Diving heuristic node with dive number = 0, fix depth = 104 and tabu list size = 0
Fixed projected solution = [x_1_0_1_OspV=1, x_1_179_1_OspV=1, x_1_260_1_OspV=1, x_1_392_1_OspV=1]
<DWph=2> <it=  6> <et=52.27> <Mt= 0.42> <Spt= 1.01> <nCl=500> <DB=  166.9993> <Mlp=  167.0000> <PB=1000000> 
<DWph=1> <it=  7> <et=52.27> <Mt= 0.00> <Spt= 0.00> <nCl=  0> <DB=  167.0000> <Mlp=  167.0000> <PB=1000000> 
---- Diving heuristic node with dive number = 0, fix depth = 105 and tabu list size = 0
Fixed projected solution = [x_1_0_1_OspV=1, x_1_64_1_OspV=1, x_1_351_1_OspV=1, x_1_358_1_OspV=1]
<DWph=2> <it=  1> <et=52.36> <Mt= 0.08> <Spt= 0.00> <nCl=  0> <DB=  167.0000> <Mlp=  167.0000> <PB=1000000> 
<DWph=1> <it=  2> <et=52.36> <Mt= 0.00> <Spt= 0.00> <nCl=  0> <DB=  167.0000> <Mlp=  167.0000> <PB=1000000> 
---- Diving heuristic node with dive number = 0, fix depth = 106 and tabu list size = 0
Fixed projected solution = [x_1_0_1_OspV=1, x_1_252_1_OspV=1, x_1_288_1_OspV=1, x_1_354_1_OspV=1]
<DWph=2> <it= 10> <et=54.64> <Mt= 0.25> <Spt= 2.01> <nCl=1000> <DB=  166.9994> <Mlp=  167.0001> <PB=1000000> 
<DWph=2> <it= 20> <et=56.75> <Mt= 0.09> <Spt= 2.02> <nCl=1000> <DB=  166.9996> <Mlp=  167.0001> <PB=1000000> 
<DWph=2> <it= 30> <et=58.88> <Mt= 0.11> <Spt= 2.02> <nCl=1000> <DB=  167.0000> <Mlp=  167.0000> <PB=1000000> 
<DWph=2> <it= 33> <et=59.35> <Mt= 0.01> <Spt= 0.40> <nCl=200> <DB=  167.0000> <Mlp=  167.0000> <PB=1000000> 
<DWph=1> <it= 34> <et=59.35> <Mt= 0.00> <Spt= 0.00> <nCl=  0> <DB=  167.0000> <Mlp=  167.0000> <PB=1000000> 
---- Diving heuristic node with dive number = 0, fix depth = 107 and tabu list size = 0
Fixed projected solution = [x_1_0_1_OspV=1, x_1_226_1_OspV=1, x_1_263_1_OspV=1, x_1_381_1_OspV=1]
<DWph=2> <it=  1> <et=59.43> <Mt= 0.07> <Spt= 0.00> <nCl=  0> <DB=  167.0000> <Mlp=  167.0000> <PB=1000000> 
<DWph=1> <it=  2> <et=59.43> <Mt= 0.00> <Spt= 0.00> <nCl=  0> <DB=  167.0000> <Mlp=  167.0000> <PB=1000000> 
---- Diving heuristic node with dive number = 0, fix depth = 107 and tabu list size = 0
Fixed projected solution = [x_1_0_1_OspV=1, x_1_238_1_OspV=1, x_1_243_1_OspV=1, x_1_382_1_OspV=1]
<DWph=2> <it=  1> <et=59.44> <Mt= 0.00> <Spt= 0.00> <nCl=  0> <DB=  167.0000> <Mlp=  167.0000> <PB=1000000> 
<DWph=1> <it=  2> <et=59.44> <Mt= 0.00> <Spt= 0.00> <nCl=  0> <DB=  167.0000> <Mlp=  167.0000> <PB=1000000> 
---- Diving heuristic node with dive number = 0, fix depth = 108 and tabu list size = 0
Fixed projected solution = [x_1_0_1_OspV=1, x_1_17_1_OspV=1, x_1_38_1_OspV=1, x_1_495_1_OspV=1]
<DWph=2> <it= 10> <et=61.57> <Mt= 0.24> <Spt= 1.88> <nCl=1000> <DB=  166.7261> <Mlp=  167.0053> <PB=1000000> 
<DWph=2> <it= 20> <et=63.71> <Mt= 0.12> <Spt= 2.01> <nCl=1000> <DB=  166.9993> <Mlp=  167.0004> <PB=1000000> 
<DWph=2> <it= 23> <et=64.14> <Mt= 0.02> <Spt= 0.41> <nCl=200> <DB=  167.0000> <Mlp=  167.0000> <PB=1000000> 
<DWph=1> <it= 24> <et=64.14> <Mt= 0.00> <Spt= 0.00> <nCl=  0> <DB=  167.0000> <Mlp=  167.0000> <PB=1000000> 
---- Diving heuristic node with dive number = 0, fix depth = 109 and tabu list size = 0
Fixed projected solution = [x_1_0_1_OspV=1, x_1_1_1_OspV=1, x_1_27_1_OspV=1, x_1_498_1_OspV=1]
<DWph=1> <it= 11> <et=66.42> <Mt= 0.49> <Spt= 1.77> <nCl=900> <DB=  167.0000> <Mlp=  167.0000> <PB=1000000> 
---- Diving heuristic node with dive number = 0, fix depth = 109 and tabu list size = 0
Fixed projected solution = [x_1_0_1_OspV=1, x_1_223_1_OspV=1, x_1_286_1_OspV=1, x_1_373_1_OspV=1]
<DWph=2> <it=  1> <et=66.44> <Mt= 0.00> <Spt= 0.00> <nCl=  0> <DB=  167.0000> <Mlp=  167.0000> <PB=1000000> 
<DWph=1> <it=  2> <et=66.44> <Mt= 0.00> <Spt= 0.00> <nCl=  0> <DB=  167.0000> <Mlp=  167.0000> <PB=1000000> 
---- Diving heuristic node with dive number = 0, fix depth = 109 and tabu list size = 0
Fixed projected solution = [x_1_0_1_OspV=1, x_1_143_1_OspV=1, x_1_222_1_OspV=1, x_1_418_1_OspV=1]
<DWph=2> <it=  1> <et=66.45> <Mt= 0.01> <Spt= 0.00> <nCl=  0> <DB=  167.0000> <Mlp=  167.0000> <PB=1000000> 
<DWph=1> <it=  2> <et=66.46> <Mt= 0.00> <Spt= 0.00> <nCl=  0> <DB=  167.0000> <Mlp=  167.0000> <PB=1000000> 
---- Diving heuristic node with dive number = 0, fix depth = 110 and tabu list size = 0
Fixed projected solution = [x_1_0_1_OspV=1, x_1_145_1_OspV=1, x_1_155_1_OspV=1, x_1_445_1_OspV=1]
<DWph=2> <it= 10> <et=68.70> <Mt= 0.32> <Spt= 1.85> <nCl=1000> <DB=  166.9207> <Mlp=  167.1047> <PB=1000000> 
<DWph=2> <it= 20> <et=70.74> <Mt= 0.04> <Spt= 1.99> <nCl=1000> <DB=  166.9434> <Mlp=  167.1047> <PB=1000000> 
<DWph=2> <it= 30> <et=72.78> <Mt= 0.05> <Spt= 1.99> <nCl=1000> <DB=  166.9543> <Mlp=  167.1047> <PB=1000000> 
<DWph=2> <it= 40> <et=74.90> <Mt= 0.05> <Spt= 2.01> <nCl=1000> <DB=  166.9769> <Mlp=  167.0672> <PB=1000000> 
<DWph=2> <it= 50> <et=76.99> <Mt= 0.05> <Spt= 2.03> <nCl=1000> <DB=  166.9951> <Mlp=  167.0485> <PB=1000000> 
<DWph=2> <it= 60> <et=79.04> <Mt= 0.06> <Spt= 1.98> <nCl=1000> <DB=  166.9951> <Mlp=  167.0390> <PB=1000000> 
<DWph=2> <it= 70> <et=82.19> <Mt= 0.13> <Spt= 2.98> <nCl=667> <DB=  166.4927> <Mlp=  167.0006> <PB=1000000> 
<DWph=2> <it= 80> <et=85.20> <Mt= 0.03> <Spt= 2.96> <nCl=644> <DB=  166.2346> <Mlp=  167.0006> <PB=1000000> 
<DWph=2> <it= 84> <et=86.62> <Mt= 0.01> <Spt= 1.41> <nCl= 66> <DB=  167.0006> <Mlp=  167.0006> <PB=1000000> 
<DWph=1> <it= 85> <et=87.10> <Mt= 0.01> <Spt= 0.48> <nCl=  0> <DB=  167.0006> <Mlp=  167.0006> <PB=1000000> 
---- Diving heuristic node with dive number = 0, fix depth = 111 and tabu list size = 0
Fixed projected solution = [x_1_0_1_OspV=1, x_1_58_1_OspV=1, x_1_306_1_OspV=1, x_1_383_1_OspV=1]
<DWph=2> <it= 10> <et=89.09> <Mt= 0.14> <Spt= 1.82> <nCl=1000> <DB=  158.3821> <Mlp=  167.0031> <PB=1000000> 
<DWph=2> <it= 20> <et=91.50> <Mt= 0.05> <Spt= 2.35> <nCl=896> <DB=  166.8791> <Mlp=  167.0015> <PB=1000000> 
<DWph=2> <it= 30> <et=94.23> <Mt= 0.06> <Spt= 2.62> <nCl=692> <DB=  166.9492> <Mlp=  167.0014> <PB=1000000> 
<DWph=2> <it= 39> <et=97.05> <Mt= 0.03> <Spt= 2.78> <nCl=394> <DB=  167.0013> <Mlp=  167.0013> <PB=1000000> 
<DWph=1> <it= 40> <et=97.44> <Mt= 0.00> <Spt= 0.39> <nCl=  0> <DB=  167.0013> <Mlp=  167.0013> <PB=1000000> 
---- Diving heuristic node with dive number = 0, fix depth = 112 and tabu list size = 0
Fixed projected solution = [x_1_0_1_OspV=1, x_1_78_1_OspV=1, x_1_130_1_OspV=1, x_1_476_1_OspV=1]
<DWph=2> <it= 10> <et=99.71> <Mt= 0.13> <Spt= 2.11> <nCl=952> <DB=  166.9562> <Mlp=  167.0014> <PB=1000000> 
<DWph=2> <it= 14> <et=101.28> <Mt= 0.01> <Spt= 1.55> <nCl= 78> <DB=  167.0014> <Mlp=  167.0014> <PB=1000000> 
<DWph=1> <it= 15> <et=101.66> <Mt= 0.01> <Spt= 0.39> <nCl=  0> <DB=  167.0014> <Mlp=  167.0014> <PB=1000000> 
---- Diving heuristic node with dive number = 0, fix depth = 112 and tabu list size = 0
Fixed projected solution = [x_1_0_1_OspV=1, x_1_137_1_OspV=1, x_1_333_1_OspV=1, x_1_353_1_OspV=1]
<DWph=2> <it=  1> <et=102.07> <Mt= 0.00> <Spt= 0.38> <nCl=  0> <DB=  167.0014> <Mlp=  167.0014> <PB=1000000> 
<DWph=1> <it=  2> <et=102.46> <Mt= 0.00> <Spt= 0.39> <nCl=  0> <DB=  167.0014> <Mlp=  167.0014> <PB=1000000> 
---- Diving heuristic node with dive number = 0, fix depth = 113 and tabu list size = 0
Fixed projected solution = [x_1_0_1_OspV=1, x_1_112_1_OspV=1, x_1_146_1_OspV=1, x_1_457_1_OspV=1]
<DWph=2> <it=  1> <et=102.90> <Mt= 0.03> <Spt= 0.39> <nCl=  0> <DB=  167.0014> <Mlp=  167.0014> <PB=1000000> 
<DWph=1> <it=  2> <et=103.28> <Mt= 0.00> <Spt= 0.38> <nCl=  0> <DB=  167.0014> <Mlp=  167.0014> <PB=1000000> 
---- Diving heuristic node with dive number = 0, fix depth = 114 and tabu list size = 0
Fixed projected solution = [x_1_0_1_OspV=1, x_1_88_1_OspV=1, x_1_127_1_OspV=1, x_1_474_1_OspV=1]
<DWph=2> <it= 10> <et=105.42> <Mt= 0.19> <Spt= 1.88> <nCl=1000> <DB=  166.6861> <Mlp=  167.0031> <PB=1000000> 
<DWph=2> <it= 20> <et=108.17> <Mt= 0.04> <Spt= 2.70> <nCl=237> <DB=  166.9816> <Mlp=  167.0017> <PB=1000000> 
<DWph=2> <it= 21> <et=108.76> <Mt= 0.00> <Spt= 0.59> <nCl=  0> <DB=  167.0017> <Mlp=  167.0017> <PB=1000000> 
<DWph=1> <it= 22> <et=109.14> <Mt= 0.01> <Spt= 0.38> <nCl=  0> <DB=  167.0017> <Mlp=  167.0017> <PB=1000000> 
---- Diving heuristic node with dive number = 0, fix depth = 115 and tabu list size = 0
Fixed projected solution = [x_1_0_1_OspV=1, x_1_114_1_OspV=1, x_1_313_1_OspV=1, x_1_376_1_OspV=1]
<DWph=2> <it= 10> <et=111.16> <Mt= 0.15> <Spt= 1.84> <nCl=1000> <DB=  166.7018> <Mlp=  167.0019> <PB=1000000> 
<DWph=2> <it= 20> <et=113.56> <Mt= 0.06> <Spt= 2.33> <nCl=807> <DB=  166.9639> <Mlp=  167.0018> <PB=1000000> 
