Application parameters:
  batch  =>  nothing
  instance  =>  "/IN/Falkenauer_t501_17.txt-Q20"
  ub  =>  1.0e6
  cfg  =>  "/CFG/BPP.cfg"
data = Colored Bin Packing dataset.
number of items = 501
number of colors = 20
capacity = 1000
Items : 
	 item 1, weight= 250, color= 0
	 item 2, weight= 250, color= 4
	 item 3, weight= 250, color= 5
	 item 4, weight= 250, color= 6
	 item 5, weight= 250, color= 7
	 item 6, weight= 250, color= 8
	 item 7, weight= 250, color= 9
	 item 8, weight= 250, color= 12
	 item 9, weight= 250, color= 13
	 item 10, weight= 250, color= 13
	 item 11, weight= 250, color= 14
	 item 12, weight= 250, color= 14
	 item 13, weight= 250, color= 18
	 item 14, weight= 251, color= 3
	 item 15, weight= 251, color= 9
	 item 16, weight= 251, color= 15
	 item 17, weight= 252, color= 1
	 item 18, weight= 252, color= 2
	 item 19, weight= 252, color= 7
	 item 20, weight= 252, color= 7
	 item 21, weight= 252, color= 8
	 item 22, weight= 252, color= 9
	 item 23, weight= 252, color= 14
	 item 24, weight= 252, color= 15
	 item 25, weight= 252, color= 17
	 item 26, weight= 252, color= 19
	 item 27, weight= 253, color= 0
	 item 28, weight= 253, color= 3
	 item 29, weight= 253, color= 3
	 item 30, weight= 253, color= 5
	 item 31, weight= 253, color= 6
	 item 32, weight= 253, color= 6
	 item 33, weight= 253, color= 7
	 item 34, weight= 253, color= 9
	 item 35, weight= 253, color= 13
	 item 36, weight= 253, color= 14
	 item 37, weight= 254, color= 1
	 item 38, weight= 254, color= 2
	 item 39, weight= 254, color= 5
	 item 40, weight= 254, color= 11
	 item 41, weight= 254, color= 12
	 item 42, weight= 254, color= 14
	 item 43, weight= 254, color= 16
	 item 44, weight= 254, color= 16
	 item 45, weight= 254, color= 17
	 item 46, weight= 254, color= 17
	 item 47, weight= 255, color= 14
	 item 48, weight= 255, color= 15
	 item 49, weight= 255, color= 17
	 item 50, weight= 255, color= 18
	 item 51, weight= 256, color= 3
	 item 52, weight= 256, color= 4
	 item 53, weight= 256, color= 10
	 item 54, weight= 256, color= 10
	 item 55, weight= 256, color= 11
	 item 56, weight= 256, color= 12
	 item 57, weight= 256, color= 16
	 item 58, weight= 257, color= 0
	 item 59, weight= 257, color= 3
	 item 60, weight= 257, color= 4
	 item 61, weight= 257, color= 9
	 item 62, weight= 257, color= 10
	 item 63, weight= 257, color= 12
	 item 64, weight= 257, color= 12
	 item 65, weight= 257, color= 13
	 item 66, weight= 257, color= 17
	 item 67, weight= 258, color= 2
	 item 68, weight= 258, color= 14
	 item 69, weight= 258, color= 19
	 item 70, weight= 259, color= 2
	 item 71, weight= 259, color= 2
	 item 72, weight= 259, color= 5
	 item 73, weight= 259, color= 6
	 item 74, weight= 259, color= 7
	 item 75, weight= 259, color= 10
	 item 76, weight= 259, color= 14
	 item 77, weight= 259, color= 15
	 item 78, weight= 259, color= 16
	 item 79, weight= 260, color= 1
	 item 80, weight= 260, color= 2
	 item 81, weight= 260, color= 4
	 item 82, weight= 260, color= 6
	 item 83, weight= 260, color= 7
	 item 84, weight= 260, color= 8
	 item 85, weight= 260, color= 16
	 item 86, weight= 260, color= 17
	 item 87, weight= 260, color= 17
	 item 88, weight= 261, color= 0
	 item 89, weight= 261, color= 4
	 item 90, weight= 261, color= 4
	 item 91, weight= 261, color= 5
	 item 92, weight= 261, color= 5
	 item 93, weight= 261, color= 9
	 item 94, weight= 261, color= 10
	 item 95, weight= 261, color= 14
	 item 96, weight= 261, color= 16
	 item 97, weight= 261, color= 17
	 item 98, weight= 262, color= 2
	 item 99, weight= 262, color= 9
	 item 100, weight= 262, color= 15
	 item 101, weight= 263, color= 1
	 item 102, weight= 263, color= 1
	 item 103, weight= 263, color= 7
	 item 104, weight= 263, color= 7
	 item 105, weight= 263, color= 12
	 item 106, weight= 263, color= 16
	 item 107, weight= 264, color= 3
	 item 108, weight= 264, color= 4
	 item 109, weight= 264, color= 11
	 item 110, weight= 264, color= 15
	 item 111, weight= 264, color= 16
	 item 112, weight= 265, color= 6
	 item 113, weight= 265, color= 9
	 item 114, weight= 265, color= 10
	 item 115, weight= 265, color= 12
	 item 116, weight= 265, color= 13
	 item 117, weight= 265, color= 16
	 item 118, weight= 266, color= 4
	 item 119, weight= 266, color= 7
	 item 120, weight= 266, color= 11
	 item 121, weight= 266, color= 17
	 item 122, weight= 267, color= 2
	 item 123, weight= 267, color= 9
	 item 124, weight= 267, color= 13
	 item 125, weight= 267, color= 15
	 item 126, weight= 267, color= 19
	 item 127, weight= 268, color= 3
	 item 128, weight= 268, color= 5
	 item 129, weight= 268, color= 8
	 item 130, weight= 268, color= 16
	 item 131, weight= 269, color= 4
	 item 132, weight= 269, color= 9
	 item 133, weight= 269, color= 13
	 item 134, weight= 270, color= 3
	 item 135, weight= 270, color= 7
	 item 136, weight= 270, color= 8
	 item 137, weight= 271, color= 3
	 item 138, weight= 271, color= 5
	 item 139, weight= 271, color= 15
	 item 140, weight= 272, color= 3
	 item 141, weight= 272, color= 3
	 item 142, weight= 272, color= 12
	 item 143, weight= 272, color= 18
	 item 144, weight= 273, color= 1
	 item 145, weight= 273, color= 2
	 item 146, weight= 273, color= 4
	 item 147, weight= 273, color= 12
	 item 148, weight= 274, color= 4
	 item 149, weight= 274, color= 7
	 item 150, weight= 274, color= 12
	 item 151, weight= 275, color= 9
	 item 152, weight= 275, color= 11
	 item 153, weight= 276, color= 2
	 item 154, weight= 276, color= 8
	 item 155, weight= 276, color= 13
	 item 156, weight= 276, color= 14
	 item 157, weight= 276, color= 17
	 item 158, weight= 277, color= 1
	 item 159, weight= 277, color= 4
	 item 160, weight= 277, color= 6
	 item 161, weight= 277, color= 11
	 item 162, weight= 277, color= 13
	 item 163, weight= 277, color= 15
	 item 164, weight= 278, color= 1
	 item 165, weight= 278, color= 6
	 item 166, weight= 278, color= 8
	 item 167, weight= 278, color= 11
	 item 168, weight= 278, color= 18
	 item 169, weight= 279, color= 1
	 item 170, weight= 279, color= 2
	 item 171, weight= 279, color= 9
	 item 172, weight= 280, color= 3
	 item 173, weight= 280, color= 4
	 item 174, weight= 280, color= 8
	 item 175, weight= 280, color= 8
	 item 176, weight= 280, color= 10
	 item 177, weight= 280, color= 13
	 item 178, weight= 282, color= 1
	 item 179, weight= 282, color= 6
	 item 180, weight= 282, color= 8
	 item 181, weight= 283, color= 6
	 item 182, weight= 283, color= 16
	 item 183, weight= 283, color= 18
	 item 184, weight= 284, color= 5
	 item 185, weight= 284, color= 6
	 item 186, weight= 284, color= 7
	 item 187, weight= 284, color= 15
	 item 188, weight= 284, color= 17
	 item 189, weight= 284, color= 18
	 item 190, weight= 285, color= 3
	 item 191, weight= 285, color= 12
	 item 192, weight= 285, color= 18
	 item 193, weight= 286, color= 5
	 item 194, weight= 286, color= 18
	 item 195, weight= 287, color= 16
	 item 196, weight= 288, color= 4
	 item 197, weight= 288, color= 5
	 item 198, weight= 288, color= 6
	 item 199, weight= 288, color= 15
	 item 200, weight= 288, color= 18
	 item 201, weight= 289, color= 1
	 item 202, weight= 289, color= 2
	 item 203, weight= 289, color= 2
	 item 204, weight= 289, color= 8
	 item 205, weight= 289, color= 14
	 item 206, weight= 289, color= 14
	 item 207, weight= 290, color= 8
	 item 208, weight= 290, color= 14
	 item 209, weight= 290, color= 17
	 item 210, weight= 291, color= 9
	 item 211, weight= 291, color= 10
	 item 212, weight= 291, color= 13
	 item 213, weight= 292, color= 10
	 item 214, weight= 292, color= 12
	 item 215, weight= 293, color= 12
	 item 216, weight= 294, color= 1
	 item 217, weight= 294, color= 5
	 item 218, weight= 294, color= 10
	 item 219, weight= 294, color= 13
	 item 220, weight= 294, color= 14
	 item 221, weight= 295, color= 5
	 item 222, weight= 295, color= 13
	 item 223, weight= 296, color= 1
	 item 224, weight= 296, color= 6
	 item 225, weight= 296, color= 8
	 item 226, weight= 296, color= 11
	 item 227, weight= 297, color= 7
	 item 228, weight= 297, color= 8
	 item 229, weight= 297, color= 18
	 item 230, weight= 298, color= 1
	 item 231, weight= 298, color= 10
	 item 232, weight= 299, color= 13
	 item 233, weight= 299, color= 13
	 item 234, weight= 299, color= 14
	 item 235, weight= 299, color= 17
	 item 236, weight= 300, color= 1
	 item 237, weight= 300, color= 2
	 item 238, weight= 302, color= 10
	 item 239, weight= 303, color= 7
	 item 240, weight= 303, color= 19
	 item 241, weight= 304, color= 1
	 item 242, weight= 305, color= 1
	 item 243, weight= 305, color= 4
	 item 244, weight= 305, color= 4
	 item 245, weight= 305, color= 6
	 item 246, weight= 305, color= 11
	 item 247, weight= 305, color= 12
	 item 248, weight= 306, color= 7
	 item 249, weight= 306, color= 9
	 item 250, weight= 307, color= 9
	 item 251, weight= 307, color= 10
	 item 252, weight= 307, color= 14
	 item 253, weight= 308, color= 14
	 item 254, weight= 309, color= 9
	 item 255, weight= 310, color= 2
	 item 256, weight= 310, color= 11
	 item 257, weight= 312, color= 0
	 item 258, weight= 312, color= 2
	 item 259, weight= 312, color= 10
	 item 260, weight= 312, color= 13
	 item 261, weight= 312, color= 14
	 item 262, weight= 312, color= 18
	 item 263, weight= 312, color= 18
	 item 264, weight= 313, color= 10
	 item 265, weight= 313, color= 13
	 item 266, weight= 314, color= 0
	 item 267, weight= 314, color= 11
	 item 268, weight= 314, color= 19
	 item 269, weight= 315, color= 12
	 item 270, weight= 315, color= 13
	 item 271, weight= 315, color= 18
	 item 272, weight= 316, color= 6
	 item 273, weight= 316, color= 13
	 item 274, weight= 317, color= 8
	 item 275, weight= 318, color= 2
	 item 276, weight= 318, color= 14
	 item 277, weight= 318, color= 15
	 item 278, weight= 320, color= 12
	 item 279, weight= 321, color= 10
	 item 280, weight= 322, color= 3
	 item 281, weight= 322, color= 10
	 item 282, weight= 323, color= 11
	 item 283, weight= 324, color= 8
	 item 284, weight= 324, color= 14
	 item 285, weight= 324, color= 15
	 item 286, weight= 325, color= 8
	 item 287, weight= 326, color= 5
	 item 288, weight= 327, color= 13
	 item 289, weight= 327, color= 16
	 item 290, weight= 328, color= 6
	 item 291, weight= 329, color= 8
	 item 292, weight= 330, color= 13
	 item 293, weight= 331, color= 4
	 item 294, weight= 331, color= 6
	 item 295, weight= 331, color= 9
	 item 296, weight= 332, color= 1
	 item 297, weight= 332, color= 6
	 item 298, weight= 332, color= 11
	 item 299, weight= 333, color= 14
	 item 300, weight= 333, color= 16
	 item 301, weight= 333, color= 18
	 item 302, weight= 334, color= 4
	 item 303, weight= 334, color= 17
	 item 304, weight= 335, color= 0
	 item 305, weight= 335, color= 6
	 item 306, weight= 338, color= 0
	 item 307, weight= 338, color= 12
	 item 308, weight= 340, color= 11
	 item 309, weight= 341, color= 13
	 item 310, weight= 345, color= 6
	 item 311, weight= 350, color= 7
	 item 312, weight= 350, color= 8
	 item 313, weight= 350, color= 8
	 item 314, weight= 350, color= 16
	 item 315, weight= 351, color= 5
	 item 316, weight= 351, color= 9
	 item 317, weight= 352, color= 0
	 item 318, weight= 352, color= 4
	 item 319, weight= 353, color= 0
	 item 320, weight= 355, color= 15
	 item 321, weight= 355, color= 16
	 item 322, weight= 356, color= 12
	 item 323, weight= 356, color= 18
	 item 324, weight= 356, color= 19
	 item 325, weight= 357, color= 16
	 item 326, weight= 357, color= 19
	 item 327, weight= 357, color= 19
	 item 328, weight= 360, color= 0
	 item 329, weight= 360, color= 1
	 item 330, weight= 360, color= 7
	 item 331, weight= 360, color= 10
	 item 332, weight= 361, color= 3
	 item 333, weight= 361, color= 13
	 item 334, weight= 362, color= 16
	 item 335, weight= 363, color= 5
	 item 336, weight= 364, color= 9
	 item 337, weight= 364, color= 10
	 item 338, weight= 366, color= 1
	 item 339, weight= 366, color= 2
	 item 340, weight= 366, color= 2
	 item 341, weight= 367, color= 14
	 item 342, weight= 368, color= 2
	 item 343, weight= 368, color= 14
	 item 344, weight= 369, color= 4
	 item 345, weight= 370, color= 0
	 item 346, weight= 370, color= 4
	 item 347, weight= 370, color= 6
	 item 348, weight= 370, color= 11
	 item 349, weight= 371, color= 2
	 item 350, weight= 372, color= 6
	 item 351, weight= 372, color= 19
	 item 352, weight= 373, color= 8
	 item 353, weight= 374, color= 16
	 item 354, weight= 376, color= 8
	 item 355, weight= 376, color= 8
	 item 356, weight= 377, color= 9
	 item 357, weight= 377, color= 12
	 item 358, weight= 378, color= 19
	 item 359, weight= 379, color= 0
	 item 360, weight= 379, color= 8
	 item 361, weight= 380, color= 9
	 item 362, weight= 380, color= 18
	 item 363, weight= 381, color= 14
	 item 364, weight= 381, color= 15
	 item 365, weight= 382, color= 0
	 item 366, weight= 382, color= 11
	 item 367, weight= 382, color= 13
	 item 368, weight= 383, color= 2
	 item 369, weight= 383, color= 2
	 item 370, weight= 383, color= 9
	 item 371, weight= 384, color= 10
	 item 372, weight= 384, color= 16
	 item 373, weight= 386, color= 11
	 item 374, weight= 387, color= 2
	 item 375, weight= 387, color= 7
	 item 376, weight= 387, color= 18
	 item 377, weight= 390, color= 6
	 item 378, weight= 390, color= 11
	 item 379, weight= 392, color= 0
	 item 380, weight= 392, color= 6
	 item 381, weight= 392, color= 8
	 item 382, weight= 395, color= 0
	 item 383, weight= 395, color= 5
	 item 384, weight= 396, color= 12
	 item 385, weight= 396, color= 16
	 item 386, weight= 400, color= 0
	 item 387, weight= 400, color= 11
	 item 388, weight= 401, color= 13
	 item 389, weight= 402, color= 5
	 item 390, weight= 403, color= 4
	 item 391, weight= 404, color= 1
	 item 392, weight= 404, color= 8
	 item 393, weight= 406, color= 2
	 item 394, weight= 406, color= 18
	 item 395, weight= 407, color= 8
	 item 396, weight= 411, color= 9
	 item 397, weight= 411, color= 15
	 item 398, weight= 412, color= 4
	 item 399, weight= 412, color= 16
	 item 400, weight= 413, color= 11
	 item 401, weight= 413, color= 12
	 item 402, weight= 415, color= 13
	 item 403, weight= 416, color= 7
	 item 404, weight= 417, color= 0
	 item 405, weight= 417, color= 5
	 item 406, weight= 417, color= 5
	 item 407, weight= 417, color= 7
	 item 408, weight= 417, color= 10
	 item 409, weight= 417, color= 15
	 item 410, weight= 417, color= 17
	 item 411, weight= 418, color= 1
	 item 412, weight= 418, color= 14
	 item 413, weight= 419, color= 1
	 item 414, weight= 420, color= 3
	 item 415, weight= 420, color= 13
	 item 416, weight= 422, color= 12
	 item 417, weight= 426, color= 0
	 item 418, weight= 426, color= 13
	 item 419, weight= 429, color= 3
	 item 420, weight= 429, color= 17
	 item 421, weight= 429, color= 18
	 item 422, weight= 430, color= 19
	 item 423, weight= 431, color= 4
	 item 424, weight= 431, color= 17
	 item 425, weight= 432, color= 0
	 item 426, weight= 432, color= 10
	 item 427, weight= 434, color= 2
	 item 428, weight= 435, color= 12
	 item 429, weight= 436, color= 0
	 item 430, weight= 437, color= 8
	 item 431, weight= 437, color= 9
	 item 432, weight= 437, color= 15
	 item 433, weight= 438, color= 19
	 item 434, weight= 439, color= 16
	 item 435, weight= 440, color= 9
	 item 436, weight= 441, color= 17
	 item 437, weight= 442, color= 0
	 item 438, weight= 444, color= 0
	 item 439, weight= 446, color= 7
	 item 440, weight= 446, color= 15
	 item 441, weight= 447, color= 7
	 item 442, weight= 447, color= 15
	 item 443, weight= 448, color= 8
	 item 444, weight= 449, color= 12
	 item 445, weight= 450, color= 13
	 item 446, weight= 452, color= 0
	 item 447, weight= 453, color= 13
	 item 448, weight= 453, color= 18
	 item 449, weight= 454, color= 4
	 item 450, weight= 454, color= 12
	 item 451, weight= 455, color= 3
	 item 452, weight= 456, color= 2
	 item 453, weight= 457, color= 7
	 item 454, weight= 458, color= 9
	 item 455, weight= 459, color= 3
	 item 456, weight= 459, color= 10
	 item 457, weight= 460, color= 17
	 item 458, weight= 460, color= 18
	 item 459, weight= 461, color= 11
	 item 460, weight= 462, color= 11
	 item 461, weight= 462, color= 16
	 item 462, weight= 463, color= 17
	 item 463, weight= 463, color= 19
	 item 464, weight= 466, color= 15
	 item 465, weight= 467, color= 6
	 item 466, weight= 467, color= 6
	 item 467, weight= 468, color= 9
	 item 468, weight= 469, color= 7
	 item 469, weight= 469, color= 8
	 item 470, weight= 470, color= 6
	 item 471, weight= 471, color= 6
	 item 472, weight= 472, color= 2
	 item 473, weight= 472, color= 3
	 item 474, weight= 472, color= 6
	 item 475, weight= 472, color= 9
	 item 476, weight= 473, color= 17
	 item 477, weight= 474, color= 0
	 item 478, weight= 474, color= 10
	 item 479, weight= 476, color= 15
	 item 480, weight= 477, color= 1
	 item 481, weight= 478, color= 17
	 item 482, weight= 481, color= 0
	 item 483, weight= 481, color= 12
	 item 484, weight= 482, color= 0
	 item 485, weight= 483, color= 0
	 item 486, weight= 484, color= 8
	 item 487, weight= 484, color= 11
	 item 488, weight= 485, color= 10
	 item 489, weight= 485, color= 16
	 item 490, weight= 485, color= 17
	 item 491, weight= 486, color= 5
	 item 492, weight= 488, color= 8
	 item 493, weight= 489, color= 0
	 item 494, weight= 489, color= 10
	 item 495, weight= 490, color= 13
	 item 496, weight= 492, color= 18
	 item 497, weight= 496, color= 1
	 item 498, weight= 497, color= 4
	 item 499, weight= 497, color= 16
	 item 500, weight= 498, color= 5
	 item 501, weight= 498, color= 18

VRPSolver warning: Interval set for resource 1 on source node (when source != sink) is ignored (by definition is [0.0,0.0])
[41m solve [00m
~~~~~~~~~~~~~~~~~~~~~~~~~~~~~~~~~~~~~~~~~~~~~~~~~~~~~~~~~~~~~~~~~~~~~~~~~~~~~~
VRPSolver v0.4.1, 24/03/2021. Web: vrpsolver.math.u-bordeaux.fr
Corresponds to the solver by Pessoa, Sadykov, Uchoa and Vanderbeck (2020)
Paper: dx.doi.org/10.1007/s10107-020-01523-z
USE THIS CODE ONLY FOR ACADEMIC PURPOSES AT YOUR OWN RISK
~~~~~~~~~~~~~~~~~~~~~~~~~~~~~~~~~~~~~~~~~~~~~~~~~~~~~~~~~~~~~~~~~~~~~~~~~~~~~~
BaPCod v053, 24/03/2021, © Inria Bordeaux, France
~~~~~~~~~~~~~~~~~~~~~~~~~~~~~~~~~~~~~~~~~~~~~~~~~~~~~~~~~~~~~~~~~~~~~~~~~~~~~~
VRPSolver parameters:
GlobalTimeLimit = 1800
MaxNbOfBBtreeNodeTreated = 100000
treeSearchStrategy = 1
RCSPstopCutGenTimeThresholdInPricing = 10
RCSPhardTimeThresholdInPricing = 20
RCSPnumberOfBucketsPerVertex = 2000
RCSPdynamicBucketSteps = 0
RCSPuseBidirectionalSearch = 1
RCSPapplyReducedCostFixing = 1
RCSPredCostFixingFalseGap = 0
RCSPmaxNumOfColsPerIteration = 100
RCSPmaxNumOfColsPerExactIteration = 100
RCSPheurLabelingStrategy = 4
StabilizationMinPhaseOfStage = 1
RCSPmaxNumOfLabelsInEnumeration = 100000
RCSPmaxNumOfEnumeratedSolutions = 1000000
RCSPmaxNumOfEnumSolutionsForMIP = 100000
RCSPinitNGneighbourhoodSize = 0
RCSPmaxNGneighbourhoodSize = 0
RCSPrankOneCutsMaxNumPerRound = 100
RCSPrankOneCutsMaxNumRows = -1
RCSPrankOneCutsMemoryType = 2
CutTailingOffThreshold = 0.02
CutTailingOffCounterThreshold = 3
SafeDualBoundScaleFactor = -1
StrongBranchingPhaseOneCandidatesNumber = 100
StrongBranchingPhaseOneTreeSizeEstimRatio = 0.3
StrongBranchingPhaseTwoCandidatesNumber = 1
StrongBranchingPhaseTwoTreeSizeEstimRatio = 0.1
MaxTimeForRestrictedMasterIpHeur = -1
DivingHeurUseDepthLimit = 0
MaxLDSbreadth = 3
MaxLDSdepth = 2
New model incumbent solution 1e+06, TIME = 0h0m0s3t = 3
Model is built TIME = 0h0m2s97t = 297
************************************************************************************************
**** BaB tree root node
**** Local DB = -1e+12, global bounds : [ -1e+12 , 1e+06 ], TIME = 0h0m2s97t = 297
**** 1 open nodes, 0 columns (0 active), 0 dyn. constrs. (0 active), 1004 art. vars. (1004 active)
************************************************************************************************
<DWph=2> <it= 10> <et=5.16> <Mt= 0.01> <Spt= 2.16> <nCl=988> <DB=-1245661241.6861> <Mlp=505200038.5000> <PB=1000000> 
<DWph=2> <it= 20> <et=7.23> <Mt= 0.02> <Spt= 2.05> <nCl=1000> <DB=-1264449939.4639> <Mlp=387000076.5000> <PB=1000000> 
<DWph=2> <it= 30> <et=9.25> <Mt= 0.02> <Spt= 1.99> <nCl=1000> <DB=-1256870480.3336> <Mlp=265460113.3167> <PB=1000000> 
<DWph=2> <it= 40> <et=11.19> <Mt= 0.02> <Spt= 1.91> <nCl=1000> <DB=-1250996841.9221> <Mlp=158660156.3167> <PB=1000000> 
<DWph=2> <it= 50> <et=13.13> <Mt= 0.05> <Spt= 1.89> <nCl=1000> <DB=-1291587247.6849> <Mlp=88791596.5643> <PB=1000000> 
<DWph=2> <it= 60> <et=15.01> <Mt= 0.05> <Spt= 1.82> <nCl=1000> <DB=-1175587210.2369> <Mlp=53918389.7623> <PB=1000000> 
<DWph=2> <it= 70> <et=16.90> <Mt= 0.06> <Spt= 1.83> <nCl=1000> <DB=-1042383491.5329> <Mlp=26378388.9998> <PB=1000000> 
<DWph=2> <it= 80> <et=19.40> <Mt= 0.16> <Spt= 2.33> <nCl=975> <DB=   97.5726> <Mlp=  168.5678> <PB=1000000> 
<DWph=2> <it= 90> <et=21.72> <Mt= 0.46> <Spt= 1.86> <nCl=1000> <DB=  149.7605> <Mlp=  167.2948> <PB=1000000> 
<DWph=2> <it=100> <et=24.21> <Mt= 0.46> <Spt= 2.01> <nCl=1000> <DB=  164.9746> <Mlp=  167.0075> <PB=1000000> 
<DWph=2> <it=104> <et=25.40> <Mt= 0.11> <Spt= 1.03> <nCl=294> <DB=  167.0000> <Mlp=  167.0000> <PB=1000000> 
<DWph=1> <it=105> <et=25.81> <Mt= 0.00> <Spt= 0.40> <nCl=  0> <DB=  167.0000> <Mlp=  167.0000> <PB=1000000> 
<DWph=0> <it=106> <et=26.01> <Mt= 0.00> <Spt= 0.21> <nCl=  0> <DB=  167.0000> <Mlp=  167.0000> <PB=1000000> 
Reduced cost fixing for graph G_1... took 2.2 sec., 532495 buck. arcs remain (58.6% from prev., 24.8% from max.)
Run enumeration... took 0.61 sec. and not succeeded.
ColGenEvalAlg final dual bound: 167 (rounded: 167)
----------- Diving heuristic started -----------
<DWph=2> <it=  1> <et=28.94> <Mt= 0.01> <Spt= 0.00> <nCl=  0> <DB=  167.0000> <Mlp=  167.0000> <PB=1000000> 
<DWph=1> <it=  2> <et=28.95> <Mt= 0.00> <Spt= 0.00> <nCl=  0> <DB=  167.0000> <Mlp=  167.0000> <PB=1000000> 
---- Diving heuristic node with dive number = 0, fix depth = 0 and tabu list size = 0
Fixed projected solution = [x_1_0_1_OspV=1, x_1_189_1_OspV=1, x_1_232_1_OspV=1, x_1_410_1_OspV=1]
<DWph=2> <it=  1> <et=29.02> <Mt= 0.00> <Spt= 0.00> <nCl=  0> <DB=  167.0000> <Mlp=  167.0000> <PB=1000000> 
<DWph=1> <it=  2> <et=29.03> <Mt= 0.00> <Spt= 0.00> <nCl=  0> <DB=  167.0000> <Mlp=  167.0000> <PB=1000000> 
---- Diving heuristic node with dive number = 0, fix depth = 0 and tabu list size = 0
Fixed projected solution = [x_1_0_1_OspV=1, x_1_251_1_OspV=1, x_1_258_1_OspV=1, x_1_364_1_OspV=1]
<DWph=2> <it=  1> <et=29.11> <Mt= 0.00> <Spt= 0.00> <nCl=  0> <DB=  167.0000> <Mlp=  167.0000> <PB=1000000> 
<DWph=1> <it=  2> <et=29.11> <Mt= 0.00> <Spt= 0.00> <nCl=  0> <DB=  167.0000> <Mlp=  167.0000> <PB=1000000> 
---- Diving heuristic node with dive number = 0, fix depth = 0 and tabu list size = 0
Fixed projected solution = [x_1_0_1_OspV=1, x_1_108_1_OspV=1, x_1_328_1_OspV=1, x_1_354_1_OspV=1]
<DWph=2> <it=  1> <et=29.19> <Mt= 0.00> <Spt= 0.00> <nCl=  0> <DB=  167.0000> <Mlp=  167.0000> <PB=1000000> 
<DWph=1> <it=  2> <et=29.19> <Mt= 0.01> <Spt= 0.00> <nCl=  0> <DB=  167.0000> <Mlp=  167.0000> <PB=1000000> 
---- Diving heuristic node with dive number = 0, fix depth = 0 and tabu list size = 0
Fixed projected solution = [x_1_0_1_OspV=1, x_1_267_1_OspV=1, x_1_287_1_OspV=1, x_1_329_1_OspV=1]
<DWph=2> <it=  1> <et=29.27> <Mt= 0.00> <Spt= 0.00> <nCl=  0> <DB=  167.0000> <Mlp=  167.0000> <PB=1000000> 
<DWph=1> <it=  2> <et=29.27> <Mt= 0.00> <Spt= 0.00> <nCl=  0> <DB=  167.0000> <Mlp=  167.0000> <PB=1000000> 
---- Diving heuristic node with dive number = 0, fix depth = 0 and tabu list size = 0
Fixed projected solution = [x_1_0_1_OspV=1, x_1_57_1_OspV=1, x_1_349_1_OspV=1, x_1_352_1_OspV=1]
<DWph=2> <it=  1> <et=29.35> <Mt= 0.00> <Spt= 0.00> <nCl=  0> <DB=  167.0000> <Mlp=  167.0000> <PB=1000000> 
<DWph=1> <it=  2> <et=29.35> <Mt= 0.00> <Spt= 0.00> <nCl=  0> <DB=  167.0000> <Mlp=  167.0000> <PB=1000000> 
---- Diving heuristic node with dive number = 0, fix depth = 0 and tabu list size = 0
Fixed projected solution = [x_1_0_1_OspV=1, x_1_142_1_OspV=1, x_1_331_1_OspV=1, x_1_343_1_OspV=1]
<DWph=2> <it=  1> <et=29.43> <Mt= 0.00> <Spt= 0.00> <nCl=  0> <DB=  167.0000> <Mlp=  167.0000> <PB=1000000> 
<DWph=1> <it=  2> <et=29.43> <Mt= 0.01> <Spt= 0.00> <nCl=  0> <DB=  167.0000> <Mlp=  167.0000> <PB=1000000> 
---- Diving heuristic node with dive number = 0, fix depth = 0 and tabu list size = 0
Fixed projected solution = [x_1_0_1_OspV=1, x_1_11_1_OspV=1, x_1_345_1_OspV=1, x_1_361_1_OspV=1]
<DWph=2> <it=  1> <et=29.51> <Mt= 0.00> <Spt= 0.00> <nCl=  0> <DB=  167.0000> <Mlp=  167.0000> <PB=1000000> 
<DWph=1> <it=  2> <et=29.51> <Mt= 0.00> <Spt= 0.00> <nCl=  0> <DB=  167.0000> <Mlp=  167.0000> <PB=1000000> 
---- Diving heuristic node with dive number = 0, fix depth = 0 and tabu list size = 0
Fixed projected solution = [x_1_0_1_OspV=1, x_1_53_1_OspV=1, x_1_289_1_OspV=1, x_1_406_1_OspV=1]
<DWph=2> <it=  1> <et=29.59> <Mt= 0.00> <Spt= 0.00> <nCl=  0> <DB=  167.0000> <Mlp=  167.0000> <PB=1000000> 
<DWph=1> <it=  2> <et=29.59> <Mt= 0.00> <Spt= 0.00> <nCl=  0> <DB=  167.0000> <Mlp=  167.0000> <PB=1000000> 
---- Diving heuristic node with dive number = 0, fix depth = 1 and tabu list size = 0
Fixed projected solution = [x_1_0_1_OspV=1, x_1_33_1_OspV=1, x_1_230_1_OspV=1, x_1_444_1_OspV=1]
<DWph=2> <it=  1> <et=29.66> <Mt= 0.00> <Spt= 0.00> <nCl=  0> <DB=  167.0000> <Mlp=  167.0000> <PB=1000000> 
<DWph=1> <it=  2> <et=29.66> <Mt= 0.01> <Spt= 0.00> <nCl=  0> <DB=  167.0000> <Mlp=  167.0000> <PB=1000000> 
---- Diving heuristic node with dive number = 0, fix depth = 2 and tabu list size = 0
Fixed projected solution = [x_1_0_1_OspV=1, x_1_55_1_OspV=1, x_1_73_1_OspV=1, x_1_489_1_OspV=1]
<DWph=2> <it=  1> <et=29.74> <Mt= 0.00> <Spt= 0.00> <nCl=  0> <DB=  167.0000> <Mlp=  167.0000> <PB=1000000> 
<DWph=1> <it=  2> <et=29.74> <Mt= 0.00> <Spt= 0.00> <nCl=  0> <DB=  167.0000> <Mlp=  167.0000> <PB=1000000> 
---- Diving heuristic node with dive number = 0, fix depth = 3 and tabu list size = 0
Fixed projected solution = [x_1_0_1_OspV=1, x_1_96_1_OspV=1, x_1_344_1_OspV=1, x_1_347_1_OspV=1]
<DWph=2> <it=  1> <et=29.75> <Mt= 0.01> <Spt= 0.00> <nCl=  0> <DB=  167.0000> <Mlp=  167.0000> <PB=1000000> 
<DWph=1> <it=  2> <et=29.75> <Mt= 0.00> <Spt= 0.00> <nCl=  0> <DB=  167.0000> <Mlp=  167.0000> <PB=1000000> 
---- Diving heuristic node with dive number = 0, fix depth = 4 and tabu list size = 0
Fixed projected solution = [x_1_0_1_OspV=1, x_1_50_1_OspV=1, x_1_340_1_OspV=1, x_1_359_1_OspV=1]
<DWph=2> <it=  1> <et=29.76> <Mt= 0.00> <Spt= 0.00> <nCl=  0> <DB=  167.0000> <Mlp=  167.0000> <PB=1000000> 
<DWph=1> <it=  2> <et=29.76> <Mt= 0.00> <Spt= 0.00> <nCl=  0> <DB=  167.0000> <Mlp=  167.0000> <PB=1000000> 
---- Diving heuristic node with dive number = 0, fix depth = 5 and tabu list size = 0
Fixed projected solution = [x_1_0_1_OspV=1, x_1_192_1_OspV=1, x_1_221_1_OspV=1, x_1_415_1_OspV=1]
<DWph=2> <it=  1> <et=29.77> <Mt= 0.00> <Spt= 0.00> <nCl=  0> <DB=  167.0000> <Mlp=  167.0000> <PB=1000000> 
<DWph=1> <it=  2> <et=29.77> <Mt= 0.00> <Spt= 0.00> <nCl=  0> <DB=  167.0000> <Mlp=  167.0000> <PB=1000000> 
---- Diving heuristic node with dive number = 0, fix depth = 6 and tabu list size = 0
Fixed projected solution = [x_1_0_1_OspV=1, x_1_104_1_OspV=1, x_1_109_1_OspV=1, x_1_476_1_OspV=1]
<DWph=2> <it=  1> <et=29.79> <Mt= 0.02> <Spt= 0.00> <nCl=  0> <DB=  167.0000> <Mlp=  167.0000> <PB=1000000> 
<DWph=1> <it=  2> <et=29.79> <Mt= 0.00> <Spt= 0.00> <nCl=  0> <DB=  167.0000> <Mlp=  167.0000> <PB=1000000> 
---- Diving heuristic node with dive number = 0, fix depth = 7 and tabu list size = 0
Fixed projected solution = [x_1_0_1_OspV=1, x_1_32_1_OspV=1, x_1_256_1_OspV=1, x_1_431_1_OspV=1]
<DWph=2> <it=  1> <et=29.80> <Mt= 0.00> <Spt= 0.00> <nCl=  0> <DB=  167.0000> <Mlp=  167.0000> <PB=1000000> 
<DWph=1> <it=  2> <et=29.80> <Mt= 0.00> <Spt= 0.00> <nCl=  0> <DB=  167.0000> <Mlp=  167.0000> <PB=1000000> 
---- Diving heuristic node with dive number = 0, fix depth = 8 and tabu list size = 0
Fixed projected solution = [x_1_0_1_OspV=1, x_1_119_1_OspV=1, x_1_313_1_OspV=1, x_1_372_1_OspV=1]
<DWph=2> <it=  1> <et=29.82> <Mt= 0.01> <Spt= 0.00> <nCl=  0> <DB=  167.0000> <Mlp=  167.0000> <PB=1000000> 
<DWph=1> <it=  2> <et=29.82> <Mt= 0.00> <Spt= 0.00> <nCl=  0> <DB=  167.0000> <Mlp=  167.0000> <PB=1000000> 
---- Diving heuristic node with dive number = 0, fix depth = 9 and tabu list size = 0
Fixed projected solution = [x_1_0_1_OspV=1, x_1_255_1_OspV=1, x_1_272_1_OspV=1, x_1_353_1_OspV=1]
<DWph=2> <it=  1> <et=29.83> <Mt= 0.01> <Spt= 0.00> <nCl=  0> <DB=  167.0000> <Mlp=  167.0000> <PB=1000000> 
<DWph=1> <it=  2> <et=29.83> <Mt= 0.00> <Spt= 0.00> <nCl=  0> <DB=  167.0000> <Mlp=  167.0000> <PB=1000000> 
---- Diving heuristic node with dive number = 0, fix depth = 10 and tabu list size = 0
Fixed projected solution = [x_1_0_1_OspV=1, x_1_233_1_OspV=1, x_1_242_1_OspV=1, x_1_385_1_OspV=1]
<DWph=2> <it=  1> <et=29.85> <Mt= 0.01> <Spt= 0.00> <nCl=  0> <DB=  167.0000> <Mlp=  167.0000> <PB=1000000> 
<DWph=1> <it=  2> <et=29.85> <Mt= 0.00> <Spt= 0.00> <nCl=  0> <DB=  167.0000> <Mlp=  167.0000> <PB=1000000> 
---- Diving heuristic node with dive number = 0, fix depth = 10 and tabu list size = 0
Fixed projected solution = [x_1_0_1_OspV=1, x_1_185_1_OspV=1, x_1_195_1_OspV=1, x_1_421_1_OspV=1]
<DWph=2> <it=  1> <et=29.86> <Mt= 0.00> <Spt= 0.00> <nCl=  0> <DB=  167.0000> <Mlp=  167.0000> <PB=1000000> 
<DWph=1> <it=  2> <et=29.86> <Mt= 0.01> <Spt= 0.00> <nCl=  0> <DB=  167.0000> <Mlp=  167.0000> <PB=1000000> 
---- Diving heuristic node with dive number = 0, fix depth = 10 and tabu list size = 0
Fixed projected solution = [x_1_0_1_OspV=1, x_1_13_1_OspV=1, x_1_240_1_OspV=1, x_1_441_1_OspV=1]
<DWph=2> <it=  1> <et=29.87> <Mt= 0.00> <Spt= 0.00> <nCl=  0> <DB=  167.0000> <Mlp=  167.0000> <PB=1000000> 
<DWph=1> <it=  2> <et=29.87> <Mt= 0.00> <Spt= 0.00> <nCl=  0> <DB=  167.0000> <Mlp=  167.0000> <PB=1000000> 
---- Diving heuristic node with dive number = 0, fix depth = 11 and tabu list size = 0
Fixed projected solution = [x_1_0_1_OspV=1, x_1_91_1_OspV=1, x_1_100_1_OspV=1, x_1_480_1_OspV=1]
<DWph=2> <it=  1> <et=29.91> <Mt= 0.03> <Spt= 0.00> <nCl=  0> <DB=  167.0000> <Mlp=  167.0000> <PB=1000000> 
<DWph=1> <it=  2> <et=29.91> <Mt= 0.00> <Spt= 0.00> <nCl=  0> <DB=  167.0000> <Mlp=  167.0000> <PB=1000000> 
---- Diving heuristic node with dive number = 0, fix depth = 11 and tabu list size = 0
Fixed projected solution = [x_1_0_1_OspV=1, x_1_75_1_OspV=1, x_1_82_1_OspV=1, x_1_483_1_OspV=1]
<DWph=2> <it=  1> <et=29.91> <Mt= 0.00> <Spt= 0.00> <nCl=  0> <DB=  167.0000> <Mlp=  167.0000> <PB=1000000> 
<DWph=1> <it=  2> <et=29.92> <Mt= 0.00> <Spt= 0.00> <nCl=  0> <DB=  167.0000> <Mlp=  167.0000> <PB=1000000> 
---- Diving heuristic node with dive number = 0, fix depth = 11 and tabu list size = 0
Fixed projected solution = [x_1_0_1_OspV=1, x_1_76_1_OspV=1, x_1_103_1_OspV=1, x_1_481_1_OspV=1]
<DWph=2> <it=  1> <et=29.92> <Mt= 0.01> <Spt= 0.00> <nCl=  0> <DB=  167.0000> <Mlp=  167.0000> <PB=1000000> 
<DWph=1> <it=  2> <et=29.92> <Mt= 0.00> <Spt= 0.00> <nCl=  0> <DB=  167.0000> <Mlp=  167.0000> <PB=1000000> 
---- Diving heuristic node with dive number = 0, fix depth = 11 and tabu list size = 0
Fixed projected solution = [x_1_0_1_OspV=1, x_1_66_1_OspV=1, x_1_122_1_OspV=1, x_1_479_1_OspV=1]
<DWph=2> <it=  1> <et=29.93> <Mt= 0.00> <Spt= 0.00> <nCl=  0> <DB=  167.0000> <Mlp=  167.0000> <PB=1000000> 
<DWph=1> <it=  2> <et=29.93> <Mt= 0.00> <Spt= 0.00> <nCl=  0> <DB=  167.0000> <Mlp=  167.0000> <PB=1000000> 
---- Diving heuristic node with dive number = 0, fix depth = 12 and tabu list size = 0
Fixed projected solution = [x_1_0_1_OspV=1, x_1_121_1_OspV=1, x_1_336_1_OspV=1, x_1_346_1_OspV=1]
<DWph=2> <it=  1> <et=29.95> <Mt= 0.02> <Spt= 0.00> <nCl=  0> <DB=  167.0000> <Mlp=  167.0000> <PB=1000000> 
<DWph=1> <it=  2> <et=29.96> <Mt= 0.00> <Spt= 0.00> <nCl=  0> <DB=  167.0000> <Mlp=  167.0000> <PB=1000000> 
---- Diving heuristic node with dive number = 0, fix depth = 13 and tabu list size = 0
Fixed projected solution = [x_1_0_1_OspV=1, x_1_171_1_OspV=1, x_1_179_1_OspV=1, x_1_434_1_OspV=1]
<DWph=2> <it=  1> <et=29.98> <Mt= 0.01> <Spt= 0.00> <nCl=  0> <DB=  167.0000> <Mlp=  167.0000> <PB=1000000> 
<DWph=1> <it=  2> <et=29.98> <Mt= 0.01> <Spt= 0.00> <nCl=  0> <DB=  167.0000> <Mlp=  167.0000> <PB=1000000> 
---- Diving heuristic node with dive number = 0, fix depth = 14 and tabu list size = 0
Fixed projected solution = [x_1_0_1_OspV=1, x_1_6_1_OspV=1, x_1_301_1_OspV=1, x_1_407_1_OspV=1]
<DWph=2> <it=  1> <et=30.00> <Mt= 0.01> <Spt= 0.00> <nCl=  0> <DB=  167.0000> <Mlp=  167.0000> <PB=1000000> 
<DWph=1> <it=  2> <et=30.00> <Mt= 0.00> <Spt= 0.00> <nCl=  0> <DB=  167.0000> <Mlp=  167.0000> <PB=1000000> 
---- Diving heuristic node with dive number = 0, fix depth = 15 and tabu list size = 0
Fixed projected solution = [x_1_0_1_OspV=1, x_1_36_1_OspV=1, x_1_118_1_OspV=1, x_1_482_1_OspV=1]
<DWph=2> <it=  1> <et=30.02> <Mt= 0.02> <Spt= 0.00> <nCl=  0> <DB=  167.0000> <Mlp=  167.0000> <PB=1000000> 
<DWph=1> <it=  2> <et=30.02> <Mt= 0.00> <Spt= 0.00> <nCl=  0> <DB=  167.0000> <Mlp=  167.0000> <PB=1000000> 
---- Diving heuristic node with dive number = 0, fix depth = 16 and tabu list size = 0
Fixed projected solution = [x_1_0_1_OspV=1, x_1_64_1_OspV=1, x_1_74_1_OspV=1, x_1_486_1_OspV=1]
<DWph=2> <it=  1> <et=30.03> <Mt= 0.00> <Spt= 0.00> <nCl=  0> <DB=  167.0000> <Mlp=  167.0000> <PB=1000000> 
<DWph=1> <it=  2> <et=30.04> <Mt= 0.00> <Spt= 0.00> <nCl=  0> <DB=  167.0000> <Mlp=  167.0000> <PB=1000000> 
---- Diving heuristic node with dive number = 0, fix depth = 17 and tabu list size = 0
Fixed projected solution = [x_1_0_1_OspV=1, x_1_279_1_OspV=1, x_1_280_1_OspV=1, x_1_327_1_OspV=1]
<DWph=2> <it=  1> <et=30.05> <Mt= 0.02> <Spt= 0.00> <nCl=  0> <DB=  167.0000> <Mlp=  167.0000> <PB=1000000> 
<DWph=1> <it=  2> <et=30.06> <Mt= 0.00> <Spt= 0.00> <nCl=  0> <DB=  167.0000> <Mlp=  167.0000> <PB=1000000> 
---- Diving heuristic node with dive number = 0, fix depth = 17 and tabu list size = 0
Fixed projected solution = [x_1_0_1_OspV=1, x_1_54_1_OspV=1, x_1_341_1_OspV=1, x_1_356_1_OspV=1]
<DWph=2> <it=  1> <et=30.06> <Mt= 0.00> <Spt= 0.00> <nCl=  0> <DB=  167.0000> <Mlp=  167.0000> <PB=1000000> 
<DWph=1> <it=  2> <et=30.06> <Mt= 0.00> <Spt= 0.00> <nCl=  0> <DB=  167.0000> <Mlp=  167.0000> <PB=1000000> 
---- Diving heuristic node with dive number = 0, fix depth = 18 and tabu list size = 0
Fixed projected solution = [x_1_0_1_OspV=1, x_1_262_1_OspV=1, x_1_278_1_OspV=1, x_1_342_1_OspV=1]
<DWph=2> <it=  1> <et=30.08> <Mt= 0.01> <Spt= 0.00> <nCl=  0> <DB=  167.0000> <Mlp=  167.0000> <PB=1000000> 
<DWph=1> <it=  2> <et=30.08> <Mt= 0.00> <Spt= 0.00> <nCl=  0> <DB=  167.0000> <Mlp=  167.0000> <PB=1000000> 
---- Diving heuristic node with dive number = 0, fix depth = 19 and tabu list size = 0
Fixed projected solution = [x_1_0_1_OspV=1, x_1_161_1_OspV=1, x_1_190_1_OspV=1, x_1_433_1_OspV=1]
<DWph=2> <it=  1> <et=30.09> <Mt= 0.01> <Spt= 0.00> <nCl=  0> <DB=  167.0000> <Mlp=  167.0000> <PB=1000000> 
<DWph=1> <it=  2> <et=30.10> <Mt= 0.00> <Spt= 0.00> <nCl=  0> <DB=  167.0000> <Mlp=  167.0000> <PB=1000000> 
---- Diving heuristic node with dive number = 0, fix depth = 20 and tabu list size = 0
Fixed projected solution = [x_1_0_1_OspV=1, x_1_7_1_OspV=1, x_1_300_1_OspV=1, x_1_404_1_OspV=1]
<DWph=2> <it=  1> <et=30.11> <Mt= 0.01> <Spt= 0.00> <nCl=  0> <DB=  167.0000> <Mlp=  167.0000> <PB=1000000> 
<DWph=1> <it=  2> <et=30.12> <Mt= 0.00> <Spt= 0.00> <nCl=  0> <DB=  167.0000> <Mlp=  167.0000> <PB=1000000> 
---- Diving heuristic node with dive number = 0, fix depth = 21 and tabu list size = 0
Fixed projected solution = [x_1_0_1_OspV=1, x_1_24_1_OspV=1, x_1_198_1_OspV=1, x_1_458_1_OspV=1]
<DWph=2> <it=  1> <et=30.14> <Mt= 0.02> <Spt= 0.00> <nCl=  0> <DB=  167.0000> <Mlp=  167.0000> <PB=1000000> 
<DWph=1> <it=  2> <et=30.14> <Mt= 0.00> <Spt= 0.00> <nCl=  0> <DB=  167.0000> <Mlp=  167.0000> <PB=1000000> 
---- Diving heuristic node with dive number = 0, fix depth = 22 and tabu list size = 0
Fixed projected solution = [x_1_0_1_OspV=1, x_1_115_1_OspV=1, x_1_124_1_OspV=1, x_1_467_1_OspV=1]
<DWph=2> <it=  1> <et=30.18> <Mt= 0.03> <Spt= 0.00> <nCl=  0> <DB=  167.0000> <Mlp=  167.0000> <PB=1000000> 
<DWph=1> <it=  2> <et=30.18> <Mt= 0.01> <Spt= 0.00> <nCl=  0> <DB=  167.0000> <Mlp=  167.0000> <PB=1000000> 
---- Diving heuristic node with dive number = 0, fix depth = 23 and tabu list size = 0
Fixed projected solution = [x_1_0_1_OspV=1, x_1_106_1_OspV=1, x_1_123_1_OspV=1, x_1_470_1_OspV=1]
<DWph=2> <it=  1> <et=30.19> <Mt= 0.00> <Spt= 0.00> <nCl=  0> <DB=  167.0000> <Mlp=  167.0000> <PB=1000000> 
<DWph=1> <it=  2> <et=30.19> <Mt= 0.00> <Spt= 0.00> <nCl=  0> <DB=  167.0000> <Mlp=  167.0000> <PB=1000000> 
---- Diving heuristic node with dive number = 0, fix depth = 24 and tabu list size = 0
Fixed projected solution = [x_1_0_1_OspV=1, x_1_4_1_OspV=1, x_1_20_1_OspV=1, x_1_500_1_OspV=1]
<DWph=2> <it=  1> <et=30.21> <Mt= 0.02> <Spt= 0.00> <nCl=  0> <DB=  167.0000> <Mlp=  167.0000> <PB=1000000> 
<DWph=1> <it=  2> <et=30.22> <Mt= 0.00> <Spt= 0.00> <nCl=  0> <DB=  167.0000> <Mlp=  167.0000> <PB=1000000> 
---- Diving heuristic node with dive number = 0, fix depth = 25 and tabu list size = 0
Fixed projected solution = [x_1_0_1_OspV=1, x_1_128_1_OspV=1, x_1_316_1_OspV=1, x_1_363_1_OspV=1]
<DWph=2> <it=  1> <et=30.24> <Mt= 0.02> <Spt= 0.00> <nCl=  0> <DB=  167.0000> <Mlp=  167.0000> <PB=1000000> 
<DWph=1> <it=  2> <et=30.24> <Mt= 0.00> <Spt= 0.00> <nCl=  0> <DB=  167.0000> <Mlp=  167.0000> <PB=1000000> 
---- Diving heuristic node with dive number = 0, fix depth = 26 and tabu list size = 0
Fixed projected solution = [x_1_0_1_OspV=1, x_1_120_1_OspV=1, x_1_276_1_OspV=1, x_1_403_1_OspV=1]
<DWph=2> <it=  1> <et=30.28> <Mt= 0.04> <Spt= 0.00> <nCl=  0> <DB=  167.0000> <Mlp=  167.0000> <PB=1000000> 
<DWph=1> <it=  2> <et=30.29> <Mt= 0.00> <Spt= 0.00> <nCl=  0> <DB=  167.0000> <Mlp=  167.0000> <PB=1000000> 
---- Diving heuristic node with dive number = 0, fix depth = 27 and tabu list size = 0
Fixed projected solution = [x_1_0_1_OspV=1, x_1_94_1_OspV=1, x_1_335_1_OspV=1, x_1_355_1_OspV=1]
<DWph=2> <it=  1> <et=30.34> <Mt= 0.05> <Spt= 0.00> <nCl=  0> <DB=  167.0000> <Mlp=  167.0000> <PB=1000000> 
<DWph=1> <it=  2> <et=30.34> <Mt= 0.00> <Spt= 0.00> <nCl=  0> <DB=  167.0000> <Mlp=  167.0000> <PB=1000000> 
---- Diving heuristic node with dive number = 0, fix depth = 28 and tabu list size = 0
Fixed projected solution = [x_1_0_1_OspV=1, x_1_59_1_OspV=1, x_1_296_1_OspV=1, x_1_396_1_OspV=1]
<DWph=2> <it=  1> <et=30.36> <Mt= 0.01> <Spt= 0.00> <nCl=  0> <DB=  167.0000> <Mlp=  167.0000> <PB=1000000> 
<DWph=1> <it=  2> <et=30.36> <Mt= 0.01> <Spt= 0.00> <nCl=  0> <DB=  167.0000> <Mlp=  167.0000> <PB=1000000> 
---- Diving heuristic node with dive number = 0, fix depth = 29 and tabu list size = 0
Fixed projected solution = [x_1_0_1_OspV=1, x_1_63_1_OspV=1, x_1_227_1_OspV=1, x_1_439_1_OspV=1]
<DWph=2> <it=  1> <et=30.40> <Mt= 0.03> <Spt= 0.00> <nCl=  0> <DB=  167.0000> <Mlp=  167.0000> <PB=1000000> 
<DWph=1> <it=  2> <et=30.41> <Mt= 0.00> <Spt= 0.00> <nCl=  0> <DB=  167.0000> <Mlp=  167.0000> <PB=1000000> 
---- Diving heuristic node with dive number = 0, fix depth = 30 and tabu list size = 0
Fixed projected solution = [x_1_0_1_OspV=1, x_1_116_1_OspV=1, x_1_130_1_OspV=1, x_1_466_1_OspV=1]
<DWph=2> <it=  2> <et=30.79> <Mt= 0.08> <Spt= 0.30> <nCl=100> <DB=  166.2911> <Mlp=  167.0000> <PB=1000000> 
<DWph=1> <it=  3> <et=30.80> <Mt= 0.00> <Spt= 0.00> <nCl=  0> <DB=  167.0000> <Mlp=  167.0000> <PB=1000000> 
---- Diving heuristic node with dive number = 0, fix depth = 31 and tabu list size = 0
Fixed projected solution = [x_1_0_1_OspV=1, x_1_145_1_OspV=1, x_1_149_1_OspV=1, x_1_448_1_OspV=1]
<DWph=2> <it=  1> <et=30.82> <Mt= 0.01> <Spt= 0.00> <nCl=  0> <DB=  167.0000> <Mlp=  167.0000> <PB=1000000> 
<DWph=1> <it=  2> <et=30.82> <Mt= 0.00> <Spt= 0.00> <nCl=  0> <DB=  167.0000> <Mlp=  167.0000> <PB=1000000> 
---- Diving heuristic node with dive number = 0, fix depth = 32 and tabu list size = 0
Fixed projected solution = [x_1_0_1_OspV=1, x_1_15_1_OspV=1, x_1_306_1_OspV=1, x_1_397_1_OspV=1]
<DWph=2> <it=  1> <et=30.83> <Mt= 0.01> <Spt= 0.00> <nCl=  0> <DB=  167.0000> <Mlp=  167.0000> <PB=1000000> 
<DWph=1> <it=  2> <et=30.83> <Mt= 0.00> <Spt= 0.00> <nCl=  0> <DB=  167.0000> <Mlp=  167.0000> <PB=1000000> 
---- Diving heuristic node with dive number = 0, fix depth = 33 and tabu list size = 0
Fixed projected solution = [x_1_0_1_OspV=1, x_1_188_1_OspV=1, x_1_209_1_OspV=1, x_1_418_1_OspV=1]
<DWph=2> <it=  1> <et=30.85> <Mt= 0.01> <Spt= 0.00> <nCl=  0> <DB=  167.0000> <Mlp=  167.0000> <PB=1000000> 
<DWph=1> <it=  2> <et=30.85> <Mt= 0.00> <Spt= 0.00> <nCl=  0> <DB=  167.0000> <Mlp=  167.0000> <PB=1000000> 
---- Diving heuristic node with dive number = 0, fix depth = 34 and tabu list size = 0
Fixed projected solution = [x_1_0_1_OspV=1, x_1_25_1_OspV=1, x_1_169_1_OspV=1, x_1_468_1_OspV=1]
<DWph=2> <it=  1> <et=30.88> <Mt= 0.03> <Spt= 0.00> <nCl=  0> <DB=  167.0000> <Mlp=  167.0000> <PB=1000000> 
<DWph=1> <it=  2> <et=30.88> <Mt= 0.00> <Spt= 0.00> <nCl=  0> <DB=  167.0000> <Mlp=  167.0000> <PB=1000000> 
---- Diving heuristic node with dive number = 0, fix depth = 35 and tabu list size = 0
Fixed projected solution = [x_1_0_1_OspV=1, x_1_86_1_OspV=1, x_1_137_1_OspV=1, x_1_469_1_OspV=1]
<DWph=2> <it=  1> <et=30.92> <Mt= 0.03> <Spt= 0.00> <nCl=  0> <DB=  167.0000> <Mlp=  167.0000> <PB=1000000> 
<DWph=1> <it=  2> <et=30.92> <Mt= 0.00> <Spt= 0.00> <nCl=  0> <DB=  167.0000> <Mlp=  167.0000> <PB=1000000> 
---- Diving heuristic node with dive number = 0, fix depth = 35 and tabu list size = 0
Fixed projected solution = [x_1_0_1_OspV=1, x_1_95_1_OspV=1, x_1_252_1_OspV=1, x_1_426_1_OspV=1]
<DWph=2> <it=  1> <et=30.93> <Mt= 0.01> <Spt= 0.00> <nCl=  0> <DB=  167.0000> <Mlp=  167.0000> <PB=1000000> 
<DWph=1> <it=  2> <et=30.93> <Mt= 0.00> <Spt= 0.00> <nCl=  0> <DB=  167.0000> <Mlp=  167.0000> <PB=1000000> 
---- Diving heuristic node with dive number = 0, fix depth = 36 and tabu list size = 0
Fixed projected solution = [x_1_0_1_OspV=1, x_1_98_1_OspV=1, x_1_286_1_OspV=1, x_1_401_1_OspV=1]
<DWph=2> <it=  1> <et=30.97> <Mt= 0.03> <Spt= 0.00> <nCl=  0> <DB=  167.0000> <Mlp=  167.0000> <PB=1000000> 
<DWph=1> <it=  2> <et=30.97> <Mt= 0.00> <Spt= 0.00> <nCl=  0> <DB=  167.0000> <Mlp=  167.0000> <PB=1000000> 
---- Diving heuristic node with dive number = 0, fix depth = 36 and tabu list size = 0
Fixed projected solution = [x_1_0_1_OspV=1, x_1_80_1_OspV=1, x_1_175_1_OspV=1, x_1_457_1_OspV=1]
<DWph=2> <it=  1> <et=30.98> <Mt= 0.00> <Spt= 0.00> <nCl=  0> <DB=  167.0000> <Mlp=  167.0000> <PB=1000000> 
<DWph=1> <it=  2> <et=30.98> <Mt= 0.00> <Spt= 0.00> <nCl=  0> <DB=  167.0000> <Mlp=  167.0000> <PB=1000000> 
---- Diving heuristic node with dive number = 0, fix depth = 37 and tabu list size = 0
Fixed projected solution = [x_1_0_1_OspV=1, x_1_205_1_OspV=1, x_1_217_1_OspV=1, x_1_408_1_OspV=1]
<DWph=2> <it=  1> <et=31.02> <Mt= 0.03> <Spt= 0.00> <nCl=  0> <DB=  167.0000> <Mlp=  167.0000> <PB=1000000> 
<DWph=1> <it=  2> <et=31.02> <Mt= 0.00> <Spt= 0.00> <nCl=  0> <DB=  167.0000> <Mlp=  167.0000> <PB=1000000> 
---- Diving heuristic node with dive number = 0, fix depth = 38 and tabu list size = 0
Fixed projected solution = [x_1_0_1_OspV=1, x_1_264_1_OspV=1, x_1_269_1_OspV=1, x_1_350_1_OspV=1]
<DWph=2> <it=  1> <et=31.08> <Mt= 0.06> <Spt= 0.00> <nCl=  0> <DB=  167.0000> <Mlp=  167.0000> <PB=1000000> 
<DWph=1> <it=  2> <et=31.08> <Mt= 0.00> <Spt= 0.00> <nCl=  0> <DB=  167.0000> <Mlp=  167.0000> <PB=1000000> 
---- Diving heuristic node with dive number = 0, fix depth = 39 and tabu list size = 0
Fixed projected solution = [x_1_0_1_OspV=1, x_1_160_1_OspV=1, x_1_178_1_OspV=1, x_1_436_1_OspV=1]
<DWph=2> <it=  2> <et=31.35> <Mt= 0.07> <Spt= 0.20> <nCl=100> <DB=  166.5927> <Mlp=  167.0000> <PB=1000000> 
<DWph=1> <it=  3> <et=31.36> <Mt= 0.00> <Spt= 0.00> <nCl=  0> <DB=  167.0000> <Mlp=  167.0000> <PB=1000000> 
---- Diving heuristic node with dive number = 0, fix depth = 39 and tabu list size = 0
Fixed projected solution = [x_1_0_1_OspV=1, x_1_156_1_OspV=1, x_1_184_1_OspV=1, x_1_435_1_OspV=1]
<DWph=2> <it=  1> <et=31.37> <Mt= 0.00> <Spt= 0.00> <nCl=  0> <DB=  167.0000> <Mlp=  167.0000> <PB=1000000> 
<DWph=1> <it=  2> <et=31.37> <Mt= 0.00> <Spt= 0.00> <nCl=  0> <DB=  167.0000> <Mlp=  167.0000> <PB=1000000> 
---- Diving heuristic node with dive number = 0, fix depth = 40 and tabu list size = 0
Fixed projected solution = [x_1_0_1_OspV=1, x_1_29_1_OspV=1, x_1_309_1_OspV=1, x_1_393_1_OspV=1]
<DWph=2> <it=  1> <et=31.43> <Mt= 0.06> <Spt= 0.00> <nCl=  0> <DB=  167.0000> <Mlp=  167.0000> <PB=1000000> 
<DWph=1> <it=  2> <et=31.44> <Mt= 0.00> <Spt= 0.00> <nCl=  0> <DB=  167.0000> <Mlp=  167.0000> <PB=1000000> 
---- Diving heuristic node with dive number = 0, fix depth = 41 and tabu list size = 0
Fixed projected solution = [x_1_0_1_OspV=1, x_1_117_1_OspV=1, x_1_140_1_OspV=1, x_1_462_1_OspV=1]
<DWph=2> <it=  1> <et=31.47> <Mt= 0.03> <Spt= 0.00> <nCl=  0> <DB=  167.0000> <Mlp=  167.0000> <PB=1000000> 
<DWph=1> <it=  2> <et=31.47> <Mt= 0.01> <Spt= 0.00> <nCl=  0> <DB=  167.0000> <Mlp=  167.0000> <PB=1000000> 
---- Diving heuristic node with dive number = 0, fix depth = 41 and tabu list size = 0
Fixed projected solution = [x_1_0_1_OspV=1, x_1_39_1_OspV=1, x_1_58_1_OspV=1, x_1_494_1_OspV=1]
<DWph=2> <it=  1> <et=31.48> <Mt= 0.00> <Spt= 0.00> <nCl=  0> <DB=  167.0000> <Mlp=  167.0000> <PB=1000000> 
<DWph=1> <it=  2> <et=31.48> <Mt= 0.00> <Spt= 0.00> <nCl=  0> <DB=  167.0000> <Mlp=  167.0000> <PB=1000000> 
---- Diving heuristic node with dive number = 0, fix depth = 42 and tabu list size = 0
Fixed projected solution = [x_1_0_1_OspV=1, x_1_48_1_OspV=1, x_1_268_1_OspV=1, x_1_423_1_OspV=1]
<DWph=2> <it=  1> <et=31.53> <Mt= 0.04> <Spt= 0.00> <nCl=  0> <DB=  167.0000> <Mlp=  167.0000> <PB=1000000> 
<DWph=1> <it=  2> <et=31.53> <Mt= 0.00> <Spt= 0.00> <nCl=  0> <DB=  167.0000> <Mlp=  167.0000> <PB=1000000> 
---- Diving heuristic node with dive number = 0, fix depth = 42 and tabu list size = 0
Fixed projected solution = [x_1_0_1_OspV=1, x_1_42_1_OspV=1, x_1_89_1_OspV=1, x_1_490_1_OspV=1]
<DWph=2> <it=  1> <et=31.54> <Mt= 0.01> <Spt= 0.00> <nCl=  0> <DB=  167.0000> <Mlp=  167.0000> <PB=1000000> 
<DWph=1> <it=  2> <et=31.54> <Mt= 0.00> <Spt= 0.00> <nCl=  0> <DB=  167.0000> <Mlp=  167.0000> <PB=1000000> 
---- Diving heuristic node with dive number = 0, fix depth = 42 and tabu list size = 0
Fixed projected solution = [x_1_0_1_OspV=1, x_1_61_1_OspV=1, x_1_339_1_OspV=1, x_1_357_1_OspV=1]
<DWph=2> <it=  1> <et=31.55> <Mt= 0.00> <Spt= 0.00> <nCl=  0> <DB=  167.0000> <Mlp=  167.0000> <PB=1000000> 
<DWph=1> <it=  2> <et=31.55> <Mt= 0.00> <Spt= 0.00> <nCl=  0> <DB=  167.0000> <Mlp=  167.0000> <PB=1000000> 
---- Diving heuristic node with dive number = 0, fix depth = 43 and tabu list size = 0
Fixed projected solution = [x_1_0_1_OspV=1, x_1_69_1_OspV=1, x_1_129_1_OspV=1, x_1_478_1_OspV=1]
<DWph=2> <it=  2> <et=31.89> <Mt= 0.14> <Spt= 0.20> <nCl=100> <DB=  163.5733> <Mlp=  167.0000> <PB=1000000> 
<DWph=1> <it=  3> <et=31.90> <Mt= 0.00> <Spt= 0.00> <nCl=  0> <DB=  167.0000> <Mlp=  167.0000> <PB=1000000> 
---- Diving heuristic node with dive number = 0, fix depth = 44 and tabu list size = 0
Fixed projected solution = [x_1_0_1_OspV=1, x_1_44_1_OspV=1, x_1_102_1_OspV=1, x_1_485_1_OspV=1]
<DWph=2> <it=  1> <et=31.94> <Mt= 0.03> <Spt= 0.00> <nCl=  0> <DB=  167.0000> <Mlp=  167.0000> <PB=1000000> 
<DWph=1> <it=  2> <et=31.94> <Mt= 0.00> <Spt= 0.00> <nCl=  0> <DB=  167.0000> <Mlp=  167.0000> <PB=1000000> 
---- Diving heuristic node with dive number = 0, fix depth = 45 and tabu list size = 0
Fixed projected solution = [x_1_0_1_OspV=1, x_1_222_1_OspV=1, x_1_231_1_OspV=1, x_1_395_1_OspV=1]
<DWph=2> <it=  1> <et=31.99> <Mt= 0.05> <Spt= 0.00> <nCl=  0> <DB=  167.0000> <Mlp=  167.0000> <PB=1000000> 
<DWph=1> <it=  2> <et=31.99> <Mt= 0.00> <Spt= 0.00> <nCl=  0> <DB=  167.0000> <Mlp=  167.0000> <PB=1000000> 
---- Diving heuristic node with dive number = 0, fix depth = 46 and tabu list size = 0
Fixed projected solution = [x_1_0_1_OspV=1, x_1_5_1_OspV=1, x_1_307_1_OspV=1, x_1_398_1_OspV=1]
<DWph=2> <it=  1> <et=32.04> <Mt= 0.04> <Spt= 0.00> <nCl=  0> <DB=  167.0000> <Mlp=  167.0000> <PB=1000000> 
<DWph=1> <it=  2> <et=32.04> <Mt= 0.01> <Spt= 0.00> <nCl=  0> <DB=  167.0000> <Mlp=  167.0000> <PB=1000000> 
---- Diving heuristic node with dive number = 0, fix depth = 47 and tabu list size = 0
Fixed projected solution = [x_1_0_1_OspV=1, x_1_249_1_OspV=1, x_1_250_1_OspV=1, x_1_375_1_OspV=1]
<DWph=2> <it=  3> <et=32.54> <Mt= 0.09> <Spt= 0.40> <nCl=200> <DB=  166.5464> <Mlp=  167.0000> <PB=1000000> 
<DWph=1> <it=  4> <et=32.55> <Mt= 0.00> <Spt= 0.00> <nCl=  0> <DB=  167.0000> <Mlp=  167.0000> <PB=1000000> 
---- Diving heuristic node with dive number = 0, fix depth = 48 and tabu list size = 0
Fixed projected solution = [x_1_0_1_OspV=1, x_1_107_1_OspV=1, x_1_275_1_OspV=1, x_1_412_1_OspV=1]
<DWph=2> <it=  2> <et=32.85> <Mt= 0.09> <Spt= 0.20> <nCl=100> <DB=  166.7232> <Mlp=  167.0000> <PB=1000000> 
<DWph=1> <it=  3> <et=32.85> <Mt= 0.00> <Spt= 0.00> <nCl=  0> <DB=  167.0000> <Mlp=  167.0000> <PB=1000000> 
---- Diving heuristic node with dive number = 0, fix depth = 49 and tabu list size = 0
Fixed projected solution = [x_1_0_1_OspV=1, x_1_97_1_OspV=1, x_1_158_1_OspV=1, x_1_460_1_OspV=1]
<DWph=2> <it=  1> <et=32.91> <Mt= 0.05> <Spt= 0.00> <nCl=  0> <DB=  167.0000> <Mlp=  167.0000> <PB=1000000> 
<DWph=1> <it=  2> <et=32.91> <Mt= 0.00> <Spt= 0.00> <nCl=  0> <DB=  167.0000> <Mlp=  167.0000> <PB=1000000> 
---- Diving heuristic node with dive number = 0, fix depth = 50 and tabu list size = 0
Fixed projected solution = [x_1_0_1_OspV=1, x_1_21_1_OspV=1, x_1_332_1_OspV=1, x_1_376_1_OspV=1]
<DWph=2> <it=  2> <et=33.19> <Mt= 0.08> <Spt= 0.20> <nCl=100> <DB=  166.8163> <Mlp=  167.0000> <PB=1000000> 
<DWph=1> <it=  3> <et=33.20> <Mt= 0.00> <Spt= 0.00> <nCl=  0> <DB=  167.0000> <Mlp=  167.0000> <PB=1000000> 
---- Diving heuristic node with dive number = 0, fix depth = 51 and tabu list size = 0
Fixed projected solution = [x_1_0_1_OspV=1, x_1_40_1_OspV=1, x_1_274_1_OspV=1, x_1_420_1_OspV=1]
<DWph=2> <it=  1> <et=33.22> <Mt= 0.02> <Spt= 0.00> <nCl=  0> <DB=  167.0000> <Mlp=  167.0000> <PB=1000000> 
<DWph=1> <it=  2> <et=33.23> <Mt= 0.00> <Spt= 0.00> <nCl=  0> <DB=  167.0000> <Mlp=  167.0000> <PB=1000000> 
---- Diving heuristic node with dive number = 0, fix depth = 52 and tabu list size = 0
Fixed projected solution = [x_1_0_1_OspV=1, x_1_212_1_OspV=1, x_1_223_1_OspV=1, x_1_400_1_OspV=1]
<DWph=2> <it=  1> <et=33.27> <Mt= 0.04> <Spt= 0.00> <nCl=  0> <DB=  167.0000> <Mlp=  167.0000> <PB=1000000> 
<DWph=1> <it=  2> <et=33.27> <Mt= 0.00> <Spt= 0.00> <nCl=  0> <DB=  167.0000> <Mlp=  167.0000> <PB=1000000> 
---- Diving heuristic node with dive number = 0, fix depth = 53 and tabu list size = 0
Fixed projected solution = [x_1_0_1_OspV=1, x_1_87_1_OspV=1, x_1_144_1_OspV=1, x_1_465_1_OspV=1]
<DWph=2> <it=  1> <et=33.36> <Mt= 0.08> <Spt= 0.00> <nCl=  0> <DB=  167.0000> <Mlp=  167.0000> <PB=1000000> 
<DWph=1> <it=  2> <et=33.36> <Mt= 0.00> <Spt= 0.00> <nCl=  0> <DB=  167.0000> <Mlp=  167.0000> <PB=1000000> 
---- Diving heuristic node with dive number = 0, fix depth = 53 and tabu list size = 0
Fixed projected solution = [x_1_0_1_OspV=1, x_1_162_1_OspV=1, x_1_193_1_OspV=1, x_1_432_1_OspV=1]
<DWph=2> <it=  1> <et=33.37> <Mt= 0.01> <Spt= 0.00> <nCl=  0> <DB=  167.0000> <Mlp=  167.0000> <PB=1000000> 
<DWph=1> <it=  2> <et=33.37> <Mt= 0.00> <Spt= 0.00> <nCl=  0> <DB=  167.0000> <Mlp=  167.0000> <PB=1000000> 
---- Diving heuristic node with dive number = 0, fix depth = 53 and tabu list size = 0
Fixed projected solution = [x_1_0_1_OspV=1, x_1_176_1_OspV=1, x_1_182_1_OspV=1, x_1_430_1_OspV=1]
<DWph=2> <it=  1> <et=33.38> <Mt= 0.00> <Spt= 0.00> <nCl=  0> <DB=  167.0000> <Mlp=  167.0000> <PB=1000000> 
<DWph=1> <it=  2> <et=33.38> <Mt= 0.00> <Spt= 0.00> <nCl=  0> <DB=  167.0000> <Mlp=  167.0000> <PB=1000000> 
---- Diving heuristic node with dive number = 0, fix depth = 53 and tabu list size = 0
Fixed projected solution = [x_1_0_1_OspV=1, x_1_93_1_OspV=1, x_1_326_1_OspV=1, x_1_367_1_OspV=1]
<DWph=2> <it=  1> <et=33.39> <Mt= 0.00> <Spt= 0.00> <nCl=  0> <DB=  167.0000> <Mlp=  167.0000> <PB=1000000> 
<DWph=1> <it=  2> <et=33.39> <Mt= 0.00> <Spt= 0.00> <nCl=  0> <DB=  167.0000> <Mlp=  167.0000> <PB=1000000> 
---- Diving heuristic node with dive number = 0, fix depth = 54 and tabu list size = 0
Fixed projected solution = [x_1_0_1_OspV=1, x_1_12_1_OspV=1, x_1_314_1_OspV=1, x_1_386_1_OspV=1]
<DWph=2> <it=  1> <et=33.40> <Mt= 0.01> <Spt= 0.00> <nCl=  0> <DB=  167.0000> <Mlp=  167.0000> <PB=1000000> 
<DWph=1> <it=  2> <et=33.41> <Mt= 0.00> <Spt= 0.00> <nCl=  0> <DB=  167.0000> <Mlp=  167.0000> <PB=1000000> 
---- Diving heuristic node with dive number = 0, fix depth = 55 and tabu list size = 0
Fixed projected solution = [x_1_0_1_OspV=1, x_1_78_1_OspV=1, x_1_131_1_OspV=1, x_1_474_1_OspV=1]
<DWph=2> <it=  1> <et=33.46> <Mt= 0.05> <Spt= 0.00> <nCl=  0> <DB=  167.0000> <Mlp=  167.0000> <PB=1000000> 
<DWph=1> <it=  2> <et=33.46> <Mt= 0.00> <Spt= 0.00> <nCl=  0> <DB=  167.0000> <Mlp=  167.0000> <PB=1000000> 
---- Diving heuristic node with dive number = 0, fix depth = 56 and tabu list size = 0
Fixed projected solution = [x_1_0_1_OspV=1, x_1_84_1_OspV=1, x_1_323_1_OspV=1, x_1_371_1_OspV=1]
<DWph=2> <it=  1> <et=33.49> <Mt= 0.02> <Spt= 0.00> <nCl=  0> <DB=  167.0000> <Mlp=  167.0000> <PB=1000000> 
<DWph=1> <it=  2> <et=33.49> <Mt= 0.00> <Spt= 0.00> <nCl=  0> <DB=  167.0000> <Mlp=  167.0000> <PB=1000000> 
---- Diving heuristic node with dive number = 0, fix depth = 57 and tabu list size = 0
Fixed projected solution = [x_1_0_1_OspV=1, x_1_208_1_OspV=1, x_1_211_1_OspV=1, x_1_413_1_OspV=1]
<DWph=2> <it=  1> <et=33.53> <Mt= 0.04> <Spt= 0.00> <nCl=  0> <DB=  167.0000> <Mlp=  167.0000> <PB=1000000> 
<DWph=1> <it=  2> <et=33.53> <Mt= 0.00> <Spt= 0.00> <nCl=  0> <DB=  167.0000> <Mlp=  167.0000> <PB=1000000> 
---- Diving heuristic node with dive number = 0, fix depth = 58 and tabu list size = 0
Fixed projected solution = [x_1_0_1_OspV=1, x_1_199_1_OspV=1, x_1_214_1_OspV=1, x_1_414_1_OspV=1]
<DWph=2> <it=  1> <et=33.59> <Mt= 0.06> <Spt= 0.00> <nCl=  0> <DB=  167.0000> <Mlp=  167.0000> <PB=1000000> 
<DWph=1> <it=  2> <et=33.59> <Mt= 0.00> <Spt= 0.00> <nCl=  0> <DB=  167.0000> <Mlp=  167.0000> <PB=1000000> 
---- Diving heuristic node with dive number = 0, fix depth = 59 and tabu list size = 0
Fixed projected solution = [x_1_0_1_OspV=1, x_1_62_1_OspV=1, x_1_200_1_OspV=1, x_1_451_1_OspV=1]
<DWph=2> <it=  1> <et=33.62> <Mt= 0.02> <Spt= 0.00> <nCl=  0> <DB=  167.0000> <Mlp=  167.0000> <PB=1000000> 
<DWph=1> <it=  2> <et=33.62> <Mt= 0.00> <Spt= 0.00> <nCl=  0> <DB=  167.0000> <Mlp=  167.0000> <PB=1000000> 
---- Diving heuristic node with dive number = 0, fix depth = 59 and tabu list size = 0
Fixed projected solution = [x_1_0_1_OspV=1, x_1_203_1_OspV=1, x_1_321_1_OspV=1, x_1_324_1_OspV=1]
<DWph=2> <it=  1> <et=33.63> <Mt= 0.00> <Spt= 0.00> <nCl=  0> <DB=  167.0000> <Mlp=  167.0000> <PB=1000000> 
<DWph=1> <it=  2> <et=33.63> <Mt= 0.00> <Spt= 0.00> <nCl=  0> <DB=  167.0000> <Mlp=  167.0000> <PB=1000000> 
---- Diving heuristic node with dive number = 0, fix depth = 60 and tabu list size = 0
Fixed projected solution = [x_1_0_1_OspV=1, x_1_49_1_OspV=1, x_1_52_1_OspV=1, x_1_493_1_OspV=1]
<DWph=2> <it=  2> <et=33.94> <Mt= 0.10> <Spt= 0.20> <nCl=100> <DB=  166.6166> <Mlp=  167.0000> <PB=1000000> 
<DWph=1> <it=  3> <et=33.94> <Mt= 0.00> <Spt= 0.00> <nCl=  0> <DB=  167.0000> <Mlp=  167.0000> <PB=1000000> 
---- Diving heuristic node with dive number = 0, fix depth = 61 and tabu list size = 0
Fixed projected solution = [x_1_0_1_OspV=1, x_1_30_1_OspV=1, x_1_70_1_OspV=1, x_1_492_1_OspV=1]
<DWph=2> <it=  1> <et=33.97> <Mt= 0.03> <Spt= 0.00> <nCl=  0> <DB=  167.0000> <Mlp=  167.0000> <PB=1000000> 
<DWph=1> <it=  2> <et=33.98> <Mt= 0.00> <Spt= 0.00> <nCl=  0> <DB=  167.0000> <Mlp=  167.0000> <PB=1000000> 
---- Diving heuristic node with dive number = 0, fix depth = 62 and tabu list size = 0
Fixed projected solution = [x_1_0_1_OspV=1, x_1_77_1_OspV=1, x_1_320_1_OspV=1, x_1_373_1_OspV=1]
<DWph=2> <it=  1> <et=34.02> <Mt= 0.04> <Spt= 0.00> <nCl=  0> <DB=  167.0000> <Mlp=  167.0000> <PB=1000000> 
<DWph=1> <it=  2> <et=34.02> <Mt= 0.00> <Spt= 0.00> <nCl=  0> <DB=  167.0000> <Mlp=  167.0000> <PB=1000000> 
---- Diving heuristic node with dive number = 0, fix depth = 63 and tabu list size = 0
Fixed projected solution = [x_1_0_1_OspV=1, x_1_65_1_OspV=1, x_1_315_1_OspV=1, x_1_379_1_OspV=1]
<DWph=2> <it=  1> <et=34.05> <Mt= 0.02> <Spt= 0.00> <nCl=  0> <DB=  167.0000> <Mlp=  167.0000> <PB=1000000> 
<DWph=1> <it=  2> <et=34.05> <Mt= 0.01> <Spt= 0.00> <nCl=  0> <DB=  167.0000> <Mlp=  167.0000> <PB=1000000> 
---- Diving heuristic node with dive number = 0, fix depth = 64 and tabu list size = 0
Fixed projected solution = [x_1_0_1_OspV=1, x_1_213_1_OspV=1, x_1_265_1_OspV=1, x_1_382_1_OspV=1]
<DWph=2> <it=  1> <et=34.09> <Mt= 0.03> <Spt= 0.00> <nCl=  0> <DB=  167.0000> <Mlp=  167.0000> <PB=1000000> 
<DWph=1> <it=  2> <et=34.09> <Mt= 0.00> <Spt= 0.00> <nCl=  0> <DB=  167.0000> <Mlp=  167.0000> <PB=1000000> 
---- Diving heuristic node with dive number = 0, fix depth = 65 and tabu list size = 0
Fixed projected solution = [x_1_0_1_OspV=1, x_1_239_1_OspV=1, x_1_270_1_OspV=1, x_1_366_1_OspV=1]
<DWph=2> <it=  1> <et=34.16> <Mt= 0.05> <Spt= 0.00> <nCl=  0> <DB=  167.0000> <Mlp=  167.0000> <PB=1000000> 
<DWph=1> <it=  2> <et=34.16> <Mt= 0.00> <Spt= 0.00> <nCl=  0> <DB=  167.0000> <Mlp=  167.0000> <PB=1000000> 
---- Diving heuristic node with dive number = 0, fix depth = 66 and tabu list size = 0
Fixed projected solution = [x_1_0_1_OspV=1, x_1_88_1_OspV=1, x_1_288_1_OspV=1, x_1_399_1_OspV=1]
<DWph=2> <it=  1> <et=34.22> <Mt= 0.06> <Spt= 0.00> <nCl=  0> <DB=  167.0000> <Mlp=  167.0000> <PB=1000000> 
<DWph=1> <it=  2> <et=34.22> <Mt= 0.00> <Spt= 0.00> <nCl=  0> <DB=  167.0000> <Mlp=  167.0000> <PB=1000000> 
---- Diving heuristic node with dive number = 0, fix depth = 67 and tabu list size = 0
Fixed projected solution = [x_1_0_1_OspV=1, x_1_294_1_OspV=1, x_1_303_1_OspV=1, x_1_304_1_OspV=1]
<DWph=2> <it=  2> <et=34.55> <Mt= 0.13> <Spt= 0.21> <nCl=100> <DB=  166.5176> <Mlp=  167.0000> <PB=1000000> 
<DWph=1> <it=  3> <et=34.55> <Mt= 0.00> <Spt= 0.00> <nCl=  0> <DB=  167.0000> <Mlp=  167.0000> <PB=1000000> 
---- Diving heuristic node with dive number = 0, fix depth = 68 and tabu list size = 0
Fixed projected solution = [x_1_0_1_OspV=1, x_1_177_1_OspV=1, x_1_201_1_OspV=1, x_1_424_1_OspV=1]
<DWph=2> <it=  2> <et=34.87> <Mt= 0.10> <Spt= 0.20> <nCl=100> <DB=  166.6962> <Mlp=  167.0000> <PB=1000000> 
<DWph=1> <it=  3> <et=34.87> <Mt= 0.00> <Spt= 0.00> <nCl=  0> <DB=  167.0000> <Mlp=  167.0000> <PB=1000000> 
---- Diving heuristic node with dive number = 0, fix depth = 69 and tabu list size = 0
Fixed projected solution = [x_1_0_1_OspV=1, x_1_224_1_OspV=1, x_1_236_1_OspV=1, x_1_392_1_OspV=1]
<DWph=2> <it=  1> <et=34.92> <Mt= 0.04> <Spt= 0.00> <nCl=  0> <DB=  167.0000> <Mlp=  167.0000> <PB=1000000> 
<DWph=1> <it=  2> <et=34.92> <Mt= 0.00> <Spt= 0.00> <nCl=  0> <DB=  167.0000> <Mlp=  167.0000> <PB=1000000> 
---- Diving heuristic node with dive number = 0, fix depth = 70 and tabu list size = 0
Fixed projected solution = [x_1_0_1_OspV=1, x_1_245_1_OspV=1, x_1_260_1_OspV=1, x_1_368_1_OspV=1]
<DWph=2> <it=  1> <et=34.96> <Mt= 0.03> <Spt= 0.00> <nCl=  0> <DB=  167.0000> <Mlp=  167.0000> <PB=1000000> 
<DWph=1> <it=  2> <et=34.96> <Mt= 0.00> <Spt= 0.00> <nCl=  0> <DB=  167.0000> <Mlp=  167.0000> <PB=1000000> 
---- Diving heuristic node with dive number = 0, fix depth = 71 and tabu list size = 0
Fixed projected solution = [x_1_0_1_OspV=1, x_1_194_1_OspV=1, x_1_319_1_OspV=1, x_1_333_1_OspV=1]
<DWph=2> <it=  2> <et=35.31> <Mt= 0.14> <Spt= 0.20> <nCl=100> <DB=  166.5312> <Mlp=  167.0000> <PB=1000000> 
<DWph=1> <it=  3> <et=35.31> <Mt= 0.00> <Spt= 0.00> <nCl=  0> <DB=  167.0000> <Mlp=  167.0000> <PB=1000000> 
---- Diving heuristic node with dive number = 0, fix depth = 72 and tabu list size = 0
Fixed projected solution = [x_1_0_1_OspV=1, x_1_225_1_OspV=1, x_1_238_1_OspV=1, x_1_389_1_OspV=1]
<DWph=2> <it=  2> <et=35.68> <Mt= 0.14> <Spt= 0.22> <nCl=100> <DB=  166.6039> <Mlp=  167.0000> <PB=1000000> 
<DWph=1> <it=  3> <et=35.68> <Mt= 0.00> <Spt= 0.00> <nCl=  0> <DB=  167.0000> <Mlp=  167.0000> <PB=1000000> 
---- Diving heuristic node with dive number = 0, fix depth = 73 and tabu list size = 0
Fixed projected solution = [x_1_0_1_OspV=1, x_1_72_1_OspV=1, x_1_168_1_OspV=1, x_1_463_1_OspV=1]
<DWph=2> <it=  1> <et=35.71> <Mt= 0.02> <Spt= 0.00> <nCl=  0> <DB=  167.0000> <Mlp=  167.0000> <PB=1000000> 
<DWph=1> <it=  2> <et=35.71> <Mt= 0.00> <Spt= 0.00> <nCl=  0> <DB=  167.0000> <Mlp=  167.0000> <PB=1000000> 
---- Diving heuristic node with dive number = 0, fix depth = 74 and tabu list size = 0
Fixed projected solution = [x_1_0_1_OspV=1, x_1_229_1_OspV=1, x_1_234_1_OspV=1, x_1_391_1_OspV=1]
<DWph=2> <it=  1> <et=35.75> <Mt= 0.03> <Spt= 0.00> <nCl=  0> <DB=  167.0000> <Mlp=  167.0000> <PB=1000000> 
<DWph=1> <it=  2> <et=35.75> <Mt= 0.00> <Spt= 0.00> <nCl=  0> <DB=  167.0000> <Mlp=  167.0000> <PB=1000000> 
---- Diving heuristic node with dive number = 0, fix depth = 75 and tabu list size = 0
Fixed projected solution = [x_1_0_1_OspV=1, x_1_56_1_OspV=1, x_1_81_1_OspV=1, x_1_487_1_OspV=1]
<DWph=2> <it=  1> <et=35.79> <Mt= 0.03> <Spt= 0.00> <nCl=  0> <DB=  167.0000> <Mlp=  167.0000> <PB=1000000> 
<DWph=1> <it=  2> <et=35.79> <Mt= 0.00> <Spt= 0.00> <nCl=  0> <DB=  167.0000> <Mlp=  167.0000> <PB=1000000> 
---- Diving heuristic node with dive number = 0, fix depth = 76 and tabu list size = 0
Fixed projected solution = [x_1_0_1_OspV=1, x_1_210_1_OspV=1, x_1_220_1_OspV=1, x_1_402_1_OspV=1]
<DWph=2> <it=  2> <et=36.09> <Mt= 0.10> <Spt= 0.20> <nCl=100> <DB=  166.5783> <Mlp=  167.0000> <PB=1000000> 
<DWph=1> <it=  3> <et=36.10> <Mt= 0.00> <Spt= 0.00> <nCl=  0> <DB=  167.0000> <Mlp=  167.0000> <PB=1000000> 
---- Diving heuristic node with dive number = 0, fix depth = 77 and tabu list size = 0
Fixed projected solution = [x_1_0_1_OspV=1, x_1_134_1_OspV=1, x_1_164_1_OspV=1, x_1_446_1_OspV=1]
<DWph=2> <it=  1> <et=36.14> <Mt= 0.04> <Spt= 0.00> <nCl=  0> <DB=  167.0000> <Mlp=  167.0000> <PB=1000000> 
<DWph=1> <it=  2> <et=36.14> <Mt= 0.00> <Spt= 0.00> <nCl=  0> <DB=  167.0000> <Mlp=  167.0000> <PB=1000000> 
---- Diving heuristic node with dive number = 0, fix depth = 78 and tabu list size = 0
Fixed projected solution = [x_1_0_1_OspV=1, x_1_135_1_OspV=1, x_1_138_1_OspV=1, x_1_456_1_OspV=1]
<DWph=2> <it=  1> <et=36.23> <Mt= 0.07> <Spt= 0.00> <nCl=  0> <DB=  167.0000> <Mlp=  167.0000> <PB=1000000> 
<DWph=1> <it=  2> <et=36.23> <Mt= 0.01> <Spt= 0.00> <nCl=  0> <DB=  167.0000> <Mlp=  167.0000> <PB=1000000> 
---- Diving heuristic node with dive number = 0, fix depth = 79 and tabu list size = 0
Fixed projected solution = [x_1_0_1_OspV=1, x_1_125_1_OspV=1, x_1_297_1_OspV=1, x_1_388_1_OspV=1]
<DWph=2> <it=  6> <et=37.36> <Mt= 0.12> <Spt= 1.00> <nCl=500> <DB=  166.9230> <Mlp=  167.0000> <PB=1000000> 
<DWph=1> <it=  7> <et=37.36> <Mt= 0.00> <Spt= 0.00> <nCl=  0> <DB=  167.0000> <Mlp=  167.0000> <PB=1000000> 
---- Diving heuristic node with dive number = 0, fix depth = 79 and tabu list size = 0
Fixed projected solution = [x_1_0_1_OspV=1, x_1_22_1_OspV=1, x_1_259_1_OspV=1, x_1_429_1_OspV=1]
<DWph=2> <it=  1> <et=37.37> <Mt= 0.00> <Spt= 0.00> <nCl=  0> <DB=  167.0000> <Mlp=  167.0000> <PB=1000000> 
<DWph=1> <it=  2> <et=37.37> <Mt= 0.00> <Spt= 0.00> <nCl=  0> <DB=  167.0000> <Mlp=  167.0000> <PB=1000000> 
---- Diving heuristic node with dive number = 0, fix depth = 80 and tabu list size = 0
Fixed projected solution = [x_1_0_1_OspV=1, x_1_206_1_OspV=1, x_1_219_1_OspV=1, x_1_409_1_OspV=1]
<DWph=2> <it=  2> <et=37.75> <Mt= 0.17> <Spt= 0.20> <nCl=100> <DB=  166.8071> <Mlp=  167.0000> <PB=1000000> 
<DWph=1> <it=  3> <et=37.76> <Mt= 0.00> <Spt= 0.00> <nCl=  0> <DB=  167.0000> <Mlp=  167.0000> <PB=1000000> 
---- Diving heuristic node with dive number = 0, fix depth = 81 and tabu list size = 0
Fixed projected solution = [x_1_0_1_OspV=1, x_1_35_1_OspV=1, x_1_291_1_OspV=1, x_1_411_1_OspV=1]
<DWph=2> <it=  1> <et=37.83> <Mt= 0.07> <Spt= 0.00> <nCl=  0> <DB=  167.0000> <Mlp=  167.0000> <PB=1000000> 
<DWph=1> <it=  2> <et=37.83> <Mt= 0.00> <Spt= 0.00> <nCl=  0> <DB=  167.0000> <Mlp=  167.0000> <PB=1000000> 
---- Diving heuristic node with dive number = 0, fix depth = 82 and tabu list size = 0
Fixed projected solution = [x_1_0_1_OspV=1, x_1_26_1_OspV=1, x_1_204_1_OspV=1, x_1_455_1_OspV=1]
<DWph=2> <it=  2> <et=38.17> <Mt= 0.13> <Spt= 0.20> <nCl=100> <DB=  166.9599> <Mlp=  167.0000> <PB=1000000> 
<DWph=1> <it=  3> <et=38.17> <Mt= 0.00> <Spt= 0.00> <nCl=  0> <DB=  167.0000> <Mlp=  167.0000> <PB=1000000> 
---- Diving heuristic node with dive number = 0, fix depth = 83 and tabu list size = 0
Fixed projected solution = [x_1_0_1_OspV=1, x_1_92_1_OspV=1, x_1_318_1_OspV=1, x_1_374_1_OspV=1]
<DWph=2> <it=  1> <et=38.29> <Mt= 0.11> <Spt= 0.00> <nCl=  0> <DB=  167.0000> <Mlp=  167.0000> <PB=1000000> 
<DWph=1> <it=  2> <et=38.30> <Mt= 0.00> <Spt= 0.00> <nCl=  0> <DB=  167.0000> <Mlp=  167.0000> <PB=1000000> 
---- Diving heuristic node with dive number = 0, fix depth = 84 and tabu list size = 0
Fixed projected solution = [x_1_0_1_OspV=1, x_1_101_1_OspV=1, x_1_253_1_OspV=1, x_1_419_1_OspV=1]
<DWph=2> <it=  1> <et=38.35> <Mt= 0.05> <Spt= 0.00> <nCl=  0> <DB=  167.0000> <Mlp=  167.0000> <PB=1000000> 
<DWph=1> <it=  2> <et=38.35> <Mt= 0.00> <Spt= 0.00> <nCl=  0> <DB=  167.0000> <Mlp=  167.0000> <PB=1000000> 
---- Diving heuristic node with dive number = 0, fix depth = 85 and tabu list size = 0
Fixed projected solution = [x_1_0_1_OspV=1, x_1_139_1_OspV=1, x_1_151_1_OspV=1, x_1_449_1_OspV=1]
<DWph=2> <it=  2> <et=38.78> <Mt= 0.22> <Spt= 0.20> <nCl=100> <DB=  166.6317> <Mlp=  167.0000> <PB=1000000> 
<DWph=1> <it=  3> <et=38.78> <Mt= 0.00> <Spt= 0.00> <nCl=  0> <DB=  167.0000> <Mlp=  167.0000> <PB=1000000> 
---- Diving heuristic node with dive number = 0, fix depth = 86 and tabu list size = 0
Fixed projected solution = [x_1_0_1_OspV=1, x_1_31_1_OspV=1, x_1_218_1_OspV=1, x_1_447_1_OspV=1]
<DWph=2> <it=  4> <et=39.64> <Mt= 0.23> <Spt= 0.62> <nCl=300> <DB=  166.9103> <Mlp=  167.0000> <PB=1000000> 
<DWph=1> <it=  5> <et=39.64> <Mt= 0.00> <Spt= 0.00> <nCl=  0> <DB=  167.0000> <Mlp=  167.0000> <PB=1000000> 
---- Diving heuristic node with dive number = 0, fix depth = 87 and tabu list size = 0
Fixed projected solution = [x_1_0_1_OspV=1, x_1_19_1_OspV=1, x_1_67_1_OspV=1, x_1_495_1_OspV=1]
<DWph=2> <it=  4> <et=40.45> <Mt= 0.18> <Spt= 0.62> <nCl=300> <DB=  166.9652> <Mlp=  167.0000> <PB=1000000> 
<DWph=1> <it=  5> <et=40.45> <Mt= 0.00> <Spt= 0.00> <nCl=  0> <DB=  167.0000> <Mlp=  167.0000> <PB=1000000> 
---- Diving heuristic node with dive number = 0, fix depth = 88 and tabu list size = 0
Fixed projected solution = [x_1_0_1_OspV=1, x_1_243_1_OspV=1, x_1_257_1_OspV=1, x_1_370_1_OspV=1]
<DWph=2> <it=  2> <et=40.79> <Mt= 0.12> <Spt= 0.20> <nCl=100> <DB=  166.9454> <Mlp=  167.0000> <PB=1000000> 
<DWph=1> <it=  3> <et=40.79> <Mt= 0.00> <Spt= 0.00> <nCl=  0> <DB=  167.0000> <Mlp=  167.0000> <PB=1000000> 
---- Diving heuristic node with dive number = 0, fix depth = 89 and tabu list size = 0
Fixed projected solution = [x_1_0_1_OspV=1, x_1_68_1_OspV=1, x_1_312_1_OspV=1, x_1_380_1_OspV=1]
<DWph=2> <it=  2> <et=41.18> <Mt= 0.18> <Spt= 0.20> <nCl=100> <DB=  166.9651> <Mlp=  167.0000> <PB=1000000> 
<DWph=1> <it=  3> <et=41.18> <Mt= 0.00> <Spt= 0.00> <nCl=  0> <DB=  167.0000> <Mlp=  167.0000> <PB=1000000> 
---- Diving heuristic node with dive number = 0, fix depth = 89 and tabu list size = 0
Fixed projected solution = [x_1_0_1_OspV=1, x_1_51_1_OspV=1, x_1_136_1_OspV=1, x_1_477_1_OspV=1]
<DWph=2> <it=  1> <et=41.20> <Mt= 0.00> <Spt= 0.00> <nCl=  0> <DB=  167.0000> <Mlp=  167.0000> <PB=1000000> 
<DWph=1> <it=  2> <et=41.20> <Mt= 0.00> <Spt= 0.00> <nCl=  0> <DB=  167.0000> <Mlp=  167.0000> <PB=1000000> 
---- Diving heuristic node with dive number = 0, fix depth = 90 and tabu list size = 0
Fixed projected solution = [x_1_0_1_OspV=1, x_1_10_1_OspV=1, x_1_113_1_OspV=1, x_1_488_1_OspV=1]
<DWph=2> <it=  2> <et=41.60> <Mt= 0.19> <Spt= 0.20> <nCl=100> <DB=  166.9863> <Mlp=  167.0000> <PB=1000000> 
<DWph=1> <it=  3> <et=41.60> <Mt= 0.00> <Spt= 0.00> <nCl=  0> <DB=  167.0000> <Mlp=  167.0000> <PB=1000000> 
---- Diving heuristic node with dive number = 0, fix depth = 91 and tabu list size = 0
Fixed projected solution = [x_1_0_1_OspV=1, x_1_126_1_OspV=1, x_1_141_1_OspV=1, x_1_459_1_OspV=1]
<DWph=2> <it=  2> <et=42.03> <Mt= 0.22> <Spt= 0.20> <nCl=100> <DB=  166.9432> <Mlp=  167.0000> <PB=1000000> 
<DWph=1> <it=  3> <et=42.03> <Mt= 0.00> <Spt= 0.00> <nCl=  0> <DB=  167.0000> <Mlp=  167.0000> <PB=1000000> 
---- Diving heuristic node with dive number = 0, fix depth = 92 and tabu list size = 0
Fixed projected solution = [x_1_0_1_OspV=1, x_1_247_1_OspV=1, x_1_261_1_OspV=1, x_1_369_1_OspV=1]
<DWph=2> <it=  1> <et=42.11> <Mt= 0.07> <Spt= 0.00> <nCl=  0> <DB=  167.0000> <Mlp=  167.0000> <PB=1000000> 
<DWph=1> <it=  2> <et=42.11> <Mt= 0.00> <Spt= 0.00> <nCl=  0> <DB=  167.0000> <Mlp=  167.0000> <PB=1000000> 
---- Diving heuristic node with dive number = 0, fix depth = 93 and tabu list size = 0
Fixed projected solution = [x_1_0_1_OspV=1, x_1_85_1_OspV=1, x_1_132_1_OspV=1, x_1_471_1_OspV=1]
<DWph=2> <it=  2> <et=42.56> <Mt= 0.19> <Spt= 0.20> <nCl=100> <DB=  166.9665> <Mlp=  167.0000> <PB=1000000> 
<DWph=1> <it=  3> <et=42.56> <Mt= 0.01> <Spt= 0.00> <nCl=  0> <DB=  167.0000> <Mlp=  167.0000> <PB=1000000> 
---- Diving heuristic node with dive number = 0, fix depth = 94 and tabu list size = 0
Fixed projected solution = [x_1_0_1_OspV=1, x_1_148_1_OspV=1, x_1_153_1_OspV=1, x_1_445_1_OspV=1]
<DWph=2> <it=  1> <et=42.62> <Mt= 0.05> <Spt= 0.00> <nCl=  0> <DB=  167.0000> <Mlp=  167.0000> <PB=1000000> 
<DWph=1> <it=  2> <et=42.62> <Mt= 0.00> <Spt= 0.00> <nCl=  0> <DB=  167.0000> <Mlp=  167.0000> <PB=1000000> 
---- Diving heuristic node with dive number = 0, fix depth = 95 and tabu list size = 0
Fixed projected solution = [x_1_0_1_OspV=1, x_1_34_1_OspV=1, x_1_215_1_OspV=1, x_1_450_1_OspV=1]
<DWph=2> <it=  2> <et=42.98> <Mt= 0.14> <Spt= 0.20> <nCl=100> <DB=  166.9699> <Mlp=  167.0000> <PB=1000000> 
<DWph=1> <it=  3> <et=42.98> <Mt= 0.01> <Spt= 0.00> <nCl=  0> <DB=  167.0000> <Mlp=  167.0000> <PB=1000000> 
---- Diving heuristic node with dive number = 0, fix depth = 96 and tabu list size = 0
Fixed projected solution = [x_1_0_1_OspV=1, x_1_186_1_OspV=1, x_1_216_1_OspV=1, x_1_416_1_OspV=1]
<DWph=2> <it=  1> <et=43.09> <Mt= 0.09> <Spt= 0.00> <nCl=  0> <DB=  167.0000> <Mlp=  167.0000> <PB=1000000> 
<DWph=1> <it=  2> <et=43.09> <Mt= 0.00> <Spt= 0.00> <nCl=  0> <DB=  167.0000> <Mlp=  167.0000> <PB=1000000> 
---- Diving heuristic node with dive number = 0, fix depth = 97 and tabu list size = 0
Fixed projected solution = [x_1_0_1_OspV=1, x_1_197_1_OspV=1, x_1_273_1_OspV=1, x_1_384_1_OspV=1]
<DWph=2> <it=  4> <et=43.85> <Mt= 0.15> <Spt= 0.60> <nCl=300> <DB=  166.9909> <Mlp=  167.0000> <PB=1000000> 
<DWph=1> <it=  5> <et=43.85> <Mt= 0.00> <Spt= 0.00> <nCl=  0> <DB=  167.0000> <Mlp=  167.0000> <PB=1000000> 
---- Diving heuristic node with dive number = 0, fix depth = 98 and tabu list size = 0
Fixed projected solution = [x_1_0_1_OspV=1, x_1_3_1_OspV=1, x_1_28_1_OspV=1, x_1_498_1_OspV=1]
<DWph=2> <it=  1> <et=43.90> <Mt= 0.04> <Spt= 0.00> <nCl=  0> <DB=  167.0000> <Mlp=  167.0000> <PB=1000000> 
<DWph=1> <it=  2> <et=43.90> <Mt= 0.00> <Spt= 0.00> <nCl=  0> <DB=  167.0000> <Mlp=  167.0000> <PB=1000000> 
---- Diving heuristic node with dive number = 0, fix depth = 99 and tabu list size = 0
Fixed projected solution = [x_1_0_1_OspV=1, x_1_2_1_OspV=1, x_1_167_1_OspV=1, x_1_475_1_OspV=1]
<DWph=2> <it=  2> <et=44.22> <Mt= 0.11> <Spt= 0.20> <nCl=100> <DB=  166.9844> <Mlp=  167.0000> <PB=1000000> 
<DWph=1> <it=  3> <et=44.22> <Mt= 0.01> <Spt= 0.00> <nCl=  0> <DB=  167.0000> <Mlp=  167.0000> <PB=1000000> 
---- Diving heuristic node with dive number = 0, fix depth = 100 and tabu list size = 0
Fixed projected solution = [x_1_0_1_OspV=1, x_1_47_1_OspV=1, x_1_147_1_OspV=1, x_1_472_1_OspV=1]
<DWph=2> <it=  2> <et=44.58> <Mt= 0.14> <Spt= 0.20> <nCl=100> <DB=  166.9743> <Mlp=  167.0000> <PB=1000000> 
<DWph=1> <it=  3> <et=44.58> <Mt= 0.00> <Spt= 0.00> <nCl=  0> <DB=  167.0000> <Mlp=  167.0000> <PB=1000000> 
---- Diving heuristic node with dive number = 0, fix depth = 101 and tabu list size = 0
Fixed projected solution = [x_1_0_1_OspV=1, x_1_1_1_OspV=1, x_1_27_1_OspV=1, x_1_499_1_OspV=1]
<DWph=2> <it=  3> <et=45.22> <Mt= 0.16> <Spt= 0.47> <nCl=200> <DB=  166.9938> <Mlp=  167.0000> <PB=1000000> 
<DWph=1> <it=  4> <et=45.22> <Mt= 0.00> <Spt= 0.00> <nCl=  0> <DB=  167.0000> <Mlp=  167.0000> <PB=1000000> 
---- Diving heuristic node with dive number = 0, fix depth = 102 and tabu list size = 0
Fixed projected solution = [x_1_0_1_OspV=1, x_1_180_1_OspV=1, x_1_196_1_OspV=1, x_1_422_1_OspV=1]
<DWph=2> <it=  4> <et=46.09> <Mt= 0.27> <Spt= 0.58> <nCl=300> <DB=  166.9902> <Mlp=  167.0000> <PB=1000000> 
<DWph=1> <it=  5> <et=46.10> <Mt= 0.01> <Spt= 0.00> <nCl=  0> <DB=  167.0000> <Mlp=  167.0000> <PB=1000000> 
---- Diving heuristic node with dive number = 0, fix depth = 103 and tabu list size = 0
Fixed projected solution = [x_1_0_1_OspV=1, x_1_90_1_OspV=1, x_1_330_1_OspV=1, x_1_360_1_OspV=1]
<DWph=2> <it=  1> <et=46.15> <Mt= 0.04> <Spt= 0.00> <nCl=  0> <DB=  167.0000> <Mlp=  167.0000> <PB=1000000> 
<DWph=1> <it=  2> <et=46.15> <Mt= 0.00> <Spt= 0.00> <nCl=  0> <DB=  167.0000> <Mlp=  167.0000> <PB=1000000> 
---- Diving heuristic node with dive number = 0, fix depth = 103 and tabu list size = 0
Fixed projected solution = [x_1_0_1_OspV=1, x_1_23_1_OspV=1, x_1_293_1_OspV=1, x_1_405_1_OspV=1]
<DWph=2> <it=  1> <et=46.16> <Mt= 0.00> <Spt= 0.00> <nCl=  0> <DB=  167.0000> <Mlp=  167.0000> <PB=1000000> 
<DWph=1> <it=  2> <et=46.17> <Mt= 0.01> <Spt= 0.00> <nCl=  0> <DB=  167.0000> <Mlp=  167.0000> <PB=1000000> 
---- Diving heuristic node with dive number = 0, fix depth = 104 and tabu list size = 0
Fixed projected solution = [x_1_0_1_OspV=1, x_1_207_1_OspV=1, x_1_290_1_OspV=1, x_1_365_1_OspV=1]
<DWph=2> <it=  3> <et=46.82> <Mt= 0.24> <Spt= 0.40> <nCl=200> <DB=  166.9925> <Mlp=  167.0000> <PB=1000000> 
<DWph=1> <it=  4> <et=46.82> <Mt= 0.01> <Spt= 0.00> <nCl=  0> <DB=  167.0000> <Mlp=  167.0000> <PB=1000000> 
---- Diving heuristic node with dive number = 0, fix depth = 105 and tabu list size = 0
Fixed projected solution = [x_1_0_1_OspV=1, x_1_157_1_OspV=1, x_1_166_1_OspV=1, x_1_440_1_OspV=1]
<DWph=2> <it=  4> <et=47.57> <Mt= 0.13> <Spt= 0.60> <nCl=300> <DB=  166.9959> <Mlp=  167.0000> <PB=1000000> 
<DWph=1> <it=  5> <et=47.57> <Mt= 0.00> <Spt= 0.00> <nCl=  0> <DB=  167.0000> <Mlp=  167.0000> <PB=1000000> 
---- Diving heuristic node with dive number = 0, fix depth = 106 and tabu list size = 0
Fixed projected solution = [x_1_0_1_OspV=1, x_1_154_1_OspV=1, x_1_202_1_OspV=1, x_1_428_1_OspV=1]
<DWph=2> <it=  4> <et=48.34> <Mt= 0.16> <Spt= 0.60> <nCl=300> <DB=  166.9976> <Mlp=  167.0000> <PB=1000000> 
<DWph=1> <it=  5> <et=48.35> <Mt= 0.00> <Spt= 0.00> <nCl=  0> <DB=  167.0000> <Mlp=  167.0000> <PB=1000000> 
---- Diving heuristic node with dive number = 0, fix depth = 107 and tabu list size = 0
Fixed projected solution = [x_1_0_1_OspV=1, x_1_114_1_OspV=1, x_1_325_1_OspV=1, x_1_358_1_OspV=1]
<DWph=2> <it=  2> <et=48.69> <Mt= 0.13> <Spt= 0.20> <nCl=100> <DB=  166.9979> <Mlp=  167.0000> <PB=1000000> 
<DWph=1> <it=  3> <et=48.69> <Mt= 0.00> <Spt= 0.00> <nCl=  0> <DB=  167.0000> <Mlp=  167.0000> <PB=1000000> 
---- Diving heuristic node with dive number = 0, fix depth = 108 and tabu list size = 0
Fixed projected solution = [x_1_0_1_OspV=1, x_1_152_1_OspV=1, x_1_159_1_OspV=1, x_1_443_1_OspV=1]
<DWph=2> <it=  5> <et=49.88> <Mt= 0.35> <Spt= 0.83> <nCl=400> <DB=  166.9983> <Mlp=  167.0000> <PB=1000000> 
<DWph=1> <it=  6> <et=49.88> <Mt= 0.00> <Spt= 0.00> <nCl=  0> <DB=  167.0000> <Mlp=  167.0000> <PB=1000000> 
---- Diving heuristic node with dive number = 0, fix depth = 109 and tabu list size = 0
Fixed projected solution = [x_1_0_1_OspV=1, x_1_105_1_OspV=1, x_1_173_1_OspV=1, x_1_453_1_OspV=1]
<DWph=2> <it=  2> <et=50.27> <Mt= 0.17> <Spt= 0.20> <nCl=100> <DB=  166.9984> <Mlp=  167.0000> <PB=1000000> 
<DWph=1> <it=  3> <et=50.27> <Mt= 0.00> <Spt= 0.00> <nCl=  0> <DB=  167.0000> <Mlp=  167.0000> <PB=1000000> 
---- Diving heuristic node with dive number = 0, fix depth = 110 and tabu list size = 0
Fixed projected solution = [x_1_0_1_OspV=1, x_1_295_1_OspV=1, x_1_302_1_OspV=1, x_1_305_1_OspV=1]
<DWph=2> <it=  7> <et=51.96> <Mt= 0.48> <Spt= 1.19> <nCl=600> <DB=  166.9990> <Mlp=  167.0000> <PB=1000000> 
<DWph=1> <it=  8> <et=51.96> <Mt= 0.00> <Spt= 0.00> <nCl=  0> <DB=  167.0000> <Mlp=  167.0000> <PB=1000000> 
---- Diving heuristic node with dive number = 0, fix depth = 111 and tabu list size = 0
Fixed projected solution = [x_1_0_1_OspV=1, x_1_143_1_OspV=1, x_1_299_1_OspV=1, x_1_383_1_OspV=1]
<DWph=2> <it=  2> <et=52.37> <Mt= 0.20> <Spt= 0.20> <nCl=100> <DB=  166.9992> <Mlp=  167.0000> <PB=1000000> 
<DWph=1> <it=  3> <et=52.37> <Mt= 0.00> <Spt= 0.00> <nCl=  0> <DB=  167.0000> <Mlp=  167.0000> <PB=1000000> 
---- Diving heuristic node with dive number = 0, fix depth = 112 and tabu list size = 0
Fixed projected solution = [x_1_0_1_OspV=1, x_1_226_1_OspV=1, x_1_285_1_OspV=1, x_1_362_1_OspV=1]
<DWph=2> <it=  5> <et=53.68> <Mt= 0.45> <Spt= 0.80> <nCl=400> <DB=  166.9994> <Mlp=  167.0000> <PB=1000000> 
<DWph=1> <it=  6> <et=53.68> <Mt= 0.00> <Spt= 0.00> <nCl=  0> <DB=  167.0000> <Mlp=  167.0000> <PB=1000000> 
---- Diving heuristic node with dive number = 0, fix depth = 113 and tabu list size = 0
Fixed projected solution = [x_1_0_1_OspV=1, x_1_146_1_OspV=1, x_1_172_1_OspV=1, x_1_442_1_OspV=1]
<DWph=2> <it=  1> <et=53.70> <Mt= 0.01> <Spt= 0.00> <nCl=  0> <DB=  167.0000> <Mlp=  167.0000> <PB=1000000> 
<DWph=1> <it=  2> <et=53.70> <Mt= 0.00> <Spt= 0.00> <nCl=  0> <DB=  167.0000> <Mlp=  167.0000> <PB=1000000> 
---- Diving heuristic node with dive number = 0, fix depth = 114 and tabu list size = 0
Fixed projected solution = [x_1_0_1_OspV=1, x_1_45_1_OspV=1, x_1_174_1_OspV=1, x_1_464_1_OspV=1]
<DWph=2> <it=  1> <et=53.79> <Mt= 0.07> <Spt= 0.00> <nCl=  0> <DB=  167.0000> <Mlp=  167.0000> <PB=1000000> 
<DWph=1> <it=  2> <et=53.79> <Mt= 0.00> <Spt= 0.00> <nCl=  0> <DB=  167.0000> <Mlp=  167.0000> <PB=1000000> 
---- Diving heuristic node with dive number = 0, fix depth = 115 and tabu list size = 0
Fixed projected solution = [x_1_0_1_OspV=1, x_1_9_1_OspV=1, x_1_248_1_OspV=1, x_1_438_1_OspV=1]
<DWph=1> <it= 11> <et=56.07> <Mt= 0.31> <Spt= 1.97> <nCl=900> <DB=  167.0000> <Mlp=  167.0000> <PB=1000000> 
---- Diving heuristic node with dive number = 0, fix depth = 116 and tabu list size = 0
Fixed projected solution = [x_1_0_1_OspV=1, x_1_60_1_OspV=1, x_1_191_1_OspV=1, x_1_454_1_OspV=1]
<DWph=1> <it= 11> <et=58.18> <Mt= 0.40> <Spt= 1.68> <nCl=900> <DB=  167.0000> <Mlp=  167.0000> <PB=1000000> 
---- Diving heuristic node with dive number = 0, fix depth = 117 and tabu list size = 0
Fixed projected solution = [x_1_0_1_OspV=1, x_1_127_1_OspV=1, x_1_155_1_OspV=1, x_1_452_1_OspV=1]
<DWph=2> <it=  7> <et=59.78> <Mt= 0.41> <Spt= 1.18> <nCl=600> <DB=  166.9992> <Mlp=  167.0000> <PB=1000000> 
<DWph=1> <it=  8> <et=59.78> <Mt= 0.00> <Spt= 0.00> <nCl=  0> <DB=  167.0000> <Mlp=  167.0000> <PB=1000000> 
---- Diving heuristic node with dive number = 0, fix depth = 118 and tabu list size = 0
Fixed projected solution = [x_1_0_1_OspV=1, x_1_41_1_OspV=1, x_1_79_1_OspV=1, x_1_491_1_OspV=1]
<DWph=2> <it=  1> <et=59.92> <Mt= 0.12> <Spt= 0.00> <nCl=  0> <DB=  167.0000> <Mlp=  167.0000> <PB=1000000> 
<DWph=1> <it=  2> <et=59.92> <Mt= 0.01> <Spt= 0.00> <nCl=  0> <DB=  167.0000> <Mlp=  167.0000> <PB=1000000> 
---- Diving heuristic node with dive number = 0, fix depth = 119 and tabu list size = 0
Fixed projected solution = [x_1_0_1_OspV=1, x_1_263_1_OspV=1, x_1_281_1_OspV=1, x_1_338_1_OspV=1]
<DWph=2> <it=  2> <et=60.28> <Mt= 0.14> <Spt= 0.20> <nCl=100> <DB=  166.9937> <Mlp=  167.0000> <PB=1000000> 
<DWph=1> <it=  3> <et=60.28> <Mt= 0.01> <Spt= 0.00> <nCl=  0> <DB=  167.0000> <Mlp=  167.0000> <PB=1000000> 
---- Diving heuristic node with dive number = 0, fix depth = 120 and tabu list size = 0
Fixed projected solution = [x_1_0_1_OspV=1, x_1_46_1_OspV=1, x_1_322_1_OspV=1, x_1_378_1_OspV=1]
<DWph=2> <it= 10> <et=62.67> <Mt= 0.29> <Spt= 2.03> <nCl=1000> <DB=  166.9958> <Mlp=  167.0015> <PB=1000000> 
<DWph=2> <it= 19> <et=64.33> <Mt= 0.06> <Spt= 1.60> <nCl=800> <DB=  166.9981> <Mlp=  167.0000> <PB=1000000> 
---- Diving heuristic node with dive number = 0, fix depth = 121 and tabu list size = 0
Fixed projected solution = [x_1_0_1_OspV=1, x_1_37_1_OspV=1, x_1_110_1_OspV=1, x_1_484_1_OspV=1]
<DWph=2> <it= 10> <et=66.51> <Mt= 0.22> <Spt= 1.93> <nCl=1000> <DB=  166.9868> <Mlp=  167.0031> <PB=1000000> 
<DWph=2> <it= 20> <et=68.74> <Mt= 0.19> <Spt= 2.04> <nCl=1000> <DB=  166.9953> <Mlp=  167.0007> <PB=1000000> 
<DWph=2> <it= 29> <et=70.53> <Mt= 0.14> <Spt= 1.60> <nCl=800> <DB=  167.0000> <Mlp=  167.0000> <PB=1000000> 
---- Diving heuristic node with dive number = 0, fix depth = 121 and tabu list size = 0
Fixed projected solution = [x_1_0_1_OspV=1, x_1_17_1_OspV=1, x_1_18_1_OspV=1, x_1_497_1_OspV=1]
<DWph=2> <it=  1> <et=70.54> <Mt= 0.00> <Spt= 0.00> <nCl=  0> <DB=  167.0000> <Mlp=  167.0000> <PB=1000000> 
<DWph=1> <it=  2> <et=70.54> <Mt= 0.00> <Spt= 0.00> <nCl=  0> <DB=  167.0000> <Mlp=  167.0000> <PB=1000000> 
---- Diving heuristic node with dive number = 0, fix depth = 122 and tabu list size = 0
Fixed projected solution = [x_1_0_1_OspV=1, x_1_150_1_OspV=1, x_1_334_1_OspV=1, x_1_337_1_OspV=1]
<DWph=2> <it= 10> <et=72.57> <Mt= 0.18> <Spt= 1.83> <nCl=1000> <DB=  166.9671> <Mlp=  167.0313> <PB=1000000> 
<DWph=2> <it= 13> <et=73.01> <Mt= 0.03> <Spt= 0.40> <nCl=200> <DB=  166.9698> <Mlp=  167.0000> <PB=1000000> 
<DWph=1> <it= 14> <et=73.01> <Mt= 0.01> <Spt= 0.00> <nCl=  0> <DB=  167.0000> <Mlp=  167.0000> <PB=1000000> 
---- Diving heuristic node with dive number = 0, fix depth = 123 and tabu list size = 0
Fixed projected solution = [x_1_0_1_OspV=1, x_1_271_1_OspV=1, x_1_308_1_OspV=1, x_1_310_1_OspV=1]
<DWph=2> <it= 10> <et=75.19> <Mt= 0.19> <Spt= 1.97> <nCl=1000> <DB=  166.9811> <Mlp=  167.0085> <PB=1000000> 
<DWph=2> <it= 15> <et=76.04> <Mt= 0.05> <Spt= 0.79> <nCl=400> <DB=  166.9746> <Mlp=  167.0000> <PB=1000000> 
<DWph=1> <it= 16> <et=76.04> <Mt= 0.00> <Spt= 0.00> <nCl=  0> <DB=  167.0000> <Mlp=  167.0000> <PB=1000000> 
---- Diving heuristic node with dive number = 0, fix depth = 124 and tabu list size = 0
Fixed projected solution = [x_1_0_1_OspV=1, x_1_163_1_OspV=1, x_1_282_1_OspV=1, x_1_387_1_OspV=1]
<DWph=2> <it= 10> <et=78.36> <Mt= 0.29> <Spt= 1.96> <nCl=1000> <DB=  166.9795> <Mlp=  167.0206> <PB=1000000> 
<DWph=2> <it= 20> <et=80.41> <Mt= 0.06> <Spt= 1.99> <nCl=1000> <DB=  166.9956> <Mlp=  167.0111> <PB=1000000> 
<DWph=2> <it= 30> <et=83.27> <Mt= 0.08> <Spt= 2.77> <nCl=950> <DB=  166.7867> <Mlp=  167.0017> <PB=1000000> 
<DWph=2> <it= 40> <et=85.71> <Mt= 0.12> <Spt= 2.26> <nCl=845> <DB=  166.9429> <Mlp=  167.0002> <PB=1000000> 
<DWph=2> <it= 50> <et=88.49> <Mt= 0.05> <Spt= 2.72> <nCl=782> <DB=  166.9458> <Mlp=  167.0002> <PB=1000000> 
<DWph=2> <it= 54> <et=90.30> <Mt= 0.02> <Spt= 1.80> <nCl=158> <DB=  167.0002> <Mlp=  167.0002> <PB=1000000> 
<DWph=1> <it= 55> <et=90.69> <Mt= 0.00> <Spt= 0.38> <nCl=  0> <DB=  167.0002> <Mlp=  167.0002> <PB=1000000> 
---- Diving heuristic node with dive number = 0, fix depth = 125 and tabu list size = 0
Fixed projected solution = [x_1_0_1_OspV=1, x_1_99_1_OspV=1, x_1_298_1_OspV=1, x_1_394_1_OspV=1]
<DWph=2> <it= 10> <et=92.75> <Mt= 0.22> <Spt= 1.82> <nCl=1000> <DB=  166.7470> <Mlp=  167.0007> <PB=1000000> 
<DWph=2> <it= 20> <et=95.19> <Mt= 0.05> <Spt= 2.34> <nCl=868> <DB=  166.8531> <Mlp=  167.0005> <PB=1000000> 
<DWph=2> <it= 30> <et=97.95> <Mt= 0.03> <Spt= 2.72> <nCl=676> <DB=  166.9821> <Mlp=  167.0005> <PB=1000000> 
<DWph=2> <it= 34> <et=99.38> <Mt= 0.01> <Spt= 1.40> <nCl= 94> <DB=  167.0005> <Mlp=  167.0005> <PB=1000000> 
<DWph=1> <it= 35> <et=99.76> <Mt= 0.01> <Spt= 0.39> <nCl=  0> <DB=  167.0005> <Mlp=  167.0005> <PB=1000000> 
---- Diving heuristic node with dive number = 0, fix depth = 126 and tabu list size = 0
Fixed projected solution = [x_1_0_1_OspV=1, x_1_112_1_OspV=1, x_1_254_1_OspV=1, x_1_417_1_OspV=1]
<DWph=2> <it= 10> <et=102.54> <Mt= 0.05> <Spt= 2.69> <nCl=598> <DB=  167.0005> <Mlp=  167.0005> <PB=1000000> 
<DWph=1> <it= 11> <et=102.92> <Mt= 0.00> <Spt= 0.38> <nCl=  0> <DB=  167.0005> <Mlp=  167.0005> <PB=1000000> 
---- Diving heuristic node with dive number = 0, fix depth = 127 and tabu list size = 0
Fixed projected solution = [x_1_0_1_OspV=1, x_1_71_1_OspV=1, x_1_235_1_OspV=1, x_1_437_1_OspV=1]
<DWph=2> <it= 10> <et=105.03> <Mt= 0.21> <Spt= 1.88> <nCl=941> <DB=  166.9297> <Mlp=  167.0040> <PB=1000000> 
<DWph=2> <it= 20> <et=107.47> <Mt= 0.05> <Spt= 2.34> <nCl=925> <DB=  166.8034> <Mlp=  167.0027> <PB=1000000> 
<DWph=2> <it= 26> <et=109.40> <Mt= 0.02> <Spt= 1.90> <nCl=182> <DB=  167.0027> <Mlp=  167.0027> <PB=1000000> 
<DWph=1> <it= 27> <et=109.95> <Mt= 0.01> <Spt= 0.55> <nCl=  0> <DB=  167.0027> <Mlp=  167.0027> <PB=1000000> 
---- Diving heuristic node with dive number = 0, fix depth = 128 and tabu list size = 0
Fixed projected solution = [x_1_0_1_OspV=1, x_1_170_1_OspV=1, x_1_277_1_OspV=1, x_1_390_1_OspV=1]
<DWph=2> <it= 10> <et=111.88> <Mt= 0.14> <Spt= 1.76> <nCl=1000> <DB=-160391808.0136> <Mlp=  167.0125> <PB=1000000> 
<DWph=2> <it= 20> <et=113.99> <Mt= 0.08> <Spt= 2.03> <nCl=870> <DB=  166.6454> <Mlp=  167.0125> <PB=1000000> 
