Application parameters:
  batch  =>  nothing
  instance  =>  "/IN/Falkenauer_t120_14.txt-Q20"
  ub  =>  1.0e6
  cfg  =>  "/CFG/BPP.cfg"
data = Colored Bin Packing dataset.
number of items = 120
number of colors = 20
capacity = 1000
Items : 
	 item 1, weight= 250, color= 14
	 item 2, weight= 250, color= 18
	 item 3, weight= 251, color= 5
	 item 4, weight= 251, color= 5
	 item 5, weight= 251, color= 9
	 item 6, weight= 251, color= 12
	 item 7, weight= 252, color= 0
	 item 8, weight= 253, color= 1
	 item 9, weight= 253, color= 2
	 item 10, weight= 254, color= 2
	 item 11, weight= 254, color= 6
	 item 12, weight= 254, color= 8
	 item 13, weight= 254, color= 14
	 item 14, weight= 254, color= 14
	 item 15, weight= 255, color= 17
	 item 16, weight= 256, color= 2
	 item 17, weight= 256, color= 2
	 item 18, weight= 256, color= 5
	 item 19, weight= 257, color= 2
	 item 20, weight= 257, color= 13
	 item 21, weight= 258, color= 5
	 item 22, weight= 258, color= 5
	 item 23, weight= 259, color= 7
	 item 24, weight= 259, color= 9
	 item 25, weight= 260, color= 4
	 item 26, weight= 260, color= 9
	 item 27, weight= 261, color= 16
	 item 28, weight= 261, color= 17
	 item 29, weight= 261, color= 18
	 item 30, weight= 262, color= 11
	 item 31, weight= 264, color= 18
	 item 32, weight= 265, color= 15
	 item 33, weight= 266, color= 15
	 item 34, weight= 267, color= 0
	 item 35, weight= 269, color= 2
	 item 36, weight= 271, color= 5
	 item 37, weight= 271, color= 17
	 item 38, weight= 273, color= 15
	 item 39, weight= 273, color= 17
	 item 40, weight= 275, color= 15
	 item 41, weight= 276, color= 14
	 item 42, weight= 280, color= 2
	 item 43, weight= 280, color= 5
	 item 44, weight= 282, color= 15
	 item 45, weight= 283, color= 8
	 item 46, weight= 284, color= 11
	 item 47, weight= 287, color= 6
	 item 48, weight= 289, color= 4
	 item 49, weight= 289, color= 9
	 item 50, weight= 289, color= 19
	 item 51, weight= 290, color= 10
	 item 52, weight= 294, color= 16
	 item 53, weight= 298, color= 12
	 item 54, weight= 302, color= 0
	 item 55, weight= 302, color= 3
	 item 56, weight= 305, color= 0
	 item 57, weight= 306, color= 4
	 item 58, weight= 309, color= 9
	 item 59, weight= 309, color= 10
	 item 60, weight= 309, color= 17
	 item 61, weight= 311, color= 18
	 item 62, weight= 313, color= 5
	 item 63, weight= 313, color= 8
	 item 64, weight= 316, color= 9
	 item 65, weight= 319, color= 13
	 item 66, weight= 328, color= 8
	 item 67, weight= 329, color= 16
	 item 68, weight= 329, color= 17
	 item 69, weight= 331, color= 18
	 item 70, weight= 332, color= 15
	 item 71, weight= 336, color= 15
	 item 72, weight= 336, color= 18
	 item 73, weight= 340, color= 5
	 item 74, weight= 343, color= 6
	 item 75, weight= 350, color= 8
	 item 76, weight= 350, color= 13
	 item 77, weight= 353, color= 11
	 item 78, weight= 356, color= 15
	 item 79, weight= 357, color= 1
	 item 80, weight= 358, color= 8
	 item 81, weight= 363, color= 2
	 item 82, weight= 365, color= 13
	 item 83, weight= 369, color= 19
	 item 84, weight= 373, color= 6
	 item 85, weight= 373, color= 17
	 item 86, weight= 382, color= 11
	 item 87, weight= 384, color= 18
	 item 88, weight= 384, color= 19
	 item 89, weight= 386, color= 3
	 item 90, weight= 388, color= 7
	 item 91, weight= 390, color= 16
	 item 92, weight= 396, color= 1
	 item 93, weight= 402, color= 12
	 item 94, weight= 404, color= 1
	 item 95, weight= 405, color= 6
	 item 96, weight= 405, color= 18
	 item 97, weight= 412, color= 8
	 item 98, weight= 414, color= 10
	 item 99, weight= 416, color= 3
	 item 100, weight= 418, color= 16
	 item 101, weight= 418, color= 19
	 item 102, weight= 421, color= 6
	 item 103, weight= 430, color= 11
	 item 104, weight= 433, color= 16
	 item 105, weight= 442, color= 11
	 item 106, weight= 443, color= 1
	 item 107, weight= 444, color= 18
	 item 108, weight= 445, color= 5
	 item 109, weight= 450, color= 3
	 item 110, weight= 453, color= 8
	 item 111, weight= 470, color= 2
	 item 112, weight= 470, color= 9
	 item 113, weight= 484, color= 2
	 item 114, weight= 486, color= 11
	 item 115, weight= 486, color= 11
	 item 116, weight= 489, color= 1
	 item 117, weight= 494, color= 6
	 item 118, weight= 496, color= 6
	 item 119, weight= 496, color= 8
	 item 120, weight= 496, color= 14

VRPSolver warning: Interval set for resource 1 on source node (when source != sink) is ignored (by definition is [0.0,0.0])
[41m solve [00m
~~~~~~~~~~~~~~~~~~~~~~~~~~~~~~~~~~~~~~~~~~~~~~~~~~~~~~~~~~~~~~~~~~~~~~~~~~~~~~
VRPSolver v0.4.1, 24/03/2021. Web: vrpsolver.math.u-bordeaux.fr
Corresponds to the solver by Pessoa, Sadykov, Uchoa and Vanderbeck (2020)
Paper: dx.doi.org/10.1007/s10107-020-01523-z
USE THIS CODE ONLY FOR ACADEMIC PURPOSES AT YOUR OWN RISK
~~~~~~~~~~~~~~~~~~~~~~~~~~~~~~~~~~~~~~~~~~~~~~~~~~~~~~~~~~~~~~~~~~~~~~~~~~~~~~
BaPCod v053, 24/03/2021, © Inria Bordeaux, France
~~~~~~~~~~~~~~~~~~~~~~~~~~~~~~~~~~~~~~~~~~~~~~~~~~~~~~~~~~~~~~~~~~~~~~~~~~~~~~
VRPSolver parameters:
GlobalTimeLimit = 1800
MaxNbOfBBtreeNodeTreated = 100000
treeSearchStrategy = 1
RCSPstopCutGenTimeThresholdInPricing = 10
RCSPhardTimeThresholdInPricing = 20
RCSPnumberOfBucketsPerVertex = 2000
RCSPdynamicBucketSteps = 0
RCSPuseBidirectionalSearch = 1
RCSPapplyReducedCostFixing = 1
RCSPredCostFixingFalseGap = 0
RCSPmaxNumOfColsPerIteration = 100
RCSPmaxNumOfColsPerExactIteration = 100
RCSPheurLabelingStrategy = 4
StabilizationMinPhaseOfStage = 1
RCSPmaxNumOfLabelsInEnumeration = 100000
RCSPmaxNumOfEnumeratedSolutions = 1000000
RCSPmaxNumOfEnumSolutionsForMIP = 100000
RCSPinitNGneighbourhoodSize = 0
RCSPmaxNGneighbourhoodSize = 0
RCSPrankOneCutsMaxNumPerRound = 100
RCSPrankOneCutsMaxNumRows = -1
RCSPrankOneCutsMemoryType = 2
CutTailingOffThreshold = 0.02
CutTailingOffCounterThreshold = 3
SafeDualBoundScaleFactor = -1
StrongBranchingPhaseOneCandidatesNumber = 100
StrongBranchingPhaseOneTreeSizeEstimRatio = 0.3
StrongBranchingPhaseTwoCandidatesNumber = 1
StrongBranchingPhaseTwoTreeSizeEstimRatio = 0.1
MaxTimeForRestrictedMasterIpHeur = -1
DivingHeurUseDepthLimit = 0
MaxLDSbreadth = 3
MaxLDSdepth = 2
New model incumbent solution 1e+06, TIME = 0h0m0s3t = 3
Model is built TIME = 0h0m1s75t = 175
************************************************************************************************
**** BaB tree root node
**** Local DB = -1e+12, global bounds : [ -1e+12 , 1e+06 ], TIME = 0h0m1s75t = 175
**** 1 open nodes, 0 columns (0 active), 0 dyn. constrs. (0 active), 242 art. vars. (242 active)
************************************************************************************************
<DWph=2> <it= 10> <et=2.22> <Mt= 0.00> <Spt= 0.46> <nCl=1000> <DB=-311094399.7665> <Mlp=51750033.3125> <PB=1000000> 
<DWph=2> <it= 20> <et=2.64> <Mt= 0.02> <Spt= 0.40> <nCl=1000> <DB=-216928486.2382> <Mlp=642270.0648> <PB=1000000> 
<DWph=2> <it= 30> <et=3.20> <Mt= 0.02> <Spt= 0.53> <nCl=655> <DB=   40.0000> <Mlp=   40.0000> <PB=1000000> 
<DWph=1> <it= 31> <et=3.28> <Mt= 0.01> <Spt= 0.08> <nCl=  0> <DB=   40.0000> <Mlp=   40.0000> <PB=1000000> 
<DWph=0> <it= 32> <et=3.33> <Mt= 0.00> <Spt= 0.04> <nCl=  0> <DB=   40.0000> <Mlp=   40.0000> <PB=1000000> 
Reduced cost fixing for graph G_1... took 0.42 sec., 138519 buck. arcs remain (46.5% from prev., 20.5% from max.)
Run enumeration... took 0.67 sec. and succeeded! Pricing will be done by inspection.
<DWph=2> <it= 33> <et=4.57> <Mt= 0.04> <Spt= 0.02> <nCl=  0> <DB=   40.0004> <Mlp=   40.0004> <PB=1000000> 
<DWph=1> <it= 34> <et=4.57> <Mt= 0.00> <Spt= 0.00> <nCl=  0> <DB=   40.0004> <Mlp=   40.0004> <PB=1000000> 
<DWph=0> <it= 36> <et=4.58> <Mt= 0.01> <Spt= 0.01> <nCl=100> <DB=   40.0000> <Mlp=   40.0000> <PB=1000000> 
ColGenEvalAlg final dual bound: 40 (rounded: 40)
----------- Diving heuristic started -----------
<DWph=2> <it=  1> <et=4.62> <Mt= 0.00> <Spt= 0.00> <nCl=  0> <DB=   40.0000> <Mlp=   40.0000> <PB=1000000> 
<DWph=1> <it=  2> <et=4.62> <Mt= 0.00> <Spt= 0.00> <nCl=  0> <DB=   40.0000> <Mlp=   40.0000> <PB=1000000> 
<DWph=0> <it=  3> <et=4.62> <Mt= 0.00> <Spt= 0.00> <nCl=  0> <DB=   40.0000> <Mlp=   40.0000> <PB=1000000> 
ColGenEvalAlg final dual bound: 40 (rounded: 40)
---- Diving heuristic node with dive number = 0, fix depth = 0 and tabu list size = 0
Fixed projected solution = [x_1_0_1_OspV=1, x_1_3_1_OspV=1, x_1_8_1_OspV=1, x_1_118_1_OspV=1]
<DWph=2> <it=  1> <et=4.67> <Mt= 0.01> <Spt= 0.00> <nCl=  0> <DB=   40.0000> <Mlp=   40.0000> <PB=1000000> 
<DWph=1> <it=  2> <et=4.67> <Mt= 0.00> <Spt= 0.00> <nCl=  0> <DB=   40.0000> <Mlp=   40.0000> <PB=1000000> 
<DWph=0> <it=  3> <et=4.67> <Mt= 0.00> <Spt= 0.00> <nCl=  0> <DB=   40.0000> <Mlp=   40.0000> <PB=1000000> 
ColGenEvalAlg final dual bound: 40 (rounded: 40)
---- Diving heuristic node with dive number = 0, fix depth = 0 and tabu list size = 0
Fixed projected solution = [x_1_0_1_OspV=1, x_1_4_1_OspV=1, x_1_9_1_OspV=1, x_1_119_1_OspV=1]
<DWph=2> <it=  1> <et=4.71> <Mt= 0.00> <Spt= 0.00> <nCl=  0> <DB=   40.0000> <Mlp=   40.0000> <PB=1000000> 
<DWph=1> <it=  2> <et=4.71> <Mt= 0.00> <Spt= 0.00> <nCl=  0> <DB=   40.0000> <Mlp=   40.0000> <PB=1000000> 
<DWph=0> <it=  3> <et=4.72> <Mt= 0.00> <Spt= 0.00> <nCl=  0> <DB=   40.0000> <Mlp=   40.0000> <PB=1000000> 
ColGenEvalAlg final dual bound: 40 (rounded: 40)
---- Diving heuristic node with dive number = 0, fix depth = 0 and tabu list size = 0
Fixed projected solution = [x_1_0_1_OspV=1, x_1_31_1_OspV=1, x_1_33_1_OspV=1, x_1_111_1_OspV=1]
<DWph=2> <it=  1> <et=4.76> <Mt= 0.00> <Spt= 0.00> <nCl=  0> <DB=   40.0000> <Mlp=   40.0000> <PB=1000000> 
<DWph=1> <it=  2> <et=4.76> <Mt= 0.00> <Spt= 0.00> <nCl=  0> <DB=   40.0000> <Mlp=   40.0000> <PB=1000000> 
<DWph=0> <it=  3> <et=4.76> <Mt= 0.00> <Spt= 0.00> <nCl=  0> <DB=   40.0000> <Mlp=   40.0000> <PB=1000000> 
ColGenEvalAlg final dual bound: 40 (rounded: 40)
---- Diving heuristic node with dive number = 0, fix depth = 0 and tabu list size = 0
Fixed projected solution = [x_1_0_1_OspV=1, x_1_63_1_OspV=1, x_1_69_1_OspV=1, x_1_78_1_OspV=1]
<DWph=2> <it=  1> <et=4.80> <Mt= 0.00> <Spt= 0.00> <nCl=  0> <DB=   40.0000> <Mlp=   40.0000> <PB=1000000> 
<DWph=1> <it=  2> <et=4.80> <Mt= 0.00> <Spt= 0.00> <nCl=  0> <DB=   40.0000> <Mlp=   40.0000> <PB=1000000> 
<DWph=0> <it=  3> <et=4.80> <Mt= 0.00> <Spt= 0.00> <nCl=  0> <DB=   40.0000> <Mlp=   40.0000> <PB=1000000> 
ColGenEvalAlg final dual bound: 40 (rounded: 40)
---- Diving heuristic node with dive number = 0, fix depth = 0 and tabu list size = 0
Fixed projected solution = [x_1_0_1_OspV=1, x_1_38_1_OspV=1, x_1_60_1_OspV=1, x_1_100_1_OspV=1]
<DWph=2> <it=  1> <et=4.85> <Mt= 0.00> <Spt= 0.00> <nCl=  0> <DB=   40.0000> <Mlp=   40.0000> <PB=1000000> 
<DWph=1> <it=  2> <et=4.85> <Mt= 0.00> <Spt= 0.00> <nCl=  0> <DB=   40.0000> <Mlp=   40.0000> <PB=1000000> 
<DWph=0> <it=  3> <et=4.85> <Mt= 0.00> <Spt= 0.00> <nCl=  0> <DB=   40.0000> <Mlp=   40.0000> <PB=1000000> 
ColGenEvalAlg final dual bound: 40 (rounded: 40)
---- Diving heuristic node with dive number = 0, fix depth = 1 and tabu list size = 0
Fixed projected solution = [x_1_0_1_OspV=1, x_1_2_1_OspV=1, x_1_10_1_OspV=1, x_1_120_1_OspV=1]
<DWph=2> <it=  1> <et=4.88> <Mt= 0.01> <Spt= 0.00> <nCl=  0> <DB=   40.0000> <Mlp=   40.0000> <PB=1000000> 
<DWph=1> <it=  2> <et=4.88> <Mt= 0.00> <Spt= 0.00> <nCl=  0> <DB=   40.0000> <Mlp=   40.0000> <PB=1000000> 
<DWph=0> <it=  3> <et=4.88> <Mt= 0.00> <Spt= 0.00> <nCl=  0> <DB=   40.0000> <Mlp=   40.0000> <PB=1000000> 
ColGenEvalAlg final dual bound: 40 (rounded: 40)
---- Diving heuristic node with dive number = 0, fix depth = 2 and tabu list size = 0
Fixed projected solution = [x_1_0_1_OspV=1, x_1_1_1_OspV=1, x_1_16_1_OspV=1, x_1_117_1_OspV=1]
<DWph=2> <it=  1> <et=4.92> <Mt= 0.00> <Spt= 0.00> <nCl=  0> <DB=   40.0000> <Mlp=   40.0000> <PB=1000000> 
<DWph=1> <it=  2> <et=4.92> <Mt= 0.00> <Spt= 0.00> <nCl=  0> <DB=   40.0000> <Mlp=   40.0000> <PB=1000000> 
<DWph=0> <it=  3> <et=4.92> <Mt= 0.00> <Spt= 0.00> <nCl=  0> <DB=   40.0000> <Mlp=   40.0000> <PB=1000000> 
ColGenEvalAlg final dual bound: 40 (rounded: 40)
---- Diving heuristic node with dive number = 0, fix depth = 3 and tabu list size = 0
Fixed projected solution = [x_1_0_1_OspV=1, x_1_27_1_OspV=1, x_1_35_1_OspV=1, x_1_112_1_OspV=1]
<DWph=2> <it=  1> <et=4.92> <Mt= 0.00> <Spt= 0.00> <nCl=  0> <DB=   40.0000> <Mlp=   40.0000> <PB=1000000> 
<DWph=1> <it=  2> <et=4.92> <Mt= 0.00> <Spt= 0.00> <nCl=  0> <DB=   40.0000> <Mlp=   40.0000> <PB=1000000> 
<DWph=0> <it=  3> <et=4.92> <Mt= 0.00> <Spt= 0.00> <nCl=  0> <DB=   40.0000> <Mlp=   40.0000> <PB=1000000> 
ColGenEvalAlg final dual bound: 40 (rounded: 40)
---- Diving heuristic node with dive number = 0, fix depth = 4 and tabu list size = 0
Fixed projected solution = [x_1_0_1_OspV=1, x_1_19_1_OspV=1, x_1_79_1_OspV=1, x_1_89_1_OspV=1]
<DWph=2> <it=  1> <et=4.92> <Mt= 0.00> <Spt= 0.00> <nCl=  0> <DB=   40.0000> <Mlp=   40.0000> <PB=1000000> 
<DWph=1> <it=  2> <et=4.92> <Mt= 0.00> <Spt= 0.00> <nCl=  0> <DB=   40.0000> <Mlp=   40.0000> <PB=1000000> 
<DWph=0> <it=  3> <et=4.92> <Mt= 0.00> <Spt= 0.00> <nCl=  0> <DB=   40.0000> <Mlp=   40.0000> <PB=1000000> 
ColGenEvalAlg final dual bound: 40 (rounded: 40)
---- Diving heuristic node with dive number = 0, fix depth = 5 and tabu list size = 0
Fixed projected solution = [x_1_0_1_OspV=1, x_1_28_1_OspV=1, x_1_48_1_OspV=1, x_1_109_1_OspV=1]
<DWph=2> <it=  1> <et=4.93> <Mt= 0.00> <Spt= 0.00> <nCl=  0> <DB=   40.0000> <Mlp=   40.0000> <PB=1000000> 
<DWph=1> <it=  2> <et=4.93> <Mt= 0.00> <Spt= 0.00> <nCl=  0> <DB=   40.0000> <Mlp=   40.0000> <PB=1000000> 
<DWph=0> <it=  3> <et=4.93> <Mt= 0.00> <Spt= 0.00> <nCl=  0> <DB=   40.0000> <Mlp=   40.0000> <PB=1000000> 
ColGenEvalAlg final dual bound: 40 (rounded: 40)
---- Diving heuristic node with dive number = 0, fix depth = 6 and tabu list size = 0
Fixed projected solution = [x_1_0_1_OspV=1, x_1_34_1_OspV=1, x_1_74_1_OspV=1, x_1_91_1_OspV=1]
<DWph=2> <it=  1> <et=4.93> <Mt= 0.01> <Spt= 0.00> <nCl=  0> <DB=   40.0000> <Mlp=   40.0000> <PB=1000000> 
<DWph=1> <it=  2> <et=4.93> <Mt= 0.00> <Spt= 0.00> <nCl=  0> <DB=   40.0000> <Mlp=   40.0000> <PB=1000000> 
<DWph=0> <it=  3> <et=4.93> <Mt= 0.00> <Spt= 0.00> <nCl=  0> <DB=   40.0000> <Mlp=   40.0000> <PB=1000000> 
ColGenEvalAlg final dual bound: 40 (rounded: 40)
---- Diving heuristic node with dive number = 0, fix depth = 7 and tabu list size = 0
Fixed projected solution = [x_1_0_1_OspV=1, x_1_5_1_OspV=1, x_1_32_1_OspV=1, x_1_113_1_OspV=1]
<DWph=2> <it=  1> <et=4.94> <Mt= 0.00> <Spt= 0.00> <nCl=  0> <DB=   40.0000> <Mlp=   40.0000> <PB=1000000> 
<DWph=1> <it=  2> <et=4.94> <Mt= 0.00> <Spt= 0.00> <nCl=  0> <DB=   40.0000> <Mlp=   40.0000> <PB=1000000> 
<DWph=0> <it=  3> <et=4.94> <Mt= 0.00> <Spt= 0.00> <nCl=  0> <DB=   40.0000> <Mlp=   40.0000> <PB=1000000> 
ColGenEvalAlg final dual bound: 40 (rounded: 40)
---- Diving heuristic node with dive number = 0, fix depth = 8 and tabu list size = 0
Fixed projected solution = [x_1_0_1_OspV=1, x_1_30_1_OspV=1, x_1_75_1_OspV=1, x_1_90_1_OspV=1]
<DWph=2> <it=  1> <et=4.95> <Mt= 0.00> <Spt= 0.00> <nCl=  0> <DB=   40.0000> <Mlp=   40.0000> <PB=1000000> 
<DWph=1> <it=  2> <et=4.95> <Mt= 0.00> <Spt= 0.00> <nCl=  0> <DB=   40.0000> <Mlp=   40.0000> <PB=1000000> 
<DWph=0> <it=  3> <et=4.95> <Mt= 0.01> <Spt= 0.00> <nCl=  0> <DB=   40.0000> <Mlp=   40.0000> <PB=1000000> 
ColGenEvalAlg final dual bound: 40 (rounded: 40)
---- Diving heuristic node with dive number = 0, fix depth = 9 and tabu list size = 0
Fixed projected solution = [x_1_0_1_OspV=1, x_1_12_1_OspV=1, x_1_76_1_OspV=1, x_1_92_1_OspV=1]
<DWph=2> <it=  1> <et=4.95> <Mt= 0.00> <Spt= 0.00> <nCl=  0> <DB=   40.0000> <Mlp=   40.0000> <PB=1000000> 
<DWph=1> <it=  2> <et=4.95> <Mt= 0.00> <Spt= 0.00> <nCl=  0> <DB=   40.0000> <Mlp=   40.0000> <PB=1000000> 
<DWph=0> <it=  3> <et=4.95> <Mt= 0.00> <Spt= 0.00> <nCl=  0> <DB=   40.0000> <Mlp=   40.0000> <PB=1000000> 
ColGenEvalAlg final dual bound: 40 (rounded: 40)
---- Diving heuristic node with dive number = 0, fix depth = 9 and tabu list size = 0
Fixed projected solution = [x_1_0_1_OspV=1, x_1_24_1_OspV=1, x_1_71_1_OspV=1, x_1_96_1_OspV=1]
<DWph=2> <it=  1> <et=4.95> <Mt= 0.00> <Spt= 0.00> <nCl=  0> <DB=   40.0000> <Mlp=   40.0000> <PB=1000000> 
<DWph=1> <it=  2> <et=4.95> <Mt= 0.00> <Spt= 0.00> <nCl=  0> <DB=   40.0000> <Mlp=   40.0000> <PB=1000000> 
<DWph=0> <it=  3> <et=4.95> <Mt= 0.00> <Spt= 0.00> <nCl=  0> <DB=   40.0000> <Mlp=   40.0000> <PB=1000000> 
ColGenEvalAlg final dual bound: 40 (rounded: 40)
---- Diving heuristic node with dive number = 0, fix depth = 9 and tabu list size = 0
Fixed projected solution = [x_1_0_1_OspV=1, x_1_42_1_OspV=1, x_1_72_1_OspV=1, x_1_88_1_OspV=1]
<DWph=2> <it=  1> <et=4.96> <Mt= 0.00> <Spt= 0.00> <nCl=  0> <DB=   40.0000> <Mlp=   40.0000> <PB=1000000> 
<DWph=1> <it=  2> <et=4.96> <Mt= 0.00> <Spt= 0.00> <nCl=  0> <DB=   40.0000> <Mlp=   40.0000> <PB=1000000> 
<DWph=0> <it=  3> <et=4.96> <Mt= 0.00> <Spt= 0.00> <nCl=  0> <DB=   40.0000> <Mlp=   40.0000> <PB=1000000> 
ColGenEvalAlg final dual bound: 40 (rounded: 40)
---- Diving heuristic node with dive number = 0, fix depth = 10 and tabu list size = 0
Fixed projected solution = [x_1_0_1_OspV=1, x_1_59_1_OspV=1, x_1_66_1_OspV=1, x_1_81_1_OspV=1]
<DWph=2> <it=  1> <et=4.96> <Mt= 0.00> <Spt= 0.00> <nCl=  0> <DB=   40.0000> <Mlp=   40.0000> <PB=40> 
New model incumbent solution 40, TIME = 0h0m4s98t = 498
************************************************************************************************
Search is finished, global bounds : [ 40 , 40 ], TIME = 0h0m4s99t = 499
************************************************************************************************
[32mBaPCod : solution defined.[00m
statistics_cols: instance & :Optimal & cutoff & :bcRecRootDb & :bcTimeRootEval & :bcCountNodeProc & :bcRecBestDb & :bcRecBestInc & :bcTimeMain \\
statistics: Falkenauer_t120_14 & 1 & 1.0e6 & 40.00 & 4.61 & 1 & 40.00 & 40 & 5.00 \\
########################################################
bin_id=1: 250(18) 254(2) 496(14) 
bin_id=2: 251(5) 253(1) 496(6) 
bin_id=3: 250(14) 256(2) 494(6) 
bin_id=4: 251(5) 253(2) 496(8) 
bin_id=5: 255(17) 259(7) 486(11) 
bin_id=6: 254(6) 260(4) 486(11) 
bin_id=7: 251(9) 265(15) 484(2) 
bin_id=8: 264(18) 266(15) 470(2) 
bin_id=9: 261(17) 289(4) 450(3) 
bin_id=10: 261(18) 294(16) 445(5) 
bin_id=11: 283(8) 287(6) 430(11) 
bin_id=12: 280(5) 316(9) 404(1) 
bin_id=13: 289(19) 329(16) 382(11) 
bin_id=14: 309(10) 328(8) 363(2) 
bin_id=15: 313(8) 331(18) 356(15) 
bin_id=16: 273(15) 309(17) 418(16) 
bin_id=17: 257(2) 357(1) 386(3) 
bin_id=18: 256(2) 332(15) 412(8) 
bin_id=19: 259(9) 336(15) 405(18) 
bin_id=20: 262(11) 350(8) 388(7) 
bin_id=21: 254(14) 373(6) 373(17) 
bin_id=22: 275(15) 282(15) 443(1) 
bin_id=23: 252(0) 306(4) 442(11) 
bin_id=24: 258(5) 298(12) 444(18) 
bin_id=25: 256(5) 311(18) 433(16) 
bin_id=26: 267(0) 343(6) 390(16) 
bin_id=27: 271(17) 313(5) 416(3) 
bin_id=28: 251(12) 365(13) 384(18) 
bin_id=29: 261(16) 269(2) 470(9) 
bin_id=30: 258(5) 340(5) 402(12) 
bin_id=31: 302(0) 329(17) 369(19) 
bin_id=32: 260(9) 319(13) 421(6) 
bin_id=33: 280(2) 336(18) 384(19) 
bin_id=34: 271(5) 276(14) 453(8) 
bin_id=35: 254(8) 350(13) 396(1) 
bin_id=36: 289(9) 353(11) 358(8) 
bin_id=37: 254(14) 257(13) 489(1) 
bin_id=38: 290(10) 305(0) 405(6) 
bin_id=39: 284(11) 302(3) 414(10) 
bin_id=40: 273(17) 309(9) 418(19) 
Objective value: 40.0
########################################################
